Date,Open,High,Low,Close,Volume,Dividends,Stock Splits
2020-01-02,1.3799999952316284,1.3799999952316284,1.3600000143051147,1.3700000047683716,8025500,0,0
2020-01-03,1.3799999952316284,1.4199999570846558,1.3700000047683716,1.409999966621399,35679010,0,0
2020-01-06,1.3899999856948853,1.399999976158142,1.3799999952316284,1.399999976158142,13369030,0,0
2020-01-07,1.399999976158142,1.4299999475479126,1.3899999856948853,1.4199999570846558,27453660,0,0
2020-01-08,1.409999966621399,1.4199999570846558,1.3799999952316284,1.3899999856948853,14875820,0,0
2020-01-09,1.399999976158142,1.4199999570846558,1.3899999856948853,1.409999966621399,21227660,0,0
2020-01-10,1.4199999570846558,1.4199999570846558,1.3899999856948853,1.409999966621399,15376900,0,0
2020-01-13,1.409999966621399,1.4199999570846558,1.409999966621399,1.4199999570846558,14136080,0,0
2020-01-14,1.4199999570846558,1.4700000286102295,1.409999966621399,1.4700000286102295,32075340,0,0
2020-01-15,1.4700000286102295,1.4800000190734863,1.4500000476837158,1.4600000381469727,21817480,0,0
2020-01-16,1.4700000286102295,1.4700000286102295,1.440000057220459,1.4500000476837158,17276650,0,0
2020-01-17,1.4600000381469727,1.4600000381469727,1.440000057220459,1.4600000381469727,23915920,0,0
2020-01-20,1.4600000381469727,1.4600000381469727,1.399999976158142,1.409999966621399,21951770,0,0
2020-01-21,1.399999976158142,1.399999976158142,1.309999942779541,1.309999942779541,38955750,0,0
2020-01-22,1.3200000524520874,1.3200000524520874,1.25,1.2999999523162842,30060340,0,0
2020-01-23,1.2999999523162842,1.2999999523162842,1.25,1.2699999809265137,35297620,0,0
2020-01-24,1.2699999809265137,1.2699999809265137,1.2599999904632568,1.2699999809265137,3520281,0,0
2020-01-29,1.2000000476837158,1.2000000476837158,1.149999976158142,1.149999976158142,30317040,0,0
2020-01-30,1.159999966621399,1.1699999570846558,1.1200000047683716,1.1299999952316284,21568260,0,0
2020-01-31,1.149999976158142,1.149999976158142,1.1100000143051147,1.1100000143051147,27950360,0,0
2020-02-03,1.100000023841858,1.100000023841858,1.0299999713897705,1.0399999618530273,50034420,0,0
2020-02-04,1.0499999523162842,1.1399999856948853,1.0499999523162842,1.1200000047683716,45462960,0,0
2020-02-05,1.1200000047683716,1.1399999856948853,1.090000033378601,1.1100000143051147,31165990,0,0
2020-02-06,1.1200000047683716,1.1399999856948853,1.100000023841858,1.1399999856948853,25123680,0,0
2020-02-07,1.149999976158142,1.159999966621399,1.1200000047683716,1.149999976158142,26417010,0,0
2020-02-10,1.1399999856948853,1.2100000381469727,1.1299999952316284,1.2000000476837158,31174930,0,0
2020-02-11,1.2000000476837158,1.2400000095367432,1.190000057220459,1.2100000381469727,26792370,0,0
2020-02-12,1.2200000286102295,1.2200000286102295,1.1799999475479126,1.2200000286102295,37519190,0,0
2020-02-13,1.2200000286102295,1.2200000286102295,1.1200000047683716,1.1399999856948853,120952000,0,0
2020-02-14,1.1399999856948853,1.149999976158142,1.1200000047683716,1.1399999856948853,31128430,0,0
2020-02-17,1.1399999856948853,1.159999966621399,1.1399999856948853,1.149999976158142,13653850,0,0
2020-02-18,1.1399999856948853,1.1699999570846558,1.1399999856948853,1.149999976158142,11474860,0,0
2020-02-19,1.159999966621399,1.159999966621399,1.1100000143051147,1.1200000047683716,48992100,0,0
2020-02-20,1.1299999952316284,1.1699999570846558,1.1200000047683716,1.159999966621399,45976780,0,0
2020-02-21,1.159999966621399,1.1799999475479126,1.159999966621399,1.1699999570846558,24420100,0,0
2020-02-24,1.159999966621399,1.1699999570846558,1.1200000047683716,1.1399999856948853,62642770,0,0
2020-02-25,1.1200000047683716,1.1399999856948853,1.100000023841858,1.1200000047683716,56654100,0,0
2020-02-26,1.1100000143051147,1.1200000047683716,1.100000023841858,1.100000023841858,25912080,0,0
2020-02-27,1.090000033378601,1.1200000047683716,1.090000033378601,1.1100000143051147,24490240,0,0
2020-02-28,1.100000023841858,1.1100000143051147,1.0499999523162842,1.0499999523162842,68331800,0,0
2020-03-02,1.0499999523162842,1.0700000524520874,1.0399999618530273,1.0399999618530273,61930320,0,0
2020-03-03,1.059999942779541,1.1200000047683716,1.0499999523162842,1.0499999523162842,62408420,0,0
2020-03-04,1.0499999523162842,1.090000033378601,1.0499999523162842,1.059999942779541,35138630,0,0
2020-03-05,1.0700000524520874,1.100000023841858,1.059999942779541,1.0800000429153442,46340640,0,0
2020-03-06,1.0800000429153442,1.100000023841858,1.0399999618530273,1.0399999618530273,67754660,0,0
2020-03-09,1.0399999618530273,1.0399999618530273,0.9800000190734863,0.9900000095367432,83321120,0,0
2020-03-10,0.9900000095367432,1.0499999523162842,0.9800000190734863,1.0199999809265137,52130180,0,0
2020-03-11,1.0299999713897705,1.0399999618530273,1.0099999904632568,1.0099999904632568,21857370,0,0
2020-03-12,1.0,1.0099999904632568,0.9700000286102295,0.9700000286102295,50416700,0,0
2020-03-13,0.9399999976158142,1.0,0.8999999761581421,0.949999988079071,87975700,0,0
2020-03-16,0.949999988079071,1.0099999904632568,0.9200000166893005,0.9200000166893005,39216440,0,0
2020-03-17,0.9200000166893005,0.949999988079071,0.9100000262260437,0.9200000166893005,44520160,0,0
2020-03-18,0.9200000166893005,0.9599999785423279,0.8899999856948853,0.8999999761581421,44695140,0,0
2020-03-19,0.8999999761581421,1.0,0.8999999761581421,0.9700000286102295,233015200,0,0
2020-03-20,0.9900000095367432,1.0800000429153442,0.9900000095367432,1.0099999904632568,178741600,0,0
2020-03-23,0.9800000190734863,1.059999942779541,0.9599999785423279,0.9900000095367432,42105190,0,0
2020-03-24,1.0099999904632568,1.0399999618530273,0.9900000095367432,1.0,29097550,0,0
2020-03-25,1.0299999713897705,1.059999942779541,1.0099999904632568,1.0199999809265137,33268410,0,0
2020-03-26,1.0299999713897705,1.0499999523162842,1.0099999904632568,1.0199999809265137,28190160,0,0
2020-03-27,1.0299999713897705,1.0399999618530273,1.0199999809265137,1.0299999713897705,21833550,0,0
2020-03-30,1.0099999904632568,1.0299999713897705,0.9800000190734863,0.9900000095367432,33074060,0,0
2020-03-31,1.0099999904632568,1.0199999809265137,0.9900000095367432,1.0,36064260,0,0
2020-04-01,0.9900000095367432,1.0199999809265137,0.9800000190734863,1.0,26634360,0,0
2020-04-02,0.9900000095367432,1.0199999809265137,0.9800000190734863,1.0,23702330,0,0
2020-04-03,0.9900000095367432,1.0,0.9800000190734863,0.9900000095367432,8566757,0,0
2020-04-06,0.9900000095367432,1.0,0.9200000166893005,0.9300000071525574,33559810,0,0
2020-04-07,0.949999988079071,0.9800000190734863,0.9399999976158142,0.9800000190734863,36573610,0,0
2020-04-08,0.9800000190734863,0.9800000190734863,0.9599999785423279,0.9800000190734863,21863710,0,0
2020-04-09,0.9900000095367432,1.0299999713897705,0.9800000190734863,1.0099999904632568,30863890,0,0
2020-04-14,1.0,1.0,0.9599999785423279,0.9599999785423279,37740850,0,0
2020-04-15,0.9599999785423279,0.9700000286102295,0.949999988079071,0.9599999785423279,18084160,0,0
2020-04-16,0.949999988079071,0.949999988079071,0.9200000166893005,0.9300000071525574,48223920,0,0
2020-04-17,0.949999988079071,0.9599999785423279,0.9399999976158142,0.949999988079071,27328040,0,0
2020-04-20,0.949999988079071,0.9599999785423279,0.9399999976158142,0.949999988079071,10563540,0,0
2020-04-21,0.9399999976158142,0.949999988079071,0.9300000071525574,0.9399999976158142,13823550,0,0
2020-04-22,0.9399999976158142,0.9599999785423279,0.9200000166893005,0.9399999976158142,21635090,0,0
2020-04-23,0.949999988079071,0.9599999785423279,0.9300000071525574,0.9399999976158142,17816170,0,0
2020-04-24,0.949999988079071,0.949999988079071,0.9300000071525574,0.9300000071525574,19403110,0,0
2020-04-27,0.9399999976158142,0.949999988079071,0.9300000071525574,0.9399999976158142,13933550,0,0
2020-04-28,0.949999988079071,0.9800000190734863,0.9399999976158142,0.9700000286102295,10800210,0,0
2020-04-29,0.9800000190734863,1.0399999618530273,0.9800000190734863,1.0399999618530273,48097170,0,0
2020-05-04,1.0499999523162842,1.0499999523162842,0.9599999785423279,0.9599999785423279,30512230,0,0
2020-05-05,0.9700000286102295,0.9800000190734863,0.9300000071525574,0.9399999976158142,36130400,0,0
2020-05-06,0.9399999976158142,1.0099999904632568,0.9399999976158142,1.0,46551580,0,0
2020-05-07,1.0099999904632568,1.0199999809265137,0.9700000286102295,0.9900000095367432,28473600,0,0
2020-05-08,1.0099999904632568,1.0199999809265137,0.9900000095367432,1.0,27572110,0,0
2020-05-11,1.0399999618530273,1.090000033378601,1.0299999713897705,1.0399999618530273,77882200,0,0
2020-05-12,1.0499999523162842,1.0499999523162842,1.0199999809265137,1.0199999809265137,37551680,0,0
2020-05-13,1.0199999809265137,1.0199999809265137,0.9800000190734863,1.0099999904632568,52153490,0,0
2020-05-14,1.0099999904632568,1.0499999523162842,0.9900000095367432,1.0499999523162842,66220630,0,0
2020-05-15,1.0499999523162842,1.0499999523162842,1.0199999809265137,1.0299999713897705,25090140,0,0
2020-05-18,1.0199999809265137,1.0299999713897705,1.0099999904632568,1.0199999809265137,29503570,0,0
2020-05-19,1.0399999618530273,1.0399999618530273,1.0099999904632568,1.0199999809265137,33113430,0,0
2020-05-20,1.0199999809265137,1.0299999713897705,1.0099999904632568,1.0299999713897705,26209840,0,0
2020-05-21,1.0299999713897705,1.0299999713897705,1.0099999904632568,1.0199999809265137,29245750,0,0
2020-05-22,1.0,1.0099999904632568,0.949999988079071,0.949999988079071,68283000,0,0
2020-05-25,0.949999988079071,0.949999988079071,0.9300000071525574,0.949999988079071,26715040,0,0
2020-05-26,0.9599999785423279,0.9700000286102295,0.949999988079071,0.949999988079071,29813510,0,0
2020-05-27,0.9599999785423279,0.9700000286102295,0.949999988079071,0.9599999785423279,16891690,0,0
2020-05-28,0.9599999785423279,0.9599999785423279,0.9300000071525574,0.9399999976158142,35902010,0,0
2020-05-29,0.9300000071525574,0.9599999785423279,0.9200000166893005,0.9399999976158142,197247900,0,0
2020-06-01,0.9700000286102295,0.9900000095367432,0.949999988079071,0.9900000095367432,90277150,0,0
2020-06-02,1.0299999713897705,1.0299999713897705,0.9800000190734863,1.0,40598000,0,0
2020-06-03,1.0199999809265137,1.0700000524520874,1.0,1.0499999523162842,49365130,0,0
2020-06-04,1.0700000524520874,1.0800000429153442,1.0299999713897705,1.0499999523162842,38270120,0,0
2020-06-05,1.0499999523162842,1.090000033378601,1.0199999809265137,1.0700000524520874,83320040,0,0
2020-06-08,1.059999942779541,1.1200000047683716,1.0499999523162842,1.1200000047683716,103000700,0,0
2020-06-09,1.1399999856948853,1.149999976158142,1.090000033378601,1.100000023841858,81030000,0,0
2020-06-10,1.1100000143051147,1.1299999952316284,1.0800000429153442,1.1200000047683716,56495920,0,0
2020-06-11,1.1200000047683716,1.1299999952316284,1.059999942779541,1.0800000429153442,66838130,0,0
2020-06-12,1.0399999618530273,1.0800000429153442,1.0299999713897705,1.059999942779541,56599330,0,0
2020-06-15,1.0499999523162842,1.059999942779541,0.9900000095367432,0.9900000095367432,80340020,0,0
2020-06-16,1.0099999904632568,1.0199999809265137,1.0,1.0099999904632568,23586720,0,0
2020-06-17,1.0099999904632568,1.0199999809265137,0.9800000190734863,1.0099999904632568,49642800,0,0
2020-06-18,1.0,1.0199999809265137,1.0,1.0,20842620,0,0
2020-06-19,1.0099999904632568,1.100000023841858,1.0,1.090000033378601,111925307,0,0
2020-06-22,1.090000033378601,1.090000033378601,1.0399999618530273,1.0399999618530273,35401930,0,0
2020-06-23,1.0499999523162842,1.100000023841858,1.0199999809265137,1.0800000429153442,43668990,0,0
2020-06-24,1.090000033378601,1.1100000143051147,1.0800000429153442,1.100000023841858,53677280,0,0
2020-06-26,1.090000033378601,1.100000023841858,1.059999942779541,1.0800000429153442,37760100,0,0
2020-06-29,1.0700000524520874,1.0800000429153442,1.0199999809265137,1.0499999523162842,44333200,0,0
2020-06-30,1.059999942779541,1.0700000524520874,1.0299999713897705,1.0299999713897705,37613120,0,0
2020-07-02,1.0299999713897705,1.0800000429153442,1.0299999713897705,1.0800000429153442,76439650,0,0
2020-07-03,1.0800000429153442,1.090000033378601,1.0399999618530273,1.059999942779541,71506060,0,0
2020-07-06,1.0700000524520874,1.1200000047683716,1.0,1.0800000429153442,140360800,0,0
2020-07-07,1.090000033378601,1.1100000143051147,1.059999942779541,1.090000033378601,79564690,0,0
2020-07-08,1.100000023841858,1.100000023841858,1.059999942779541,1.090000033378601,79477210,0,0
2020-07-09,1.090000033378601,1.2100000381469727,1.0700000524520874,1.190000057220459,351056900,0,0
2020-07-10,1.1799999475479126,1.25,1.1299999952316284,1.1399999856948853,259810800,0,0
2020-07-13,1.149999976158142,1.2000000476837158,1.1299999952316284,1.159999966621399,88294020,0,0
2020-07-14,1.1399999856948853,1.25,1.1299999952316284,1.1699999570846558,206863900,0,0
2020-07-15,1.190000057220459,1.2000000476837158,1.1299999952316284,1.1699999570846558,77785320,0,0
2020-07-16,1.159999966621399,1.2400000095367432,1.059999942779541,1.0800000429153442,303992700,0,0
2020-07-17,1.100000023841858,1.1699999570846558,1.0700000524520874,1.159999966621399,120760100,0,0
2020-07-20,1.190000057220459,1.2100000381469727,1.149999976158142,1.190000057220459,97748700,0,0
2020-07-21,1.2300000190734863,1.2400000095367432,1.190000057220459,1.2100000381469727,94919530,0,0
2020-07-22,1.2100000381469727,1.2100000381469727,1.1299999952316284,1.149999976158142,88762950,0,0
2020-07-23,1.159999966621399,1.1699999570846558,1.1200000047683716,1.1399999856948853,53503850,0,0
2020-07-24,1.1299999952316284,1.1399999856948853,1.0800000429153442,1.1100000143051147,59014490,0,0
2020-07-27,1.1200000047683716,1.1399999856948853,1.100000023841858,1.100000023841858,36278160,0,0
2020-07-28,1.1200000047683716,1.1299999952316284,1.100000023841858,1.1100000143051147,20515350,0,0
2020-07-29,1.1200000047683716,1.1200000047683716,1.0800000429153442,1.100000023841858,42940750,0,0
2020-07-30,1.1100000143051147,1.1200000047683716,1.090000033378601,1.100000023841858,22292030,0,0
2020-07-31,1.100000023841858,1.1100000143051147,1.0800000429153442,1.0800000429153442,39788300,0,0
2020-08-03,1.090000033378601,1.1299999952316284,1.090000033378601,1.1100000143051147,51265000,0,0
2020-08-04,1.1200000047683716,1.159999966621399,1.1100000143051147,1.149999976158142,60812470,0,0
2020-08-05,1.159999966621399,1.159999966621399,1.1200000047683716,1.1200000047683716,23952960,0,0
2020-08-06,1.1299999952316284,1.1299999952316284,1.100000023841858,1.1200000047683716,27375910,0,0
2020-08-07,1.1299999952316284,1.1299999952316284,1.0700000524520874,1.090000033378601,55875510,0,0
2020-08-10,1.090000033378601,1.1200000047683716,1.059999942779541,1.090000033378601,50681550,0,0
2020-08-11,1.100000023841858,1.1200000047683716,1.0800000429153442,1.090000033378601,44802700,0,0
2020-08-12,1.090000033378601,1.100000023841858,1.059999942779541,1.100000023841858,37710040,0,0
2020-08-13,1.1100000143051147,1.149999976158142,1.090000033378601,1.1399999856948853,59577210,0,0
2020-08-14,1.1399999856948853,1.159999966621399,1.1200000047683716,1.1299999952316284,40028830,0,0
2020-08-17,1.1299999952316284,1.149999976158142,1.1299999952316284,1.1299999952316284,34394170,0,0
2020-08-18,1.1399999856948853,1.149999976158142,1.1200000047683716,1.1399999856948853,40487520,0,0
2020-08-19,1.1399999856948853,1.149999976158142,1.100000023841858,1.100000023841858,26600620,0,0
2020-08-20,1.100000023841858,1.100000023841858,1.0800000429153442,1.100000023841858,15153670,0,0
2020-08-21,1.1100000143051147,1.1200000047683716,1.090000033378601,1.1100000143051147,19724840,0,0
2020-08-24,1.1200000047683716,1.159999966621399,1.1100000143051147,1.149999976158142,58428710,0,0
2020-08-25,1.159999966621399,1.1699999570846558,1.1299999952316284,1.1399999856948853,29080100,0,0
2020-08-26,1.149999976158142,1.159999966621399,1.1299999952316284,1.1299999952316284,22185320,0,0
2020-08-27,1.1399999856948853,1.1399999856948853,1.1100000143051147,1.1200000047683716,25279170,0,0
2020-08-28,1.1299999952316284,1.159999966621399,1.1200000047683716,1.1299999952316284,41430600,0,0
2020-08-31,1.1399999856948853,1.159999966621399,1.100000023841858,1.100000023841858,73910250,0,0
2020-09-01,1.100000023841858,1.1399999856948853,1.100000023841858,1.1299999952316284,28088950,0,0
2020-09-02,1.1399999856948853,1.2400000095367432,1.1200000047683716,1.2100000381469727,198380800,0,0
2020-09-03,1.2300000190734863,1.2699999809265137,1.1699999570846558,1.190000057220459,162625900,0,0
2020-09-04,1.149999976158142,1.2000000476837158,1.149999976158142,1.190000057220459,54486510,0,0
2020-09-07,1.1799999475479126,1.190000057220459,1.1299999952316284,1.149999976158142,43119940,0,0
2020-09-08,1.149999976158142,1.149999976158142,1.1200000047683716,1.149999976158142,32517730,0,0
2020-09-09,1.1399999856948853,1.149999976158142,1.1200000047683716,1.1299999952316284,21325380,0,0
2020-09-10,1.1399999856948853,1.1399999856948853,1.100000023841858,1.100000023841858,34634740,0,0
2020-09-11,1.1100000143051147,1.1299999952316284,1.100000023841858,1.1200000047683716,36212810,0,0
2020-09-14,1.1299999952316284,1.149999976158142,1.1200000047683716,1.1399999856948853,19306060,0,0
2020-09-15,1.1399999856948853,1.149999976158142,1.100000023841858,1.1200000047683716,30519410,0,0
2020-09-16,1.1200000047683716,1.1799999475479126,1.1200000047683716,1.1799999475479126,54788000,0,0
2020-09-17,1.1699999570846558,1.1799999475479126,1.149999976158142,1.1699999570846558,21734640,0,0
2020-09-18,1.1799999475479126,1.2100000381469727,1.1699999570846558,1.190000057220459,64442230,0,0
2020-09-21,1.2000000476837158,1.2000000476837158,1.149999976158142,1.1799999475479126,29463820,0,0
2020-09-22,1.1799999475479126,1.1799999475479126,1.159999966621399,1.1699999570846558,19491500,0,0
2020-09-23,1.1799999475479126,1.190000057220459,1.1699999570846558,1.1799999475479126,15334160,0,0
2020-09-24,1.1699999570846558,1.1699999570846558,1.1299999952316284,1.149999976158142,27450000,0,0
2020-09-25,1.149999976158142,1.149999976158142,1.1100000143051147,1.1200000047683716,27305000,0,0
2020-09-28,1.1299999952316284,1.1399999856948853,1.1200000047683716,1.1299999952316284,17360040,0,0
2020-09-29,1.1399999856948853,1.149999976158142,1.1200000047683716,1.1200000047683716,22226000,0,0
2020-09-30,1.1299999952316284,1.149999976158142,1.1299999952316284,1.149999976158142,8870020,0,0
2020-10-05,1.159999966621399,1.1799999475479126,1.149999976158142,1.1699999570846558,11620000,0,0
2020-10-06,1.1799999475479126,1.2000000476837158,1.1699999570846558,1.1799999475479126,20860020,0,0
2020-10-07,1.1799999475479126,1.2000000476837158,1.1699999570846558,1.190000057220459,17496740,0,0
2020-10-08,1.2000000476837158,1.2000000476837158,1.1799999475479126,1.190000057220459,11462300,0,0
2020-10-09,1.190000057220459,1.190000057220459,1.1399999856948853,1.149999976158142,26421390,0,0
2020-10-12,1.159999966621399,1.2000000476837158,1.149999976158142,1.190000057220459,55947890,0,0
2020-10-14,1.190000057220459,1.190000057220459,1.149999976158142,1.1799999475479126,42080210,0,0
2020-10-15,1.1699999570846558,1.1699999570846558,1.1399999856948853,1.1399999856948853,25544860,0,0
2020-10-16,1.149999976158142,1.159999966621399,1.1299999952316284,1.1399999856948853,18683060,0,0
2020-10-19,1.149999976158142,1.149999976158142,1.1299999952316284,1.1299999952316284,17900000,0,0
2020-10-20,1.1200000047683716,1.1399999856948853,1.1200000047683716,1.1299999952316284,19875320,0,0
2020-10-21,1.1200000047683716,1.1399999856948853,1.1200000047683716,1.1299999952316284,24853550,0,0
2020-10-22,1.1299999952316284,1.1399999856948853,1.100000023841858,1.1100000143051147,45355000,0,0
2020-10-23,1.1200000047683716,1.1399999856948853,1.100000023841858,1.1299999952316284,35140020,0,0
2020-10-27,1.1299999952316284,1.1299999952316284,1.100000023841858,1.100000023841858,29209580,0,0
2020-10-28,1.1100000143051147,1.1100000143051147,1.0800000429153442,1.100000023841858,38343600,0,0
2020-10-29,1.090000033378601,1.090000033378601,1.059999942779541,1.059999942779541,26881600,0,0
2020-10-30,1.059999942779541,1.059999942779541,1.0,1.0099999904632568,76557800,0,0
2020-11-02,1.0099999904632568,1.0499999523162842,1.0,1.0399999618530273,17951580,0,0
2020-11-03,1.0399999618530273,1.0700000524520874,1.0199999809265137,1.0199999809265137,36264010,0,0
2020-11-04,1.0099999904632568,1.0299999713897705,0.9700000286102295,1.0199999809265137,34670630,0,0
2020-11-05,1.0299999713897705,1.059999942779541,1.0299999713897705,1.059999942779541,38920280,0,0
2020-11-06,1.059999942779541,1.0800000429153442,1.0499999523162842,1.0800000429153442,26692760,0,0
2020-11-09,1.100000023841858,1.100000023841858,1.0800000429153442,1.090000033378601,30531400,0,0
2020-11-10,1.1200000047683716,1.1399999856948853,1.090000033378601,1.1100000143051147,44227490,0,0
2020-11-11,1.100000023841858,1.100000023841858,1.0199999809265137,1.0399999618530273,52482820,0,0
2020-11-12,1.0499999523162842,1.059999942779541,1.0,1.0199999809265137,62287960,0,0
2020-11-13,1.0199999809265137,1.0399999618530273,1.0099999904632568,1.0299999713897705,22547720,0,0
2020-11-16,1.0399999618530273,1.0399999618530273,1.0099999904632568,1.0199999809265137,29864920,0,0
2020-11-17,1.0199999809265137,1.0299999713897705,1.0099999904632568,1.0299999713897705,16020000,0,0
2020-11-18,1.0299999713897705,1.0399999618530273,1.0099999904632568,1.0299999713897705,19139020,0,0
2020-11-19,1.0199999809265137,1.0299999713897705,1.0099999904632568,1.0199999809265137,26095650,0,0
2020-11-20,1.0199999809265137,1.0399999618530273,1.0199999809265137,1.0399999618530273,19953530,0,0
2020-11-23,1.0399999618530273,1.0499999523162842,1.0099999904632568,1.0199999809265137,40342020,0,0
2020-11-24,1.0199999809265137,1.0299999713897705,1.0099999904632568,1.0299999713897705,18683880,0,0
2020-11-25,1.0299999713897705,1.0299999713897705,1.0099999904632568,1.0099999904632568,22512440,0,0
2020-11-26,1.0199999809265137,1.0299999713897705,1.0,1.0299999713897705,23341470,0,0
2020-11-27,1.0299999713897705,1.0499999523162842,1.0199999809265137,1.0199999809265137,24271110,0,0
2020-11-30,1.0199999809265137,1.0499999523162842,1.0199999809265137,1.0399999618530273,77102130,0,0
2020-12-01,1.0299999713897705,1.0399999618530273,1.0199999809265137,1.0399999618530273,21757680,0,0
2020-12-02,1.0399999618530273,1.0399999618530273,1.0099999904632568,1.0199999809265137,28230000,0,0
2020-12-03,1.0199999809265137,1.0199999809265137,1.0,1.0099999904632568,36610510,0,0
2020-12-04,1.0199999809265137,1.0199999809265137,1.0,1.0,34000000,0,0
2020-12-07,1.0,1.0,0.9900000095367432,0.9900000095367432,9830000,0,0
