Date,Open,High,Low,Close,Volume,Dividends,Stock Splits
2020-01-02,3.5195386780009663,3.5863049296771496,3.490924570139745,3.5386147499084473,1914000,0.0,0
2020-01-03,3.538614649482355,3.605380899263708,3.5100005424332035,3.5481526851654053,2161400,0.0,0
2020-01-06,3.529076777972517,3.5576908863528014,3.4527722615537066,3.510000705718994,2206687,0.0,0
2020-01-07,3.510000742199702,3.567228959555064,3.490924669747914,3.5290768146514893,738300,0.0,0
2020-01-08,3.5290766392993653,3.5672287823072435,3.4718484247875483,3.500462532043457,2475800,0.0,0
2020-01-09,3.519538750866195,3.576766967773437,3.519538750866195,3.5767669677734375,1604698,0.0,0
2020-01-10,3.5576907696414426,3.6530711277800694,3.5576907696414426,3.6339950561523438,2202716,0.0,0
2020-01-13,3.6626091351089882,3.8056798986089455,3.6626091351089882,3.7961418628692627,4158333,0.0,0
2020-01-14,3.8056799359684415,3.834294043468389,3.73891368513523,3.815217971801758,3528400,0.0,0
2020-01-15,3.8056800458384887,3.881984562112641,3.777065937512451,3.872446298599243,3077800,0.0,0
2020-01-16,3.824756383895874,3.872446337513792,3.7866040116730426,3.824756383895874,3873887,0.0,0
2020-01-17,3.815218081947168,3.872446298599243,3.815218081947168,3.872446298599243,2419879,0.0,0
2020-01-20,3.872446374309116,3.910598519489742,3.7866040476527076,3.843832492828369,3088065,0.0,0
2020-01-21,3.815218025226641,3.8629084324657463,3.672147258318756,3.7198376655578613,3563175,0.0,0
2020-01-22,3.719837868015947,3.7389139409879486,3.60538120277921,3.7007617950439453,1840801,0.0,0
2020-01-23,3.6721474037054604,3.7866040672442502,3.595843112949417,3.6149191856384277,2490172,0.0,0
2020-01-24,3.6149192392652107,3.7102998315299462,3.5958431662932093,3.7007617950439453,625000,0.0,0
2020-01-29,3.6435332208318867,3.6626092931343006,3.548152859319816,3.5767669677734375,1503000,0.0,0
2020-01-30,3.5672288523258118,3.614919032021736,3.357391834259033,3.357391834259033,1519700,0.0,0
2020-01-31,3.3669299714541316,3.4241581888103023,3.300163717871933,3.347853899002075,874000,0.0,0
2020-02-03,3.33831581677184,3.33831581677184,3.1952450479483026,3.2620115280151367,2249520,0.0,0
2020-02-04,3.3001634589290516,3.433695955616002,3.290625423451412,3.3955438137054443,1949036,0.0,0
2020-02-05,3.4146199348764257,3.5100005184601977,3.290625471843641,3.300163507461548,3000000,0.0,0
2020-02-06,3.347853772192494,3.4336960949752253,3.338315736327746,3.4050819873809814,3614797,0.0,0
2020-02-07,3.777066008435352,4.292120422784769,3.710299754420911,3.9105985164642334,20572030,0.0,0
2020-02-10,3.910598428071336,4.215816037190692,3.8533702116382256,4.168125629425049,10098400,0.0,0
2020-02-11,4.244429713616308,4.253967976633906,3.9869025246635563,4.187201499938965,9462962,0.0,0
2020-02-12,4.253968013584467,4.311196227758902,4.110897250743669,4.139511585235596,8524573,0.0,0
2020-02-13,4.168125702333941,4.234892183411834,4.053669267465648,4.206277847290039,6185483,0.0,0
2020-02-14,4.225353845858159,4.234892109335061,4.129973485136309,4.168125629425049,3064792,0.0,0
2020-02-17,4.101359406827656,4.244429713616308,4.101359406827656,4.187201499938965,5700630,0.0,0
2020-02-18,4.187201886553372,4.244430105514734,4.120435858503177,4.19674015045166,6004094,0.0,0
2020-02-19,4.187201499938965,4.320734453328845,4.158587620505,4.187201499938965,6189950,0.0,0
2020-02-20,4.253968328962619,4.2825822107664875,4.044131073290149,4.244430065155029,12158530,0.0,0
2020-02-21,4.215816076329011,4.215816076329011,4.1013596424002134,4.12043571472168,3886800,0.0,0
2020-02-24,4.129973246529291,4.129973246529291,4.01551682027573,4.1013593673706055,3104666,0.0,0
2020-02-25,4.005978717425925,4.168125555169111,4.005978717425925,4.129973411560059,4051412,0.0,0
2020-02-26,4.044131098608166,4.129973654176084,4.015517216625163,4.063207626342773,1825000,0.0,0
2020-02-27,4.063207569299935,4.187201814167967,4.025054969175794,4.15858793258667,2885521,0.0,0
2020-02-28,4.0345929651777555,4.149049393526626,4.0345929651777555,4.139511585235596,4606446,0.0,0
2020-03-02,4.1395120903103075,4.263506342079133,4.1395120903103075,4.225354194641113,5549380,0.0,0
2020-03-03,4.206277571164746,4.311196190311248,4.129973286261621,4.187201499938965,4232833,0.0,0
2020-03-04,4.177663966285711,4.177663966285711,4.025054931640625,4.025054931640625,4273000,0.0,0
2020-03-05,4.02505484188441,4.101359584910127,3.9964409612080205,4.034593105316162,2583000,0.0,0
2020-03-06,3.977364793369545,4.015516936558892,3.8724461721941283,3.9296743869781494,3531350,0.0,0
2020-03-09,3.75799001395995,3.777066086931952,3.60538120277921,3.7007617950439453,4859000,0.0,0
2020-03-10,3.7102997220368206,3.910598482331903,3.6149191325868224,3.824756383895874,4336326,0.0,0
2020-03-11,3.8629086017608643,3.9964411111493274,3.8247564562213037,3.8629086017608643,2809069,0.0,0
2020-03-12,3.8056797834518226,3.8438321526608017,3.576766705221461,3.6244568824768066,2957278,0.0,0
2020-03-13,3.4527720265712807,3.471848324931263,3.2429352460632157,3.3955438137054443,9207984,0.0,0
2020-03-16,3.3478537765533836,3.405081991816416,3.166630867482401,3.2238593101501465,3621000,0.0,0
2020-03-17,3.2047830911139625,3.2429354629812126,3.004484332685674,3.147554874420166,4082000,0.0,0
2020-03-18,3.128478906737318,3.2429355713545767,2.956794023513794,2.956794023513794,4325000,0.0,0
2020-03-19,2.9186417590802063,2.9949462748567823,2.7278808107458423,2.8327994346618652,5920740,0.0,0
2020-03-20,2.928179772413537,3.0617125034332275,2.870951556578548,3.0617125034332275,4158000,0.0,0
2020-03-23,2.8804895247294953,2.9949461811092903,2.8327993459898764,2.9091036319732666,3942000,0.0,0
2020-03-24,2.994946287582628,3.109402720626754,2.956793915829868,3.0807886123657227,4297000,0.0,0
2020-03-25,3.1570929832789547,3.2620116103730834,3.05217458358955,3.1857070922851562,3025000,0.0,0
2020-03-26,3.185706738730214,3.204782809283921,3.099864421238531,3.128478527069092,2645964,0.0,0
2020-03-27,3.233397383096122,3.2906255990152387,3.1952450117453286,3.2429354190826416,4824266,0.0,0
2020-03-30,3.2333972324637514,3.2333972324637514,2.9854080809624537,3.0521743297576904,6162000,0.0,0
2020-03-31,3.1189407936984446,3.128478829898558,3.071250612697878,3.0998647212982178,2433000,0.0,0
2020-04-01,3.080788515076277,3.099864586647887,2.966331858241905,2.97586989402771,3772000,0.0,0
2020-04-02,3.004484451004322,3.0712507064430525,2.9567940411433584,3.0235605239868164,1381000,0.0,0
2020-04-03,3.0044844150543213,3.0521745969399228,3.0044844150543213,3.0044844150543213,1025000,0.0,0
2020-04-06,3.014022286931082,3.0712505020703826,2.9663318802436196,3.0426363945007324,1278400,0.0,0
2020-04-07,3.080788657317054,3.1952450920311968,3.080788657317054,3.166630983352661,4469566,0.0,0
2020-04-08,3.1475549825577187,3.271549683725632,3.128478909671075,3.2047832012176514,2915000,0.0,0
2020-04-09,3.271549500386975,3.3001636081133974,3.242935392660552,3.29062557220459,3721628,0.0,0
2020-04-14,3.300163421810076,3.3955437755136675,3.290625386439717,3.376467704772949,2993443,0.0,0
2020-04-15,3.4146200390190877,3.433696110836703,3.2620114644781673,3.29062557220459,3305600,0.0,0
2020-04-16,3.2810874233088922,3.29062545888925,3.1952448756809684,3.2333972454071045,4634000,0.0,0
2020-04-17,3.3001635327952252,3.3669297826331017,3.2524733543395996,3.2524733543395996,4348000,0.0,0
2020-04-20,3.271549387728535,3.271549387728535,3.1952448756809684,3.2333972454071045,2339000,0.0,0
2020-04-21,3.271549522232904,3.3192397020953948,3.0235603595432345,3.0617125034332275,5203094,0.0,0
2020-04-22,3.0426365605628023,3.0712506696941633,2.909103823878393,3.0044844150543213,4944000,0.0,0
2020-04-23,3.0235605239868164,3.052174633460558,2.975870114125853,3.0235605239868164,1779000,0.0,0
2020-04-24,3.0235601598114537,3.0235601598114537,2.937717614324882,2.966331720352173,1370000,0.0,0
2020-04-27,2.9949462571941323,2.9949462571941323,2.928179777857793,2.947255849838257,2693000,0.0,0
2020-04-28,3.0044844150543213,3.0044844150543213,2.9186418602555135,3.0044844150543213,741715,0.0,0
2020-04-29,3.0426364584826397,3.0426364584826397,2.9854082421399193,3.0140223503112793,898714,0.0,0
2020-05-04,2.9854081835296773,2.9854081835296773,2.9091036691660275,2.9281797409057617,1788000,0.0,0
2020-05-05,2.966332042141115,3.0140224514314413,2.9567940057639945,3.0044844150543213,1044990,0.0,0
2020-05-06,3.0044842510745324,3.0712505020703826,2.97586991610017,3.0426363945007324,3124000,0.0,0
2020-05-07,3.0521745315895754,3.061712567762476,3.0044843507250723,3.0330984592437744,1345000,0.0,0
2020-05-08,3.033098369431399,3.1094026565551762,3.033098369431399,3.109402656555176,3079132,0.0,0
2020-05-11,3.1189406293495927,3.2143209863247724,3.099864557954557,3.138016700744629,2154000,0.0,0
2020-05-12,3.147554597622799,3.1666306681765066,3.090326385961677,3.128478527069092,1780000,0.0,0
2020-05-13,3.147554939166211,3.147554939166211,3.0807886849833817,3.118940830230713,1627000,0.0,0
2020-05-14,3.0807885445878522,3.2524734177816628,3.052174436956336,3.2238593101501465,4499000,0.0,0
2020-05-15,3.2429354649760795,3.38600600679858,3.1761689847208605,3.32877779006958,5370666,0.0,0
2020-05-18,3.3287776012106804,3.3287776012106804,3.2047829112613258,3.2333972454071045,2952000,0.0,0
2020-05-19,3.33831582619108,3.3573918984340803,3.2620115372190797,3.32877779006958,3422050,0.0,0
2020-05-20,3.32877771583982,3.32877771583982,3.223859320842937,3.29062557220459,2905000,0.0,0
2020-05-21,3.300163717871933,3.395544080132217,3.2906256816459045,3.347853899002075,3828936,0.0,0
2020-05-22,3.3383159388288863,3.3383159388288863,3.195245164774329,3.2047832012176514,5287000,0.0,0
2020-05-25,3.1952448756809684,3.242935280987462,3.176168804520253,3.2333972454071045,1768933,0.0,0
2020-05-26,3.2620115645448324,3.3287778179546312,3.2620115645448324,3.281087636947632,2499000,0.0,0
2020-05-27,3.3097016330446953,3.3192396689218673,3.2238593101501465,3.2238593101501465,1504000,0.0,0
2020-05-28,3.223859160896326,3.271549338074292,3.1570926854424717,3.2143208980560303,2043900,0.0,0
2020-05-29,3.17616870345336,3.233397142519181,3.128478527069092,3.128478527069092,3774392,0.0,0
2020-06-01,3.1666308826866514,3.242935397475109,3.1475548108407154,3.176168918609619,2739000,0.0,0
2020-06-02,3.204782840701784,3.3860057401433084,3.204782840701784,3.376467704772949,4411333,0.0,0
2020-06-03,3.386005931292665,3.4241580749278953,3.271549500386975,3.29062557220459,3158400,0.0,0
2020-06-04,3.3097016545631095,3.405082013954957,3.29062558268474,3.357391834259033,3326866,0.0,0
2020-06-05,3.3927949922798732,3.3927949922798732,3.3042871479945872,3.3632924556732178,2381475,0.106,0
2020-06-08,3.3534582598982787,3.451800048091353,3.3436240810789712,3.382960796356201,3912000,0.0,0
2020-06-09,3.363292531142193,3.4321317847690747,3.363292531142193,3.412463426589966,2940255,0.0,0
2020-06-10,3.3927948802996575,3.412463237388268,3.3436239875781313,3.3534581661224365,2528000,0.0,0
2020-06-11,3.363292438717586,3.402629153994816,3.333789902259664,3.382960796356201,2639600,0.0,0
2020-06-12,3.2747846581775053,3.3141213742150826,3.205945405111745,3.3042871952056885,1641000,0.0,0
2020-06-15,3.2649503080308606,3.2944528435126244,3.225613594055176,3.225613594055176,1411317,0.0,0
2020-06-16,3.3436240335173233,3.3436240335173233,3.2747845482960667,3.2944529056549072,1757333,0.0,0
2020-06-17,3.294452860391294,3.3534581661224365,3.264950324758378,3.3534581661224365,2708600,0.0,0
2020-06-18,3.3927950859069824,3.4714685190291257,3.3534583693459106,3.3927950859069824,5986877,0.0,0
2020-06-19,3.392795009585466,3.412463367423559,3.3436241149902344,3.3436241149902344,3213000,0.0,0
2020-06-22,3.3534581661224365,3.4026290588439627,3.333789809033826,3.3534581661224365,2433800,0.0,0
2020-06-23,3.353458276804332,3.3927949922798732,3.264950432519046,3.3632924556732178,2412000,0.0,0
2020-06-24,3.3927949751755087,3.3927949751755087,3.3141213101557314,3.382960796356201,1090600,0.0,0
2020-06-26,3.382960848126057,3.392795027095858,3.323955774307251,3.323955774307251,1300000,0.0,0
2020-06-29,3.3436240505437254,3.3632924080027213,3.2354478500539323,3.274784564971924,2998800,0.0,0
2020-06-30,3.343624139262554,3.7369915333452934,3.343624139262554,3.7271573543548584,15107020,0.0,0
2020-07-02,3.9140068732283524,3.9140068732283524,3.687820528710233,3.717323064804077,12345920,0.0,0
2020-07-03,3.756659873982876,3.8156651821184013,3.717323158202739,3.746825695037842,5533965,0.0,0
2020-07-06,3.7664940419493425,4.179530025367504,3.7664940419493425,4.04185152053833,11470780,0.0,0
2020-07-07,4.100856641968693,4.553229346339811,4.100856641968693,4.258203506469727,18081790,0.0,0
2020-07-08,4.327042705593409,4.523726273103313,4.248369278589448,4.464721202850342,12347270,0.0,0
2020-07-09,4.464721520760241,4.553229366907194,4.297540242007395,4.513892650604248,11881270,0.0,0
2020-07-10,4.572897825865295,4.572897825865295,4.346711467671895,4.3958821296691895,9432543,0.0,0
2020-07-13,4.504058074893807,4.504058074893807,4.327042857904011,4.415550231933594,6561751,0.0,0
2020-07-14,4.376213690901176,4.3860481044788395,4.0615199593063425,4.21886682510376,5894050,0.0,0
2020-07-15,4.297540258002468,4.3860481044788395,4.130358978627387,4.21886682510376,7876552,0.0,0
2020-07-16,4.287706141692103,4.307374499129335,3.9828463669497025,3.992680311203003,6672000,0.0,0
2020-07-17,4.012348744094012,4.218866735533908,3.9926803862869105,4.189364433288574,4742500,0.0,0
2020-07-20,4.228701081037606,4.425384655952114,4.228701081037606,4.268037796020508,6164273,0.0,0
2020-07-21,4.356545414764255,4.838420903744507,4.356545414764255,4.799084186553955,23824620,0.0,0
2020-07-22,4.799084098179802,4.8875914757633705,4.622068405151366,4.622068405151367,12550370,0.0,0
2020-07-23,4.671239596677735,4.759747444356806,4.543395032014776,4.690907955169678,6446990,0.0,0
2020-07-24,4.710576130268652,4.710576130268652,4.376213579992424,4.484389781951904,9248525,0.0,0
2020-07-27,4.543394696432052,4.602399767549668,4.307374411961586,4.386047840118408,4398003,0.0,0
2020-07-28,4.484389913925476,4.55322940245845,4.336876992172335,4.474555969238281,4637200,0.0,0
2020-07-29,4.474555919175296,4.661405086517334,4.415550375989694,4.661405086517334,5054887,0.0,0
2020-07-30,4.671239444745091,4.759747289545435,4.553229297631727,4.592566013336182,5630630,0.0,0
2020-07-31,4.65157115766456,4.730244590270453,4.474555934301302,4.513892650604248,7466267,0.0,0
2020-08-03,4.543394953366134,4.622068385972026,4.346711371851402,4.513892650604248,6516666,0.0,0
2020-08-04,4.513892544201184,4.917094111267298,4.464721415516256,4.779415607452393,14878550,0.0,0
2020-08-05,4.769581144248938,5.310461678402486,4.6810737700448275,5.261290550231934,28744500,0.0,0
2020-08-06,5.280959145745352,5.566150576555616,5.0646072036905725,5.536648273468018,32868230,0.0,0
2020-08-07,5.654658165845005,5.654658165845005,5.241622190006555,5.408803462982178,19683030,0.0,0
2020-08-10,5.428471941140461,6.2840462135809805,5.271125077867898,6.097196578979492,32222650,0.0,0
2020-08-11,6.10703077895983,6.2938804070309615,5.900512793667034,5.930015563964844,25129500,0.0,0
2020-08-12,5.949684223638293,6.136533392277263,5.585818893144482,6.126699447631836,21164960,0.0,0
2020-08-13,6.185704103037911,6.215206872835836,5.6743263550086125,5.752999782562256,20544680,0.0,0
2020-08-14,5.782502843856732,5.8710102198509375,5.625155511886933,5.693994998931885,6915760,0.0,0
2020-08-17,5.674326710562447,5.693995068683279,5.457974771233296,5.615321636199951,13845470,0.0,0
2020-08-18,5.644823897571324,5.930015791630518,5.556316521141161,5.802171230316162,15928600,0.0,0
2020-08-19,5.85134156700431,5.861175979913824,5.684160767918127,5.752999782562256,6211400,0.0,0
2020-08-20,5.693994776943418,5.861176046870045,5.58581857835608,5.674326419830322,11859230,0.0,0
2020-08-21,5.703829189844335,6.0381912607598744,5.654658062597326,5.9693522453308105,13458560,0.0,0
2020-08-24,6.008689182274079,6.107030971482606,5.861176263995966,5.989020824432373,10643470,0.0,0
2020-08-25,5.979186277510162,6.3627194813231105,5.900512847900391,6.14636754989624,16533140,0.0,0
2020-08-26,6.352885407091566,6.618408461056605,5.5366478881964705,5.713663101196289,55335720,0.0,0
2020-08-27,5.81200502273912,5.821839435935462,5.271124958067328,5.556316375732422,22390290,0.0,0
2020-08-28,5.546482238249115,5.703829574697838,5.064607222009703,5.241622447967529,28794910,0.0,0
2020-08-31,5.212120056152343,5.379300865582414,5.113777796694994,5.212120056152344,11918810,0.0,0
2020-09-01,5.271125011038824,5.6546582198684545,5.19245158039999,5.625155448913574,20949930,0.0,0
2020-09-02,5.703829482209018,5.792336859287438,5.4284719995867246,5.615321636199951,16591720,0.0,0
2020-09-03,5.605487303153126,5.654658433626487,5.320295871841199,5.389135360717773,10790850,0.0,0
2020-09-04,5.2612907361679175,5.39896924340819,5.1334461735509125,5.320295810699463,9144000,0.0,0
2020-09-07,5.33012987646119,6.077527907356853,5.33012987646119,5.9005126953125,30973330,0.0,0
2020-09-08,5.910347476943077,6.018523212142329,5.536648203716624,5.615321636199951,15386590,0.0,0
2020-09-09,5.644823938915875,5.959518137779833,5.526813790190884,5.615321636199951,16970120,0.0,0
2020-09-10,5.674326358257953,5.752999785856647,5.221953680634841,5.310461521148682,17543000,0.0,0
2020-09-11,5.359632205510074,5.615321315404369,5.221953706529634,5.566150188446045,9736000,0.0,0
2020-09-14,5.625155511886933,5.782502843856732,5.556316493772623,5.693994998931885,9741921,0.0,0
2020-09-15,5.713663190010348,5.939849533491302,5.644823704975058,5.890678405761719,9790544,0.0,0
2020-09-16,5.989020706013736,5.998854650274827,5.625155389740793,5.703829288482666,6987287,0.0,0
2020-09-17,5.684161089030527,5.753000107563544,5.43830637957114,5.654658317565918,11320800,0.0,0
2020-09-18,5.644823747193604,5.733331590196567,5.605487032287982,5.703829288482666,5064945,0.0,0
2020-09-21,5.792336922599917,5.979186561255482,5.625155642280166,5.684161186218262,11030000,0.0,0
2020-09-22,5.684161124088186,5.82183963093401,5.605487222674212,5.615321636199951,5735629,0.0,0
2020-09-23,5.615321504549037,5.733331650507288,5.556316431569912,5.625155448913574,5826081,0.0,0
2020-09-24,5.625155231543459,5.625155231543459,5.310461521148681,5.310461521148682,13471660,0.0,0
2020-09-25,5.359632178932556,5.4973111461608895,5.2711248073493335,5.310461521148682,10081990,0.0,0
2020-09-28,5.359632451661449,5.556316499597218,5.280959020059399,5.546482086181641,9604300,0.0,0
2020-09-29,5.625155392384294,5.625155392384294,5.467808532687865,5.556316375732422,2519164,0.0,0
2020-09-30,5.5563162459407005,5.91034714091838,5.5563162459407005,5.861176013946533,11932480,0.0,0
2020-10-05,5.812004853227489,5.969352177265392,5.713663068785435,5.752999782562256,5309400,0.0,0
2020-10-06,5.820000171661377,6.0,5.730000019073486,5.96999979019165,4777609,0.097,0
2020-10-07,5.980000019073486,6.570000171661377,5.949999809265137,6.489999771118164,20726750,0.0,0
2020-10-08,6.610000133514404,7.889999866485596,6.610000133514404,7.829999923706055,51405420,0.0,0
2020-10-09,7.570000171661377,7.579999923706055,6.239999771118164,6.480000019073486,78559260,0.0,0
2020-10-12,6.429999828338623,6.610000133514404,6.059999942779541,6.170000076293945,36944970,0.0,0
2020-10-14,6.230000019073486,6.409999847412109,6.0,6.090000152587891,23461310,0.0,0
2020-10-15,6.159999847412109,6.159999847412109,5.760000228881836,5.800000190734863,14774500,0.0,0
2020-10-16,5.809999942779541,6.0,5.670000076293945,5.769999980926514,13499000,0.0,0
2020-10-19,5.78000020980835,5.849999904632568,5.5,5.53000020980835,12718000,0.0,0
2020-10-20,5.590000152587891,6.119999885559082,5.5,6.03000020980835,27495110,0.0,0
2020-10-21,6.03000020980835,6.03000020980835,5.789999961853027,5.820000171661377,8743000,0.0,0
2020-10-22,5.840000152587891,5.889999866485596,5.739999771118164,5.769999980926514,9387174,0.0,0
2020-10-23,5.71999979019165,6.070000171661377,5.71999979019165,5.829999923706055,12523000,0.0,0
2020-10-27,5.829999923706055,5.940000057220459,5.599999904632568,5.639999866485596,14207880,0.0,0
2020-10-28,5.710000038146973,5.710000038146973,5.28000020980835,5.329999923706055,22548200,0.0,0
2020-10-29,5.309999942779541,5.619999885559082,5.289999961853027,5.5,10938370,0.0,0
2020-10-30,5.559999942779541,5.570000171661377,5.179999828338623,5.239999771118164,15597000,0.0,0
2020-11-02,5.239999771118164,5.409999847412109,5.239999771118164,5.389999866485596,6680417,0.0,0
2020-11-03,5.389999866485596,5.449999809265137,5.300000190734863,5.400000095367432,8164000,0.0,0
2020-11-04,5.409999847412109,5.769999980926514,5.400000095367432,5.679999828338623,13677800,0.0,0
2020-11-05,5.800000190734863,5.880000114440918,5.610000133514404,5.849999904632568,10365100,0.0,0
2020-11-06,5.889999866485596,6.590000152587891,5.880000114440918,6.590000152587891,35095310,0.0,0
2020-11-09,6.579999923706055,6.639999866485596,6.300000190734863,6.460000038146973,18537260,0.0,0
2020-11-10,6.5,6.519999980926514,6.130000114440918,6.340000152587891,21221350,0.0,0
2020-11-11,6.389999866485596,6.429999828338623,5.980000019073486,6.059999942779541,18380600,0.0,0
2020-11-12,6.230000019073486,6.429999828338623,6.179999828338623,6.320000171661377,12615070,0.0,0
2020-11-13,6.409999847412109,6.489999771118164,6.150000095367432,6.409999847412109,10997900,0.0,0
2020-11-16,6.53000020980835,6.980000019073486,6.329999923706055,6.880000114440918,23946490,0.0,0
2020-11-17,6.75,6.760000228881836,6.099999904632568,6.449999809265137,30367320,0.0,0
2020-11-18,6.699999809265137,6.739999771118164,6.179999828338623,6.210000038146973,30670380,0.0,0
2020-11-19,6.28000020980835,6.429999828338623,6.150000095367432,6.230000019073486,14905630,0.0,0
2020-11-20,6.25,6.349999904632568,6.150000095367432,6.199999809265137,7223800,0.0,0
2020-11-23,6.25,6.5,6.159999847412109,6.46999979019165,13027000,0.0,0
2020-11-24,6.5,6.599999904632568,6.309999942779541,6.360000133514404,13635880,0.0,0
2020-11-25,6.360000133514404,6.409999847412109,6.079999923706055,6.090000152587891,11980460,0.0,0
2020-11-26,6.119999885559082,6.210000038146973,5.96999979019165,6.199999809265137,5632400,0.0,0
2020-11-27,6.199999809265137,6.210000038146973,6.070000171661377,6.110000133514404,3747400,0.0,0
2020-11-30,6.039999961853027,6.230000019073486,6.039999961853027,6.099999904632568,8299100,0.0,0
2020-12-01,6.110000133514404,6.289999961853027,6.070000171661377,6.239999771118164,6862719,0.0,0
2020-12-02,6.300000190734863,6.730000019073486,6.289999961853027,6.610000133514404,26706620,0.0,0
2020-12-03,6.690000057220459,6.78000020980835,6.409999847412109,6.46999979019165,13928520,0.0,0
2020-12-04,6.480000019073486,6.480000019073486,6.230000019073486,6.28000020980835,8047600,0.0,0
2020-12-07,6.28000020980835,6.329999923706055,6.150000095367432,6.170000076293945,5349800,0.0,0
