Date,Open,High,Low,Close,Volume,Dividends,Stock Splits
2020-01-02,5.174973091357703,5.242180700580565,5.098164656711221,5.222978591918945,1611901,0.0,0
2020-01-03,5.203776650007258,5.28058508711499,5.165372431453392,5.213377475738525,937350,0.0,0
2020-01-06,5.146170139312744,5.2229785736911705,5.1173667475136435,5.146170139312744,867178,0.0,0
2020-01-07,5.155771025733865,5.270983678665325,5.136568916911956,5.1941752433776855,838000,0.0,0
2020-01-08,5.155771088239035,5.184574480728287,5.117366870129628,5.165372371673584,522531,0.0,0
2020-01-09,5.280584961983473,5.280584961983473,5.126968091408194,5.1941752433776855,916664,0.0,0
2020-01-10,5.270983803569325,5.270983803569325,5.165372431453392,5.213377475738525,356000,0.0,0
2020-01-13,5.26138287044858,5.290186262683275,5.184574434908575,5.270983695983887,3637073,0.0,0
2020-01-14,5.318989276885985,5.318989276885985,5.24218084019389,5.318989276885986,4125876,0.0,0
2020-01-15,5.357393729045726,5.357393729045726,5.25178189507766,5.280585289001465,1504349,0.0,0
2020-01-16,5.357393604463293,5.357393604463293,5.203776727947025,5.261383056640625,1787146,0.0,0
2020-01-17,5.270983572056583,5.270983572056583,5.194175138322438,5.251781463623047,1264432,0.0,0
2020-01-20,5.203776526695833,5.290186245301621,5.1845744178739235,5.1941752433776855,2106433,0.0,0
2020-01-21,5.22297891999282,5.22297891999282,5.030957363500677,5.050159931182861,1642047,0.0,0
2020-01-22,5.174973429674277,5.174973429674277,5.011755266472841,5.1269683837890625,1420766,0.0,0
2020-01-23,5.174973351012402,5.174973351012402,5.030957299917041,5.078962802886963,1839552,0.0,0
2020-01-24,5.126968012283228,5.126968012283228,5.021356186485448,5.069361686706543,300452,0.0,0
2020-01-29,4.973350736734177,4.973350736734177,4.848537258958601,4.858138084411621,2256017,0.0,0
2020-01-30,4.896542409886705,4.896542409886705,4.7525263623988385,4.80053186416626,2323876,0.0,0
2020-01-31,4.992553101206217,4.992553101206217,4.579707513661183,4.6373138427734375,3117999,0.0,0
2020-02-03,4.646914958953857,4.742925504011914,4.608510740930634,4.646914958953857,1205001,0.0,0
2020-02-04,4.704521330693147,4.752526374771145,4.618111610412598,4.618111610412598,1207000,0.0,0
2020-02-05,4.704521097813178,4.742925314300275,4.5989092735664725,4.656515598297119,1797606,0.0,0
2020-02-06,4.694920050396874,4.87734031677246,4.694920050396874,4.877340316772461,1396850,0.0,0
2020-02-07,4.886941600283258,4.886941600283258,4.762127661529267,4.877340316772461,1212775,0.0,0
2020-02-10,4.848537592277119,5.021356582641602,4.800532088268666,5.021356582641602,1737815,0.0,0
2020-02-11,5.011754846190444,5.011754846190444,4.89654219635029,4.915744304656982,1052000,0.0,0
2020-02-12,4.877340380347399,4.9157445992623865,4.733324330508996,4.848537445068359,1675317,0.0,0
2020-02-13,4.848537215853455,4.944547758602019,4.800531715571983,4.886941432952881,1011726,0.0,0
2020-02-14,4.896542489804893,4.9157445992623865,4.819734051974918,4.848537445068359,834844,0.0,0
2020-02-17,4.819733849103907,4.83893595775315,4.762127523156177,4.78132963180542,1238468,0.0,0
2020-02-18,4.78132963180542,4.810133023686476,4.762127523156177,4.78132963180542,804118,0.0,0
2020-02-19,4.771728515625,4.771728515625,4.733324296982037,4.771728515625,797531,0.0,0
2020-02-20,4.829335301403844,4.829335301403844,4.714122187660555,4.771728515625,2133611,0.0,0
2020-02-21,4.742925396350691,4.75252622173137,4.704521179199219,4.704521179199219,854688,0.0,0
2020-02-24,4.694920111822654,4.694920111822654,4.589308738708497,4.589308738708496,2059042,0.0,0
2020-02-25,4.598909595076861,4.598909595076861,4.454893544274877,4.483696937561035,2729308,0.0,0
2020-02-26,4.493297668308515,4.493297668308515,4.3492820783702335,4.358882904052734,2664000,0.0,0
2020-02-27,4.378084845547936,4.378084845547936,4.310877237086954,4.368484020233154,3840872,0.0,0
2020-02-28,4.320478563057547,4.3492819549162585,4.253270953930141,4.3396806716918945,3224285,0.0,0
2020-03-02,4.358882967630645,4.38768636072706,4.291675355615279,4.330080032348633,2016217,0.0,0
2020-03-03,4.4068884059084255,4.416489231590926,4.339680794873337,4.358882904052734,2257245,0.0,0
2020-03-04,4.368484387145451,4.493297873607058,4.349282277088711,4.426090717315674,1531054,0.0,0
2020-03-05,4.512499918356285,4.531702028135122,4.406888543479888,4.454893589019775,2673000,0.0,0
2020-03-06,4.512499520175576,4.512499520175576,4.27247294021274,4.320478439331055,2001860,0.0,0
2020-03-09,4.195664635273253,4.301276461851751,4.099654091935702,4.157260417938232,2436002,0.0,0
2020-03-10,4.166861764149522,4.214866807636567,4.080452044932696,4.128457546234131,4436315,0.0,0
2020-03-11,4.176462589721175,4.214866807636567,4.099654153890392,4.128457546234131,3335150,0.0,0
2020-03-12,4.099654099665925,4.099654099665925,3.792420131499255,3.9748401641845703,3336363,0.0,0
2020-03-13,3.8404254913330074,4.05164869191799,3.725212836468472,3.840425491333008,3443852,0.0,0
2020-03-16,3.8500268285527466,3.8500268285527466,3.552393674850464,3.552393674850464,4390000,0.0,0
2020-03-17,3.561994667748971,3.706010485840926,3.5139893950516528,3.542792558670044,3749855,0.0,0
2020-03-18,3.6292020703991352,3.7060105071566203,3.3987765312194824,3.3987765312194824,3902509,0.0,0
2020-03-19,3.4467816747311133,3.4467816747311133,2.995531667915532,3.15874981880188,9814108,0.0,0
2020-03-20,3.3123671085700517,3.341170272951523,3.1875531673431396,3.1875531673431396,8287657,0.0,0
2020-03-23,3.158749973714429,3.3507712967201595,3.1011436454848695,3.2931649684906006,10154020,0.0,0
2020-03-24,3.408377479982008,3.494787197558303,3.3123669370163364,3.4563827514648438,4897848,0.0,0
2020-03-25,3.552393696582224,3.754016075550123,3.552393696582224,3.6676063537597656,3886529,0.0,0
2020-03-26,3.6676062921829446,3.725212848711739,3.600398909957749,3.6580052375793457,3002290,0.0,0
2020-03-27,3.7252129420230924,3.7924203259317393,3.6772074388954272,3.7828192710876465,2310000,0.0,0
2020-03-30,3.7636169397482253,3.7636169397482253,3.600398788103882,3.638803005218506,2091472,0.0,0
2020-03-31,3.6484041298468792,3.7156115110933863,3.5331914762814383,3.6868083477020264,3668502,0.0,0
2020-04-01,3.725212768030448,3.7444148768217644,3.5619946143970664,3.5715956687927246,2090925,0.0,0
2020-04-02,3.734813813208002,3.734813813208002,3.4179785611188964,3.533191442489624,2435480,0.0,0
2020-04-03,3.561994659469831,3.590797823021275,3.456382830874008,3.5043883323669434,2703546,0.0,0
2020-04-06,3.542792558670044,3.5523936132095075,3.3891754571314285,3.542792558670044,2881000,0.0,0
2020-04-07,3.571595685866483,3.648404121398926,3.5427925225418173,3.648404121398926,4625325,0.0,0
2020-04-08,3.6003989632197713,3.6580052916935593,3.5523936894916144,3.629202127456665,2011051,0.0,0
2020-04-09,3.6868082858242532,3.734813786244678,3.6099998514030784,3.6772072315216064,2049188,0.0,0
2020-04-14,3.686808321540622,3.763616985613081,3.5619946143970664,3.5715956687927246,4583500,0.0,0
2020-04-15,3.581196813756015,3.581196813756015,3.4755849838256836,3.4755849838256836,4346000,0.0,0
2020-04-16,3.485186188148476,3.485186188148476,3.3603722517783967,3.3891754150390625,5352114,0.0,0
2020-04-17,3.437180757522583,3.4851862595138847,3.3987765390553,3.437180757522583,7249000,0.0,0
2020-04-20,3.4563827959806166,3.4563827959806166,3.369973306198619,3.3891754150390625,6011000,0.0,0
2020-04-21,3.4083774969508958,3.4083774969508958,3.264361681785394,3.2739627361297607,6140732,0.0,0
2020-04-22,3.283563883653452,3.437180757522583,3.2643617744198106,3.437180757522583,4836885,0.0,0
2020-04-23,3.4563829518482687,3.5715958389937197,3.4179787324355195,3.523590564727783,4974399,0.0,0
2020-04-24,3.5331914147445715,3.552393523337706,3.4275795885751426,3.4563827514648438,4834000,0.0,0
2020-04-27,3.504388461800326,3.581196900774403,3.4563829585343235,3.561994791030884,3693000,0.0,0
2020-04-28,3.504388455021409,3.581196893846907,3.4467818969950814,3.523590564727783,3166019,0.0,0
2020-04-29,3.542792589897014,3.715611573130625,3.4851862621524763,3.6964094638824463,5509342,0.0,0
2020-05-04,3.6388030314026762,3.6388030314026762,3.48518616183878,3.4947872161865234,4822359,0.0,0
2020-05-05,3.5427926126042433,3.5427926126042433,3.4179786727838963,3.5139894485473633,5793524,0.0,0
2020-05-06,3.581196846427507,3.6676063389620257,3.504388408619046,3.5907979011535645,4334157,0.0,0
2020-05-07,3.5715957591175482,3.600398923032948,3.4755849838256836,3.4755849838256836,4016836,0.0,0
2020-05-08,3.5523936418316295,3.5523936418316295,3.3987765390553,3.437180757522583,8311649,0.0,0
2020-05-11,3.4467818041929106,3.504388360668222,3.389175476624797,3.3987765312194824,9768048,0.0,0
2020-05-12,3.4275797347644748,3.619601057792889,3.4275797347644748,3.552393674850464,6991692,0.0,0
2020-05-13,3.5811968537285086,3.667606346439191,3.4659839678737314,3.629202127456665,7564493,0.0,0
2020-05-14,3.600398885906826,3.600398885906826,3.504388340512189,3.542792558670044,4373000,0.0,0
2020-05-15,3.5139894485473633,3.5331915579186166,3.4467818368407763,3.5139894485473633,6496366,0.0,0
2020-05-18,3.581196690505933,4.090053255553505,3.494787201733594,3.898031711578369,20654800,0.0,0
2020-05-19,3.994042388763932,4.06125000008397,3.9268352352582907,3.9556381702423096,13215230,0.0,0
2020-05-20,3.9556381543711767,3.994042372738711,3.8404254992685742,3.8788297176361084,8282001,0.0,0
2020-05-21,3.965239437870258,3.965239437870258,3.8212233900848074,3.8788297176361084,6407000,0.0,0
2020-05-22,3.8212233212177376,3.8212233212177376,3.561994623001571,3.609999895095825,12535000,0.0,0
2020-05-25,3.6600000858306885,3.8499999046325684,3.549999952316284,3.759999990463257,10219000,0.15,0
2020-05-26,3.7899999618530273,3.8299999237060547,3.7200000286102295,3.7300000190734863,6208000,0.0,0
2020-05-27,3.75,3.75,3.619999885559082,3.6600000858306885,6990050,0.0,0
2020-05-28,3.630000114440918,3.6700000762939453,3.490000009536743,3.5,14587620,0.0,0
2020-05-29,3.4800000190734863,3.640000104904175,3.4600000381469727,3.569999933242798,80705750,0.0,0
2020-06-01,3.5799999237060547,3.8299999237060547,3.5799999237060547,3.799999952316284,11939280,0.0,0
2020-06-02,3.809999942779541,3.930000066757202,3.7300000190734863,3.740000009536743,5888770,0.0,0
2020-06-03,3.8299999237060547,3.8399999141693115,3.7300000190734863,3.7699999809265137,3707000,0.0,0
2020-06-04,3.7799999713897705,3.8299999237060547,3.700000047683716,3.700000047683716,4442900,0.0,0
2020-06-05,3.700000047683716,3.7899999618530273,3.6500000953674316,3.759999990463257,4446548,0.0,0
2020-06-08,3.759999990463257,3.8299999237060547,3.7200000286102295,3.819999933242798,8307000,0.0,0
2020-06-09,3.8399999141693115,4.079999923706055,3.8399999141693115,3.990000009536743,8580000,0.0,0
2020-06-10,3.9100000858306885,4.019999980926514,3.9100000858306885,3.950000047683716,3775300,0.0,0
2020-06-11,3.950000047683716,3.950000047683716,3.8499999046325684,3.869999885559082,4091818,0.0,0
2020-06-12,3.8499999046325684,3.890000104904175,3.8499999046325684,3.869999885559082,2639000,0.0,0
2020-06-15,3.869999885559082,3.880000114440918,3.740000009536743,3.799999952316284,2813000,0.0,0
2020-06-16,3.859999895095825,3.9200000762939453,3.799999952316284,3.809999942779541,3142587,0.0,0
2020-06-17,3.809999942779541,3.930000066757202,3.809999942779541,3.8399999141693115,4246000,0.0,0
2020-06-18,3.799999952316284,3.8299999237060547,3.7300000190734863,3.7300000190734863,4229232,0.0,0
2020-06-19,3.7100000381469727,3.7899999618530273,3.6600000858306885,3.6700000762939453,10961723,0.0,0
2020-06-22,3.6500000953674316,3.799999952316284,3.630000114440918,3.799999952316284,7943000,0.0,0
2020-06-23,3.799999952316284,3.8399999141693115,3.7200000286102295,3.7699999809265137,2554398,0.0,0
2020-06-24,3.75,3.75,3.5999999046325684,3.609999895095825,9657000,0.0,0
2020-06-26,3.5999999046325684,3.630000114440918,3.5199999809265137,3.5899999141693115,4564052,0.0,0
2020-06-29,3.5799999237060547,3.609999895095825,3.4800000190734863,3.509999990463257,6176593,0.0,0
2020-06-30,3.509999990463257,3.5399999618530273,3.490000009536743,3.5,4448259,0.0,0
2020-07-02,3.4700000286102295,3.609999895095825,3.4700000286102295,3.5999999046325684,4440562,0.0,0
2020-07-03,3.5999999046325684,3.6700000762939453,3.549999952316284,3.640000104904175,8111141,0.0,0
2020-07-06,3.6600000858306885,3.880000114440918,3.6600000858306885,3.880000114440918,7720000,0.0,0
2020-07-07,3.9200000762939453,3.930000066757202,3.809999942779541,3.869999885559082,9536711,0.0,0
2020-07-08,3.869999885559082,3.880000114440918,3.7200000286102295,3.8499999046325684,4931763,0.0,0
2020-07-09,3.8499999046325684,3.9800000190734863,3.7799999713897705,3.930000066757202,6328483,0.0,0
2020-07-10,3.950000047683716,3.9700000286102295,3.8299999237060547,3.9000000953674316,7362234,0.0,0
2020-07-13,3.880000114440918,3.940000057220459,3.869999885559082,3.930000066757202,3318067,0.0,0
2020-07-14,3.859999895095825,3.950000047683716,3.8499999046325684,3.880000114440918,4579742,0.0,0
2020-07-15,3.950000047683716,3.950000047683716,3.809999942779541,3.819999933242798,10084110,0.0,0
2020-07-16,3.809999942779541,3.880000114440918,3.740000009536743,3.75,3214786,0.0,0
2020-07-17,3.640000104904175,3.8399999141693115,3.640000104904175,3.8399999141693115,1752995,0.0,0
2020-07-20,3.8299999237060547,3.869999885559082,3.740000009536743,3.799999952316284,3356458,0.0,0
2020-07-21,3.799999952316284,3.880000114440918,3.7799999713897705,3.809999942779541,1208710,0.0,0
2020-07-22,3.7899999618530273,3.819999933242798,3.759999990463257,3.759999990463257,1883992,0.0,0
2020-07-23,3.759999990463257,3.799999952316284,3.7200000286102295,3.799999952316284,2735000,0.0,0
2020-07-24,3.759999990463257,3.799999952316284,3.6700000762939453,3.690000057220459,2668720,0.0,0
2020-07-27,3.7100000381469727,3.7300000190734863,3.6600000858306885,3.690000057220459,1445420,0.0,0
2020-07-28,3.7100000381469727,3.75,3.680000066757202,3.700000047683716,943461,0.0,0
2020-07-29,3.680000066757202,3.740000009536743,3.680000066757202,3.7100000381469727,1078101,0.0,0
2020-07-30,3.700000047683716,3.8499999046325684,3.700000047683716,3.7200000286102295,1080756,0.0,0
2020-07-31,3.740000009536743,3.819999933242798,3.7300000190734863,3.7300000190734863,2231348,0.0,0
2020-08-03,3.740000009536743,3.75,3.6700000762939453,3.7100000381469727,2879391,0.0,0
2020-08-04,3.7200000286102295,3.75,3.6600000858306885,3.6700000762939453,3933950,0.0,0
2020-08-05,3.7100000381469727,3.7899999618530273,3.6700000762939453,3.7899999618530273,4566657,0.0,0
2020-08-06,3.7799999713897705,3.8399999141693115,3.7100000381469727,3.7300000190734863,1476000,0.0,0
2020-08-07,3.700000047683716,3.75,3.690000057220459,3.700000047683716,1802000,0.0,0
2020-08-10,3.7200000286102295,3.7799999713897705,3.7100000381469727,3.740000009536743,4918000,0.0,0
2020-08-11,3.7100000381469727,3.7799999713897705,3.7100000381469727,3.7100000381469727,959882,0.0,0
2020-08-12,3.700000047683716,3.759999990463257,3.680000066757202,3.759999990463257,1788534,0.0,0
2020-08-13,3.75,3.859999895095825,3.740000009536743,3.8499999046325684,3715454,0.0,0
2020-08-14,3.75,3.799999952316284,3.680000066757202,3.680000066757202,7451263,0.0,0
2020-08-17,3.680000066757202,3.7100000381469727,3.6600000858306885,3.680000066757202,2605419,0.0,0
2020-08-18,3.680000066757202,3.680000066757202,3.640000104904175,3.6700000762939453,2777000,0.0,0
2020-08-19,3.6700000762939453,3.7300000190734863,3.5899999141693115,3.609999895095825,2777000,0.0,0
2020-08-20,3.5999999046325684,3.640000104904175,3.5899999141693115,3.619999885559082,2176986,0.0,0
2020-08-21,3.630000114440918,3.630000114440918,3.5899999141693115,3.5899999141693115,3357000,0.0,0
2020-08-24,3.5899999141693115,3.6600000858306885,3.5799999237060547,3.5899999141693115,3623000,0.0,0
2020-08-25,3.619999885559082,3.619999885559082,3.549999952316284,3.569999933242798,2596805,0.0,0
2020-08-26,3.549999952316284,3.569999933242798,3.5,3.5299999713897705,3673077,0.0,0
2020-08-27,3.5199999809265137,3.5199999809265137,3.390000104904175,3.4100000858306885,6672584,0.0,0
2020-08-28,3.4100000858306885,3.4700000286102295,3.390000104904175,3.4600000381469727,2545000,0.0,0
2020-08-31,3.4600000381469727,3.5799999237060547,3.430000066757202,3.5199999809265137,2566356,0.0,0
2020-09-01,3.509999990463257,3.5399999618530273,3.5,3.5,664680,0.0,0
2020-09-02,3.5,3.5,3.4100000858306885,3.430000066757202,1673358,0.0,0
2020-09-03,3.430000066757202,3.4800000190734863,3.3399999141693115,3.4100000858306885,1747478,0.0,0
2020-09-04,3.3499999046325684,3.4000000953674316,3.309999942779541,3.380000114440918,3026022,0.0,0
2020-09-07,3.390000104904175,3.430000066757202,3.3499999046325684,3.4000000953674316,1468000,0.0,0
2020-09-08,3.4200000762939453,3.4200000762939453,3.380000114440918,3.4000000953674316,1182648,0.0,0
2020-09-09,3.390000104904175,3.4000000953674316,3.3499999046325684,3.390000104904175,1155705,0.0,0
2020-09-10,3.4100000858306885,3.4200000762939453,3.390000104904175,3.4000000953674316,772000,0.0,0
2020-09-11,3.450000047683716,3.4800000190734863,3.390000104904175,3.4200000762939453,871000,0.0,0
2020-09-14,3.440000057220459,3.4600000381469727,3.309999942779541,3.3499999046325684,3027770,0.0,0
2020-09-15,3.3499999046325684,3.380000114440918,3.319999933242798,3.380000114440918,1421240,0.0,0
2020-09-16,3.4000000953674316,3.4100000858306885,3.359999895095825,3.369999885559082,1312003,0.0,0
2020-09-17,3.380000114440918,3.4100000858306885,3.3399999141693115,3.3399999141693115,2133472,0.0,0
2020-09-18,3.3399999141693115,3.380000114440918,3.3399999141693115,3.359999895095825,2608058,0.0,0
2020-09-21,3.359999895095825,3.380000114440918,3.319999933242798,3.3299999237060547,1044000,0.0,0
2020-09-22,3.3499999046325684,3.3499999046325684,3.25,3.25,2958000,0.0,0
2020-09-23,3.259999990463257,3.2699999809265137,3.2100000381469727,3.2300000190734863,1183710,0.0,0
2020-09-24,3.2300000190734863,3.2300000190734863,3.1600000858306885,3.2200000286102295,1676400,0.0,0
2020-09-25,3.2300000190734863,3.240000009536743,3.200000047683716,3.2300000190734863,986067,0.0,0
2020-09-28,3.259999990463257,3.2899999618530273,3.2100000381469727,3.2899999618530273,403379,0.0,0
2020-09-29,3.2699999809265137,3.2799999713897705,3.2200000286102295,3.2200000286102295,531636,0.0,0
2020-09-30,3.2200000286102295,3.2300000190734863,3.1500000953674316,3.190000057220459,3011498,0.0,0
2020-10-05,3.1700000762939453,3.309999942779541,3.1700000762939453,3.259999990463257,1418273,0.0,0
2020-10-06,3.259999990463257,3.3399999141693115,3.259999990463257,3.299999952316284,491687,0.0,0
2020-10-07,3.2899999618530273,3.3299999237060547,3.259999990463257,3.259999990463257,2747000,0.0,0
2020-10-08,3.2699999809265137,3.6500000953674316,3.2699999809265137,3.619999885559082,9283442,0.0,0
2020-10-09,3.5899999141693115,3.5899999141693115,3.4100000858306885,3.4700000286102295,2730500,0.0,0
2020-10-12,3.5399999618530273,3.5399999618530273,3.4600000381469727,3.4600000381469727,1168002,0.0,0
2020-10-14,3.509999990463257,3.5199999809265137,3.390000104904175,3.450000047683716,1705956,0.0,0
2020-10-15,3.490000009536743,3.490000009536743,3.3399999141693115,3.369999885559082,816000,0.0,0
2020-10-16,3.3399999141693115,3.4600000381469727,3.3399999141693115,3.4600000381469727,912296,0.0,0
2020-10-19,3.4800000190734863,3.5799999237060547,3.4600000381469727,3.5399999618530273,2491028,0.0,0
2020-10-20,3.5399999618530273,3.559999942779541,3.490000009536743,3.549999952316284,1430276,0.0,0
2020-10-21,3.5799999237060547,3.6600000858306885,3.5399999618530273,3.609999895095825,1922000,0.0,0
2020-10-22,3.609999895095825,3.7699999809265137,3.5799999237060547,3.690000057220459,2627728,0.0,0
2020-10-23,3.700000047683716,3.7799999713897705,3.640000104904175,3.7799999713897705,3404000,0.0,0
2020-10-27,3.7699999809265137,3.8299999237060547,3.7100000381469727,3.759999990463257,4532521,0.0,0
2020-10-28,3.7799999713897705,3.940000057220459,3.559999942779541,3.609999895095825,9260914,0.0,0
2020-10-29,3.5899999141693115,3.640000104904175,3.5299999713897705,3.5299999713897705,2701748,0.0,0
2020-10-30,3.549999952316284,3.559999942779541,3.430000066757202,3.509999990463257,2918426,0.0,0
2020-11-02,3.5399999618530273,3.5399999618530273,3.4700000286102295,3.5,719260,0.0,0
2020-11-03,3.5,3.5299999713897705,3.4700000286102295,3.509999990463257,1219000,0.0,0
2020-11-04,3.509999990463257,3.5199999809265137,3.4600000381469727,3.4600000381469727,804062,0.0,0
2020-11-05,3.5399999618530273,3.5399999618530273,3.4600000381469727,3.5299999713897705,1934298,0.0,0
2020-11-06,3.549999952316284,3.609999895095825,3.5199999809265137,3.5999999046325684,1458275,0.0,0
2020-11-09,3.5999999046325684,3.619999885559082,3.5299999713897705,3.559999942779541,1776000,0.0,0
2020-11-10,3.5999999046325684,3.75,3.5999999046325684,3.6700000762939453,3897000,0.0,0
2020-11-11,3.690000057220459,3.8499999046325684,3.680000066757202,3.759999990463257,6611177,0.0,0
2020-11-12,3.7899999618530273,3.7899999618530273,3.6600000858306885,3.7200000286102295,2781000,0.0,0
2020-11-13,3.7300000190734863,3.7300000190734863,3.5899999141693115,3.690000057220459,1075000,0.0,0
2020-11-16,3.7300000190734863,3.75,3.680000066757202,3.7300000190734863,1898810,0.0,0
2020-11-17,3.7300000190734863,3.7300000190734863,3.640000104904175,3.690000057220459,1490647,0.0,0
2020-11-18,3.7100000381469727,3.7200000286102295,3.6700000762939453,3.7200000286102295,2373000,0.0,0
2020-11-19,3.700000047683716,3.700000047683716,3.609999895095825,3.630000114440918,2390060,0.0,0
2020-11-20,3.6600000858306885,3.6600000858306885,3.559999942779541,3.569999933242798,3497793,0.0,0
2020-11-23,3.6700000762939453,3.6700000762939453,3.569999933242798,3.5899999141693115,2466420,0.0,0
2020-11-24,3.640000104904175,3.680000066757202,3.5999999046325684,3.6500000953674316,3528000,0.0,0
2020-11-25,3.6600000858306885,3.700000047683716,3.6500000953674316,3.6500000953674316,2214157,0.0,0
2020-11-26,3.6700000762939453,3.690000057220459,3.619999885559082,3.6500000953674316,2620704,0.0,0
2020-11-27,3.6700000762939453,3.6700000762939453,3.569999933242798,3.630000114440918,2099720,0.0,0
2020-11-30,3.630000114440918,3.630000114440918,3.5399999618530273,3.549999952316284,3316501,0.0,0
2020-12-01,3.569999933242798,3.6700000762939453,3.559999942779541,3.6600000858306885,2517259,0.0,0
2020-12-02,3.6700000762939453,3.6700000762939453,3.609999895095825,3.640000104904175,743053,0.0,0
2020-12-03,3.630000114440918,3.630000114440918,3.569999933242798,3.569999933242798,2571963,0.0,0
2020-12-04,3.569999933242798,3.609999895095825,3.5199999809265137,3.5399999618530273,1839017,0.0,0
2020-12-07,3.5399999618530273,3.5399999618530273,3.4700000286102295,3.490000009536743,1528000,0.0,0
