Date,Open,High,Low,Close,Volume,Dividends,Stock Splits
2020-01-02,30.98589838881356,32.75789176266968,30.98589838881356,32.326866149902344,1503300,0.0,0
2020-01-03,32.326865634961194,32.470542054876056,31.847949107035845,32.03951644897461,405400,0.0,0
2020-01-06,32.039517178675666,32.61421556373761,31.177465947239536,31.464815139770508,517117,0.0,0
2020-01-07,31.89584002905975,32.03951644897461,31.321141657086585,32.03951644897461,626000,0.0,0
2020-01-08,31.46481524958166,32.56632475427837,31.225356979329614,32.470542907714844,1328500,0.0,0
2020-01-09,32.56632580569959,35.05669043518634,32.56632580569959,34.43410110473633,1583932,0.0,0
2020-01-10,34.14674998370292,36.30187436448476,34.14674998370292,35.439823150634766,2321413,0.0,0
2020-01-13,35.43982263217224,36.58922301587617,35.15247344970703,35.15247344970703,2108655,0.0,0
2020-01-14,35.67928230097568,35.67928230097568,34.76934014239691,35.24825668334961,590199,0.0,0
2020-01-15,35.24825706122357,35.775064531150456,34.434100394413235,34.76934051513672,982034,0.0,0
2020-01-16,34.48198976273928,35.296146392822266,34.48198976273928,35.296146392822266,313400,0.0,0
2020-01-17,35.63139233135652,36.732898212724606,35.583501406748056,36.44554901123047,1107564,0.0,0
2020-01-20,36.49343805303529,36.63711447329134,34.86512477729686,35.439823150634766,1170900,0.0,0
2020-01-21,34.865123066819926,35.775061504322984,34.6735557338245,35.20036315917969,982637,0.0,0
2020-01-22,35.20036524942476,35.58349993816666,34.003073914410315,34.960906982421875,1154000,0.0,0
2020-01-23,34.098853202223374,34.43409694318969,33.47626394701664,34.29042053222656,792000,0.0,0
2020-01-24,34.386206024149615,34.577769700309894,33.14102020605032,34.29042053222656,191500,0.0,0
2020-01-29,33.14102314134599,33.23680864175275,32.42264833058985,32.470542907714844,397500,0.0,0
2020-01-30,34.00307437579065,34.434099993012985,31.84794994352223,32.470542907714844,1739500,0.0,0
2020-01-31,32.949460949626996,32.949460949626996,30.746441839848607,31.56060218811035,934500,0.0,0
2020-02-03,31.416925261871985,31.608492614547,30.028068349203984,30.267526626586914,1251086,0.0,0
2020-02-04,30.171741127967834,30.985897760359876,30.171741127967834,30.650657653808594,1467000,0.0,0
2020-02-05,32.183190606711996,32.32686703283971,31.608492209887718,32.13529968261719,3848000,0.0,0
2020-02-06,32.47054254083485,33.23680826621483,31.943731429158124,32.949459075927734,1374000,0.0,0
2020-02-07,33.38047804143682,33.38047804143682,31.464812072829986,32.75788879394531,871500,0.0,0
2020-02-10,32.32686665576967,33.33259066540274,32.18319023131784,32.61421585083008,400000,0.0,0
2020-02-11,32.805782318115234,33.09313150546148,32.470542208518474,32.805782318115234,410000,0.0,0
2020-02-12,32.85367096054477,32.85367096054477,32.03951437725346,32.27897262573242,662536,0.0,0
2020-02-13,32.42264659915694,32.51843209444856,31.943730084227926,32.231082916259766,773000,0.0,0
2020-02-14,32.949458582801405,32.949458582801405,31.94373095108366,32.03951644897461,1216148,0.0,0
2020-02-17,32.27897473535069,32.47054207742247,31.273250756777735,31.41692352294922,2547500,0.0,0
2020-02-18,31.656381251709323,31.847948590541346,30.985897392718783,31.752166748046875,1278000,0.0,0
2020-02-19,32.374756375923205,32.85367290117012,32.039516269787605,32.662105560302734,2150446,0.0,0
2020-02-20,32.71000155926923,34.76934051513672,32.71000155926923,34.76934051513672,893000,0.0,0
2020-02-21,34.96090739080091,35.248256583792276,33.42837592561816,33.859397888183594,1660135,0.0,0
2020-02-24,34.0988557596742,35.248256172056706,33.23680819076971,34.960906982421875,1367800,0.0,0
2020-02-25,34.86512462304026,34.86512462304026,33.47626596413483,34.67355728149414,949000,0.0,0
2020-02-26,33.66783350905899,34.242531883325796,33.428375244140625,33.428375244140625,610687,0.0,0
2020-02-27,33.524157971557315,33.859398089735585,32.80578315788109,33.23680877685547,491601,0.0,0
2020-02-28,33.04524185579171,33.04524185579171,31.512710361698105,32.13529968261719,693286,0.0,0
2020-03-02,32.94946000760209,32.94946000760209,31.608492209887718,32.13529968261719,629985,0.0,0
2020-03-03,32.949456452242096,33.85939487338782,32.23108170680521,32.27897262573242,793640,0.0,0
2020-03-04,32.75789223440465,33.23680877685547,32.08740834420486,33.23680877685547,837000,0.0,0
2020-03-05,33.52415810168629,34.05096556965842,33.52415810168629,34.003074645996094,688511,0.0,0
2020-03-06,34.003071509454486,34.146747921031604,33.04523850918816,33.66783142089844,469075,0.0,0
2020-03-09,32.80578340629608,33.141023527012884,31.80005939030237,31.991626739501953,787604,0.0,0
2020-03-10,32.99734969145324,32.99734969145324,31.65638194414069,31.800058364868164,752845,0.0,0
2020-03-11,31.65638215548335,31.94373134501352,30.69854908782066,30.938007354736328,1116864,0.0,0
2020-03-12,30.842225462213946,30.842225462213946,27.394026058531395,27.537700653076172,2294500,0.0,0
2020-03-13,27.058782747813634,27.058782747813634,24.18528369494847,26.819324493408203,2450355,0.0,0
2020-03-16,26.819324477290944,26.819324477290944,25.095225777376555,25.813600540161133,1501900,0.0,0
2020-03-17,25.813601621264336,26.00516713654364,23.897935506941835,24.37685203552246,2098000,0.0,0
2020-03-18,24.855769659296495,26.771435858026965,22.79642703412392,23.94582748413086,2947000,0.0,0
2020-03-19,23.94582566607957,24.42474217940116,21.694917688083788,24.32895851135254,2426500,0.0,0
2020-03-20,25.28679292142824,25.334685671533503,22.31751001100153,23.658477783203125,3486970,0.0,0
2020-03-23,23.466910998863504,23.89793662552966,21.934377670288086,21.934377670288086,1142000,0.0,0
2020-03-24,22.700643127313356,26.38829876394905,22.221726621057137,23.80215072631836,7330950,0.0,0
2020-03-25,25.669925095294186,26.627758148505485,23.466909803676824,24.99944305419922,4785500,0.0,0
2020-03-26,25.09522730600024,26.148842227392525,24.85576903715261,25.669925689697266,2401323,0.0,0
2020-03-27,26.627757329721085,26.67565007706192,25.622033385543133,26.579866409301758,2096995,0.0,0
2020-03-30,25.478359635659704,26.72354187674664,25.286792293836378,26.3882999420166,897954,0.0,0
2020-03-31,26.005167797191817,27.53770109296737,26.005167797191817,27.441917419433594,1344859,0.0,0
2020-04-01,27.63348406692374,28.208184266655493,26.771434680786893,27.394025802612305,2904000,0.0,0
2020-04-02,28.016618156433108,29.16601860644005,27.058785057067873,28.73499298095703,1482000,0.0,0
2020-04-03,27.777159518882875,29.884393040739194,27.777159518882875,29.213909149169922,1391763,0.0,0
2020-04-06,29.309693517621728,29.405477193961087,28.830776962846606,29.26180076599121,779000,0.0,0
2020-04-07,28.830776225253985,31.03379341701162,28.830776225253985,30.219633102416992,1953321,0.0,0
2020-04-08,30.123849794865883,30.794333652657333,28.734991158121403,29.11812400817871,1180000,0.0,0
2020-04-09,29.11812485622517,29.788608733544024,28.83077566704371,29.549150466918945,598665,0.0,0
2020-04-14,28.878667390373153,29.549151286283774,28.639209117108166,28.974451065063477,523500,0.0,0
2020-04-15,28.97444872440484,29.836498073135065,28.878665057452263,29.070232391357422,450697,0.0,0
2020-04-16,28.160291314792744,29.309691705976757,28.160291314792744,28.63920783996582,611000,0.0,0
2020-04-17,28.734991164784326,29.884391542144314,27.585590787424337,28.11240005493164,1752230,0.0,0
2020-04-20,28.112401042231284,29.3096923828125,28.064508292455074,29.3096923828125,895950,0.0,0
2020-04-21,29.309693079769986,29.309693079769986,27.82505068599289,27.968727111816406,544640,0.0,0
2020-04-22,27.72926846817928,28.639208800369662,27.394026523931615,28.447643280029297,773000,0.0,0
2020-04-23,28.5434237486701,29.309691273801242,26.771434093195193,27.106674194335938,2018000,0.0,0
2020-04-24,27.106674100123353,28.591316397261515,27.106674100123353,28.351858139038086,1559321,0.0,0
2020-04-27,27.872942358005673,29.40547561645508,27.53770042226337,29.405475616455078,741008,0.0,0
2020-04-28,29.213906876337013,29.213906876337013,27.968724691065017,28.06450653076172,698104,0.0,0
2020-04-29,28.25607559942709,28.734992135010597,27.920833659134313,28.303966522216797,1317435,0.0,0
2020-05-04,28.25607498521167,28.73499151038475,27.585591119200735,28.63920783996582,1350943,0.0,0
2020-05-05,28.303966351143977,30.554874420166012,28.303966351143977,30.554874420166016,907500,0.0,0
2020-05-06,30.650658347730193,31.800058766538715,30.267525483767887,30.698549270629883,1813000,0.0,0
2020-05-07,30.650657129651716,31.56059924395686,30.650657129651716,31.36903190612793,854784,0.0,0
2020-05-08,31.369033182338516,34.96090721085056,31.129574913771048,33.71572494506836,2243000,0.0,0
2020-05-11,34.76934000689208,35.00879827643519,33.81150692871961,34.481990814208984,931312,0.0,0
2020-05-12,35.315835794192324,35.51203563037796,34.43293840245727,34.53104019165039,523626,0.85,0
2020-05-13,34.5800889614782,35.65918243928238,34.383889126731816,35.51203536987305,1024386,0.0,0
2020-05-14,35.31583610443107,36.29683155177638,35.02153821866761,36.10063171386719,1343500,0.0,0
2020-05-15,35.80633314601705,36.296830860346056,34.13864016885834,34.481990814208984,1857760,0.0,0
2020-05-18,34.48199116815414,34.678187262139154,33.94244068309349,34.53104019165039,499500,0.0,0
2020-05-19,34.82533878672957,35.8553832700096,34.33484105733901,34.6291389465332,244400,0.0,0
2020-05-20,34.62914003317796,34.62914003317796,33.353846645184596,33.746246337890625,526894,0.0,0
2020-05-21,34.28579110633907,34.53103996440702,33.74624436702971,33.991493225097656,1217223,0.0,0
2020-05-22,33.15764799700992,33.893394640769905,32.12760344418612,32.37285232543945,2276711,0.0,0
2020-05-25,33.353848026423286,33.94244384765625,32.07855458561788,33.94244384765625,483278,0.0,0
2020-05-26,34.432939106336846,34.776289762230654,33.74624527895062,34.6291389465332,1095000,0.0,0
2020-05-27,33.89339143655012,34.18768931779154,33.35384469724075,33.991493225097656,821164,0.0,0
2020-05-28,34.04054461896312,35.36488704788122,33.99149559237372,34.825340270996094,1549500,0.0,0
2020-05-29,34.9724903863056,34.9724903863056,33.74624603534399,34.72724151611328,882041,0.0,0
2020-06-01,34.92343919935515,34.92343919935515,33.84434561854286,34.43294143676758,838500,0.0,0
2020-06-02,34.28579095984398,36.051581981948274,34.04054210282393,36.002532958984375,1132980,0.0,0
2020-06-03,35.75728522101176,35.95348506120813,34.481991873036456,34.6291389465332,646000,0.0,0
2020-06-04,35.26678863890186,35.413935717185524,34.48199299478655,34.77629089355469,275414,0.0,0
2020-06-05,35.119638962011145,38.06262552992606,35.119638962011145,36.9835319519043,2794905,0.0,0
2020-06-08,37.32687870610434,38.60217213088118,35.95348722642194,36.44398498535156,1010084,0.0,0
2020-06-09,36.73828160171165,37.719277085110086,36.29683288574219,36.787330627441406,3154770,0.0,0
2020-06-10,37.13067604859416,37.13067604859416,36.44398223173823,36.591129302978516,555392,0.0,0
2020-06-11,36.640180247517925,36.640180247517925,34.13864248328833,34.28579330444336,1235064,0.0,0
2020-06-12,34.23674350227057,34.82533928915056,33.353846079749836,34.18769073486328,955432,0.0,0
2020-06-15,33.15764653099877,33.50099719489331,32.22570007500042,33.206695556640625,1849044,0.0,0
2020-06-16,33.50099669358688,34.187690526698766,32.912397168090045,33.64814376831055,783662,0.0,0
2020-06-17,34.28579079912748,34.28579079912748,33.25574635291175,33.451942443847656,418000,0.0,0
2020-06-18,33.50099669358688,33.84434361014282,33.05954798501444,33.64814376831055,463000,0.0,0
2020-06-19,33.84434509277344,34.236744793627985,33.4519453919189,33.84434509277344,759405,0.0,0
2020-06-22,33.942441959968654,34.1386418035351,32.3728506958386,32.66714859008789,1871666,0.0,0
2020-06-23,32.66714955141525,33.4519452065752,31.931402923040128,33.3047981262207,695455,0.0,0
2020-06-24,33.304797467713215,34.53104182409293,33.304797467713215,34.23674392700195,536741,0.0,0
2020-06-26,33.89339471820121,35.462989807128906,33.50099875262,35.462989807128906,1130153,0.0,0
2020-06-29,35.31583872276646,35.31583872276646,33.64814559019563,33.893394470214844,826526,0.0,0
2020-06-30,33.35384751680617,34.72724273496679,32.765251704566424,34.38389205932617,2519162,0.0,0
2020-07-02,34.33484012951254,35.56108441985228,33.991493225097656,33.991493225097656,1025696,0.0,0
2020-07-03,33.55004440854377,34.53103983720177,33.55004440854377,34.481990814208984,368000,0.0,0
2020-07-06,33.648143487752094,35.119636675923765,33.648143487752094,34.6291389465332,851373,0.0,0
2020-07-07,38.062624290500416,38.062624290500416,34.33484217430207,34.77629089355469,1403820,0.0,0
2020-07-08,34.481992645920954,35.21773925649793,34.33484182692525,34.72724151611328,812000,0.0,0
2020-07-09,35.11963836108566,35.610136114012,34.97249128052828,35.36488723754883,781867,0.0,0
2020-07-10,35.21773925649793,35.21773925649793,34.43293987812187,34.72724151611328,407020,0.0,0
2020-07-13,33.99149461753519,36.05158361281579,33.99149461753519,35.70823669433594,659238,0.0,0
2020-07-14,34.82533829695695,35.3158360194493,34.3348405744646,35.070587158203125,869000,0.0,0
2020-07-15,35.26678916026181,35.364887213901135,33.648145079806895,34.334842681884766,1454000,0.0,0
2020-07-16,34.7272427212815,34.7272427212815,32.912398773555815,33.35384750366211,2123000,0.0,0
2020-07-17,33.01049896010655,33.64814376831055,32.66714830134988,33.64814376831055,575700,0.0,0
2020-07-20,33.99149292052307,34.33483982186146,33.010497497041314,33.451942443847656,912975,0.0,0
2020-07-21,33.304797809278746,34.33484233076142,33.25574878296068,34.28579330444336,400077,0.0,0
2020-07-22,34.72724139059739,35.90443296950516,33.45194427644604,33.69719314575195,1111500,0.0,0
2020-07-23,33.55004411825949,33.991492805776176,32.2747508204784,32.421897888183594,1162325,0.0,0
2020-07-24,32.37285087222145,32.37285087222145,30.852308625148176,30.901357650756836,1758346,0.0,0
2020-07-27,30.508959031157346,31.686152454745525,30.508959031157346,31.048505783081055,985139,0.0,0
2020-07-28,31.391855591388182,31.83330430908224,31.146606719580465,31.44090461730957,407000,0.0,0
2020-07-29,32.17665139335824,32.17665139335824,30.55800920556712,30.950407028198242,1265000,0.0,0
2020-07-30,31.68615313430178,31.833303952618966,31.097557345434556,31.391855239868164,508500,0.0,0
2020-07-31,31.735202470675556,31.735202470675556,30.21466021603344,30.410860061645508,745711,0.0,0
2020-08-03,30.21466014023172,30.950406752780548,29.822262321092424,30.656108856201172,471000,0.0,0
2020-08-04,31.048507030984997,31.048507030984997,30.312760410008572,30.705158233642578,349508,0.0,0
2020-08-05,30.901356738843344,31.58805430370222,30.459908036991163,31.539005279541016,1096000,0.0,0
2020-08-06,32.17665058522974,32.17665058522974,30.410859492187996,31.097557067871094,600478,0.0,0
2020-08-07,31.637103360419474,31.637103360419474,29.773212373870642,31.29375457763672,1072500,0.0,0
2020-08-10,30.50895888459626,30.999456609843467,29.969410264164136,30.263710021972656,260000,0.0,0
2020-08-11,30.31275897842704,30.754207678604754,30.067510116350608,30.50895881652832,308225,0.0,0
2020-08-12,30.705158116816225,30.705158116816225,29.52796465039316,29.92036247253418,175500,0.0,0
2020-08-13,29.72416273900735,30.852309054718198,29.72416273900735,30.705158233642578,579493,0.0,0
2020-08-14,30.410859044124148,31.539005311996117,30.410859044124148,31.29375457763672,453135,0.0,0
2020-08-17,31.882353131733247,31.882353131733247,30.60705975490407,30.901357650756836,261612,0.0,0
2020-08-18,30.90135683902007,31.2937546468828,30.75420789495909,31.048505783081055,210500,0.0,0
2020-08-19,31.391855748096003,31.489953800428474,30.263711306368887,30.950407028198242,386000,0.0,0
2020-08-20,30.116561290997,30.901356908486683,29.969410475504883,30.80325698852539,721456,0.0,0
2020-08-21,31.29375606850031,31.29375606850031,30.214660644531246,30.21466064453125,151500,0.0,0
2020-08-24,30.410859910268634,31.048506598683222,30.11656201441587,30.901357650756836,1099151,0.0,0
2020-08-25,31.244706219069652,32.029503720878374,31.195655322712646,31.637104034423828,344000,0.0,0
2020-08-26,33.25574961936609,33.25574961936609,31.88235439471345,32.86334991455078,2598000,0.0,0
2020-08-27,33.20669471132179,33.746245206249576,32.76524974958186,33.59909439086914,1325845,0.0,0
2020-08-28,33.59909656263198,34.825340962728035,33.108598802593555,33.893394470214844,1446500,0.0,0
2020-08-31,33.69719408270025,34.67818958720041,32.86334940075545,33.3047981262207,604816,0.0,0
2020-09-01,33.94244072094496,33.94244072094496,32.667147397617086,33.010498046875,598000,0.0,0
2020-09-02,33.550045149477775,33.99149385056314,32.76524953765971,33.059547424316406,244180,0.0,0
2020-09-03,32.86334723402152,33.50099576678576,32.470947561212654,33.010498046875,154500,0.0,0
2020-09-04,32.17665195913381,33.206696495539745,31.440905327100864,32.814300537109375,449000,0.0,0
2020-09-07,32.81429834245371,32.86334736620194,32.3238006205701,32.52000045776367,325111,0.0,0
2020-09-08,33.599998474121094,33.79999923706055,32.75,33.599998474121094,246476,0.63,0
2020-09-09,33.599998474121094,34.20000076293945,33.0,34.099998474121094,558500,0.0,0
2020-09-10,34.099998474121094,35.099998474121094,34.04999923706055,34.29999923706055,880500,0.0,0
2020-09-11,34.25,34.70000076293945,34.0,34.70000076293945,139340,0.0,0
2020-09-14,34.650001525878906,34.70000076293945,34.099998474121094,34.400001525878906,234492,0.0,0
2020-09-15,34.20000076293945,34.849998474121094,33.79999923706055,34.099998474121094,331000,0.0,0
2020-09-16,33.95000076293945,34.400001525878906,33.95000076293945,34.099998474121094,184500,0.0,0
2020-09-17,33.45000076293945,35.20000076293945,33.45000076293945,34.599998474121094,704518,0.0,0
2020-09-18,34.5,34.70000076293945,34.0,34.70000076293945,280712,0.0,0
2020-09-21,34.099998474121094,34.349998474121094,33.75,34.0,276000,0.0,0
2020-09-22,33.95000076293945,33.95000076293945,33.400001525878906,33.599998474121094,266000,0.0,0
2020-09-23,33.45000076293945,34.04999923706055,33.099998474121094,33.25,486983,0.0,0
2020-09-24,33.25,33.79999923706055,33.150001525878906,33.5,175000,0.0,0
2020-09-25,34.0,34.0,33.150001525878906,33.25,533500,0.0,0
2020-09-28,33.349998474121094,33.599998474121094,33.099998474121094,33.20000076293945,2140321,0.0,0
2020-09-29,34.20000076293945,34.20000076293945,33.25,33.54999923706055,428000,0.0,0
2020-09-30,33.25,35.0,33.25,33.349998474121094,273698,0.0,0
2020-10-05,34.599998474121094,34.599998474121094,33.099998474121094,33.400001525878906,1107000,0.0,0
2020-10-06,33.400001525878906,34.0,33.29999923706055,33.79999923706055,641021,0.0,0
2020-10-07,33.79999923706055,34.04999923706055,33.349998474121094,33.45000076293945,334000,0.0,0
2020-10-08,33.95000076293945,33.95000076293945,33.25,33.29999923706055,289500,0.0,0
2020-10-09,31.799999237060547,32.75,31.799999237060547,32.400001525878906,387000,0.0,0
2020-10-12,32.099998474121094,33.0,31.799999237060547,32.099998474121094,1163887,0.0,0
2020-10-14,32.20000076293945,33.0,31.5,32.45000076293945,965000,0.0,0
2020-10-15,32.29999923706055,32.599998474121094,31.100000381469727,31.5,801834,0.0,0
2020-10-16,31.299999237060547,31.399999618530273,30.600000381469727,31.0,914952,0.0,0
2020-10-19,31.149999618530273,31.200000762939453,30.100000381469727,30.200000762939453,416655,0.0,0
2020-10-20,30.5,31.049999237060547,30.0,31.049999237060547,710500,0.0,0
2020-10-21,31.25,31.25,30.700000762939453,30.899999618530273,203855,0.0,0
2020-10-22,31.100000381469727,31.100000381469727,30.5,30.75,342000,0.0,0
2020-10-23,30.850000381469727,31.5,30.799999237060547,31.5,190862,0.0,0
2020-10-27,30.799999237060547,31.25,30.100000381469727,30.850000381469727,719500,0.0,0
2020-10-28,30.950000762939453,31.549999237060547,30.399999618530273,31.5,273500,0.0,0
2020-10-29,31.450000762939453,31.450000762939453,30.649999618530273,31.350000381469727,149579,0.0,0
2020-10-30,31.5,31.5,30.549999237060547,30.799999237060547,323076,0.0,0
2020-11-02,30.549999237060547,30.899999618530273,29.799999237060547,30.799999237060547,827957,0.0,0
2020-11-03,30.799999237060547,32.0,30.350000381469727,31.0,512500,0.0,0
2020-11-04,31.0,31.299999237060547,30.75,30.950000762939453,575500,0.0,0
2020-11-05,31.25,34.349998474121094,31.25,33.150001525878906,1979900,0.0,0
2020-11-06,33.20000076293945,34.099998474121094,32.29999923706055,32.45000076293945,1474000,0.0,0
2020-11-09,32.45000076293945,33.45000076293945,32.45000076293945,32.849998474121094,939423,0.0,0
2020-11-10,32.650001525878906,33.04999923706055,32.54999923706055,32.849998474121094,444500,0.0,0
2020-11-11,33.04999923706055,33.04999923706055,31.799999237060547,31.850000381469727,637000,0.0,0
2020-11-12,32.099998474121094,32.099998474121094,31.200000762939453,31.5,272848,0.0,0
2020-11-13,31.0,31.25,30.649999618530273,30.950000762939453,797500,0.0,0
2020-11-16,31.0,32.04999923706055,30.799999237060547,31.549999237060547,1019500,0.0,0
2020-11-17,32.0,32.0,30.950000762939453,31.149999618530273,720168,0.0,0
2020-11-18,31.0,32.04999923706055,30.5,31.100000381469727,1000860,0.0,0
2020-11-19,31.25,31.649999618530273,31.049999237060547,31.25,1830801,0.0,0
2020-11-20,31.200000762939453,32.400001525878906,31.149999618530273,32.20000076293945,2729000,0.0,0
2020-11-23,32.5,33.25,32.0,32.0,907414,0.0,0
2020-11-24,32.0,32.400001525878906,31.700000762939453,32.099998474121094,986962,0.0,0
2020-11-25,32.0,32.20000076293945,31.549999237060547,31.700000762939453,1034500,0.0,0
2020-11-26,31.700000762939453,31.75,31.549999237060547,31.700000762939453,123000,0.0,0
2020-11-27,31.75,32.0,31.700000762939453,31.899999618530273,556513,0.0,0
2020-11-30,31.549999237060547,31.950000762939453,31.100000381469727,31.700000762939453,973394,0.0,0
2020-12-01,31.600000381469727,32.45000076293945,31.600000381469727,32.0,1080230,0.0,0
2020-12-02,32.20000076293945,33.099998474121094,31.5,32.0,1081089,0.0,0
2020-12-03,31.399999618530273,32.20000076293945,31.399999618530273,32.0,551579,0.0,0
2020-12-04,31.950000762939453,32.25,31.600000381469727,32.099998474121094,886500,0.0,0
2020-12-07,31.899999618530273,32.20000076293945,31.700000762939453,31.700000762939453,804370,0.0,0
