Date,Open,High,Low,Close,Volume,Dividends,Stock Splits
2020-01-02,7.239730484967216,7.345994953752844,7.1733072345641045,7.306143283843994,38330249,0.0,0.0
2020-01-03,7.372566560119797,7.385847125506133,7.120175483964202,7.186588287353516,50440709,0.0,0.0
2020-01-06,7.160026881901332,7.160026881901332,6.827922971864707,6.974049091339111,67720559,0.0,0.0
2020-01-07,6.987329469454793,7.173307255046097,6.974048904932908,7.106884479522705,49351079,0.0,0.0
2020-01-08,6.881065173378402,7.093604093357404,6.867774632065366,7.053752422332764,28067879,0.0,0.0
2020-01-09,7.173307108884434,7.279582027334409,7.133455439673805,7.239730358123779,42028964,0.0,0.0
2020-01-10,7.292862892150879,7.3592856690583766,7.226440115243381,7.292862892150879,33900179,0.0,0.0
2020-01-13,7.372565918845435,7.412417587995732,7.266291475625723,7.359285354614258,35285024,0.0,0.0
2020-01-14,7.425698298079355,7.425698298079355,7.1733072389196675,7.266291618347168,46431314,0.0,0.0
2020-01-15,7.186588287353516,7.292863214886514,7.0404721387309195,7.186588287353516,40253639,0.0,0.0
2020-01-16,7.2264396269152575,7.585104640355939,7.160026355883451,7.531972408294678,104389859,0.0,0.0
2020-01-17,7.531973018925661,7.890638536513377,7.372566333361964,7.797654628753662,145425854,0.0,0.0
2020-01-20,7.970341956232138,8.30243637061247,7.93049028445653,8.182881355285645,153152849,0.0,0.0
2020-01-21,8.262584420115045,8.2758749612302,7.797654440985311,7.930490016937256,131292284,0.0,0.0
2020-01-22,7.97034167271172,8.103177723488773,7.890638331995704,8.050045013427734,56751449,0.0,0.0
2020-01-23,7.970341895815496,8.023474607363811,7.545253599542709,7.678099155426025,131751044,0.0,0.0
2020-01-24,7.771083197362988,7.771083197362988,7.531972703947367,7.6249566078186035,30508514,0.0,0.0
2020-01-29,7.438988689241704,7.571824260858181,7.306143141168467,7.399137020111084,55421684,0.0,0.0
2020-01-30,7.30614331890221,7.4389888702071305,6.920916683836769,6.987329483032227,94928279,0.0,0.0
2020-01-31,7.106884853057889,7.173307632072436,6.8544942551346235,6.92091703414917,59045864,0.0,0.0
2020-02-03,6.841213199954489,7.372565939712842,6.841213199954489,7.120174884796143,132769379,0.0,0.0
2020-02-04,7.213158767174878,7.372565918845435,7.067032654804869,7.359285354614258,123931124,0.0,0.0
2020-02-05,7.412417584335704,7.62495649421342,7.226439802907228,7.399137020111084,84218399,0.0,0.0
2020-02-06,7.5054017843861605,7.585105125807376,7.359285642752037,7.49212121963501,57664739,0.0,0.0
2020-02-07,7.319433807482231,7.545253285460582,7.30614326657273,7.465549945831299,37195919,0.0,0.0
2020-02-10,7.39913748467637,7.571824736265879,7.306143599894999,7.4788408279418945,59215694,0.0,0.0
2020-02-11,7.61167603504306,7.784363753242914,7.5186921312738635,7.704659938812256,78048629,0.0,0.0
2020-02-12,7.757802624427085,7.797654294107726,7.6515277047237005,7.704659938812256,52861484,0.0,0.0
2020-02-13,7.678098809996428,7.744512083562273,7.478840461593222,7.704659938812256,55788134,0.0,0.0
2020-02-14,7.771083178124567,7.957060961863535,7.757802613734956,7.824215412139893,69774884,0.0,0.0
2020-02-17,7.890638361460416,7.943770596650475,7.771083349939958,7.810935020446777,27705899,0.0,0.0
2020-02-18,7.717950177134762,7.810934552328363,7.545252964317087,7.651527404785156,40562249,0.0,0.0
2020-02-19,7.731231866974341,7.797654644915999,7.638247483952499,7.678099155426025,54658049,0.0,0.0
2020-02-20,7.837505659258925,7.837505659258925,7.571824071156142,7.61167573928833,45279809,0.0,0.0
2020-02-21,7.531972890345617,7.598395667015681,7.4389889841732515,7.49212121963501,54551459,0.0,0.0
2020-02-24,7.598395514146857,7.598395514146857,7.239730484967216,7.306143283843994,49727219,0.0,0.0
2020-02-25,7.306143441111183,7.438988994638193,7.173307388971952,7.412417888641357,37380869,0.0,0.0
2020-02-26,7.478840676154584,7.598395688626435,7.306143451612677,7.332714557647705,69846809,0.0,0.0
2020-02-27,7.332714359412374,7.6382471529551665,7.3194337949824835,7.585104942321777,104760089,0.0,0.0
2020-02-28,7.399137313462644,7.731231718968043,7.3061434308331235,7.49212121963501,128230079,0.0,0.0
2020-03-02,7.545253276824951,7.638247157257304,7.412417703080486,7.545253276824951,53986859,0.0,0.0
2020-03-03,7.638247303591228,7.877357801855685,7.638247303591228,7.771083354949951,112166009,0.0,0.0
2020-03-04,7.864067081765609,7.864067081765609,7.571824354926613,7.824215412139893,69225029,0.0,0.0
2020-03-05,7.90391904635666,8.26258456144247,7.850786810358499,8.196171760559082,152952299,0.0,0.0
2020-03-06,8.103178011734428,8.47513359927839,8.076616881522304,8.182881355285645,157712699,0.0,0.0
2020-03-09,7.704659943017824,7.917209307471236,7.585104933910642,7.66480827331543,134551154,0.0,0.0
2020-03-10,7.89063821537824,7.89063821537824,7.332714363542424,7.545253276824951,101149874,0.0,0.0
2020-03-11,7.611676060637296,7.611676060637296,7.372566041749444,7.465549945831299,68871164,0.0,0.0
2020-03-12,7.306143456949502,7.3592856690583766,7.000620156311444,7.292862892150879,105588254,0.0,0.0
2020-03-13,6.907625978203682,7.505401490527502,6.708367157382829,7.359285354614258,152389949,0.0,0.0
2020-03-16,7.199878738969756,7.279582558273614,6.748219804002851,6.92091703414917,126742499,0.0,0.0
2020-03-17,7.093603787391196,7.173307126002656,6.58217688171722,7.04047155380249,119153519,0.0,0.0
2020-03-18,6.894345959391114,7.2530114851875425,6.502474032161367,6.721658229827881,153190499,0.0,0.0
2020-03-19,6.641954442753931,6.841213266064299,6.150443391052181,6.4426960945129395,155144549,0.0,0.0
2020-03-20,6.721657576593963,6.881064725383642,6.489182859780777,6.814641952514648,88872944,0.0,0.0
2020-03-23,6.5755316553753165,6.734938808734956,6.529034715388366,6.562251091003418,67064264,0.0,0.0
2020-03-24,7.186587523256476,7.186587523256476,6.881064716651309,6.934196949005127,109899539,0.0,0.0
2020-03-25,7.120175483964202,7.2397309768835365,6.947478251653668,7.186588287353516,70740389,0.0,0.0
2020-03-26,7.053752244978183,7.2795821756615045,6.947477799432155,7.106884479522705,87319919,0.0,0.0
2020-03-27,7.226440146356518,7.279582358694194,6.974049080283484,7.053752422332764,50390699,0.0,0.0
2020-03-30,6.947477968700704,7.213159100810345,6.920916839009798,7.09360408782959,47006084,0.0,0.0
2020-03-31,6.655235105180392,6.801361696597854,6.336421743298791,6.788071155548096,252048149,0.0,0.0
2020-04-01,6.482547572822217,6.894345296616056,6.482547572822217,6.695086479187012,105170219,0.0,0.0
2020-04-02,6.78807114618133,6.947477826902167,6.59545759072661,6.867774486541748,65885594,0.0,0.0
2020-04-03,6.814642105958801,7.106884355540892,6.814642105958801,7.000619888305664,43288154,0.0,0.0
2020-04-06,7.213158925068734,7.226439964659999,6.947477799432155,7.106884479522705,35220029,0.0,0.0
2020-04-07,7.239730484967216,7.359285494693763,7.093603894746407,7.306143283843994,88940939,0.0,0.0
2020-04-08,7.359285674493092,7.359285674493092,7.160026845011252,7.253011226654053,48475109,0.0,0.0
2020-04-09,7.3061434308331235,7.611676231766832,7.2397306306202145,7.49212121963501,84978599,0.0,0.0
2020-04-14,7.585105131114092,7.598395672331696,7.412417883399696,7.452269554138184,72691409,0.0,0.0
2020-04-15,7.50540161564594,7.784363779417812,7.438988816926157,7.465549945831299,76080299,0.0,0.0
2020-04-16,7.372566046036366,7.59839550060296,7.359285481576073,7.425698280334473,65283014,0.0,0.0
2020-04-17,7.611676039197873,7.810934862779218,7.558543805080315,7.66480827331543,91466174,0.0,0.0
2020-04-20,7.638247288967389,7.970341692352856,7.58510507738771,7.89063835144043,66724664,0.0,0.0
2020-04-21,7.518692178894437,7.571824413319511,7.1733072389196675,7.266291618347168,585785699,0.0,0.0
2020-04-22,7.213158767174878,7.465549821377206,7.173307098024582,7.359285354614258,121599584,0.0,0.0
2020-04-23,7.4788408279418945,7.638247514472945,7.425698614793287,7.4788408279418945,90144269,0.0,0.0
2020-04-24,7.412417883399696,7.518692330854719,7.3194339771622765,7.452269554138184,66248204,0.0,0.0
2020-04-27,7.5851046324355496,7.717950177134762,7.478840168423987,7.651527404785156,64568609,0.0,0.0
2020-04-28,7.6116763774843665,7.691379720431418,7.505401928069183,7.678099155426025,41855744,0.0,0.0
2020-04-29,7.771082892324489,7.784363456225676,7.465549635875711,7.531972408294678,57967949,0.0,0.0
2020-05-04,7.385846623661693,7.385846623661693,7.213158904472953,7.306143283843994,72758159,0.0,0.0
2020-05-05,7.425698448160138,7.545253460375603,7.359285647900765,7.452269554138184,38133224,0.0,0.0
2020-05-06,7.558543786568521,7.890638182858872,7.518692116963729,7.864067077636719,101102639,0.0,0.0
2020-05-07,7.744511938924012,7.930489719445939,7.704659794918283,7.83750581741333,57008759,0.0,0.0
2020-05-08,7.943770586563017,7.943770586563017,7.810935010528002,7.89063835144043,41030189,0.0,0.0
2020-05-11,7.970341697387768,8.14302941905747,7.797654450787453,7.8507866859436035,62788244,0.0,0.0
2020-05-12,7.757802963256835,7.890638542508398,7.704660275320947,7.757802963256836,72676304,0.0,0.0
2020-05-13,7.82421556545745,8.076616604073479,7.797654436157757,7.970341682434082,68195384,0.0,0.0
2020-05-14,7.8906383465059635,8.063326067958586,7.850786676074672,7.930490016937256,45581579,0.0,0.0
2020-05-15,7.9570614270910855,8.076616918027689,7.877358083179619,7.943770885467529,46985489,0.0,0.0
2020-05-18,7.983622885967817,8.169600202097717,7.79765459615641,8.036765098571777,40249784,0.0,0.0
2020-05-19,8.1961717719016,8.22273290170881,8.023474545868385,8.11646842956543,44017274,0.0,0.0
2020-05-20,8.076616274104802,8.408709713370605,8.076616274104802,8.23602294921875,76485149,0.0,0.0
2020-05-21,8.169600340682713,8.236023594405188,7.877358072232613,8.02347469329834,64251719,0.0,0.0
2020-05-22,7.797653993840698,7.9703412303214485,7.505401301395902,7.571824073791504,118177244,0.0,0.0
2020-05-25,7.571824711935566,7.704660291465476,7.4389891324056565,7.638247489929199,68834099,0.0,0.0
2020-05-26,7.784364197644596,8.076616918027689,7.771083632478507,7.943770885467529,61347164,0.0,0.0
2020-05-27,8.103177738389878,8.103177738389878,7.784363899870157,7.930490016937256,49477529,0.0,0.0
2020-05-28,7.837505981171837,7.877357650940869,7.319433799105052,7.545253276824951,126661094,0.0,0.0
2020-05-29,7.425698652917948,8.222733039804094,7.425698652917948,8.103178024291992,266155049,0.0,0.0
2020-06-01,8.368858770603037,8.886931459805673,8.368858770603037,8.647821426391602,140956949,0.0,0.0
2020-06-02,8.647821115569116,8.807227798782389,8.554836734111042,8.674391746520996,73383704,0.0,0.0
2020-06-03,8.900210383586455,8.940062050599408,8.661100381508732,8.820507049560547,68293379,0.0,0.0
2020-06-04,8.966633796691895,9.019766503285812,8.807227125661788,8.966633796691895,71708609,0.0,0.0
2020-06-05,8.966635031817404,9.152613307525272,8.820508429356506,9.099471092224121,54957809,0.0,0.0
2020-06-08,9.179173640524116,9.458135328995205,9.046337591668431,9.165892601013184,77311019,0.0,0.0
2020-06-09,9.19246419009234,9.338580328458008,9.059618639723817,9.086189270019531,58069124,0.0,0.0
2020-06-10,9.232315842646969,9.44485428073007,9.09947029252687,9.245595932006836,78248429,0.0,0.0
2020-06-11,9.298728163887288,9.57768983777894,9.165892121974045,9.205743789672852,76941074,0.0,0.0
2020-06-12,8.952981523796613,9.245657024237202,8.833253751291203,9.152528762817383,61875929,0.013333,0.0
2020-06-15,8.780045188117022,9.431893537522756,8.780045188117022,9.019500732421875,73237529,0.0,0.0
2020-06-16,9.31216576041088,9.538322024847577,9.24565699205499,9.378684043884277,69706319,0.0,0.0
2020-06-17,9.445203479188725,9.830986314629618,9.43189373253656,9.817687034606934,101336774,0.0,0.0
2020-06-18,9.697959607745036,9.764477895014519,9.471803330401988,9.711258888244629,64180844,0.0,0.0
2020-06-19,9.77777788013446,9.950714194829127,9.631440125767359,9.857596397399902,63601199,0.0,0.0
2020-06-22,9.857596328264972,9.87089560833548,9.485112771507282,9.591530799865723,62138069,0.0,0.0
2020-06-23,9.525022016733747,9.990593872760984,9.45850278019028,9.950714111328125,51546089,0.0,0.0
2020-06-24,10.1103218388947,10.1103218388947,9.817687242087429,9.897505760192871,29499839,0.0,0.0
2020-06-26,9.777778127025917,9.977324425228119,9.671349628604188,9.711258888244629,46450604,0.0,0.0
2020-06-29,9.844296142621578,9.85759637426593,9.525022074309089,9.724568367004395,65157689,0.0,0.0
2020-06-30,9.92411493357628,9.92411493357628,9.644750116093197,9.711258888244629,53527904,0.0,0.0
2020-07-02,9.84429576920649,10.057142285472425,9.724567998130835,9.830986022949219,68066744,0.0,0.0
2020-07-03,9.85759650114015,9.96402404648278,9.671349486180285,9.897505760192871,54652454,0.0,0.0
2020-07-06,10.043873231175773,10.043873231175773,9.4851131439209,9.485113143920898,137108999,0.0,0.0
2020-07-07,9.71125822582045,9.884204999714617,9.352074913557093,9.697958946228027,114513284,0.0,0.0
2020-07-08,9.844296061281783,9.924114577700394,9.751167798211005,9.817687034606934,55439234,0.0,0.0
2020-07-09,9.857596210746157,10.003963459207004,9.578231405606887,9.910804748535156,68085794,0.0,0.0
2020-07-10,9.897505916532744,10.389686816378056,9.73786887780025,10.110321998596191,98767034,0.0,0.0
2020-07-13,10.20350935532079,10.442964893353745,10.110321151376018,10.150230407714844,103383089,0.0,0.0
2020-07-14,10.176870419217568,10.176870419217568,9.79107711484511,9.990593910217285,56057069,0.0,0.0
2020-07-15,10.150231154352216,10.482874920798771,10.030503376528724,10.070412635803223,84716549,0.0,0.0
2020-07-16,10.230049263223625,10.296597995595617,9.57823135742273,9.644749641418457,83932904,0.0,0.0
2020-07-17,9.65805025954629,10.083782328053799,9.63144028064944,10.070412635803223,80515544,0.0,0.0
2020-07-20,10.256688976538495,10.47619037462051,9.777777873281497,10.037188529968262,81113060,0.0,1.5
2020-07-21,10.077097263100141,10.99501111465631,10.077097263100141,10.735600471496582,90713650,0.0,0.0
2020-07-22,10.875282943951522,11.214512117326354,10.396371841430662,10.396371841430664,88640570,0.0,0.0
2020-07-23,10.556008651401426,10.915191970663246,10.356462362922636,10.855328559875488,82554810,0.0,0.0
2020-07-24,10.21677939370774,10.536054403925434,9.79773171590031,9.917459487915039,556379900,0.0,0.0
2020-07-27,10.077097572409263,10.316553118901203,9.977323952281742,10.136960983276367,89764350,0.0,0.0
2020-07-28,10.35646281211468,10.376416966072155,9.957369266335412,10.1170072555542,55540680,0.0,0.0
2020-07-29,10.176870028080483,10.176870028080483,9.887527677579088,9.96734619140625,70038970,0.0,0.0
2020-07-30,10.136960983276367,10.296598014270995,9.937414694533086,10.136960983276367,74991820,0.0,0.0
2020-07-31,10.216779823566151,10.296598341600903,9.997279374726478,10.07709789276123,36573850,0.0,0.0
2020-08-03,9.997278635894325,10.176869812444238,9.777777251764746,9.977323532104492,69519050,0.0,0.0
2020-08-04,10.077097148030225,10.117006404098174,9.887527468073676,9.977323532104492,60216230,0.0,0.0
2020-08-05,9.997279274835288,10.077097792072506,9.827664687828253,9.947392463684082,83085730,0.0,0.0
2020-08-06,10.017232785889519,10.037187889674804,9.697958737418688,9.887527465820312,72398810,0.0,0.0
2020-08-07,9.887528110683572,9.887528110683572,9.448526265404539,9.678004264831543,84042880,0.0,0.0
2020-08-10,9.478457341699476,9.51836659770932,9.219046701879625,9.34875202178955,103634000,0.0,0.0
2020-08-11,9.398639148321596,9.418593301247165,9.169160204851181,9.378684043884277,79906950,0.0,0.0
2020-08-12,9.358730325827665,9.398639585045002,8.999546992871629,9.17913818359375,109141700,0.0,0.0
2020-08-13,9.229024675446924,9.368707553619544,9.129251055107657,9.239002227783203,55765820,0.0,0.0
2020-08-14,9.199093184704237,9.298865855860951,9.089342009466533,9.139228820800781,54981270,0.0,0.0
2020-08-17,9.179138075771334,9.448526285957849,9.069387852090783,9.229024887084961,77613870,0.0,0.0
2020-08-18,9.35872957603388,9.598185112153434,9.268933512111118,9.43854808807373,66078010,0.0,0.0
2020-08-19,9.438548405684484,9.568253729991806,9.338774786521391,9.378684043884277,28081040,0.0,0.0
2020-08-20,9.298865209063667,9.358729568803163,9.039455520890435,9.169159889221191,55551380,0.0,0.0
2020-08-21,9.22902446392701,9.278911272953287,9.099319141063384,9.159183502197266,41731930,0.0,0.0
2020-08-24,9.268934035421607,9.428571068514183,9.23900232959469,9.368707656860352,49754830,0.0,0.0
2020-08-25,9.438548856667396,9.448526409362794,8.83990901610875,8.999547004699707,120931600,0.0,0.0
2020-08-26,8.999546997656664,9.268934259638975,8.979591892281487,9.08934211730957,59325820,0.0,0.0
2020-08-27,9.029477968748509,9.11927403259924,8.86984094479686,9.079364776611328,45532870,0.0,0.0
2020-08-28,9.149206579849666,9.328798724101294,9.009523695263757,9.219047546386719,75309570,0.0,0.0
2020-08-31,9.129250953074228,9.278911381910442,8.929704666137695,8.929704666137695,95768580,0.0,0.0
2020-09-01,8.780045505385505,8.959636694347827,8.780045505385505,8.869841575622559,66080720,0.0,0.0
2020-09-02,8.949659665824539,9.298865425997812,8.829931895064126,9.248979568481445,97828300,0.0,0.0
2020-09-03,9.348752663330595,9.478457992141312,9.189115628336417,9.229024887084961,70621740,0.0,0.0
2020-09-04,9.059409883805854,9.119274244937497,8.92970456094708,9.069387435913086,112872300,0.0,0.0
2020-09-07,9.02947861092764,9.059410317169396,8.700226987732965,8.869841575622559,67689960,0.0,0.0
2020-09-08,8.959636698381557,8.979591803559568,8.630385075038648,8.780045509338379,51661050,0.0,0.0
2020-09-09,8.859863491098817,8.859863491098817,8.60045284854698,8.760089874267578,34841870,0.0,0.0
2020-09-10,8.760090088721498,8.899772965402432,8.640362316500017,8.660317420959473,39655720,0.0,0.0
2020-09-11,8.700226570535117,8.849886046079133,8.61043050460401,8.799999237060547,56594460,0.0,0.0
2020-09-14,8.880000114440918,8.949999809265137,8.699999809265137,8.869999885559082,31780690,0.02,0.0
2020-09-15,8.789999961853027,9.0600004196167,8.789999961853027,9.0,31893270,0.0,0.0
2020-09-16,9.069999694824219,9.170000076293945,8.960000038146973,9.029999732971191,31205750,0.0,0.0
2020-09-17,8.979999542236328,9.100000381469727,8.770000457763672,8.90999984741211,32338230,0.0,0.0
2020-09-18,9.0,9.0,8.8100004196167,8.930000305175781,42298740,0.0,0.0
2020-09-21,8.949999809265137,9.069999694824219,8.75,8.789999961853027,46489390,0.0,0.0
2020-09-22,8.699999809265137,8.850000381469727,8.609999656677246,8.680000305175781,45400030,0.0,0.0
2020-09-23,8.619999885559082,9.029999732971191,8.619999885559082,8.899999618530273,62470340,0.0,0.0
2020-09-24,8.760000228881836,8.9399995803833,8.670000076293945,8.779999732971191,39560550,0.0,0.0
2020-09-25,8.800000190734863,8.859999656677246,8.510000228881836,8.579999923706055,42702260,0.0,0.0
2020-09-28,8.59000015258789,8.6899995803833,8.470000267028809,8.5600004196167,39263810,0.0,0.0
2020-09-29,8.5,8.649999618530273,8.380000114440918,8.40999984741211,44317910,0.0,0.0
2020-09-30,8.649999618530273,8.649999618530273,8.4399995803833,8.4399995803833,25902430,0.0,0.0
2020-10-05,8.550000190734863,8.5600004196167,8.289999961853027,8.3100004196167,34166250,0.0,0.0
2020-10-06,8.399999618530273,8.649999618530273,8.359999656677246,8.539999961853027,44648570,0.0,0.0
2020-10-07,8.460000038146973,8.770000457763672,8.460000038146973,8.6899995803833,29418300,0.0,0.0
2020-10-08,8.699999809265137,8.699999809265137,8.5,8.600000381469727,25067180,0.0,0.0
2020-10-09,8.65999984741211,8.670000076293945,8.359999656677246,8.470000267028809,59580850,0.0,0.0
2020-10-12,8.550000190734863,8.609999656677246,8.470000267028809,8.529999732971191,54063180,0.0,0.0
2020-10-14,8.520000457763672,8.520000457763672,8.239999771118164,8.300000190734863,87631110,0.0,0.0
2020-10-15,8.300000190734863,8.329999923706055,8.100000381469727,8.130000114440918,71061270,0.0,0.0
2020-10-16,8.010000228881836,8.149999618530273,7.78000020980835,7.949999809265137,155386900,0.0,0.0
2020-10-19,8.0600004196167,8.149999618530273,7.889999866485596,8.020000457763672,89647820,0.0,0.0
2020-10-20,7.949999809265137,8.149999618530273,7.940000057220459,8.020000457763672,55200930,0.0,0.0
2020-10-21,8.09000015258789,8.210000038146973,8.010000228881836,8.029999732971191,45633370,0.0,0.0
2020-10-22,8.109999656677246,8.15999984741211,7.860000133514404,7.980000019073486,48680050,0.0,0.0
2020-10-23,8.0,8.0,7.820000171661377,7.940000057220459,71929410,0.0,0.0
2020-10-27,7.920000076293945,7.920000076293945,7.730000019073486,7.829999923706055,65502170,0.0,0.0
2020-10-28,7.880000114440918,8.0600004196167,7.679999828338623,7.989999771118164,80196180,0.0,0.0
2020-10-29,7.960000038146973,7.960000038146973,7.800000190734863,7.940000057220459,49583990,0.0,0.0
2020-10-30,8.039999961853027,8.039999961853027,7.71999979019165,7.820000171661377,60529280,0.0,0.0
2020-11-02,7.800000190734863,7.800000190734863,7.599999904632568,7.699999809265137,72334580,0.0,0.0
2020-11-03,7.699999809265137,7.960000038146973,7.650000095367432,7.869999885559082,68639340,0.0,0.0
2020-11-04,7.880000114440918,8.0600004196167,7.849999904632568,7.940000057220459,50919900,0.0,0.0
2020-11-05,8.100000381469727,8.329999923706055,8.050000190734863,8.149999618530273,109146900,0.0,0.0
2020-11-06,8.170000076293945,8.210000038146973,7.980000019073486,8.119999885559082,76219830,0.0,0.0
2020-11-09,8.220000267028809,8.289999961853027,8.130000114440918,8.15999984741211,69240780,0.0,0.0
2020-11-10,8.3100004196167,8.3100004196167,7.96999979019165,8.010000228881836,75165220,0.0,0.0
2020-11-11,8.130000114440918,8.140000343322754,7.820000171661377,7.929999828338623,80072260,0.0,0.0
2020-11-12,7.849999904632568,8.1899995803833,7.849999904632568,7.980000019073486,57673660,0.0,0.0
2020-11-13,8.069999694824219,8.100000381469727,7.880000114440918,7.940000057220459,58534430,0.0,0.0
2020-11-16,8.079999923706055,8.079999923706055,7.809999942779541,7.869999885559082,67650900,0.0,0.0
2020-11-17,7.809999942779541,7.860000133514404,7.670000076293945,7.769999980926514,88209620,0.0,0.0
2020-11-18,7.820000171661377,7.860000133514404,7.650000095367432,7.699999809265137,63265920,0.0,0.0
2020-11-19,7.710000038146973,7.880000114440918,7.650000095367432,7.800000190734863,63062700,0.0,0.0
2020-11-20,7.739999771118164,7.940000057220459,7.739999771118164,7.880000114440918,58007140,0.0,0.0
2020-11-23,7.940000057220459,7.949999809265137,7.699999809265137,7.75,40960970,0.0,0.0
2020-11-24,7.75,7.789999961853027,7.659999847412109,7.730000019073486,45205970,0.0,0.0
2020-11-25,7.699999809265137,7.769999980926514,7.599999904632568,7.639999866485596,106770500,0.0,0.0
2020-11-26,7.659999847412109,7.710000038146973,7.559999942779541,7.619999885559082,90394310,0.0,0.0
2020-11-27,7.630000114440918,7.650000095367432,7.460000038146973,7.590000152587891,70243340,0.0,0.0
2020-11-30,7.650000095367432,7.849999904632568,7.559999942779541,7.800000190734863,86951350,0.0,0.0
2020-12-01,7.28000020980835,7.380000114440918,6.71999979019165,6.880000114440918,441206700,0.0,0.0
2020-12-02,6.800000190734863,6.869999885559082,6.590000152587891,6.650000095367432,182888900,0.0,0.0
2020-12-03,6.5,6.900000095367432,6.5,6.710000038146973,190921800,0.0,0.0
2020-12-04,6.78000020980835,6.809999942779541,6.639999866485596,6.690000057220459,108746400,0.0,0.0
2020-12-07,6.880000114440918,7.090000152587891,6.559999942779541,7.010000228881836,210434564,0.0,0.0
