Date,Open,High,Low,Close,Volume,Dividends,Stock Splits
2020-01-02,5.944295302986574,6.037030375064204,5.944295302986574,6.027756690979004,1845170,0.0,0
2020-01-03,6.037030530574441,6.092671309938134,5.990662993341226,6.0184831619262695,2692907,0.0,0
2020-01-06,6.018482707402275,6.018482707402275,5.83301345686352,5.8886542320251465,2510455,0.0,0
2020-01-07,5.888654576896921,5.925748429177091,5.851560724616752,5.870107650756836,1147116,0.0,0
2020-01-08,5.972115913048582,5.972115913048582,5.777372969195311,5.795919895172119,1641678,0.0,0
2020-01-09,5.814466718935094,5.88865442153816,5.814466718935094,5.87938117980957,1913122,0.0,0
2020-01-10,5.814466455287172,5.870107229716527,5.795919530477387,5.842287063598633,4342000,0.0,0
2020-01-13,5.8422873285080374,5.87938117980957,5.8051934772065055,5.87938117980957,2874656,0.0,0
2020-01-14,5.888654342685994,5.9535688026912315,5.888654342685994,5.935021877288818,3402604,0.0,0
2020-01-15,5.9164747628377725,5.935021687647557,5.833013380096957,5.842287063598633,1260018,0.0,0
2020-01-16,5.860834276609068,5.870107518373179,5.7959198154859335,5.851560592651367,3450504,0.0,0
2020-01-17,5.9350220900496184,5.9350220900496184,5.8330137755827245,5.897928237915039,2119215,0.0,0
2020-01-20,5.916475053774502,5.935021979496314,5.823740425165445,5.851560592651367,1393415,0.0,0
2020-01-21,5.833013501476272,5.8422871851709255,5.71245826660725,5.7310051918029785,3150118,0.0,0
2020-01-22,5.7310051918029785,5.7310051918029785,5.656817491020065,5.7310051918029785,1737257,0.0,0
2020-01-23,5.731005328274111,5.731005328274111,5.6197237744498185,5.6475443840026855,2280816,0.0,0
2020-01-24,5.6197237744498185,5.749552253911493,5.536262387984806,5.6475443840026855,1055133,0.0,0
2020-01-29,5.591903656789529,5.591903656789529,5.397160714769412,5.489895343780518,2702495,0.0,0
2020-01-30,5.489895777258871,5.582630413592239,5.248785280598489,5.285879135131836,3004000,0.0,0
2020-01-31,5.341520125516943,5.341520125516943,5.063315786490333,5.118956565856934,5180322,0.0,0
2020-02-03,5.100409199111779,5.248784597947633,5.0911355155877525,5.220964431762695,7587495,0.0,0
2020-02-04,5.258058679819514,5.41570777412281,5.193144216814156,5.276605606079102,5602694,0.0,0
2020-02-05,5.322972353827445,5.387886812603477,5.267331578673805,5.295152187347412,6592867,0.0,0
2020-02-06,5.3044255395405004,5.387886925110543,5.276605372479541,5.341519832611084,6488302,0.0,0
2020-02-07,5.304425847988626,5.369340311894892,5.285878921471637,5.322972774505615,3219768,0.0,0
2020-02-10,5.304425847988626,5.341520143216213,5.239511826275968,5.322972774505615,1376079,0.0,0
2020-02-11,5.304425824480036,5.415707825282392,5.295152582359444,5.350793361663818,2019308,0.0,0
2020-02-12,5.350793516109543,5.536262785810857,5.350793516109543,5.471348762512207,4194970,0.0,0
2020-02-13,5.471348417978296,5.508442269582738,5.443527808178169,5.489895343780518,2808284,0.0,0
2020-02-14,5.499168767502925,5.582630157470703,5.480621841087153,5.582630157470703,3288394,0.0,0
2020-02-17,5.554809051313499,5.638270433837306,5.554809051313499,5.610450267791748,1786000,0.0,0
2020-02-18,5.610450741207375,5.610450741207375,5.4435279620746435,5.480621814727783,30328090,0.0,0
2020-02-19,5.526989164883394,5.526989164883394,5.3878870010375985,5.387887001037598,1190509,0.0,0
2020-02-20,5.38788710475295,5.397160788878194,5.3044257164001465,5.3044257164001465,1977700,0.0,0
2020-02-21,5.3600671640733815,5.3600671640733815,5.1653242111206055,5.1653242111206055,2993700,0.0,0
2020-02-24,5.15605001658469,5.15605001658469,5.054041707939325,5.063315391540527,2032508,0.0,0
2020-02-25,4.989127790688639,5.0169479576581635,4.914940089178464,4.979854106903076,6814239,0.0,0
2020-02-26,4.933487070992321,5.044768624530581,4.887119535921253,4.952033996582031,11252930,0.0,0
2020-02-27,4.952034283399605,4.979854452298698,4.905666745642969,4.961307525634766,1494000,0.0,0
2020-02-28,4.9149403301397,5.0911359087677885,4.775838161891671,4.812932014465332,8361696,0.0,0
2020-03-02,4.850025653839111,5.026221666915489,4.831478728367576,4.850025653839111,10284930,0.0,0
2020-03-03,4.877846396029781,4.942760415851808,4.794385008037352,4.86857271194458,9952291,0.0,0
2020-03-04,4.887119793841451,4.933487331359588,4.812932087567317,4.859299182891846,4312100,0.0,0
2020-03-05,4.905666407981519,4.94276025875618,4.859298873416402,4.8778462409973145,2662535,0.0,0
2020-03-06,4.822205288374916,4.840752214784296,4.646009708582607,4.683103561401367,3610665,0.0,0
2020-03-09,4.6089152229483865,4.618188906866325,4.460539817810059,4.460539817810059,2392468,0.0,0
2020-03-10,4.469813582346433,4.516180676191652,4.330711416423583,4.4048991203308105,4631447,0.0,0
2020-03-11,4.414172912730662,4.460540007713634,4.395625544105146,4.451266765594482,4841980,0.0,0
2020-03-12,4.395625550031494,4.395625550031494,4.210156285462337,4.219429969787598,4037101,0.0,0
2020-03-13,4.033960342407227,4.135968661024441,3.9226787814758755,4.033960342407227,11635090,0.0,0
2020-03-16,4.024686973822227,4.052507142085425,3.8299440272054355,3.8484909534454346,5461983,0.0,0
2020-03-17,3.7372091754175116,3.8021231923291725,3.5610129443438607,3.5888333320617676,15865960,0.0,0
2020-03-18,3.588833480788602,3.63520101667011,3.3662703698219882,3.3755438327789307,7675872,0.0,0
2020-03-19,3.3569967804239242,3.4497316337049453,3.0602457363376248,3.125159978866577,7896664,0.0,0
2020-03-20,3.134433769992531,3.2178949418023968,3.106613158292432,3.171527624130249,8609496,0.0,0
2020-03-23,3.1437069931594284,3.2086212329370984,3.0695190694595826,3.1066129207611084,6157911,0.0,0
2020-03-24,3.0695193041547135,3.2178949418023968,3.0695193041547135,3.171527624130249,5141454,0.0,0
2020-03-25,3.2271681625275637,3.375543789011597,3.2178946996908615,3.338449716567993,7063580,0.0,0
2020-03-26,3.3106294337483493,3.421911212438197,3.254988654951826,3.3199028968811035,6463456,0.0,0
2020-03-27,3.384817268377068,3.5517396002528288,3.366270342613095,3.5053722858428955,7474000,0.0,0
2020-03-30,3.4497313946063186,3.4497313946063186,3.2920823097229004,3.2920823097229004,6638958,0.0,0
2020-03-31,3.366270317121166,3.5146457221093423,3.329176244777328,3.468278408050537,7511174,0.0,0
2020-04-01,3.4404581406598234,3.505372382626008,3.3569967513207843,3.384817361831665,7934193,0.0,0
2020-04-02,3.384817469008096,3.384817469008096,3.245715296436385,3.3662705421447754,7504729,0.0,0
2020-04-03,3.3662703261748943,3.3940907146850017,3.301355865221183,3.338449716567993,4140000,0.0,0
2020-04-06,3.3477233370392243,3.4775520439631076,3.2920825573990475,3.459005117416382,10546640,0.0,0
2020-04-07,3.514645631480683,3.616653940876462,3.4960987063354123,3.5888333320617676,4220033,0.0,0
2020-04-08,3.5517395905194853,3.7557562155576867,3.542466127662912,3.6352009773254395,7204000,0.0,0
2020-04-09,3.7093887357946174,3.8670378278168642,3.7093887357946174,3.7743031978607178,6507600,0.0,0
2020-04-14,3.7743031683692903,3.7743031683692903,3.6352010034251814,3.672294855117798,5990138,0.0,0
2020-04-15,3.6722948692985646,3.709388721134421,3.579560018612126,3.6073806285858154,4706642,0.0,0
2020-04-16,3.570286526016802,3.653747913051477,3.4682784343149486,3.5053722858428955,4650789,0.0,0
2020-04-17,3.5424662800390494,3.7372094505973874,3.5424662800390494,3.6908419132232666,6431253,0.0,0
2020-04-20,3.7093886801780256,3.7557562155576867,3.625927514468866,3.6352009773254395,4768679,0.0,0
2020-04-21,3.607380598641544,3.644474450169491,3.477551897196935,3.5053722858428955,5561736,0.0,0
2020-04-22,3.477551781190141,3.616653940876462,3.45900485604487,3.5888333320617676,4041478,0.0,0
2020-04-23,3.6537478571153787,3.690841708075447,3.4311845302581783,3.4311845302581787,9686375,0.0,0
2020-04-24,3.4497315481380606,3.5424661780220954,3.4497315481380606,3.4775519371032715,5113763,0.0,0
2020-04-27,3.5146458003011114,3.6073806515786258,3.5053723372830397,3.5795600414276123,5142557,0.0,0
2020-04-28,3.690841809803388,3.811397049843176,3.5331927177811417,3.7743031978607178,10902820,0.0,0
2020-04-29,3.8021235225277463,3.8763112295517237,3.737209499978573,3.829944133758545,8992340,0.0,0
2020-05-04,3.7650294955498493,3.7650294955498493,3.533192700684512,3.542466163635254,11089740,0.0,0
2020-05-05,3.6352010838954203,3.7186624731481386,3.5981072313816793,3.61665415763855,4652000,0.0,0
2020-05-06,3.6352008774499986,3.765029353875048,3.5981070270428415,3.7186622619628906,11851440,0.0,0
2020-05-07,3.792849962777204,3.792849962777204,3.6722947278571554,3.7186622619628906,6319859,0.0,0
2020-05-08,3.7835764397595346,3.792850123851947,3.7279356617858466,3.7743031978607178,8980000,0.0,0
2020-05-11,3.802123229678621,3.9319517069708643,3.7835763043511577,3.8577640056610107,28017100,0.0,0
2020-05-12,3.85776425291606,3.8855848637871473,3.7186625251414513,3.755756378173828,6624194,0.0,0
2020-05-13,3.718662416995357,3.7650295108405767,3.6815683439449454,3.7093887329101562,5604927,0.0,0
2020-05-14,3.7093888145864726,3.7093888145864726,3.5981072562753433,3.653748035430908,7167627,0.0,0
2020-05-15,3.6908419719826586,3.6908419719826586,3.588833653451753,3.59810733795166,3590021,0.0,0
2020-05-18,3.570286620899573,3.653748010152291,3.5053723790005265,3.61665415763855,6860000,0.0,0
2020-05-19,3.700115216774534,3.8484908435545697,3.700115216774534,3.8021233081817627,6645622,0.0,0
2020-05-20,3.7743033046900165,3.802123473367495,3.7279357673027413,3.755756378173828,3847455,0.0,0
2020-05-21,3.7835763559699003,3.7928500398569414,3.7186623375349566,3.7650294303894043,4270000,0.0,0
2020-05-22,3.7279357151797723,3.746482641436643,3.579560084028008,3.61665415763855,6091242,0.0,0
2020-05-25,3.6040926457132896,3.6137550832204024,3.4784807277501417,3.5944302082061768,5616465,0.157,0
2020-05-26,3.613755221749784,3.7490295824056403,3.613755221749784,3.7103796005249023,5070000,0.0,0
2020-05-27,3.7200419424072266,3.7876792361751286,3.6813921918945307,3.7297043800354004,5579097,0.0,0
2020-05-28,3.7103796005249023,3.787679333915688,3.671729849014855,3.7103796005249023,5294457,0.0,0
2020-05-29,3.6620672697548784,3.7393667697906494,3.652404832250407,3.7393667697906494,15561850,0.0,0
2020-06-01,3.7683545067557884,3.922953514789622,3.749029630751559,3.845654010772705,6652386,0.0,0
2020-06-02,3.8456538197055146,3.9229533198818887,3.8456538197055146,3.884303569793701,2275555,0.0,0
2020-06-03,3.913291120325505,3.9422782025772216,3.7973416394652255,3.9326159954071045,9257413,0.0,0
2020-06-04,3.961603069143289,4.00025281922341,3.8649786939429873,3.9809279441833496,4364630,0.0,0
2020-06-05,3.9326160910739922,4.203164348797885,3.903628547375744,4.154852390289307,15141870,0.0,0
2020-06-08,4.1935019887839315,4.2224890706859135,4.048565197049944,4.087214946746826,4259919,0.0,0
2020-06-09,4.0678901263402265,4.23215179512102,4.0678901263402265,4.174177169799805,4650734,0.0,0
2020-06-10,4.193502329240594,4.299788919165399,4.16451478424385,4.212827205657959,4742000,0.0,0
2020-06-11,4.212827057569378,4.212827057569378,4.09687734239964,4.1451897621154785,6251089,0.0,0
2020-06-12,4.009915486316916,4.096877193609217,4.000252818428124,4.077552318572998,3128826,0.0,0
2020-06-15,4.154852182581727,4.203164138675115,4.096877098083496,4.096877098083496,8285261,0.0,0
2020-06-16,4.212827016944426,4.241814099901298,4.125864846591059,4.154852390289307,5291191,0.0,0
2020-06-17,4.183839321136475,4.203164195985597,4.13552736438435,4.183839321136475,2143517,0.0,0
2020-06-18,4.1355276510700625,4.183839611171301,4.116202774881289,4.1258649826049805,3435601,0.0,0
2020-06-19,4.096877058686753,4.116202393827894,3.961602937888207,4.106539726257324,8813059,0.0,0
2020-06-22,4.058227347429543,4.067890015089503,3.8649786016438905,4.000252723693848,6278776,0.0,0
2020-06-23,4.0582275390625,4.106539958160944,3.9616031616069884,4.0582275390625,3687356,0.0,0
2020-06-24,4.1065397657469855,4.154852182581727,4.067890016575734,4.096877098083496,5424676,0.0,0
2020-06-26,4.087215082669841,4.087215082669841,4.019577788080295,4.0582275390625,1941560,0.0,0
2020-06-29,4.038902569303531,4.145189612394545,3.9422781941032286,3.9809279441833496,13132120,0.0,0
2020-06-30,4.038902856455496,4.096877485697472,4.009915772205207,4.019577980041504,7679183,0.0,0
2020-07-02,4.01957793319603,4.1258649826049805,3.9905908492835653,4.1258649826049805,6313902,0.0,0
2020-07-03,4.096877058686753,4.203164098256285,4.0872148518575315,4.106539726257324,6856704,0.0,0
2020-07-06,4.096877116245634,4.309451198371247,4.096877116245634,4.290126323699951,5815433,0.0,0
2020-07-07,4.348101045763451,4.44472542129881,4.145189626768514,4.174177169799805,5628217,0.0,0
2020-07-08,4.154852239233471,4.222489070834719,4.106539821739987,4.183839321136475,3031200,0.0,0
2020-07-09,4.261139166330671,4.2901267113274155,4.183839660661214,4.212827205657959,4377544,0.0,0
2020-07-10,4.174177211764452,4.212826962367156,4.067890167236328,4.067890167236328,3801000,0.0,0
2020-07-13,4.0582275390625,4.193502128241592,4.0582275390625,4.0582275390625,3021670,0.0,0
2020-07-14,4.106539958160944,4.106539958160944,3.980928037098091,4.0582275390625,2782400,0.0,0
2020-07-15,4.0582275390625,4.125864833652046,4.038902663571398,4.0582275390625,2754298,0.0,0
2020-07-16,4.1258649893163755,4.1258649893163755,3.961603311073906,4.029240608215332,4059545,0.0,0
2020-07-17,4.029240362154183,4.067890112234303,3.971265737034001,3.9809279441833496,2174000,0.0,0
2020-07-20,3.9519407690619794,4.116202433410475,3.9519407690619794,4.096877098083496,2940702,0.0,0
2020-07-21,4.067890210326857,4.1548523804748045,3.9616031646728516,3.9616031646728516,3716786,0.0,0
2020-07-22,4.009915543469989,4.019577750755131,3.9519409175350253,3.9712657928466797,5213656,0.0,0
2020-07-23,4.0002528754434765,4.038902626066786,3.9519409175350253,3.9712657928466797,6120240,0.0,0
2020-07-24,4.000252915684967,4.0099155838086835,3.922953413660736,3.9616031646728516,8403706,0.0,0
2020-07-27,3.951940861993941,3.9905906120740617,3.9326159869538806,3.9809279441833496,5325404,0.0,0
2020-07-28,4.029240370815102,4.038902577985219,3.9229533274956223,3.9326159954071045,2580924,0.0,0
2020-07-29,3.9616032611389773,3.980928137115601,3.9422783851623535,3.9422783851623535,1943121,0.0,0
2020-07-30,3.9422782891667936,4.0485653348207995,3.9422782891667936,3.9616031646728516,2658523,0.0,0
2020-07-31,3.9422783392256666,4.009915634726412,3.9036285877227783,3.9036285877227783,3605595,0.0,0
2020-08-03,3.942278345075431,3.9809280966356697,3.9132912617759423,3.9519410133361816,4676952,0.0,0
2020-08-04,4.000252868342682,4.000252868342682,3.913291159965286,3.9229533672332764,8925985,0.0,0
2020-08-05,3.9519410535213586,3.9616032611389773,3.9036286332091055,3.9422783851623535,6737124,0.0,0
2020-08-06,3.9616031177879796,3.9809279930653307,3.893966284687935,3.9229533672332764,3321094,0.0,0
2020-08-07,3.9229533692808163,3.9229533692808163,3.8070041175561897,3.826328992843628,3468333,0.0,0
2020-08-10,3.835991526993552,3.864978840653974,3.80700421333313,3.80700421333313,3564000,0.0,0
2020-08-11,3.8359914833116977,3.9326160914501616,3.8359914833116977,3.9132912158966064,9257547,0.0,0
2020-08-12,3.971266019377223,4.029240648619199,3.9519411429632307,4.019577980041504,12723840,0.0,0
2020-08-13,4.058227692174949,4.06789036065575,4.0099157319951235,4.029240608215332,3732131,0.0,0
2020-08-14,4.0582274041034845,4.106539821595267,4.048565197049944,4.087214946746826,4955334,0.0,0
2020-08-17,4.096877486412377,4.2418142899133064,4.096877486412377,4.212827205657959,4534930,0.0,0
2020-08-18,4.232152114269192,4.299788951873779,4.174177484576088,4.299788951873779,5401845,0.0,0
2020-08-19,4.299788570375895,4.377088530516344,4.2418139458265784,4.280463695526123,1456837,0.0,0
2020-08-20,4.2514766136221445,4.280463695526123,4.193501989072828,4.280463695526123,1887678,0.0,0
2020-08-21,4.319113405336218,4.319113405336218,4.2128268250147665,4.290126323699951,1666047,0.0,0
2020-08-24,4.319113598685645,4.357763810499807,4.203164345467283,4.251476764678955,1558586,0.0,0
2020-08-25,4.2128270136061685,4.377088686036201,4.193502138069775,4.251476764678955,1610000,0.0,0
2020-08-26,4.309451391288135,4.309451391288135,4.18383946993089,4.251476764678955,1646306,0.0,0
2020-08-27,4.290126304681108,4.290126304681108,4.067890016575734,4.096877098083496,2538838,0.0,0
2020-08-28,4.11620276849205,4.290126653921044,4.096877431591882,4.222489356994629,6277303,0.0,0
2020-08-31,4.28046388794206,4.319113639378993,4.2031643850681935,4.241814136505127,7145633,0.0,0
2020-09-01,4.299788626471601,4.299788626471601,4.203164250962163,4.270801544189453,6846599,0.0,0
2020-09-02,4.29978881526184,4.338438567162604,4.232151979806194,4.3287763595581055,2785312,0.0,0
2020-09-03,4.299788531677608,4.435063115149896,4.270801450034514,4.3867506980896,7662508,0.0,0
2020-09-04,4.386750700025154,4.599324782294627,4.280463658890418,4.5799994468688965,7079183,0.0,0
2020-09-07,4.551012381818273,4.763586004122007,4.522024839315267,4.676624298095703,5630803,0.0,0
2020-09-08,4.647636946478313,4.734599116817644,4.570337444283964,4.637974739074707,3057565,0.0,0
2020-09-09,4.6089869892661355,4.666961613319258,4.570337239897387,4.5799994468688965,2262666,0.0,0
2020-09-10,4.650000095367432,4.679999828338623,4.5,4.5,1992599,0.16,0
2020-09-11,4.570000171661377,4.570000171661377,4.360000133514404,4.400000095367432,1732132,0.0,0
2020-09-14,4.360000133514404,4.400000095367432,4.289999961853027,4.360000133514404,895761,0.0,0
2020-09-15,4.329999923706055,4.340000152587891,4.21999979019165,4.230000019073486,1380653,0.0,0
2020-09-16,4.230000019073486,4.300000190734863,4.230000019073486,4.260000228881836,1837559,0.0,0
2020-09-17,4.269999980926514,4.289999961853027,4.159999847412109,4.190000057220459,3888716,0.0,0
2020-09-18,4.230000019073486,4.230000019073486,4.079999923706055,4.110000133514404,6129397,0.0,0
2020-09-21,4.150000095367432,4.159999847412109,4.039999961853027,4.059999942779541,2788148,0.0,0
2020-09-22,4.110000133514404,4.179999828338623,4.03000020980835,4.119999885559082,3036381,0.0,0
2020-09-23,4.139999866485596,4.179999828338623,4.050000190734863,4.130000114440918,2157774,0.0,0
2020-09-24,4.139999866485596,4.28000020980835,4.110000133514404,4.170000076293945,5411188,0.0,0
2020-09-25,4.190000057220459,4.210000038146973,4.079999923706055,4.150000095367432,4573578,0.0,0
2020-09-28,4.150000095367432,4.239999771118164,4.119999885559082,4.190000057220459,2239142,0.0,0
2020-09-29,4.230000019073486,4.380000114440918,4.230000019073486,4.329999923706055,2768334,0.0,0
2020-09-30,4.360000133514404,4.46999979019165,4.360000133514404,4.420000076293945,7602574,0.0,0
2020-10-05,4.420000076293945,4.789999961853027,4.409999847412109,4.679999828338623,11718910,0.0,0
2020-10-06,4.710000038146973,4.949999809265137,4.690000057220459,4.900000095367432,8398732,0.0,0
2020-10-07,4.869999885559082,4.980000019073486,4.800000190734863,4.929999828338623,8351571,0.0,0
2020-10-08,4.889999866485596,5.03000020980835,4.860000133514404,5.03000020980835,4072649,0.0,0
2020-10-09,5.0,5.0,4.75,4.760000228881836,2433106,0.0,0
2020-10-12,4.760000228881836,4.840000152587891,4.670000076293945,4.769999980926514,2241827,0.0,0
2020-10-14,4.949999809265137,4.949999809265137,4.699999809265137,4.760000228881836,2979021,0.0,0
2020-10-15,4.769999980926514,4.78000020980835,4.639999866485596,4.659999847412109,3619747,0.0,0
2020-10-16,4.650000095367432,4.769999980926514,4.619999885559082,4.650000095367432,2893855,0.0,0
2020-10-19,4.679999828338623,4.730000019073486,4.550000190734863,4.599999904632568,2450305,0.0,0
2020-10-20,4.610000133514404,4.679999828338623,4.550000190734863,4.639999866485596,3953457,0.0,0
2020-10-21,4.75,4.900000095367432,4.699999809265137,4.880000114440918,4686000,0.0,0
2020-10-22,4.849999904632568,4.949999809265137,4.809999942779541,4.900000095367432,5026063,0.0,0
2020-10-23,4.949999809265137,4.949999809265137,4.789999961853027,4.800000190734863,1708890,0.0,0
2020-10-27,4.880000114440918,4.880000114440918,4.360000133514404,4.360000133514404,8828351,0.0,0
2020-10-28,4.400000095367432,4.75,4.400000095367432,4.71999979019165,6445960,0.0,0
2020-10-29,4.659999847412109,4.690000057220459,4.579999923706055,4.619999885559082,1350879,0.0,0
2020-10-30,4.679999828338623,4.679999828338623,4.5,4.53000020980835,4405940,0.0,0
2020-11-02,4.650000095367432,4.650000095367432,4.510000228881836,4.519999980926514,3081150,0.0,0
2020-11-03,4.599999904632568,4.650000095367432,4.53000020980835,4.550000190734863,2363847,0.0,0
2020-11-04,4.550000190734863,4.670000076293945,4.519999980926514,4.619999885559082,1563124,0.0,0
2020-11-05,4.75,4.980000019073486,4.630000114440918,4.769999980926514,5537839,0.0,0
2020-11-06,4.760000228881836,4.920000076293945,4.75,4.840000152587891,3934703,0.0,0
2020-11-09,4.869999885559082,5.579999923706055,4.849999904632568,5.53000020980835,19043930,0.0,0
2020-11-10,5.53000020980835,5.670000076293945,5.199999809265137,5.460000038146973,7555460,0.0,0
2020-11-11,5.440000057220459,5.710000038146973,5.440000057220459,5.610000133514404,10453670,0.0,0
2020-11-12,5.5,5.519999980926514,5.25,5.380000114440918,4992720,0.0,0
2020-11-13,5.25,5.380000114440918,5.199999809265137,5.360000133514404,3926866,0.0,0
2020-11-16,5.440000057220459,5.449999809265137,5.260000228881836,5.360000133514404,3151393,0.0,0
2020-11-17,5.400000095367432,5.559999942779541,5.289999961853027,5.550000190734863,5681079,0.0,0
2020-11-18,5.550000190734863,5.550000190734863,5.329999923706055,5.380000114440918,5459747,0.0,0
2020-11-19,5.449999809265137,5.449999809265137,5.230000019073486,5.25,6496711,0.0,0
2020-11-20,5.289999961853027,5.510000228881836,5.21999979019165,5.460000038146973,6019443,0.0,0
2020-11-23,5.5,5.789999961853027,5.480000019073486,5.519999980926514,10015120,0.0,0
2020-11-24,5.619999885559082,5.619999885559082,5.349999904632568,5.349999904632568,5583398,0.0,0
2020-11-25,5.400000095367432,5.429999828338623,5.300000190734863,5.309999942779541,6793252,0.0,0
2020-11-26,5.309999942779541,5.329999923706055,5.119999885559082,5.21999979019165,5828235,0.0,0
2020-11-27,5.239999771118164,5.260000228881836,5.070000171661377,5.099999904632568,5199070,0.0,0
2020-11-30,5.199999809265137,5.289999961853027,4.989999771118164,5.119999885559082,35800910,0.0,0
2020-12-01,5.159999847412109,5.21999979019165,5.039999961853027,5.199999809265137,5045367,0.0,0
2020-12-02,5.199999809265137,5.230000019073486,5.070000171661377,5.21999979019165,3477358,0.0,0
2020-12-03,5.170000076293945,5.28000020980835,5.079999923706055,5.25,5628259,0.0,0
2020-12-04,5.210000038146973,5.239999771118164,5.139999866485596,5.239999771118164,2427340,0.0,0
2020-12-07,5.25,5.400000095367432,5.199999809265137,5.300000190734863,2078000,0.0,0
