Date,Open,High,Low,Close,Volume,Dividends,Stock Splits
2020-01-02,2.3399999141693115,2.4600000381469727,2.3299999237060547,2.430000066757202,14690610,0,0
2020-01-03,2.440000057220459,2.450000047683716,2.2699999809265137,2.2699999809265137,22562510,0,0
2020-01-06,2.25,2.2899999618530273,2.109999895095825,2.119999885559082,31508800,0,0
2020-01-07,2.1600000858306885,2.200000047683716,2.140000104904175,2.1500000953674316,21365000,0,0
2020-01-08,2.0799999237060547,2.109999895095825,2.059999942779541,2.069999933242798,27058420,0,0
2020-01-09,2.130000114440918,2.1500000953674316,2.0799999237060547,2.109999895095825,29203700,0,0
2020-01-10,2.130000114440918,2.130000114440918,2.059999942779541,2.0799999237060547,14652000,0,0
2020-01-13,2.109999895095825,2.109999895095825,2.0299999713897705,2.0799999237060547,17468000,0,0
2020-01-14,2.130000114440918,2.2100000381469727,2.0799999237060547,2.109999895095825,37912000,0,0
2020-01-15,2.130000114440918,2.140000104904175,2.0399999618530273,2.049999952316284,33233070,0,0
2020-01-16,2.059999942779541,2.109999895095825,2.049999952316284,2.0899999141693115,16483610,0,0
2020-01-17,2.109999895095825,2.119999885559082,2.049999952316284,2.069999933242798,22644000,0,0
2020-01-20,2.0899999141693115,2.0999999046325684,2.0399999618530273,2.059999942779541,13550000,0,0
2020-01-21,2.059999942779541,2.059999942779541,1.899999976158142,1.9299999475479126,33396000,0,0
2020-01-22,1.940000057220459,1.9900000095367432,1.8799999952316284,1.9700000286102295,17424000,0,0
2020-01-23,1.9700000286102295,1.9700000286102295,1.7999999523162842,1.809999942779541,19056000,0,0
2020-01-24,1.7799999713897705,1.8799999952316284,1.7799999713897705,1.8799999952316284,7070377,0,0
2020-01-29,1.75,1.8600000143051147,1.7100000381469727,1.7899999618530273,26725020,0,0
2020-01-30,1.7699999809265137,1.7999999523162842,1.690000057220459,1.7400000095367432,32196200,0,0
2020-01-31,1.7300000190734863,1.7799999713897705,1.690000057220459,1.7699999809265137,12291150,0,0
2020-02-03,1.7200000286102295,1.7699999809265137,1.7000000476837158,1.7400000095367432,11427270,0,0
2020-02-04,1.7599999904632568,1.8300000429153442,1.7200000286102295,1.809999942779541,35284000,0,0
2020-02-05,1.8300000429153442,1.850000023841858,1.7300000190734863,1.7699999809265137,23156350,0,0
2020-02-06,1.7999999523162842,1.850000023841858,1.7899999618530273,1.840000033378601,23844000,0,0
2020-02-07,1.8200000524520874,1.8200000524520874,1.7400000095367432,1.7899999618530273,21408460,0,0
2020-02-10,1.7799999713897705,1.840000033378601,1.7400000095367432,1.8200000524520874,12852080,0,0
2020-02-11,1.8300000429153442,1.909999966621399,1.8300000429153442,1.8899999856948853,42714000,0,0
2020-02-12,1.9199999570846558,1.9700000286102295,1.8899999856948853,1.9500000476837158,24648370,0,0
2020-02-13,1.9700000286102295,1.9700000286102295,1.8600000143051147,1.8700000047683716,24040000,0,0
2020-02-14,1.8700000047683716,1.899999976158142,1.840000033378601,1.850000023841858,16417500,0,0
2020-02-17,1.8600000143051147,1.8799999952316284,1.8300000429153442,1.850000023841858,20172000,0,0
2020-02-18,1.840000033378601,1.840000033378601,1.7899999618530273,1.7999999523162842,12404000,0,0
2020-02-19,1.809999942779541,1.809999942779541,1.7699999809265137,1.7799999713897705,9296000,0,0
2020-02-20,1.7699999809265137,1.7999999523162842,1.7599999904632568,1.7799999713897705,18268000,0,0
2020-02-21,1.75,1.809999942779541,1.7000000476837158,1.7699999809265137,43236000,0,0
2020-02-24,1.75,1.75,1.690000057220459,1.7000000476837158,23452000,0,0
2020-02-25,1.690000057220459,1.7200000286102295,1.6799999475479126,1.7000000476837158,18721940,0,0
2020-02-26,1.6799999475479126,1.7000000476837158,1.659999966621399,1.6699999570846558,25756000,0,0
2020-02-27,1.659999966621399,1.659999966621399,1.6100000143051147,1.649999976158142,25246920,0,0
2020-02-28,1.6200000047683716,1.6299999952316284,1.5499999523162842,1.590000033378601,38362440,0,0
2020-03-02,1.590000033378601,1.6200000047683716,1.5399999618530273,1.559999942779541,36812920,0,0
2020-03-03,1.6100000143051147,1.75,1.6100000143051147,1.6299999952316284,39342640,0,0
2020-03-04,1.6299999952316284,1.6299999952316284,1.5700000524520874,1.590000033378601,21712000,0,0
2020-03-05,1.600000023841858,1.649999976158142,1.590000033378601,1.6299999952316284,19466000,0,0
2020-03-06,1.600000023841858,1.6100000143051147,1.5499999523162842,1.5499999523162842,37696000,0,0
2020-03-09,1.5099999904632568,1.5099999904632568,1.3200000524520874,1.3799999952316284,64799610,0,0
2020-03-10,1.3799999952316284,1.4800000190734863,1.350000023841858,1.4199999570846558,37184900,0,0
2020-03-11,1.4299999475479126,1.4500000476837158,1.3899999856948853,1.3899999856948853,10792780,0,0
2020-03-12,1.350000023841858,1.3700000047683716,1.2799999713897705,1.2799999713897705,32220940,0,0
2020-03-13,1.2200000286102295,1.309999942779541,1.149999976158142,1.2599999904632568,46906610,0,0
2020-03-16,1.25,1.2699999809265137,1.190000057220459,1.2000000476837158,22086000,0,0
2020-03-17,1.1799999475479126,1.2000000476837158,1.100000023841858,1.159999966621399,45748410,0,0
2020-03-18,1.1699999570846558,1.2599999904632568,1.090000033378601,1.090000033378601,27777840,0,0
2020-03-19,1.1200000047683716,1.149999976158142,1.0199999809265137,1.059999942779541,30518300,0,0
2020-03-20,1.090000033378601,1.149999976158142,1.0800000429153442,1.149999976158142,25172200,0,0
2020-03-23,1.0800000429153442,1.0800000429153442,1.0399999618530273,1.0499999523162842,21056900,0,0
2020-03-24,1.100000023841858,1.1200000047683716,1.0499999523162842,1.0800000429153442,27832360,0,0
2020-03-25,1.1399999856948853,1.1799999475479126,1.1200000047683716,1.1799999475479126,36370000,0,0
2020-03-26,1.1699999570846558,1.1799999475479126,1.1200000047683716,1.1399999856948853,32532000,0,0
2020-03-27,1.1699999570846558,1.1699999570846558,1.090000033378601,1.100000023841858,23490000,0,0
2020-03-30,1.0700000524520874,1.090000033378601,1.0299999713897705,1.059999942779541,20979280,0,0
2020-03-31,1.0800000429153442,1.1200000047683716,1.0800000429153442,1.1100000143051147,25035390,0,0
2020-04-01,1.1100000143051147,1.1699999570846558,1.090000033378601,1.090000033378601,21196000,0,0
2020-04-02,1.100000023841858,1.1399999856948853,1.090000033378601,1.1299999952316284,10028570,0,0
2020-04-03,1.1299999952316284,1.1299999952316284,1.0800000429153442,1.1200000047683716,8092780,0,0
2020-04-06,1.1299999952316284,1.149999976158142,1.100000023841858,1.1200000047683716,5666300,0,0
2020-04-07,1.159999966621399,1.3700000047683716,1.159999966621399,1.3600000143051147,71668000,0,0
2020-04-08,1.309999942779541,1.4199999570846558,1.309999942779541,1.350000023841858,36202990,0,0
2020-04-09,1.3600000143051147,1.4299999475479126,1.350000023841858,1.4199999570846558,17852000,0,0
2020-04-14,1.399999976158142,1.5199999809265137,1.399999976158142,1.4500000476837158,62944000,0,0
2020-04-15,1.4500000476837158,1.4600000381469727,1.3799999952316284,1.3799999952316284,45388000,0,0
2020-04-16,1.3600000143051147,1.399999976158142,1.340000033378601,1.3700000047683716,18250470,0,0
2020-04-17,1.3799999952316284,1.4700000286102295,1.3799999952316284,1.409999966621399,30339300,0,0
2020-04-20,1.399999976158142,1.440000057220459,1.3799999952316284,1.4199999570846558,23172000,0,0
2020-04-21,1.399999976158142,1.4199999570846558,1.3600000143051147,1.3600000143051147,43120000,0,0
2020-04-22,1.350000023841858,1.350000023841858,1.2899999618530273,1.350000023841858,17483210,0,0
2020-04-23,1.350000023841858,1.3700000047683716,1.2300000190734863,1.2799999713897705,67508000,0,0
2020-04-24,1.2699999809265137,1.309999942779541,1.2699999809265137,1.2699999809265137,8964000,0,0
2020-04-27,1.2899999618530273,1.3600000143051147,1.2799999713897705,1.309999942779541,13852400,0,0
2020-04-28,1.3200000524520874,1.340000033378601,1.25,1.340000033378601,9752000,0,0
2020-04-29,1.3200000524520874,1.3600000143051147,1.2899999618530273,1.3600000143051147,11012000,0,0
2020-05-04,1.3200000524520874,1.3200000524520874,1.2300000190734863,1.2300000190734863,19764000,0,0
2020-05-05,1.25,1.2899999618530273,1.2400000095367432,1.2699999809265137,10900320,0,0
2020-05-06,1.2899999618530273,1.3200000524520874,1.2799999713897705,1.309999942779541,12962000,0,0
2020-05-07,1.2999999523162842,1.309999942779541,1.2599999904632568,1.2999999523162842,11846540,0,0
2020-05-08,1.3300000429153442,1.440000057220459,1.309999942779541,1.3899999856948853,29312000,0,0
2020-05-11,1.399999976158142,1.4500000476837158,1.3799999952316284,1.399999976158142,18660000,0,0
2020-05-12,1.399999976158142,1.399999976158142,1.350000023841858,1.3600000143051147,7591500,0,0
2020-05-13,1.350000023841858,1.4199999570846558,1.3300000429153442,1.3799999952316284,15099500,0,0
2020-05-14,1.4299999475479126,1.440000057220459,1.3600000143051147,1.3700000047683716,20624140,0,0
2020-05-15,1.3899999856948853,1.409999966621399,1.3700000047683716,1.3799999952316284,7025448,0,0
2020-05-18,1.3799999952316284,1.4700000286102295,1.3700000047683716,1.409999966621399,14772000,0,0
2020-05-19,1.4700000286102295,1.5099999904632568,1.4600000381469727,1.4900000095367432,19254000,0,0
2020-05-20,1.5099999904632568,1.5099999904632568,1.4600000381469727,1.4700000286102295,8648000,0,0
2020-05-21,1.5,1.5,1.3600000143051147,1.3600000143051147,36964000,0,0
2020-05-22,1.350000023841858,1.350000023841858,1.2699999809265137,1.2999999523162842,21910800,0,0
2020-05-25,1.2699999809265137,1.340000033378601,1.25,1.3200000524520874,9604000,0,0
2020-05-26,1.340000033378601,1.3700000047683716,1.3300000429153442,1.3300000429153442,7056000,0,0
2020-05-27,1.340000033378601,1.3600000143051147,1.3300000429153442,1.350000023841858,14665680,0,0
2020-05-28,1.340000033378601,1.3700000047683716,1.309999942779541,1.340000033378601,8344000,0,0
2020-05-29,1.3300000429153442,1.350000023841858,1.3200000524520874,1.340000033378601,5891300,0,0
2020-06-01,1.350000023841858,1.409999966621399,1.340000033378601,1.399999976158142,9500000,0,0
2020-06-02,1.4199999570846558,1.4299999475479126,1.3700000047683716,1.399999976158142,7208037,0,0
2020-06-03,1.4299999475479126,1.4700000286102295,1.4199999570846558,1.4500000476837158,28657280,0,0
2020-06-04,1.4700000286102295,1.4800000190734863,1.4299999475479126,1.4700000286102295,6827780,0,0
2020-06-05,1.4600000381469727,1.5399999618530273,1.4299999475479126,1.5299999713897705,21917220,0,0
2020-06-08,1.5499999523162842,1.7100000381469727,1.5499999523162842,1.690000057220459,44034080,0,0
2020-06-09,1.7000000476837158,1.7699999809265137,1.690000057220459,1.7200000286102295,35352020,0,0
2020-06-10,1.7100000381469727,1.75,1.6799999475479126,1.7400000095367432,23969680,0,0
2020-06-11,1.7699999809265137,1.7799999713897705,1.6799999475479126,1.7400000095367432,30241090,0,0
2020-06-12,1.649999976158142,1.7699999809265137,1.6299999952316284,1.75,22796420,0,0
2020-06-15,1.7300000190734863,1.7300000190734863,1.600000023841858,1.600000023841858,16152000,0,0
2020-06-16,1.6399999856948853,1.75,1.6399999856948853,1.7300000190734863,23039550,0,0
2020-06-17,1.7200000286102295,1.7400000095367432,1.6799999475479126,1.7100000381469727,8773395,0,0
2020-06-18,1.690000057220459,1.7100000381469727,1.659999966621399,1.7000000476837158,7304280,0,0
2020-06-19,1.6799999475479126,1.7200000286102295,1.659999966621399,1.659999966621399,13645253,0,0
2020-06-22,1.690000057220459,1.690000057220459,1.5499999523162842,1.600000023841858,46752350,0,0
2020-06-23,1.600000023841858,1.659999966621399,1.590000033378601,1.649999976158142,11216000,0,0
2020-06-24,1.649999976158142,1.659999966621399,1.590000033378601,1.6200000047683716,6771890,0,0
2020-06-26,1.6200000047683716,1.6200000047683716,1.5499999523162842,1.590000033378601,7186806,0,0
2020-06-29,1.5700000524520874,1.5800000429153442,1.5099999904632568,1.5499999523162842,23403080,0,0
2020-06-30,1.559999942779541,1.6299999952316284,1.559999942779541,1.600000023841858,14892000,0,0
2020-07-02,1.6100000143051147,1.7400000095367432,1.6100000143051147,1.7300000190734863,28056410,0,0
2020-07-03,1.75,1.7699999809265137,1.7200000286102295,1.7400000095367432,13468504,0,0
2020-07-06,1.7400000095367432,1.9800000190734863,1.7300000190734863,1.9700000286102295,42935870,0,0
2020-07-07,2.0,2.009999990463257,1.8799999952316284,1.8799999952316284,44685140,0,0
2020-07-08,1.9500000476837158,2.069999933242798,1.8700000047683716,1.9900000095367432,33010360,0,0
2020-07-09,2.0299999713897705,2.119999885559082,2.0,2.069999933242798,33001000,0,0
2020-07-10,2.0799999237060547,2.1500000953674316,2.0199999809265137,2.059999942779541,29759920,0,0
2020-07-13,2.109999895095825,2.4200000762939453,2.109999895095825,2.4000000953674316,74744910,0,0
2020-07-14,2.3299999237060547,2.3399999141693115,2.2200000286102295,2.2799999713897705,38993400,0,0
2020-07-15,2.3499999046325684,2.359999895095825,2.190000057220459,2.2200000286102295,29654000,0,0
2020-07-16,2.2200000286102295,2.240000009536743,2.0399999618530273,2.049999952316284,39957990,0,0
2020-07-17,2.109999895095825,2.130000114440918,2.0299999713897705,2.049999952316284,11224000,0,0
2020-07-20,2.0199999809265137,2.180000066757202,1.9600000381469727,2.1700000762939453,24064000,0,0
2020-07-21,2.1600000858306885,2.180000066757202,2.059999942779541,2.0999999046325684,20023600,0,0
2020-07-22,2.140000104904175,2.299999952316284,2.059999942779541,2.069999933242798,35644000,0,0
2020-07-23,2.0899999141693115,2.140000104904175,2.0299999713897705,2.0399999618530273,18156000,0,0
2020-07-24,2.0,2.049999952316284,1.8799999952316284,1.9199999570846558,40144000,0,0
2020-07-27,1.9500000476837158,2.0199999809265137,1.9199999570846558,1.9700000286102295,16903600,0,0
2020-07-28,2.0199999809265137,2.140000104904175,1.9600000381469727,1.9900000095367432,22132000,0,0
2020-07-29,1.9600000381469727,2.069999933242798,1.9500000476837158,2.0399999618530273,12470000,0,0
2020-07-30,2.0399999618530273,2.0899999141693115,1.9900000095367432,2.009999990463257,10876000,0,0
2020-07-31,2.0199999809265137,2.049999952316284,2.0,2.0399999618530273,6843000,0,0
2020-08-03,2.0299999713897705,2.0799999237060547,2.0199999809265137,2.0799999237060547,7828000,0,0
2020-08-04,2.0999999046325684,2.1600000858306885,2.059999942779541,2.069999933242798,16324600,0,0
2020-08-05,2.0999999046325684,2.119999885559082,2.0399999618530273,2.059999942779541,26923760,0,0
2020-08-06,2.069999933242798,2.2300000190734863,2.069999933242798,2.2200000286102295,29157360,0,0
2020-08-07,2.2300000190734863,2.2300000190734863,2.0899999141693115,2.1500000953674316,13354400,0,0
2020-08-10,2.1500000953674316,2.1500000953674316,2.009999990463257,2.0399999618530273,11484000,0,0
2020-08-11,2.059999942779541,2.0799999237060547,1.9800000190734863,1.9900000095367432,20191000,0,0
2020-08-12,1.9700000286102295,1.9800000190734863,1.8600000143051147,1.9299999475479126,21788000,0,0
2020-08-13,1.9299999475479126,1.9700000286102295,1.909999966621399,1.9199999570846558,8118000,0,0
2020-08-14,1.909999966621399,1.9600000381469727,1.8899999856948853,1.9299999475479126,9340000,0,0
2020-08-17,1.9299999475479126,1.9800000190734863,1.909999966621399,1.9500000476837158,6428000,0,0
2020-08-18,2.0399999618530273,2.0399999618530273,1.9500000476837158,1.9700000286102295,4818000,0,0
2020-08-19,2.0399999618530273,2.049999952316284,1.9500000476837158,2.0,10208000,0,0
2020-08-20,2.049999952316284,2.119999885559082,2.0,2.069999933242798,19930680,0,0
2020-08-21,2.0899999141693115,2.0899999141693115,1.9900000095367432,2.0199999809265137,13282000,0,0
2020-08-24,2.0399999618530273,2.0399999618530273,1.899999976158142,1.9500000476837158,20392000,0,0
2020-08-25,1.9500000476837158,1.9500000476837158,1.8300000429153442,1.8899999856948853,14703000,0,0
2020-08-26,1.8799999952316284,1.9299999475479126,1.8600000143051147,1.8799999952316284,8652000,0,0
2020-08-27,1.899999976158142,1.909999966621399,1.850000023841858,1.8799999952316284,12535900,0,0
2020-08-28,1.8700000047683716,2.069999933242798,1.8700000047683716,2.059999942779541,20028000,0,0
2020-08-31,2.049999952316284,2.1500000953674316,2.0399999618530273,2.069999933242798,14804000,0,0
2020-09-01,2.0299999713897705,2.190000057220459,2.0299999713897705,2.180000066757202,13340000,0,0
2020-09-02,2.1500000953674316,2.190000057220459,2.119999885559082,2.1500000953674316,11804000,0,0
2020-09-03,2.109999895095825,2.1700000762939453,2.0799999237060547,2.0999999046325684,7378529,0,0
2020-09-04,2.0799999237060547,2.0799999237060547,1.9800000190734863,2.059999942779541,8006000,0,0
2020-09-07,2.069999933242798,2.140000104904175,2.0299999713897705,2.059999942779541,10032000,0,0
2020-09-08,2.069999933242798,2.140000104904175,2.0,2.119999885559082,7301652,0,0
2020-09-09,2.069999933242798,2.140000104904175,2.0399999618530273,2.109999895095825,10829170,0,0
2020-09-10,2.119999885559082,2.180000066757202,2.0299999713897705,2.069999933242798,13281910,0,0
2020-09-11,2.069999933242798,2.069999933242798,2.0,2.049999952316284,7708300,0,0
2020-09-14,2.0199999809265137,2.109999895095825,2.0199999809265137,2.0899999141693115,6928000,0,0
2020-09-15,2.130000114440918,2.1500000953674316,2.059999942779541,2.130000114440918,11392000,0,0
2020-09-16,2.1500000953674316,2.180000066757202,2.0899999141693115,2.180000066757202,11576000,0,0
2020-09-17,2.180000066757202,2.180000066757202,2.0299999713897705,2.059999942779541,11168000,0,0
2020-09-18,2.0999999046325684,2.130000114440918,2.049999952316284,2.119999885559082,14344000,0,0
2020-09-21,2.140000104904175,2.25,2.109999895095825,2.200000047683716,19566610,0,0
2020-09-22,2.1700000762939453,2.190000057220459,2.0299999713897705,2.0299999713897705,26704000,0,0
2020-09-23,2.0299999713897705,2.059999942779541,2.0,2.0,11516960,0,0
2020-09-24,1.9600000381469727,1.9600000381469727,1.9199999570846558,1.9199999570846558,14264000,0,0
2020-09-25,1.940000057220459,2.0199999809265137,1.9199999570846558,1.9700000286102295,11317100,0,0
2020-09-28,1.9500000476837158,2.0,1.9199999570846558,1.9800000190734863,4737760,0,0
2020-09-29,1.9900000095367432,2.009999990463257,1.9299999475479126,1.9299999475479126,1886000,0,0
2020-09-30,1.940000057220459,1.9600000381469727,1.899999976158142,1.9299999475479126,9776000,0,0
2020-10-05,1.9199999570846558,1.9299999475479126,1.8899999856948853,1.9199999570846558,2017225,0,0
2020-10-06,1.9299999475479126,2.0199999809265137,1.9299999475479126,2.0,3506000,0,0
2020-10-07,1.9800000190734863,1.9800000190734863,1.940000057220459,1.9500000476837158,1892000,0,0
2020-10-08,1.9800000190734863,2.049999952316284,1.9500000476837158,2.0399999618530273,4204000,0,0
2020-10-09,2.0299999713897705,2.059999942779541,2.0,2.0299999713897705,6830543,0,0
2020-10-12,2.0399999618530273,2.069999933242798,1.9600000381469727,1.9800000190734863,9864011,0,0
2020-10-14,1.9700000286102295,1.9900000095367432,1.909999966621399,1.940000057220459,12020000,0,0
2020-10-15,1.9199999570846558,1.940000057220459,1.8899999856948853,1.899999976158142,5796000,0,0
2020-10-16,1.899999976158142,1.940000057220459,1.899999976158142,1.899999976158142,8120000,0,0
2020-10-19,1.899999976158142,1.9500000476837158,1.899999976158142,1.909999966621399,2856000,0,0
2020-10-20,1.899999976158142,1.9299999475479126,1.8899999856948853,1.909999966621399,3844000,0,0
2020-10-21,1.9299999475479126,2.0199999809265137,1.9299999475479126,2.009999990463257,10084000,0,0
2020-10-22,1.9800000190734863,2.0199999809265137,1.9700000286102295,2.0,3816000,0,0
2020-10-23,2.0199999809265137,2.0399999618530273,1.9700000286102295,1.9900000095367432,9524000,0,0
2020-10-27,1.9500000476837158,2.0,1.909999966621399,1.9299999475479126,5236000,0,0
2020-10-28,1.9700000286102295,1.9700000286102295,1.899999976158142,1.909999966621399,6512000,0,0
2020-10-29,1.8899999856948853,1.9199999570846558,1.8600000143051147,1.8799999952316284,7681623,0,0
2020-10-30,1.8799999952316284,1.8899999856948853,1.809999942779541,1.8300000429153442,10753180,0,0
2020-11-02,1.8600000143051147,1.9299999475479126,1.840000033378601,1.8899999856948853,22271200,0,0
2020-11-03,1.909999966621399,2.049999952316284,1.909999966621399,1.9900000095367432,23704000,0,0
2020-11-04,1.9800000190734863,2.0299999713897705,1.9600000381469727,1.9900000095367432,6892000,0,0
2020-11-05,2.0299999713897705,2.0299999713897705,1.9700000286102295,2.0,5528854,0,0
2020-11-06,2.0199999809265137,2.0999999046325684,1.9900000095367432,2.0799999237060547,15787500,0,0
2020-11-09,2.130000114440918,2.200000047683716,2.119999885559082,2.1700000762939453,22065700,0,0
2020-11-10,2.2300000190734863,2.259999990463257,2.0999999046325684,2.25,32956000,0,0
2020-11-11,2.25,2.359999895095825,2.240000009536743,2.2799999713897705,13894580,0,0
2020-11-12,2.259999990463257,2.259999990463257,2.1700000762939453,2.2200000286102295,5812600,0,0
2020-11-13,2.180000066757202,2.25,2.1700000762939453,2.240000009536743,5722200,0,0
2020-11-16,2.2799999713897705,2.569999933242798,2.259999990463257,2.490000009536743,58162430,0,0
2020-11-17,2.549999952316284,2.7300000190734863,2.4700000286102295,2.700000047683716,67875820,0,0
2020-11-18,2.700000047683716,2.8399999141693115,2.5999999046325684,2.700000047683716,45240200,0,0
2020-11-19,2.7699999809265137,2.7899999618530273,2.619999885559082,2.7100000381469727,20243000,0,0
2020-11-20,2.7200000286102295,2.859999895095825,2.7100000381469727,2.8299999237060547,32511770,0,0
2020-11-23,2.9000000953674316,3.2200000286102295,2.890000104904175,3.0299999713897705,116662900,0,0
2020-11-24,3.0799999237060547,3.259999990463257,2.9200000762939453,3.200000047683716,51909280,0,0
2020-11-25,3.319999933242798,3.4600000381469727,3.0399999618530273,3.119999885559082,69803320,0,0
2020-11-26,3.190000057220459,3.319999933242798,3.1500000953674316,3.319999933242798,28858600,0,0
2020-11-27,3.380000114440918,3.430000066757202,3.2799999713897705,3.3399999141693115,37491800,0,0
2020-11-30,3.4700000286102295,3.4700000286102295,3.2899999618530273,3.380000114440918,36994120,0,0
2020-12-01,3.359999895095825,3.4100000858306885,3.190000057220459,3.390000104904175,34608260,0,0
2020-12-02,3.4000000953674316,3.4200000762939453,3.200000047683716,3.2899999618530273,21880200,0,0
2020-12-03,3.25,3.299999952316284,3.109999895095825,3.190000057220459,32335900,0,0
2020-12-04,3.2300000190734863,3.2699999809265137,3.190000057220459,3.2300000190734863,10246060,0,0
2020-12-07,3.2699999809265137,3.3499999046325684,3.119999885559082,3.1700000762939453,9810000,0,0
