Date,Open,High,Low,Close,Volume,Dividends,Stock Splits
2020-01-02,1.6787567238308134,1.7253889229914663,1.6694303062346163,1.7067360877990723,37343270,0.0,0
2020-01-03,1.7160624645704234,1.7253888819447467,1.6880831012677893,1.6974096298217773,16001230,0.0,0
2020-01-06,1.6880830905197763,1.6974096190143824,1.6507774212600088,1.6694302558898926,15615040,0.0,0
2020-01-07,1.6694303348781034,1.6880831703905361,1.6507774993656708,1.6601039171218872,20297990,0.0,0
2020-01-08,1.6414510801472002,1.6507774978951082,1.622798244651384,1.632124662399292,20482310,0.0,0
2020-01-09,1.6507774591445923,1.6601038766735712,1.6414510416156134,1.6507774591445923,11122320,0.0,0
2020-01-10,1.6507774591445923,1.6601038766735712,1.6414510416156134,1.6507774591445923,10226790,0.0,0
2020-01-13,1.6414510416156134,1.6601038766735712,1.6414510416156134,1.6507774591445923,12732050,0.0,0
2020-01-14,1.6507774591445923,1.6601038766735712,1.6414510416156134,1.6507774591445923,18563040,0.0,0
2020-01-15,1.6414510416156134,1.6601038766735712,1.6414510416156134,1.6507774591445923,6556609,0.0,0
2020-01-16,1.6507774591445923,1.6601038766735712,1.6414510416156134,1.6507774591445923,13741030,0.0,0
2020-01-17,1.6601038766735712,1.6601038766735712,1.6321246240866345,1.6507774591445923,17717990,0.0,0
2020-01-20,1.6507774978951082,1.6507774978951082,1.622798244651384,1.632124662399292,15251240,0.0,0
2020-01-21,1.641451078633937,1.641451078633937,1.5948189899373866,1.6041454076766968,23764510,0.0,0
2020-01-22,1.5948189899373866,1.6134718254160068,1.5854925721980766,1.6041454076766968,19201810,0.0,0
2020-01-23,1.594818988414915,1.6041454061453218,1.5668396240440259,1.5761661529541016,22968110,0.0,0
2020-01-24,1.5761661529541018,1.5854925706845084,1.5481867885832123,1.5761661529541016,8280000,0.0,0
2020-01-29,1.5108811066372663,1.5295339419619771,1.5015546889749107,1.5202075242996216,22050280,0.0,0
2020-01-30,1.5108811444139032,1.5202075623094475,1.4642490549361817,1.473575472831726,21996610,0.0,0
2020-01-31,1.482901850134925,1.4922282677751717,1.4642490148544312,1.4642490148544312,17917620,0.0,0
2020-02-03,1.4455961387827705,1.4735755042455412,1.4455961387827705,1.4549225568771362,15349760,0.0,0
2020-02-04,1.4549224877913247,1.4922282695770264,1.4549224877913247,1.4922282695770264,15660940,0.0,0
2020-02-05,1.4922282695770264,1.5015546872285348,1.4735754342740097,1.4922282695770264,16592030,0.0,0
2020-02-06,1.501554690658165,1.5575131966950273,1.4922282729853544,1.5481867790222168,29805130,0.0,0
2020-02-07,1.529533943676596,1.5575131966950273,1.5108811083309752,1.5481867790222168,36511850,0.0,0
2020-02-10,1.5295339822769165,1.5481868180932723,1.5108811464605605,1.5295339822769165,7991833,0.0,0
2020-02-11,1.5388603613494065,1.5575131966950273,1.529533943676596,1.5481867790222168,10925180,0.0,0
2020-02-12,1.548186779022217,1.5668396143678378,1.5388603613494065,1.5481867790222168,21116590,0.0,0
2020-02-13,1.5481868190853574,1.5948190198358008,1.5481868190853574,1.5575132369995117,23253980,0.0,0
2020-02-14,1.5575131685037338,1.6041453672034023,1.5575131685037338,1.5948189496994019,19088840,0.0,0
2020-02-17,1.5854925218332765,1.6041453567193702,1.566839575767517,1.566839575767517,19825670,0.0,0
2020-02-18,1.566839575767517,1.5761661043902297,1.5575131583244703,1.566839575767517,6691933,0.0,0
2020-02-19,1.5761661529541018,1.5854925706845084,1.5668396240440259,1.5761661529541016,15168380,0.0,0
2020-02-20,1.5854925706845084,1.5854925706845084,1.5575132063136192,1.5761661529541016,12578090,0.0,0
2020-02-21,1.5761661019387516,1.5761661019387516,1.538860321044922,1.5388603210449219,11409120,0.0,0
2020-02-24,1.5295339419619771,1.5388603596243324,1.5202075242996216,1.5202075242996216,10610190,0.0,0
2020-02-25,1.5015546489088287,1.5202074837358248,1.5015546489088287,1.5108810663223267,11939040,0.0,0
2020-02-26,1.4922282713125554,1.5388603596243324,1.4829018536501999,1.5202075242996216,22187560,0.0,0
2020-02-27,1.5202075643687385,1.5388604001850943,1.5015547285523825,1.5295339822769165,16501350,0.0,0
2020-02-28,1.5108811852519124,1.520207603399543,1.4829019308090208,1.482901930809021,20203290,0.0,0
2020-03-02,1.4829018917503636,1.520207563358279,1.4829018917503636,1.5015547275543213,15063920,0.0,0
2020-03-03,1.520207563358279,1.520207563358279,1.4829018917503636,1.5015547275543213,30600550,0.0,0
2020-03-04,1.5108810663223267,1.5295339011493227,1.4922282314953308,1.5108810663223267,22739360,0.0,0
2020-03-05,1.529533903616381,1.548186738473463,1.52020748618784,1.5388603210449219,12868150,0.0,0
2020-03-06,1.520207563358279,1.5295339812602577,1.5015547275543213,1.5015547275543213,12376990,0.0,0
2020-03-09,1.4829018814277388,1.4922282992647955,1.4455960988998413,1.4455960988998413,26592710,0.0,0
2020-03-10,1.4455960584989527,1.464249004831432,1.4082903881933282,1.4362696409225464,21012000,0.0,0
2020-03-11,1.4642489792548368,1.5295339011493227,1.4642489792548368,1.5108810663223267,45724250,0.0,0
2020-03-12,1.4922283086228147,1.4922283086228147,1.4549225258609662,1.473575472831726,37037290,0.0,0
2020-03-13,1.4082904659715547,1.4455961383375275,1.3616583755140887,1.426943302154541,35355340,0.0,0
2020-03-16,1.4082904237928782,1.4176168416050425,1.3523319169198913,1.3616583347320557,31211740,0.0,0
2020-03-17,1.3430055286143774,1.370984782665592,1.2777204913152038,1.2870469093322754,43034240,0.0,0
2020-03-18,1.2870467833005916,1.3336788688195886,1.2217617523943345,1.2310882806777954,29422990,0.0,0
2020-03-19,1.2124353619266883,1.2310883077237378,1.137824023457147,1.1844561100006104,41330910,0.0,0
2020-03-20,1.2124352989465164,1.268393911071556,1.1937824652980558,1.2497410774230957,38482030,0.0,0
2020-03-23,1.2031089029810942,1.2124353199670206,1.165803235037389,1.1751296520233154,16692830,0.0,0
2020-03-24,1.2124353385753912,1.268393952529458,1.1844560871881888,1.2590675354003906,29902890,0.0,0
2020-03-25,1.287046909989371,1.3430055293000425,1.287046909989371,1.3150261640548706,22591550,0.0,0
2020-03-26,1.3056997460330373,1.3523319473218756,1.2963733280112042,1.3150261640548706,16674630,0.0,0
2020-03-27,1.3430055379867554,1.3523319560689129,1.324352590642767,1.3430055379867554,12916170,0.0,0
2020-03-30,1.3243525415504502,1.3336789592868874,1.2963732883411385,1.3056997060775757,11470950,0.0,0
2020-03-31,1.3243525415504502,1.3430054882029938,1.2963732883411385,1.3056997060775757,21698400,0.0,0
2020-04-01,1.296373327349347,1.3243525814005617,1.2870469093322754,1.2870469093322754,14081200,0.0,0
2020-04-02,1.277720491967538,1.3150261640548704,1.268394073945705,1.3150261640548706,16158300,0.0,0
2020-04-03,1.3150262037289562,1.3243526220321655,1.2963733671225375,1.3243526220321655,8876802,0.0,0
2020-04-06,1.324352590642767,1.3430055379867554,1.305699754478452,1.3430055379867554,7609600,0.0,0
2020-04-07,1.3523319959640503,1.3709848326786425,1.3336790480697815,1.3523319959640503,13195590,0.0,0
2020-04-08,1.3523319560689129,1.3523319560689129,1.3336790087249244,1.3430055379867554,10145000,0.0,0
2020-04-09,1.3616582963784187,1.3803111314773557,1.35233187882895,1.380311131477356,9435011,0.0,0
2020-04-14,1.3709847139278872,1.4082903841257617,1.3709847139278872,1.380311131477356,12946610,0.0,0
2020-04-15,1.3803111703563846,1.3896375881685492,1.3616583347320557,1.3616583347320557,9095404,0.0,0
2020-04-16,1.3523319881214695,1.3616584064246788,1.3243526220321655,1.3243526220321655,15900200,0.0,0
2020-04-17,1.3430054991077267,1.3803111703563846,1.3430054991077267,1.3616583347320557,14194460,0.0,0
2020-04-20,1.3803112103153852,1.3803112103153852,1.3430055379867554,1.3430055379867554,7463100,0.0,0
2020-04-21,1.34300548972686,1.3523319074738795,1.3243525430531513,1.333678960800171,10563000,0.0,0
2020-04-22,1.3243525911026952,1.3709847927093506,1.3243525911026952,1.3709847927093506,9913428,0.0,0
2020-04-23,1.3803112103153852,1.3896376283975427,1.3430055379867554,1.3430055379867554,13840600,0.0,0
2020-04-24,1.3523319881214695,1.3523319881214695,1.3243526220321655,1.3243526220321655,17492050,0.0,0
2020-04-27,1.3336790087249244,1.3523319560689129,1.3336790087249244,1.3430055379867554,8240756,0.0,0
2020-04-28,1.3430055379867554,1.3616583741510702,1.3336790087249244,1.3430055379867554,14637370,0.0,0
2020-04-29,1.3430055384531616,1.380311210794747,1.3430055384531616,1.3709847927093506,14651340,0.0,0
2020-05-04,1.3430055698182601,1.3523319881214695,1.3150262037289562,1.3243526220321655,14142330,0.0,0
2020-05-05,1.324352590642767,1.3523319560689129,1.324352590642767,1.3430055379867554,10066000,0.0,0
2020-05-06,1.3336790087249244,1.3523319560689129,1.3336790087249244,1.3430055379867554,16700320,0.0,0
2020-05-07,1.3430055293000425,1.3430055293000425,1.3150261640548704,1.3150261640548706,19436000,0.0,0
2020-05-08,1.3243526297124855,1.3523319959640503,1.3150262113551894,1.3523319959640503,13115920,0.0,0
2020-05-11,1.3616583746239543,1.380311210794747,1.3523319565385579,1.3709847927093506,10335680,0.0,0
2020-05-12,1.3523319959640503,1.3709848326786425,1.3430055776067542,1.3523319959640503,8578589,0.0,0
2020-05-13,1.3523319560689129,1.3616583741510702,1.3336790087249244,1.3430055379867554,8940540,0.0,0
2020-05-14,1.333678960800171,1.3523319074738795,1.3243525430531513,1.333678960800171,9609337,0.0,0
2020-05-15,1.3336790403353749,1.3523319881214695,1.3243526220321655,1.3243526220321655,15447290,0.0,0
2020-05-18,1.333678960800171,1.34300548972686,1.3243525430531513,1.333678960800171,12428430,0.0,0
2020-05-19,1.3523319959640503,1.3803112510359385,1.3523319959640503,1.3523319959640503,12433390,0.0,0
2020-05-20,1.3430055698182601,1.3523319881214695,1.3243526220321655,1.3243526220321655,15418890,0.0,0
2020-05-21,1.3243526220321655,1.3336790403353749,1.3150262037289562,1.3243526220321655,17028210,0.0,0
2020-05-22,1.3243525399819374,1.3243525399819374,1.2590676159041976,1.2777204513549805,22974700,0.0,0
2020-05-25,1.2683940732981323,1.296373327349347,1.231088401229846,1.2870469093322754,7701242,0.0,0
2020-05-26,1.2963733673095703,1.3150262039186802,1.2870469490050156,1.2963733673095703,6790759,0.0,0
2020-05-27,1.2963733673095703,1.3150262039186802,1.2870469490050156,1.2963733673095703,7923288,0.0,0
2020-05-28,1.296373327349347,1.3056997453664185,1.2777204913152038,1.2870469093322754,11505660,0.0,0
2020-05-29,1.2870469490050156,1.2963733673095703,1.2777205307004607,1.2963733673095703,22098290,0.0,0
2020-06-01,1.3056997166793987,1.3616583347320557,1.3056997166793987,1.3616583347320557,22457160,0.0,0
2020-06-02,1.370343513847803,1.389644223936325,1.331742323752001,1.3606932163238525,15412800,0.049,0
2020-06-03,1.3510429701592517,1.3799938638316598,1.3510429701592517,1.370343565940857,14924080,0.0,0
2020-06-04,1.3799938113717536,1.3799938113717536,1.3413926212759515,1.3606932163238525,10843200,0.0,0
2020-06-05,1.3703435545135836,1.3992945629851947,1.3510429588929256,1.3896442651748657,14620860,0.0,0
2020-06-08,1.3992945474960774,1.4282454406066,1.3896442497925698,1.408944845199585,10843180,0.0,0
2020-06-09,1.408944845199585,1.4282454406066,1.3992945474960774,1.408944845199585,11221590,0.0,0
2020-06-10,1.4089447929280643,1.428245387619032,1.3992944955825803,1.3992944955825806,10265150,0.0,0
2020-06-11,1.3992945062269782,1.4185951010647648,1.3799937963485718,1.3799937963485718,9022407,0.0,0
2020-06-12,1.351042918799902,1.3799938113717536,1.351042918799902,1.3606932163238525,8528492,0.0,0
2020-06-15,1.3606931638587059,1.379993758162421,1.3510428667068481,1.3510428667068481,8009510,0.0,0
2020-06-16,1.370343565940857,1.3799938638316598,1.3606932680500543,1.370343565940857,9263000,0.0,0
2020-06-17,1.370343565940857,1.3896442767630877,1.3606932680500543,1.370343565940857,11595120,0.0,0
2020-06-18,1.370343565940857,1.3799938638316598,1.3606932680500543,1.370343565940857,7319408,0.0,0
2020-06-19,1.3703434989296783,1.3992945062269782,1.3703434989296783,1.3799937963485718,17371969,0.0,0
2020-06-22,1.3799938523239126,1.389644265174866,1.3703435545135836,1.3896442651748657,7070190,0.0,0
2020-06-23,1.3799938638316598,1.3896442767630877,1.3606932680500543,1.370343565940857,8056567,0.0,0
2020-06-24,1.3606932163238525,1.3799938113717536,1.3606932163238525,1.3606932163238525,6186287,0.0,0
2020-06-26,1.3606932163238525,1.3606932163238525,1.351042918799902,1.3606932163238525,6638255,0.0,0
2020-06-29,1.3510429339311643,1.360693231563195,1.3317423386671026,1.3413926362991333,11052940,0.0,0
2020-06-30,1.3413925839374574,1.3510428811927857,1.331742286682129,1.331742286682129,19022320,0.0,0
2020-07-02,1.3606931911600264,1.3992944955825803,1.3606931911600264,1.3992944955825806,44751720,0.0,0
2020-07-03,1.4089448152553814,1.457196302747434,1.399294517756971,1.4475460052490234,40965992,0.0,0
2020-07-06,1.4571963136838322,1.534398809291149,1.4571963136838322,1.515098214149475,31578020,0.0,0
2020-07-07,1.524748500276928,1.5343987977753386,1.4282454102522024,1.4475460052490234,57695950,0.0,0
2020-07-08,1.4475460416671535,1.4957975303731426,1.4475460416671535,1.476496934890747,24804840,0.0,0
2020-07-09,1.5054477599063973,1.5150981722509835,1.4764968679944939,1.486147165298462,19954680,0.0,0
2020-07-10,1.4764968826736526,1.4861471800735626,1.4571962878738327,1.4668465852737427,16095410,0.0,0
2020-07-13,1.4668466002458445,1.4668466002458445,1.4282454102522024,1.4475460052490234,18718400,0.0,0
2020-07-14,1.4378957228238776,1.447546020423451,1.4282454252243044,1.4282454252243042,18582150,0.0,0
2020-07-15,1.4475459673444404,1.4475459673444404,1.4089447783615863,1.4185950756072998,14145300,0.0,0
2020-07-16,1.4282454252243044,1.457196318023024,1.418595127624731,1.4282454252243042,30321050,0.0,0
2020-07-17,1.4378957228238776,1.457196318023024,1.418595127624731,1.4282454252243042,17202260,0.0,0
2020-07-20,1.418595098274193,1.4668465852737427,1.408944800874283,1.4668465852737427,23284400,0.0,0
2020-07-21,1.4764968442265056,1.4957974385237487,1.4282453584833974,1.437895655632019,30193610,0.0,0
2020-07-22,1.4378957383101076,1.457196333717123,1.408944845199585,1.408944845199585,24826930,0.0,0
2020-07-23,1.4185950613347758,1.466846547077884,1.3992944670375325,1.437895655632019,28073270,0.0,0
2020-07-24,1.4378957383101076,1.4475460360136154,1.3896442497925698,1.408944845199585,15390670,0.0,0
2020-07-27,1.408944872544693,1.4185951704354955,1.3606932680500543,1.370343565940857,21045190,0.0,0
2020-07-28,1.3703434610105636,1.379993758162421,1.3413925695549906,1.3510428667068481,15796910,0.0,0
2020-07-29,1.351042918799902,1.3799938113717536,1.351042918799902,1.3606932163238525,11130870,0.0,0
2020-07-30,1.3703434610105636,1.379993758162421,1.3510428667068481,1.3510428667068481,12782900,0.0,0
2020-07-31,1.3606932680500543,1.3799938638316598,1.3510429701592517,1.370343565940857,26518560,0.0,0
2020-08-03,1.3703434989296783,1.3799937963485718,1.3606932015107849,1.3799937963485718,12229300,0.0,0
2020-08-04,1.379993785850994,1.3992944955825803,1.3703434885055101,1.3992944955825806,11058900,0.0,0
2020-08-05,1.3799938638316598,1.3896442767630877,1.370343565940857,1.370343565940857,10265280,0.0,0
2020-08-06,1.370343565940857,1.3799938638316598,1.3606932680500543,1.370343565940857,16772860,0.0,0
2020-08-07,1.3799938638316598,1.408944872544693,1.370343565940857,1.370343565940857,34899310,0.0,0
2020-08-10,1.370343565940857,1.3992945746538903,1.3606932680500543,1.370343565940857,10793530,0.0,0
2020-08-11,1.3703434989296783,1.3992945062269782,1.3703434989296783,1.3799937963485718,9562024,0.0,0
2020-08-12,1.3799938638316598,1.3896442767630877,1.370343565940857,1.370343565940857,16410020,0.0,0
2020-08-13,1.3799938638316598,1.3896442767630877,1.370343565940857,1.370343565940857,28214110,0.0,0
2020-08-14,1.379993785850994,1.3992944955825803,1.3703434885055101,1.3992944955825806,19554390,0.0,0
2020-08-17,1.3992945324255845,1.447546020423451,1.3896442348260114,1.4282454252243042,19256820,0.0,0
2020-08-18,1.437895655632019,1.437895655632019,1.408944764186154,1.437895655632019,12634790,0.0,0
2020-08-19,1.4378956700987269,1.4475459673444404,1.4185950756072998,1.4185950756072998,6376060,0.0,0
2020-08-20,1.4282454102522024,1.4475460052490234,1.4089448152553814,1.4475460052490234,19346890,0.0,0
2020-08-21,1.4475460570224614,1.4668466527095942,1.437895759178895,1.4571963548660278,23220430,0.0,0
2020-08-24,1.4668465852737427,1.4957974774734726,1.4571962878738327,1.4668465852737427,19764760,0.0,0
2020-08-25,1.5054478125569373,1.5150982252390304,1.4668466219910534,1.4957975149154663,31750660,0.0,0
2020-08-26,1.4957975149154663,1.4957975149154663,1.4668466219910534,1.4957975149154663,21444130,0.0,0
2020-08-27,1.5054478281143404,1.5054478281143404,1.4668466371495492,1.476496934890747,18293070,0.0,0
2020-08-28,1.4764969348907468,1.4861472326319447,1.4668466371495492,1.476496934890747,14776910,0.0,0
2020-08-31,1.4764969132221706,1.495797508421317,1.4282454252243044,1.4282454252243042,45042850,0.0,0
2020-09-01,1.4282454102522024,1.4475460052490234,1.4089448152553814,1.4475460052490234,31547180,0.0,0
2020-09-02,1.447546020423451,1.457196318023024,1.418595127624731,1.4282454252243042,11789890,0.0,0
2020-09-03,1.437895655632019,1.4571962499292623,1.4282453584833974,1.437895655632019,10752360,0.0,0
2020-09-04,1.4282454252243044,1.4378957228238776,1.418595127624731,1.4282454252243042,15826390,0.0,0
2020-09-07,1.4282454252243044,1.457196318023024,1.418595127624731,1.4282454252243042,19920430,0.0,0
2020-09-08,1.4282454406066,1.4378957383101076,1.3992945474960774,1.408944845199585,12884600,0.0,0
2020-09-09,1.3992944811158727,1.4378956700987269,1.3992944811158727,1.4185950756072998,14322700,0.0,0
2020-09-10,1.4378957228238776,1.4378957228238776,1.418595127624731,1.4282454252243042,6972602,0.0,0
2020-09-11,1.4282453584833974,1.4475459527806407,1.4185950613347758,1.437895655632019,10875220,0.0,0
2020-09-14,1.437895655632019,1.4571962499292623,1.4282453584833974,1.437895655632019,5008600,0.0,0
2020-09-15,1.437895655632019,1.4571962499292623,1.4282453584833974,1.437895655632019,12082320,0.0,0
2020-09-16,1.437895707750613,1.457196302747434,1.437895707750613,1.4475460052490234,9472074,0.0,0
2020-09-17,1.437895655632019,1.4571962499292623,1.4282453584833974,1.437895655632019,14147940,0.0,0
2020-09-18,1.437895759178895,1.4571963548660278,1.4282454613353284,1.4571963548660278,17324310,0.0,0
2020-09-21,1.447546020423451,1.457196318023024,1.4282454252243044,1.4282454252243042,11518990,0.0,0
2020-09-22,1.4282454252243044,1.4378957228238776,1.418595127624731,1.4282454252243042,18826280,0.0,0
2020-09-23,1.4282453728530133,1.4282453728530133,1.4185950756072998,1.4185950756072998,7864024,0.0,0
2020-09-24,1.408944845199585,1.4185951429030925,1.3992945474960774,1.408944845199585,15297350,0.0,0
2020-09-25,1.4185951586058527,1.4185951586058527,1.3703435545135836,1.3896442651748657,34053110,0.0,0
2020-09-28,1.3896441838701592,1.4282453728530133,1.3896441838701592,1.4185950756072998,10738930,0.0,0
2020-09-29,1.4282453728530133,1.4378956700987269,1.4089447783615863,1.4185950756072998,7019044,0.0,0
2020-09-30,1.418595163491762,1.4668466527095942,1.418595163491762,1.4571963548660278,25564240,0.0,0
2020-10-05,1.4668466371495492,1.4861472326319447,1.4571963394083514,1.476496934890747,19157330,0.0,0
2020-10-06,1.476496853691724,1.5150981575742841,1.476496853691724,1.5054477453231812,20792170,0.0,0
2020-10-07,1.5054477867062885,1.5343987941741943,1.4957974892305268,1.5343987941741943,19126310,0.0,0
2020-10-08,1.5343988459895543,1.5440491437911987,1.5150982503862658,1.5440491437911987,17746800,0.0,0
2020-10-09,1.5343987417029443,1.5440490388486985,1.52474844455719,1.52474844455719,17883670,0.0,0
2020-10-12,1.5343987650531887,1.582650251516244,1.5247484677605778,1.5729999542236328,32431730,0.0,0
2020-10-14,1.582650251516244,1.601950846101466,1.563349656931022,1.5729999542236328,36286910,0.0,0
2020-10-15,1.572999954223633,1.582650251516244,1.563349656931022,1.5729999542236328,22889590,0.0,0
2020-10-16,1.5800000429153442,1.600000023841858,1.5299999713897705,1.5499999523162842,18934560,0.057,0
2020-10-19,1.5499999523162842,1.5700000524520874,1.5399999618530273,1.5399999618530273,6506678,0.0,0
2020-10-20,1.5299999713897705,1.5299999713897705,1.5099999904632568,1.5199999809265137,14466880,0.0,0
2020-10-21,1.5199999809265137,1.5399999618530273,1.5099999904632568,1.5099999904632568,11554600,0.0,0
2020-10-22,1.5099999904632568,1.5399999618530273,1.5,1.5399999618530273,21261900,0.0,0
2020-10-23,1.5399999618530273,1.5399999618530273,1.5099999904632568,1.5299999713897705,9707178,0.0,0
2020-10-27,1.5199999809265137,1.5399999618530273,1.4900000095367432,1.5399999618530273,25870480,0.0,0
2020-10-28,1.5499999523162842,1.5499999523162842,1.5,1.5099999904632568,13990420,0.0,0
2020-10-29,1.4900000095367432,1.5099999904632568,1.4900000095367432,1.5,7026245,0.0,0
2020-10-30,1.5,1.5099999904632568,1.4800000190734863,1.5,12097500,0.0,0
2020-11-02,1.4900000095367432,1.5199999809265137,1.4900000095367432,1.5099999904632568,5617831,0.0,0
2020-11-03,1.5099999904632568,1.5099999904632568,1.4900000095367432,1.5,12914210,0.0,0
2020-11-04,1.5,1.5499999523162842,1.4900000095367432,1.5199999809265137,22755860,0.0,0
2020-11-05,1.5499999523162842,1.559999942779541,1.5399999618530273,1.559999942779541,23635400,0.0,0
2020-11-06,1.5800000429153442,1.6200000047683716,1.5800000429153442,1.6100000143051147,45833700,0.0,0
2020-11-09,1.6100000143051147,1.6299999952316284,1.5800000429153442,1.590000033378601,20980650,0.0,0
2020-11-10,1.600000023841858,1.6399999856948853,1.600000023841858,1.6299999952316284,25257970,0.0,0
2020-11-11,1.649999976158142,1.649999976158142,1.6100000143051147,1.6100000143051147,25846390,0.0,0
2020-11-12,1.6200000047683716,1.6200000047683716,1.5800000429153442,1.590000033378601,29228200,0.0,0
2020-11-13,1.5800000429153442,1.600000023841858,1.5700000524520874,1.590000033378601,5953004,0.0,0
2020-11-16,1.600000023841858,1.600000023841858,1.5700000524520874,1.5800000429153442,6890765,0.0,0
2020-11-17,1.5800000429153442,1.590000033378601,1.559999942779541,1.5800000429153442,13287110,0.0,0
2020-11-18,1.5800000429153442,1.600000023841858,1.5700000524520874,1.5800000429153442,9813936,0.0,0
2020-11-19,1.5800000429153442,1.590000033378601,1.5700000524520874,1.5700000524520874,9040000,0.0,0
2020-11-20,1.5700000524520874,1.5800000429153442,1.559999942779541,1.559999942779541,6716347,0.0,0
2020-11-23,1.5700000524520874,1.5700000524520874,1.5499999523162842,1.5499999523162842,6723077,0.0,0
2020-11-24,1.5700000524520874,1.6100000143051147,1.5700000524520874,1.5800000429153442,20814230,0.0,0
2020-11-25,1.600000023841858,1.6100000143051147,1.5700000524520874,1.5700000524520874,14972230,0.0,0
2020-11-26,1.5700000524520874,1.5800000429153442,1.559999942779541,1.5700000524520874,6844737,0.0,0
2020-11-27,1.5700000524520874,1.6399999856948853,1.559999942779541,1.6299999952316284,25586610,0.0,0
2020-11-30,1.6399999856948853,1.6799999475479126,1.6100000143051147,1.6100000143051147,56525970,0.0,0
2020-12-01,1.6299999952316284,1.659999966621399,1.6200000047683716,1.649999976158142,13155430,0.0,0
2020-12-02,1.649999976158142,1.6799999475479126,1.649999976158142,1.659999966621399,25599090,0.0,0
2020-12-03,1.659999966621399,1.6699999570846558,1.6299999952316284,1.6299999952316284,14465480,0.0,0
2020-12-04,1.6399999856948853,1.6799999475479126,1.6299999952316284,1.6299999952316284,28186230,0.0,0
2020-12-07,1.6299999952316284,1.649999976158142,1.600000023841858,1.6100000143051147,11677602,0.0,0
