Date,Open,High,Low,Close,Volume,Dividends,Stock Splits
2020-01-02,6.162114523651534,6.239503644627448,6.133093833923339,6.13309383392334,784000,0.0,0
2020-01-03,6.171788430855052,6.326566673720831,6.162114560038167,6.2781982421875,610000,0.0,0
2020-01-06,6.229830087190039,6.326566486112524,6.181461657091028,6.268524646759033,650661,0.0,0
2020-01-07,6.258851120644323,6.510366232958825,6.220156558946024,6.452324390411377,1411391,0.0,0
2020-01-08,6.43297706050836,6.43297706050836,6.287872224608439,6.307219505310059,790148,0.0,0
2020-01-09,6.326566746279673,6.491018861848425,6.326566746279673,6.4716715812683105,1088000,0.0,0
2020-01-10,6.500692347351429,6.771554739909037,6.500692347351429,6.713512897491455,2445000,0.0,0
2020-01-13,6.713512451252714,6.713512451252714,6.47167122661656,6.549060344696045,2792000,0.0,0
2020-01-14,6.491018868150077,6.645797112941256,6.413629745754487,6.5200395584106445,1216000,0.0,0
2020-01-15,6.4716719445046635,6.529713789502729,6.374935536174553,6.394282817840576,1244000,0.0,0
2020-01-16,6.394282751035995,6.510366439819337,6.365261598202372,6.510366439819336,1036000,0.0,0
2020-01-17,6.510366419990037,6.52003983005473,6.3942827315602635,6.461997985839844,891000,0.0,0
2020-01-20,6.43297708235889,6.43297708235889,6.355587959289551,6.355587959289551,431000,0.0,0
2020-01-21,6.336240786813244,6.355588067911238,6.0170099567829896,6.075052261352539,2170000,0.0,0
2020-01-22,6.12342000786386,6.12342000786386,5.978315174336998,6.017009735107422,1601000,0.0,0
2020-01-23,6.007336415225272,6.075052128222094,5.968641853877248,5.997662544250488,1539000,0.0,0
2020-01-24,5.997662334837996,5.997662334837996,5.900925934845551,5.939620494842529,376000,0.0,0
2020-01-29,5.610717120123043,5.736474218110447,5.572022557469139,5.697779655456543,1997000,0.0,0
2020-01-30,5.746147608117811,5.7654948878242465,5.436590671539306,5.436590671539307,2259000,0.0,0
2020-01-31,5.417243751079951,5.494632875037791,5.243118222174813,5.359201908111572,1380700,0.0,0
2020-02-03,5.320507278226316,5.475285524166539,5.310833407217273,5.426917552947998,1056814,0.0,0
2020-02-04,5.475285735035351,5.543001450879903,5.426917761954022,5.533327579498291,1029991,0.0,0
2020-02-05,5.543000884400627,5.649411152345638,5.465611766358992,5.552674293518066,1463000,0.0,0
2020-02-06,5.6107168197631845,5.639737509562255,5.523653827814877,5.610716819763184,768000,0.0,0
2020-02-07,5.630064145351033,5.630064145351033,5.46561203091471,5.494632720947266,395170,0.0,0
2020-02-10,5.417243660298991,5.49463278295996,5.378549098968506,5.378549098968506,963000,0.0,0
2020-02-11,5.446264924219308,5.455938334113586,5.39789649092122,5.4075703620910645,785000,0.0,0
2020-02-12,5.436591261418762,5.6107172589451855,5.436591261418762,5.513980388641357,1141870,0.0,0
2020-02-13,5.5913695167403255,5.639737486633987,5.484959244933397,5.562348365783691,1631000,0.0,0
2020-02-14,5.581695757968127,5.630064190107631,5.562348477367436,5.59136962890625,479000,0.0,0
2020-02-17,5.688106009497987,5.688106009497987,5.4946327429778306,5.543001174926758,868000,0.0,0
2020-02-18,5.543001243400222,5.543001243400222,5.465612120346382,5.475285530090332,699000,0.0,0
2020-02-19,5.436591032069411,5.484959465180842,5.320507346132652,5.359201908111572,1617402,0.0,0
2020-02-20,5.455937917947624,5.455937917947624,5.301159681240765,5.3398542404174805,671000,0.0,0
2020-02-21,5.281812757882975,5.320507319669436,5.25279160590535,5.262465476989746,978593,0.0,0
2020-02-24,5.18507620734394,5.26246532873667,5.078665934791162,5.088339805603027,1397000,0.0,0
2020-02-25,5.078666030463134,5.156055153313721,5.049644878756386,5.117360591888428,895000,0.0,0
2020-02-26,5.059318631885456,5.098013192409297,5.030297480854801,5.039971351623535,758000,0.0,0
2020-02-27,5.098013491571822,5.185076488497284,5.049645057440882,5.0786662101745605,1156000,0.0,0
2020-02-28,5.10768681388422,5.10768681388422,4.88519287109375,4.88519287109375,1558000,0.0,0
2020-03-02,4.846498497023952,4.991602866794287,4.836824626358974,4.894866466522217,1484000,0.0,0
2020-03-03,4.904540724063821,5.059318976708248,4.904540724063821,4.914214134216309,1219000,0.0,0
2020-03-04,4.952908697377415,4.952908697377415,4.875519571055202,4.914214134216309,1636000,0.0,0
2020-03-05,4.933561101542018,5.165728926995757,4.933561101542018,5.088339805603027,2525000,0.0,0
2020-03-06,5.08834010120973,5.127034664154053,4.972255951101187,5.127034664154053,1585190,0.0,0
2020-03-09,4.9335612078689515,4.9335612078689515,4.827150933022844,4.85617208480835,1733000,0.0,0
2020-03-10,4.827150959625854,4.962582387003844,4.7497618361387515,4.952908515930176,1298000,0.0,0
2020-03-11,4.952908118067682,5.059318384952391,4.88519287109375,4.88519287109375,1279000,0.0,0
2020-03-12,4.836825053455308,4.856172335218106,4.624004954064531,4.701394081115723,1917000,0.0,0
2020-03-13,4.643352031707764,4.7013938744446655,4.401510789666225,4.643352031707764,2005000,0.0,0
2020-03-16,4.653025485609921,4.662699356795505,4.478899955749512,4.478899955749512,883000,0.0,0
2020-03-17,4.478899844185254,4.478899844185254,4.3337950089448585,4.449878692626953,1156000,0.0,0
2020-03-18,4.4402052543434065,4.498247095810409,4.333794981016126,4.353142261505127,1064000,0.0,0
2020-03-19,4.353142202133134,4.507920443934138,4.1499955291315445,4.469225883483887,3849038,0.0,0
2020-03-20,4.488573344786919,4.624004773101913,4.382163529893719,4.4305315017700195,3256000,0.0,0
2020-03-23,4.275753110741952,4.333794951817907,4.2467319595662,4.256405830383301,2077000,0.0,0
2020-03-24,4.256405741286567,4.324120990486632,4.217711181379234,4.275753021240234,2060038,0.0,0
2020-03-25,4.353142377747488,4.449878782775652,4.343468506606889,4.4305315017700195,3029000,0.0,0
2020-03-26,4.430531360695736,4.469225921474912,4.304773807525635,4.304773807525635,1781100,0.0,0
2020-03-27,4.382163323046032,4.430531292639258,4.353142172269662,4.3724894523620605,3093000,0.0,0
2020-03-30,4.353142141054902,4.353142141054902,4.227384590718297,4.275753021240234,1839000,0.0,0
2020-03-31,4.343468480454985,4.3918369133156245,4.295100508869907,4.333795070648193,1387000,0.0,0
2020-04-01,4.295100309036845,4.362816019636099,4.285426438404577,4.324120998382568,1523000,0.0,0
2020-04-02,4.314447768497179,4.314447768497179,4.256405926115783,4.285426616668701,857000,0.0,0
2020-04-03,4.275753206909582,4.2951004877033805,4.256405926115783,4.285426616668701,432000,0.0,0
2020-04-06,4.285426707013443,4.295100578252065,4.227384863408417,4.266079425811768,1083000,0.0,0
2020-04-07,4.333795070648193,4.353142351537337,4.295100508869907,4.333795070648193,1945320,0.0,0
2020-04-08,4.333794865792705,4.6336779360369444,4.314447585818094,4.5853095054626465,2485000,0.0,0
2020-04-09,4.585309617277823,4.711067170817228,4.556288927245991,4.614330768585205,2145000,0.0,0
2020-04-14,4.633678026476285,4.672372587180741,4.565962314605713,4.565962314605713,1329000,0.0,0
2020-04-15,4.604657387237043,4.720741070627333,4.546615084266343,4.711067199707031,3434000,0.0,0
2020-04-16,4.633678230483432,4.720741226539358,4.565962515631537,4.575636386871338,1281211,0.0,0
2020-04-17,4.565962314605713,4.643351897290174,4.556288905067373,4.565962314605713,1267000,0.0,0
2020-04-20,4.565962193700493,4.565962193700493,4.459552385218712,4.48857307434082,1896000,0.0,0
2020-04-21,4.49824730785547,4.49824730785547,4.382163619449341,4.411184310913086,688009,0.0,0
2020-04-22,4.391836732454459,4.391836732454459,4.314447612084863,4.3724894523620605,1077000,0.0,0
2020-04-23,4.411183922918285,4.440205073104989,4.391836643218994,4.391836643218994,556218,0.0,0
2020-04-24,4.3918366670500335,4.440205097198486,4.343468236901581,4.440205097198486,226000,0.0,0
2020-04-27,4.4402056848413105,4.565962789574756,4.420858402476504,4.517594814300537,586000,0.0,0
2020-04-28,4.517594543259244,4.624004820519201,4.517594543259244,4.575636386871338,583000,0.0,0
2020-04-29,4.5949835777282715,4.633678139375517,4.575636296904649,4.5949835777282715,953000,0.0,0
2020-05-04,4.594983735302219,4.594983735302219,4.4498788935112445,4.459552764892578,1107192,0.0,0
2020-05-05,4.350782834072684,4.390335366713978,4.271677768790099,4.2815656661987305,980000,0.1,0
2020-05-06,4.281565945628184,4.340894748462122,4.212349244740296,4.291454315185547,448000,0.0,0
2020-05-07,4.291454417083038,4.3804473876953125,4.291454417083038,4.3804473876953125,591827,0.0,0
2020-05-08,4.40022340250779,4.5782102764946035,4.40022340250779,4.558434009552002,1373110,0.0,0
2020-05-11,4.607874405234981,4.657315307957755,4.4892168045043945,4.4892168045043945,811000,0.0,0
2020-05-12,4.4694406286073916,4.5089931629886015,4.380447190497967,4.390335559844971,684000,0.0,0
2020-05-13,4.370559292654366,4.390335559844971,4.271677956701339,4.390335559844971,867000,0.0,0
2020-05-14,4.331006646268495,4.331006646268495,4.251901579551819,4.301342010498047,705000,0.0,0
2020-05-15,4.301341932519377,4.3408944651606705,4.251901502469452,4.2815656661987305,585712,0.0,0
2020-05-18,4.3013419692706005,4.380447035229071,4.261789436291366,4.350782871246338,860000,0.0,0
2020-05-19,4.429887857618635,4.469440389887279,4.3112302608126996,4.3310065269470215,1053000,0.0,0
2020-05-20,4.350782912947664,4.350782912947664,4.271677846230989,4.301342010498047,647495,0.0,0
2020-05-21,4.331006816910601,4.350783084368957,4.192572473198702,4.2222371101379395,1310000,0.0,0
2020-05-22,4.192572361586669,4.20246073080431,4.073914759995363,4.133243560791016,1239117,0.0,0
2020-05-25,4.073914835889131,4.182684541792486,4.073914835889131,4.153019905090332,604000,0.0,0
2020-05-26,4.192572319153475,4.2321253241203225,4.1431318880758505,4.182684421539307,763000,0.0,0
2020-05-27,4.153019785690019,4.182684421539307,4.083803087880666,4.182684421539307,683000,0.0,0
2020-05-28,4.143131930008656,4.1530198277229005,4.054138493063478,4.133243560791016,691000,0.0,0
2020-05-29,4.123355711205316,4.172796143360407,4.0739148075468234,4.083803176879883,984974,0.0,0
2020-06-01,4.073914835889131,4.182684541792486,4.073914835889131,4.153019905090332,776000,0.0,0
2020-06-02,4.153019905090332,4.192572439690933,4.143132007191884,4.153019905090332,698000,0.0,0
2020-06-03,4.172795896175828,4.172795896175828,4.113467098202147,4.143131732940674,1751000,0.0,0
2020-06-04,4.16290819694054,4.172796094654784,4.093691026927247,4.133243560791016,1337000,0.0,0
2020-06-05,4.113467328151541,4.2815658342256295,4.113467328151541,4.202460765838623,3913221,0.0,0
2020-06-08,4.251901454911301,4.538657549104957,4.251901454911301,4.449664115905762,2494000,0.0,0
2020-06-09,4.4496641843386735,4.627650581971003,4.4496641843386735,4.588098049163818,1950000,0.0,0
2020-06-10,4.56832202803379,4.588098295499171,4.499105327656659,4.528769493103027,1312000,0.0,0
2020-06-11,4.53865792451643,4.53865792451643,4.360671043395996,4.360671043395996,1177000,0.0,0
2020-06-12,4.261789359725205,4.331006526947022,4.261789359725205,4.3310065269470215,485000,0.0,0
2020-06-15,4.301342136018942,4.350783039911334,4.232125436373678,4.2716779708862305,663000,0.0,0
2020-06-16,4.301342136018942,4.321118403275218,4.2519017036299545,4.2716779708862305,1853000,0.0,0
2020-06-17,4.281565868762666,4.301342136018942,4.2519017036299545,4.2716779708862305,810000,0.0,0
2020-06-18,4.261789601506391,4.281565868762666,4.242013334250115,4.2716779708862305,524450,0.0,0
2020-06-19,4.301341932519377,4.301341932519377,4.251901502469452,4.2815656661987305,2134084,0.0,0
2020-06-22,4.2914540026729355,4.2914540026729355,4.162908036808683,4.212348937988281,943000,0.0,0
2020-06-23,4.16290819694054,4.182684463872425,4.093691026927247,4.133243560791016,1890000,0.0,0
2020-06-24,4.162908351308743,4.202460886639191,4.153019981724424,4.172796249389648,408000,0.0,0
2020-06-26,4.1727962217981,4.1727962217981,4.103579521179199,4.103579521179199,642000,0.0,0
2020-06-29,4.0739148075468234,4.123355711205316,4.0739148075468234,4.083803176879883,888700,0.0,0
2020-06-30,4.093690949931773,4.133243483051625,4.093690949931773,4.113467216491699,823000,0.0,0
2020-07-02,4.113467252226563,4.202460688271034,4.103579354612394,4.182684421539307,2159000,0.0,0
2020-07-03,4.143131726146632,4.281565587858211,4.143131726146632,4.261789321899414,1559500,0.0,0
2020-07-06,4.291454102117176,4.449664235152629,4.242013199791902,4.419999599456787,4979000,0.0,0
2020-07-07,4.449664471917608,4.558434179918772,4.439776102325042,4.4793291091918945,2997000,0.0,0
2020-07-08,4.47932903223453,4.54854573217966,4.400223491363316,4.459552764892578,1824000,0.0,0
2020-07-09,4.459552716734434,4.588098217317274,4.4397759781026425,4.508993148803711,1868000,0.0,0
2020-07-10,4.518881656781206,4.53865792451643,4.301342240190323,4.360671043395996,3264000,0.0,0
2020-07-13,4.331006927447956,4.380447361603975,4.291454391521771,4.311230659484863,2214000,0.0,0
2020-07-14,4.251901779962921,4.311230582796859,4.2222371427942464,4.291454315185547,2651000,0.0,0
2020-07-15,4.321118421995506,4.5287694648377075,4.311230524076233,4.459552764892578,1441000,0.0,0
2020-07-16,4.518881250867147,4.518881250867147,4.261789321899414,4.261789321899414,1601000,0.0,0
2020-07-17,4.281566021788516,4.331006927447956,4.271678123558679,4.311230659484863,2217000,0.0,0
2020-07-20,4.311230659484863,4.3211185577146995,4.222237217899239,4.311230659484863,907000,0.0,0
2020-07-21,4.2914540026729355,4.2914540026729355,4.212348937988281,4.212348937988281,2183052,0.0,0
2020-07-22,4.242013257386248,4.291454160382787,4.162908189794502,4.251901626586914,5957000,0.0,0
2020-07-23,4.261789399878085,4.291454035110744,4.202460600916145,4.2815656661987305,3053820,0.0,0
2020-07-24,4.281565594879261,4.281565594879261,4.1332433641933735,4.143131732940674,1463000,0.0,0
2020-07-27,4.153019905090332,4.182684541792486,4.073914835889131,4.153019905090332,1112000,0.0,0
2020-07-28,4.172796094654784,4.172796094654784,4.113467293859132,4.133243560791016,466000,0.0,0
2020-07-29,4.172796094654784,4.172796094654784,4.113467293859132,4.133243560791016,391000,0.0,0
2020-07-30,4.1332433641933735,4.192572162167054,4.123355466949447,4.143131732940674,1488000,0.0,0
2020-07-31,4.192572282731403,4.192572282731403,4.113467216491699,4.113467216491699,656000,0.0,0
2020-08-03,4.153020031580759,4.182684669186421,4.093691227872853,4.123355865478516,512000,0.0,0
2020-08-04,4.153019785690019,4.202460688271034,4.123355621344122,4.182684421539307,859000,0.0,0
2020-08-05,4.2123492562235105,4.2123492562235105,4.1332437140591995,4.172796249389648,559000,0.0,0
2020-08-06,4.162908154807578,4.192572319153475,4.133243518958291,4.182684421539307,476000,0.0,0
2020-08-07,4.16290807723999,4.172795974669917,4.0936909092169715,4.16290807723999,668117,0.0,0
2020-08-10,4.113467370489731,4.202460809092786,4.113467370489731,4.153019905090332,360000,0.0,0
2020-08-11,4.153019667971412,4.222236835322174,4.153019667971412,4.212348937988281,852000,0.0,0
2020-08-12,4.242013257386248,4.261789524284185,4.2024607235903755,4.251901626586914,790000,0.0,0
2020-08-13,4.281565791182121,4.281565791182121,4.2222369904883115,4.251901626586914,514000,0.0,0
2020-08-14,4.271678123558679,4.3211185577146995,4.242013485862331,4.311230659484863,1291000,0.0,0
2020-08-17,4.331006909048227,4.449664516322678,4.331006909048227,4.4298882484436035,1524700,0.0,0
2020-08-18,4.390335559844971,4.419999724879177,4.360670923307362,4.390335559844971,1160000,0.0,0
2020-08-19,4.400223566961603,4.489217007281048,4.400223566961603,4.4793291091918945,1938000,0.0,0
2020-08-20,4.528769259541467,4.528769259541467,4.390335394423226,4.469440460205078,1832000,0.0,0
2020-08-21,4.499105086099346,4.647426848374595,4.489216717145858,4.588098049163818,2242151,0.0,0
2020-08-24,4.597986621128075,4.60787451901475,4.548545717184483,4.578210353851318,1495000,0.0,0
2020-08-25,4.5782101197499285,4.5782101197499285,4.4892166858034,4.518881320953369,1109000,0.0,0
2020-08-26,4.518881362070427,4.518881362070427,4.400223291894266,4.469440460205078,967000,0.0,0
2020-08-27,4.419999878752357,4.449664516322678,4.350783176927303,4.4298882484436035,1575000,0.0,0
2020-08-28,4.439775747104351,4.499105016906065,4.410111583706869,4.449664115905762,535000,0.0,0
2020-08-31,4.499105137477903,4.499105137477903,4.4002233328273554,4.419999599456787,2182000,0.0,0
2020-09-01,4.349999904632568,4.349999904632568,4.199999809265137,4.21999979019165,909000,0.05,0
2020-09-02,4.230000019073486,4.320000171661377,4.190000057220459,4.300000190734863,3190000,0.0,0
2020-09-03,4.25,4.289999961853027,4.230000019073486,4.239999771118164,347820,0.0,0
2020-09-04,4.199999809265137,4.25,4.159999847412109,4.21999979019165,1045000,0.0,0
2020-09-07,4.21999979019165,4.260000228881836,4.199999809265137,4.21999979019165,430482,0.0,0
2020-09-08,4.199999809265137,4.289999961853027,4.190000057220459,4.269999980926514,570000,0.0,0
2020-09-09,4.260000228881836,4.260000228881836,4.179999828338623,4.179999828338623,1063000,0.0,0
2020-09-10,4.199999809265137,4.199999809265137,4.139999866485596,4.139999866485596,847000,0.0,0
2020-09-11,4.150000095367432,4.190000057220459,4.130000114440918,4.159999847412109,633000,0.0,0
2020-09-14,4.159999847412109,4.190000057220459,4.130000114440918,4.139999866485596,643000,0.0,0
2020-09-15,4.199999809265137,4.210000038146973,4.139999866485596,4.179999828338623,298000,0.0,0
2020-09-16,4.25,4.25,4.159999847412109,4.170000076293945,662000,0.0,0
2020-09-17,4.170000076293945,4.190000057220459,4.150000095367432,4.170000076293945,1099000,0.0,0
2020-09-18,4.170000076293945,4.199999809265137,4.150000095367432,4.179999828338623,1456000,0.0,0
2020-09-21,4.199999809265137,4.210000038146973,4.159999847412109,4.190000057220459,898494,0.0,0
2020-09-22,4.190000057220459,4.21999979019165,4.190000057220459,4.199999809265137,557000,0.0,0
2020-09-23,4.239999771118164,4.239999771118164,4.199999809265137,4.210000038146973,731000,0.0,0
2020-09-24,4.210000038146973,4.230000019073486,4.199999809265137,4.21999979019165,1271000,0.0,0
2020-09-25,4.25,4.25,4.199999809265137,4.199999809265137,1708912,0.0,0
2020-09-28,4.210000038146973,4.239999771118164,4.179999828338623,4.21999979019165,854000,0.0,0
2020-09-29,4.199999809265137,4.239999771118164,4.199999809265137,4.199999809265137,848000,0.0,0
2020-09-30,4.25,4.289999961853027,4.239999771118164,4.25,291000,0.0,0
2020-10-05,4.260000228881836,4.260000228881836,4.210000038146973,4.25,278000,0.0,0
2020-10-06,4.269999980926514,4.300000190734863,4.260000228881836,4.289999961853027,210000,0.0,0
2020-10-07,4.340000152587891,4.340000152587891,4.289999961853027,4.289999961853027,471456,0.0,0
2020-10-08,4.309999942779541,4.440000057220459,4.309999942779541,4.349999904632568,1199000,0.0,0
2020-10-09,4.400000095367432,4.840000152587891,4.349999904632568,4.710000038146973,8579319,0.0,0
2020-10-12,4.710000038146973,5.010000228881836,4.710000038146973,4.900000095367432,6551713,0.0,0
2020-10-14,4.900000095367432,5.25,4.900000095367432,5.210000038146973,6420000,0.0,0
2020-10-15,5.269999980926514,5.269999980926514,4.949999809265137,5.010000228881836,5165000,0.0,0
2020-10-16,5.079999923706055,5.420000076293945,5.070000171661377,5.269999980926514,4747000,0.0,0
2020-10-19,5.329999923706055,5.400000095367432,5.25,5.28000020980835,3209000,0.0,0
2020-10-20,5.289999961853027,5.550000190734863,5.199999809265137,5.480000019073486,4328000,0.0,0
2020-10-21,5.480000019073486,5.570000171661377,5.360000133514404,5.409999847412109,1872000,0.0,0
2020-10-22,5.429999828338623,5.440000057220459,5.309999942779541,5.380000114440918,3602000,0.0,0
2020-10-23,5.400000095367432,5.449999809265137,5.25,5.289999961853027,1730000,0.0,0
2020-10-27,5.269999980926514,5.420000076293945,5.179999828338623,5.420000076293945,2407000,0.0,0
2020-10-28,5.440000057220459,5.440000057220459,5.179999828338623,5.25,1504000,0.0,0
2020-10-29,5.230000019073486,5.230000019073486,5.059999942779541,5.079999923706055,1445000,0.0,0
2020-10-30,5.079999923706055,5.079999923706055,4.900000095367432,4.900000095367432,2440000,0.0,0
2020-11-02,5.050000190734863,5.239999771118164,4.900000095367432,4.96999979019165,1607000,0.0,0
2020-11-03,5.099999904632568,5.099999904632568,4.940000057220459,5.039999961853027,966000,0.0,0
2020-11-04,5.0,5.039999961853027,4.920000076293945,4.929999828338623,838000,0.0,0
2020-11-05,4.96999979019165,5.079999923706055,4.96999979019165,5.039999961853027,962000,0.0,0
2020-11-06,5.039999961853027,5.079999923706055,4.980000019073486,5.070000171661377,685000,0.0,0
2020-11-09,5.099999904632568,5.099999904632568,4.800000190734863,4.800000190734863,2623000,0.0,0
2020-11-10,4.900000095367432,5.079999923706055,4.880000114440918,5.03000020980835,1870000,0.0,0
2020-11-11,5.019999980926514,5.079999923706055,4.980000019073486,5.0,659200,0.0,0
2020-11-12,5.0,5.090000152587891,4.949999809265137,5.090000152587891,815800,0.0,0
2020-11-13,5.059999942779541,5.070000171661377,4.989999771118164,5.03000020980835,323000,0.0,0
2020-11-16,5.03000020980835,5.050000190734863,4.840000152587891,4.96999979019165,2063000,0.0,0
2020-11-17,5.0,5.03000020980835,4.869999885559082,4.929999828338623,1678000,0.0,0
2020-11-18,5.0,5.230000019073486,4.949999809265137,5.199999809265137,1483000,0.0,0
2020-11-19,5.21999979019165,5.230000019073486,5.03000020980835,5.03000020980835,2850000,0.0,0
2020-11-20,5.130000114440918,5.130000114440918,5.03000020980835,5.110000133514404,1551000,0.0,0
2020-11-23,5.150000095367432,5.25,5.139999866485596,5.199999809265137,1201000,0.0,0
2020-11-24,5.25,5.400000095367432,5.199999809265137,5.300000190734863,2802000,0.0,0
2020-11-25,5.349999904632568,5.519999980926514,5.340000152587891,5.400000095367432,2030000,0.0,0
2020-11-26,5.429999828338623,5.650000095367432,5.380000114440918,5.599999904632568,2573000,0.0,0
2020-11-27,5.599999904632568,5.679999828338623,5.449999809265137,5.579999923706055,1115000,0.0,0
2020-11-30,5.559999942779541,5.559999942779541,5.309999942779541,5.320000171661377,1135000,0.0,0
2020-12-01,5.300000190734863,5.309999942779541,5.21999979019165,5.289999961853027,1336000,0.0,0
2020-12-02,5.289999961853027,5.329999923706055,5.239999771118164,5.269999980926514,361000,0.0,0
2020-12-03,5.269999980926514,5.349999904632568,5.230000019073486,5.289999961853027,968000,0.0,0
2020-12-04,5.360000133514404,5.360000133514404,5.260000228881836,5.320000171661377,344000,0.0,0
2020-12-07,5.329999923706055,5.360000133514404,5.210000038146973,5.230000019073486,448159,0.0,0
