Date,Open,High,Low,Close,Volume,Dividends,Stock Splits
2020-01-02,1.4900000095367432,1.5199999809265137,1.4800000190734863,1.5,1974000,0,0
2020-01-03,1.5199999809265137,1.559999942779541,1.4900000095367432,1.5099999904632568,1447000,0,0
2020-01-06,1.4900000095367432,1.4900000095367432,1.409999966621399,1.4800000190734863,1055200,0,0
2020-01-07,1.4700000286102295,1.5,1.4600000381469727,1.4700000286102295,793000,0,0
2020-01-08,1.4700000286102295,1.4700000286102295,1.409999966621399,1.440000057220459,1492500,0,0
2020-01-09,1.4700000286102295,1.4700000286102295,1.4299999475479126,1.4500000476837158,1862000,0,0
2020-01-10,1.4500000476837158,1.4700000286102295,1.4199999570846558,1.4600000381469727,596000,0,0
2020-01-13,1.4600000381469727,1.5700000524520874,1.4600000381469727,1.5700000524520874,4360087,0,0
2020-01-14,1.590000033378601,1.600000023841858,1.559999942779541,1.5700000524520874,2807500,0,0
2020-01-15,1.5800000429153442,1.590000033378601,1.5199999809265137,1.559999942779541,1187000,0,0
2020-01-16,1.5399999618530273,1.5700000524520874,1.5199999809265137,1.5700000524520874,908500,0,0
2020-01-17,1.5700000524520874,1.590000033378601,1.5499999523162842,1.5700000524520874,1207914,0,0
2020-01-20,1.5800000429153442,1.5800000429153442,1.5199999809265137,1.5399999618530273,1135000,0,0
2020-01-21,1.5800000429153442,1.5099999904632568,1.4600000381469727,1.4600000381469727,2234000,0,0
2020-01-22,1.4600000381469727,1.5099999904632568,1.4199999570846558,1.4500000476837158,2198500,0,0
2020-01-23,1.4500000476837158,1.4600000381469727,1.3899999856948853,1.399999976158142,2195000,0,0
2020-01-24,1.440000057220459,1.440000057220459,1.3899999856948853,1.4199999570846558,716229,0,0
2020-01-29,1.4299999475479126,1.4299999475479126,1.309999942779541,1.3300000429153442,1259500,0,0
2020-01-30,1.350000023841858,1.350000023841858,1.2799999713897705,1.2899999618530273,1555000,0,0
2020-01-31,1.2999999523162842,1.2999999523162842,1.25,1.2699999809265137,2584500,0,0
2020-02-03,1.25,1.309999942779541,1.2200000286102295,1.2899999618530273,2188000,0,0
2020-02-04,1.3300000429153442,1.3300000429153442,1.2699999809265137,1.2799999713897705,1317948,0,0
2020-02-05,1.309999942779541,1.309999942779541,1.2799999713897705,1.2899999618530273,947500,0,0
2020-02-06,1.2799999713897705,1.309999942779541,1.2799999713897705,1.2999999523162842,1808000,0,0
2020-02-07,1.2899999618530273,1.2999999523162842,1.2699999809265137,1.2899999618530273,957500,0,0
2020-02-10,1.25,1.2899999618530273,1.2400000095367432,1.2799999713897705,769500,0,0
2020-02-11,1.2899999618530273,1.309999942779541,1.2799999713897705,1.2999999523162842,1402500,0,0
2020-02-12,1.2999999523162842,1.3300000429153442,1.2799999713897705,1.3200000524520874,2054500,0,0
2020-02-13,1.309999942779541,1.3200000524520874,1.2899999618530273,1.2899999618530273,538500,0,0
2020-02-14,1.2899999618530273,1.309999942779541,1.2799999713897705,1.2899999618530273,1281000,0,0
2020-02-17,1.2899999618530273,1.3600000143051147,1.2799999713897705,1.3600000143051147,2575500,0,0
2020-02-18,1.3600000143051147,1.3600000143051147,1.2999999523162842,1.309999942779541,1213000,0,0
2020-02-19,1.309999942779541,1.3300000429153442,1.2999999523162842,1.3200000524520874,857500,0,0
2020-02-20,1.340000033378601,1.340000033378601,1.2799999713897705,1.309999942779541,878072,0,0
2020-02-21,1.3200000524520874,1.3200000524520874,1.2799999713897705,1.2899999618530273,2907500,0,0
2020-02-24,1.2799999713897705,1.2799999713897705,1.2599999904632568,1.2699999809265137,1178000,0,0
2020-02-25,1.2599999904632568,1.309999942779541,1.2300000190734863,1.2799999713897705,1778500,0,0
2020-02-26,1.2599999904632568,1.2899999618530273,1.25,1.2799999713897705,800500,0,0
2020-02-27,1.2699999809265137,1.2799999713897705,1.2599999904632568,1.2699999809265137,1030000,0,0
2020-02-28,1.2400000095367432,1.2799999713897705,1.2300000190734863,1.2599999904632568,3722000,0,0
2020-03-02,1.2599999904632568,1.2799999713897705,1.2400000095367432,1.2599999904632568,1166500,0,0
2020-03-03,1.2799999713897705,1.2799999713897705,1.25,1.2599999904632568,528500,0,0
2020-03-04,1.25,1.2599999904632568,1.2200000286102295,1.2400000095367432,1768500,0,0
2020-03-05,1.25,1.25,1.2200000286102295,1.2300000190734863,1783500,0,0
2020-03-06,1.2300000190734863,1.2300000190734863,1.2000000476837158,1.2100000381469727,2213500,0,0
2020-03-09,1.2100000381469727,1.2100000381469727,1.149999976158142,1.1699999570846558,2178500,0,0
2020-03-10,1.1799999475479126,1.1799999475479126,1.100000023841858,1.1399999856948853,1511000,0,0
2020-03-11,1.149999976158142,1.1799999475479126,1.1299999952316284,1.149999976158142,946500,0,0
2020-03-12,1.149999976158142,1.149999976158142,1.0700000524520874,1.100000023841858,1870471,0,0
2020-03-13,1.0299999713897705,1.100000023841858,0.9700000286102295,1.0700000524520874,2425000,0,0
2020-03-16,1.0399999618530273,1.059999942779541,0.9900000095367432,0.9900000095367432,1598000,0,0
2020-03-17,1.0,1.0,0.9200000166893005,0.9599999785423279,2977500,0,0
2020-03-18,1.0,1.0700000524520874,0.949999988079071,0.9700000286102295,2187500,0,0
2020-03-19,0.9700000286102295,0.9900000095367432,0.7699999809265137,0.8899999856948853,3137000,0,0
2020-03-20,0.8799999952316284,0.9800000190734863,0.8799999952316284,0.949999988079071,1040000,0,0
2020-03-23,0.8999999761581421,0.9599999785423279,0.8999999761581421,0.8999999761581421,487914,0,0
2020-03-24,0.8700000047683716,0.9800000190734863,0.8700000047683716,0.9700000286102295,1227000,0,0
2020-03-25,1.0099999904632568,1.0399999618530273,1.0,1.0099999904632568,802000,0,0
2020-03-26,1.0,1.0299999713897705,0.9800000190734863,1.0,610500,0,0
2020-03-27,0.9300000071525574,1.0499999523162842,0.9300000071525574,1.0,1336000,0,0
2020-03-30,0.9900000095367432,1.0,0.9599999785423279,0.9900000095367432,568000,0,0
2020-03-31,1.0,1.059999942779541,0.9700000286102295,1.0399999618530273,1608500,0,0
2020-04-01,1.0099999904632568,1.0399999618530273,0.9700000286102295,0.9800000190734863,1209000,0,0
2020-04-02,0.9599999785423279,1.0,0.9399999976158142,0.9700000286102295,320000,0,0
2020-04-03,0.9700000286102295,1.0,0.9599999785423279,0.9700000286102295,163500,0,0
2020-04-06,0.9599999785423279,1.0,0.949999988079071,1.0,430500,0,0
2020-04-07,1.0099999904632568,1.0399999618530273,0.9900000095367432,0.9900000095367432,636000,0,0
2020-04-08,1.0,1.0199999809265137,0.9700000286102295,0.9900000095367432,510000,0,0
2020-04-09,0.9900000095367432,1.0199999809265137,0.9900000095367432,1.0199999809265137,702500,0,0
2020-04-14,1.0199999809265137,1.0299999713897705,1.0,1.0199999809265137,601500,0,0
2020-04-15,1.0199999809265137,1.0199999809265137,0.9700000286102295,1.0,1101000,0,0
2020-04-16,0.9800000190734863,0.9900000095367432,0.9399999976158142,0.9599999785423279,1791000,0,0
2020-04-17,0.9900000095367432,1.0399999618530273,0.9700000286102295,0.9800000190734863,2526500,0,0
2020-04-20,0.9900000095367432,1.0099999904632568,0.9800000190734863,0.9900000095367432,536500,0,0
2020-04-21,0.9800000190734863,0.9900000095367432,0.949999988079071,0.9599999785423279,954000,0,0
2020-04-22,0.9399999976158142,0.9700000286102295,0.9100000262260437,0.9399999976158142,1403500,0,0
2020-04-23,0.9599999785423279,0.9599999785423279,0.9100000262260437,0.9399999976158142,551000,0,0
2020-04-24,0.9399999976158142,0.949999988079071,0.9200000166893005,0.9300000071525574,327500,0,0
2020-04-27,0.949999988079071,0.949999988079071,0.9200000166893005,0.9399999976158142,437000,0,0
2020-04-28,0.9200000166893005,0.9399999976158142,0.9100000262260437,0.9300000071525574,227500,0,0
2020-04-29,0.9399999976158142,0.9399999976158142,0.9100000262260437,0.9399999976158142,488500,0,0
2020-05-04,0.9200000166893005,0.9200000166893005,0.8799999952316284,0.8899999856948853,93000,0,0
2020-05-05,0.8600000143051147,0.8999999761581421,0.7699999809265137,0.8799999952316284,2978000,0,0
2020-05-06,0.9300000071525574,0.9300000071525574,0.8799999952316284,0.8799999952316284,748000,0,0
2020-05-07,0.8799999952316284,0.8999999761581421,0.8700000047683716,0.8799999952316284,289500,0,0
2020-05-08,0.8999999761581421,0.9599999785423279,0.8999999761581421,0.9599999785423279,12409500,0,0
2020-05-11,0.9599999785423279,0.9800000190734863,0.9300000071525574,0.949999988079071,2276000,0,0
2020-05-12,0.949999988079071,0.949999988079071,0.8999999761581421,0.9100000262260437,1418000,0,0
2020-05-13,0.8999999761581421,0.9300000071525574,0.8899999856948853,0.9100000262260437,2643000,0,0
2020-05-14,0.9300000071525574,0.9300000071525574,0.8899999856948853,0.9200000166893005,628000,0,0
2020-05-15,0.9300000071525574,0.9300000071525574,0.8999999761581421,0.8999999761581421,319500,0,0
2020-05-18,0.8999999761581421,0.9300000071525574,0.8999999761581421,0.9300000071525574,1173000,0,0
2020-05-19,0.9399999976158142,0.949999988079071,0.9200000166893005,0.9300000071525574,878500,0,0
2020-05-20,0.9399999976158142,0.9399999976158142,0.8999999761581421,0.9100000262260437,2395265,0,0
2020-05-21,0.9399999976158142,0.9399999976158142,0.8999999761581421,0.9100000262260437,993000,0,0
2020-05-22,0.8999999761581421,0.9100000262260437,0.8700000047683716,0.8999999761581421,964510,0,0
2020-05-25,0.9300000071525574,0.9300000071525574,0.8799999952316284,0.9300000071525574,1166500,0,0
2020-05-26,0.9100000262260437,0.9300000071525574,0.9100000262260437,0.9200000166893005,870500,0,0
2020-05-27,0.9300000071525574,0.9300000071525574,0.9100000262260437,0.9200000166893005,220500,0,0
2020-05-28,0.9100000262260437,0.9200000166893005,0.8899999856948853,0.9200000166893005,615000,0,0
2020-05-29,0.9100000262260437,0.9200000166893005,0.8600000143051147,0.8600000143051147,815500,0,0
2020-06-01,0.9100000262260437,0.9100000262260437,0.8799999952316284,0.8899999856948853,976500,0,0
2020-06-02,0.9200000166893005,0.9200000166893005,0.8899999856948853,0.9100000262260437,3032500,0,0
2020-06-03,0.9200000166893005,0.9300000071525574,0.8999999761581421,0.9200000166893005,974500,0,0
2020-06-04,0.9300000071525574,0.9399999976158142,0.9100000262260437,0.9200000166893005,737000,0,0
2020-06-05,0.9300000071525574,0.9399999976158142,0.9100000262260437,0.9300000071525574,744875,0,0
2020-06-08,0.9399999976158142,0.9700000286102295,0.9399999976158142,0.9399999976158142,1059500,0,0
2020-06-09,0.949999988079071,1.2400000095367432,0.9399999976158142,1.2100000381469727,17974000,0,0
2020-06-10,1.2100000381469727,1.3200000524520874,1.1100000143051147,1.2300000190734863,12470000,0,0
2020-06-11,1.2400000095367432,1.2899999618530273,1.1699999570846558,1.2899999618530273,3035500,0,0
2020-06-12,1.2599999904632568,1.3700000047683716,1.190000057220459,1.2899999618530273,2748000,0,0
2020-06-15,1.2699999809265137,1.2999999523162842,1.190000057220459,1.190000057220459,2458000,0,0
2020-06-16,1.2300000190734863,1.2699999809265137,1.2000000476837158,1.2400000095367432,1458000,0,0
2020-06-17,1.2400000095367432,1.2400000095367432,1.1399999856948853,1.2000000476837158,3727500,0,0
2020-06-18,1.2000000476837158,1.2100000381469727,1.1399999856948853,1.159999966621399,1981000,0,0
2020-06-19,1.1799999475479126,1.2100000381469727,1.149999976158142,1.1799999475479126,2356500,0,0
2020-06-22,1.1699999570846558,1.2699999809265137,1.1299999952316284,1.2300000190734863,3976000,0,0
2020-06-23,1.2400000095367432,1.2699999809265137,1.2100000381469727,1.2200000286102295,428500,0,0
2020-06-24,1.2200000286102295,1.2400000095367432,1.190000057220459,1.2200000286102295,276000,0,0
2020-06-26,1.1799999475479126,1.2100000381469727,1.1699999570846558,1.1799999475479126,330000,0,0
2020-06-29,1.2200000286102295,1.25,1.1299999952316284,1.159999966621399,1398486,0,0
2020-06-30,1.159999966621399,1.190000057220459,1.159999966621399,1.1699999570846558,512000,0,0
2020-07-02,1.2000000476837158,1.2000000476837158,1.1299999952316284,1.1799999475479126,1002718,0,0
2020-07-03,1.2000000476837158,1.309999942779541,1.190000057220459,1.2599999904632568,6117000,0,0
2020-07-06,1.309999942779541,1.4299999475479126,1.2599999904632568,1.399999976158142,7297190,0,0
2020-07-07,1.4500000476837158,1.5199999809265137,1.309999942779541,1.3200000524520874,5203500,0,0
2020-07-08,1.3300000429153442,1.4199999570846558,1.2999999523162842,1.3799999952316284,1728000,0,0
2020-07-09,1.399999976158142,1.4700000286102295,1.399999976158142,1.4299999475479126,2756000,0,0
2020-07-10,1.4800000190734863,1.4800000190734863,1.3700000047683716,1.399999976158142,2995500,0,0
2020-07-13,1.4299999475479126,1.6200000047683716,1.4299999475479126,1.5099999904632568,8361429,0,0
2020-07-14,1.5,1.6100000143051147,1.4500000476837158,1.5299999713897705,14273000,0,0
2020-07-15,1.5499999523162842,1.5800000429153442,1.4199999570846558,1.4500000476837158,4694000,0,0
2020-07-16,1.3899999856948853,1.399999976158142,1.2999999523162842,1.340000033378601,4291000,0,0
2020-07-17,1.3200000524520874,1.3300000429153442,1.2599999904632568,1.2999999523162842,1541000,0,0
2020-07-20,1.2999999523162842,1.340000033378601,1.2799999713897705,1.3200000524520874,873500,0,0
2020-07-21,1.309999942779541,1.309999942779541,1.2699999809265137,1.2999999523162842,1680500,0,0
2020-07-22,1.2899999618530273,1.2999999523162842,1.1699999570846558,1.2400000095367432,4166000,0,0
2020-07-23,1.25,1.25,1.1799999475479126,1.2000000476837158,2467500,0,0
2020-07-24,1.2000000476837158,1.2300000190734863,1.1299999952316284,1.149999976158142,5148000,0,0
2020-07-27,1.1399999856948853,1.190000057220459,1.1200000047683716,1.1399999856948853,3552000,0,0
2020-07-28,1.1399999856948853,1.2300000190734863,1.1399999856948853,1.190000057220459,4744500,0,0
2020-07-29,1.1799999475479126,1.2300000190734863,1.1799999475479126,1.2300000190734863,2435000,0,0
2020-07-30,1.2599999904632568,1.2699999809265137,1.2300000190734863,1.25,1413000,0,0
2020-07-31,1.25,1.3200000524520874,1.2400000095367432,1.2699999809265137,3257500,0,0
2020-08-03,1.2799999713897705,1.3200000524520874,1.2599999904632568,1.309999942779541,1510929,0,0
2020-08-04,1.340000033378601,1.5099999904632568,1.3300000429153442,1.440000057220459,7053000,0,0
2020-08-05,1.440000057220459,1.440000057220459,1.3700000047683716,1.4199999570846558,1765500,0,0
2020-08-06,1.4299999475479126,1.4600000381469727,1.3799999952316284,1.4199999570846558,1356500,0,0
2020-08-07,1.3899999856948853,1.4299999475479126,1.350000023841858,1.3600000143051147,2472000,0,0
2020-08-10,1.3300000429153442,1.3300000429153442,1.25,1.2999999523162842,2681000,0,0
2020-08-11,1.309999942779541,1.3700000047683716,1.309999942779541,1.340000033378601,2367500,0,0
2020-08-12,1.340000033378601,1.3799999952316284,1.2999999523162842,1.340000033378601,732500,0,0
2020-08-13,1.340000033378601,1.350000023841858,1.2999999523162842,1.340000033378601,1012000,0,0
2020-08-14,1.3200000524520874,1.340000033378601,1.3200000524520874,1.3300000429153442,265500,0,0
2020-08-17,1.340000033378601,1.350000023841858,1.2599999904632568,1.2899999618530273,1001143,0,0
2020-08-18,1.2799999713897705,1.309999942779541,1.25,1.2799999713897705,1368108,0,0
2020-08-19,1.2899999618530273,1.2999999523162842,1.2699999809265137,1.2899999618530273,31000,0,0
2020-08-20,1.2599999904632568,1.2599999904632568,1.2100000381469727,1.2400000095367432,1477000,0,0
2020-08-21,1.2699999809265137,1.2699999809265137,1.2300000190734863,1.2300000190734863,249000,0,0
2020-08-24,1.2799999713897705,1.2799999713897705,1.2200000286102295,1.25,408000,0,0
2020-08-25,1.25,1.25,1.2200000286102295,1.2400000095367432,476000,0,0
2020-08-26,1.2300000190734863,1.2300000190734863,1.149999976158142,1.190000057220459,1720451,0,0
2020-08-27,1.1699999570846558,1.2000000476837158,1.159999966621399,1.190000057220459,437384,0,0
2020-08-28,1.1799999475479126,1.2599999904632568,1.1699999570846558,1.2200000286102295,1525500,0,0
2020-08-31,1.2200000286102295,1.2200000286102295,1.1699999570846558,1.1799999475479126,1025000,0,0
2020-09-01,1.1799999475479126,1.2200000286102295,1.1699999570846558,1.1799999475479126,1381000,0,0
2020-09-02,1.2200000286102295,1.25,1.1799999475479126,1.2300000190734863,898500,0,0
2020-09-03,1.2599999904632568,1.2599999904632568,1.2100000381469727,1.2100000381469727,595500,0,0
2020-09-04,1.2000000476837158,1.2100000381469727,1.159999966621399,1.2100000381469727,746500,0,0
2020-09-07,1.1799999475479126,1.2000000476837158,1.1100000143051147,1.1699999570846558,763500,0,0
2020-09-08,1.2899999618530273,1.2899999618530273,1.1100000143051147,1.1200000047683716,914000,0,0
2020-09-09,1.090000033378601,1.100000023841858,1.059999942779541,1.0800000429153442,320500,0,0
2020-09-10,1.059999942779541,1.1200000047683716,1.0099999904632568,1.090000033378601,1679000,0,0
2020-09-11,1.0700000524520874,1.100000023841858,1.0700000524520874,1.100000023841858,289500,0,0
2020-09-14,1.100000023841858,1.149999976158142,1.090000033378601,1.149999976158142,380500,0,0
2020-09-15,1.1100000143051147,1.1799999475479126,1.1100000143051147,1.1699999570846558,578500,0,0
2020-09-16,1.1699999570846558,1.2300000190734863,1.1299999952316284,1.1799999475479126,1500000,0,0
2020-09-17,1.1699999570846558,1.1699999570846558,1.1699999570846558,1.1699999570846558,0,0,0
2020-09-18,1.159999966621399,1.159999966621399,1.0800000429153442,1.1399999856948853,815000,0,0
2020-09-21,1.159999966621399,1.1799999475479126,1.1299999952316284,1.159999966621399,381500,0,0
2020-09-22,1.1100000143051147,1.159999966621399,1.1100000143051147,1.149999976158142,72000,0,0
2020-09-23,1.1200000047683716,1.1399999856948853,1.100000023841858,1.1399999856948853,162000,0,0
2020-09-24,1.1100000143051147,1.1200000047683716,1.0800000429153442,1.1200000047683716,121500,0,0
2020-09-25,1.1299999952316284,1.1299999952316284,1.0199999809265137,1.0800000429153442,857043,0,0
2020-09-28,1.0700000524520874,1.0800000429153442,1.0499999523162842,1.059999942779541,383000,0,0
2020-09-29,1.0700000524520874,1.0800000429153442,1.0099999904632568,1.059999942779541,978000,0,0
2020-09-30,1.0700000524520874,1.090000033378601,1.0299999713897705,1.090000033378601,401000,0,0
2020-10-05,1.0800000429153442,1.190000057220459,1.059999942779541,1.090000033378601,911000,0,0
2020-10-06,1.090000033378601,1.1100000143051147,1.059999942779541,1.059999942779541,174000,0,0
2020-10-07,1.0700000524520874,1.1299999952316284,1.0700000524520874,1.100000023841858,658500,0,0
2020-10-08,1.1200000047683716,1.1299999952316284,1.100000023841858,1.1299999952316284,349500,0,0
2020-10-09,1.1200000047683716,1.1200000047683716,1.0800000429153442,1.1100000143051147,147000,0,0
2020-10-12,1.1100000143051147,1.1399999856948853,1.059999942779541,1.1100000143051147,436500,0,0
2020-10-14,1.100000023841858,1.1299999952316284,1.0700000524520874,1.0800000429153442,542500,0,0
2020-10-15,1.1200000047683716,1.1200000047683716,1.059999942779541,1.0800000429153442,211500,0,0
2020-10-16,1.100000023841858,1.100000023841858,1.059999942779541,1.0700000524520874,275000,0,0
2020-10-19,1.0700000524520874,1.0700000524520874,1.0299999713897705,1.0399999618530273,548000,0,0
2020-10-20,1.0399999618530273,1.090000033378601,1.0399999618530273,1.0800000429153442,794000,0,0
2020-10-21,1.090000033378601,1.2599999904632568,1.059999942779541,1.1299999952316284,4651643,0,0
2020-10-22,1.100000023841858,1.1699999570846558,1.0800000429153442,1.100000023841858,986000,0,0
2020-10-23,1.100000023841858,1.1699999570846558,1.090000033378601,1.1299999952316284,809500,0,0
2020-10-27,1.1200000047683716,1.1200000047683716,1.0700000524520874,1.0800000429153442,1021000,0,0
2020-10-28,1.059999942779541,1.059999942779541,0.9599999785423279,1.0299999713897705,2765000,0,0
2020-10-29,1.0099999904632568,1.0399999618530273,0.9900000095367432,1.0099999904632568,608000,0,0
2020-10-30,1.0099999904632568,1.0099999904632568,0.9399999976158142,0.9599999785423279,986000,0,0
2020-11-02,1.0499999523162842,1.100000023841858,0.8899999856948853,0.9100000262260437,2872500,0,0
2020-11-03,0.9100000262260437,0.949999988079071,0.8600000143051147,0.9300000071525574,1332000,0,0
2020-11-04,0.9300000071525574,0.949999988079071,0.8700000047683716,0.8799999952316284,715000,0,0
2020-11-05,0.8899999856948853,0.9200000166893005,0.8600000143051147,0.8999999761581421,1701500,0,0
2020-11-06,0.949999988079071,1.0299999713897705,0.9100000262260437,1.0,3415500,0,0
2020-11-09,1.0399999618530273,1.0399999618530273,0.9300000071525574,0.9399999976158142,1548000,0,0
2020-11-10,0.949999988079071,1.0,0.9200000166893005,0.9800000190734863,1922000,0,0
2020-11-11,0.9800000190734863,1.0,0.9399999976158142,0.9900000095367432,623430,0,0
2020-11-12,0.9900000095367432,0.9900000095367432,0.9599999785423279,0.9900000095367432,276500,0,0
2020-11-13,0.9700000286102295,0.9700000286102295,0.8999999761581421,0.949999988079071,1644000,0,0
2020-11-16,0.9300000071525574,0.9700000286102295,0.9300000071525574,0.9599999785423279,223500,0,0
2020-11-17,0.9599999785423279,1.0199999809265137,0.9599999785423279,0.9700000286102295,763000,0,0
2020-11-18,1.0,1.0,0.9800000190734863,1.0,1126500,0,0
2020-11-19,1.0199999809265137,1.149999976158142,1.0199999809265137,1.1100000143051147,6797000,0,0
2020-11-20,1.100000023841858,1.1299999952316284,1.059999942779541,1.059999942779541,1149500,0,0
2020-11-23,1.059999942779541,1.090000033378601,0.9800000190734863,1.0299999713897705,1148500,0,0
2020-11-24,1.0299999713897705,1.059999942779541,1.0099999904632568,1.0299999713897705,2548000,0,0
2020-11-25,1.0099999904632568,1.0499999523162842,1.0,1.0099999904632568,383000,0,0
2020-11-26,1.0299999713897705,1.0399999618530273,1.0,1.0099999904632568,628000,0,0
2020-11-27,1.0299999713897705,1.0299999713897705,0.9900000095367432,1.0099999904632568,851500,0,0
2020-11-30,0.9900000095367432,1.0399999618530273,0.9900000095367432,0.9900000095367432,1146000,0,0
2020-12-01,1.0099999904632568,1.0499999523162842,1.0,1.0399999618530273,650500,0,0
2020-12-02,1.0099999904632568,1.0299999713897705,0.9900000095367432,1.0199999809265137,272000,0,0
2020-12-03,1.0099999904632568,1.0199999809265137,0.9900000095367432,0.9900000095367432,1248000,0,0
2020-12-04,1.0099999904632568,1.0099999904632568,0.9399999976158142,0.9700000286102295,1480500,0,0
2020-12-07,0.949999988079071,0.9800000190734863,0.9200000166893005,0.9700000286102295,953000,0,0
