Date,Open,High,Low,Close,Volume,Dividends,Stock Splits
2020-01-02,3.886856655704478,3.9437374318896294,3.886856655704478,3.915297269821167,2454000,0.0,0
2020-01-03,3.9626978319762536,3.981658091380992,3.8868567943573002,3.8868567943573,3820500,0.0,0
2020-01-06,3.8489362973421484,3.9437375949026454,3.8489362973421484,3.867896556854248,2333064,0.0,0
2020-01-07,3.8489363784990935,4.048019333598034,3.8489363784990935,4.0006184577941895,5485000,0.0,0
2020-01-08,3.962697787749659,3.962697787749659,3.905817010170275,3.9247772693634033,2452994,0.0,0
2020-01-09,3.972178280413715,4.161780878886439,3.9058171449241352,4.1238603591918945,8191454,0.0,0
2020-01-10,4.171260917344584,4.171260917344584,4.066979270097709,4.095419883728027,5476345,0.0,0
2020-01-13,4.076459625323888,4.133340400536306,4.03853910851561,4.095419883728027,2568790,0.0,0
2020-01-14,4.095420057036287,4.161780738234889,4.085939701408923,4.152300834655762,2437000,0.0,0
2020-01-15,4.09542015146924,4.199701353485359,4.0859397956232755,4.161780834197998,6295000,0.0,0
2020-01-16,4.152300658940445,4.171260917344584,4.076459625323888,4.095419883728027,5738500,0.0,0
2020-01-17,4.123860389617154,4.209181785583496,4.114380485647703,4.209181785583496,4051096,0.0,0
2020-01-20,4.199701078926684,4.218661337330823,4.095419883728027,4.095419883728027,2432500,0.0,0
2020-01-21,4.076459886845663,4.076459886845663,3.829976059730678,3.8489363193511963,12393760,0.0,0
2020-01-22,3.820496134098121,3.8773769126344195,3.706734351001402,3.867896556854248,7212764,0.0,0
2020-01-23,3.886856861038176,3.886856861038176,3.782575432523118,3.8299760818481445,6486163,0.0,0
2020-01-24,3.7920554459157194,3.886856741653965,3.735174668472772,3.83945631980896,4265500,0.0,0
2020-01-29,3.8299761311723906,3.8299761311723906,3.61193291544508,3.687774181365967,5716000,0.0,0
2020-01-30,3.697254099585411,3.697254099585411,3.3938895053259346,3.4412903785705566,6666014,0.0,0
2020-01-31,3.441290453365064,3.4886911016157978,3.3654491901397705,3.3654491901397705,6811500,0.0,0
2020-02-03,3.3370088896346215,3.365449279338856,3.2327274607190946,3.2896082401275635,7536779,0.0,0
2020-02-04,3.3275285613936165,3.3654490787389846,3.2137670093575124,3.251687526702881,11319180,0.0,0
2020-02-05,3.412849903106689,3.5360918169196918,3.337008864467379,3.4128499031066895,9745000,0.0,0
2020-02-06,3.422329893658239,3.4981711552351653,3.3749292464377314,3.4412903785705566,4227500,0.0,0
2020-02-07,3.4412905186205545,3.4602507782803817,3.3938896434468617,3.4128499031066895,3445500,0.0,0
2020-02-10,3.3938897106682657,3.3938897106682657,3.299088410491437,3.355969190597534,3934469,0.0,0
2020-02-11,3.4033697087403576,3.4033697087403576,3.3085684122388903,3.3654491901397705,7673000,0.0,0
2020-02-12,3.3938894430829762,3.5550518667011435,3.3938894430829762,3.498171091079712,8910560,0.0,0
2020-02-13,3.5455720248406046,3.5455720248406046,3.4507707244534744,3.4602508544921875,3263000,0.0,0
2020-02-14,3.4412903876110534,3.4886910349560853,3.412849773179919,3.422329902648926,2213000,0.0,0
2020-02-17,3.4223299581540365,3.517131480405756,3.3844094396629965,3.4886910915374756,2561645,0.0,0
2020-02-18,3.4507704935524592,3.47921088176557,3.327528585271533,3.3370087146759033,9213500,0.0,0
2020-02-19,3.346488844080273,3.4033696205064943,3.318048455867163,3.3370087146759033,4152494,0.0,0
2020-02-20,3.3370088671431617,3.355969126818193,3.2990883477931003,3.3085684776306152,7334500,0.0,0
2020-02-21,3.2706478943158066,3.2896081536200277,3.194806631074803,3.2611677646636963,10248850,0.0,0
2020-02-24,3.2137672604408865,3.2137672604408865,3.1000054734927542,3.128445863723755,8127455,0.0,0
2020-02-25,3.090525214852813,3.1758463819965344,3.090525214852813,3.137925863265991,4476500,0.0,0
2020-02-26,3.109485387802124,3.1284456466404698,3.062084740706261,3.109485387802124,5995500,0.0,0
2020-02-27,3.1094852997907942,3.1094852997907942,3.05260452488572,3.081044912338257,4395500,0.0,0
2020-02-28,3.0810451541235593,3.0810451541235593,2.9009224600982377,2.9767637252807617,12254000,0.0,0
2020-03-02,2.9293629557902467,3.0146843539551758,2.9293629557902467,2.986243963241577,5114536,0.0,0
2020-03-03,3.04312445852199,3.0620847172148777,2.986243682443326,3.0241641998291016,4185000,0.0,0
2020-03-04,3.024164384868793,3.0526047746483087,2.872482080020584,2.957803249359131,12276190,0.0,0
2020-03-05,3.005204114965161,3.005204114965161,2.9104025899930375,2.9767637252807617,13205020,0.0,0
2020-03-06,2.9483231875780866,2.9767638040390847,2.872482146413109,2.9009225368499756,6135634,0.0,0
2020-03-09,2.8535217595415885,2.8535217595415885,2.720799717366205,2.8061211109161377,9886326,0.0,0
2020-03-10,2.8061209867521937,2.8156011160578114,2.692359209060669,2.692359209060669,12613500,0.0,0
2020-03-11,2.720799782526468,2.8250814380240157,2.7018395226222096,2.7492403984069824,10982500,0.0,0
2020-03-12,2.7302800404109786,2.7397601700225116,2.5691176109907956,2.616518259048462,5799280,0.0,0
2020-03-13,2.464835917495569,2.5785976969314266,2.370034622985784,2.550157308578491,12725500,0.0,0
2020-03-16,2.5596374013627616,2.597557918623466,2.398474976980657,2.4648358821868896,6533500,0.0,0
2020-03-17,2.3700345391664572,2.3984749265135616,2.180431730828319,2.2941935062408447,14815520,0.0,0
2020-03-18,2.2752333424031908,2.379514767002284,2.114070914725931,2.199392080307007,9227500,0.0,0
2020-03-19,2.2752335595635844,2.2752335595635844,1.933948412616978,2.028749942779541,15595930,0.0,0
2020-03-20,2.0192696196358466,2.2373125983430406,2.0192696196358466,2.199392080307007,11968610,0.0,0
2020-03-23,2.0666703095280905,2.1614716065607054,2.0477100501215677,2.057190179824829,10370000,0.0,0
2020-03-24,2.123551023639416,2.2278324472271227,2.1045907648052875,2.2183523178100586,9750500,0.0,0
2020-03-25,2.3226340253120092,2.4079551921921616,2.237312632407737,2.2847135066986084,13740980,0.0,0
2020-03-26,2.2847135066986084,2.3700346735787603,2.2752333770452577,2.2847135066986084,9183000,0.0,0
2020-03-27,2.370034694671631,2.4269154730979605,2.3510744351961876,2.370034694671631,10380000,0.0,0
2020-03-30,2.303673847761031,2.5501574535197826,2.294193717771238,2.41743540763855,17803560,0.0,0
2020-03-31,2.41743540763855,2.4553559275977226,2.3510744977099973,2.41743540763855,5211490,0.0,0
2020-04-01,2.4079552361264986,2.4743161449107385,2.3321141975159394,2.351074457168579,6887000,0.0,0
2020-04-02,2.4553558397283903,2.4553558397283903,2.2373126317420873,2.3889949321746826,5532000,0.0,0
2020-04-03,2.3605545869948994,2.426915495779139,2.3415943273422593,2.351074457168579,1857000,0.0,0
2020-04-06,2.4553558397283903,2.4553558397283903,2.2562731170672667,2.3889949321746826,3137394,0.0,0
2020-04-07,2.445875644683838,2.483796162272097,2.3984749976985142,2.445875644683838,11511000,0.0,0
2020-04-08,2.474316032875032,2.5311970352815343,2.4363955152867733,2.445875644683838,9700000,0.0,0
2020-04-09,2.474316046946548,2.5785976969314266,2.445875658593612,2.550157308578491,17244500,0.0,0
2020-04-14,2.52171709424049,2.550157484555998,2.4174354370594964,2.5027568340301514,10177190,0.0,0
2020-04-15,2.5027567257644083,2.5880778930200585,2.4648359809599985,2.493276596069336,7881500,0.0,0
2020-04-16,2.512236974566246,2.512236974566246,2.4269155772413327,2.4837963581085205,4037314,0.0,0
2020-04-17,2.4837962603058457,2.5975580435848364,2.4837962603058457,2.5785977840423584,11306880,0.0,0
2020-04-20,2.6165184512416064,2.692359493704682,2.531197278470646,2.6544389724731445,6414500,0.0,0
2020-04-21,2.625998581549491,2.7682007621918934,2.625998581549491,2.6544389724731445,15217000,0.0,0
2020-04-22,2.6733992330889134,2.7207998846283354,2.5785979300100683,2.6544389724731445,8614800,0.0,0
2020-04-23,2.6639189282740294,2.7397601917930596,2.6639189282740294,2.7018394470214844,5312500,0.0,0
2020-04-24,2.7207996962292063,2.8630018670249577,2.69235930727488,2.8250813484191895,13064820,0.0,0
2020-04-27,2.825081282605221,2.8724819297581714,2.7113195034140256,2.7776806354522705,6390096,0.0,0
2020-04-28,2.815601218767747,2.891442255979284,2.7113195665777643,2.8250813484191895,6631500,0.0,0
2020-04-29,2.844041739145512,2.863001999324552,2.796641088697913,2.815601348876953,2218500,0.0,0
2020-05-04,2.7492404209637527,2.787160941083397,2.6639190246704247,2.7302801609039307,8216500,0.0,0
2020-05-05,2.777680811053486,2.787160941083397,2.7302801609039307,2.7302801609039307,2900500,0.0,0
2020-05-06,2.73976001031472,2.8061209137271015,2.7302798812558087,2.768200397491455,5863225,0.0,0
2020-05-07,2.8156013311731303,2.8250814612030415,2.7018395447900687,2.7302801609039307,6028500,0.0,0
2020-05-08,2.7776806371289084,2.910402449237282,2.758720378256284,2.8819620609283447,8261500,0.0,0
2020-05-11,2.929362752131226,2.9578031408675542,2.806121067607137,2.844041585922241,5348900,0.0,0
2020-05-12,2.853521869235032,2.8819622595035916,2.796641088697913,2.815601348876953,4113500,0.0,0
2020-05-13,2.7621095180511475,2.8399155799977085,2.7621095180511475,2.7621095180511475,6754000,0.075,0
2020-05-14,2.79128677785932,2.79128677785932,2.635675113626124,2.6551265716552734,7863000,0.0,0
2020-05-15,2.762109673821035,2.762109673821035,2.6648523807525635,2.6648523807525635,2684500,0.0,0
2020-05-18,2.6259494625759414,2.703755297002593,2.6259494625759414,2.6356751918792725,6591520,0.0,0
2020-05-19,2.655126501709164,2.8107383937226222,2.655126501709164,2.7621095180511475,5367000,0.0,0
2020-05-20,2.7718352414822554,2.801012659580929,2.694029411564895,2.7037551403045654,7220226,0.0,0
2020-05-21,2.723206757556714,2.7426582161772877,2.664852381694994,2.6940295696258545,1968500,0.0,0
2020-05-22,2.6745781070933035,2.6745781070933035,2.5286919357727067,2.5773208141326904,10968090,0.0,0
2020-05-25,2.4995146599164655,2.5189661178240126,2.441160286193825,2.5092403888702393,4707000,0.0,0
2020-05-26,2.5286918590229304,2.635675109912172,2.5189661300220605,2.5967721939086914,5121000,0.0,0
2020-05-27,2.577320805426451,2.6648523687953194,2.499514739441114,2.5189661979675293,6101000,0.0,0
2020-05-28,2.4897888420032848,2.499514570609561,2.4022572845468,2.411983013153076,5271000,0.0,0
2020-05-29,2.3828059850966383,2.4508860898480633,2.343903068095824,2.4314346313476562,3949000,0.0,0
2020-06-01,2.489788930962692,2.5092403888702393,2.4606117441013717,2.5092403888702393,6026500,0.0,0
2020-06-02,2.4995146618976016,2.5578692675461636,2.4897889329361194,2.5384175777435303,3810500,0.0,0
2020-06-03,2.5481433151681623,2.6064979210105372,2.5481433151681623,2.5675950050354004,3560000,0.0,0
2020-06-04,2.587046464907821,2.625949380911302,2.557869277905211,2.5967721939086914,2891500,0.0,0
2020-06-05,2.5384175880238007,2.625949380911302,2.5384175880238007,2.5967721939086914,2025750,0.0,0
2020-06-08,2.6551264912781365,2.752383778479669,2.6259493051176768,2.6454007625579834,7817500,0.0,0
2020-06-09,2.6648522279340456,2.7912867016725516,2.6648522279340456,2.7329323291778564,11462000,0.0,0
2020-06-10,2.762109598108185,2.7815610561886905,2.7037552238666676,2.7718353271484375,6354758,0.0,0
2020-06-11,2.7718352330457865,2.7718352330457865,2.6064978449746237,2.6162235736846924,11618500,0.0,0
2020-06-12,2.4995146738009306,2.635675111789781,2.489788944793132,2.6259493827819824,4577199,0.0,0
2020-06-15,2.655126567913912,2.655126567913912,2.577320735906951,2.5967721939086914,4020500,0.0,0
2020-06-16,2.616223570910669,2.6551264857096935,2.567594927411889,2.5870463848114014,6464890,0.0,0
2020-06-17,2.625949380911302,2.6648522969147823,2.577320735906951,2.5967721939086914,10302290,0.0,0
2020-06-18,2.6356750992380205,2.6356750992380205,2.528691848782048,2.5384175777435303,5921727,0.0,0
2020-06-19,2.5481432353692397,2.567594924627319,2.499514591923197,2.5578691959381104,6394000,0.0,0
2020-06-22,2.5578692797273925,2.635675111789781,2.5578692797273925,2.6259493827819824,4143647,0.0,0
2020-06-23,2.645400836985674,2.645400836985674,2.5481433151681623,2.5675950050354004,1389000,0.0,0
2020-06-24,2.6064980030059814,2.6064980030059814,2.5578693565072963,2.6064980030059814,1167894,0.0,0
2020-06-26,2.5773208065225277,2.5773208065225277,2.4995147405041016,2.5481433868408203,1866061,0.0,0
2020-06-29,2.548143385757152,2.548143385757152,2.460611822388284,2.5189661979675293,5454500,0.0,0
2020-06-30,2.567594994472549,2.567594994472549,2.4703374730551455,2.5092403888702393,5734113,0.0,0
2020-07-02,2.5189661281868094,2.6064979210105372,2.5092403991930254,2.5675950050354004,5058000,0.0,0
2020-07-03,2.596772179227217,2.596772179227217,2.4800631999969482,2.4800631999969482,8627936,0.0,0
2020-07-06,2.4995145826864373,2.548143225952776,2.4800631253799015,2.5286917686462402,9681069,0.0,0
2020-07-07,2.567595084836629,2.6843038363893648,2.557869355540568,2.5773208141326904,14235630,0.0,0
2020-07-08,2.587046464907821,2.6064979229095617,2.48006321401858,2.5967721939086914,9269554,0.0,0
2020-07-09,2.616223653774184,2.7232066728599675,2.5578692797273925,2.6259493827819824,7352421,0.0,0
2020-07-10,2.6162236519104316,2.625949380911302,2.557869277905211,2.5967721939086914,3718284,0.0,0
2020-07-13,2.5675949059458163,2.587046363182707,2.4022572875525863,2.441160202026367,14753630,0.0,0
2020-07-14,2.4703374459545038,2.4703374459545038,2.236919721744963,2.246645450592041,19008640,0.0,0
2020-07-15,2.2466454528942,2.2952740971794205,2.2466454528942,2.275822639465332,9255400,0.0,0
2020-07-16,2.2952740124837376,2.2952740124837376,2.217468184498422,2.236919641494751,7072000,0.0,0
2020-07-17,2.2563711018553763,2.2758225588807077,2.236919644830045,2.266096830368042,2172582,0.0,0
2020-07-20,2.2952740948274313,2.2952740948274313,2.2174682640508063,2.246645450592041,5092500,0.0,0
2020-07-21,2.256371181751244,2.2855483683223765,2.2466454528942,2.275822639465332,4404374,0.0,0
2020-07-22,2.2758225748785734,2.41198300689269,2.2563711177165082,2.353628635406494,9111272,0.0,0
2020-07-23,2.3828058273342476,2.431434470365628,2.3536286415154195,2.411983013153076,4774292,0.0,0
2020-07-24,2.41198300689269,2.41198300689269,2.3244514496633966,2.353628635406494,5157230,0.0,0
2020-07-27,2.3536287045520794,2.382805891152353,2.2855483706051074,2.304999828338623,2136500,0.0,0
2020-07-28,2.402257360153284,2.402257360153284,2.304999839149867,2.363354444503784,995500,0.0,0
2020-07-29,2.295274019241333,2.373080079335378,2.2563711051341397,2.295274019241333,3461693,0.0,0
2020-07-30,2.314725784401254,2.324451513248332,2.236919721744963,2.246645450592041,3519742,0.0,0
2020-07-31,2.275822718075299,2.2952741764612665,2.2466455304963473,2.256371259689331,3369700,0.0,0
2020-08-03,2.2952740124837376,2.2952740124837376,2.198016727502093,2.236919641494751,3737300,0.0,0
2020-08-04,2.2660968269892443,2.2660968269892443,2.2077424560002576,2.236919641494751,4715771,0.0,0
2020-08-05,2.2271939928978846,2.266096908286197,2.2174682640508063,2.246645450592041,2794786,0.0,0
2020-08-06,2.266096833660938,2.3147257081745884,2.236919648080543,2.295274019241333,2998500,0.0,0
2020-08-07,2.2758226371332753,2.3049998236745095,2.1980168063566503,2.246645450592041,3860000,0.0,0
2020-08-10,2.227194073371672,2.295274177761114,2.2077426149746886,2.285548448562622,3496662,0.0,0
2020-08-11,2.304999839149867,2.373080173416159,2.304999839149867,2.363354444503784,3418500,0.0,0
2020-08-12,2.373080175534958,2.3925316333770748,2.3049998412078803,2.392531633377075,2473751,0.0,0
2020-08-13,2.4119831717200237,2.4119831717200237,2.363354525491732,2.4022574424743652,2347589,0.0,0
2020-08-14,2.4217089053354535,2.557869346900036,2.373080259019415,2.5189661979675293,9184000,0.0,0
2020-08-17,2.538417655389111,2.5481433846480854,2.4606118213173147,2.4897890090942383,3252500,0.0,0
2020-08-18,2.4995147360990813,2.4995147360990813,2.4314346313476562,2.4314346313476562,2483500,0.0,0
2020-08-19,2.4314344672488297,2.4411601958426385,2.3341771813107406,2.382805824279785,2183500,0.0,0
2020-08-20,2.382805824279785,2.382805824279785,2.3341771813107406,2.382805824279785,2089000,0.0,0
2020-08-21,2.4022573643913008,2.441160280109432,2.363354448673169,2.421708822250366,2477500,0.0,0
2020-08-24,2.4411602842134146,2.4995146578887146,2.4119830973757646,2.4800631999969482,2894894,0.0,0
2020-08-25,2.5189661990387893,2.567595077255184,2.4703375527020706,2.5481433868408203,5804070,0.0,0
2020-08-26,2.5675949880730276,2.5675949880730276,2.4119830933208335,2.421708822250366,3736834,0.0,0
2020-08-27,2.450886009038965,2.450886009038965,2.3536287197436363,2.421708822250366,2487500,0.0,0
2020-08-28,2.4703374730551455,2.6259493681951893,2.3828059124711842,2.5092403888702393,12679500,0.0,0
2020-08-31,2.5773207234263222,2.6940294708716035,2.5092403888702393,2.5092403888702393,8458000,0.0,0
2020-09-01,2.557869180452262,2.557869180452262,2.4314344763783504,2.470337390899658,4121000,0.0,0
2020-09-02,2.4703375447987512,2.4703375447987512,2.334177335491555,2.343903064727783,13156760,0.0,0
2020-09-03,2.382805821149592,2.392531549730625,2.334177178244429,2.353628635406494,4378247,0.0,0
2020-09-04,2.3439029068254618,2.37308009256856,2.3049997606216714,2.353628635406494,4352089,0.0,0
2020-09-07,2.3633545220111674,2.3828059804738375,2.2855484562808117,2.314725875854492,3950527,0.0,0
2020-09-08,2.3536287927798325,2.3536287927798325,2.2952741855121466,2.314725875854492,2743000,0.0,0
2020-09-09,2.3147257890850477,2.3147257890850477,2.2758226417383494,2.304999828338623,3469500,0.0,0
2020-09-10,2.3399999141693115,2.359999895095825,2.319999933242798,2.3399999141693115,2867500,0.065,0
2020-09-11,2.3499999046325684,2.369999885559082,2.319999933242798,2.369999885559082,4217500,0.0,0
2020-09-14,2.359999895095825,2.4100000858306885,2.3499999046325684,2.380000114440918,5528941,0.0,0
2020-09-15,2.380000114440918,2.4200000762939453,2.359999895095825,2.4000000953674316,4353500,0.0,0
2020-09-16,2.4000000953674316,2.450000047683716,2.390000104904175,2.4000000953674316,2992000,0.0,0
2020-09-17,2.4000000953674316,2.4100000858306885,2.3499999046325684,2.369999885559082,1741203,0.0,0
2020-09-18,2.380000114440918,2.4000000953674316,2.359999895095825,2.380000114440918,2845500,0.0,0
2020-09-21,2.380000114440918,2.4100000858306885,2.3299999237060547,2.3299999237060547,2237000,0.0,0
2020-09-22,2.3499999046325684,2.359999895095825,2.2699999809265137,2.3299999237060547,4125400,0.0,0
2020-09-23,2.3399999141693115,2.3399999141693115,2.2699999809265137,2.3299999237060547,2276000,0.0,0
2020-09-24,2.319999933242798,2.390000104904175,2.2799999713897705,2.2899999618530273,4065000,0.0,0
2020-09-25,2.299999952316284,2.309999942779541,2.2300000190734863,2.25,3380500,0.0,0
2020-09-28,2.259999990463257,2.2899999618530273,2.2300000190734863,2.2799999713897705,5208668,0.0,0
2020-09-29,2.299999952316284,2.319999933242798,2.2799999713897705,2.2899999618530273,923500,0.0,0
2020-09-30,2.299999952316284,2.369999885559082,2.259999990463257,2.2899999618530273,2357000,0.0,0
2020-10-05,2.309999942779541,2.450000047683716,2.309999942779541,2.4200000762939453,4585500,0.0,0
2020-10-06,2.4600000381469727,2.5299999713897705,2.390000104904175,2.5,4696745,0.0,0
2020-10-07,2.5,2.569999933242798,2.4800000190734863,2.5399999618530273,3767500,0.0,0
2020-10-08,2.559999942779541,2.6500000953674316,2.509999990463257,2.640000104904175,6169980,0.0,0
2020-10-09,2.640000104904175,2.640000104904175,2.5,2.509999990463257,3692000,0.0,0
2020-10-12,2.5999999046325684,2.9800000190734863,2.5899999141693115,2.950000047683716,53727400,0.0,0
2020-10-14,2.950000047683716,2.950000047683716,2.690000057220459,2.7899999618530273,19581500,0.0,0
2020-10-15,2.799999952316284,2.799999952316284,2.5999999046325684,2.5999999046325684,6075865,0.0,0
2020-10-16,2.619999885559082,2.859999895095825,2.619999885559082,2.819999933242798,10130790,0.0,0
2020-10-19,2.859999895095825,2.930000066757202,2.740000009536743,2.7699999809265137,5329500,0.0,0
2020-10-20,2.7899999618530273,2.799999952316284,2.700000047683716,2.799999952316284,3807626,0.0,0
2020-10-21,2.8499999046325684,2.8499999046325684,2.759999990463257,2.7799999713897705,4115637,0.0,0
2020-10-22,2.7799999713897705,2.799999952316284,2.7200000286102295,2.799999952316284,4815000,0.0,0
2020-10-23,2.799999952316284,2.809999942779541,2.75,2.7899999618530273,2831500,0.0,0
2020-10-27,2.7899999618530273,2.890000104904175,2.75,2.8499999046325684,9523500,0.0,0
2020-10-28,2.880000114440918,2.9000000953674316,2.759999990463257,2.7699999809265137,6095952,0.0,0
2020-10-29,2.740000009536743,2.75,2.680000066757202,2.7100000381469727,4008000,0.0,0
2020-10-30,2.7100000381469727,2.7200000286102295,2.5899999141693115,2.609999895095825,6501317,0.0,0
2020-11-02,2.619999885559082,2.700000047683716,2.5999999046325684,2.6500000953674316,3008001,0.0,0
2020-11-03,2.6500000953674316,2.680000066757202,2.609999895095825,2.630000114440918,3984661,0.0,0
2020-11-04,2.630000114440918,2.7200000286102295,2.569999933242798,2.700000047683716,5677262,0.0,0
2020-11-05,2.7300000190734863,2.8299999237060547,2.680000066757202,2.75,5377500,0.0,0
2020-11-06,2.75,2.8499999046325684,2.75,2.799999952316284,8416500,0.0,0
2020-11-09,2.869999885559082,3.119999885559082,2.869999885559082,3.109999895095825,22523820,0.0,0
2020-11-10,3.1600000858306885,3.1700000762939453,2.9200000762939453,2.950000047683716,12976360,0.0,0
2020-11-11,2.950000047683716,3.109999895095825,2.869999885559082,2.9100000858306885,10081530,0.0,0
2020-11-12,2.9100000858306885,3.240000009536743,2.9100000858306885,3.1600000858306885,20296450,0.0,0
2020-11-13,3.2100000381469727,3.2300000190734863,3.059999942779541,3.0899999141693115,8912578,0.0,0
2020-11-16,3.1500000953674316,3.2100000381469727,3.109999895095825,3.140000104904175,6364286,0.0,0
2020-11-17,3.200000047683716,3.5,3.1700000762939453,3.5,32278960,0.0,0
2020-11-18,3.430000066757202,3.5799999237060547,3.359999895095825,3.5799999237060547,16030280,0.0,0
2020-11-19,3.5899999141693115,3.619999885559082,3.4100000858306885,3.430000066757202,13338250,0.0,0
2020-11-20,3.430000066757202,3.5299999713897705,3.4000000953674316,3.430000066757202,10077000,0.0,0
2020-11-23,3.490000009536743,3.5,3.3499999046325684,3.380000114440918,7343000,0.0,0
2020-11-24,3.390000104904175,3.450000047683716,3.319999933242798,3.4100000858306885,3396165,0.0,0
2020-11-25,3.4100000858306885,3.4700000286102295,3.2699999809265137,3.2799999713897705,7517739,0.0,0
2020-11-26,3.299999952316284,3.380000114440918,3.2699999809265137,3.3399999141693115,4995907,0.0,0
2020-11-27,3.380000114440918,3.390000104904175,3.299999952316284,3.3399999141693115,2117542,0.0,0
2020-11-30,3.3399999141693115,3.4200000762939453,3.240000009536743,3.299999952316284,5630500,0.0,0
2020-12-01,3.299999952316284,3.4000000953674316,3.25,3.359999895095825,3345941,0.0,0
2020-12-02,3.359999895095825,3.4200000762939453,3.2699999809265137,3.2899999618530273,14077000,0.0,0
2020-12-03,3.3299999237060547,3.619999885559082,3.319999933242798,3.549999952316284,13526880,0.0,0
2020-12-04,3.559999942779541,3.5999999046325684,3.4800000190734863,3.559999942779541,6986093,0.0,0
2020-12-07,3.559999942779541,3.569999933242798,3.450000047683716,3.4700000286102295,4706500,0.0,0
