Date,Open,High,Low,Close,Volume,Dividends,Stock Splits
2020-01-02,23.753965586956397,24.3333309606386,23.753965586956397,24.285049438476562,1859026,0.0,0
2020-01-03,24.28505069582204,24.57473431853723,24.140209805340366,24.42989158630371,2216000,0.0,0
2020-01-06,24.188489965168642,24.381612384119848,23.56084486620504,23.75396728515625,1319000,0.0,0
2020-01-07,23.705684246819956,24.043647537542295,23.367722797849385,23.947086334228516,1898003,0.0,0
2020-01-08,23.560844421386722,24.236771033202867,23.319442323131216,23.56084442138672,2065974,0.0,0
2020-01-09,23.802245287489527,24.043647373248554,23.126320552415308,23.850526809692383,2223350,0.0,0
2020-01-10,23.94708720817774,24.04364841501552,23.657405429416233,23.898807525634766,1112000,0.0,0
2020-01-13,24.140208575902513,24.333330981210434,23.560843201730503,23.850526809692383,1063414,0.0,0
2020-01-14,23.995368112956303,23.995368112956303,23.31944152429486,23.6091251373291,1824183,0.0,0
2020-01-15,23.464282409936086,23.80224570426681,23.17460063865363,23.6091251373291,1309140,0.0,0
2020-01-16,23.75396728515625,23.850528494631853,23.46428365672944,23.75396728515625,851329,0.0,0
2020-01-17,23.802246123553015,24.236770629882812,23.657405235360358,24.236770629882812,1251328,0.0,0
2020-01-20,24.188488235904238,24.62301272660383,24.14020855549395,24.285049438476562,887959,0.0,0
2020-01-21,24.188488445812816,24.188488445812816,23.46428218286331,23.512563705444336,1314500,0.0,0
2020-01-22,23.657404566038952,24.091929060075067,23.126320710440822,23.947086334228516,1076800,0.0,0
2020-01-23,23.657405650362055,23.85052806584126,22.546956365736246,22.691797256469727,1658969,0.0,0
2020-01-24,22.691796221318803,22.691796221318803,22.353832930523275,22.643516540527344,536845,0.0,0
2020-01-29,22.06415221351234,22.06415221351234,20.808860193856827,20.953702926635742,2303600,0.0,0
2020-01-30,21.00198129225489,21.484785459892933,20.18121383891987,20.37433624267578,1678000,0.0,0
2020-01-31,20.61573744523454,20.905419196733654,19.939810902734393,19.98809242248535,2026786,0.0,0
2020-02-03,19.98809364515031,19.98809364515031,19.292854452222233,19.698410034179688,3281385,0.0,0
2020-02-04,19.6984110839916,20.422617387386527,19.65013140046602,20.181215286254883,1948557,0.0,0
2020-02-05,20.326055995932055,21.195105025598124,20.326055995932055,20.953702926635742,2470373,0.0,0
2020-02-06,21.38822364807129,21.58134604631979,21.14682157113651,21.38822364807129,2118805,0.0,0
2020-02-07,21.146823234332896,21.48478653697272,21.00198234513064,21.291664123535156,1500423,0.0,0
2020-02-10,20.71230015425526,21.14682281320882,20.422616539867754,20.664018630981445,2834725,0.0,0
2020-02-11,20.857139815515445,21.533064525881823,20.808858295077478,21.38822364807129,2648600,0.0,0
2020-02-12,21.581346904089163,22.112430757753398,21.436506020521804,21.77446746826172,1586621,0.0,0
2020-02-13,21.82274795067998,22.112429704010236,21.581345875654208,21.726186752319336,939977,0.0,0
2020-02-14,21.195105630471847,21.581348631484037,21.14682410425038,21.243385314941406,1681884,0.0,0
2020-02-17,21.243385314941406,21.53306710526257,20.326056576004536,21.243385314941406,1904000,0.0,0
2020-02-18,21.00198342678047,21.62962854014996,20.95370374181048,21.339946746826172,1671000,0.0,0
2020-02-19,21.195104155840035,22.015869785229885,21.146822632977717,21.871028900146484,1696098,0.0,0
2020-02-20,21.96759136409396,22.257273150875765,21.436507474410025,22.015871047973633,1696694,0.0,0
2020-02-21,21.726188685392202,22.450394974905276,21.726188685392202,22.16071319580078,1653551,0.0,0
2020-02-24,21.72618804188675,22.064151335333122,21.243383863178156,21.436506271362305,1251700,0.0,0
2020-02-25,21.050261454994004,21.5330656337026,20.95370209265371,21.436506271362305,1733951,0.0,0
2020-02-26,20.953701595034165,21.388224240501557,20.76057919143639,20.80885887145996,1155748,0.0,0
2020-02-27,20.712300380816085,20.953702474570342,20.470898287061825,20.76058006286621,1799510,0.0,0
2020-02-28,20.277775879688154,20.374337085560843,19.65013080414341,19.89153289794922,2863132,0.0,0
2020-03-02,19.84325055322289,20.519177124616846,19.60184846940387,20.37433624267578,1916000,0.0,0
2020-03-03,20.470898291433528,20.905420955232902,19.698410486203844,19.89153289794922,2383573,0.0,0
2020-03-04,19.939812963650265,20.181215062100637,19.698410865199897,20.084653854370117,1689358,0.0,0
2020-03-05,20.374336858345735,20.71230015425526,20.32605533507192,20.664018630981445,957874,0.0,0
2020-03-06,20.664019715849076,20.664019715849076,20.036374614352273,20.27777671813965,969907,0.0,0
2020-03-09,19.55356808988308,19.55356808988308,19.061107635498047,19.061107635498047,2262882,0.0,0
2020-03-10,19.312167897289946,19.55356999600607,18.713489882103143,19.215606689453125,1758003,0.0,0
2020-03-11,19.36044612470975,19.650129726440237,19.061108060498125,19.408727645874023,1570500,0.0,0
2020-03-12,19.022485259233417,19.022485259233417,17.902379718952343,17.960315704345703,4962531,0.0,0
2020-03-13,16.589152675972052,17.979629293470502,16.453968088767994,17.883068084716797,2829371,0.0,0
2020-03-16,17.516134693711734,17.902379503013293,16.74364875861211,16.8402099609375,2459970,0.0,0
2020-03-17,16.80158517525602,17.323014576167424,16.60846460739208,16.878833770751953,2886100,0.0,0
2020-03-18,17.26507669532306,18.17274907093259,16.164283752441406,16.164283752441406,2862250,0.0,0
2020-03-19,16.280158254765805,16.280158254765805,15.353173230697243,15.430421829223633,4088260,0.0,0
2020-03-20,15.546295587758662,16.87883436762284,15.546295587758662,16.60846519470215,4392938,0.0,0
2020-03-23,15.526983330532953,17.033331951071073,15.526983330532953,16.801586151123047,2979616,0.0,0
2020-03-24,16.51190447174024,17.400264298341234,16.51190447174024,17.207141876220703,2368153,0.0,0
2020-03-25,17.902378455719507,18.520367167646704,17.57407149207027,18.249996185302734,2103500,0.0,0
2020-03-26,18.134126439805538,18.385184845158758,17.90238064449915,18.037565231323242,3155000,0.0,0
2020-03-27,18.443118578655803,18.790736308239033,18.134124222692204,18.249996185302734,2179305,0.0,0
2020-03-30,17.92169068412266,17.92169068412266,16.994707540586976,17.0333309173584,2486819,0.0,0
2020-03-31,17.43888686776534,17.70925787782632,17.226453686700744,17.53544807434082,3999002,0.0,0
2020-04-01,17.496823328417598,17.88306628276145,17.30370093036983,17.419574737548828,1366143,0.0,0
2020-04-02,17.18782856158528,17.245766390899256,16.82089818468931,17.22645378112793,1178000,0.0,0
2020-04-03,17.265077643337698,17.651322482593987,16.936772476772877,17.110580444335938,2045500,0.0,0
2020-04-06,17.129892699018285,17.709258104122718,16.84021091734199,17.632009506225586,1508184,0.0,0
2020-04-07,17.805819655374766,18.134126663208008,17.670633225133383,18.134126663208008,1529753,0.0,0
2020-04-08,17.825130958082564,18.095501984915785,17.632010374703356,17.86375617980957,1352356,0.0,0
2020-04-09,17.97962788910908,18.636240005493164,17.921690063331173,18.636240005493164,2098000,0.0,0
2020-04-14,18.59761768816288,19.1962938545822,18.269310690416095,19.11904525756836,2905515,0.0,0
2020-04-15,19.312167536472142,19.457008424645316,18.558992339519072,18.713489532470703,2870196,0.0,0
2020-04-16,18.63623953540392,19.04179509686072,18.211373207593315,18.752113342285156,2008171,0.0,0
2020-04-17,19.061107903945942,19.360445965699054,18.86798734613013,19.003171920776367,1783452,0.0,0
2020-04-20,19.11904495982924,19.11904495982924,18.597617398543907,18.61693000793457,2096500,0.0,0
2020-04-21,18.829362288353835,18.829362288353835,17.883066574344156,18.076187133789062,2248631,0.0,0
2020-04-22,18.056878063820886,18.230686031128,17.574073857213396,18.134126663208008,1804081,0.0,0
2020-04-23,18.249997430471748,18.481743213256102,17.921690444422637,18.11481285095215,2004827,0.0,0
2020-04-24,18.19206242819417,18.211375038241,17.805819436016854,18.037565231323242,819118,0.0,0
2020-04-27,18.230684821468444,18.346558633736503,18.11481285095215,18.11481285095215,512789,0.0,0
2020-04-28,18.30793302642526,18.636240005493164,18.095499857161442,18.636240005493164,1899535,0.0,0
2020-04-29,18.771427245324947,18.829363231886397,18.365871655891166,18.462432861328125,1888876,0.0,0
2020-05-04,18.114812893229175,18.26931008211265,17.86375450085559,17.960315704345703,2043090,0.0,0
2020-05-05,18.0182509840853,18.13412479208579,17.941002392668867,17.97962760925293,792500,0.0,0
2020-05-06,18.09550042590386,18.520368619536846,18.056877049256382,18.36587142944336,1489537,0.0,0
2020-05-07,18.19206192579136,18.52036892051332,17.921690917858037,17.998939514160156,1454758,0.0,0
2020-05-08,18.172748487765578,18.53968068478573,18.153435879132577,18.48174285888672,1648602,0.0,0
2020-05-11,18.752113815297253,19.00317220174634,18.501055428848165,18.636240005493164,840200,0.0,0
2020-05-12,18.53968148305033,18.55899225076307,18.056877296947476,18.1534366607666,1675159,0.0,0
2020-05-13,18.07618785986846,18.269310268822373,17.92169066940605,18.211374282836914,613951,0.0,0
2020-05-14,18.11481312235664,18.153436499190157,17.88306733610016,18.05687713623047,1419165,0.0,0
2020-05-15,18.076189317071957,18.23068651998909,17.902381345104136,18.018253326416016,633000,0.0,0
2020-05-18,18.037563988166713,18.211373783105426,17.9023794106596,18.172748565673828,483000,0.0,0
2020-05-19,18.443119981184445,18.694178374934808,18.443119981184445,18.520368576049805,636716,0.0,0
2020-05-20,18.52036918453091,18.829363574144264,18.346559379935435,18.81005096435547,766855,0.0,0
2020-05-21,18.887300166881964,18.983861377167788,18.539682388305664,18.539682388305664,942388,0.0,0
2020-05-22,18.34655792781336,18.423806519102506,17.68994398097977,17.82512855529785,1473532,0.0,0
2020-05-25,17.554760302495765,18.211374282836914,17.284389298310646,18.211374282836914,926000,0.0,0
2020-05-26,18.095499555280107,19.408727449643575,18.056876180490903,19.157669067382812,2166100,0.0,0
2020-05-27,18.28596632918453,18.801064451254597,18.14728679222989,18.325590133666992,1681567,0.5,0
2020-05-28,18.12747488998866,18.404835853264927,17.96898345079279,18.325590133666992,1664906,0.0,0
2020-05-29,18.226531676904038,18.523704528808594,18.147285960936202,18.523704528808594,2759608,0.0,0
2020-06-01,18.642572098387745,19.217104009656754,18.642572098387745,18.93974494934082,1090753,0.0,0
2020-06-02,19.03880035773201,19.415218918087735,18.97936654428469,19.236915588378906,975400,0.0,0
2020-06-03,19.415218354703683,19.415218354703683,19.018989794274383,19.27653694152832,1018328,0.0,0
2020-06-04,19.316161493190307,19.77182388305664,19.217103876890313,19.77182388305664,2183720,0.0,0
2020-06-05,19.415219354279333,20.059091034296966,19.415219354279333,19.960033416748047,1499948,0.0,0
2020-06-08,19.96003311498083,20.306733826476982,19.96003311498083,20.257205963134766,997490,0.0,0
2020-06-09,20.108619689941406,20.306734932837838,19.860976581004362,20.108619689941406,1288585,0.0,0
2020-06-10,20.108618637965012,20.25720600704752,19.712390062267712,19.910505294799805,1328529,0.0,0
2020-06-11,19.633143816964,19.910504757145826,19.5142761921481,19.811447143554688,953879,0.0,0
2020-06-12,19.41521910283646,20.108618637965012,18.999178626012576,19.910505294799805,957019,0.0,0
2020-06-15,19.692578766496013,19.960033771825906,19.415219699665258,19.45484161376953,868151,0.0,0
2020-06-16,19.860975439991243,20.603904724121094,19.77182377474631,20.603904724121094,1467421,0.0,0
2020-06-17,20.653434476683206,20.802019955635803,20.455319245168496,20.603904724121094,978198,0.0,0
2020-06-18,20.405791860237812,21.049663543701172,20.059091141644647,21.049663543701172,1291910,0.0,0
2020-06-19,20.802020769796776,21.594477948137495,20.70296315016245,20.752492904663086,1859623,0.0,0
2020-06-22,20.50484947831685,21.049663543701172,20.50484947831685,21.049663543701172,1023559,0.0,0
2020-06-23,21.297306594189774,21.396364212036133,20.405791812306376,21.396364212036133,769156,0.0,0
2020-06-24,21.297305522407203,21.74306383559966,20.95060482207605,21.1982479095459,884363,0.0,0
2020-06-26,21.198247942074097,21.198247942074097,20.851547241210938,20.851547241210938,495330,0.0,0
2020-06-29,20.80202115071193,21.00013639360836,20.009563957860173,20.108619689941406,1042800,0.0,0
2020-06-30,19.86097554198334,20.25720600704752,19.692578161141128,19.910505294799805,1735500,0.0,0
2020-07-02,19.91050621762995,20.80202102661133,19.91050621762995,20.802021026611328,1313600,0.0,0
2020-07-03,21.00013615112608,21.495422363281254,21.00013615112608,21.49542236328125,784642,0.0,0
2020-07-06,21.693535583440127,22.18882179260254,21.544950098564794,22.18882179260254,1703045,0.0,0
2020-07-07,22.188821987580134,22.63458033549005,21.148721694946286,21.14872169494629,2128818,0.0,0
2020-07-08,20.90107859037981,22.585050582885742,20.90107859037981,22.585050582885742,1579092,0.0,0
2020-07-09,22.783164659857512,23.129865369511325,22.535521565728626,23.08033561706543,1915614,0.0,0
2020-07-10,23.030807235132176,23.179392710388697,22.337405831445984,22.981279373168945,1381000,0.0,0
2020-07-13,23.179394299471397,23.32797978491432,22.585050468332756,23.278451919555664,1105468,0.0,0
2020-07-14,23.278450586462533,23.278450586462533,22.535521312426493,23.030807495117188,1133500,0.0,0
2020-07-15,23.080336796452244,23.080336796452244,21.891651017512817,22.585050582885742,1565600,0.0,0
2020-07-16,22.733636988821974,22.733636988821974,21.54494937121508,21.69353485107422,1323409,0.0,0
2020-07-17,21.792593002319336,22.089763969331464,21.49542203530721,21.792593002319336,982500,0.0,0
2020-07-20,22.089762809316742,22.535521125793455,21.891649471501296,22.287878036499023,1251851,0.0,0
2020-07-21,22.684107945443916,22.73363769985735,22.337407222017642,22.5355224609375,365262,0.0,0
2020-07-22,22.48599384745859,22.73363694318229,21.891650039848336,22.04023551940918,1162416,0.0,0
2020-07-23,22.33740747610249,22.585050582885742,21.44589266955618,22.585050582885742,900231,0.0,0
2020-07-24,22.139293670654293,22.585050120110264,21.792592950388368,22.139293670654297,735500,0.0,0
2020-07-27,22.08976288000286,22.386935721727216,21.5944766998291,21.5944766998291,361952,0.0,0
2020-07-28,21.59447828995751,22.188822127804418,21.495422558122172,21.891651153564453,721500,0.0,0
2020-07-29,21.891649782462725,21.990707397460938,21.644006689650627,21.990707397460938,428761,0.0,0
2020-07-30,21.990708387958314,22.684107945443916,21.990708387958314,22.5355224609375,1142518,0.0,0
2020-07-31,22.485994062931873,22.882222642013296,22.337406692580302,22.436464309692383,925512,0.0,0
2020-08-03,22.238351744882763,23.327979903235498,22.238351744882763,22.585050582885742,793344,0.0,0
2020-08-04,22.585050271608154,23.17939409756983,22.535522406680908,22.88222312927246,658330,0.0,0
2020-08-05,22.83269252293654,23.080335617065426,22.684107044332585,23.08033561706543,836183,0.0,0
2020-08-06,23.228922461718753,23.228922461718753,22.634578671325848,22.981279373168945,584679,0.0,0
2020-08-07,23.17939441703894,23.17939441703894,22.436465096689183,22.585050582885742,515585,0.0,0
2020-08-10,22.436463547532853,22.436463547532853,21.941177368164062,21.941177368164062,440500,0.0,0
2020-08-11,21.94117868802133,22.38693703201428,21.94117868802133,22.18882179260254,692476,0.0,0
2020-08-12,22.48599384745859,22.48599384745859,21.495421464563794,22.04023551940918,609500,0.0,0
2020-08-13,22.08976359448355,22.485994062931873,22.04023573061096,22.436464309692383,536112,0.0,0
2020-08-14,22.18882091395428,22.981279950853967,21.891649955971197,22.7336368560791,850189,0.0,0
2020-08-17,22.634578671325848,22.981279373168945,22.634578671325848,22.981279373168945,803351,0.0,0
2020-08-18,22.78316440377184,23.030807495117184,22.68410678936033,23.030807495117188,1087000,0.0,0
2020-08-19,22.48599465172015,22.585050382059077,22.139293927433076,22.18882179260254,366675,0.0,0
2020-08-20,22.28787941230841,22.28787941230841,21.891650822851872,22.18882179260254,492417,0.0,0
2020-08-21,22.287878295758986,22.585049250622365,22.089763066272166,22.337406158447266,476449,0.0,0
2020-08-24,22.436465096689183,22.78316582405913,22.238351744882763,22.585050582885742,856500,0.0,0
2020-08-25,22.783164762257858,22.783164762257858,22.238350708472353,22.38693618774414,855000,0.0,0
2020-08-26,22.634579497348373,22.83269284179804,22.485994016669398,22.783164978027344,771093,0.0,0
2020-08-27,22.783164180310468,22.931749655786952,22.485993229357497,22.634578704833984,503436,0.0,0
2020-08-28,22.63457885543172,23.872794308252196,22.535521241332713,23.72420883178711,3430844,0.0,0
2020-08-31,24.07090912826349,25.210068926448898,23.922323642655336,24.71478271484375,3127300,0.0,0
2020-09-01,25.160538038521192,25.160538038521192,24.56619423348889,24.863367080688477,1259000,0.0,0
2020-09-02,25.061481475830078,25.606297440571485,24.86336812540616,25.061481475830078,2691031,0.0,0
2020-09-03,25.3091243755941,25.457711748915482,24.269024098546044,24.665252685546875,2210541,0.0,0
2020-09-04,24.31855126310892,25.9529972076416,23.526094111927584,25.9529972076416,3525200,0.0,0
2020-09-07,26.00252586158411,26.20064110008581,25.45771178975484,26.10158348083496,1741667,0.0,0
2020-09-08,26.151110009598288,26.151110009598288,25.21006739821468,25.853939056396484,999068,0.0,0
2020-09-09,25.804410934448242,25.853940689354783,25.11101137005934,25.804410934448242,840879,0.0,0
2020-09-10,26.05205239540874,26.05205239540874,25.408180737226935,25.853939056396484,1327000,0.0,0
2020-09-11,25.358654224027234,25.853940431959924,25.16053898510738,25.7548828125,555000,0.0,0
2020-09-14,25.75488275814045,26.349226584278618,25.55676751963875,26.10158348083496,501886,0.0,0
2020-09-15,26.448284405797434,26.497812271118164,26.002526060443056,26.497812271118164,1757224,0.0,0
2020-09-16,26.497811326036384,27.38932609558105,26.29969609308562,27.389326095581055,1673853,0.0,0
2020-09-17,27.38932702751376,28.379899447238433,26.894040817651426,28.280841827392578,2608726,0.0,0
2020-09-18,28.429427638492992,28.429427638492992,27.04262481564604,27.6369686126709,2280859,0.0,0
2020-09-21,27.686498725767844,27.686498725767844,26.5968687319008,26.99309730529785,1257879,0.0,0
2020-09-22,27.042625538516543,27.042625538516543,26.250168380878296,26.349225997924805,949820,0.0,0
2020-09-23,26.200640158503745,27.29026826300392,26.200640158503745,26.99309730529785,1014699,0.0,0
2020-09-24,26.745453767961706,26.993096858405796,26.200639724731445,26.200639724731445,1300000,0.0,0
2020-09-25,26.10158342718799,26.596869633057338,26.10158342718799,26.448284149169922,1205500,0.0,0
2020-09-28,26.200641190591686,27.24074147290113,25.85394046669955,27.191213607788086,1133700,0.0,0
2020-09-29,27.24074044267648,27.339798058523222,26.49781115787621,26.64639663696289,650000,0.0,0
2020-09-30,26.44828349123475,26.745454451617075,25.210068007363592,25.25959587097168,1852500,0.0,0
2020-10-05,25.507239613777983,25.705354851961868,24.51666720159243,24.665252685546875,1784392,0.0,0
2020-10-06,25.011952382213664,26.250167846679688,24.962424519381766,26.250167846679688,1413561,0.0,0
2020-10-07,26.547339171774,26.547339171774,25.507238922897738,25.60629653930664,1197882,0.0,0
2020-10-08,25.655823828017386,25.853939056396484,24.912894555646034,25.853939056396484,1076455,0.0,0
2020-10-09,26.101582994901555,26.101582994901555,25.507239179828293,25.655824661254883,902256,0.0,0
2020-10-12,26.052053925763786,27.042626347114,26.002526060443056,26.497812271118164,4049902,0.0,0
2020-10-14,26.695926923976607,26.943570023867423,25.952997624304164,26.745454788208008,1629879,0.0,0
2020-10-15,26.299696829969722,26.844512791165936,26.052053726526065,26.10158348083496,1588054,0.0,0
2020-10-16,26.448282999018677,27.141682523461874,26.34922538427912,26.94356918334961,1162068,0.0,0
2020-10-19,27.240740725013275,27.636969303140088,26.695926666259766,26.695926666259766,698300,0.0,0
2020-10-20,26.943569484503122,26.943569484503122,26.200640199702853,26.64639663696289,829091,0.0,0
2020-10-21,26.94357050348899,27.389326957607203,26.54734002511687,27.191213607788086,1594493,0.0,0
2020-10-22,27.042625959901166,27.4883842988729,26.44828402709475,27.14168357849121,2479028,0.0,0
2020-10-23,27.29026800088778,27.29026800088778,26.79498181655685,26.94356918334961,597656,0.0,0
2020-10-27,26.745455319655086,27.240741529278328,26.596869834641502,26.844512939453125,1072923,0.0,0
2020-10-28,27.19121199520793,27.33979747110211,26.497810588545974,26.894039154052734,1558767,0.0,0
2020-10-29,26.745455045448487,26.84451266423094,26.250168840903143,26.79498291015625,1014514,0.0,0
2020-10-30,26.89403983849858,26.89403983849858,25.80440983859908,25.9529972076416,2015065,0.0,0
2020-11-02,25.70535477165004,26.894040528938703,25.70535477165004,26.79498291015625,1066233,0.0,0
2020-11-03,26.497811526343938,26.844512241945182,26.002525329589847,26.002525329589844,1457644,0.0,0
2020-11-04,25.606297525599643,26.59686994910936,25.606297525599643,26.151111602783203,704934,0.0,0
2020-11-05,26.299696136504533,27.042625427246094,26.151110656229598,27.042625427246094,1966500,0.0,0
2020-11-06,27.04262512701531,27.339797973632816,26.6463965542255,27.339797973632812,1200354,0.0,0
2020-11-09,26.943569072456384,27.0426247974214,25.3091231593978,25.507238388061523,3193806,0.0,0
2020-11-10,25.50723950554074,25.952997844879484,25.21006853889286,25.358654022216797,1911174,0.0,0
2020-11-11,25.259596128806283,25.75488232741033,25.259596128806283,25.309123992919922,1467616,0.0,0
2020-11-12,25.160538784873594,25.60629712421234,25.160538784873594,25.358654022216797,1184500,0.0,0
2020-11-13,25.259596604567307,26.10158353592627,25.061481365647452,25.7548828125,1588269,0.0,0
2020-11-16,25.903467870705853,26.844512406037715,25.853940006474453,26.745454788208008,1507672,0.0,0
2020-11-17,26.695927511134986,26.84451299646413,26.39875465110975,26.497812271118164,847141,0.0,0
2020-11-18,26.44828276123563,26.695925851174664,26.34922514738665,26.547338485717773,1375278,0.0,0
2020-11-19,26.4978110360076,28.03319746178653,26.4978110360076,27.686498641967773,3565000,0.0,0
2020-11-20,27.686500018387044,28.379899581863405,27.290269537124026,27.58744239807129,2384611,0.0,0
2020-11-23,27.58744234070553,28.231314037368612,27.58744234070553,27.93414306640625,1252697,0.0,0
2020-11-24,27.93414283066498,29.42000145167127,27.438856623662886,29.32094383239746,2431248,0.0,0
2020-11-25,29.320942461651054,30.460100306627155,28.875184140441476,29.420000076293945,3383600,0.0,0
2020-11-26,29.717171990423616,30.608686772262942,29.07330030850449,30.31151580810547,1201984,0.0,0
2020-11-27,29.76669911420503,30.955386719999765,29.717171251199776,29.81622886657715,2031022,0.0,0
2020-11-30,29.76669889349378,29.91528626014154,29.023769617722387,29.420000076293945,3577459,0.0,0
2020-12-01,29.049999237060547,29.600000381469727,28.899999618530273,29.100000381469727,978008,0.28,0
2020-12-02,29.100000381469727,29.100000381469727,28.350000381469727,28.649999618530273,997993,0.0,0
2020-12-03,28.950000762939453,30.299999237060547,28.700000762939453,29.850000381469727,1963357,0.0,0
2020-12-04,29.5,30.0,28.799999237060547,29.200000762939453,1019634,0.0,0
2020-12-07,29.700000762939453,29.799999237060547,28.5,29.049999237060547,684551,0.0,0
