Date,Open,High,Low,Close,Volume,Dividends,Stock Splits
2019-05-30,3.680000066757202,3.7799999713897705,3.2799999713897705,3.3499999046325684,280684303,0,0
2019-05-31,3.309999942779541,3.450000047683716,3.25,3.2899999618530273,22442000,0,0
2019-06-03,3.2899999618530273,3.380000114440918,3.180000066757202,3.299999952316284,33880000,0,0
2019-06-04,3.319999933242798,3.3499999046325684,3.0999999046325684,3.1600000858306885,27815000,0,0
2019-06-05,3.200000047683716,3.25,3.1700000762939453,3.2100000381469727,14346000,0,0
2019-06-06,3.2100000381469727,3.25,3.200000047683716,3.2300000190734863,6520000,0,0
2019-06-10,3.2300000190734863,3.3399999141693115,3.2200000286102295,3.240000009536743,5422000,0,0
2019-06-11,3.240000009536743,3.25,3.1700000762939453,3.190000057220459,5369000,0,0
2019-06-12,3.180000066757202,3.190000057220459,3.140000104904175,3.1600000858306885,5302000,0,0
2019-06-13,3.130000114440918,3.1600000858306885,3.130000114440918,3.130000114440918,2484000,0,0
2019-06-14,3.119999885559082,3.240000009536743,3.069999933242798,3.1500000953674316,17340002,0,0
2019-06-17,3.119999885559082,3.200000047683716,3.0799999237060547,3.0799999237060547,10628000,0,0
2019-06-18,3.0799999237060547,3.109999895095825,3.0299999713897705,3.049999952316284,4954000,0,0
2019-06-19,3.059999942779541,3.180000066757202,3.049999952316284,3.130000114440918,6391700,0,0
2019-06-20,3.1500000953674316,3.369999885559082,3.1500000953674316,3.2300000190734863,16508000,0,0
2019-06-21,3.2300000190734863,3.2699999809265137,3.0999999046325684,3.1500000953674316,21830596,0,0
2019-06-24,3.119999885559082,3.130000114440918,3.049999952316284,3.0999999046325684,2582000,0,0
2019-06-25,3.0799999237060547,3.109999895095825,2.890000104904175,2.9800000190734863,6086000,0,0
2019-06-26,2.930000066757202,3.1500000953674316,2.9000000953674316,3.109999895095825,2516000,0,0
2019-06-27,3.0999999046325684,3.1700000762939453,3.0799999237060547,3.1700000762939453,1346000,0,0
2019-06-28,3.1500000953674316,3.190000057220459,3.0899999141693115,3.119999885559082,836780,0,0
2019-07-02,3.130000114440918,3.1600000858306885,3.069999933242798,3.119999885559082,1594350,0,0
2019-07-03,3.0799999237060547,3.140000104904175,3.0799999237060547,3.109999895095825,2260000,0,0
2019-07-04,3.109999895095825,3.630000114440918,3.109999895095825,3.490000009536743,15068000,0,0
2019-07-05,3.509999990463257,3.640000104904175,3.440000057220459,3.509999990463257,6178000,0,0
2019-07-08,3.4100000858306885,3.549999952316284,3.4000000953674316,3.4600000381469727,3384000,0,0
2019-07-09,3.4100000858306885,3.440000057220459,3.319999933242798,3.390000104904175,1418500,0,0
2019-07-10,3.430000066757202,3.5,3.309999942779541,3.440000057220459,2073365,0,0
2019-07-11,3.450000047683716,3.5399999618530273,3.4200000762939453,3.440000057220459,1908000,0,0
2019-07-12,3.440000057220459,3.4600000381469727,3.3499999046325684,3.380000114440918,746000,0,0
2019-07-15,3.369999885559082,3.4700000286102295,3.3299999237060547,3.4000000953674316,3362000,0,0
2019-07-16,3.4800000190734863,3.4800000190734863,3.380000114440918,3.380000114440918,4420005,0,0
2019-07-17,3.3399999141693115,3.380000114440918,3.319999933242798,3.3499999046325684,710000,0,0
2019-07-18,3.3299999237060547,3.359999895095825,3.309999942779541,3.3399999141693115,370000,0,0
2019-07-19,3.3499999046325684,3.5,3.3299999237060547,3.430000066757202,4990000,0,0
2019-07-22,3.4000000953674316,3.4000000953674316,3.3299999237060547,3.3399999141693115,2030000,0,0
2019-07-23,3.390000104904175,3.450000047683716,3.3399999141693115,3.4200000762939453,844000,0,0
2019-07-24,3.4100000858306885,3.4600000381469727,3.390000104904175,3.440000057220459,442000,0,0
2019-07-25,3.390000104904175,3.450000047683716,3.3399999141693115,3.4000000953674316,1414000,0,0
2019-07-26,3.380000114440918,3.4000000953674316,3.3499999046325684,3.359999895095825,1422000,0,0
2019-07-29,3.369999885559082,3.369999885559082,3.25,3.25,1116000,0,0
2019-07-30,3.3299999237060547,3.3299999237060547,3.2699999809265137,3.2799999713897705,380000,0,0
2019-07-31,3.4600000381469727,3.549999952316284,3.3299999237060547,3.390000104904175,5620002,0,0
2019-08-01,3.390000104904175,3.4200000762939453,3.2300000190734863,3.25,5338000,0,0
2019-08-02,3.2200000286102295,3.2300000190734863,3.0299999713897705,3.2100000381469727,3758600,0,0
2019-08-05,3.190000057220459,3.190000057220459,3.0799999237060547,3.119999885559082,1140000,0,0
2019-08-06,3.0,3.200000047683716,3.0,3.140000104904175,2202000,0,0
2019-08-07,3.1700000762939453,3.2300000190734863,3.140000104904175,3.2200000286102295,575250,0,0
2019-08-08,3.1600000858306885,3.2300000190734863,3.1600000858306885,3.1600000858306885,1620000,0,0
2019-08-09,3.2300000190734863,3.240000009536743,3.109999895095825,3.109999895095825,1922000,0,0
2019-08-12,3.0799999237060547,3.2799999713897705,3.0799999237060547,3.190000057220459,1684000,0,0
2019-08-13,3.109999895095825,3.2300000190734863,3.109999895095825,3.2100000381469727,2178000,0,0
2019-08-14,3.2100000381469727,3.2699999809265137,3.180000066757202,3.200000047683716,1043140,0,0
2019-08-15,3.200000047683716,3.430000066757202,3.1600000858306885,3.4000000953674316,5782000,0,0
2019-08-16,3.4000000953674316,3.569999933242798,3.3399999141693115,3.4600000381469727,3748000,0,0
2019-08-19,3.5,3.690000057220459,3.430000066757202,3.6600000858306885,9661000,0,0
2019-08-20,3.680000066757202,3.859999895095825,3.5999999046325684,3.700000047683716,8510000,0,0
2019-08-21,3.7200000286102295,3.75,3.450000047683716,3.549999952316284,9270000,0,0
2019-08-22,3.5799999237060547,3.6600000858306885,3.5,3.5299999713897705,4996000,0,0
2019-08-23,3.5,3.549999952316284,3.450000047683716,3.509999990463257,6710000,0,0
2019-08-26,3.4000000953674316,3.5899999141693115,3.3499999046325684,3.509999990463257,4972100,0,0
2019-08-27,3.5199999809265137,3.5999999046325684,3.509999990463257,3.509999990463257,7212000,0,0
2019-08-28,3.509999990463257,3.740000009536743,3.509999990463257,3.6700000762939453,5207000,0,0
2019-08-29,3.6600000858306885,3.7300000190734863,3.619999885559082,3.680000066757202,2898800,0,0
2019-08-30,3.6700000762939453,3.7699999809265137,3.5899999141693115,3.609999895095825,3692200,0,0
2019-09-02,3.5999999046325684,3.609999895095825,3.490000009536743,3.5199999809265137,11513000,0,0
2019-09-03,3.509999990463257,3.5399999618530273,3.380000114440918,3.4200000762939453,4219000,0,0
2019-09-04,3.490000009536743,3.5999999046325684,3.4600000381469727,3.5299999713897705,4465000,0,0
2019-09-05,3.549999952316284,3.640000104904175,3.509999990463257,3.630000114440918,3935000,0,0
2019-09-06,3.630000114440918,4.170000076293945,3.630000114440918,4.090000152587891,27329000,0,0
2019-09-09,4.130000114440918,4.360000133514404,4.119999885559082,4.199999809265137,19956000,0,0
2019-09-10,4.199999809265137,4.679999828338623,4.179999828338623,4.230000019073486,28995750,0,0
2019-09-11,4.170000076293945,4.360000133514404,3.990000009536743,4.019999980926514,5314000,0,0
2019-09-12,4.010000228881836,4.300000190734863,4.010000228881836,4.179999828338623,7618000,0,0
2019-09-13,4.119999885559082,4.400000095367432,4.119999885559082,4.260000228881836,9846419,0,0
2019-09-16,4.269999980926514,4.329999923706055,4.090000152587891,4.130000114440918,9000000,0,0
2019-09-17,4.179999828338623,4.230000019073486,4.010000228881836,4.130000114440918,6020000,0,0
2019-09-18,4.130000114440918,4.420000076293945,4.110000133514404,4.329999923706055,12362000,0,0
2019-09-19,4.309999942779541,4.46999979019165,4.239999771118164,4.269999980926514,8036000,0,0
2019-09-20,4.300000190734863,4.349999904632568,4.099999904632568,4.179999828338623,9256000,0,0
2019-09-23,4.199999809265137,4.199999809265137,4.110000133514404,4.139999866485596,3778000,0,0
2019-09-24,4.159999847412109,4.71999979019165,4.139999866485596,4.610000133514404,13052000,0,0
2019-09-25,4.579999923706055,4.909999847412109,4.449999809265137,4.559999942779541,16301500,0,0
2019-09-26,4.550000190734863,4.900000095367432,4.480000019073486,4.820000171661377,11466000,0,0
2019-09-27,4.820000171661377,4.840000152587891,4.670000076293945,4.809999942779541,2687000,0,0
2019-09-30,4.809999942779541,4.829999923706055,4.690000057220459,4.75,1636600,0,0
2019-10-02,4.699999809265137,5.099999904632568,4.659999847412109,5.070000171661377,4085110,0,0
2019-10-03,5.03000020980835,5.110000133514404,4.940000057220459,5.010000228881836,4546000,0,0
2019-10-04,5.119999885559082,5.150000095367432,4.769999980926514,4.809999942779541,4870000,0,0
2019-10-08,4.829999923706055,4.989999771118164,4.550000190734863,4.690000057220459,14656000,0,0
2019-10-09,4.599999904632568,4.769999980926514,4.599999904632568,4.710000038146973,3670000,0,0
2019-10-10,4.71999979019165,5.300000190734863,4.699999809265137,5.110000133514404,10542300,0,0
2019-10-11,5.179999828338623,5.300000190734863,5.059999942779541,5.199999809265137,5454000,0,0
2019-10-14,5.199999809265137,5.389999866485596,5.110000133514404,5.199999809265137,2892000,0,0
2019-10-15,5.190000057220459,5.449999809265137,5.190000057220459,5.389999866485596,2694400,0,0
2019-10-16,5.429999828338623,5.639999866485596,5.300000190734863,5.440000057220459,3914000,0,0
2019-10-17,5.429999828338623,5.559999942779541,5.389999866485596,5.440000057220459,2418000,0,0
2019-10-18,5.440000057220459,5.590000152587891,5.360000133514404,5.360000133514404,4192000,0,0
2019-10-21,5.300000190734863,5.409999847412109,5.070000171661377,5.139999866485596,8800896,0,0
2019-10-22,5.110000133514404,5.239999771118164,5.079999923706055,5.159999847412109,2059000,0,0
2019-10-23,5.179999828338623,5.309999942779541,5.0,5.010000228881836,5308800,0,0
2019-10-24,5.03000020980835,5.25,4.909999847412109,5.199999809265137,4112000,0,0
2019-10-25,5.260000228881836,5.260000228881836,5.110000133514404,5.210000038146973,2025300,0,0
2019-10-28,5.309999942779541,5.599999904632568,5.239999771118164,5.590000152587891,6881300,0,0
2019-10-29,5.630000114440918,5.829999923706055,5.489999771118164,5.489999771118164,6158000,0,0
2019-10-30,5.510000228881836,5.599999904632568,5.380000114440918,5.449999809265137,4111000,0,0
2019-10-31,5.440000057220459,5.699999809265137,5.269999980926514,5.320000171661377,12330000,0,0
2019-11-01,5.320000171661377,5.429999828338623,5.21999979019165,5.300000190734863,4946000,0,0
2019-11-04,5.349999904632568,5.519999980926514,5.260000228881836,5.519999980926514,7559508,0,0
2019-11-05,5.579999923706055,5.630000114440918,5.059999942779541,5.130000114440918,14324000,0,0
2019-11-06,5.110000133514404,5.199999809265137,4.909999847412109,4.929999828338623,10006300,0,0
2019-11-07,4.909999847412109,5.199999809265137,4.909999847412109,5.199999809265137,4332000,0,0
2019-11-08,5.260000228881836,5.309999942779541,5.0,5.03000020980835,4180113,0,0
2019-11-11,4.929999828338623,5.059999942779541,4.75,4.78000020980835,6062543,0,0
2019-11-12,4.829999923706055,4.840000152587891,4.599999904632568,4.710000038146973,8514000,0,0
2019-11-13,4.610000133514404,4.800000190734863,4.5,4.599999904632568,6800000,0,0
2019-11-14,4.650000095367432,4.739999771118164,4.480000019073486,4.599999904632568,9626000,0,0
2019-11-15,4.650000095367432,4.96999979019165,4.570000171661377,4.820000171661377,13558000,0,0
2019-11-18,4.860000133514404,4.869999885559082,4.579999923706055,4.769999980926514,5614040,0,0
2019-11-19,4.71999979019165,5.150000095367432,4.710000038146973,5.019999980926514,9576096,0,0
2019-11-20,4.960000038146973,5.090000152587891,4.820000171661377,4.849999904632568,5746773,0,0
2019-11-21,4.78000020980835,4.829999923706055,4.630000114440918,4.639999866485596,4805017,0,0
2019-11-22,4.639999866485596,4.639999866485596,4.489999771118164,4.539999961853027,11362220,0,0
2019-11-25,4.550000190734863,4.690000057220459,4.460000038146973,4.480000019073486,5612000,0,0
2019-11-26,4.480000019073486,4.590000152587891,4.400000095367432,4.440000057220459,3795700,0,0
2019-11-27,4.440000057220459,4.570000171661377,4.349999904632568,4.550000190734863,10478000,0,0
2019-11-28,4.480000019073486,4.550000190734863,4.329999923706055,4.380000114440918,5364000,0,0
2019-11-29,4.309999942779541,4.340000152587891,4.070000171661377,4.139999866485596,11249800,0,0
2019-12-02,4.190000057220459,4.230000019073486,3.9700000286102295,4.130000114440918,12542190,0,0
2019-12-03,4.130000114440918,4.28000020980835,4.119999885559082,4.199999809265137,3932000,0,0
2019-12-04,4.170000076293945,4.289999961853027,4.130000114440918,4.199999809265137,1378000,0,0
2019-12-05,4.199999809265137,4.369999885559082,4.119999885559082,4.190000057220459,6932000,0,0
2019-12-06,4.179999828338623,4.21999979019165,4.099999904632568,4.159999847412109,6278000,0,0
2019-12-09,4.150000095367432,4.210000038146973,4.039999961853027,4.139999866485596,5212000,0,0
2019-12-10,4.170000076293945,4.260000228881836,4.070000171661377,4.139999866485596,7142000,0,0
2019-12-11,4.099999904632568,4.269999980926514,4.099999904632568,4.150000095367432,3990000,0,0
2019-12-12,4.179999828338623,4.25,4.119999885559082,4.190000057220459,3864000,0,0
2019-12-13,4.21999979019165,4.5,4.21999979019165,4.409999847412109,10494000,0,0
2019-12-16,4.480000019073486,4.639999866485596,4.349999904632568,4.409999847412109,8326000,0,0
2019-12-17,4.489999771118164,4.639999866485596,4.389999866485596,4.619999885559082,9818000,0,0
2019-12-18,4.619999885559082,4.650000095367432,4.400000095367432,4.449999809265137,5130200,0,0
2019-12-19,4.46999979019165,4.53000020980835,4.349999904632568,4.449999809265137,5234000,0,0
2019-12-20,4.449999809265137,4.460000038146973,4.230000019073486,4.28000020980835,4298000,0,0
2019-12-23,4.300000190734863,4.409999847412109,4.260000228881836,4.389999866485596,2590000,0,0
2019-12-24,4.389999866485596,4.539999961853027,4.389999866485596,4.5,1672000,0,0
2019-12-27,4.5,4.590000152587891,4.409999847412109,4.480000019073486,2463000,0,0
2019-12-30,4.400000095367432,4.46999979019165,4.340000152587891,4.389999866485596,2032000,0,0
2019-12-31,4.389999866485596,4.480000019073486,4.329999923706055,4.420000076293945,1271000,0,0
2020-01-02,4.400000095367432,4.400000095367432,4.070000171661377,4.239999771118164,11544000,0,0
2020-01-03,4.239999771118164,4.269999980926514,3.990000009536743,4.110000133514404,11894360,0,0
2020-01-06,4.110000133514404,4.110000133514404,3.9800000190734863,4.03000020980835,5746000,0,0
2020-01-07,4.0,4.21999979019165,3.8299999237060547,4.199999809265137,10234000,0,0
2020-01-08,4.059999942779541,4.159999847412109,4.010000228881836,4.110000133514404,3902632,0,0
2020-01-09,4.150000095367432,4.400000095367432,4.150000095367432,4.389999866485596,7022000,0,0
2020-01-10,4.320000171661377,4.539999961853027,4.25,4.349999904632568,6354000,0,0
2020-01-13,4.260000228881836,4.46999979019165,4.199999809265137,4.389999866485596,6228000,0,0
2020-01-14,4.400000095367432,4.510000228881836,4.360000133514404,4.449999809265137,9632000,0,0
2020-01-15,4.409999847412109,4.550000190734863,4.409999847412109,4.5,5995392,0,0
2020-01-16,4.429999828338623,4.849999904632568,4.409999847412109,4.820000171661377,10255360,0,0
2020-01-17,4.809999942779541,4.829999923706055,4.559999942779541,4.829999923706055,22463020,0,0
2020-01-20,4.769999980926514,4.800000190734863,4.610000133514404,4.659999847412109,6360000,0,0
2020-01-21,4.659999847412109,4.659999847412109,4.320000171661377,4.329999923706055,49327620,0,0
2020-01-22,4.300000190734863,4.449999809265137,4.25,4.389999866485596,6142000,0,0
2020-01-23,4.340000152587891,4.340000152587891,4.199999809265137,4.309999942779541,6300000,0,0
2020-01-24,4.269999980926514,4.300000190734863,4.170000076293945,4.28000020980835,1304000,0,0
2020-01-29,4.099999904632568,4.199999809265137,4.0,4.0,6855588,0,0
2020-01-30,4.039999961853027,4.039999961853027,3.7300000190734863,3.740000009536743,9438000,0,0
2020-01-31,3.799999952316284,3.9100000858306885,3.759999990463257,3.890000104904175,5818000,0,0
2020-02-03,3.9000000953674316,4.099999904632568,3.799999952316284,4.070000171661377,10366000,0,0
2020-02-04,4.170000076293945,4.340000152587891,4.130000114440918,4.289999961853027,8394840,0,0
2020-02-05,4.309999942779541,4.46999979019165,4.139999866485596,4.190000057220459,8478500,0,0
2020-02-06,4.170000076293945,4.380000114440918,4.119999885559082,4.25,7636000,0,0
2020-02-07,4.28000020980835,4.320000171661377,4.059999942779541,4.25,11814000,0,0
2020-02-10,4.21999979019165,4.420000076293945,4.190000057220459,4.369999885559082,9088000,0,0
2020-02-11,4.429999828338623,4.429999828338623,4.309999942779541,4.340000152587891,2844000,0,0
2020-02-12,4.349999904632568,4.420000076293945,4.329999923706055,4.389999866485596,9461300,0,0
2020-02-13,4.380000114440918,4.400000095367432,4.289999961853027,4.400000095367432,5206000,0,0
2020-02-14,4.420000076293945,4.590000152587891,4.389999866485596,4.570000171661377,16450000,0,0
2020-02-17,4.570000171661377,5.199999809265137,4.550000190734863,5.039999961853027,42242800,0,0
2020-02-18,5.010000228881836,5.340000152587891,4.949999809265137,5.309999942779541,23396620,0,0
2020-02-19,5.329999923706055,5.429999828338623,5.070000171661377,5.190000057220459,14094000,0,0
2020-02-20,5.090000152587891,5.28000020980835,5.019999980926514,5.110000133514404,4197400,0,0
2020-02-21,5.03000020980835,5.190000057220459,5.0,5.099999904632568,4242000,0,0
2020-02-24,5.110000133514404,5.340000152587891,5.0,5.199999809265137,9358000,0,0
2020-02-25,5.119999885559082,5.369999885559082,5.050000190734863,5.119999885559082,8284000,0,0
2020-02-26,5.019999980926514,5.139999866485596,5.0,5.050000190734863,4388680,0,0
2020-02-27,5.019999980926514,5.130000114440918,4.650000095367432,4.989999771118164,25522000,0,0
2020-02-28,4.900000095367432,5.0,4.699999809265137,4.789999961853027,7600000,0,0
2020-03-02,4.789999961853027,4.920000076293945,4.679999828338623,4.869999885559082,5024000,0,0
2020-03-03,4.900000095367432,5.139999866485596,4.889999866485596,4.949999809265137,4286000,0,0
2020-03-04,4.940000057220459,5.0,4.800000190734863,4.809999942779541,3620000,0,0
2020-03-05,4.900000095367432,5.119999885559082,4.860000133514404,4.96999979019165,8272600,0,0
2020-03-06,4.949999809265137,5.099999904632568,4.900000095367432,4.989999771118164,3400000,0,0
2020-03-09,4.800000190734863,4.869999885559082,4.550000190734863,4.579999923706055,9192000,0,0
2020-03-10,4.579999923706055,4.699999809265137,4.360000133514404,4.449999809265137,9677513,0,0
2020-03-11,4.510000228881836,4.599999904632568,4.360000133514404,4.489999771118164,6895000,0,0
2020-03-12,4.400000095367432,4.480000019073486,4.0,4.119999885559082,17464000,0,0
2020-03-13,3.880000114440918,4.130000114440918,3.700000047683716,4.059999942779541,18164000,0,0
2020-03-16,3.9600000381469727,4.070000171661377,3.549999952316284,3.619999885559082,13527800,0,0
2020-03-17,3.5899999141693115,3.6700000762939453,3.359999895095825,3.4600000381469727,16439800,0,0
2020-03-18,3.490000009536743,3.819999933242798,3.3499999046325684,3.390000104904175,19659200,0,0
2020-03-19,3.5,3.5199999809265137,3.1600000858306885,3.440000057220459,14559140,0,0
2020-03-20,3.549999952316284,3.700000047683716,3.430000066757202,3.700000047683716,25224000,0,0
2020-03-23,3.490000009536743,3.75,3.4600000381469727,3.509999990463257,7965423,0,0
2020-03-24,3.5999999046325684,3.819999933242798,3.3499999046325684,3.450000047683716,16494600,0,0
2020-03-25,3.5899999141693115,3.640000104904175,3.440000057220459,3.559999942779541,14080000,0,0
2020-03-26,3.5399999618530273,3.700000047683716,3.4600000381469727,3.619999885559082,10956000,0,0
2020-03-27,3.7200000286102295,3.799999952316284,3.5999999046325684,3.619999885559082,9094000,0,0
2020-03-30,3.569999933242798,3.5999999046325684,3.3399999141693115,3.3499999046325684,7858000,0,0
2020-03-31,3.240000009536743,3.3499999046325684,3.0399999618530273,3.140000104904175,28329200,0,0
2020-04-01,3.130000114440918,3.259999990463257,3.0299999713897705,3.049999952316284,11370000,0,0
2020-04-02,3.049999952316284,3.25,3.0,3.2300000190734863,6011000,0,0
2020-04-03,3.319999933242798,3.3299999237060547,3.1700000762939453,3.2300000190734863,5578976,0,0
2020-04-06,3.2300000190734863,3.3499999046325684,3.140000104904175,3.3299999237060547,4984712,0,0
2020-04-07,3.4000000953674316,3.6500000953674316,3.359999895095825,3.549999952316284,19434800,0,0
2020-04-08,3.490000009536743,3.5199999809265137,3.4200000762939453,3.4200000762939453,5447679,0,0
2020-04-09,3.490000009536743,3.75,3.4600000381469727,3.7100000381469727,12434000,0,0
2020-04-14,3.6500000953674316,3.859999895095825,3.6500000953674316,3.7699999809265137,13688990,0,0
2020-04-15,3.7899999618530273,3.890000104904175,3.6700000762939453,3.7200000286102295,11800200,0,0
2020-04-16,3.7100000381469727,3.819999933242798,3.6600000858306885,3.7200000286102295,8848000,0,0
2020-04-17,3.799999952316284,4.070000171661377,3.799999952316284,3.990000009536743,19161000,0,0
2020-04-20,4.0,4.110000133514404,3.880000114440918,3.9600000381469727,12034000,0,0
2020-04-21,3.9700000286102295,3.9700000286102295,3.5899999141693115,3.759999990463257,15474200,0,0
2020-04-22,3.700000047683716,3.7699999809265137,3.6600000858306885,3.7100000381469727,7141000,0,0
2020-04-23,3.75,3.819999933242798,3.6700000762939453,3.690000057220459,5118000,0,0
2020-04-24,3.700000047683716,3.7300000190734863,3.5199999809265137,3.549999952316284,6312000,0,0
2020-04-27,3.640000104904175,3.680000066757202,3.5399999618530273,3.6500000953674316,3824000,0,0
2020-04-28,3.7100000381469727,3.7100000381469727,3.549999952316284,3.619999885559082,2068000,0,0
2020-04-29,3.6500000953674316,3.6600000858306885,3.5199999809265137,3.549999952316284,2022000,0,0
2020-05-04,3.5,3.5,3.3399999141693115,3.3499999046325684,4694000,0,0
2020-05-05,3.390000104904175,3.6600000858306885,3.3299999237060547,3.640000104904175,5286000,0,0
2020-05-06,3.640000104904175,3.9000000953674316,3.559999942779541,3.890000104904175,15809000,0,0
2020-05-07,3.880000114440918,3.930000066757202,3.859999895095825,3.9200000762939453,9678000,0,0
2020-05-08,3.9100000858306885,3.9600000381469727,3.8499999046325684,3.859999895095825,9617000,0,0
2020-05-11,3.9000000953674316,4.079999923706055,3.9000000953674316,4.010000228881836,10638000,0,0
2020-05-12,3.9100000858306885,4.199999809265137,3.880000114440918,4.150000095367432,15469000,0,0
2020-05-13,4.070000171661377,4.510000228881836,4.019999980926514,4.380000114440918,17982000,0,0
2020-05-14,4.360000133514404,4.449999809265137,4.150000095367432,4.349999904632568,12721700,0,0
2020-05-15,4.340000152587891,4.599999904632568,4.340000152587891,4.460000038146973,11020000,0,0
2020-05-18,4.460000038146973,4.610000133514404,4.409999847412109,4.579999923706055,8220000,0,0
2020-05-19,4.619999885559082,4.630000114440918,4.329999923706055,4.400000095367432,11314000,0,0
2020-05-20,4.409999847412109,4.409999847412109,4.21999979019165,4.28000020980835,12352000,0,0
2020-05-21,4.329999923706055,4.329999923706055,4.059999942779541,4.079999923706055,23588000,0,0
2020-05-22,4.019999980926514,4.179999828338623,3.819999933242798,3.9800000190734863,19866000,0,0
2020-05-25,3.9800000190734863,4.199999809265137,3.819999933242798,4.130000114440918,11396000,0,0
2020-05-26,4.179999828338623,4.239999771118164,4.059999942779541,4.170000076293945,7182000,0,0
2020-05-27,4.170000076293945,4.199999809265137,3.9800000190734863,3.9800000190734863,5832000,0,0
2020-05-28,3.950000047683716,4.019999980926514,3.819999933242798,4.0,9844000,0,0
2020-05-29,3.9600000381469727,4.159999847412109,3.9600000381469727,4.079999923706055,5160000,0,0
2020-06-01,4.190000057220459,4.369999885559082,4.119999885559082,4.320000171661377,7486000,0,0
2020-06-02,4.389999866485596,4.389999866485596,4.179999828338623,4.300000190734863,5730128,0,0
2020-06-03,4.300000190734863,4.320000171661377,4.159999847412109,4.289999961853027,5006000,0,0
2020-06-04,4.289999961853027,4.46999979019165,4.179999828338623,4.25,7348000,0,0
2020-06-05,4.210000038146973,4.289999961853027,4.179999828338623,4.199999809265137,2912374,0,0
2020-06-08,4.199999809265137,4.25,4.079999923706055,4.190000057220459,5764000,0,0
2020-06-09,4.21999979019165,4.340000152587891,4.130000114440918,4.130000114440918,5922000,0,0
2020-06-10,4.170000076293945,4.5,4.150000095367432,4.5,8991800,0,0
2020-06-11,4.489999771118164,4.730000019073486,4.389999866485596,4.440000057220459,10585000,0,0
2020-06-12,4.349999904632568,4.429999828338623,4.239999771118164,4.28000020980835,8488440,0,0
2020-06-15,4.260000228881836,4.360000133514404,4.139999866485596,4.179999828338623,5434000,0,0
2020-06-16,4.300000190734863,4.46999979019165,4.260000228881836,4.429999828338623,8040000,0,0
2020-06-17,4.429999828338623,4.690000057220459,4.380000114440918,4.639999866485596,11010000,0,0
2020-06-18,4.599999904632568,4.730000019073486,4.510000228881836,4.570000171661377,7174000,0,0
2020-06-19,4.599999904632568,4.659999847412109,4.53000020980835,4.550000190734863,5990000,0,0
2020-06-22,4.570000171661377,4.690000057220459,4.489999771118164,4.510000228881836,12352000,0,0
2020-06-23,4.539999961853027,4.539999961853027,4.340000152587891,4.489999771118164,3786000,0,0
2020-06-24,4.539999961853027,4.769999980926514,4.460000038146973,4.619999885559082,7603000,0,0
2020-06-26,4.619999885559082,5.039999961853027,4.610000133514404,4.980000019073486,15158800,0,0
2020-06-29,4.929999828338623,4.949999809265137,4.730000019073486,4.789999961853027,15057200,0,0
2020-06-30,4.869999885559082,4.949999809265137,4.559999942779541,4.800000190734863,19082000,0,0
2020-07-02,4.820000171661377,5.050000190734863,4.639999866485596,4.949999809265137,17054000,0,0
2020-07-03,5.159999847412109,5.389999866485596,5.019999980926514,5.190000057220459,18694050,0,0
2020-07-06,5.260000228881836,5.380000114440918,4.940000057220459,5.0,22766000,0,0
2020-07-07,5.0,5.119999885559082,4.909999847412109,5.019999980926514,11022280,0,0
2020-07-08,5.03000020980835,5.260000228881836,4.960000038146973,5.079999923706055,13578000,0,0
2020-07-09,5.099999904632568,5.179999828338623,4.980000019073486,5.019999980926514,13718000,0,0
2020-07-10,5.079999923706055,5.289999961853027,4.960000038146973,5.070000171661377,14976000,0,0
2020-07-13,5.099999904632568,5.329999923706055,4.989999771118164,5.139999866485596,13312650,0,0
2020-07-14,5.21999979019165,5.21999979019165,4.789999961853027,4.880000114440918,15762000,0,0
2020-07-15,4.900000095367432,5.019999980926514,4.710000038146973,4.710000038146973,12718000,0,0
2020-07-16,4.840000152587891,4.840000152587891,4.420000076293945,4.5,12148000,0,0
2020-07-17,4.550000190734863,4.699999809265137,4.489999771118164,4.570000171661377,8554000,0,0
2020-07-20,4.599999904632568,4.75,4.570000171661377,4.710000038146973,6156000,0,0
2020-07-21,4.800000190734863,4.980000019073486,4.800000190734863,4.900000095367432,9161000,0,0
2020-07-22,5.0,5.0,4.590000152587891,4.599999904632568,6922000,0,0
2020-07-23,4.690000057220459,4.900000095367432,4.639999866485596,4.889999866485596,9856000,0,0
2020-07-24,4.809999942779541,4.849999904632568,4.28000020980835,4.329999923706055,15599640,0,0
2020-07-27,4.329999923706055,4.389999866485596,4.03000020980835,4.150000095367432,16056000,0,0
2020-07-28,4.170000076293945,4.210000038146973,4.010000228881836,4.050000190734863,16696000,0,0
2020-07-29,4.059999942779541,4.21999979019165,3.950000047683716,4.130000114440918,14590000,0,0
2020-07-30,4.170000076293945,4.199999809265137,4.050000190734863,4.150000095367432,5680000,0,0
2020-07-31,4.199999809265137,4.199999809265137,4.050000190734863,4.099999904632568,6970000,0,0
2020-08-03,4.099999904632568,4.159999847412109,4.070000171661377,4.130000114440918,3834000,0,0
2020-08-04,4.199999809265137,4.21999979019165,4.070000171661377,4.119999885559082,5076000,0,0
2020-08-05,4.139999866485596,4.179999828338623,4.079999923706055,4.179999828338623,3606000,0,0
2020-08-06,4.260000228881836,4.260000228881836,4.050000190734863,4.099999904632568,5577000,0,0
2020-08-07,4.150000095367432,4.150000095367432,3.880000114440918,3.9200000762939453,9530000,0,0
2020-08-10,3.9200000762939453,3.950000047683716,3.6600000858306885,3.6600000858306885,14780000,0,0
2020-08-11,3.740000009536743,3.950000047683716,3.700000047683716,3.880000114440918,9954000,0,0
2020-08-12,3.9000000953674316,3.9000000953674316,3.680000066757202,3.7799999713897705,6102650,0,0
2020-08-13,3.8499999046325684,3.8499999046325684,3.700000047683716,3.759999990463257,7148000,0,0
2020-08-14,3.759999990463257,3.8399999141693115,3.690000057220459,3.700000047683716,4766000,0,0
2020-08-17,3.75,3.799999952316284,3.690000057220459,3.75,4396000,0,0
2020-08-18,3.759999990463257,3.8499999046325684,3.7300000190734863,3.75,4192000,0,0
2020-08-19,3.759999990463257,3.7899999618530273,3.690000057220459,3.7100000381469727,2090000,0,0
2020-08-20,3.7100000381469727,3.819999933242798,3.6700000762939453,3.799999952316284,4368000,0,0
2020-08-21,3.7699999809265137,4.099999904632568,3.7699999809265137,4.0,12024000,0,0
2020-08-24,4.050000190734863,4.050000190734863,3.859999895095825,3.9700000286102295,6264000,0,0
2020-08-25,4.010000228881836,4.039999961853027,3.950000047683716,3.990000009536743,5192000,0,0
2020-08-26,3.990000009536743,4.079999923706055,3.9600000381469727,3.990000009536743,3516000,0,0
2020-08-27,3.9800000190734863,4.010000228881836,3.859999895095825,3.990000009536743,2574000,0,0
2020-08-28,3.930000066757202,4.079999923706055,3.9200000762939453,4.050000190734863,2696000,0,0
2020-08-31,3.6500000953674316,4.099999904632568,3.5999999046325684,3.990000009536743,11108000,0,0
2020-09-01,3.950000047683716,4.090000152587891,3.859999895095825,4.050000190734863,4242000,0,0
2020-09-02,4.0,4.070000171661377,3.930000066757202,4.050000190734863,4260000,0,0
2020-09-03,4.179999828338623,4.179999828338623,4.010000228881836,4.079999923706055,3030000,0,0
2020-09-04,4.0,4.099999904632568,3.940000057220459,4.019999980926514,5530000,0,0
2020-09-07,4.019999980926514,4.019999980926514,3.690000057220459,3.700000047683716,7580000,0,0
2020-09-08,3.7899999618530273,3.799999952316284,3.509999990463257,3.609999895095825,6202000,0,0
2020-09-09,3.5899999141693115,3.609999895095825,3.549999952316284,3.5799999237060547,2664000,0,0
2020-09-10,3.5899999141693115,3.619999885559082,3.450000047683716,3.490000009536743,5758000,0,0
2020-09-11,3.5,3.6600000858306885,3.5,3.5999999046325684,4315110,0,0
2020-09-14,3.5999999046325684,3.75,3.5999999046325684,3.680000066757202,2336356,0,0
2020-09-15,3.6500000953674316,3.7899999618530273,3.6500000953674316,3.75,2614000,0,0
2020-09-16,3.7200000286102295,3.8499999046325684,3.700000047683716,3.7699999809265137,2149246,0,0
2020-09-17,3.75,3.819999933242798,3.7100000381469727,3.7300000190734863,2342000,0,0
2020-09-18,3.7100000381469727,3.8499999046325684,3.7100000381469727,3.799999952316284,1507000,0,0
2020-09-21,3.8299999237060547,3.859999895095825,3.7100000381469727,3.7300000190734863,1808000,0,0
2020-09-22,3.759999990463257,3.809999942779541,3.5999999046325684,3.630000114440918,2552000,0,0
2020-09-23,3.5999999046325684,3.7799999713897705,3.5999999046325684,3.759999990463257,1518000,0,0
2020-09-24,3.6500000953674316,3.75,3.5799999237060547,3.609999895095825,2018000,0,0
2020-09-25,3.5999999046325684,3.6600000858306885,3.490000009536743,3.509999990463257,1888000,0,0
2020-09-28,3.5999999046325684,3.630000114440918,3.5,3.509999990463257,676000,0,0
2020-09-29,3.5999999046325684,3.5999999046325684,3.4800000190734863,3.5199999809265137,548000,0,0
2020-09-30,3.5399999618530273,3.569999933242798,3.440000057220459,3.4600000381469727,754000,0,0
2020-10-05,3.549999952316284,3.6500000953674316,3.5399999618530273,3.6500000953674316,576000,0,0
2020-10-06,3.7100000381469727,3.940000057220459,3.700000047683716,3.7799999713897705,2644000,0,0
2020-10-07,3.7799999713897705,3.880000114440918,3.7699999809265137,3.799999952316284,546000,0,0
2020-10-08,3.8499999046325684,3.9800000190734863,3.799999952316284,3.799999952316284,1506000,0,0
2020-10-09,3.8499999046325684,3.8499999046325684,3.75,3.7899999618530273,1868000,0,0
2020-10-12,3.8499999046325684,3.9200000762939453,3.809999942779541,3.8299999237060547,1502000,0,0
2020-10-14,3.859999895095825,3.9200000762939453,3.8299999237060547,3.890000104904175,2428000,0,0
2020-10-15,3.890000104904175,3.890000104904175,3.75,3.8299999237060547,2634976,0,0
2020-10-16,3.869999885559082,3.869999885559082,3.7200000286102295,3.7699999809265137,1190000,0,0
2020-10-19,3.799999952316284,3.799999952316284,3.6500000953674316,3.7100000381469727,2002000,0,0
2020-10-20,3.690000057220459,3.7899999618530273,3.609999895095825,3.7799999713897705,696000,0,0
2020-10-21,3.819999933242798,3.8499999046325684,3.630000114440918,3.690000057220459,2443900,0,0
2020-10-22,3.7100000381469727,3.7100000381469727,3.549999952316284,3.5799999237060547,4746000,0,0
2020-10-23,3.5899999141693115,3.640000104904175,3.5,3.569999933242798,1324000,0,0
2020-10-27,3.569999933242798,3.5999999046325684,3.4700000286102295,3.5299999713897705,1986000,0,0
2020-10-28,3.5399999618530273,3.559999942779541,3.4600000381469727,3.509999990463257,4412000,0,0
2020-10-29,3.430000066757202,3.490000009536743,3.390000104904175,3.450000047683716,2786000,0,0
2020-10-30,3.450000047683716,3.4600000381469727,3.359999895095825,3.4000000953674316,2732000,0,0
2020-11-02,3.4000000953674316,3.490000009536743,3.319999933242798,3.4100000858306885,2214000,0,0
2020-11-03,3.4100000858306885,3.4800000190734863,3.3499999046325684,3.4000000953674316,3448000,0,0
2020-11-04,3.4000000953674316,3.6700000762939453,3.319999933242798,3.630000114440918,4432000,0,0
2020-11-05,3.690000057220459,3.9000000953674316,3.690000057220459,3.809999942779541,4102000,0,0
2020-11-06,3.75,3.859999895095825,3.75,3.8299999237060547,1228000,0,0
2020-11-09,3.8299999237060547,4.199999809265137,3.8299999237060547,3.9800000190734863,6923000,0,0
2020-11-10,4.130000114440918,4.260000228881836,4.099999904632568,4.230000019073486,8346000,0,0
2020-11-11,4.230000019073486,4.28000020980835,4.079999923706055,4.079999923706055,4678000,0,0
2020-11-12,4.199999809265137,4.230000019073486,3.9800000190734863,4.099999904632568,2900000,0,0
2020-11-13,4.059999942779541,4.059999942779541,3.9100000858306885,3.9700000286102295,1764000,0,0
2020-11-16,3.9800000190734863,4.090000152587891,3.9600000381469727,4.059999942779541,2571400,0,0
2020-11-17,4.039999961853027,4.179999828338623,3.8399999141693115,3.8399999141693115,2850000,0,0
2020-11-18,3.869999885559082,3.9200000762939453,3.799999952316284,3.880000114440918,1322000,0,0
2020-11-19,3.890000104904175,3.9600000381469727,3.799999952316284,3.8499999046325684,3314000,0,0
2020-11-20,3.7100000381469727,4.099999904632568,3.7100000381469727,3.930000066757202,5168000,0,0
2020-11-23,3.940000057220459,3.940000057220459,3.7300000190734863,3.75,4428000,0,0
2020-11-24,3.799999952316284,3.799999952316284,3.5999999046325684,3.6600000858306885,3836000,0,0
2020-11-25,3.8299999237060547,3.8299999237060547,3.509999990463257,3.5299999713897705,2608000,0,0
2020-11-26,3.6500000953674316,3.6500000953674316,3.549999952316284,3.640000104904175,610000,0,0
2020-11-27,3.640000104904175,3.799999952316284,3.559999942779541,3.799999952316284,2340600,0,0
2020-11-30,3.799999952316284,3.799999952316284,3.640000104904175,3.680000066757202,1646000,0,0
2020-12-01,3.7300000190734863,3.7799999713897705,3.609999895095825,3.619999885559082,2940000,0,0
2020-12-02,3.619999885559082,3.6500000953674316,3.5799999237060547,3.5999999046325684,1090000,0,0
2020-12-03,3.680000066757202,3.8499999046325684,3.640000104904175,3.7799999713897705,2986000,0,0
2020-12-04,3.799999952316284,3.8399999141693115,3.759999990463257,3.819999933242798,954000,0,0
2020-12-07,3.8399999141693115,3.8399999141693115,3.75,3.809999942779541,808000,0,0
