Date,Open,High,Low,Close,Volume,Dividends,Stock Splits
2020-01-02,10.100000381469727,10.300000190734863,10.020000457763672,10.140000343322754,6884000,0,0
2020-01-03,10.140000343322754,10.380000114440918,10.0600004196167,10.100000381469727,6283991,0,0
2020-01-06,10.079999923706055,10.100000381469727,9.75,9.800000190734863,9818795,0,0
2020-01-07,9.899999618530273,10.260000228881836,9.899999618530273,10.220000267028809,6518004,0,0
2020-01-08,10.100000381469727,11.140000343322754,10.079999923706055,11.020000457763672,27032670,0,0
2020-01-09,11.5,12.140000343322754,11.460000038146973,12.020000457763672,28484650,0,0
2020-01-10,11.800000190734863,11.960000038146973,11.239999771118164,11.279999732971191,16678000,0,0
2020-01-13,11.279999732971191,11.600000381469727,11.180000305175781,11.399999618530273,9144316,0,0
2020-01-14,11.479999542236328,11.579999923706055,11.119999885559082,11.220000267028809,9125600,0,0
2020-01-15,11.140000343322754,11.380000114440918,10.920000076293945,11.079999923706055,8673125,0,0
2020-01-16,11.0600004196167,11.359999656677246,10.9399995803833,11.34000015258789,7341123,0,0
2020-01-17,11.460000038146973,11.539999961853027,10.859999656677246,11.239999771118164,11856810,0,0
2020-01-20,11.279999732971191,11.319999694824219,11.0,11.180000305175781,7460061,0,0
2020-01-21,11.300000190734863,11.300000190734863,10.9399995803833,11.100000381469727,8731284,0,0
2020-01-22,11.220000267028809,11.5600004196167,10.960000038146973,11.399999618530273,9449608,0,0
2020-01-23,11.5,11.680000305175781,10.579999923706055,10.84000015258789,12210650,0,0
2020-01-24,11.180000305175781,11.180000305175781,10.760000228881836,11.0,1579127,0,0
2020-01-29,10.640000343322754,10.899999618530273,10.420000076293945,10.520000457763672,6823211,0,0
2020-01-30,10.460000038146973,10.739999771118164,10.0,10.15999984741211,10434900,0,0
2020-01-31,10.15999984741211,10.359999656677246,9.920000076293945,9.979999542236328,8521000,0,0
2020-02-03,9.90999984741211,10.539999961853027,9.90999984741211,10.199999809265137,13873610,0,0
2020-02-04,10.479999542236328,10.5600004196167,10.239999771118164,10.5,9110841,0,0
2020-02-05,10.520000457763672,10.960000038146973,10.520000457763672,10.619999885559082,6146808,0,0
2020-02-06,10.779999732971191,10.899999618530273,10.600000381469727,10.859999656677246,8701000,0,0
2020-02-07,10.779999732971191,10.979999542236328,10.619999885559082,10.680000305175781,3255376,0,0
2020-02-10,10.579999923706055,10.960000038146973,10.5600004196167,10.899999618530273,4263733,0,0
2020-02-11,10.9399995803833,11.119999885559082,10.819999694824219,10.880000114440918,4470000,0,0
2020-02-12,11.0,11.0,10.65999984741211,10.779999732971191,4235218,0,0
2020-02-13,10.739999771118164,10.859999656677246,10.5,10.760000228881836,4573818,0,0
2020-02-14,10.739999771118164,10.899999618530273,10.600000381469727,10.760000228881836,3667173,0,0
2020-02-17,10.760000228881836,11.0,10.760000228881836,10.9399995803833,2159000,0,0
2020-02-18,11.0,11.0,10.699999809265137,10.760000228881836,1950100,0,0
2020-02-19,10.760000228881836,10.819999694824219,10.539999961853027,10.600000381469727,4291000,0,0
2020-02-20,10.5600004196167,10.680000305175781,10.4399995803833,10.5600004196167,5620982,0,0
2020-02-21,10.5,10.5600004196167,10.180000305175781,10.239999771118164,4194095,0,0
2020-02-24,10.119999885559082,10.260000228881836,9.979999542236328,10.020000457763672,5347407,0,0
2020-02-25,9.899999618530273,10.0600004196167,9.800000190734863,9.949999809265137,6200800,0,0
2020-02-26,9.850000381469727,9.949999809265137,9.829999923706055,9.84000015258789,4147536,0,0
2020-02-27,9.800000190734863,9.829999923706055,8.0,8.420000076293945,57948140,0,0
2020-02-28,8.0,8.289999961853027,7.840000152587891,8.079999923706055,83216710,0,0
2020-03-02,7.989999771118164,8.569999694824219,7.630000114440918,8.399999618530273,38622080,0,0
2020-03-03,8.649999618530273,8.869999885559082,8.520000457763672,8.579999923706055,29013460,0,0
2020-03-04,8.680000305175781,8.680000305175781,8.350000381469727,8.390000343322754,8966466,0,0
2020-03-05,8.600000381469727,8.770000457763672,8.569999694824219,8.739999771118164,19951490,0,0
2020-03-06,9.0,9.020000457763672,8.720000267028809,8.819999694824219,12870980,0,0
2020-03-09,8.470000267028809,8.65999984741211,8.220000267028809,8.489999771118164,13969980,0,0
2020-03-10,8.430000305175781,8.550000190734863,8.239999771118164,8.319999694824219,19025850,0,0
2020-03-11,8.430000305175781,8.75,8.34000015258789,8.359999656677246,8354676,0,0
2020-03-12,8.300000190734863,8.359999656677246,7.940000057220459,7.96999979019165,23625320,0,0
2020-03-13,7.5,7.940000057220459,7.300000190734863,7.800000190734863,16158460,0,0
2020-03-16,7.619999885559082,7.820000171661377,7.179999828338623,7.25,11113070,0,0
2020-03-17,7.059999942779541,7.409999847412109,7.03000020980835,7.329999923706055,14440800,0,0
2020-03-18,7.369999885559082,7.539999961853027,6.809999942779541,7.010000228881836,16883020,0,0
2020-03-19,7.360000133514404,7.550000190734863,6.659999847412109,6.940000057220459,19232890,0,0
2020-03-20,7.28000020980835,7.28000020980835,6.900000095367432,7.150000095367432,21470820,0,0
2020-03-23,6.900000095367432,7.039999961853027,6.78000020980835,6.809999942779541,9737782,0,0
2020-03-24,6.809999942779541,7.099999904632568,6.800000190734863,6.849999904632568,8492365,0,0
2020-03-25,7.050000190734863,8.430000305175781,7.050000190734863,8.279999732971191,30083450,0,0
2020-03-26,8.779999732971191,9.479999542236328,8.550000190734863,8.699999809265137,53240730,0,0
2020-03-27,8.899999618530273,9.0,8.270000457763672,8.369999885559082,22216820,0,0
2020-03-30,8.470000267028809,8.779999732971191,8.100000381469727,8.229999542236328,13956970,0,0
2020-03-31,8.229999542236328,8.5,8.010000228881836,8.069999694824219,16139580,0,0
2020-04-01,8.079999923706055,8.390000343322754,8.0,8.069999694824219,20315730,0,0
2020-04-02,8.010000228881836,8.210000038146973,7.75,8.1899995803833,8640591,0,0
2020-04-03,8.050000190734863,8.180000305175781,7.849999904632568,8.050000190734863,6278981,0,0
2020-04-06,8.050000190734863,8.279999732971191,7.880000114440918,8.279999732971191,4190402,0,0
2020-04-07,8.300000190734863,8.65999984741211,8.300000190734863,8.600000381469727,13880290,0,0
2020-04-08,8.5,8.640000343322754,8.350000381469727,8.529999732971191,7484716,0,0
2020-04-09,8.600000381469727,8.850000381469727,8.579999923706055,8.640000343322754,9402800,0,0
2020-04-14,8.800000190734863,8.869999885559082,8.4399995803833,8.5,10383900,0,0
2020-04-15,8.520000457763672,8.640000343322754,8.180000305175781,8.239999771118164,12931000,0,0
2020-04-16,8.390000343322754,8.859999656677246,8.319999694824219,8.779999732971191,18196000,0,0
2020-04-17,8.899999618530273,8.960000038146973,8.670000076293945,8.710000038146973,9839304,0,0
2020-04-20,8.779999732971191,9.0,8.75,8.859999656677246,7983568,0,0
2020-04-21,8.920000076293945,8.930000305175781,8.3100004196167,8.5,9684143,0,0
2020-04-22,8.279999732971191,8.4399995803833,8.180000305175781,8.270000457763672,15118790,0,0
2020-04-23,8.34000015258789,8.529999732971191,8.25,8.300000190734863,10169570,0,0
2020-04-24,8.260000228881836,8.359999656677246,8.079999923706055,8.109999656677246,7876558,0,0
2020-04-27,8.15999984741211,8.289999961853027,8.039999961853027,8.15999984741211,12146590,0,0
2020-04-28,8.149999618530273,8.180000305175781,7.849999904632568,7.900000095367432,14244210,0,0
2020-04-29,8.100000381469727,8.119999885559082,7.909999847412109,7.949999809265137,9266347,0,0
2020-05-04,7.949999809265137,7.989999771118164,7.579999923706055,7.610000133514404,8832738,0,0
2020-05-05,7.559999942779541,7.800000190734863,7.559999942779541,7.690000057220459,10090500,0,0
2020-05-06,7.75,8.25,7.710000038146973,8.100000381469727,17774670,0,0
2020-05-07,8.300000190734863,8.649999618530273,8.199999809265137,8.539999961853027,16857000,0,0
2020-05-08,8.6899995803833,8.6899995803833,8.40999984741211,8.520000457763672,8718498,0,0
2020-05-11,8.65999984741211,8.979999542236328,8.65999984741211,8.859999656677246,14902320,0,0
2020-05-12,8.859999656677246,9.130000114440918,8.760000228881836,9.010000228881836,15542740,0,0
2020-05-13,8.989999771118164,9.09000015258789,8.8100004196167,8.869999885559082,11398290,0,0
2020-05-14,8.829999923706055,8.880000114440918,8.609999656677246,8.800000190734863,5513814,0,0
2020-05-15,8.899999618530273,9.90999984741211,8.75,9.829999923706055,37023320,0,0
2020-05-18,10.15999984741211,10.479999542236328,9.829999923706055,9.880000114440918,32561870,0,0
2020-05-19,10.0,10.279999732971191,9.699999809265137,9.850000381469727,15409500,0,0
2020-05-20,9.899999618530273,10.65999984741211,9.760000228881836,10.220000267028809,39582600,0,0
2020-05-21,10.260000228881836,10.539999961853027,9.569999694824219,9.680000305175781,28311640,0,0
2020-05-22,9.550000190734863,9.84000015258789,9.029999732971191,9.140000343322754,17571480,0,0
2020-05-25,9.119999885559082,9.34000015258789,8.850000381469727,9.229999542236328,11270000,0,0
2020-05-26,9.350000381469727,9.380000114440918,9.050000190734863,9.079999923706055,9594500,0,0
2020-05-27,9.140000343322754,9.229999542236328,8.869999885559082,8.979999542236328,10327990,0,0
2020-05-28,8.899999618530273,9.039999961853027,8.5,8.699999809265137,12264260,0,0
2020-05-29,8.729999542236328,9.239999771118164,8.720000267028809,9.199999809265137,16647150,0,0
2020-06-01,9.3100004196167,9.960000038146973,9.3100004196167,9.670000076293945,17890030,0,0
2020-06-02,9.800000190734863,10.380000114440918,9.579999923706055,9.800000190734863,21531500,0,0
2020-06-03,9.949999809265137,10.119999885559082,9.800000190734863,9.920000076293945,10607100,0,0
2020-06-04,10.0,10.100000381469727,9.829999923706055,10.0,8636612,0,0
2020-06-05,9.899999618530273,10.399999618530273,9.850000381469727,10.300000190734863,10122690,0,0
2020-06-08,10.300000190734863,10.4399995803833,9.930000305175781,10.0,8495700,0,0
2020-06-09,10.020000457763672,10.300000190734863,9.979999542236328,9.989999771118164,8770119,0,0
2020-06-10,10.0,10.239999771118164,9.920000076293945,10.15999984741211,8344087,0,0
2020-06-11,10.199999809265137,10.34000015258789,9.479999542236328,9.5,18920340,0,0
2020-06-12,9.300000190734863,9.899999618530273,9.0600004196167,9.829999923706055,21219580,0,0
2020-06-15,9.829999923706055,10.100000381469727,9.569999694824219,9.720000267028809,19794990,0,0
2020-06-16,9.90999984741211,10.640000343322754,9.90999984741211,10.420000076293945,17204660,0,0
2020-06-17,10.600000381469727,11.180000305175781,10.479999542236328,10.539999961853027,24271790,0,0
2020-06-18,10.180000305175781,10.180000305175781,9.760000228881836,9.979999542236328,44422660,0,0
2020-06-19,9.899999618530273,10.5,9.899999618530273,10.15999984741211,43772170,0,0
2020-06-22,10.300000190734863,10.4399995803833,9.84000015258789,9.960000038146973,18656420,0,0
2020-06-23,10.0,10.079999923706055,9.710000038146973,9.899999618530273,13350380,0,0
2020-06-24,9.979999542236328,10.119999885559082,9.640000343322754,9.680000305175781,16397750,0,0
2020-06-26,10.039999961853027,10.300000190734863,9.800000190734863,9.880000114440918,25068120,0,0
2020-06-29,10.100000381469727,10.199999809265137,9.760000228881836,9.850000381469727,33556000,0,0
2020-06-30,10.020000457763672,10.119999885559082,9.789999961853027,9.819999694824219,25573500,0,0
2020-07-02,10.0600004196167,10.300000190734863,9.859999656677246,10.140000343322754,32376820,0,0
2020-07-03,10.359999656677246,11.0,10.180000305175781,10.760000228881836,46008870,0,0
2020-07-06,11.279999732971191,11.899999618530273,11.119999885559082,11.5600004196167,59545100,0,0
2020-07-07,11.979999542236328,12.119999885559082,11.319999694824219,11.399999618530273,35513600,0,0
2020-07-08,11.699999809265137,12.220000267028809,11.5,12.199999809265137,31733450,0,0
2020-07-09,12.5,12.579999923706055,12.039999961853027,12.319999694824219,35006190,0,0
2020-07-10,12.5,14.5,12.5,12.760000228881836,56216340,0,0
2020-07-13,13.15999984741211,14.0,12.960000038146973,13.859999656677246,44008200,0,0
2020-07-14,13.699999809265137,13.859999656677246,12.800000190734863,13.199999809265137,38129400,0,0
2020-07-15,13.520000457763672,13.640000343322754,12.520000457763672,13.140000343322754,41413360,0,0
2020-07-16,13.279999732971191,13.279999732971191,11.520000457763672,11.619999885559082,57675360,0,0
2020-07-17,11.779999732971191,12.15999984741211,11.420000076293945,12.0600004196167,20476820,0,0
2020-07-20,12.260000228881836,12.260000228881836,11.239999771118164,11.760000228881836,31210930,0,0
2020-07-21,11.899999618530273,12.15999984741211,11.680000305175781,11.699999809265137,28335770,0,0
2020-07-22,11.699999809265137,11.760000228881836,10.699999809265137,10.84000015258789,57198430,0,0
2020-07-23,10.779999732971191,11.180000305175781,10.600000381469727,10.920000076293945,27758920,0,0
2020-07-24,10.739999771118164,10.859999656677246,9.84000015258789,9.979999542236328,45287480,0,0
2020-07-27,9.979999542236328,10.239999771118164,9.350000381469727,9.600000381469727,28857580,0,0
2020-07-28,9.819999694824219,9.960000038146973,9.609999656677246,9.829999923706055,15705330,0,0
2020-07-29,9.9399995803833,9.9399995803833,9.600000381469727,9.800000190734863,17919270,0,0
2020-07-30,9.850000381469727,10.119999885559082,9.5,9.579999923706055,20944420,0,0
2020-07-31,9.680000305175781,9.739999771118164,9.40999984741211,9.420000076293945,19633320,0,0
2020-08-03,9.479999542236328,9.609999656677246,9.270000457763672,9.399999618530273,21028610,0,0
2020-08-04,9.470000267028809,9.800000190734863,9.420000076293945,9.710000038146973,23343500,0,0
2020-08-05,9.8100004196167,10.020000457763672,9.699999809265137,9.779999732971191,21290990,0,0
2020-08-06,9.800000190734863,9.890000343322754,9.40999984741211,9.670000076293945,15590250,0,0
2020-08-07,9.699999809265137,9.710000038146973,9.079999923706055,9.1899995803833,22395080,0,0
2020-08-10,9.100000381469727,9.199999809265137,8.84000015258789,9.100000381469727,12977090,0,0
2020-08-11,9.199999809265137,9.279999732971191,8.970000267028809,9.100000381469727,11064780,0,0
2020-08-12,9.180000305175781,9.329999923706055,8.819999694824219,9.029999732971191,12555000,0,0
2020-08-13,9.079999923706055,9.420000076293945,9.050000190734863,9.380000114440918,14222430,0,0
2020-08-14,9.380000114440918,9.680000305175781,9.1899995803833,9.390000343322754,13597360,0,0
2020-08-17,9.399999618530273,9.489999771118164,9.130000114440918,9.460000038146973,9233886,0,0
2020-08-18,9.880000114440918,10.239999771118164,9.460000038146973,9.5600004196167,27899960,0,0
2020-08-19,9.6899995803833,9.75,9.449999809265137,9.510000228881836,5234406,0,0
2020-08-20,9.609999656677246,9.609999656677246,9.170000076293945,9.4399995803833,10121790,0,0
2020-08-21,9.479999542236328,9.479999542236328,9.3100004196167,9.420000076293945,5219135,0,0
2020-08-24,9.420000076293945,9.449999809265137,9.119999885559082,9.180000305175781,13789220,0,0
2020-08-25,9.140000343322754,9.319999694824219,9.069999694824219,9.199999809265137,10623910,0,0
2020-08-26,9.199999809265137,9.550000190734863,9.149999618530273,9.3100004196167,11814720,0,0
2020-08-27,9.300000190734863,9.380000114440918,9.0600004196167,9.1899995803833,8686846,0,0
2020-08-28,9.100000381469727,9.75,9.100000381469727,9.550000190734863,17649000,0,0
2020-08-31,9.5600004196167,9.600000381469727,9.029999732971191,9.100000381469727,19698330,0,0
2020-09-01,9.100000381469727,9.279999732971191,9.09000015258789,9.109999656677246,9037870,0,0
2020-09-02,9.140000343322754,9.260000228881836,9.050000190734863,9.260000228881836,7273400,0,0
2020-09-03,9.260000228881836,9.5,9.140000343322754,9.170000076293945,7583500,0,0
2020-09-04,9.010000228881836,9.279999732971191,8.819999694824219,8.979999542236328,9847500,0,0
2020-09-07,8.9399995803833,8.960000038146973,8.40999984741211,8.4399995803833,15307220,0,0
2020-09-08,8.489999771118164,8.720000267028809,8.479999542236328,8.609999656677246,7074342,0,0
2020-09-09,8.5,8.5600004196167,8.300000190734863,8.449999809265137,6995083,0,0
2020-09-10,8.5,8.600000381469727,8.300000190734863,8.359999656677246,7576800,0,0
2020-09-11,8.380000114440918,8.479999542236328,8.279999732971191,8.470000267028809,9199811,0,0
2020-09-14,8.420000076293945,8.600000381469727,8.380000114440918,8.470000267028809,5941500,0,0
2020-09-15,8.569999694824219,8.729999542236328,8.479999542236328,8.680000305175781,5695500,0,0
2020-09-16,8.609999656677246,8.930000305175781,8.529999732971191,8.859999656677246,9412236,0,0
2020-09-17,8.75,8.829999923706055,8.609999656677246,8.699999809265137,4552894,0,0
2020-09-18,8.609999656677246,9.100000381469727,8.609999656677246,8.989999771118164,9546470,0,0
2020-09-21,8.989999771118164,9.119999885559082,8.699999809265137,8.739999771118164,4718500,0,0
2020-09-22,8.800000190734863,8.829999923706055,8.399999618530273,8.460000038146973,7678811,0,0
2020-09-23,8.5,8.850000381469727,8.5,8.680000305175781,5334698,0,0
2020-09-24,8.609999656677246,8.720000267028809,8.470000267028809,8.479999542236328,5059385,0,0
2020-09-25,8.5,8.600000381469727,8.220000267028809,8.220000267028809,7016942,0,0
2020-09-28,8.300000190734863,8.5,8.289999961853027,8.399999618530273,3876300,0,0
2020-09-29,8.329999923706055,8.649999618530273,8.329999923706055,8.579999923706055,2441520,0,0
2020-09-30,8.579999923706055,8.75,8.539999961853027,8.720000267028809,2669847,0,0
2020-10-05,8.739999771118164,8.8100004196167,8.529999732971191,8.649999618530273,3573852,0,0
2020-10-06,8.800000190734863,8.829999923706055,8.640000343322754,8.75,2807000,0,0
2020-10-07,8.75,8.75,8.5600004196167,8.739999771118164,1827671,0,0
2020-10-08,8.739999771118164,8.899999618530273,8.640000343322754,8.779999732971191,2310452,0,0
2020-10-09,8.779999732971191,8.789999961853027,8.470000267028809,8.539999961853027,5042784,0,0
2020-10-12,8.40999984741211,8.609999656677246,8.40999984741211,8.460000038146973,7985541,0,0
2020-10-14,8.460000038146973,8.539999961853027,8.029999732971191,8.130000114440918,17741320,0,0
2020-10-15,8.140000343322754,8.239999771118164,8.020000457763672,8.0600004196167,6159000,0,0
2020-10-16,8.130000114440918,8.170000076293945,7.940000057220459,8.130000114440918,4800166,0,0
2020-10-19,8.170000076293945,8.170000076293945,7.820000171661377,7.869999885559082,9060000,0,0
2020-10-20,7.869999885559082,7.929999828338623,7.619999885559082,7.929999828338623,9259465,0,0
2020-10-21,8.010000228881836,8.399999618530273,8.0,8.399999618530273,13146500,0,0
2020-10-22,8.399999618530273,8.399999618530273,7.679999828338623,7.849999904632568,19457400,0,0
2020-10-23,7.800000190734863,7.889999866485596,7.619999885559082,7.650000095367432,8321500,0,0
2020-10-27,7.650000095367432,7.699999809265137,7.5,7.550000190734863,8311824,0,0
2020-10-28,7.550000190734863,7.619999885559082,7.409999847412109,7.489999771118164,6541500,0,0
2020-10-29,7.429999828338623,7.46999979019165,7.269999980926514,7.309999942779541,7859865,0,0
2020-10-30,7.380000114440918,7.5,7.010000228881836,7.210000038146973,12285620,0,0
2020-11-02,7.210000038146973,7.309999942779541,7.139999866485596,7.269999980926514,4527357,0,0
2020-11-03,7.320000171661377,7.449999809265137,7.170000076293945,7.329999923706055,7256115,0,0
2020-11-04,7.289999961853027,7.559999942779541,7.289999961853027,7.369999885559082,4713544,0,0
2020-11-05,7.400000095367432,7.599999904632568,7.400000095367432,7.53000020980835,4763478,0,0
2020-11-06,7.53000020980835,7.599999904632568,7.260000228881836,7.420000076293945,7365900,0,0
2020-11-09,7.449999809265137,7.510000228881836,7.28000020980835,7.360000133514404,7849930,0,0
2020-11-10,7.420000076293945,7.480000019073486,7.25,7.480000019073486,7268024,0,0
2020-11-11,7.5,7.630000114440918,7.420000076293945,7.619999885559082,9472008,0,0
2020-11-12,7.599999904632568,7.690000057220459,7.380000114440918,7.489999771118164,8901000,0,0
2020-11-13,7.5,7.559999942779541,7.340000152587891,7.510000228881836,4921708,0,0
2020-11-16,7.559999942779541,7.559999942779541,7.389999866485596,7.519999980926514,4673600,0,0
2020-11-17,7.519999980926514,7.519999980926514,7.349999904632568,7.400000095367432,5827500,0,0
2020-11-18,7.309999942779541,7.46999979019165,7.130000114440918,7.190000057220459,12121280,0,0
2020-11-19,7.199999809265137,7.340000152587891,7.019999980926514,7.320000171661377,8248000,0,0
2020-11-20,7.320000171661377,7.579999923706055,7.320000171661377,7.579999923706055,7232925,0,0
2020-11-23,7.579999923706055,7.690000057220459,7.480000019073486,7.599999904632568,5967667,0,0
2020-11-24,7.599999904632568,7.599999904632568,7.340000152587891,7.360000133514404,6524561,0,0
2020-11-25,7.360000133514404,7.389999866485596,7.230000019073486,7.25,4211000,0,0
2020-11-26,7.289999961853027,7.380000114440918,7.230000019073486,7.329999923706055,3811840,0,0
2020-11-27,7.340000152587891,7.5,7.269999980926514,7.449999809265137,6571485,0,0
2020-11-30,7.449999809265137,7.679999828338623,7.440000057220459,7.679999828338623,21966450,0,0
2020-12-01,7.579999923706055,7.840000152587891,7.519999980926514,7.630000114440918,8083352,0,0
2020-12-02,7.71999979019165,7.730000019073486,7.360000133514404,7.429999828338623,6968000,0,0
2020-12-03,7.429999828338623,7.539999961853027,7.380000114440918,7.440000057220459,3868895,0,0
2020-12-04,7.460000038146973,7.5,7.389999866485596,7.5,4641072,0,0
2020-12-07,7.5,7.650000095367432,7.289999961853027,7.329999923706055,4112500,0,0
