Date,Open,High,Low,Close,Volume,Dividends,Stock Splits
2020-01-02,3.059999942779541,3.0999999046325684,2.9700000286102295,3.009999990463257,393000,0,0
2020-01-03,3.0199999809265137,3.059999942779541,2.9800000190734863,3.049999952316284,418000,0,0
2020-01-06,3.0399999618530273,3.0399999618530273,2.9800000190734863,3.0,403000,0,0
2020-01-07,3.0299999713897705,3.0299999713897705,2.9700000286102295,3.0,284000,0,0
2020-01-08,3.0199999809265137,3.0199999809265137,2.9700000286102295,3.009999990463257,266000,0,0
2020-01-09,3.0399999618530273,3.0399999618530273,2.9700000286102295,3.0,296000,0,0
2020-01-10,3.0,3.0199999809265137,2.9700000286102295,3.009999990463257,1718000,0,0
2020-01-13,3.009999990463257,3.0199999809265137,2.9600000381469727,3.0199999809265137,391212,0,0
2020-01-14,3.0299999713897705,3.0899999141693115,3.009999990463257,3.049999952316284,230000,0,0
2020-01-15,3.0799999237060547,3.119999885559082,3.0299999713897705,3.0799999237060547,1682000,0,0
2020-01-16,3.0999999046325684,3.119999885559082,3.0399999618530273,3.049999952316284,1724000,0,0
2020-01-17,3.049999952316284,3.130000114440918,2.990000009536743,3.119999885559082,1897000,0,0
2020-01-20,3.130000114440918,3.1500000953674316,3.049999952316284,3.0899999141693115,1899000,0,0
2020-01-21,3.0799999237060547,3.0799999237060547,3.0,3.069999933242798,1789000,0,0
2020-01-22,3.0799999237060547,3.1500000953674316,3.049999952316284,3.109999895095825,1646000,0,0
2020-01-23,3.109999895095825,3.109999895095825,3.049999952316284,3.069999933242798,1738000,0,0
2020-01-24,3.069999933242798,3.119999885559082,3.049999952316284,3.119999885559082,68000,0,0
2020-01-29,3.0799999237060547,3.0799999237060547,3.0,3.059999942779541,1805480,0,0
2020-01-30,3.059999942779541,3.069999933242798,2.950000047683716,3.049999952316284,1685000,0,0
2020-01-31,3.0799999237060547,3.0799999237060547,3.0199999809265137,3.049999952316284,1681000,0,0
2020-02-03,3.0,3.0299999713897705,2.9600000381469727,3.0,1900818,0,0
2020-02-04,3.0,3.059999942779541,3.0,3.0399999618530273,437000,0,0
2020-02-05,3.0399999618530273,3.069999933242798,3.0,3.0199999809265137,1836000,0,0
2020-02-06,3.049999952316284,3.119999885559082,3.009999990463257,3.0299999713897705,1936000,0,0
2020-02-07,3.069999933242798,3.0899999141693115,3.0299999713897705,3.049999952316284,247000,0,0
2020-02-10,3.069999933242798,3.069999933242798,3.0199999809265137,3.049999952316284,1650000,0,0
2020-02-11,3.0399999618530273,3.0999999046325684,2.940000057220459,2.9700000286102295,2076396,0,0
2020-02-12,3.0199999809265137,3.0999999046325684,2.990000009536743,3.059999942779541,178000,0,0
2020-02-13,3.049999952316284,3.0999999046325684,3.049999952316284,3.069999933242798,168000,0,0
2020-02-14,3.069999933242798,3.1500000953674316,3.059999942779541,3.0999999046325684,1764000,0,0
2020-02-17,3.130000114440918,3.130000114440918,3.0,3.0299999713897705,1808000,0,0
2020-02-18,3.0299999713897705,3.049999952316284,3.0,3.049999952316284,111000,0,0
2020-02-19,3.049999952316284,3.0999999046325684,3.0399999618530273,3.069999933242798,101000,0,0
2020-02-20,3.069999933242798,3.069999933242798,2.9600000381469727,3.049999952316284,1711000,0,0
2020-02-21,3.0299999713897705,3.059999942779541,3.0199999809265137,3.049999952316284,155000,0,0
2020-02-24,3.049999952316284,3.0799999237060547,2.9800000190734863,3.0199999809265137,1900000,0,0
2020-02-25,3.049999952316284,3.049999952316284,2.9600000381469727,3.0199999809265137,1734000,0,0
2020-02-26,3.0199999809265137,3.0299999713897705,3.009999990463257,3.0199999809265137,83000,0,0
2020-02-27,3.0299999713897705,3.0299999713897705,2.950000047683716,2.990000009536743,1938000,0,0
2020-02-28,2.990000009536743,3.009999990463257,2.9600000381469727,3.0,569000,0,0
2020-03-02,3.049999952316284,3.049999952316284,2.9700000286102295,2.990000009536743,317000,0,0
2020-03-03,2.9600000381469727,3.0199999809265137,2.950000047683716,2.990000009536743,204000,0,0
2020-03-04,3.049999952316284,3.049999952316284,3.0,3.009999990463257,168000,0,0
2020-03-05,3.0299999713897705,3.049999952316284,3.0,3.0399999618530273,1698000,0,0
2020-03-06,3.0399999618530273,3.059999942779541,3.0199999809265137,3.049999952316284,165000,0,0
2020-03-09,3.049999952316284,3.049999952316284,3.009999990463257,3.049999952316284,378000,0,0
2020-03-10,3.0299999713897705,3.1600000858306885,3.0199999809265137,3.049999952316284,1747000,0,0
2020-03-11,3.069999933242798,3.069999933242798,3.009999990463257,3.0199999809265137,253000,0,0
2020-03-12,3.0299999713897705,3.0799999237060547,2.9800000190734863,3.009999990463257,1718000,0,0
2020-03-13,2.9800000190734863,2.9800000190734863,2.8499999046325684,2.880000114440918,1980000,0,0
2020-03-16,2.940000057220459,2.940000057220459,2.7899999618530273,2.799999952316284,443000,0,0
2020-03-17,2.890000104904175,2.990000009536743,2.7699999809265137,2.8499999046325684,1776000,0,0
2020-03-18,2.880000114440918,2.950000047683716,2.809999942779541,2.8299999237060547,1799000,0,0
2020-03-19,2.880000114440918,2.880000114440918,2.7300000190734863,2.799999952316284,559000,0,0
2020-03-20,2.819999933242798,2.9000000953674316,2.759999990463257,2.809999942779541,1953000,0,0
2020-03-23,2.8399999141693115,2.8399999141693115,2.740000009536743,2.7699999809265137,319000,0,0
2020-03-24,2.759999990463257,2.9000000953674316,2.75,2.799999952316284,1867000,0,0
2020-03-25,2.8399999141693115,2.890000104904175,2.7799999713897705,2.890000104904175,1708000,0,0
2020-03-26,2.880000114440918,2.890000104904175,2.819999933242798,2.880000114440918,1750000,0,0
2020-03-27,2.9100000858306885,2.9100000858306885,2.8499999046325684,2.9100000858306885,128000,0,0
2020-03-30,2.950000047683716,2.950000047683716,2.809999942779541,2.880000114440918,2097000,0,0
2020-03-31,2.930000066757202,2.930000066757202,2.799999952316284,2.8399999141693115,2316000,0,0
2020-04-01,2.859999895095825,2.859999895095825,2.7699999809265137,2.7799999713897705,560000,0,0
2020-04-02,2.819999933242798,2.819999933242798,2.759999990463257,2.7899999618530273,333000,0,0
2020-04-03,2.819999933242798,2.819999933242798,2.700000047683716,2.740000009536743,928000,0,0
2020-04-06,2.7899999618530273,2.7899999618530273,2.6700000762939453,2.75,1742000,0,0
2020-04-07,2.7899999618530273,2.7899999618530273,2.7100000381469727,2.759999990463257,553000,0,0
2020-04-08,2.809999942779541,2.809999942779541,2.75,2.759999990463257,91000,0,0
2020-04-09,2.740000009536743,2.809999942779541,2.740000009536743,2.799999952316284,148000,0,0
2020-04-14,2.7799999713897705,2.8399999141693115,2.7699999809265137,2.7899999618530273,1757000,0,0
2020-04-15,2.7799999713897705,2.819999933242798,2.759999990463257,2.7799999713897705,1853000,0,0
2020-04-16,2.7799999713897705,2.7799999713897705,2.7300000190734863,2.7699999809265137,1708000,0,0
2020-04-17,2.7300000190734863,2.819999933242798,2.7300000190734863,2.7799999713897705,1810000,0,0
2020-04-20,2.7699999809265137,2.950000047683716,2.7699999809265137,2.930000066757202,2750000,0,0
2020-04-21,2.940000057220459,2.9600000381469727,2.880000114440918,2.950000047683716,1674000,0,0
2020-04-22,2.930000066757202,2.9700000286102295,2.8399999141693115,2.869999885559082,2590000,0,0
2020-04-23,2.890000104904175,2.9800000190734863,2.8499999046325684,2.890000104904175,1799000,0,0
2020-04-24,2.930000066757202,2.930000066757202,2.859999895095825,2.9000000953674316,356000,0,0
2020-04-27,2.930000066757202,2.930000066757202,2.880000114440918,2.9000000953674316,377000,0,0
2020-04-28,2.9200000762939453,2.9700000286102295,2.869999885559082,2.9200000762939453,1690000,0,0
2020-04-29,2.9100000858306885,2.940000057220459,2.9000000953674316,2.9200000762939453,336000,0,0
2020-05-04,2.950000047683716,2.950000047683716,2.819999933242798,2.890000104904175,1710000,0,0
2020-05-05,2.9100000858306885,2.940000057220459,2.859999895095825,2.880000114440918,283000,0,0
2020-05-06,2.9000000953674316,2.9200000762939453,2.809999942779541,2.859999895095825,1708000,0,0
2020-05-07,2.890000104904175,2.9000000953674316,2.799999952316284,2.8399999141693115,1715730,0,0
2020-05-08,2.869999885559082,2.869999885559082,2.809999942779541,2.8399999141693115,238000,0,0
2020-05-11,2.880000114440918,2.880000114440918,2.799999952316284,2.8399999141693115,1690000,0,0
2020-05-12,2.859999895095825,2.859999895095825,2.799999952316284,2.8299999237060547,1764000,0,0
2020-05-13,2.8499999046325684,2.890000104904175,2.809999942779541,2.8399999141693115,2095000,0,0
2020-05-14,2.859999895095825,2.869999885559082,2.8299999237060547,2.8499999046325684,188000,0,0
2020-05-15,2.8499999046325684,2.880000114440918,2.809999942779541,2.869999885559082,2391000,0,0
2020-05-18,2.880000114440918,2.890000104904175,2.8399999141693115,2.869999885559082,3203000,0,0
2020-05-19,2.880000114440918,2.950000047683716,2.859999895095825,2.9000000953674316,2484000,0,0
2020-05-20,2.9200000762939453,3.0,2.869999885559082,2.9200000762939453,2373000,0,0
2020-05-21,2.950000047683716,2.950000047683716,2.8299999237060547,2.880000114440918,4841000,0,0
2020-05-22,2.880000114440918,2.9000000953674316,2.8299999237060547,2.8499999046325684,1169000,0,0
2020-05-25,2.890000104904175,2.890000104904175,2.8299999237060547,2.859999895095825,272000,0,0
2020-05-26,2.880000114440918,2.930000066757202,2.8499999046325684,2.9000000953674316,3551000,0,0
2020-05-27,2.9200000762939453,2.9200000762939453,2.8499999046325684,2.880000114440918,1535000,0,0
2020-05-28,2.9000000953674316,2.9000000953674316,2.869999885559082,2.9000000953674316,1412000,0,0
2020-05-29,2.9200000762939453,2.9200000762939453,2.880000114440918,2.9000000953674316,1392000,0,0
2020-06-01,2.930000066757202,3.0299999713897705,2.9100000858306885,2.9700000286102295,3655000,0,0
2020-06-02,3.0,3.009999990463257,2.9600000381469727,3.0,3453000,0,0
2020-06-03,3.049999952316284,3.069999933242798,2.9100000858306885,3.0,2062000,0,0
2020-06-04,3.0399999618530273,3.0799999237060547,2.950000047683716,2.990000009536743,1248000,0,0
2020-06-05,3.0199999809265137,3.0799999237060547,2.9600000381469727,3.0199999809265137,1922000,0,0
2020-06-08,3.049999952316284,3.049999952316284,2.9700000286102295,3.0,2344000,0,0
2020-06-09,3.0299999713897705,3.0399999618530273,2.9700000286102295,2.990000009536743,2174000,0,0
2020-06-10,3.0,3.0799999237060547,2.990000009536743,3.0199999809265137,1822000,0,0
2020-06-11,3.059999942779541,3.1500000953674316,3.0199999809265137,3.049999952316284,2972000,0,0
2020-06-12,3.0399999618530273,3.069999933242798,2.9800000190734863,3.0199999809265137,1847000,0,0
2020-06-15,3.0399999618530273,3.0999999046325684,3.009999990463257,3.069999933242798,1705000,0,0
2020-06-16,3.0999999046325684,3.359999895095825,3.0399999618530273,3.240000009536743,7734000,0,0
2020-06-17,3.2799999713897705,3.5,3.1600000858306885,3.309999942779541,9294000,0,0
2020-06-18,3.3299999237060547,3.430000066757202,3.2899999618530273,3.3399999141693115,5450000,0,0
2020-06-19,3.3399999141693115,3.359999895095825,3.25,3.2899999618530273,3932000,0,0
2020-06-22,3.2899999618530273,3.319999933242798,3.200000047683716,3.2300000190734863,2709000,0,0
2020-06-23,3.259999990463257,3.299999952316284,3.1600000858306885,3.2699999809265137,948000,0,0
2020-06-24,3.2699999809265137,3.3499999046325684,3.2100000381469727,3.319999933242798,1675000,0,0
2020-06-26,3.3299999237060547,3.430000066757202,3.259999990463257,3.380000114440918,2177000,0,0
2020-06-29,3.4000000953674316,3.430000066757202,3.3299999237060547,3.359999895095825,961000,0,0
2020-06-30,3.359999895095825,3.4000000953674316,3.2699999809265137,3.319999933242798,3629000,0,0
2020-07-02,3.3399999141693115,3.430000066757202,3.3299999237060547,3.380000114440918,2820000,0,0
2020-07-03,3.4200000762939453,3.549999952316284,3.3399999141693115,3.390000104904175,1955000,0,0
2020-07-06,3.390000104904175,3.4800000190734863,3.299999952316284,3.4000000953674316,2676000,0,0
2020-07-07,3.4200000762939453,3.4700000286102295,3.359999895095825,3.4000000953674316,2115000,0,0
2020-07-08,3.4100000858306885,3.430000066757202,3.3499999046325684,3.390000104904175,2030000,0,0
2020-07-09,3.4100000858306885,3.4100000858306885,3.3399999141693115,3.4000000953674316,2063000,0,0
2020-07-10,3.430000066757202,3.4200000762939453,3.359999895095825,3.4000000953674316,1293000,0,0
2020-07-13,3.430000066757202,3.450000047683716,3.3499999046325684,3.4000000953674316,2264000,0,0
2020-07-14,3.4200000762939453,3.4200000762939453,3.3499999046325684,3.359999895095825,1978000,0,0
2020-07-15,3.390000104904175,3.440000057220459,3.3499999046325684,3.440000057220459,1701000,0,0
2020-07-16,3.450000047683716,3.619999885559082,3.380000114440918,3.559999942779541,5633000,0,0
2020-07-17,3.5899999141693115,3.680000066757202,3.5199999809265137,3.609999895095825,4060000,0,0
2020-07-20,3.6500000953674316,3.7300000190734863,3.5899999141693115,3.609999895095825,955000,0,0
2020-07-21,3.6500000953674316,3.799999952316284,3.569999933242798,3.6700000762939453,7613000,0,0
2020-07-22,3.700000047683716,3.799999952316284,3.5999999046325684,3.6500000953674316,1261000,0,0
2020-07-23,3.700000047683716,3.7200000286102295,3.569999933242798,3.680000066757202,1379000,0,0
2020-07-24,3.700000047683716,3.700000047683716,3.5299999713897705,3.690000057220459,2574000,0,0
2020-07-27,3.700000047683716,3.7699999809265137,3.5999999046325684,3.6500000953674316,1107000,0,0
2020-07-28,3.6600000858306885,3.700000047683716,3.609999895095825,3.690000057220459,802000,0,0
2020-07-29,3.700000047683716,3.740000009536743,3.680000066757202,3.7100000381469727,991000,0,0
2020-07-30,3.7200000286102295,3.75,3.6700000762939453,3.7200000286102295,1073000,0,0
2020-07-31,3.7200000286102295,3.7300000190734863,3.6600000858306885,3.6600000858306885,986000,0,0
2020-08-03,3.6700000762939453,3.680000066757202,3.5899999141693115,3.5999999046325684,1021000,0,0
2020-08-04,3.619999885559082,3.6500000953674316,3.5999999046325684,3.640000104904175,255000,0,0
2020-08-05,3.6500000953674316,3.6600000858306885,3.5,3.640000104904175,1910000,0,0
2020-08-06,3.6600000858306885,3.6600000858306885,3.5199999809265137,3.609999895095825,655000,0,0
2020-08-07,3.630000114440918,3.6500000953674316,3.5,3.549999952316284,3193965,0,0
2020-08-10,3.549999952316284,3.5799999237060547,3.490000009536743,3.490000009536743,3139000,0,0
2020-08-11,3.509999990463257,3.5399999618530273,3.450000047683716,3.5199999809265137,1971000,0,0
2020-08-12,3.5399999618530273,3.549999952316284,3.4700000286102295,3.549999952316284,403000,0,0
2020-08-13,3.549999952316284,3.5999999046325684,3.509999990463257,3.5399999618530273,1862000,0,0
2020-08-14,3.569999933242798,3.569999933242798,3.509999990463257,3.549999952316284,294000,0,0
2020-08-17,3.5399999618530273,3.6600000858306885,3.5199999809265137,3.6500000953674316,2041000,0,0
2020-08-18,3.6700000762939453,3.75,3.619999885559082,3.690000057220459,578000,0,0
2020-08-19,3.6700000762939453,3.7100000381469727,3.619999885559082,3.619999885559082,1830000,0,0
2020-08-20,3.630000114440918,3.630000114440918,3.5,3.609999895095825,1802000,0,0
2020-08-21,3.630000114440918,3.6700000762939453,3.549999952316284,3.6500000953674316,787000,0,0
2020-08-24,3.6600000858306885,3.680000066757202,3.5799999237060547,3.6500000953674316,1661000,0,0
2020-08-25,3.6700000762939453,3.680000066757202,3.609999895095825,3.640000104904175,1761000,0,0
2020-08-26,3.6500000953674316,3.690000057220459,3.549999952316284,3.569999933242798,2963000,0,0
2020-08-27,3.5899999141693115,3.6500000953674316,3.549999952316284,3.6500000953674316,1040000,0,0
2020-08-28,3.690000057220459,3.7300000190734863,3.569999933242798,3.630000114440918,1344000,0,0
2020-08-31,3.6600000858306885,3.6600000858306885,3.450000047683716,3.549999952316284,2146000,0,0
2020-09-01,3.5799999237060547,3.5899999141693115,3.5,3.5899999141693115,1966000,0,0
2020-09-02,3.619999885559082,3.700000047683716,3.5299999713897705,3.680000066757202,2390000,0,0
2020-09-03,3.680000066757202,3.8399999141693115,3.5999999046325684,3.630000114440918,11735500,0,0
2020-09-04,3.549999952316284,3.619999885559082,3.450000047683716,3.5899999141693115,3272000,0,0
2020-09-07,3.619999885559082,3.6500000953674316,3.450000047683716,3.5299999713897705,1939500,0,0
2020-09-08,3.559999942779541,3.559999942779541,3.450000047683716,3.4800000190734863,2548000,0,0
2020-09-09,3.4700000286102295,3.569999933242798,3.4600000381469727,3.5,1132000,0,0
2020-09-10,3.549999952316284,3.549999952316284,3.4700000286102295,3.5399999618530273,2157000,0,0
2020-09-11,3.569999933242798,3.569999933242798,3.5,3.549999952316284,485000,0,0
2020-09-14,3.549999952316284,3.549999952316284,3.450000047683716,3.4800000190734863,3934000,0,0
2020-09-15,3.490000009536743,3.509999990463257,3.3499999046325684,3.490000009536743,3981000,0,0
2020-09-16,3.5299999713897705,3.5299999713897705,3.4200000762939453,3.430000066757202,1484000,0,0
2020-09-17,3.430000066757202,3.4700000286102295,3.4000000953674316,3.440000057220459,725000,0,0
2020-09-18,3.440000057220459,3.4600000381469727,3.3499999046325684,3.4000000953674316,2146000,0,0
2020-09-21,3.430000066757202,3.430000066757202,3.309999942779541,3.319999933242798,2206000,0,0
2020-09-22,3.3399999141693115,3.359999895095825,3.240000009536743,3.3299999237060547,4783000,0,0
2020-09-23,3.359999895095825,3.5199999809265137,3.3399999141693115,3.440000057220459,2271000,0,0
2020-09-24,3.5,3.5,3.3399999141693115,3.369999885559082,1672000,0,0
2020-09-25,3.4000000953674316,3.490000009536743,3.3299999237060547,3.380000114440918,2454000,0,0
2020-09-28,3.440000057220459,3.450000047683716,3.359999895095825,3.450000047683716,2025000,0,0
2020-09-29,3.490000009536743,3.5199999809265137,3.4200000762939453,3.4700000286102295,437000,0,0
2020-09-30,3.5199999809265137,3.5199999809265137,3.450000047683716,3.5,565000,0,0
2020-10-05,3.5199999809265137,3.549999952316284,3.4800000190734863,3.509999990463257,442000,0,0
2020-10-06,3.5199999809265137,3.569999933242798,3.369999885559082,3.5199999809265137,1702000,0,0
2020-10-07,3.5399999618530273,3.5999999046325684,3.509999990463257,3.569999933242798,195000,0,0
2020-10-08,3.619999885559082,3.619999885559082,3.509999990463257,3.569999933242798,291000,0,0
2020-10-09,3.5799999237060547,3.5999999046325684,3.4700000286102295,3.5799999237060547,1711000,0,0
2020-10-12,3.5799999237060547,3.619999885559082,3.5199999809265137,3.619999885559082,2531000,0,0
2020-10-14,3.619999885559082,3.619999885559082,3.5199999809265137,3.5999999046325684,3609000,0,0
2020-10-15,3.5999999046325684,3.5999999046325684,3.559999942779541,3.5999999046325684,714000,0,0
2020-10-16,3.5999999046325684,3.869999885559082,3.569999933242798,3.759999990463257,12076000,0,0
2020-10-19,3.759999990463257,3.9800000190734863,3.7200000286102295,3.8499999046325684,7357000,0,0
2020-10-20,3.8499999046325684,3.940000057220459,3.700000047683716,3.859999895095825,13914000,0,0
2020-10-21,3.9000000953674316,3.950000047683716,3.75,3.819999933242798,7124000,0,0
2020-10-22,3.8499999046325684,3.8499999046325684,3.7300000190734863,3.7799999713897705,4671000,0,0
2020-10-23,3.7899999618530273,4.03000020980835,3.7799999713897705,4.019999980926514,13673000,0,0
2020-10-27,4.090000152587891,4.170000076293945,3.9100000858306885,3.990000009536743,6452000,0,0
2020-10-28,4.0,4.03000020980835,3.9000000953674316,4.0,3374800,0,0
2020-10-29,4.0,4.159999847412109,3.869999885559082,4.130000114440918,14422000,0,0
2020-10-30,4.150000095367432,4.25,4.0,4.050000190734863,4866000,0,0
2020-11-02,4.079999923706055,4.090000152587891,3.9100000858306885,3.9700000286102295,5321000,0,0
2020-11-03,3.9700000286102295,4.079999923706055,3.9000000953674316,4.0,4826000,0,0
2020-11-04,4.019999980926514,4.070000171661377,3.9700000286102295,4.0,3650000,0,0
2020-11-05,4.03000020980835,4.03000020980835,3.9000000953674316,4.010000228881836,7019000,0,0
2020-11-06,4.039999961853027,4.070000171661377,3.9800000190734863,4.0,3691000,0,0
2020-11-09,3.990000009536743,4.019999980926514,3.930000066757202,4.0,8629000,0,0
2020-11-10,4.039999961853027,4.039999961853027,3.9000000953674316,3.9000000953674316,3096000,0,0
2020-11-11,3.9000000953674316,3.9200000762939453,3.7100000381469727,3.75,7933000,0,0
2020-11-12,3.799999952316284,3.9000000953674316,3.759999990463257,3.799999952316284,2723000,0,0
2020-11-13,3.8399999141693115,3.8499999046325684,3.640000104904175,3.799999952316284,3481000,0,0
2020-11-16,3.819999933242798,3.869999885559082,3.759999990463257,3.859999895095825,2815000,0,0
2020-11-17,3.869999885559082,3.940000057220459,3.8399999141693115,3.869999885559082,2947000,0,0
2020-11-18,3.880000114440918,3.9200000762939453,3.8399999141693115,3.890000104904175,2032000,0,0
2020-11-19,3.859999895095825,3.9800000190734863,3.799999952316284,3.890000104904175,6007000,0,0
2020-11-20,3.880000114440918,3.9200000762939453,3.819999933242798,3.8499999046325684,1972000,0,0
2020-11-23,3.819999933242798,4.050000190734863,3.799999952316284,3.9800000190734863,6189000,0,0
2020-11-24,3.930000066757202,4.0,3.859999895095825,4.0,8138000,0,0
2020-11-25,4.0,4.03000020980835,3.890000104904175,3.9000000953674316,4559000,0,0
2020-11-26,3.930000066757202,3.940000057220459,3.869999885559082,3.9000000953674316,1735000,0,0
2020-11-27,3.9200000762939453,3.9200000762939453,3.8499999046325684,3.880000114440918,2537000,0,0
2020-11-30,3.9000000953674316,4.0,3.8399999141693115,4.0,7988000,0,0
2020-12-01,4.039999961853027,4.039999961853027,3.880000114440918,4.010000228881836,8123700,0,0
2020-12-02,3.990000009536743,4.050000190734863,3.950000047683716,3.990000009536743,1284000,0,0
2020-12-03,3.990000009536743,3.990000009536743,3.9200000762939453,3.9700000286102295,3793000,0,0
2020-12-04,4.0,4.039999961853027,3.930000066757202,3.950000047683716,2334000,0,0
2020-12-07,3.9700000286102295,3.9700000286102295,3.869999885559082,3.9100000858306885,2068000,0,0
