Date,Open,High,Low,Close,Volume,Dividends,Stock Splits
2020-01-02,1.679958701133728,1.689669435702968,1.670247966564488,1.679958701133728,834000,0.0,0
2020-01-03,1.6799587665636582,1.6896695015111054,1.670248031616211,1.670248031616211,755000,0.0,0
2020-01-06,1.6896694467882496,1.6896694467882496,1.6605372428894043,1.6605372428894043,586000,0.0,0
2020-01-07,1.6605372428894043,1.6702479775223529,1.650826508256456,1.6605372428894043,744000,0.0,0
2020-01-08,1.6508265193432454,1.6508265193432454,1.6314049341858272,1.6411157846450806,596000,0.0,0
2020-01-09,1.6411158467449867,1.6411158467449867,1.6216942608526546,1.631404995918274,814000,0.0,0
2020-01-10,1.6314049419357624,1.641115792441147,1.6216942071914673,1.6216942071914673,660000,0.0,0
2020-01-13,1.6216942525628548,1.6508265733718872,1.6216942525628548,1.6508265733718872,372000,0.0,0
2020-01-14,1.6508265617213165,1.6799587665636582,1.6508265617213165,1.670248031616211,1032676,0.0,0
2020-01-15,1.6702479775223529,1.6799587121553012,1.6605372428894043,1.6605372428894043,626055,0.0,0
2020-01-16,1.6605372428894043,1.6799587121553012,1.650826508256456,1.6605372428894043,640000,0.0,0
2020-01-17,1.6605373083878672,1.6702480434038471,1.6508265733718872,1.6508265733718872,730000,0.0,0
2020-01-20,1.6508265617213165,1.670248031616211,1.6508265617213165,1.670248031616211,478266,0.0,0
2020-01-21,1.66053725404141,1.670247988739575,1.6314049341858272,1.6411157846450806,314000,0.0,0
2020-01-22,1.6314049341858272,1.6508265193432454,1.6314049341858272,1.6411157846450806,182618,0.0,0
2020-01-23,1.6411158467449867,1.6605373168762254,1.6022727907214158,1.631404995918274,718000,0.0,0
2020-01-24,1.6216942608526546,1.6411158467449867,1.6216942608526546,1.631404995918274,50000,0.0,0
2020-01-29,1.6022727722737584,1.6022727722737584,1.5537190975046806,1.563429832458496,838000,0.0,0
2020-01-30,1.5537190070091254,1.5537190070091254,1.485743750530508,1.5051652193069458,664818,0.0,0
2020-01-31,1.5051652299767344,1.5051652299767344,1.485743761062622,1.485743761062622,506000,0.0,0
2020-02-03,1.495454484918727,1.5051652193069458,1.4760330161422892,1.5051652193069458,290000,0.0,0
2020-02-04,1.4663223566608155,1.5245868817276438,1.4663223566608155,1.476033091545105,126938,0.0,0
2020-02-05,1.4857438149799718,1.5051652845988854,1.4857438149799718,1.4954545497894287,164000,0.0,0
2020-02-06,1.4954545949015774,1.5440083861746339,1.4954545949015774,1.5245869159698486,620000,0.0,0
2020-02-07,1.5148760003516795,1.5440083201746646,1.5148760003516795,1.5342975854873657,98000,0.0,0
2020-02-10,1.5148760080337524,1.5342975932679275,1.5148760080337524,1.5148760080337524,52000,0.0,0
2020-02-11,1.5051652845988854,1.5051652845988854,1.4857438149799718,1.4954545497894287,592000,0.0,0
2020-02-12,1.485743750530508,1.5051652193069458,1.485743750530508,1.5051652193069458,1284000,0.0,0
2020-02-13,1.4954544955196782,1.4954544955196782,1.476033026605566,1.485743761062622,647666,0.0,0
2020-02-14,1.485743761062622,1.5051652299767344,1.476033026605566,1.485743761062622,736000,0.0,0
2020-02-17,1.5051652732972096,1.5148760080337524,1.4954545385606668,1.5148760080337524,576000,0.0,0
2020-02-18,1.4857438149799718,1.4954545497894287,1.476033080170515,1.4954545497894287,636000,0.0,0
2020-02-19,1.4857438149799718,1.4954545497894287,1.476033080170515,1.4954545497894287,650000,0.0,0
2020-02-20,1.4857438149799718,1.5051652845988854,1.4857438149799718,1.4954545497894287,648000,0.0,0
2020-02-21,1.4760330161422892,1.5148759536951646,1.4760330161422892,1.5051652193069458,766000,0.0,0
2020-02-24,1.4954545497894287,1.5051652845988854,1.476033080170515,1.4954545497894287,690000,0.0,0
2020-02-25,1.4857438149799718,1.4954545497894287,1.476033080170515,1.4954545497894287,226000,0.0,0
2020-02-26,1.485743761062622,1.4954544955196782,1.4663222921485097,1.485743761062622,716000,0.0,0
2020-02-27,1.4857438264293945,1.495454561313684,1.476033091545105,1.476033091545105,234000,0.0,0
2020-02-28,1.476033115216548,1.476033115216548,1.4371901750564575,1.4371901750564575,814000,0.0,0
2020-03-02,1.4177686407731507,1.466322313774524,1.4177686407731507,1.4469008445739746,217333,0.0,0
2020-03-03,1.4469008445739748,1.4566115791742493,1.4469008445739748,1.4469008445739746,294000,0.0,0
2020-03-04,1.4566116217765257,1.476033091545105,1.4566116217765257,1.476033091545105,584000,0.0,0
2020-03-05,1.4566116217765257,1.476033091545105,1.4566116217765257,1.476033091545105,599333,0.0,0
2020-03-06,1.485743771873732,1.485743771873732,1.4566115682905814,1.4663223028182983,574000,0.0,0
2020-03-09,1.4469009123191103,1.4469009123191103,1.3303719758987427,1.3303719758987427,1241250,0.0,0
2020-03-10,1.34008263465646,1.3595041036605833,1.2915289621461519,1.3595041036605835,1542500,0.0,0
2020-03-11,1.3497933911528175,1.378925595133699,1.3206611871719358,1.320661187171936,248000,0.0,0
2020-03-12,1.3109504636705647,1.3400826678994222,1.2818182594417074,1.3012397289276123,948000,0.0,0
2020-03-13,1.301239681679339,1.301239681679339,1.1652892844533014,1.2721073627471924,780000,0.0,0
2020-03-16,1.2429752349853516,1.2721074399238148,1.2429752349853516,1.2429752349853516,265666,0.0,0
2020-03-17,1.1264463213881413,1.2526859943388717,1.1264463213881413,1.204132318496704,636000,0.0,0
2020-03-18,1.1944215529676476,1.223553757732446,1.145867762598559,1.15557861328125,626000,0.0,0
2020-03-19,1.1458676982845502,1.184710751551899,1.0681818232720224,1.165289282798767,1610000,0.0,0
2020-03-20,1.2041322277246487,1.2041322277246487,1.0876032987267445,1.1458677053451538,590000,0.0,0
2020-03-23,1.116735589737027,1.1361570601350648,1.0973141193389893,1.0973141193389893,254000,0.0,0
2020-03-24,1.145867762598559,1.1750000831244487,1.0973140879905616,1.15557861328125,754000,0.0,0
2020-03-25,1.2138429880142214,1.3400826541372568,1.1750000494413144,1.2138429880142212,700000,0.0,0
2020-03-26,1.2138429546815972,1.242975157811295,1.1361569639079843,1.165289282798767,590000,0.0,0
2020-03-27,1.1944215715236446,1.2429752468859498,1.1944215715236446,1.2235537767410278,407750,0.0,0
2020-03-30,1.2138430536651375,1.223553788833571,1.204132318496704,1.204132318496704,112000,0.0,0
2020-03-31,1.2332645000058637,1.2429752349853516,1.2235537650263761,1.2429752349853516,151666,0.0,0
2020-04-01,1.2429752234509253,1.2623966932296753,1.2138430187827998,1.2623966932296753,287666,0.0,0
2020-04-02,1.2623966852659665,1.2915290055114046,1.2332644807816189,1.2818182706832886,644000,0.0,0
2020-04-03,1.2623966530149233,1.3400826454162598,1.2623966530149233,1.3400826454162598,736000,0.0,0
2020-04-06,1.3595041036605833,1.3886363071667682,1.3497933691585218,1.3595041036605835,640000,0.0,0
2020-04-07,1.3692149040822184,1.378925639051794,1.3497934341430664,1.3497934341430664,596000,0.0,0
2020-04-08,1.3497934026423746,1.3497934026423746,1.3012397289276123,1.3012397289276123,636000,0.0,0
2020-04-09,1.3206611762561975,1.349793379996291,1.3206611762561975,1.3400826454162598,178000,0.0,0
2020-04-14,1.3595040930523303,1.4080578809448583,1.3595040930523303,1.3789255619049072,678000,0.0,0
2020-04-15,1.3789255548443038,1.3983471393585207,1.3012396798317758,1.3983471393585205,831510,0.0,0
2020-04-16,1.3497934114076655,1.3886363506317136,1.3206612069896293,1.3886363506317139,612000,0.0,0
2020-04-17,1.340082648209866,1.466322313774524,1.340082648209866,1.4469008445739746,897333,0.0,0
2020-04-20,1.3983472348963673,1.4371901750564575,1.3886363840952518,1.4371901750564575,268000,0.0,0
2020-04-21,1.3983471393585207,1.4080578737350866,1.3886362892208697,1.3983471393585205,214000,0.0,0
2020-04-22,1.3886363071667682,1.3983471574299164,1.3595041036605833,1.3595041036605835,26340,0.0,0
2020-04-23,1.3789255548443038,1.4080578737350866,1.3789255548443038,1.3983471393585205,28000,0.0,0
2020-04-24,1.3789256605666833,1.4274794519332228,1.3789256605666833,1.4177687168121338,590000,0.0,0
2020-04-27,1.3886362963311958,1.4177686153711468,1.3303718897734649,1.3789255619049072,470420,0.0,0
2020-04-28,1.3789256158257017,1.3983472011988158,1.3789256158257017,1.3886363506317139,227550,0.0,0
2020-04-29,1.3789255619049072,1.4177686153711468,1.3789255619049072,1.3789255619049072,160000,0.0,0
2020-05-04,1.359504114576322,1.359504114576322,1.3400826454162598,1.3400826454162598,106000,0.0,0
2020-05-05,1.3497933691585218,1.3595041036605833,1.3497933691585218,1.3595041036605835,698000,0.0,0
2020-05-06,1.3497934460086218,1.3692149161185008,1.3303719758987427,1.3303719758987427,612000,0.0,0
2020-05-07,1.3400826454162598,1.3400826454162598,1.3109504416761664,1.3400826454162598,579500,0.0,0
2020-05-08,1.3303719218322299,1.3497933911528175,1.3206611871719358,1.320661187171936,634000,0.0,0
2020-05-11,1.3497933911528175,1.3497933911528175,1.3206611871719358,1.320661187171936,577667,0.0,0
2020-05-12,1.349793458225749,1.349793458225749,1.3012397825115865,1.310950517654419,672933,0.0,0
2020-05-13,1.3303719331564696,1.3303719331564696,1.3012397289276123,1.3012397289276123,613400,0.0,0
2020-05-14,1.2915290136588917,1.2915290136588917,1.2623966932296753,1.2623966932296753,120600,0.0,0
2020-05-15,1.2721074281190505,1.2818182787695167,1.2429752234509253,1.2623966932296753,594000,0.0,0
2020-05-18,1.281818223680048,1.281818223680048,1.2526859045028687,1.2526859045028687,645873,0.0,0
2020-05-19,1.2623966389748997,1.281818223680048,1.2526859045028687,1.2526859045028687,730000,0.0,0
2020-05-20,1.2623966283568389,1.2721073627471926,1.2623966283568389,1.2721073627471924,126000,0.0,0
2020-05-21,1.2721073734469308,1.2721073734469308,1.2526859045028687,1.2526859045028687,572000,0.0,0
2020-05-22,1.2526859943388717,1.2526859943388717,1.1361570565565748,1.204132318496704,662000,0.0,0
2020-05-25,1.1555785908378973,1.1944215297698975,1.1555785908378973,1.1944215297698975,490000,0.0,0
2020-05-26,1.1944214753335192,1.1944214753335192,1.155578538171806,1.1847107410430908,184460,0.0,0
2020-05-27,1.194421541177056,1.223553745654279,1.1750000715255737,1.1750000715255737,50258,0.0,0
2020-05-28,1.1944214859284652,1.2138429546815972,1.1264462295314184,1.165289282798767,254500,0.0,0
2020-05-29,1.1458677512872602,1.2332644804800201,1.1458677512872602,1.1750000715255737,760000,0.0,0
2020-06-01,1.204132287889247,1.204132287889247,1.1361570276769595,1.15557861328125,664000,0.0,0
2020-06-02,1.1555785484222012,1.1750000171753332,1.1555785484222012,1.165289282798767,699667,0.0,0
2020-06-03,1.1652892724622343,1.1847107410430908,1.1361569538298655,1.1847107410430908,1528000,0.0,0
2020-06-04,1.1847108063513148,1.1847108063513148,1.1652893366998327,1.1750000715255737,576500,0.0,0
2020-06-05,1.1652893369848079,1.3012397403395204,1.1652893369848079,1.2818182706832886,2140000,0.0,0
2020-06-08,1.2721074200940823,1.2915290055114046,1.2623966852659665,1.2818182706832886,818891,0.0,0
2020-06-09,1.281818300624045,1.3497934460086218,1.281818300624045,1.3303719758987427,828333,0.0,0
2020-06-10,1.3303719331564696,1.3303719331564696,1.29152899418466,1.3012397289276123,698000,0.0,0
2020-06-11,1.310950452511642,1.3303719218322299,1.2818182485307605,1.320661187171936,866000,0.0,0
2020-06-12,1.2915290055114046,1.320661209995752,1.2818182706832886,1.2818182706832886,112000,0.0,0
2020-06-15,1.2721074399238148,1.2721074399238148,1.2138430300468883,1.2429752349853516,671333,0.0,0
2020-06-16,1.2235537117022641,1.2526859153711067,1.2235537117022641,1.233264446258545,834000,0.0,0
2020-06-17,1.2429752468859498,1.2429752468859498,1.2235537767410278,1.2235537767410278,14000,0.0,0
2020-06-18,1.2235537767410278,1.2235537767410278,1.2235537767410278,1.2235537767410278,28000,0.0,0
2020-06-19,1.2429751595761314,1.2818182128986315,1.2235536907954239,1.2721073627471924,845624,0.0,0
2020-06-22,1.2429751700308376,1.2623966389748997,1.2429751700308376,1.2526859045028687,90000,0.0,0
2020-06-23,1.2429752156097347,1.2818182706832886,1.2429752156097347,1.2818182706832886,242000,0.0,0
2020-06-24,1.2526859583403003,1.2623966932296753,1.2526859583403003,1.2623966932296753,44500,0.0,0
2020-06-26,1.2915289472889853,1.2915289472889853,1.252685893966485,1.2721073627471924,271666,0.0,0
2020-06-29,1.2526859045028687,1.2526859045028687,1.2526859045028687,1.2526859045028687,14000,0.0,0
2020-06-30,1.2623966389748997,1.2623966389748997,1.2526859045028687,1.2526859045028687,420000,0.0,0
2020-07-02,1.2623966932296753,1.2818182787695167,1.2429752234509253,1.2623966932296753,464000,0.0,0
2020-07-03,1.2623966389748997,1.2623966389748997,1.2429751700308376,1.2526859045028687,132000,0.0,0
2020-07-06,1.2721073557656026,1.2915289402008057,1.242975152754425,1.2915289402008057,1982000,0.0,0
2020-07-07,1.2915289402008057,1.310950408874924,1.2818182058637464,1.2915289402008057,1110000,0.0,0
2020-07-08,1.291529047368754,1.310950517654419,1.2623967261791624,1.310950517654419,1588000,0.0,0
2020-07-09,1.301239674537865,1.301239674537865,1.2721073557656026,1.2915289402008057,1603885,0.0,0
2020-07-10,1.2721074281190505,1.301239748548267,1.2526859583403003,1.2623966932296753,832700,0.0,0
2020-07-13,1.2818182787695167,1.2915290136588917,1.2526859583403003,1.2623966932296753,944000,0.0,0
2020-07-14,1.2429752349853516,1.262396704944327,1.2429752349853516,1.2429752349853516,1320333,0.0,0
2020-07-15,1.2721073844836686,1.2915289693573175,1.1652893043645787,1.233264446258545,2728000,0.0,0
2020-07-16,1.262396704944327,1.262396704944327,1.2332645000058637,1.2429752349853516,1148000,0.0,0
2020-07-17,1.2526859583403003,1.2623966932296753,1.2429752234509253,1.2623966932296753,1114000,0.0,0
2020-07-20,1.2526859265871282,1.2526859265871282,1.2138429880142214,1.2138429880142212,1754000,0.0,0
2020-07-21,1.2429752468859498,1.2429752468859498,1.2138430416685666,1.2235537767410278,2204916,0.0,0
2020-07-22,1.2332645000058637,1.2526859699648394,1.2235537650263761,1.2429752349853516,1598000,0.0,0
2020-07-23,1.233264446258545,1.233264446258545,1.213842977145983,1.233264446258545,976000,0.0,0
2020-07-24,1.2332645240020046,1.2332645240020046,1.1652893778229698,1.204132318496704,958000,0.0,0
2020-07-27,1.2041322645028976,1.2138429992358977,1.1847107950368976,1.1944215297698975,591000,0.0,0
2020-07-28,1.1750000715255737,1.204132276002797,1.1555786018740917,1.1750000715255737,1428999,0.0,0
2020-07-29,1.1847107410430908,1.1944214753335192,1.1652892724622343,1.1847107410430908,720000,0.0,0
2020-07-30,1.1847108063513148,1.1847108063513148,1.1652893366998327,1.1750000715255737,1204000,0.0,0
2020-07-31,1.1750000067526625,1.1847107410430908,1.155578538171806,1.1847107410430908,997952,0.0,0
2020-08-03,1.1750000171753332,1.1750000171753332,1.1652892827987673,1.165289282798767,508000,0.0,0
2020-08-04,1.1750000715255737,1.1750000715255737,1.1555786018740917,1.1750000715255737,772303,0.0,0
2020-08-05,1.1750000715255737,1.1750000715255737,1.1652893366998327,1.1750000715255737,665416,0.0,0
2020-08-06,1.1944214859284652,1.1944214859284652,1.1555785484222012,1.165289282798767,966000,0.0,0
2020-08-07,1.1652892899790426,1.1652892899790426,1.1361569709087522,1.1458677053451538,436000,0.0,0
2020-08-10,1.1458676982845502,1.1750000171753332,1.1361569639079843,1.165289282798767,670000,0.0,0
2020-08-11,1.1652893366998327,1.1847108063513148,1.1458677512872602,1.1750000715255737,772000,0.0,0
2020-08-12,1.1750000715255737,1.194421541177056,1.1555786018740917,1.1750000715255737,875000,0.0,0
2020-08-13,1.1847108063513148,1.1847108063513148,1.1750000715255737,1.1750000715255737,596000,0.0,0
2020-08-14,1.1944214859284652,1.204132220305031,1.1652892827987673,1.165289282798767,815294,0.0,0
2020-08-17,1.1750000171753332,1.1750000171753332,1.1458676982845502,1.165289282798767,1196000,0.0,0
2020-08-18,1.1458676982845502,1.1750000171753332,1.1458676982845502,1.165289282798767,428165,0.0,0
2020-08-19,1.1652892724622343,1.1847107410430908,1.1652892724622343,1.1847107410430908,386000,0.0,0
2020-08-20,1.184710751551899,1.184710751551899,1.1458676982845502,1.165289282798767,974667,0.0,0
2020-08-21,1.1652893482028492,1.1652893482028492,1.15557861328125,1.15557861328125,107400,0.0,0
2020-08-24,1.1847108063513148,1.1847108063513148,1.1652893366998327,1.1750000715255737,550000,0.0,0
2020-08-25,1.190000057220459,1.2000000476837158,1.1799999475479126,1.190000057220459,496000,0.035,0
2020-08-26,1.190000057220459,1.2000000476837158,1.1799999475479126,1.190000057220459,296000,0.0,0
2020-08-27,1.1799999475479126,1.2000000476837158,1.159999966621399,1.2000000476837158,146000,0.0,0
2020-08-28,1.2000000476837158,1.2000000476837158,1.159999966621399,1.190000057220459,286000,0.0,0
2020-08-31,1.2000000476837158,1.2000000476837158,1.1699999570846558,1.1699999570846558,235500,0.0,0
2020-09-01,1.1699999570846558,1.190000057220459,1.1699999570846558,1.1699999570846558,126000,0.0,0
2020-09-02,1.1699999570846558,1.1799999475479126,1.159999966621399,1.1799999475479126,135820,0.0,0
2020-09-03,1.1699999570846558,1.190000057220459,1.1699999570846558,1.190000057220459,60000,0.0,0
2020-09-04,1.159999966621399,1.1799999475479126,1.159999966621399,1.1799999475479126,176000,0.0,0
2020-09-07,1.1799999475479126,1.1799999475479126,1.1699999570846558,1.1699999570846558,36000,0.0,0
2020-09-08,1.1699999570846558,1.1699999570846558,1.159999966621399,1.1699999570846558,266666,0.0,0
2020-09-09,1.1699999570846558,1.1699999570846558,1.1699999570846558,1.1699999570846558,0,0.0,0
2020-09-10,1.159999966621399,1.1699999570846558,1.1299999952316284,1.159999966621399,78416,0.0,0
2020-09-11,1.149999976158142,1.159999966621399,1.149999976158142,1.159999966621399,124077,0.0,0
2020-09-14,1.1699999570846558,1.1699999570846558,1.159999966621399,1.159999966621399,263666,0.0,0
2020-09-15,1.159999966621399,1.1699999570846558,1.159999966621399,1.159999966621399,36000,0.0,0
2020-09-16,1.1699999570846558,1.1799999475479126,1.1699999570846558,1.1799999475479126,36000,0.0,0
2020-09-17,1.190000057220459,1.2100000381469727,1.1699999570846558,1.1799999475479126,294000,0.0,0
2020-09-18,1.1699999570846558,1.2000000476837158,1.1699999570846558,1.2000000476837158,319204,0.0,0
2020-09-21,1.159999966621399,1.2100000381469727,1.159999966621399,1.190000057220459,214000,0.0,0
2020-09-22,1.1799999475479126,1.1799999475479126,1.1699999570846558,1.1799999475479126,686000,0.0,0
2020-09-23,1.1699999570846558,1.1699999570846558,1.149999976158142,1.1699999570846558,141333,0.0,0
2020-09-24,1.159999966621399,1.159999966621399,1.1399999856948853,1.1399999856948853,410000,0.0,0
2020-09-25,1.1399999856948853,1.1399999856948853,1.1200000047683716,1.1299999952316284,121333,0.0,0
2020-09-28,1.1299999952316284,1.1299999952316284,1.1200000047683716,1.1200000047683716,76000,0.0,0
2020-09-29,1.1200000047683716,1.1200000047683716,1.1100000143051147,1.1200000047683716,42000,0.0,0
2020-09-30,1.1200000047683716,1.159999966621399,1.1200000047683716,1.159999966621399,778000,0.0,0
2020-10-05,1.1299999952316284,1.159999966621399,1.1299999952316284,1.159999966621399,580000,0.0,0
2020-10-06,1.159999966621399,1.159999966621399,1.1299999952316284,1.149999976158142,852000,0.0,0
2020-10-07,1.1399999856948853,1.1399999856948853,1.100000023841858,1.100000023841858,280000,0.0,0
2020-10-08,1.1299999952316284,1.1299999952316284,1.100000023841858,1.1100000143051147,240000,0.0,0
2020-10-09,1.1299999952316284,1.1399999856948853,1.1200000047683716,1.1399999856948853,528000,0.0,0
2020-10-12,1.1200000047683716,1.149999976158142,1.1100000143051147,1.1399999856948853,545666,0.0,0
2020-10-14,1.1200000047683716,1.1399999856948853,1.1200000047683716,1.1200000047683716,92000,0.0,0
2020-10-15,1.1200000047683716,1.1200000047683716,1.1100000143051147,1.1200000047683716,86000,0.0,0
2020-10-16,1.1299999952316284,1.1299999952316284,1.1299999952316284,1.1299999952316284,20000,0.0,0
2020-10-19,1.1399999856948853,1.1399999856948853,1.1299999952316284,1.1399999856948853,164000,0.0,0
2020-10-20,1.1200000047683716,1.1299999952316284,1.1100000143051147,1.1200000047683716,160000,0.0,0
2020-10-21,1.1100000143051147,1.1200000047683716,1.1100000143051147,1.1100000143051147,129820,0.0,0
2020-10-22,1.1100000143051147,1.1200000047683716,1.100000023841858,1.100000023841858,118000,0.0,0
2020-10-23,1.1200000047683716,1.1299999952316284,1.100000023841858,1.1299999952316284,424000,0.0,0
2020-10-27,1.1100000143051147,1.1200000047683716,1.100000023841858,1.100000023841858,181334,0.0,0
2020-10-28,1.100000023841858,1.1100000143051147,1.100000023841858,1.100000023841858,202000,0.0,0
2020-10-29,1.100000023841858,1.100000023841858,1.090000033378601,1.100000023841858,134005,0.0,0
2020-10-30,1.1100000143051147,1.1100000143051147,1.090000033378601,1.090000033378601,364000,0.0,0
2020-11-02,1.090000033378601,1.100000023841858,1.090000033378601,1.090000033378601,58000,0.0,0
2020-11-03,1.090000033378601,1.100000023841858,1.0800000429153442,1.100000023841858,135000,0.0,0
2020-11-04,1.090000033378601,1.149999976158142,1.090000033378601,1.1399999856948853,528000,0.0,0
2020-11-05,1.1200000047683716,1.1399999856948853,1.1100000143051147,1.1399999856948853,393157,0.0,0
2020-11-06,1.1200000047683716,1.1200000047683716,1.1100000143051147,1.1200000047683716,126000,0.0,0
2020-11-09,1.1200000047683716,1.1200000047683716,1.1100000143051147,1.1200000047683716,80000,0.0,0
2020-11-10,1.1299999952316284,1.1399999856948853,1.1100000143051147,1.1299999952316284,738000,0.0,0
2020-11-11,1.1200000047683716,1.149999976158142,1.1200000047683716,1.1399999856948853,480000,0.0,0
2020-11-12,1.1399999856948853,1.1399999856948853,1.1200000047683716,1.1299999952316284,405500,0.0,0
2020-11-13,1.1200000047683716,1.1299999952316284,1.1200000047683716,1.1299999952316284,82000,0.0,0
2020-11-16,1.1399999856948853,1.1399999856948853,1.1299999952316284,1.1399999856948853,154000,0.0,0
2020-11-17,1.1399999856948853,1.159999966621399,1.1200000047683716,1.159999966621399,318000,0.0,0
2020-11-18,1.1399999856948853,1.1399999856948853,1.1200000047683716,1.1299999952316284,222000,0.0,0
2020-11-19,1.1399999856948853,1.1399999856948853,1.1299999952316284,1.1399999856948853,90000,0.0,0
2020-11-20,1.149999976158142,1.149999976158142,1.1299999952316284,1.1399999856948853,254000,0.0,0
2020-11-23,1.1399999856948853,1.149999976158142,1.1200000047683716,1.149999976158142,449250,0.0,0
2020-11-24,1.1299999952316284,1.159999966621399,1.1299999952316284,1.1399999856948853,362000,0.0,0
2020-11-25,1.149999976158142,1.1699999570846558,1.1299999952316284,1.159999966621399,470962,0.0,0
2020-11-26,1.1399999856948853,1.159999966621399,1.1100000143051147,1.1299999952316284,546000,0.0,0
2020-11-27,1.1299999952316284,1.1299999952316284,1.1299999952316284,1.1299999952316284,2000,0.0,0
2020-11-30,1.1299999952316284,1.1399999856948853,1.0499999523162842,1.0499999523162842,720000,0.0,0
2020-12-01,1.0700000524520874,1.1100000143051147,1.0700000524520874,1.0800000429153442,688000,0.0,0
2020-12-02,1.090000033378601,1.1399999856948853,1.0800000429153442,1.1299999952316284,760000,0.0,0
2020-12-03,1.1399999856948853,1.1399999856948853,1.090000033378601,1.1299999952316284,14344,0.0,0
2020-12-04,1.100000023841858,1.100000023841858,1.090000033378601,1.090000033378601,32000,0.0,0
2020-12-07,1.090000033378601,1.1100000143051147,1.090000033378601,1.1100000143051147,87343,0.0,0
