Date,Open,High,Low,Close,Volume,Dividends,Stock Splits
2020-01-02,4.455321291356776,4.455321291356776,4.398444901272906,4.417403697967529,723000,0.0,0
2020-01-03,4.455321311950684,4.483759733130754,4.38896574921947,4.455321311950684,814000,0.0,0
2020-01-06,4.4553214191893975,4.4553214191893975,4.265733446803484,4.407924652099609,673000,0.0,0
2020-01-07,4.436362705799044,4.436362705799044,4.332089545022696,4.360527515411377,784000,0.0,0
2020-01-08,4.3131308375634,4.3320896355565255,4.275213241577148,4.275213241577148,1018000,0.0,0
2020-01-09,4.351048395844013,4.351048395844013,3.725407389472491,3.7822837829589844,16077000,0.0,0
2020-01-10,3.6969689576665345,3.782283542471756,3.5737365536078642,3.5832159519195557,18810000,0.0,0
2020-01-13,3.621133462891846,3.791762854632163,3.621133462891846,3.649571657180786,9672000,0.0,0
2020-01-14,3.6874895201522695,3.7538453076286644,3.6780101219413557,3.7064483165740967,4704000,0.0,0
2020-01-15,3.7348866262997067,3.753845423305761,3.6780102352815436,3.6969690322875977,3003000,0.0,0
2020-01-16,3.7064483165740967,3.763324705839578,3.6780101219413557,3.7064483165740967,7999000,0.0,0
2020-01-17,3.753845225826641,3.8391600338724037,3.659051019776535,3.772804021835327,11554000,0.0,0
2020-01-20,3.810721613852699,3.8202012378637176,3.744365827822298,3.772804021835327,1314000,0.0,0
2020-01-21,3.7822834198396698,3.85811882988109,3.734886429817955,3.772804021835327,3417000,0.0,0
2020-01-22,3.820201536984029,3.9339543219429443,3.7822837159910305,3.886557102203369,2420000,0.0,0
2020-01-23,3.8770777976307036,3.9055157668967593,3.763324790533053,3.839160203933716,1680000,0.0,0
2020-01-24,3.8486393964886436,3.896036614864563,3.8012426301260986,3.87707781791687,760000,0.0,0
2020-01-29,3.84863945901256,3.84863945901256,3.744366074106253,3.7917630672454834,1831797,0.0,0
2020-01-30,3.801242778746717,3.820201576435659,3.715927963139782,3.725407361984253,2026000,0.0,0
2020-01-31,3.725407276850561,3.8107218645011756,3.725407276850561,3.7917630672454834,1580000,0.0,0
2020-02-03,3.7633247805409846,3.8202013969421387,3.6969689917474375,3.8202013969421387,2137202,0.0,0
2020-02-04,3.839160193740295,3.9055157565271568,3.782283577339141,3.8202013969421387,2745355,0.0,0
2020-02-05,3.8012426001439823,3.839160193740295,3.7728041789400626,3.8202013969421387,2674000,0.0,0
2020-02-06,3.8391603250485975,3.933954312281556,3.829680700318609,3.867598295211792,3321000,0.0,0
2020-02-07,3.867598448813056,3.9339544685181425,3.8486396506135176,3.9149956703186035,2570000,0.0,0
2020-02-10,3.848639535027356,4.000309916068548,3.8391603622189767,3.9434335231781006,2240000,0.0,0
2020-02-11,3.94343318345948,3.971871603461487,3.8865567954688163,3.9529128074645996,1825000,0.0,0
2020-02-12,3.9813508987426753,4.009789319625328,3.943433305574716,3.981350898742676,1851687,0.0,0
2020-02-13,4.009789340391432,4.01926851272583,3.9718717470271026,4.01926851272583,1459000,0.0,0
2020-02-14,3.990830659866333,4.038227878957971,3.9718718626323537,3.990830659866333,1419000,0.0,0
2020-02-17,3.9718717160248724,4.009789309093238,3.9055157021485507,3.9623920917510986,1268000,0.0,0
2020-02-18,3.981351264449351,4.009789687944212,3.9529132929678967,3.971872091293335,1168000,0.0,0
2020-02-19,3.962392178174801,3.9718718026553343,3.87707781791687,3.87707781791687,1431000,0.0,0
2020-02-20,3.867598173199771,3.9055157668967593,3.8107217826542885,3.839160203933716,2272000,0.0,0
2020-02-21,3.8391602039337154,3.867598173199771,3.7822835873815475,3.839160203933716,1895000,0.0,0
2020-02-24,3.8391602664770934,3.8391602664770934,3.7348866561049787,3.753845453262329,1149000,0.0,0
2020-02-25,3.763324841931897,3.801242662153446,3.734886646270752,3.734886646270752,1801000,0.0,0
2020-02-26,3.7064484307906254,3.744366024802734,3.6590512122688015,3.6969690322875977,1582000,0.0,0
2020-02-27,3.69696916545084,3.725407361984253,3.6400925463773177,3.725407361984253,1088000,0.0,0
2020-02-28,3.678010298280674,3.7159278929422572,3.5832160856200233,3.611654281616211,3213000,0.0,0
2020-03-02,3.630612984628463,3.678010202730817,3.630612984628463,3.6590511798858643,1408000,0.0,0
2020-03-03,3.696969022250603,3.7443660146370594,3.6780102252960205,3.6780102252960205,829000,0.0,0
2020-03-04,3.7822836390393273,3.7822836390393273,3.6211336376194825,3.734886646270752,767000,0.0,0
2020-03-05,3.7254071443856853,3.7728041358396136,3.6969689495133284,3.763324737548828,627000,0.0,0
2020-03-06,3.7538454532623287,3.810721844734379,3.706448460368954,3.753845453262329,910700,0.0,0
2020-03-09,3.6116540540529734,3.6685304424616794,3.602174655984856,3.630612850189209,802000,0.0,0
2020-03-10,3.516860275948186,3.6021748634754918,3.507380877334041,3.5737366676330566,1219585,0.0,0
2020-03-11,3.602174969717353,3.659051363079725,3.5263397785675235,3.5452985763549805,771000,0.0,0
2020-03-12,3.488421987832362,3.497901386195764,3.365189583101446,3.4220659732818604,1336000,0.0,0
2020-03-13,3.2609162627812953,3.3936278423790487,3.08080746446337,3.3177926540374756,3587000,0.0,0
2020-03-16,3.270395674549326,3.270395674549326,3.1092456726651108,3.137683868408203,1245000,0.0,0
2020-03-17,3.09976612985995,3.204039735406398,3.042889741020076,3.0902867317199707,1054000,0.0,0
2020-03-18,3.042889791871156,3.2419573821441,2.9480955828805393,2.967054605484009,684000,0.0,0
2020-03-19,3.0428900318198675,3.0428900318198675,2.474125411045979,2.730069637298584,3585000,0.0,0
2020-03-20,2.474125434748464,2.8438224530935785,2.474125434748464,2.7869460582733154,1635000,0.0,0
2020-03-23,2.7869458502544826,2.8533016392586315,2.6257958509520067,2.8438222408294678,1167000,0.0,0
2020-03-24,2.8627811797358698,3.147163372728213,2.8627811797358698,3.109245777130127,3180000,0.0,0
2020-03-25,3.118725051466872,3.185080841113254,3.0808074573832256,3.099766254425049,1537000,0.0,0
2020-03-26,3.052369221926587,3.2609162126676603,3.052369221926587,3.22299861907959,955000,0.0,0
2020-03-27,3.3177925924901817,3.3177925924901817,3.2040398120880127,3.2040398120880127,696713,0.0,0
2020-03-30,3.2609162229248367,3.2798750197785065,3.185080809503471,3.241957426071167,884000,0.0,0
2020-03-31,3.317792540106794,3.355710132975517,3.289354345455252,3.3272719383239746,962000,0.0,0
2020-04-01,3.327272081881329,3.3936278722645588,3.317792683255153,3.374669075012207,1478000,0.0,0
2020-04-02,3.317792560923839,3.4315453402437344,3.298833764370523,3.365189552307129,1680000,0.0,0
2020-04-03,3.365189572951044,3.4884219773102547,3.365189572951044,3.403107166290283,1943000,0.0,0
2020-04-06,3.4125866889953613,3.4789427057640303,3.374669094274232,3.4125866889953613,1220000,0.0,0
2020-04-07,3.3936279411866024,3.54529854829242,3.374669143549212,3.488422155380249,1206000,0.0,0
2020-04-08,3.4220659141501413,3.51686012215285,3.4220659141501413,3.507380723953247,872000,0.0,0
2020-04-09,3.51686012215285,3.5547777149512614,3.497901325753644,3.507380723953247,293000,0.0,0
2020-04-14,3.507380980780066,3.564257374142438,3.441025188523965,3.5452985763549805,1225000,0.0,0
2020-04-15,3.6021748634754918,3.630613059317927,3.545298471790621,3.5737366676330566,1288000,0.0,0
2020-04-16,3.5832159724388104,3.7443659706670696,3.56425717570686,3.62113356590271,368000,0.0,0
2020-04-17,3.621133462891846,3.659051055277099,3.5358188800250265,3.649571657180786,3043000,0.0,0
2020-04-20,3.6306127935713093,3.715927600860596,3.602174599810438,3.7159276008605957,1442000,0.0,0
2020-04-21,3.7064484307906254,3.763324821808788,3.687489633784571,3.6969690322875977,496000,0.0,0
2020-04-22,3.6969689077662617,3.7348865005012297,3.6874895095825195,3.6874895095825195,217300,0.0,0
2020-04-23,3.7254072277966794,3.7254072277966794,3.687489633784571,3.6969690322875977,442000,0.0,0
2020-04-24,3.706448337499526,3.763324727086114,3.706448337499526,3.744365930557251,657000,0.0,0
2020-04-27,3.8391602863914045,3.8391602863914045,3.744366074106253,3.7917630672454834,515000,0.0,0
2020-04-28,3.8296806617568677,3.8391602863914045,3.6969690809670226,3.7917630672454834,1778000,0.0,0
2020-04-29,3.8391602863914045,3.8202014891357123,3.744366074106253,3.7917630672454834,2109000,0.0,0
2020-05-04,3.744366074106253,3.7917630672454834,3.6969690809670226,3.7917630672454834,1097000,0.0,0
2020-05-05,3.8107218645011756,3.8391602863914045,3.7917630672454834,3.7917630672454834,587000,0.0,0
2020-05-06,3.7728042699897912,3.8296806617568677,3.7728042699897912,3.7917630672454834,586000,0.0,0
2020-05-07,3.7917630672454834,3.80124269188002,3.753845472734099,3.7917630672454834,566000,0.0,0
2020-05-08,3.7917630672454834,3.80124269188002,3.763324871361945,3.7917630672454834,842000,0.0,0
2020-05-11,3.7917630672454834,3.80124269188002,3.7728042699897912,3.7917630672454834,648000,0.0,0
2020-05-12,3.744366054683654,3.782283648998354,3.744366054683654,3.753845453262329,674000,0.0,0
2020-05-13,3.7538453720755864,3.801242589950562,3.706448380207296,3.8012425899505615,791000,0.0,0
2020-05-14,3.7822836686176373,3.7917630672454834,3.734886675478407,3.7917630672454834,968000,0.0,0
2020-05-15,3.753845225826641,3.7728040218353267,3.668530417780878,3.772804021835327,901000,0.0,0
2020-05-18,3.7254069987808864,3.7633245904620476,3.715927600860596,3.7159276008605957,585000,0.0,0
2020-05-19,3.706448397988218,3.734886593245619,3.659051179885864,3.6590511798858643,656000,0.0,0
2020-05-20,3.611654252170138,3.6400924479344665,3.53581906346526,3.5547778606414795,799335,0.0,0
2020-05-21,3.611654252170138,3.6874896668817048,3.5547778606414795,3.5547778606414795,109000,0.0,0
2020-05-22,3.5452982889919116,3.5452982889919116,3.2703955173492427,3.270395517349243,547000,0.0,0
2020-05-25,3.2609162627812953,3.4031072409217455,3.1850808484330333,3.3177926540374756,289000,0.0,0
2020-05-26,3.3462308982333844,3.4789427057640303,3.3462308982333844,3.4125866889953613,271000,0.0,0
2020-05-27,3.469463277211285,3.497901473007276,3.3083132750273108,3.35571026802063,540000,0.0,0
2020-05-28,3.412586747723819,3.412586747723819,3.2419575685423148,3.2893545627593994,519000,0.0,0
2020-05-29,3.232477951963681,3.3746689250371484,3.1282043457031246,3.128204345703125,968000,0.0,0
2020-06-01,3.222998588098461,3.4220659525222934,3.222998588098461,3.384148359298706,1045000,0.0,0
2020-06-02,3.4410249429368247,3.4410249429368247,3.289354345455252,3.3272719383239746,295000,0.0,0
2020-06-03,3.4031070911045482,3.4031070911045482,3.2703955173492427,3.270395517349243,340000,0.0,0
2020-06-04,3.3557101222670522,3.3841483168278446,3.2419573440238816,3.3083131313323975,365000,0.0,0
2020-06-05,3.3278315067291264,3.405903723721485,3.3083134524810367,3.327831506729126,320034,0.1,0
2020-06-08,3.3863856792449956,3.4351808150060203,3.366867624940585,3.386385679244995,426000,0.0,0
2020-06-09,3.4059035653095533,3.444939671990125,3.3473494052886963,3.3473494052886963,638000,0.0,0
2020-06-10,3.3473495658488126,3.3961447015400514,3.327831511572317,3.3571085929870605,267424,0.0,0
2020-06-11,3.357108588101261,3.386385669473395,3.3083134524810367,3.327831506729126,241000,0.0,0
2020-06-12,3.2790361335784524,3.3083134475807814,3.2790361335784524,3.2985544204711914,253000,0.0,0
2020-06-15,3.298554319724326,3.337590426970416,3.2204818725585938,3.2204818725585938,493000,0.0,0
2020-06-16,3.2302409220373938,3.327831423510984,3.2302409220373938,3.3083133697509766,264000,0.0,0
2020-06-17,3.259517991382092,3.3766265462098697,3.249758964535907,3.279036045074463,834000,0.0,0
2020-06-18,3.259518088931023,3.3961447015400514,3.259518088931023,3.3571085929870605,510000,0.0,0
2020-06-19,3.3961445747745707,3.562048262605773,3.3961445747745707,3.5230119228363037,626000,0.0,0
2020-06-22,3.464457805662504,3.464457805662504,3.3180724022160506,3.337590456008911,471000,0.0,0
2020-06-23,3.415662647583252,3.425421674412262,3.2204818783294984,3.2497589588165283,514000,0.0,0
2020-06-24,3.3180723733473707,3.337590426970416,3.1912047921240263,3.2204818725585938,919000,0.0,0
2020-06-26,3.269277063934247,3.269277063934247,3.074096524281828,3.0936145782470703,1028000,0.0,0
2020-06-29,3.083855608934553,3.2009639349160057,2.966747050279539,2.9960241317749023,1377000,0.0,0
2020-06-30,3.1033736105065755,3.15216874550265,3.0155421348400844,3.122891664505005,561000,0.0,0
2020-07-02,3.083855633496672,3.249759096625109,3.0740966062538226,3.1131327152252197,903000,0.0,0
2020-07-03,3.1716868047939406,3.1814458318094414,3.113132642700937,3.1521687507629395,137000,0.0,0
2020-07-06,3.1521688418762785,3.288795224042468,3.1424098145786936,3.230241060256958,383000,0.0,0
2020-07-07,3.298554492769883,3.3766267113578112,3.240000096155372,3.288795232772827,871000,0.0,0
2020-07-08,3.298554484013617,3.308313511311202,3.220482032959373,3.230241060256958,527000,0.0,0
2020-07-09,3.2497590570632076,3.3668676152253054,3.2009639214429835,3.327831506729126,758000,0.0,0
2020-07-10,3.3473495292297035,3.3473495292297035,3.1716868099893873,3.181445837020874,1494000,0.0,0
2020-07-13,3.2985544204711914,3.2985544204711914,3.1228916998250154,3.2985544204711914,1328000,0.0,0
2020-07-14,3.279036112609076,3.366867588707263,3.181445842137266,3.2107229232788086,751000,0.0,0
2020-07-15,3.3083133280861143,3.3083133280861143,3.113132560270593,3.13265061378479,632000,0.0,0
2020-07-16,3.2595180313033336,3.2595180313033336,3.0253011514527404,3.0643374919891357,773000,0.0,0
2020-07-17,3.005783173966251,3.2692771414153152,2.9765060923245286,3.0545785427093506,1654000,0.0,0
2020-07-20,3.0643374026281993,3.093614482671563,3.0448191165924077,3.0448191165924072,474000,0.0,0
2020-07-21,3.0740965817694317,3.093614636099674,2.956988023114418,2.9960241317749023,762000,0.0,0
2020-07-22,3.0350601504199624,3.0448191772956448,2.9277108547874526,2.9472289085388184,766000,0.0,0
2020-07-23,2.9569878764623168,3.054578375947078,2.9277107964189533,3.0448191165924072,761000,0.0,0
2020-07-24,2.9667471195512007,2.976506146944189,2.8886749004072954,2.927711009979248,883000,0.0,0
2020-07-27,2.8301205693109286,2.996024025217415,2.8301205693109286,2.8593976497650146,605000,0.0,0
2020-07-28,2.859397805907318,2.898433915311066,2.830120723854507,2.8398797512054443,455000,0.0,0
2020-07-29,2.8301207196201816,2.878915856301861,2.8106026649475098,2.8106026649475098,590000,0.0,0
2020-07-30,2.8203615367090644,2.9081927778912027,2.8203615367090644,2.83012056350708,584000,0.0,0
2020-07-31,2.839879759445788,2.8984339237213135,2.839879759445788,2.8984339237213135,213000,0.0,0
2020-08-03,2.839879618278729,3.025301129267476,2.839879618278729,2.976505994796753,1471000,0.0,0
2020-08-04,2.976506082130416,3.181445885594145,2.976506082130416,3.025301218032837,755000,0.0,0
2020-08-05,2.986265021690898,3.064337469517609,2.9765059947967534,2.976505994796753,762000,0.0,0
2020-08-06,3.132650645805144,3.132650645805144,2.917951822280884,2.917951822280884,725874,0.0,0
2020-08-07,3.171686837838404,3.171686837838404,2.8984338458839227,2.9081928730010986,271923,0.0,0
2020-08-10,2.8984338458839227,2.9862650899385046,2.888674818766747,2.9081928730010986,360000,0.0,0
2020-08-11,2.917951900118274,2.9472289814698014,2.908192873001098,2.9081928730010986,373000,0.0,0
2020-08-12,2.927710837491215,2.927710837491215,2.8496386229469857,2.8593976497650146,688000,0.0,0
2020-08-13,2.8886747242951722,2.8886747242951722,2.8203615367090644,2.83012056350708,1347000,0.0,0
2020-08-14,2.8398797512054443,2.859397805907318,2.830120723854507,2.8398797512054443,212000,0.0,0
2020-08-17,2.869156833258255,2.937470024714814,2.82036169650357,2.8398797512054443,777000,0.0,0
2020-08-18,2.878915720409039,2.947228908538818,2.8496386397819915,2.9472289085388184,460000,0.0,0
2020-08-19,3.0253011932513223,3.0253011932513223,2.8691567596426197,2.878915786743164,184000,0.0,0
2020-08-20,2.878915725855307,2.9765059947967534,2.8691566989611625,2.976505994796753,176000,0.0,0
2020-08-21,2.839879618278729,2.9765059947967534,2.839879618278729,2.976505994796753,184000,0.0,0
2020-08-24,2.9765061096530787,3.171686887741089,2.9277109732994666,3.171686887741089,1278000,0.0,0
2020-08-25,3.2204820195384793,3.2497591013092264,3.103373692455492,3.1424098014831543,1481000,0.0,0
2020-08-26,3.13265061378479,3.210722827841578,3.113132560270593,3.13265061378479,1963000,0.0,0
2020-08-27,3.1326506197159976,3.1814457535938763,3.113132566164846,3.1619277000427246,1249000,0.0,0
2020-08-28,3.161927711689459,3.2204818725585938,3.122891604443369,3.2204818725585938,1885000,0.0,0
2020-08-31,3.220482028567577,3.2400000831361297,3.171686892146194,3.2009639739990234,420000,0.0,0
2020-09-01,3.2204819554115596,3.3083134316484446,3.2204819554115596,3.240000009536743,670000,0.0,0
2020-09-02,3.319999933242798,3.3399999141693115,3.2100000381469727,3.2300000190734863,1513000,0.08,0
2020-09-03,3.3399999141693115,3.3399999141693115,3.25,3.299999952316284,920145,0.0,0
2020-09-04,3.299999952316284,3.4100000858306885,3.2699999809265137,3.359999895095825,1313000,0.0,0
2020-09-07,3.450000047683716,3.4600000381469727,3.369999885559082,3.4200000762939453,702966,0.0,0
2020-09-08,3.4700000286102295,3.549999952316284,3.4700000286102295,3.5199999809265137,598000,0.0,0
2020-09-09,3.5,3.559999942779541,3.440000057220459,3.5399999618530273,1310172,0.0,0
2020-09-10,3.5399999618530273,3.5999999046325684,3.5199999809265137,3.549999952316284,1866000,0.0,0
2020-09-11,3.5799999237060547,3.5799999237060547,3.5,3.569999933242798,881000,0.0,0
2020-09-14,3.569999933242798,3.5999999046325684,3.5299999713897705,3.549999952316284,1027000,0.0,0
2020-09-15,3.5799999237060547,3.5799999237060547,3.4800000190734863,3.549999952316284,1185000,0.0,0
2020-09-16,3.5,3.549999952316284,3.4800000190734863,3.5399999618530273,881000,0.0,0
2020-09-17,3.5,3.5,3.359999895095825,3.4000000953674316,644000,0.0,0
2020-09-18,3.4100000858306885,3.440000057220459,3.369999885559082,3.369999885559082,233000,0.0,0
2020-09-21,3.4000000953674316,3.4600000381469727,3.369999885559082,3.390000104904175,878000,0.0,0
2020-09-22,3.3399999141693115,3.4000000953674316,3.3299999237060547,3.4000000953674316,806000,0.0,0
2020-09-23,3.3499999046325684,3.3499999046325684,3.25,3.299999952316284,514000,0.0,0
2020-09-24,3.299999952316284,3.319999933242798,3.2799999713897705,3.299999952316284,1329000,0.0,0
2020-09-25,3.299999952316284,3.299999952316284,3.2100000381469727,3.2899999618530273,854000,0.0,0
2020-09-28,3.240000009536743,3.380000114440918,3.240000009536743,3.3499999046325684,819000,0.0,0
2020-09-29,3.2899999618530273,3.4000000953674316,3.2899999618530273,3.359999895095825,566000,0.0,0
2020-09-30,3.3299999237060547,3.3499999046325684,3.319999933242798,3.3399999141693115,395000,0.0,0
2020-10-05,3.3399999141693115,3.380000114440918,3.3299999237060547,3.3399999141693115,352000,0.0,0
2020-10-06,3.3299999237060547,3.359999895095825,3.319999933242798,3.359999895095825,881000,0.0,0
2020-10-07,3.5799999237060547,3.5799999237060547,3.319999933242798,3.390000104904175,259000,0.0,0
2020-10-08,3.319999933242798,3.4000000953674316,3.2699999809265137,3.4000000953674316,1500000,0.0,0
2020-10-09,3.390000104904175,3.390000104904175,3.3399999141693115,3.380000114440918,331000,0.0,0
2020-10-12,3.3299999237060547,3.390000104904175,3.3299999237060547,3.390000104904175,460000,0.0,0
2020-10-14,3.299999952316284,3.380000114440918,3.2300000190734863,3.240000009536743,981000,0.0,0
2020-10-15,3.380000114440918,3.380000114440918,3.2799999713897705,3.3299999237060547,923000,0.0,0
2020-10-16,3.3299999237060547,3.3299999237060547,3.2699999809265137,3.319999933242798,412797,0.0,0
2020-10-19,3.3499999046325684,3.3499999046325684,3.2100000381469727,3.299999952316284,918000,0.0,0
2020-10-20,3.2300000190734863,3.299999952316284,3.2300000190734863,3.259999990463257,536000,0.0,0
2020-10-21,3.299999952316284,3.319999933242798,3.2300000190734863,3.259999990463257,789000,0.0,0
2020-10-22,3.2200000286102295,3.380000114440918,3.2200000286102295,3.3499999046325684,4410000,0.0,0
2020-10-23,3.309999942779541,3.359999895095825,3.2300000190734863,3.240000009536743,675000,0.0,0
2020-10-27,3.25,3.25,3.1700000762939453,3.1700000762939453,907000,0.0,0
2020-10-28,3.2300000190734863,3.25,3.109999895095825,3.1600000858306885,1262000,0.0,0
2020-10-29,3.180000066757202,3.180000066757202,3.059999942779541,3.1500000953674316,1238000,0.0,0
2020-10-30,3.1500000953674316,3.1500000953674316,3.0199999809265137,3.049999952316284,588000,0.0,0
2020-11-02,3.0,3.0399999618530273,2.990000009536743,3.0399999618530273,858000,0.0,0
2020-11-03,3.0399999618530273,3.059999942779541,2.950000047683716,2.950000047683716,828000,0.0,0
2020-11-04,2.950000047683716,3.0199999809265137,2.940000057220459,3.0199999809265137,536551,0.0,0
2020-11-05,3.0199999809265137,3.049999952316284,3.009999990463257,3.049999952316284,565000,0.0,0
2020-11-06,3.059999942779541,3.059999942779541,3.009999990463257,3.049999952316284,176000,0.0,0
2020-11-09,3.0399999618530273,3.0799999237060547,3.0199999809265137,3.059999942779541,256000,0.0,0
2020-11-10,3.059999942779541,3.0999999046325684,3.0299999713897705,3.059999942779541,1171000,0.0,0
2020-11-11,3.069999933242798,3.109999895095825,3.059999942779541,3.109999895095825,364000,0.0,0
2020-11-12,3.119999885559082,3.240000009536743,3.119999885559082,3.2300000190734863,220000,0.0,0
2020-11-13,3.2300000190734863,3.2300000190734863,3.1600000858306885,3.190000057220459,252000,0.0,0
2020-11-16,3.2300000190734863,3.2300000190734863,3.130000114440918,3.190000057220459,214000,0.0,0
2020-11-17,3.25,3.25,3.180000066757202,3.200000047683716,280000,0.0,0
2020-11-18,3.25,3.25,3.190000057220459,3.2100000381469727,441000,0.0,0
2020-11-19,3.2100000381469727,3.2100000381469727,3.130000114440918,3.140000104904175,141000,0.0,0
2020-11-20,3.190000057220459,3.2200000286102295,3.1700000762939453,3.1700000762939453,209000,0.0,0
2020-11-23,3.200000047683716,3.5,3.1500000953674316,3.309999942779541,347000,0.0,0
2020-11-24,3.200000047683716,3.2799999713897705,3.200000047683716,3.2300000190734863,429000,0.0,0
2020-11-25,3.2300000190734863,3.259999990463257,3.0999999046325684,3.0999999046325684,914000,0.0,0
2020-11-26,3.1700000762939453,3.1700000762939453,3.0799999237060547,3.0799999237060547,41983,0.0,0
2020-11-27,3.0799999237060547,3.0999999046325684,3.0299999713897705,3.0299999713897705,808000,0.0,0
2020-11-30,3.0299999713897705,3.0799999237060547,3.0,3.0799999237060547,1928000,0.0,0
2020-12-01,3.009999990463257,3.130000114440918,3.009999990463257,3.0999999046325684,570017,0.0,0
2020-12-02,3.140000104904175,3.1500000953674316,3.0799999237060547,3.0999999046325684,204000,0.0,0
2020-12-03,3.140000104904175,3.140000104904175,3.0799999237060547,3.119999885559082,354000,0.0,0
2020-12-04,3.130000114440918,3.130000114440918,3.0299999713897705,3.119999885559082,1165000,0.0,0
2020-12-07,3.130000114440918,3.130000114440918,3.0799999237060547,3.119999885559082,349000,0.0,0
