Date,Open,High,Low,Close,Volume,Dividends,Stock Splits
2020-01-02,2.7799999713897705,2.799999952316284,2.7200000286102295,2.7799999713897705,3782500,0,0
2020-01-03,2.859999895095825,2.869999885559082,2.7200000286102295,2.7300000190734863,6180500,0,0
2020-01-06,2.759999990463257,2.7899999618530273,2.6500000953674316,2.7300000190734863,5536306,0,0
2020-01-07,2.7699999809265137,2.7699999809265137,2.7100000381469727,2.75,4718500,0,0
2020-01-08,2.7200000286102295,2.7200000286102295,2.5799999237060547,2.640000104904175,7841000,0,0
2020-01-09,2.690000057220459,2.690000057220459,2.5999999046325684,2.609999895095825,10020000,0,0
2020-01-10,2.609999895095825,2.630000114440918,2.5199999809265137,2.5399999618530273,13150000,0,0
2020-01-13,2.549999952316284,2.7100000381469727,2.5399999618530273,2.6500000953674316,18047500,0,0
2020-01-14,2.700000047683716,2.740000009536743,2.630000114440918,2.6600000858306885,11851000,0,0
2020-01-15,2.680000066757202,2.690000057220459,2.569999933242798,2.619999885559082,19983000,0,0
2020-01-16,2.640000104904175,2.7799999713897705,2.640000104904175,2.6700000762939453,37524500,0,0
2020-01-17,2.700000047683716,2.7200000286102295,2.609999895095825,2.630000114440918,13082000,0,0
2020-01-20,2.6600000858306885,2.6600000858306885,2.5399999618530273,2.5399999618530273,11938000,0,0
2020-01-21,2.5399999618530273,2.5399999618530273,2.4000000953674316,2.4100000858306885,13674500,0,0
2020-01-22,2.440000057220459,2.4700000286102295,2.4000000953674316,2.430000066757202,5268856,0,0
2020-01-23,2.430000066757202,2.440000057220459,2.3399999141693115,2.3499999046325684,13743500,0,0
2020-01-24,2.3499999046325684,2.359999895095825,2.2799999713897705,2.3499999046325684,4587500,0,0
2020-01-29,2.240000009536743,2.240000009536743,2.119999885559082,2.140000104904175,10647600,0,0
2020-01-30,2.1500000953674316,2.1600000858306885,2.049999952316284,2.059999942779541,6715500,0,0
2020-01-31,2.0799999237060547,2.119999885559082,2.0399999618530273,2.0899999141693115,5194503,0,0
2020-02-03,2.0799999237060547,2.1500000953674316,2.0,2.119999885559082,12556060,0,0
2020-02-04,2.0899999141693115,2.1500000953674316,2.0799999237060547,2.119999885559082,4327578,0,0
2020-02-05,2.130000114440918,2.2899999618530273,2.0999999046325684,2.2799999713897705,14428000,0,0
2020-02-06,2.2699999809265137,2.3299999237060547,2.2100000381469727,2.2799999713897705,7480000,0,0
2020-02-07,2.319999933242798,2.319999933242798,2.180000066757202,2.2100000381469727,4035500,0,0
2020-02-10,2.1600000858306885,2.2699999809265137,2.1500000953674316,2.25,4120500,0,0
2020-02-11,2.25,2.299999952316284,2.25,2.2699999809265137,4601000,0,0
2020-02-12,2.259999990463257,2.3299999237060547,2.240000009536743,2.299999952316284,4687060,0,0
2020-02-13,2.3299999237060547,2.3299999237060547,2.25,2.25,2471390,0,0
2020-02-14,2.2899999618530273,2.319999933242798,2.25,2.2699999809265137,4735500,0,0
2020-02-17,2.2699999809265137,2.4100000858306885,2.2699999809265137,2.359999895095825,6192500,0,0
2020-02-18,2.359999895095825,2.4000000953674316,2.299999952316284,2.3299999237060547,2930500,0,0
2020-02-19,2.380000114440918,2.4600000381469727,2.359999895095825,2.430000066757202,7954000,0,0
2020-02-20,2.4600000381469727,2.4800000190734863,2.4100000858306885,2.4600000381469727,5458000,0,0
2020-02-21,2.4600000381469727,2.509999990463257,2.4100000858306885,2.430000066757202,7604000,0,0
2020-02-24,2.4800000190734863,2.4800000190734863,2.2799999713897705,2.299999952316284,8175000,0,0
2020-02-25,2.3299999237060547,2.380000114440918,2.2100000381469727,2.3299999237060547,8122000,0,0
2020-02-26,2.299999952316284,2.380000114440918,2.259999990463257,2.2799999713897705,15260500,0,0
2020-02-27,2.3399999141693115,2.3399999141693115,2.2699999809265137,2.299999952316284,10583000,0,0
2020-02-28,2.2899999618530273,2.2899999618530273,2.1600000858306885,2.1600000858306885,13480000,0,0
2020-03-02,2.2100000381469727,2.240000009536743,2.140000104904175,2.140000104904175,11255000,0,0
2020-03-03,2.200000047683716,2.240000009536743,2.119999885559082,2.1600000858306885,12424440,0,0
2020-03-04,2.180000066757202,2.180000066757202,2.0999999046325684,2.109999895095825,10273000,0,0
2020-03-05,2.130000114440918,2.1500000953674316,2.059999942779541,2.109999895095825,17554130,0,0
2020-03-06,2.0899999141693115,2.0999999046325684,2.049999952316284,2.0999999046325684,8811705,0,0
2020-03-09,2.0399999618530273,2.059999942779541,1.940000057220459,1.940000057220459,9946630,0,0
2020-03-10,1.9299999475479126,1.9900000095367432,1.8300000429153442,1.9900000095367432,10402500,0,0
2020-03-11,1.9900000095367432,2.0,1.8700000047683716,1.8799999952316284,7092500,0,0
2020-03-12,1.8300000429153442,1.8600000143051147,1.7699999809265137,1.7999999523162842,9159000,0,0
2020-03-13,1.6799999475479126,1.75,1.600000023841858,1.7000000476837158,26233000,0,0
2020-03-16,1.6799999475479126,1.6799999475479126,1.590000033378601,1.6299999952316284,10840440,0,0
2020-03-17,1.590000033378601,1.6200000047683716,1.4900000095367432,1.5399999618530273,14316000,0,0
2020-03-18,1.5399999618530273,1.5800000429153442,1.4199999570846558,1.4500000476837158,10814500,0,0
2020-03-19,1.4500000476837158,1.4500000476837158,1.2999999523162842,1.340000033378601,16986000,0,0
2020-03-20,1.3600000143051147,1.3600000143051147,1.2699999809265137,1.2999999523162842,22312910,0,0
2020-03-23,1.2300000190734863,1.2799999713897705,1.1699999570846558,1.2200000286102295,17010500,0,0
2020-03-24,1.2599999904632568,1.3700000047683716,1.2300000190734863,1.3300000429153442,22504570,0,0
2020-03-25,1.3700000047683716,1.4299999475479126,1.340000033378601,1.3700000047683716,11483180,0,0
2020-03-26,1.3700000047683716,1.3899999856948853,1.3300000429153442,1.3600000143051147,8651500,0,0
2020-03-27,1.399999976158142,1.440000057220459,1.3799999952316284,1.3899999856948853,10311790,0,0
2020-03-30,1.350000023841858,1.3799999952316284,1.2899999618530273,1.309999942779541,5927500,0,0
2020-03-31,1.2899999618530273,1.309999942779541,1.2200000286102295,1.2400000095367432,13644500,0,0
2020-04-01,1.25,1.2599999904632568,1.1799999475479126,1.2400000095367432,12137800,0,0
2020-04-02,1.2300000190734863,1.2300000190734863,1.100000023841858,1.1200000047683716,10228500,0,0
2020-04-03,1.1399999856948853,1.1399999856948853,1.0,1.0499999523162842,16831010,0,0
2020-04-06,1.0499999523162842,1.159999966621399,1.0099999904632568,1.159999966621399,9420444,0,0
2020-04-07,1.159999966621399,1.2200000286102295,1.159999966621399,1.1799999475479126,12437020,0,0
2020-04-08,1.190000057220459,1.2200000286102295,1.149999976158142,1.190000057220459,6995600,0,0
2020-04-09,1.2300000190734863,1.2799999713897705,1.190000057220459,1.2699999809265137,14903000,0,0
2020-04-14,1.2799999713897705,1.2999999523162842,1.2100000381469727,1.2300000190734863,8063555,0,0
2020-04-15,1.25,1.2699999809265137,1.0800000429153442,1.100000023841858,31191600,0,0
2020-04-16,1.100000023841858,1.159999966621399,1.0800000429153442,1.1399999856948853,8766000,0,0
2020-04-17,1.1699999570846558,1.190000057220459,1.1399999856948853,1.149999976158142,6546000,0,0
2020-04-20,1.1699999570846558,1.2300000190734863,1.1699999570846558,1.1699999570846558,3730500,0,0
2020-04-21,1.1699999570846558,1.1699999570846558,1.100000023841858,1.1299999952316284,6668000,0,0
2020-04-22,1.1299999952316284,1.1399999856948853,1.090000033378601,1.1200000047683716,4044522,0,0
2020-04-23,1.149999976158142,1.149999976158142,1.100000023841858,1.1200000047683716,3287500,0,0
2020-04-24,1.1200000047683716,1.1299999952316284,1.090000033378601,1.1299999952316284,3331500,0,0
2020-04-27,1.1399999856948853,1.149999976158142,1.100000023841858,1.1299999952316284,3766000,0,0
2020-04-28,1.1100000143051147,1.1699999570846558,1.1100000143051147,1.159999966621399,3192500,0,0
2020-04-29,1.1699999570846558,1.2300000190734863,1.1699999570846558,1.2100000381469727,9276500,0,0
2020-05-04,1.159999966621399,1.1799999475479126,1.1200000047683716,1.1399999856948853,4084000,0,0
2020-05-05,1.1399999856948853,1.2300000190734863,1.1299999952316284,1.2000000476837158,3680600,0,0
2020-05-06,1.2000000476837158,1.2200000286102295,1.1799999475479126,1.190000057220459,6376000,0,0
2020-05-07,1.2000000476837158,1.2000000476837158,1.1699999570846558,1.190000057220459,2082666,0,0
2020-05-08,1.2100000381469727,1.2599999904632568,1.190000057220459,1.25,13648600,0,0
2020-05-11,1.2599999904632568,1.2799999713897705,1.2100000381469727,1.2300000190734863,6218500,0,0
2020-05-12,1.2300000190734863,1.2400000095367432,1.190000057220459,1.190000057220459,3651500,0,0
2020-05-13,1.1799999475479126,1.2100000381469727,1.1699999570846558,1.1799999475479126,3195500,0,0
2020-05-14,1.1799999475479126,1.1799999475479126,1.1200000047683716,1.1299999952316284,4421000,0,0
2020-05-15,1.1399999856948853,1.1699999570846558,1.1100000143051147,1.159999966621399,5264003,0,0
2020-05-18,1.159999966621399,1.1799999475479126,1.149999976158142,1.1799999475479126,3726000,0,0
2020-05-19,1.2200000286102295,1.2200000286102295,1.1699999570846558,1.190000057220459,6507000,0,0
2020-05-20,1.190000057220459,1.2200000286102295,1.1699999570846558,1.1799999475479126,3228000,0,0
2020-05-21,1.2000000476837158,1.2100000381469727,1.0700000524520874,1.0800000429153442,20944000,0,0
2020-05-22,1.0700000524520874,1.0700000524520874,1.0099999904632568,1.0399999618530273,10665000,0,0
2020-05-25,1.0399999618530273,1.0399999618530273,0.9800000190734863,1.0199999809265137,7036010,0,0
2020-05-26,1.0199999809265137,1.090000033378601,1.0199999809265137,1.0800000429153442,7438000,0,0
2020-05-27,1.0800000429153442,1.090000033378601,1.0299999713897705,1.0399999618530273,3240500,0,0
2020-05-28,1.0399999618530273,1.059999942779541,1.0099999904632568,1.0099999904632568,4984000,0,0
2020-05-29,1.0299999713897705,1.0299999713897705,0.9800000190734863,0.9800000190734863,12462000,0,0
2020-06-01,1.0,1.0399999618530273,0.9800000190734863,0.9800000190734863,10672500,0,0
2020-06-02,0.9900000095367432,1.0099999904632568,0.9900000095367432,1.0,7186000,0,0
2020-06-03,1.0099999904632568,1.0099999904632568,0.9900000095367432,1.0,19752500,0,0
2020-06-04,1.0199999809265137,1.0199999809265137,0.9800000190734863,0.9900000095367432,12299500,0,0
2020-06-05,1.0,1.0099999904632568,0.9599999785423279,0.9900000095367432,19476230,0,0
2020-06-08,1.0,1.0,0.9700000286102295,0.9900000095367432,20988900,0,0
2020-06-09,0.9900000095367432,1.3300000429153442,0.9900000095367432,1.309999942779541,157927600,0,0
2020-06-10,1.3200000524520874,1.409999966621399,1.2000000476837158,1.340000033378601,132907300,0,0
2020-06-11,1.3600000143051147,1.3799999952316284,1.2300000190734863,1.2599999904632568,47060000,0,0
2020-06-12,1.2100000381469727,1.2899999618530273,1.1799999475479126,1.2599999904632568,26164000,0,0
2020-06-15,1.2999999523162842,1.2999999523162842,1.1399999856948853,1.1699999570846558,37234500,0,0
2020-06-16,1.2100000381469727,1.2400000095367432,1.1699999570846558,1.1799999475479126,17404000,0,0
2020-06-17,1.190000057220459,1.2400000095367432,1.1799999475479126,1.2000000476837158,12076000,0,0
2020-06-18,1.2100000381469727,1.2100000381469727,1.1699999570846558,1.1799999475479126,24105500,0,0
2020-06-19,1.2000000476837158,1.2699999809265137,1.190000057220459,1.2300000190734863,34585000,0,0
2020-06-22,1.2300000190734863,1.2599999904632568,1.159999966621399,1.1699999570846558,23512500,0,0
2020-06-23,1.190000057220459,1.190000057220459,1.1399999856948853,1.1699999570846558,9536465,0,0
2020-06-24,1.1799999475479126,1.2000000476837158,1.159999966621399,1.190000057220459,6631500,0,0
2020-06-26,1.190000057220459,1.190000057220459,1.1399999856948853,1.149999976158142,12261000,0,0
2020-06-29,1.149999976158142,1.149999976158142,1.100000023841858,1.1200000047683716,15519130,0,0
2020-06-30,1.1299999952316284,1.149999976158142,1.1100000143051147,1.1100000143051147,6641500,0,0
2020-07-02,1.1100000143051147,1.1699999570846558,1.1100000143051147,1.1399999856948853,9050000,0,0
2020-07-03,1.159999966621399,1.350000023841858,1.159999966621399,1.3200000524520874,70779500,0,0
2020-07-06,1.3700000047683716,1.440000057220459,1.2899999618530273,1.4299999475479126,56635500,0,0
2020-07-07,1.4700000286102295,1.5199999809265137,1.309999942779541,1.350000023841858,46659500,0,0
2020-07-08,1.3799999952316284,1.409999966621399,1.3300000429153442,1.340000033378601,23663000,0,0
2020-07-09,1.3600000143051147,1.409999966621399,1.350000023841858,1.3700000047683716,19675000,0,0
2020-07-10,1.3700000047683716,1.3700000047683716,1.2799999713897705,1.2999999523162842,19658000,0,0
2020-07-13,1.3200000524520874,1.5700000524520874,1.2899999618530273,1.4199999570846558,82788500,0,0
2020-07-14,1.4199999570846558,1.440000057220459,1.3600000143051147,1.3899999856948853,31916500,0,0
2020-07-15,1.440000057220459,1.440000057220459,1.2799999713897705,1.2899999618530273,45183400,0,0
2020-07-16,1.159999966621399,1.1699999570846558,1.0,1.0299999713897705,509149500,0,0
2020-07-17,1.0399999618530273,1.059999942779541,1.0199999809265137,1.0199999809265137,38278000,0,0
2020-07-20,1.0299999713897705,1.0700000524520874,0.9900000095367432,1.0299999713897705,59268500,0,0
2020-07-21,1.0499999523162842,1.0700000524520874,0.8799999952316284,0.9200000166893005,197268000,0,0
2020-07-22,0.8899999856948853,0.9300000071525574,0.8299999833106995,0.8399999737739563,104229000,0,0
2020-07-23,0.8600000143051147,0.8600000143051147,0.7599999904632568,0.7900000214576721,62292000,0,0
2020-07-24,0.8299999833106995,0.8600000143051147,0.7799999713897705,0.8100000023841858,89620740,0,0
2020-07-27,0.8299999833106995,0.8299999833106995,0.7200000286102295,0.75,53140000,0,0
2020-07-28,0.7699999809265137,0.7900000214576721,0.75,0.7699999809265137,22378000,0,0
2020-07-29,0.7699999809265137,0.8399999737739563,0.7599999904632568,0.8199999928474426,73048950,0,0
2020-07-30,0.8299999833106995,0.8399999737739563,0.800000011920929,0.8100000023841858,40270000,0,0
2020-07-31,1.2999999523162842,1.340000033378601,1.090000033378601,1.1200000047683716,491753400,0,0
2020-08-03,1.149999976158142,1.159999966621399,1.0399999618530273,1.0800000429153442,111647500,0,0
2020-08-04,1.100000023841858,1.1100000143051147,1.059999942779541,1.100000023841858,42510000,0,0
2020-08-05,1.1100000143051147,1.1200000047683716,1.059999942779541,1.0700000524520874,49728500,0,0
2020-08-06,1.0700000524520874,1.1100000143051147,1.059999942779541,1.0700000524520874,39993500,0,0
2020-08-07,1.0800000429153442,1.090000033378601,1.0299999713897705,1.059999942779541,25895000,0,0
2020-08-10,1.0499999523162842,1.100000023841858,1.0299999713897705,1.0800000429153442,39353000,0,0
2020-08-11,1.090000033378601,1.1100000143051147,1.0700000524520874,1.100000023841858,34792000,0,0
2020-08-12,1.100000023841858,1.1100000143051147,1.0800000429153442,1.100000023841858,20408000,0,0
2020-08-13,1.100000023841858,1.159999966621399,1.0800000429153442,1.1200000047683716,54931500,0,0
2020-08-14,1.1299999952316284,1.1299999952316284,1.0800000429153442,1.0800000429153442,22638500,0,0
2020-08-17,1.0800000429153442,1.1100000143051147,1.0800000429153442,1.090000033378601,13580500,0,0
2020-08-18,1.100000023841858,1.100000023841858,1.059999942779541,1.0700000524520874,19697000,0,0
2020-08-19,1.059999942779541,1.0700000524520874,1.0399999618530273,1.0499999523162842,6874347,0,0
2020-08-20,1.059999942779541,1.0700000524520874,1.0399999618530273,1.059999942779541,11581500,0,0
2020-08-21,1.059999942779541,1.100000023841858,1.0399999618530273,1.059999942779541,21765000,0,0
2020-08-24,1.0499999523162842,1.0700000524520874,1.0399999618530273,1.0499999523162842,13850870,0,0
2020-08-25,1.059999942779541,1.0700000524520874,1.0499999523162842,1.0499999523162842,12556000,0,0
2020-08-26,1.0399999618530273,1.059999942779541,0.9700000286102295,0.9800000190734863,40507000,0,0
2020-08-27,0.9700000286102295,0.9800000190734863,0.9100000262260437,0.9700000286102295,27700000,0,0
2020-08-28,0.9700000286102295,1.0,0.9700000286102295,0.9900000095367432,13037000,0,0
2020-08-31,0.9900000095367432,1.0,0.9700000286102295,0.9700000286102295,9401000,0,0
2020-09-01,0.9700000286102295,1.0800000429153442,0.9599999785423279,1.0099999904632568,37042370,0,0
2020-09-02,1.0299999713897705,1.059999942779541,1.0,1.0299999713897705,24874500,0,0
2020-09-03,1.0399999618530273,1.0700000524520874,1.0,1.0,22062000,0,0
2020-09-04,0.9700000286102295,1.0299999713897705,0.9599999785423279,1.0,30126000,0,0
2020-09-07,1.0,1.0,0.9100000262260437,0.9300000071525574,20528500,0,0
2020-09-08,0.9300000071525574,0.9399999976158142,0.8500000238418579,0.8999999761581421,22319500,0,0
2020-09-09,0.8700000047683716,0.8999999761581421,0.8299999833106995,0.8399999737739563,12986000,0,0
2020-09-10,0.8600000143051147,0.8700000047683716,0.8100000023841858,0.8100000023841858,11755500,0,0
2020-09-11,0.800000011920929,0.8199999928474426,0.7900000214576721,0.8100000023841858,7818000,0,0
2020-09-14,0.8100000023841858,0.8500000238418579,0.8100000023841858,0.8500000238418579,6349500,0,0
2020-09-15,0.8500000238418579,0.8899999856948853,0.8500000238418579,0.8700000047683716,10101500,0,0
2020-09-16,0.8700000047683716,0.8899999856948853,0.8399999737739563,0.8500000238418579,5927000,0,0
2020-09-17,0.8500000238418579,0.8799999952316284,0.8500000238418579,0.8600000143051147,4527500,0,0
2020-09-18,0.8600000143051147,0.8700000047683716,0.8299999833106995,0.8600000143051147,5857000,0,0
2020-09-21,0.8600000143051147,0.8700000047683716,0.8100000023841858,0.8100000023841858,11517000,0,0
2020-09-22,0.8100000023841858,0.8100000023841858,0.7699999809265137,0.7900000214576721,12168500,0,0
2020-09-23,0.7900000214576721,0.7900000214576721,0.7099999785423279,0.7300000190734863,29912500,0,0
2020-09-24,0.7300000190734863,0.7400000095367432,0.6499999761581421,0.6899999976158142,25260000,0,0
2020-09-25,0.6899999976158142,0.7400000095367432,0.6899999976158142,0.7300000190734863,10101930,0,0
2020-09-28,0.7400000095367432,0.7699999809265137,0.699999988079071,0.75,10367500,0,0
2020-09-29,0.7699999809265137,0.8100000023841858,0.75,0.7900000214576721,11928500,0,0
2020-09-30,0.7799999713897705,0.7799999713897705,0.7400000095367432,0.75,9681500,0,0
2020-10-05,0.7699999809265137,0.7900000214576721,0.75,0.7699999809265137,5538000,0,0
2020-10-06,0.7699999809265137,0.800000011920929,0.7699999809265137,0.800000011920929,4578500,0,0
2020-10-07,0.7900000214576721,0.8700000047683716,0.7900000214576721,0.8500000238418579,13434410,0,0
2020-10-08,0.8700000047683716,1.0099999904632568,0.8600000143051147,0.9599999785423279,34171500,0,0
2020-10-09,1.0,1.0,0.8600000143051147,0.8799999952316284,33016000,0,0
2020-10-12,0.8899999856948853,0.8899999856948853,0.8500000238418579,0.8500000238418579,11826320,0,0
2020-10-14,0.8700000047683716,0.9200000166893005,0.8299999833106995,0.8999999761581421,24708500,0,0
2020-10-15,0.9100000262260437,0.9399999976158142,0.8799999952316284,0.9300000071525574,20380500,0,0
2020-10-16,0.949999988079071,0.9700000286102295,0.9200000166893005,0.949999988079071,31987500,0,0
2020-10-19,0.9900000095367432,1.1200000047683716,0.9900000095367432,1.0800000429153442,119188500,0,0
2020-10-20,1.0800000429153442,1.0800000429153442,1.0800000429153442,1.0800000429153442,0,0,0
2020-10-21,1.0800000429153442,1.0800000429153442,1.0800000429153442,1.0800000429153442,0,0,0
2020-10-22,1.0800000429153442,1.0800000429153442,1.0800000429153442,1.0800000429153442,0,0,0
2020-10-23,1.0800000429153442,1.0800000429153442,1.0800000429153442,1.0800000429153442,0,0,0
2020-10-27,1.0800000429153442,1.0800000429153442,1.0800000429153442,1.0800000429153442,0,0,0
2020-10-28,1.0800000429153442,1.0800000429153442,1.0800000429153442,1.0800000429153442,0,0,0
2020-10-29,1.0800000429153442,1.0800000429153442,1.0800000429153442,1.0800000429153442,0,0,0
2020-10-30,1.0800000429153442,1.0800000429153442,1.0800000429153442,1.0800000429153442,0,0,0
2020-11-02,1.0800000429153442,1.0800000429153442,1.0800000429153442,1.0800000429153442,0,0,0
2020-11-03,1.0800000429153442,1.0800000429153442,1.0800000429153442,1.0800000429153442,0,0,0
2020-11-04,1.0800000429153442,1.0800000429153442,1.0800000429153442,1.0800000429153442,0,0,0
2020-11-05,1.0800000429153442,1.0800000429153442,1.0800000429153442,1.0800000429153442,0,0,0
2020-11-06,1.0800000429153442,1.0800000429153442,1.0800000429153442,1.0800000429153442,0,0,0
2020-11-09,1.0800000429153442,1.0800000429153442,1.0800000429153442,1.0800000429153442,0,0,0
2020-11-10,1.0800000429153442,1.0800000429153442,1.0800000429153442,1.0800000429153442,0,0,0
2020-11-11,1.0800000429153442,1.0800000429153442,1.0800000429153442,1.0800000429153442,0,0,0
2020-11-12,1.0800000429153442,1.0800000429153442,1.0800000429153442,1.0800000429153442,0,0,0
2020-11-13,1.0800000429153442,1.0800000429153442,1.0800000429153442,1.0800000429153442,0,0,0
2020-11-16,1.0800000429153442,1.0800000429153442,1.0800000429153442,1.0800000429153442,0,0,0
2020-11-17,1.0800000429153442,1.0800000429153442,1.0800000429153442,1.0800000429153442,0,0,0
2020-11-18,1.0800000429153442,1.0800000429153442,1.0800000429153442,1.0800000429153442,0,0,0
2020-11-19,1.0800000429153442,1.0800000429153442,1.0800000429153442,1.0800000429153442,0,0,0
2020-11-20,1.0800000429153442,1.0800000429153442,1.0800000429153442,1.0800000429153442,0,0,0
2020-11-23,1.0800000429153442,1.0800000429153442,1.0800000429153442,1.0800000429153442,0,0,0
2020-11-24,1.0800000429153442,1.0800000429153442,1.0800000429153442,1.0800000429153442,0,0,0
2020-11-25,1.0800000429153442,1.0800000429153442,1.0800000429153442,1.0800000429153442,0,0,0
2020-11-26,1.0800000429153442,1.0800000429153442,1.0800000429153442,1.0800000429153442,0,0,0
2020-11-27,1.0800000429153442,1.0800000429153442,1.0800000429153442,1.0800000429153442,0,0,0
2020-11-30,1.0800000429153442,1.0800000429153442,1.0800000429153442,1.0800000429153442,0,0,0
2020-12-01,1.0800000429153442,1.0800000429153442,1.0800000429153442,1.0800000429153442,0,0,0
2020-12-02,1.0800000429153442,1.0800000429153442,1.0800000429153442,1.0800000429153442,0,0,0
2020-12-03,1.0800000429153442,1.0800000429153442,1.0800000429153442,1.0800000429153442,0,0,0
2020-12-04,1.0800000429153442,1.0800000429153442,1.0800000429153442,1.0800000429153442,0,0,0
2020-12-07,1.090000033378601,1.1200000047683716,0.800000011920929,0.8100000023841858,74749000,0,0
