Date,Open,High,Low,Close,Volume,Dividends,Stock Splits
2020-01-02,1.7999999523162842,1.8200000524520874,1.7599999904632568,1.7999999523162842,177500,0,0
2020-01-03,1.7799999713897705,1.840000033378601,1.7699999809265137,1.7799999713897705,1583953,0,0
2020-01-06,1.7899999618530273,1.7999999523162842,1.7699999809265137,1.7699999809265137,74000,0,0
2020-01-07,1.7699999809265137,1.7999999523162842,1.7300000190734863,1.7300000190734863,222000,0,0
2020-01-08,1.7200000286102295,1.7400000095367432,1.7200000286102295,1.7200000286102295,96000,0,0
2020-01-09,1.7300000190734863,1.7799999713897705,1.7200000286102295,1.7400000095367432,59000,0,0
2020-01-10,1.7400000095367432,1.7699999809265137,1.7300000190734863,1.7599999904632568,167500,0,0
2020-01-13,1.7599999904632568,1.7899999618530273,1.7000000476837158,1.7599999904632568,1228500,0,0
2020-01-14,1.7300000190734863,1.7799999713897705,1.7200000286102295,1.7200000286102295,417000,0,0
2020-01-15,1.7100000381469727,1.75,1.6799999475479126,1.6799999475479126,901000,0,0
2020-01-16,1.6799999475479126,1.7599999904632568,1.6799999475479126,1.7300000190734863,701500,0,0
2020-01-17,1.7400000095367432,1.7899999618530273,1.7000000476837158,1.7000000476837158,435500,0,0
2020-01-20,1.7100000381469727,1.75,1.690000057220459,1.7000000476837158,504500,0,0
2020-01-21,1.7000000476837158,1.75,1.690000057220459,1.7200000286102295,620000,0,0
2020-01-22,1.7200000286102295,1.75,1.690000057220459,1.7200000286102295,679500,0,0
2020-01-23,1.7100000381469727,1.7200000286102295,1.6799999475479126,1.690000057220459,359500,0,0
2020-01-24,1.690000057220459,1.690000057220459,1.6799999475479126,1.6799999475479126,43000,0,0
2020-01-29,1.6200000047683716,1.6699999570846558,1.600000023841858,1.649999976158142,262000,0,0
2020-01-30,1.600000023841858,1.649999976158142,1.559999942779541,1.649999976158142,1076500,0,0
2020-01-31,1.6200000047683716,1.6399999856948853,1.5800000429153442,1.6100000143051147,306000,0,0
2020-02-03,1.559999942779541,1.6299999952316284,1.5399999618530273,1.600000023841858,895000,0,0
2020-02-04,1.590000033378601,1.6200000047683716,1.5700000524520874,1.6200000047683716,453000,0,0
2020-02-05,1.6200000047683716,1.6200000047683716,1.5700000524520874,1.6200000047683716,201500,0,0
2020-02-06,1.6299999952316284,1.6399999856948853,1.5800000429153442,1.6399999856948853,196500,0,0
2020-02-07,1.600000023841858,1.649999976158142,1.600000023841858,1.649999976158142,292500,0,0
2020-02-10,1.6200000047683716,1.6699999570846558,1.6200000047683716,1.6399999856948853,225000,0,0
2020-02-11,1.649999976158142,1.659999966621399,1.6100000143051147,1.6299999952316284,211500,0,0
2020-02-12,1.6299999952316284,1.6399999856948853,1.5800000429153442,1.600000023841858,657500,0,0
2020-02-13,1.6200000047683716,1.6200000047683716,1.590000033378601,1.600000023841858,225500,0,0
2020-02-14,1.590000033378601,1.6200000047683716,1.5800000429153442,1.6200000047683716,239500,0,0
2020-02-17,1.5800000429153442,1.6200000047683716,1.5800000429153442,1.6200000047683716,329000,0,0
2020-02-18,1.6200000047683716,1.6200000047683716,1.5800000429153442,1.5800000429153442,316500,0,0
2020-02-19,1.6100000143051147,1.6100000143051147,1.5800000429153442,1.5800000429153442,93000,0,0
2020-02-20,1.600000023841858,1.600000023841858,1.590000033378601,1.590000033378601,133000,0,0
2020-02-21,1.600000023841858,1.600000023841858,1.5800000429153442,1.600000023841858,224000,0,0
2020-02-24,1.600000023841858,1.600000023841858,1.5299999713897705,1.5800000429153442,438500,0,0
2020-02-25,1.590000033378601,1.6100000143051147,1.5099999904632568,1.5299999713897705,342500,0,0
2020-02-26,1.5499999523162842,1.5499999523162842,1.4800000190734863,1.4800000190734863,435500,0,0
2020-02-27,1.5099999904632568,1.5199999809265137,1.4800000190734863,1.4900000095367432,271500,0,0
2020-02-28,1.4600000381469727,1.4800000190734863,1.409999966621399,1.440000057220459,167000,0,0
2020-03-02,1.440000057220459,1.4700000286102295,1.399999976158142,1.409999966621399,226000,0,0
2020-03-03,1.4199999570846558,1.4600000381469727,1.3799999952316284,1.3899999856948853,141000,0,0
2020-03-04,1.3799999952316284,1.3899999856948853,1.350000023841858,1.3700000047683716,117000,0,0
2020-03-05,1.3600000143051147,1.409999966621399,1.350000023841858,1.3700000047683716,308000,0,0
2020-03-06,1.3700000047683716,1.3799999952316284,1.340000033378601,1.340000033378601,81000,0,0
2020-03-09,1.3300000429153442,1.3300000429153442,1.2300000190734863,1.25,360500,0,0
2020-03-10,1.2300000190734863,1.2400000095367432,1.2000000476837158,1.2300000190734863,349500,0,0
2020-03-11,1.25,1.2999999523162842,1.2400000095367432,1.2400000095367432,241500,0,0
2020-03-12,1.2100000381469727,1.309999942779541,1.2100000381469727,1.25,417000,0,0
2020-03-13,1.2100000381469727,1.2100000381469727,1.1399999856948853,1.149999976158142,3323500,0,0
2020-03-16,1.1299999952316284,1.149999976158142,1.1100000143051147,1.1100000143051147,266000,0,0
2020-03-17,1.059999942779541,1.1100000143051147,1.0099999904632568,1.0399999618530273,399000,0,0
2020-03-18,1.0199999809265137,1.090000033378601,0.9800000190734863,1.0199999809265137,941500,0,0
2020-03-19,1.0,1.0,0.9100000262260437,0.9300000071525574,816500,0,0
2020-03-20,0.9700000286102295,0.9900000095367432,0.9100000262260437,0.9599999785423279,513000,0,0
2020-03-23,0.9599999785423279,0.9599999785423279,0.8899999856948853,0.9599999785423279,381500,0,0
2020-03-24,0.9599999785423279,0.9700000286102295,0.9200000166893005,0.9399999976158142,286500,0,0
2020-03-25,0.9599999785423279,0.9599999785423279,0.9399999976158142,0.9599999785423279,521000,0,0
2020-03-26,0.9300000071525574,0.9399999976158142,0.9100000262260437,0.9300000071525574,240500,0,0
2020-03-27,0.9300000071525574,1.0,0.8999999761581421,0.949999988079071,1113000,0,0
2020-03-30,0.9100000262260437,0.949999988079071,0.9100000262260437,0.949999988079071,636000,0,0
2020-03-31,0.9399999976158142,0.9399999976158142,0.8700000047683716,0.9100000262260437,1292000,0,0
2020-04-01,0.9599999785423279,0.9599999785423279,0.8799999952316284,0.8999999761581421,498500,0,0
2020-04-02,0.8299999833106995,0.9100000262260437,0.8299999833106995,0.8899999856948853,728500,0,0
2020-04-03,0.8999999761581421,0.8999999761581421,0.8799999952316284,0.8999999761581421,793000,0,0
2020-04-06,0.8999999761581421,0.9399999976158142,0.8899999856948853,0.8999999761581421,241500,0,0
2020-04-07,0.8999999761581421,0.9100000262260437,0.800000011920929,0.9100000262260437,1631000,0,0
2020-04-08,0.9200000166893005,0.9200000166893005,0.8799999952316284,0.9200000166893005,611000,0,0
2020-04-09,0.9100000262260437,1.100000023841858,0.8899999856948853,1.0499999523162842,4719500,0,0
2020-04-14,1.0099999904632568,1.2000000476837158,1.0099999904632568,1.0499999523162842,6203500,0,0
2020-04-15,1.0499999523162842,1.090000033378601,1.0,1.0299999713897705,2506500,0,0
2020-04-16,1.0199999809265137,1.0199999809265137,0.9700000286102295,1.0,416500,0,0
2020-04-17,1.0099999904632568,1.0099999904632568,0.9700000286102295,0.9800000190734863,307500,0,0
2020-04-20,0.9900000095367432,1.0,0.9599999785423279,0.9700000286102295,292000,0,0
2020-04-21,0.9399999976158142,1.0499999523162842,0.9100000262260437,1.0,1750500,0,0
2020-04-22,0.9599999785423279,0.9900000095367432,0.9300000071525574,0.9800000190734863,748500,0,0
2020-04-23,0.9700000286102295,1.0399999618530273,0.9599999785423279,0.9900000095367432,383500,0,0
2020-04-24,0.9300000071525574,1.0399999618530273,0.9300000071525574,1.0,1680000,0,0
2020-04-27,1.0,1.0,0.949999988079071,0.9900000095367432,937000,0,0
2020-04-28,0.9599999785423279,1.0099999904632568,0.9599999785423279,1.0,2276000,0,0
2020-04-29,0.9800000190734863,1.0,0.9700000286102295,0.9700000286102295,333500,0,0
2020-05-04,0.9800000190734863,0.9800000190734863,0.9200000166893005,0.9399999976158142,267500,0,0
2020-05-05,0.949999988079071,0.9800000190734863,0.949999988079071,0.9700000286102295,431000,0,0
2020-05-06,0.9599999785423279,1.0199999809265137,0.9599999785423279,1.0,1841000,0,0
2020-05-07,0.9800000190734863,1.0099999904632568,0.9700000286102295,1.0,290000,0,0
2020-05-08,1.0099999904632568,1.0099999904632568,0.9900000095367432,1.0,392000,0,0
2020-05-11,0.9800000190734863,1.0199999809265137,0.9700000286102295,1.0,480000,0,0
2020-05-12,1.0,1.0499999523162842,0.9900000095367432,1.0,350500,0,0
2020-05-13,1.0,1.0099999904632568,0.9800000190734863,0.9900000095367432,697500,0,0
2020-05-14,0.9599999785423279,1.0,0.9300000071525574,0.9900000095367432,1158000,0,0
2020-05-15,0.9700000286102295,1.0,0.9599999785423279,0.9900000095367432,307000,0,0
2020-05-18,1.0199999809265137,1.0299999713897705,0.9800000190734863,1.0,780000,0,0
2020-05-19,1.0099999904632568,1.0199999809265137,1.0,1.0,282500,0,0
2020-05-20,1.0199999809265137,1.0199999809265137,1.0099999904632568,1.0199999809265137,191500,0,0
2020-05-21,1.0199999809265137,1.0800000429153442,1.0,1.0800000429153442,844500,0,0
2020-05-22,1.0800000429153442,1.159999966621399,1.0499999523162842,1.1299999952316284,911000,0,0
2020-05-25,1.100000023841858,1.1299999952316284,1.100000023841858,1.1299999952316284,430500,0,0
2020-05-26,1.1200000047683716,1.350000023841858,1.100000023841858,1.25,1429000,0,0
2020-05-27,1.2999999523162842,1.5399999618530273,1.2999999523162842,1.4900000095367432,5360000,0,0
2020-05-28,1.4900000095367432,1.5099999904632568,1.3600000143051147,1.4500000476837158,2109500,0,0
2020-05-29,1.4199999570846558,1.6200000047683716,1.399999976158142,1.5800000429153442,2861000,0,0
2020-06-01,1.5800000429153442,1.649999976158142,1.5,1.5,8399000,0,0
2020-06-02,1.5,1.5199999809265137,1.3899999856948853,1.4900000095367432,2179000,0,0
2020-06-03,1.5099999904632568,1.5399999618530273,1.4700000286102295,1.5,852500,0,0
2020-06-04,1.5,1.5,1.3899999856948853,1.5,659000,0,0
2020-06-05,1.4500000476837158,1.5,1.4299999475479126,1.4299999475479126,1137000,0,0
2020-06-08,1.4299999475479126,1.4800000190734863,1.399999976158142,1.4199999570846558,615500,0,0
2020-06-09,1.3899999856948853,1.4500000476837158,1.3899999856948853,1.4299999475479126,542500,0,0
2020-06-10,1.4299999475479126,1.4700000286102295,1.399999976158142,1.4299999475479126,1273000,0,0
2020-06-11,1.4299999475479126,1.4700000286102295,1.4199999570846558,1.440000057220459,368000,0,0
2020-06-12,1.4199999570846558,1.4500000476837158,1.3899999856948853,1.409999966621399,335000,0,0
2020-06-15,1.4199999570846558,1.4299999475479126,1.3300000429153442,1.340000033378601,681500,0,0
2020-06-16,1.3799999952316284,1.4199999570846558,1.3200000524520874,1.3799999952316284,488000,0,0
2020-06-17,1.4199999570846558,1.4199999570846558,1.3799999952316284,1.399999976158142,322500,0,0
2020-06-18,1.399999976158142,1.559999942779541,1.3799999952316284,1.5,1259000,0,0
2020-06-19,1.5499999523162842,1.6100000143051147,1.5299999713897705,1.590000033378601,938000,0,0
2020-06-22,1.590000033378601,1.590000033378601,1.5199999809265137,1.5399999618530273,224000,0,0
2020-06-23,1.5399999618530273,1.5800000429153442,1.4800000190734863,1.5399999618530273,1067000,0,0
2020-06-24,1.5700000524520874,1.5700000524520874,1.4900000095367432,1.5199999809265137,251000,0,0
2020-06-26,1.5299999713897705,1.5299999713897705,1.4900000095367432,1.5,223500,0,0
2020-06-29,1.4800000190734863,1.5,1.4700000286102295,1.4900000095367432,344500,0,0
2020-06-30,1.5199999809265137,1.559999942779541,1.4600000381469727,1.5,195500,0,0
2020-07-02,1.5,1.5199999809265137,1.4299999475479126,1.4299999475479126,500500,0,0
2020-07-03,1.440000057220459,1.5,1.409999966621399,1.4700000286102295,506000,0,0
2020-07-06,1.4900000095367432,1.5199999809265137,1.4900000095367432,1.5,376500,0,0
2020-07-07,1.5,1.5399999618530273,1.4500000476837158,1.4900000095367432,472500,0,0
2020-07-08,1.4700000286102295,1.4800000190734863,1.409999966621399,1.440000057220459,319000,0,0
2020-07-09,1.4299999475479126,1.5,1.3799999952316284,1.4600000381469727,1444000,0,0
2020-07-10,1.4600000381469727,1.6100000143051147,1.440000057220459,1.600000023841858,2670500,0,0
2020-07-13,1.6100000143051147,1.850000023841858,1.6100000143051147,1.809999942779541,3004500,0,0
2020-07-14,1.7999999523162842,1.940000057220459,1.6699999570846558,1.8200000524520874,2793000,0,0
2020-07-15,1.8300000429153442,1.9199999570846558,1.75,1.7999999523162842,1317500,0,0
2020-07-16,1.8200000524520874,1.8300000429153442,1.7699999809265137,1.7799999713897705,840500,0,0
2020-07-17,1.7999999523162842,1.8300000429153442,1.7599999904632568,1.809999942779541,943500,0,0
2020-07-20,1.8700000047683716,1.8899999856948853,1.7999999523162842,1.8200000524520874,450000,0,0
2020-07-21,1.7799999713897705,1.7999999523162842,1.7400000095367432,1.7999999523162842,432000,0,0
2020-07-22,1.8200000524520874,1.8200000524520874,1.7599999904632568,1.7899999618530273,378500,0,0
2020-07-23,1.7699999809265137,1.809999942779541,1.7699999809265137,1.809999942779541,459500,0,0
2020-07-24,1.7699999809265137,1.7699999809265137,1.7000000476837158,1.7200000286102295,327500,0,0
2020-07-27,1.7799999713897705,1.7799999713897705,1.4500000476837158,1.4600000381469727,1214500,0,0
2020-07-28,1.4600000381469727,1.5099999904632568,1.399999976158142,1.399999976158142,365500,0,0
2020-07-29,1.4299999475479126,1.4299999475479126,1.3300000429153442,1.3799999952316284,1276500,0,0
2020-07-30,1.3799999952316284,1.409999966621399,1.3799999952316284,1.3899999856948853,325000,0,0
2020-07-31,1.440000057220459,1.440000057220459,1.3899999856948853,1.4199999570846558,246000,0,0
2020-08-03,1.4700000286102295,1.4900000095367432,1.4299999475479126,1.4800000190734863,294000,0,0
2020-08-04,1.5299999713897705,1.5299999713897705,1.4600000381469727,1.4700000286102295,107500,0,0
2020-08-05,1.4700000286102295,1.4700000286102295,1.4700000286102295,1.4700000286102295,0,0,0
2020-08-06,1.4900000095367432,1.5,1.399999976158142,1.4199999570846558,98000,0,0
2020-08-07,1.399999976158142,1.4500000476837158,1.3799999952316284,1.4199999570846558,334500,0,0
2020-08-10,1.4199999570846558,1.4199999570846558,1.3600000143051147,1.3799999952316284,93500,0,0
2020-08-11,1.3799999952316284,1.3799999952316284,1.3600000143051147,1.3799999952316284,33500,0,0
2020-08-12,1.3700000047683716,1.3700000047683716,1.3700000047683716,1.3700000047683716,18000,0,0
2020-08-13,1.3700000047683716,1.3799999952316284,1.3600000143051147,1.3700000047683716,85000,0,0
2020-08-14,1.3700000047683716,1.4199999570846558,1.3700000047683716,1.409999966621399,93000,0,0
2020-08-17,1.4500000476837158,1.4500000476837158,1.350000023841858,1.350000023841858,176500,0,0
2020-08-18,1.3799999952316284,1.4500000476837158,1.3700000047683716,1.399999976158142,196000,0,0
2020-08-19,1.3700000047683716,1.3700000047683716,1.3700000047683716,1.3700000047683716,17000,0,0
2020-08-20,1.350000023841858,1.350000023841858,1.350000023841858,1.3600000143051147,9000,0,0
2020-08-21,1.3200000524520874,1.3600000143051147,1.2799999713897705,1.350000023841858,182000,0,0
2020-08-24,1.3600000143051147,1.4199999570846558,1.3600000143051147,1.409999966621399,172500,0,0
2020-08-25,1.399999976158142,1.409999966621399,1.399999976158142,1.399999976158142,21500,0,0
2020-08-26,1.3799999952316284,1.4199999570846558,1.2899999618530273,1.399999976158142,1210000,0,0
2020-08-27,1.399999976158142,1.399999976158142,1.3600000143051147,1.3700000047683716,40000,0,0
2020-08-28,1.3700000047683716,1.440000057220459,1.350000023841858,1.3600000143051147,376000,0,0
2020-08-31,1.3700000047683716,1.3700000047683716,1.3700000047683716,1.3700000047683716,0,0,0
2020-09-01,1.3700000047683716,1.440000057220459,1.3600000143051147,1.399999976158142,418000,0,0
2020-09-02,1.3700000047683716,1.4500000476837158,1.340000033378601,1.4299999475479126,435500,0,0
2020-09-03,1.4500000476837158,1.4900000095367432,1.3799999952316284,1.4500000476837158,682500,0,0
2020-09-04,1.399999976158142,1.4500000476837158,1.399999976158142,1.440000057220459,206000,0,0
2020-09-07,1.440000057220459,1.4500000476837158,1.409999966621399,1.4500000476837158,165000,0,0
2020-09-08,1.4500000476837158,1.4600000381469727,1.350000023841858,1.4299999475479126,202500,0,0
2020-09-09,1.409999966621399,1.4500000476837158,1.3799999952316284,1.4299999475479126,124000,0,0
2020-09-10,1.4900000095367432,1.4900000095367432,1.440000057220459,1.4500000476837158,283000,0,0
2020-09-11,1.4500000476837158,1.4500000476837158,1.440000057220459,1.4500000476837158,29500,0,0
2020-09-14,1.3300000429153442,1.4500000476837158,1.3300000429153442,1.4500000476837158,23000,0,0
2020-09-15,1.4500000476837158,1.4600000381469727,1.440000057220459,1.4600000381469727,124000,0,0
2020-09-16,1.440000057220459,1.5,1.440000057220459,1.4900000095367432,304000,0,0
2020-09-17,1.5199999809265137,1.5800000429153442,1.5099999904632568,1.5099999904632568,150000,0,0
2020-09-18,1.4900000095367432,1.75,1.4900000095367432,1.6399999856948853,484000,0,0
2020-09-21,1.649999976158142,1.6699999570846558,1.5,1.5,152000,0,0
2020-09-22,1.5,1.5,1.3799999952316284,1.4800000190734863,1441000,0,0
2020-09-23,1.5,1.6299999952316284,1.409999966621399,1.4700000286102295,809000,0,0
2020-09-24,1.4800000190734863,1.4800000190734863,1.350000023841858,1.3899999856948853,107500,0,0
2020-09-25,1.399999976158142,1.399999976158142,1.2799999713897705,1.2999999523162842,427500,0,0
2020-09-28,1.3200000524520874,1.4500000476837158,1.3200000524520874,1.4199999570846558,46500,0,0
2020-09-29,1.4199999570846558,1.4199999570846558,1.4199999570846558,1.4199999570846558,0,0,0
2020-09-30,1.3899999856948853,1.4800000190734863,1.3899999856948853,1.4500000476837158,397000,0,0
2020-10-05,1.409999966621399,1.4500000476837158,1.3600000143051147,1.4500000476837158,16000,0,0
2020-10-06,1.4700000286102295,1.4700000286102295,1.4299999475479126,1.440000057220459,8500,0,0
2020-10-07,1.440000057220459,1.440000057220459,1.440000057220459,1.440000057220459,1000,0,0
2020-10-08,1.440000057220459,1.4800000190734863,1.440000057220459,1.4500000476837158,42500,0,0
2020-10-09,1.4500000476837158,1.4500000476837158,1.4500000476837158,1.4500000476837158,500,0,0
2020-10-12,1.4500000476837158,1.4500000476837158,1.4299999475479126,1.4500000476837158,42000,0,0
2020-10-14,1.3700000047683716,1.4500000476837158,1.3700000047683716,1.4500000476837158,254500,0,0
2020-10-15,1.4500000476837158,1.4600000381469727,1.4500000476837158,1.4500000476837158,35500,0,0
2020-10-16,1.5099999904632568,1.5099999904632568,1.4500000476837158,1.4500000476837158,44500,0,0
2020-10-19,1.4199999570846558,1.4500000476837158,1.409999966621399,1.4500000476837158,43500,0,0
2020-10-20,1.4700000286102295,1.4700000286102295,1.440000057220459,1.440000057220459,4500,0,0
2020-10-21,1.3700000047683716,1.4500000476837158,1.3700000047683716,1.4500000476837158,50000,0,0
2020-10-22,1.4199999570846558,1.4500000476837158,1.4199999570846558,1.4500000476837158,12500,0,0
2020-10-23,1.3700000047683716,1.4900000095367432,1.3700000047683716,1.4900000095367432,550000,0,0
2020-10-27,1.4500000476837158,1.4800000190734863,1.4199999570846558,1.4800000190734863,210500,0,0
2020-10-28,1.4800000190734863,1.4800000190734863,1.4800000190734863,1.4800000190734863,0,0,0
2020-10-29,1.399999976158142,1.4500000476837158,1.399999976158142,1.4500000476837158,13000,0,0
2020-10-30,1.4199999570846558,1.4500000476837158,1.409999966621399,1.409999966621399,16000,0,0
2020-11-02,1.409999966621399,1.409999966621399,1.3799999952316284,1.409999966621399,38000,0,0
2020-11-03,1.399999976158142,1.399999976158142,1.399999976158142,1.399999976158142,0,0,0
2020-11-04,1.399999976158142,1.4600000381469727,1.399999976158142,1.4600000381469727,211500,0,0
2020-11-05,1.4500000476837158,1.4500000476837158,1.4199999570846558,1.440000057220459,155000,0,0
2020-11-06,1.4500000476837158,1.4800000190734863,1.4500000476837158,1.4500000476837158,43500,0,0
2020-11-09,1.4500000476837158,1.4600000381469727,1.4500000476837158,1.399999976158142,41000,0,0
2020-11-10,1.399999976158142,1.4500000476837158,1.3200000524520874,1.4500000476837158,43000,0,0
2020-11-11,1.3799999952316284,1.4500000476837158,1.3700000047683716,1.4500000476837158,59000,0,0
2020-11-12,1.409999966621399,1.4500000476837158,1.409999966621399,1.4500000476837158,30000,0,0
2020-11-13,1.3799999952316284,1.5,1.3799999952316284,1.5,751500,0,0
2020-11-16,1.4800000190734863,1.5,1.4500000476837158,1.5,278500,0,0
2020-11-17,1.4800000190734863,1.5,1.409999966621399,1.409999966621399,330000,0,0
2020-11-18,1.4199999570846558,1.4500000476837158,1.409999966621399,1.409999966621399,71000,0,0
2020-11-19,1.399999976158142,1.4500000476837158,1.399999976158142,1.440000057220459,17000,0,0
2020-11-20,1.440000057220459,1.440000057220459,1.3799999952316284,1.3799999952316284,1096000,0,0
2020-11-23,1.3300000429153442,1.4199999570846558,1.3300000429153442,1.409999966621399,869000,0,0
2020-11-24,1.3700000047683716,1.3899999856948853,1.3700000047683716,1.3899999856948853,5500,0,0
2020-11-25,1.3899999856948853,1.440000057220459,1.3899999856948853,1.3899999856948853,33500,0,0
2020-11-26,1.3899999856948853,1.3899999856948853,1.3300000429153442,1.350000023841858,364500,0,0
2020-11-27,1.2899999618530273,1.3700000047683716,1.2899999618530273,1.340000033378601,525000,0,0
2020-11-30,1.3300000429153442,1.350000023841858,1.2999999523162842,1.309999942779541,570000,0,0
2020-12-01,1.2799999713897705,1.340000033378601,1.2400000095367432,1.3300000429153442,551000,0,0
2020-12-02,1.2999999523162842,1.309999942779541,1.25,1.2899999618530273,110500,0,0
2020-12-03,1.2999999523162842,1.309999942779541,1.2599999904632568,1.2599999904632568,76500,0,0
2020-12-04,1.2599999904632568,1.3700000047683716,1.25,1.2999999523162842,197500,0,0
2020-12-07,1.2999999523162842,1.2999999523162842,1.2699999809265137,1.2699999809265137,216500,0,0
