Date,Open,High,Low,Close,Volume,Dividends,Stock Splits
2020-01-02,1.3669810912851754,1.4165093446313277,1.3471697899467145,1.4066036939620972,14336000,0.0,0
2020-01-03,1.4066036832744229,1.4759433555168489,1.4066036832744229,1.4561320543289185,6913000,0.0,0
2020-01-06,1.456132099343951,1.4957547029447096,1.4462264484437615,1.4660377502441406,3564000,0.0,0
2020-01-07,1.4858490228652954,1.5056603242766187,1.4660377214539722,1.4858490228652954,4358000,0.0,0
2020-01-08,1.456132075561383,1.584905653245301,1.4462264248229795,1.5650943517684937,21170000,0.0,0
2020-01-09,1.5849056694650934,1.6344339236639793,1.5353772971815347,1.5948113203048706,12500000,0.0,0
2020-01-10,1.5650943832165956,1.6344339397786898,1.5650943832165956,1.6245282888412476,12705720,0.0,0
2020-01-13,1.6245282920058643,1.7136792687011841,1.6047169900923874,1.7037736177444458,13596000,0.0,0
2020-01-14,1.7136792526642262,1.733490554392305,1.6542452293953174,1.6740566492080688,12641320,0.0,0
2020-01-15,1.6740566648742303,1.7136792687011841,1.6542452448760796,1.7037736177444458,8106667,0.0,0
2020-01-16,1.6740566518639413,1.7830188115412413,1.6740566518639413,1.7533018589019775,10708150,0.0,0
2020-01-17,1.7334905123628839,1.7533018136106269,1.6839622592435266,1.7433961629867554,6350000,0.0,0
2020-01-20,1.7433961752983416,1.7632074766859889,1.644339550275435,1.6938679218292236,8636000,0.0,0
2020-01-21,1.6740566027574102,1.7037735545249613,1.634433882316006,1.6641508340835571,11600980,0.0,0
2020-01-22,1.6641508675505772,1.7334905411539925,1.6344339151854013,1.7235848903656006,3360000,0.0,0
2020-01-23,1.7235849196579225,1.733490570614661,1.6443395939193413,1.7037736177444458,5216000,0.0,0
2020-01-24,1.713679223216871,1.713679223216871,1.6740566204415765,1.6938679218292236,1446000,0.0,0
2020-01-29,1.634433848157287,1.6740565677705994,1.5749999458643194,1.6047168970108032,4054000,0.0,0
2020-01-30,1.604716954722108,1.6344339069373188,1.5155659799918044,1.5650943517684937,3272000,0.0,0
2020-01-31,1.5650943798550558,1.5948113326035551,1.535377309021883,1.5452829599380493,2705649,0.0,0
2020-02-03,1.5155659955019805,1.6344339236639793,1.5056603446622032,1.5948113203048706,7963990,0.0,0
2020-02-04,1.594811307656328,1.6740566318307186,1.584905656895113,1.6443395614624023,9888000,0.0,0
2020-02-05,1.6740565814404775,1.8325471069339148,1.6740565814404775,1.7632074356079102,26120000,0.0,0
2020-02-06,1.763207525502211,1.8127358984272441,1.7533018745341393,1.7830188274383545,7119679,0.0,0
2020-02-07,1.7830188152195545,1.901886744106503,1.773113164319365,1.8325471878051758,18376400,0.0,0
2020-02-10,1.8226414739023085,1.8325471244600926,1.783018753586503,1.792924404144287,6842000,0.0,0
2020-02-11,1.8226414739023085,1.8325471244600926,1.783018753586503,1.792924404144287,5360000,0.0,0
2020-02-12,1.7830187822401031,1.8127358524756858,1.7433961793722206,1.7731131315231323,7592096,0.0,0
2020-02-13,1.7731130685317893,1.7929243692619172,1.7235848167064693,1.7334904670715332,8208000,0.0,0
2020-02-14,1.7433961919423844,1.7632074935191682,1.7136792395772087,1.7235848903656006,8784000,0.0,0
2020-02-17,1.7334904670715332,1.7533017678016614,1.7037735159763414,1.7334904670715332,8507200,0.0,0
2020-02-18,1.753301872528138,1.7632075234848763,1.6938679667877072,1.7037736177444458,7577901,0.0,0
2020-02-19,1.6938678656112773,1.7533017678016614,1.6839622152462135,1.7334904670715332,5938000,0.0,0
2020-02-20,1.7731131744416149,1.7731131744416149,1.6740566648742303,1.7037736177444458,10829310,0.0,0
2020-02-21,1.7235848739106945,1.7731131273798124,1.6938679218292236,1.6938679218292236,11083930,0.0,0
2020-02-24,1.713679211115141,1.7830187654822411,1.693867909867398,1.7433961629867554,20909520,0.0,0
2020-02-25,1.7136792687011841,1.7830188253983532,1.6740566648742303,1.7037736177444458,9556000,0.0,0
2020-02-26,1.6938679687257088,1.8325472003633876,1.6938679687257088,1.7830188274383545,21306000,0.0,0
2020-02-27,1.812735788076712,1.83254708880684,1.7334904670715332,1.7334904670715332,14588000,0.0,0
2020-02-28,1.7136792687011841,1.7433962215713994,1.6443395939193413,1.7037736177444458,6396769,0.0,0
2020-03-02,1.713679216594311,1.9216981165300533,1.713679216594311,1.8226414918899536,28050000,0.0,0
2020-03-03,1.8622641563415527,1.9018867602792429,1.8424528543727077,1.8622641563415527,16929300,0.0,0
2020-03-04,1.8622641241478775,1.9216981471116281,1.8028302192687988,1.8028302192687988,32709570,0.0,0
2020-03-05,1.8325471140098122,1.8820753665162928,1.822641463508516,1.8424527645111084,15218000,0.0,0
2020-03-06,1.8424527932010395,1.8820753958232113,1.802830190578868,1.8226414918899536,13340000,0.0,0
2020-03-09,1.7830188115412413,1.812735882265178,1.7334905571424686,1.7533018589019775,10058000,0.0,0
2020-03-10,1.7334904670715332,1.7830187188968531,1.6839622152462135,1.7334904670715332,16120940,0.0,0
2020-03-11,1.783018799557767,1.8325471717083381,1.7632074979314076,1.8028302192687988,9305055,0.0,0
2020-03-12,1.7929244763550916,1.7929244763550916,1.7037736177444458,1.7037736177444458,14728000,0.0,0
2020-03-13,1.61462262593916,1.6740566492080688,1.5650943716189631,1.6740566492080688,21987520,0.0,0
2020-03-16,1.644339601941128,1.6641509039512528,1.485849067775455,1.4957547187805176,19137000,0.0,0
2020-03-17,1.4561321287230329,1.5056603842232683,1.3966981040380746,1.4462264776229858,13266000,0.0,0
2020-03-18,1.4165093172302585,1.5749999610414307,1.4165093172302585,1.4264150857925415,16703460,0.0,0
2020-03-19,1.3966981040380746,1.4561321287230329,1.3570754996378862,1.4462264776229858,10954000,0.0,0
2020-03-20,1.4858490544410505,1.5750000307712222,1.416509379943212,1.5452829599380493,70069490,0.0,0
2020-03-23,1.5056603242766187,1.525471625687942,1.4660377214539722,1.4858490228652954,5222000,0.0,0
2020-03-24,1.5155659914016721,1.5452829438406057,1.4363207848978496,1.5155659914016724,10934660,0.0,0
2020-03-25,1.565094295482158,1.6146225473929645,1.535377226251007,1.6047168970108032,5006000,0.0,0
2020-03-26,1.5749999626218532,1.6641508170098436,1.5749999626218532,1.6344338655471802,5625739,0.0,0
2020-03-27,1.6344338995816114,1.7235848739106945,1.6344338995816114,1.6938679218292236,9495886,0.0,0
2020-03-30,1.7037735545249613,1.763207458060063,1.6047169305484552,1.6641508340835571,12478000,0.0,0
2020-03-31,1.6740565814404775,1.7632074356079102,1.6740565814404775,1.7632074356079102,9672000,0.0,0
2020-04-01,1.733490484218766,1.8523584078600108,1.7235848337557178,1.7632074356079102,9411770,0.0,0
2020-04-02,1.7830188152195545,1.832547187805176,1.7533018625189858,1.8325471878051758,14626000,0.0,0
2020-04-03,1.8325471140098122,1.8721697160149966,1.822641463508516,1.8424527645111084,14528400,0.0,0
2020-04-06,1.8622641405057447,1.8622641405057447,1.773113164319365,1.8325471878051758,4134000,0.0,0
2020-04-07,1.8325472003633876,1.8325472003633876,1.7533018745341393,1.7830188274383545,15198000,0.0,0
2020-04-08,1.7533018427307763,1.77311314430756,1.6938679380004247,1.7235848903656006,8608000,0.0,0
2020-04-09,1.7632074935191682,1.7632074935191682,1.7235848903656006,1.7235848903656006,7472000,0.0,0
2020-04-14,1.7334905007975825,1.8127358233445243,1.7334905007975825,1.792924404144287,14400460,0.0,0
2020-04-15,1.822641463508516,1.8622640655137004,1.7433961414134784,1.8424527645111084,16792500,0.0,0
2020-04-16,1.8424527645111082,1.9712263391126263,1.8127358130072198,1.8424527645111084,20176490,0.0,0
2020-04-17,1.901886667518885,1.9117923180201812,1.8127358130072198,1.8424527645111084,9384000,0.0,0
2020-04-20,1.84245278127324,1.94150940527206,1.84245278127324,1.8721697330474854,13724000,0.0,0
2020-04-21,1.8721697914059343,1.901886744106503,1.8127358860047966,1.8325471878051758,8918904,0.0,0
2020-04-22,1.8028301625059238,1.8424527645111082,1.792924393919959,1.8424527645111084,10004000,0.0,0
2020-04-23,1.8622641880869,2.0207547246240662,1.8325472346270582,2.000943422317505,34586000,0.0,0
2020-04-24,2.0405658998509835,2.119811340311439,1.8919810237204688,1.9216980934143066,24896000,0.0,0
2020-04-27,1.9415093191476192,2.0999997215797,1.9415093191476192,2.0603771209716797,30548000,0.0,0
2020-04-28,2.099999813977814,2.1396226524985322,2.0603772116264345,2.080188512802124,12635000,0.0,0
2020-04-29,2.109905736032771,2.20896224356839,1.9910376908206855,2.139622688293457,32014000,0.0,0
2020-05-04,2.0603771209716797,2.109905607901034,1.9811319197556394,2.0603771209716797,21900760,0.0,0
2020-05-05,2.08018842127569,2.2089621094210843,2.0504714708196747,2.0603771209716797,16640000,0.0,0
2020-05-06,2.0504716107259284,2.218867910969234,2.0306603090701683,2.169339656829834,36640000,0.0,0
2020-05-07,2.169339672665642,2.327830087068676,2.1198114181646943,2.199056625366211,57145310,0.0,0
2020-05-08,2.1990566998961882,2.3179245147271073,2.090094300131825,2.1891510486602783,164040400,0.0,0
2020-05-11,2.238679202970313,2.3476413616070757,2.2188679013999923,2.2981131076812744,33118600,0.0,0
2020-05-12,2.3179243174217317,2.3476412685999075,2.2485847646726542,2.27830171585083,30596000,0.0,0
2020-05-13,2.2783017329855353,2.327829985321655,2.2287734806494153,2.308018684387207,22450070,0.0,0
2020-05-14,2.2783018645171653,2.3080188176344656,2.238679260360765,2.258490562438965,42018000,0.0,0
2020-05-15,2.2783018645171653,2.2981131665953654,2.228773609321665,2.258490562438965,24070000,0.0,0
2020-05-18,2.2485847463585364,2.3971697372085656,2.2089621451103505,2.3773584365844727,34470000,0.0,0
2020-05-19,2.4268867804817127,2.4566037325485084,2.3278300374230527,2.397169828414917,24280450,0.0,0
2020-05-20,2.397169734142757,2.585377089830936,2.397169734142757,2.506131887435913,48338000,0.0,0
2020-05-21,2.50613207978211,2.5853772882592203,2.3971699181260835,2.4169812202453613,26006450,0.0,0
2020-05-22,2.3773584539674233,2.516037559350078,2.3278299658757127,2.4070754051208496,48592480,0.0,0
2020-05-25,2.3773585892842934,2.634905750109313,2.3773585892842934,2.516037702560425,145266600,0.0,0
2020-05-26,2.5457545236375063,2.6745282154693863,2.5061319218951845,2.565565824508667,33998510,0.0,0
2020-05-27,2.5655660179606,2.5655660179606,2.4367925525881216,2.4764151573181152,17842880,0.0,0
2020-05-28,2.4665093033943495,2.545754506340567,2.39716975081641,2.53584885597229,22871240,0.0,0
2020-05-29,2.476415042031903,2.5556602478027344,2.466509391310549,2.5556602478027344,21710000,0.0,0
2020-06-01,2.5754716396331787,2.704245339699513,2.5457546864261826,2.5754716396331787,37902680,0.0,0
2020-06-02,2.5754715272723017,2.6547169685363774,2.535848924724934,2.654716968536377,12002580,0.0,0
2020-06-03,2.6547170843545196,2.6745283864925167,2.56556598856418,2.5754716396331787,12882530,0.0,0
2020-06-04,2.575471669143098,2.595282971508095,2.4566038549531184,2.4764151573181152,30609240,0.0,0
2020-06-05,2.4764151421471823,2.5853773044871433,2.4466981887817383,2.4466981887817383,23849120,0.0,0
2020-06-08,2.4962263179388198,2.4962263179388198,2.228773515028899,2.36745285987854,73747480,0.0,0
2020-06-09,2.377358611077516,2.377358611077516,2.238679260360765,2.258490562438965,55442000,0.0,0
2020-06-10,2.2683962181814294,2.4169812202453613,2.2683962181814294,2.4169812202453613,28422000,0.0,0
2020-06-11,2.476414957812177,2.476414957812177,2.397169754736374,2.4070754051208496,19148160,0.0,0
2020-06-12,2.3377358045937853,2.50613211086561,2.30801885104629,2.4764151573181152,26082000,0.0,0
2020-06-15,2.5061320955126263,2.5259433977562553,2.3872642820508503,2.4466981887817383,28190210,0.0,0
2020-06-16,2.476415114031342,2.5556603221061533,2.476415114031342,2.5457546710968018,10037100,0.0,0
2020-06-17,2.565565914770945,2.6448113572129532,2.4863207084982806,2.5853772163391113,28821420,0.0,0
2020-06-18,2.575471624124856,2.615094464331611,2.5358490200874506,2.5457546710968018,26968900,0.0,0
2020-06-19,2.5556602259986176,2.7339621736311126,2.5556602259986176,2.654716968536377,36743213,0.0,0
2020-06-22,2.6448112817210925,2.694339534227804,2.565565841541017,2.595282793045044,22726660,0.0,0
2020-06-23,2.605188737578846,2.625000039021554,2.5457545970813804,2.5556602478027344,8378175,0.0,0
2020-06-24,2.575471497958674,2.5853771484827712,2.446698041145409,2.4665093421936035,11292000,0.0,0
2020-06-26,2.466509475543555,2.466509475543555,2.387264267066445,2.4169812202453613,8334200,0.0,0
2020-06-29,2.426886772694869,2.5358489299235063,2.3674528687519762,2.5259432792663574,27626000,0.0,0
2020-06-30,2.525943258089632,2.634905650574103,2.4764150052191174,2.625,32455400,0.0,0
2020-07-02,2.6600000858306885,2.799999952316284,2.619999885559082,2.690000057220459,59958330,0.025,0
2020-07-03,2.700000047683716,2.740000009536743,2.5899999141693115,2.609999895095825,28317609,0.0,0
2020-07-06,2.619999885559082,2.640000104904175,2.440000057220459,2.549999952316284,68602000,0.0,0
2020-07-07,2.569999933242798,2.609999895095825,2.490000009536743,2.490000009536743,18468000,0.0,0
2020-07-08,2.509999990463257,2.5899999141693115,2.4800000190734863,2.5,15275110,0.0,0
2020-07-09,2.490000009536743,2.700000047683716,2.430000066757202,2.6600000858306885,41411110,0.0,0
2020-07-10,2.630000114440918,2.740000009536743,2.569999933242798,2.6700000762939453,40977990,0.0,0
2020-07-13,2.7100000381469727,2.890000104904175,2.630000114440918,2.7699999809265137,47638700,0.0,0
2020-07-14,2.7699999809265137,2.7799999713897705,2.5199999809265137,2.559999942779541,63617770,0.0,0
2020-07-15,2.619999885559082,2.759999990463257,2.5399999618530273,2.700000047683716,54534620,0.0,0
2020-07-16,2.700000047683716,2.7799999713897705,2.5899999141693115,2.5999999046325684,31031540,0.0,0
2020-07-17,2.640000104904175,2.759999990463257,2.619999885559082,2.7300000190734863,21070920,0.0,0
2020-07-20,2.7899999618530273,2.8499999046325684,2.7200000286102295,2.759999990463257,53803820,0.0,0
2020-07-21,2.740000009536743,2.7799999713897705,2.7100000381469727,2.759999990463257,21104300,0.0,0
2020-07-22,2.759999990463257,2.7699999809265137,2.640000104904175,2.6500000953674316,40063610,0.0,0
2020-07-23,2.680000066757202,2.7699999809265137,2.6500000953674316,2.759999990463257,43718830,0.0,0
2020-07-24,2.7699999809265137,2.9000000953674316,2.309999942779541,2.559999942779541,234257200,0.0,0
2020-07-27,2.549999952316284,2.549999952316284,2.4200000762939453,2.490000009536743,61708690,0.0,0
2020-07-28,2.5299999713897705,2.5899999141693115,2.4800000190734863,2.5799999237060547,21233170,0.0,0
2020-07-29,2.5899999141693115,2.5899999141693115,2.5,2.5799999237060547,11928360,0.0,0
2020-07-30,2.5399999618530273,2.5799999237060547,2.5199999809265137,2.5399999618530273,10985520,0.0,0
2020-07-31,2.5299999713897705,2.6500000953674316,2.4800000190734863,2.5999999046325684,21418480,0.0,0
2020-08-03,2.5899999141693115,2.640000104904175,2.5,2.5799999237060547,11211490,0.0,0
2020-08-04,2.5799999237060547,2.809999942779541,2.5799999237060547,2.7899999618530273,44221030,0.0,0
2020-08-05,2.799999952316284,2.819999933242798,2.7300000190734863,2.7799999713897705,26692000,0.0,0
2020-08-06,2.7899999618530273,2.930000066757202,2.630000114440918,2.819999933242798,275502000,0.0,0
2020-08-07,2.9000000953674316,2.930000066757202,2.7100000381469727,2.7799999713897705,104954000,0.0,0
2020-08-10,2.799999952316284,2.859999895095825,2.7699999809265137,2.8299999237060547,45760000,0.0,0
2020-08-11,2.859999895095825,2.859999895095825,2.700000047683716,2.7300000190734863,44352000,0.0,0
2020-08-12,2.740000009536743,2.740000009536743,2.5399999618530273,2.640000104904175,59524000,0.0,0
2020-08-13,2.619999885559082,2.6600000858306885,2.5799999237060547,2.5999999046325684,38626000,0.0,0
2020-08-14,2.5899999141693115,2.690000057220459,2.569999933242798,2.619999885559082,23418000,0.0,0
2020-08-17,2.640000104904175,2.640000104904175,2.5,2.5299999713897705,47712000,0.0,0
2020-08-18,2.5299999713897705,2.6500000953674316,2.4600000381469727,2.619999885559082,48448000,0.0,0
2020-08-19,2.6500000953674316,2.6500000953674316,2.5299999713897705,2.559999942779541,20972000,0.0,0
2020-08-20,2.559999942779541,2.5799999237060547,2.490000009536743,2.5299999713897705,20448000,0.0,0
2020-08-21,2.5199999809265137,2.609999895095825,2.5199999809265137,2.5899999141693115,18126000,0.0,0
2020-08-24,2.5999999046325684,2.5999999046325684,2.5299999713897705,2.559999942779541,15800800,0.0,0
2020-08-25,2.5399999618530273,2.5799999237060547,2.4200000762939453,2.5,38379200,0.0,0
2020-08-26,2.4700000286102295,2.5,2.359999895095825,2.390000104904175,57362000,0.0,0
2020-08-27,2.369999885559082,2.490000009536743,2.3399999141693115,2.450000047683716,53067140,0.0,0
2020-08-28,2.450000047683716,2.4800000190734863,2.3499999046325684,2.3499999046325684,77008000,0.0,0
2020-08-31,2.369999885559082,2.4700000286102295,2.359999895095825,2.390000104904175,30294000,0.0,0
2020-09-01,2.359999895095825,2.4600000381469727,2.359999895095825,2.4200000762939453,30984000,0.0,0
2020-09-02,2.4200000762939453,2.4800000190734863,2.359999895095825,2.4000000953674316,40432000,0.0,0
2020-09-03,2.390000104904175,2.450000047683716,2.359999895095825,2.4100000858306885,15136000,0.0,0
2020-09-04,2.359999895095825,2.4100000858306885,2.259999990463257,2.369999885559082,33334000,0.0,0
2020-09-07,2.359999895095825,2.380000114440918,2.25,2.299999952316284,25970000,0.0,0
2020-09-08,2.309999942779541,2.3299999237060547,2.200000047683716,2.299999952316284,27068000,0.0,0
2020-09-09,2.299999952316284,2.299999952316284,2.2200000286102295,2.25,22628000,0.0,0
2020-09-10,2.2899999618530273,2.3299999237060547,2.2200000286102295,2.240000009536743,12192000,0.0,0
2020-09-11,2.240000009536743,2.319999933242798,2.2100000381469727,2.2899999618530273,6092345,0.0,0
2020-09-14,2.2899999618530273,2.440000057220459,2.2799999713897705,2.4200000762939453,13262000,0.0,0
2020-09-15,2.4000000953674316,2.440000057220459,2.359999895095825,2.390000104904175,10692000,0.0,0
2020-09-16,2.390000104904175,2.549999952316284,2.390000104904175,2.4600000381469727,22566000,0.0,0
2020-09-17,2.440000057220459,2.450000047683716,2.3499999046325684,2.4000000953674316,20268000,0.0,0
2020-09-18,2.369999885559082,2.450000047683716,2.3299999237060547,2.390000104904175,14211660,0.0,0
2020-09-21,2.450000047683716,2.450000047683716,2.359999895095825,2.4000000953674316,15623860,0.0,0
2020-09-22,2.359999895095825,2.4200000762939453,2.299999952316284,2.3299999237060547,15194000,0.0,0
2020-09-23,2.3499999046325684,2.4700000286102295,2.3499999046325684,2.450000047683716,13274000,0.0,0
2020-09-24,2.450000047683716,2.450000047683716,2.3299999237060547,2.369999885559082,11120000,0.0,0
2020-09-25,2.4000000953674316,2.4000000953674316,2.309999942779541,2.3499999046325684,10123740,0.0,0
2020-09-28,2.3499999046325684,2.4100000858306885,2.3299999237060547,2.390000104904175,5942000,0.0,0
2020-09-29,2.450000047683716,2.5299999713897705,2.430000066757202,2.440000057220459,7442000,0.0,0
2020-09-30,2.450000047683716,2.490000009536743,2.3499999046325684,2.369999885559082,6548000,0.0,0
2020-10-05,2.380000114440918,2.380000114440918,2.2799999713897705,2.2899999618530273,7304996,0.0,0
2020-10-06,2.2799999713897705,2.2899999618530273,2.2300000190734863,2.25,7812000,0.0,0
2020-10-07,2.25,2.2799999713897705,2.25,2.259999990463257,4686824,0.0,0
2020-10-08,2.259999990463257,2.299999952316284,2.2300000190734863,2.2899999618530273,6844000,0.0,0
2020-10-09,2.3299999237060547,2.3499999046325684,2.2699999809265137,2.2699999809265137,11872000,0.0,0
2020-10-12,2.2899999618530273,2.4000000953674316,2.2699999809265137,2.3499999046325684,18252110,0.0,0
2020-10-14,2.359999895095825,2.390000104904175,2.069999933242798,2.130000114440918,100582500,0.0,0
2020-10-15,2.1500000953674316,2.200000047683716,2.119999885559082,2.1600000858306885,27864000,0.0,0
2020-10-16,2.2300000190734863,2.25,2.1600000858306885,2.1600000858306885,19706000,0.0,0
2020-10-19,2.180000066757202,2.180000066757202,2.109999895095825,2.140000104904175,14002000,0.0,0
2020-10-20,2.1700000762939453,2.1700000762939453,2.109999895095825,2.1600000858306885,11520000,0.0,0
2020-10-21,2.180000066757202,2.180000066757202,2.119999885559082,2.1500000953674316,12168000,0.0,0
2020-10-22,2.119999885559082,2.190000057220459,2.109999895095825,2.190000057220459,24330000,0.0,0
2020-10-23,2.140000104904175,2.1600000858306885,2.0399999618530273,2.049999952316284,56669180,0.0,0
2020-10-27,2.0199999809265137,2.069999933242798,1.940000057220459,1.9800000190734863,45090000,0.0,0
2020-10-28,2.0299999713897705,2.0299999713897705,1.8799999952316284,1.8899999856948853,32388840,0.0,0
2020-10-29,1.8799999952316284,1.9500000476837158,1.850000023841858,1.8799999952316284,22066000,0.0,0
2020-10-30,1.8799999952316284,1.9199999570846558,1.7899999618530273,1.8200000524520874,22402000,0.0,0
2020-11-02,1.8200000524520874,1.9299999475479126,1.8200000524520874,1.8700000047683716,42302000,0.0,0
2020-11-03,1.899999976158142,1.9299999475479126,1.8600000143051147,1.899999976158142,19760000,0.0,0
2020-11-04,1.8600000143051147,1.9299999475479126,1.8600000143051147,1.909999966621399,13682000,0.0,0
2020-11-05,1.909999966621399,2.0199999809265137,1.909999966621399,2.0,18582000,0.0,0
2020-11-06,1.9900000095367432,2.0299999713897705,1.9500000476837158,1.9600000381469727,12536000,0.0,0
2020-11-09,1.9800000190734863,2.0199999809265137,1.899999976158142,1.9500000476837158,12324000,0.0,0
2020-11-10,1.9900000095367432,2.0,1.9199999570846558,1.9299999475479126,9934000,0.0,0
2020-11-11,1.9199999570846558,1.9500000476837158,1.8700000047683716,1.8899999856948853,11316000,0.0,0
2020-11-12,1.8799999952316284,2.299999952316284,1.8799999952316284,2.2100000381469727,81682000,0.0,0
2020-11-13,2.2100000381469727,2.2100000381469727,2.059999942779541,2.1500000953674316,26012000,0.0,0
2020-11-16,2.190000057220459,2.190000057220459,2.009999990463257,2.059999942779541,20288000,0.0,0
2020-11-17,2.059999942779541,2.1700000762939453,2.059999942779541,2.069999933242798,22714000,0.0,0
2020-11-18,2.0799999237060547,2.140000104904175,2.049999952316284,2.119999885559082,22113000,0.0,0
2020-11-19,2.130000114440918,2.180000066757202,2.109999895095825,2.140000104904175,12366000,0.0,0
2020-11-20,2.190000057220459,2.2200000286102295,2.140000104904175,2.190000057220459,10964000,0.0,0
2020-11-23,2.2200000286102295,2.2899999618530273,2.1600000858306885,2.200000047683716,26394000,0.0,0
2020-11-24,2.200000047683716,2.2699999809265137,2.1600000858306885,2.25,18256000,0.0,0
2020-11-25,2.240000009536743,2.240000009536743,2.119999885559082,2.1500000953674316,18160000,0.0,0
2020-11-26,2.130000114440918,2.1500000953674316,2.0899999141693115,2.0899999141693115,9086000,0.0,0
2020-11-27,2.1500000953674316,2.1500000953674316,2.049999952316284,2.0899999141693115,23724000,0.0,0
2020-11-30,2.130000114440918,2.2899999618530273,2.130000114440918,2.2300000190734863,54844000,0.0,0
2020-12-01,2.2899999618530273,2.380000114440918,2.2100000381469727,2.2200000286102295,38715800,0.0,0
2020-12-02,2.2200000286102295,2.25,2.130000114440918,2.1600000858306885,14082000,0.0,0
2020-12-03,2.1500000953674316,2.190000057220459,2.0999999046325684,2.0999999046325684,12550000,0.0,0
2020-12-04,2.119999885559082,2.180000066757202,2.0999999046325684,2.140000104904175,24484000,0.0,0
2020-12-07,2.1500000953674316,2.1500000953674316,2.059999942779541,2.059999942779541,29318000,0.0,0
