Date,Open,High,Low,Close,Volume,Dividends,Stock Splits
2018-10-31,14.300000190734863,16.959999084472656,14.0,16.579999923706055,46747190,0,0
2018-11-01,17.0,20.399999618530273,16.639999389648438,16.959999084472656,12357591,0,0
2018-11-02,17.5,18.780000686645508,16.5,18.719999313354492,6147000,0,0
2018-11-05,18.360000610351562,18.360000610351562,17.020000457763672,17.920000076293945,2533730,0,0
2018-11-06,17.920000076293945,17.959999084472656,17.0,17.1200008392334,1498000,0,0
2018-11-07,17.1200008392334,17.799999237060547,17.020000457763672,17.65999984741211,1397000,0,0
2018-11-08,17.399999618530273,18.020000457763672,17.020000457763672,17.100000381469727,4287500,0,0
2018-11-09,17.0,17.100000381469727,16.399999618530273,16.559999465942383,1324000,0,0
2018-11-12,16.520000457763672,17.5,16.0,16.81999969482422,754700,0,0
2018-11-13,16.65999984741211,18.5,16.65999984741211,18.5,1810500,0,0
2018-11-14,18.399999618530273,21.950000762939453,18.0,20.350000381469727,3137300,0,0
2018-11-15,20.799999237060547,22.700000762939453,20.5,21.75,1679300,0,0
2018-11-16,22.0,22.0,19.219999313354492,19.5,1525000,0,0
2018-11-19,19.5,20.549999237060547,19.15999984741211,19.31999969482422,3839000,0,0
2018-11-20,19.399999618530273,19.799999237060547,18.600000381469727,18.899999618530273,823500,0,0
2018-11-21,18.8799991607666,19.700000762939453,18.8799991607666,19.68000030517578,971500,0,0
2018-11-22,19.520000457763672,20.299999237060547,19.299999237060547,19.639999389648438,1830000,0,0
2018-11-23,19.520000457763672,20.0,19.100000381469727,19.299999237060547,331500,0,0
2018-11-26,19.8799991607666,19.8799991607666,18.81999969482422,18.860000610351562,340000,0,0
2018-11-27,19.040000915527344,19.040000915527344,18.68000030517578,18.799999237060547,278000,0,0
2018-11-28,18.8799991607666,21.0,18.8799991607666,20.899999618530273,2197000,0,0
2018-11-29,21.5,21.5,20.149999618530273,20.700000762939453,879230,0,0
2018-11-30,20.649999618530273,22.0,20.649999618530273,21.25,1213000,0,0
2018-12-03,21.950000762939453,24.350000381469727,21.399999618530273,23.899999618530273,2432000,0,0
2018-12-04,23.899999618530273,23.950000762939453,22.5,23.850000381469727,1402500,0,0
2018-12-05,23.0,23.299999237060547,22.049999237060547,22.649999618530273,1627500,0,0
2018-12-06,22.450000762939453,23.149999618530273,21.25,21.600000381469727,1909500,0,0
2018-12-07,21.600000381469727,22.299999237060547,21.049999237060547,21.850000381469727,2295000,0,0
2018-12-10,21.549999237060547,21.75,19.920000076293945,20.25,2231000,0,0
2018-12-11,20.0,20.5,19.5,20.0,1286500,0,0
2018-12-12,20.700000762939453,21.0,20.100000381469727,20.799999237060547,558500,0,0
2018-12-13,21.600000381469727,21.950000762939453,21.0,21.350000381469727,828000,0,0
2018-12-14,21.350000381469727,21.350000381469727,20.299999237060547,20.950000762939453,941485,0,0
2018-12-17,21.5,23.100000381469727,21.0,22.200000762939453,2183000,0,0
2018-12-18,22.049999237060547,22.850000381469727,21.0,21.5,701000,0,0
2018-12-19,21.5,21.899999618530273,20.049999237060547,20.399999618530273,637000,0,0
2018-12-20,20.350000381469727,20.799999237060547,19.719999313354492,20.5,744000,0,0
2018-12-21,20.649999618530273,21.450000762939453,20.200000762939453,20.950000762939453,804510,0,0
2018-12-24,21.0,22.049999237060547,20.75,20.850000381469727,3162377,0,0
2018-12-27,21.0,21.899999618530273,20.549999237060547,21.200000762939453,2548000,0,0
2018-12-28,21.600000381469727,22.799999237060547,21.5,22.299999237060547,2487300,0,0
2018-12-31,22.850000381469727,24.450000762939453,22.399999618530273,24.100000381469727,2176500,0,0
2019-01-02,24.5,24.75,22.549999237060547,23.149999618530273,2248180,0,0
2019-01-03,23.200000762939453,23.25,21.899999618530273,22.350000381469727,888500,0,0
2019-01-04,21.299999237060547,22.450000762939453,21.299999237060547,22.200000762939453,1544732,0,0
2019-01-07,22.600000381469727,22.600000381469727,20.899999618530273,21.0,2337500,0,0
2019-01-08,21.0,21.899999618530273,20.649999618530273,21.200000762939453,3358000,0,0
2019-01-09,21.450000762939453,22.0,20.799999237060547,21.100000381469727,2787000,0,0
2019-01-10,21.149999618530273,21.299999237060547,20.5,20.899999618530273,1960000,0,0
2019-01-11,21.049999237060547,21.549999237060547,20.5,20.549999237060547,1238500,0,0
2019-01-14,20.549999237060547,21.149999618530273,19.200000762939453,19.5,1841700,0,0
2019-01-15,19.559999465942383,20.0,19.559999465942383,19.739999771118164,679500,0,0
2019-01-16,19.559999465942383,20.25,19.559999465942383,20.149999618530273,611500,0,0
2019-01-17,20.399999618530273,21.0,20.299999237060547,20.700000762939453,1243500,0,0
2019-01-18,20.450000762939453,20.549999237060547,19.639999389648438,19.799999237060547,1591046,0,0
2019-01-21,19.920000076293945,20.299999237060547,19.5,20.200000762939453,1248000,0,0
2019-01-22,20.299999237060547,20.299999237060547,18.799999237060547,19.139999389648438,1237500,0,0
2019-01-23,19.479999542236328,19.959999084472656,19.100000381469727,19.799999237060547,782900,0,0
2019-01-24,19.860000610351562,20.200000762939453,19.6200008392334,20.049999237060547,1651500,0,0
2019-01-25,19.799999237060547,20.100000381469727,19.420000076293945,19.5,616000,0,0
2019-01-28,19.5,20.049999237060547,19.1200008392334,19.6200008392334,575500,0,0
2019-01-29,19.299999237060547,19.799999237060547,19.299999237060547,19.5,780500,0,0
2019-01-30,19.520000457763672,19.760000228881836,19.100000381469727,19.420000076293945,740000,0,0
2019-01-31,19.440000534057617,19.799999237060547,19.360000610351562,19.600000381469727,705578,0,0
2019-02-01,19.540000915527344,21.350000381469727,19.520000457763672,21.0,2104500,0,0
2019-02-04,21.200000762939453,21.899999618530273,21.049999237060547,21.149999618530273,775500,0,0
2019-02-08,21.850000381469727,22.5,21.25,21.600000381469727,1126000,0,0
2019-02-11,21.600000381469727,22.0,21.200000762939453,21.600000381469727,1280000,0,0
2019-02-12,21.299999237060547,22.0,21.0,21.899999618530273,827708,0,0
2019-02-13,21.899999618530273,22.399999618530273,21.450000762939453,22.100000381469727,689500,0,0
2019-02-14,22.100000381469727,22.399999618530273,21.25,21.350000381469727,2069000,0,0
2019-02-15,21.100000381469727,21.850000381469727,20.600000381469727,21.149999618530273,1773000,0,0
2019-02-18,21.299999237060547,21.649999618530273,21.149999618530273,21.549999237060547,524500,0,0
2019-02-19,21.75,21.950000762939453,21.100000381469727,21.850000381469727,968002,0,0
2019-02-20,21.450000762939453,21.899999618530273,21.25,21.5,372000,0,0
2019-02-21,21.5,21.799999237060547,21.149999618530273,21.649999618530273,562678,0,0
2019-02-22,21.399999618530273,23.299999237060547,21.299999237060547,22.5,1172500,0,0
2019-02-25,22.350000381469727,24.100000381469727,22.350000381469727,24.049999237060547,1825500,0,0
2019-02-26,23.899999618530273,24.5,22.600000381469727,23.200000762939453,1456000,0,0
2019-02-27,23.200000762939453,23.549999237060547,22.799999237060547,23.399999618530273,508500,0,0
2019-02-28,23.049999237060547,23.799999237060547,23.0,23.75,365500,0,0
2019-03-01,23.75,23.75,23.049999237060547,23.649999618530273,232500,0,0
2019-03-04,24.200000762939453,25.850000381469727,24.0,25.399999618530273,1836000,0,0
2019-03-05,25.450000762939453,26.850000381469727,25.450000762939453,26.799999237060547,1799500,0,0
2019-03-06,26.950000762939453,27.600000381469727,26.0,26.799999237060547,3487679,0,0
2019-03-07,26.850000381469727,28.100000381469727,25.75,28.0,3286106,0,0
2019-03-08,27.5,28.299999237060547,26.799999237060547,27.100000381469727,895652,0,0
2019-03-11,27.549999237060547,28.0,25.149999618530273,26.700000762939453,959000,0,0
2019-03-12,27.399999618530273,27.649999618530273,26.399999618530273,26.899999618530273,719588,0,0
2019-03-13,27.049999237060547,27.850000381469727,26.600000381469727,27.700000762939453,1060000,0,0
2019-03-14,26.700000762939453,29.25,26.700000762939453,28.450000762939453,2423100,0,0
2019-03-15,29.0,31.0,27.549999237060547,28.299999237060547,2488680,0,0
2019-03-18,28.399999618530273,29.700000762939453,27.799999237060547,29.450000762939453,1447000,0,0
2019-03-19,29.200000762939453,31.799999237060547,29.200000762939453,31.5,2014500,0,0
2019-03-20,31.850000381469727,31.850000381469727,30.25,30.5,762000,0,0
2019-03-21,30.200000762939453,30.850000381469727,29.899999618530273,30.100000381469727,553000,0,0
2019-03-22,30.149999618530273,30.75,29.25,30.0,850365,0,0
2019-03-25,29.25,30.75,29.049999237060547,29.899999618530273,547377,0,0
2019-03-26,30.5,30.5,28.799999237060547,29.0,1273000,0,0
2019-03-27,29.25,29.799999237060547,28.25,29.200000762939453,1617000,0,0
2019-03-28,29.0,29.200000762939453,27.5,27.899999618530273,1168000,0,0
2019-03-29,28.149999618530273,29.100000381469727,28.100000381469727,28.649999618530273,743500,0,0
2019-04-01,29.100000381469727,30.25,29.049999237060547,30.100000381469727,1187056,0,0
2019-04-02,30.5,30.899999618530273,29.899999618530273,30.049999237060547,725025,0,0
2019-04-03,29.899999618530273,30.0,28.649999618530273,28.799999237060547,999000,0,0
2019-04-04,28.799999237060547,29.799999237060547,28.75,29.200000762939453,1651500,0,0
2019-04-08,29.049999237060547,30.399999618530273,28.799999237060547,29.899999618530273,385584,0,0
2019-04-09,29.899999618530273,30.149999618530273,29.450000762939453,29.950000762939453,1054863,0,0
2019-04-10,29.549999237060547,30.100000381469727,28.950000762939453,29.75,456500,0,0
2019-04-11,30.0,30.0,28.700000762939453,28.700000762939453,362700,0,0
2019-04-12,28.5,29.350000381469727,28.450000762939453,29.25,301100,0,0
2019-04-15,29.0,29.549999237060547,28.950000762939453,29.100000381469727,426000,0,0
2019-04-16,29.149999618530273,29.149999618530273,28.350000381469727,28.350000381469727,326723,0,0
2019-04-17,27.200000762939453,28.0,25.549999237060547,25.75,41685500,0,0
2019-04-18,26.200000762939453,26.200000762939453,24.649999618530273,25.0,3097649,0,0
2019-04-23,24.799999237060547,25.350000381469727,23.899999618530273,24.149999618530273,6531748,0,0
2019-04-24,24.25,24.799999237060547,23.899999618530273,24.0,3812300,0,0
2019-04-25,24.799999237060547,25.200000762939453,23.649999618530273,24.25,3409000,0,0
2019-04-26,24.899999618530273,25.049999237060547,24.0,24.25,12804613,0,0
2019-04-29,24.299999237060547,24.799999237060547,23.350000381469727,24.450000762939453,4299775,0,0
2019-04-30,24.200000762939453,25.850000381469727,24.200000762939453,25.049999237060547,2107110,0,0
2019-05-02,25.0,25.5,24.799999237060547,25.149999618530273,918923,0,0
2019-05-03,24.899999618530273,25.149999618530273,24.5,24.950000762939453,2135899,0,0
2019-05-06,24.5,24.549999237060547,23.25,24.399999618530273,4791000,0,0
2019-05-07,24.799999237060547,27.799999237060547,24.600000381469727,24.649999618530273,3645500,0,0
2019-05-08,24.299999237060547,25.299999237060547,23.799999237060547,25.049999237060547,2826000,0,0
2019-05-09,25.049999237060547,25.25,24.5,25.100000381469727,1778148,0,0
2019-05-10,25.5,26.0,25.0,25.899999618530273,2794130,0,0
2019-05-14,25.450000762939453,25.450000762939453,24.850000381469727,25.049999237060547,1647200,0,0
2019-05-15,25.25,25.899999618530273,25.25,25.450000762939453,1803000,0,0
2019-05-16,25.799999237060547,26.600000381469727,25.600000381469727,26.350000381469727,4122500,0,0
2019-05-17,26.299999237060547,26.700000762939453,25.600000381469727,25.75,4250500,0,0
2019-05-20,25.899999618530273,25.950000762939453,24.75,24.950000762939453,1737000,0,0
2019-05-21,24.799999237060547,25.100000381469727,24.299999237060547,24.75,1420500,0,0
2019-05-22,24.899999618530273,25.450000762939453,24.850000381469727,25.049999237060547,1440601,0,0
2019-05-23,25.0,25.0,23.799999237060547,23.899999618530273,1742500,0,0
2019-05-24,23.850000381469727,24.350000381469727,23.200000762939453,24.049999237060547,2784000,0,0
2019-05-27,24.100000381469727,24.100000381469727,21.450000762939453,22.850000381469727,5349000,0,0
2019-05-28,22.700000762939453,23.600000381469727,22.700000762939453,22.899999618530273,1579000,0,0
2019-05-29,22.799999237060547,23.25,22.549999237060547,22.950000762939453,1295000,0,0
2019-05-30,22.950000762939453,23.25,22.5,22.799999237060547,1692000,0,0
2019-05-31,22.799999237060547,24.5,22.799999237060547,23.950000762939453,3439408,0,0
2019-06-03,24.100000381469727,25.149999618530273,23.450000762939453,24.75,1932046,0,0
2019-06-04,24.799999237060547,25.950000762939453,24.799999237060547,25.0,2699409,0,0
2019-06-05,25.049999237060547,25.700000762939453,25.049999237060547,25.399999618530273,2206947,0,0
2019-06-06,25.299999237060547,26.299999237060547,25.200000762939453,25.850000381469727,2430607,0,0
2019-06-10,26.049999237060547,26.75,25.950000762939453,26.200000762939453,2900000,0,0
2019-06-11,26.299999237060547,26.75,26.299999237060547,26.5,3998000,0,0
2019-06-12,26.149999618530273,26.549999237060547,25.450000762939453,26.299999237060547,3900213,0,0
2019-06-13,26.399999618530273,27.100000381469727,25.75,26.399999618530273,3023000,0,0
2019-06-14,26.299999237060547,26.75,25.450000762939453,25.899999618530273,3401500,0,0
2019-06-17,25.549999237060547,26.200000762939453,25.5,25.899999618530273,1394500,0,0
2019-06-18,26.450000762939453,26.549999237060547,25.899999618530273,26.25,3681500,0,0
2019-06-19,26.299999237060547,27.5,26.299999237060547,27.0,4533380,0,0
2019-06-20,27.0,27.649999618530273,27.0,27.5,6764830,0,0
2019-06-21,27.799999237060547,28.149999618530273,27.100000381469727,27.549999237060547,33915814,0,0
2019-06-24,27.200000762939453,27.25,26.200000762939453,26.950000762939453,5679390,0,0
2019-06-25,26.799999237060547,27.049999237060547,26.350000381469727,26.549999237060547,1848050,0,0
2019-06-26,26.149999618530273,26.149999618530273,25.850000381469727,26.049999237060547,1123263,0,0
2019-06-27,26.0,26.149999618530273,25.649999618530273,26.100000381469727,860007,0,0
2019-06-28,26.0,26.75,26.0,26.350000381469727,697671,0,0
2019-07-02,26.350000381469727,27.100000381469727,26.299999237060547,26.549999237060547,1712842,0,0
2019-07-03,26.25,27.0,26.200000762939453,26.450000762939453,610076,0,0
2019-07-04,26.0,26.350000381469727,25.5,26.299999237060547,1037500,0,0
2019-07-05,25.899999618530273,27.0,25.600000381469727,26.950000762939453,1537915,0,0
2019-07-08,26.950000762939453,27.149999618530273,26.200000762939453,27.149999618530273,1902820,0,0
2019-07-09,26.5,27.200000762939453,26.0,27.0,1545999,0,0
2019-07-10,27.149999618530273,27.399999618530273,25.649999618530273,26.0,1276000,0,0
2019-07-11,26.200000762939453,26.450000762939453,25.5,26.0,4621590,0,0
2019-07-12,26.0,26.149999618530273,25.950000762939453,26.049999237060547,517000,0,0
2019-07-15,26.0,26.0,25.399999618530273,25.450000762939453,1916900,0,0
2019-07-16,25.450000762939453,25.450000762939453,25.100000381469727,25.25,292500,0,0
2019-07-17,25.0,25.0,23.799999237060547,24.25,1908300,0,0
2019-07-18,24.25,25.450000762939453,24.100000381469727,25.200000762939453,1893500,0,0
2019-07-19,25.049999237060547,25.700000762939453,24.950000762939453,25.200000762939453,1310704,0,0
2019-07-22,25.100000381469727,25.350000381469727,24.299999237060547,25.100000381469727,2149756,0,0
2019-07-23,25.100000381469727,25.100000381469727,24.75,25.0,1741221,0,0
2019-07-24,25.100000381469727,25.100000381469727,24.100000381469727,24.649999618530273,861747,0,0
2019-07-25,24.600000381469727,25.200000762939453,24.600000381469727,25.100000381469727,1915421,0,0
2019-07-26,24.899999618530273,25.25,24.399999618530273,25.100000381469727,1427624,0,0
2019-07-29,25.100000381469727,25.600000381469727,24.850000381469727,25.5,1091046,0,0
2019-07-30,25.450000762939453,25.5,24.700000762939453,25.399999618530273,1059212,0,0
2019-07-31,25.399999618530273,25.5,24.950000762939453,25.299999237060547,992000,0,0
2019-08-01,25.299999237060547,25.299999237060547,24.649999618530273,24.700000762939453,1700000,0,0
2019-08-02,24.5,25.899999618530273,24.399999618530273,24.950000762939453,2751406,0,0
2019-08-05,24.5,25.049999237060547,23.950000762939453,24.5,1077811,0,0
2019-08-06,23.799999237060547,23.950000762939453,23.25,23.899999618530273,1292762,0,0
2019-08-07,23.799999237060547,24.299999237060547,23.549999237060547,23.649999618530273,372512,0,0
2019-08-08,23.799999237060547,24.399999618530273,23.799999237060547,24.100000381469727,1102695,0,0
2019-08-09,24.450000762939453,25.100000381469727,24.450000762939453,25.0,1836000,0,0
2019-08-12,24.649999618530273,25.0,23.899999618530273,24.299999237060547,350500,0,0
2019-08-13,23.700000762939453,23.950000762939453,22.850000381469727,23.649999618530273,813204,0,0
2019-08-14,24.100000381469727,24.100000381469727,23.100000381469727,23.450000762939453,957500,0,0
2019-08-15,23.200000762939453,23.200000762939453,22.700000762939453,23.0,1005000,0,0
2019-08-16,23.25,23.600000381469727,22.549999237060547,23.5,1666500,0,0
2019-08-19,23.5,23.600000381469727,23.25,23.399999618530273,1162500,0,0
2019-08-20,23.399999618530273,24.25,23.350000381469727,23.75,1583500,0,0
2019-08-21,23.75,24.5,23.700000762939453,24.049999237060547,1927500,0,0
2019-08-22,24.549999237060547,24.899999618530273,23.799999237060547,23.950000762939453,821000,0,0
2019-08-23,24.0,25.149999618530273,23.649999618530273,24.899999618530273,2504000,0,0
2019-08-26,24.450000762939453,24.450000762939453,23.799999237060547,24.200000762939453,1575000,0,0
2019-08-27,24.399999618530273,24.850000381469727,24.0,24.299999237060547,2007715,0,0
2019-08-28,24.25,24.649999618530273,23.850000381469727,24.450000762939453,1121500,0,0
2019-08-29,25.200000762939453,26.0,24.5,25.850000381469727,3673000,0,0
2019-08-30,26.0,26.600000381469727,24.899999618530273,25.350000381469727,5035054,0,0
2019-09-02,25.399999618530273,25.549999237060547,24.350000381469727,24.799999237060547,2056660,0,0
2019-09-03,24.799999237060547,25.450000762939453,24.399999618530273,25.0,1429528,0,0
2019-09-04,23.899999618530273,25.200000762939453,23.899999618530273,25.149999618530273,1637024,0,0
2019-09-05,25.25,25.25,24.600000381469727,24.75,1490000,0,0
2019-09-06,24.0,24.950000762939453,23.950000762939453,24.75,1280664,0,0
2019-09-09,24.600000381469727,24.75,24.25,24.450000762939453,779577,0,0
2019-09-10,23.600000381469727,24.200000762939453,23.600000381469727,23.799999237060547,1242764,0,0
2019-09-11,23.450000762939453,23.799999237060547,23.049999237060547,23.549999237060547,1314368,0,0
2019-09-12,23.549999237060547,24.299999237060547,23.549999237060547,24.049999237060547,860063,0,0
2019-09-13,23.799999237060547,24.200000762939453,23.399999618530273,24.100000381469727,1470266,0,0
2019-09-16,23.549999237060547,23.950000762939453,23.25,23.549999237060547,968718,0,0
2019-09-17,23.549999237060547,23.75,23.450000762939453,23.700000762939453,818718,0,0
2019-09-18,23.350000381469727,24.100000381469727,23.350000381469727,24.049999237060547,2182600,0,0
2019-09-19,23.850000381469727,24.899999618530273,23.799999237060547,24.700000762939453,3041861,0,0
2019-09-20,24.25,25.0,24.25,25.0,2691510,0,0
2019-09-23,24.799999237060547,25.5,24.649999618530273,24.950000762939453,3300000,0,0
2019-09-24,24.600000381469727,25.100000381469727,24.549999237060547,24.950000762939453,2008530,0,0
2019-09-25,24.899999618530273,25.049999237060547,24.75,24.850000381469727,879500,0,0
2019-09-26,25.100000381469727,25.149999618530273,23.899999618530273,24.799999237060547,1681500,0,0
2019-09-27,24.5,25.100000381469727,24.299999237060547,25.0,2143886,0,0
2019-09-30,25.0,25.049999237060547,24.850000381469727,24.950000762939453,3103941,0,0
2019-10-02,24.850000381469727,25.5,24.850000381469727,25.149999618530273,5808173,0,0
2019-10-03,24.899999618530273,26.5,24.850000381469727,26.399999618530273,4053098,0,0
2019-10-04,25.549999237060547,26.149999618530273,24.850000381469727,25.600000381469727,115857900,0,0
2019-10-08,24.700000762939453,25.75,24.700000762939453,25.100000381469727,3601426,0,0
2019-10-09,24.75,25.100000381469727,23.649999618530273,24.0,4639372,0,0
2019-10-10,23.799999237060547,23.850000381469727,23.350000381469727,23.600000381469727,3501502,0,0
2019-10-11,23.149999618530273,24.399999618530273,23.149999618530273,23.75,2769176,0,0
2019-10-14,23.5,24.350000381469727,23.5,24.100000381469727,2796713,0,0
2019-10-15,24.0,24.549999237060547,23.899999618530273,24.100000381469727,2014178,0,0
2019-10-16,24.25,24.5,24.100000381469727,24.200000762939453,3089591,0,0
2019-10-17,24.399999618530273,25.100000381469727,24.149999618530273,24.600000381469727,3590000,0,0
2019-10-18,24.75,25.149999618530273,24.299999237060547,24.850000381469727,2249170,0,0
2019-10-21,25.600000381469727,25.799999237060547,23.950000762939453,23.950000762939453,6086606,0,0
2019-10-22,23.850000381469727,24.799999237060547,23.700000762939453,23.899999618530273,1781792,0,0
2019-10-23,24.100000381469727,24.299999237060547,23.649999618530273,23.649999618530273,1442551,0,0
2019-10-24,23.5,24.0,23.149999618530273,23.350000381469727,6907094,0,0
2019-10-25,23.5,23.950000762939453,23.399999618530273,23.5,6414000,0,0
2019-10-28,23.549999237060547,23.950000762939453,23.5,23.649999618530273,2622000,0,0
2019-10-29,23.649999618530273,23.950000762939453,23.200000762939453,23.450000762939453,1750129,0,0
2019-10-30,23.450000762939453,23.899999618530273,23.350000381469727,23.700000762939453,1617500,0,0
2019-10-31,23.549999237060547,24.200000762939453,23.549999237060547,23.899999618530273,3115862,0,0
2019-11-01,24.0,24.700000762939453,23.75,24.350000381469727,7572886,0,0
2019-11-04,24.350000381469727,25.100000381469727,24.350000381469727,24.75,8450010,0,0
2019-11-05,24.5,25.049999237060547,24.25,24.5,4123429,0,0
2019-11-06,24.350000381469727,24.450000762939453,23.700000762939453,23.950000762939453,3690500,0,0
2019-11-07,23.799999237060547,24.0,23.5,23.950000762939453,4676041,0,0
2019-11-08,24.899999618530273,25.149999618530273,24.350000381469727,24.549999237060547,9769222,0,0
2019-11-11,24.549999237060547,25.0,24.25,24.350000381469727,3935511,0,0
2019-11-12,24.5,25.25,24.450000762939453,24.649999618530273,4319059,0,0
2019-11-13,24.700000762939453,25.0,24.299999237060547,24.350000381469727,4154074,0,0
2019-11-14,24.350000381469727,24.899999618530273,23.299999237060547,23.75,5055000,0,0
2019-11-15,23.850000381469727,24.899999618530273,23.75,24.700000762939453,6749400,0,0
2019-11-18,24.899999618530273,25.25,24.649999618530273,25.200000762939453,8837899,0,0
2019-11-19,25.200000762939453,26.649999618530273,25.200000762939453,25.799999237060547,10041680,0,0
2019-11-20,25.799999237060547,26.5,25.799999237060547,26.149999618530273,6844067,0,0
2019-11-21,26.149999618530273,27.850000381469727,25.899999618530273,27.200000762939453,10769160,0,0
2019-11-22,27.399999618530273,27.799999237060547,26.950000762939453,27.799999237060547,6391500,0,0
2019-11-25,27.899999618530273,28.600000381469727,27.450000762939453,28.600000381469727,8730977,0,0
2019-11-26,28.899999618530273,30.100000381469727,28.549999237060547,29.100000381469727,65098370,0,0
2019-11-27,29.149999618530273,29.25,28.200000762939453,28.5,15582140,0,0
2019-11-28,28.25,28.700000762939453,27.600000381469727,28.399999618530273,7237437,0,0
2019-11-29,26.75,28.700000762939453,26.75,27.399999618530273,6836398,0,0
2019-12-02,27.200000762939453,28.399999618530273,27.0,28.200000762939453,6706013,0,0
2019-12-03,28.299999237060547,28.299999237060547,27.950000762939453,28.149999618530273,9428091,0,0
2019-12-04,28.149999618530273,28.350000381469727,27.450000762939453,28.149999618530273,4274543,0,0
2019-12-05,27.799999237060547,28.450000762939453,27.799999237060547,28.399999618530273,3594346,0,0
2019-12-06,28.350000381469727,28.399999618530273,27.850000381469727,28.399999618530273,2636362,0,0
2019-12-09,28.299999237060547,28.649999618530273,27.299999237060547,27.899999618530273,2000542,0,0
2019-12-10,27.950000762939453,28.350000381469727,26.600000381469727,26.700000762939453,2747413,0,0
2019-12-11,27.0,27.0,26.100000381469727,26.450000762939453,2478487,0,0
2019-12-12,26.649999618530273,27.049999237060547,25.899999618530273,27.0,3696354,0,0
2019-12-13,27.299999237060547,27.5,26.600000381469727,26.850000381469727,2168893,0,0
2019-12-16,26.600000381469727,27.25,26.399999618530273,26.850000381469727,2023444,0,0
2019-12-17,26.850000381469727,27.100000381469727,26.75,27.100000381469727,4251518,0,0
2019-12-18,27.0,27.200000762939453,26.0,26.700000762939453,3839350,0,0
2019-12-19,26.700000762939453,26.799999237060547,26.350000381469727,26.799999237060547,1175993,0,0
2019-12-20,26.75,26.899999618530273,26.5,26.700000762939453,2706826,0,0
2019-12-23,26.899999618530273,27.149999618530273,26.649999618530273,27.149999618530273,2180584,0,0
2019-12-24,27.200000762939453,27.850000381469727,26.950000762939453,27.100000381469727,1891959,0,0
2019-12-27,26.899999618530273,27.5,26.399999618530273,26.899999618530273,2002922,0,0
2019-12-30,26.950000762939453,26.950000762939453,26.25,26.450000762939453,1950071,0,0
2019-12-31,26.5,26.700000762939453,26.450000762939453,26.549999237060547,1464499,0,0
2020-01-02,26.549999237060547,27.100000381469727,26.450000762939453,27.100000381469727,1806456,0,0
2020-01-03,27.149999618530273,28.0,26.649999618530273,27.950000762939453,6797750,0,0
2020-01-06,28.0,28.0,27.0,27.399999618530273,2875558,0,0
2020-01-07,27.0,27.5,26.899999618530273,27.049999237060547,1949500,0,0
2020-01-08,27.0,27.0,26.5,26.850000381469727,1501573,0,0
2020-01-09,26.700000762939453,28.200000762939453,26.700000762939453,28.200000762939453,2505378,0,0
2020-01-10,27.75,28.450000762939453,27.75,28.149999618530273,3351797,0,0
2020-01-13,28.350000381469727,29.5,28.350000381469727,29.100000381469727,3304141,0,0
2020-01-14,29.399999618530273,29.899999618530273,28.75,29.75,3333982,0,0
2020-01-15,29.75,31.700000762939453,29.700000762939453,31.700000762939453,4000760,0,0
2020-01-16,31.149999618530273,32.95000076293945,31.049999237060547,32.70000076293945,2470385,0,0
2020-01-17,32.900001525878906,32.900001525878906,31.25,31.850000381469727,2694565,0,0
2020-01-20,32.400001525878906,33.0,32.04999923706055,32.70000076293945,2193052,0,0
2020-01-21,33.0,33.0,31.549999237060547,31.799999237060547,1691356,0,0
2020-01-22,31.5,32.29999923706055,31.049999237060547,31.399999618530273,2457824,0,0
2020-01-23,31.5,31.799999237060547,30.700000762939453,31.0,1792142,0,0
2020-01-24,30.649999618530273,31.450000762939453,30.549999237060547,31.299999237060547,613492,0,0
2020-01-29,30.450000762939453,31.350000381469727,30.450000762939453,31.350000381469727,1245007,0,0
2020-01-30,30.75,31.899999618530273,29.5,30.049999237060547,2182185,0,0
2020-01-31,31.0,31.0,29.799999237060547,30.0,1635500,0,0
2020-02-03,30.450000762939453,31.600000381469727,29.850000381469727,31.0,1492601,0,0
2020-02-04,31.350000381469727,32.900001525878906,31.0,31.200000762939453,2276589,0,0
2020-02-05,31.049999237060547,32.5,31.049999237060547,31.5,1713064,0,0
2020-02-06,32.099998474121094,32.25,31.350000381469727,32.150001525878906,913707,0,0
2020-02-07,32.04999923706055,32.650001525878906,31.200000762939453,31.700000762939453,1417938,0,0
2020-02-10,31.5,32.20000076293945,31.100000381469727,31.700000762939453,775042,0,0
2020-02-11,32.0,32.20000076293945,31.25,31.5,1221391,0,0
2020-02-12,31.950000762939453,33.20000076293945,31.600000381469727,31.799999237060547,2167395,0,0
2020-02-13,31.0,32.95000076293945,30.950000762939453,32.400001525878906,12739400,0,0
2020-02-14,33.20000076293945,35.25,32.599998474121094,34.25,5830743,0,0
2020-02-17,34.79999923706055,36.04999923706055,34.54999923706055,35.25,7180300,0,0
2020-02-18,35.25,35.54999923706055,34.150001525878906,34.70000076293945,4621068,0,0
2020-02-19,35.599998474121094,35.599998474121094,34.349998474121094,35.0,3390000,0,0
2020-02-20,35.5,35.5,33.75,33.75,4786644,0,0
2020-02-21,34.29999923706055,34.45000076293945,32.95000076293945,33.25,5517500,0,0
2020-02-24,33.95000076293945,34.650001525878906,33.400001525878906,34.099998474121094,4170240,0,0
2020-02-25,34.599998474121094,36.29999923706055,33.650001525878906,35.900001525878906,8852775,0,0
2020-02-26,35.599998474121094,37.04999923706055,34.900001525878906,36.400001525878906,6347713,0,0
2020-02-27,37.04999923706055,37.900001525878906,36.0,37.29999923706055,6207897,0,0
2020-02-28,36.45000076293945,37.0,34.5,35.599998474121094,16864460,0,0
2020-03-02,35.599998474121094,36.70000076293945,35.0,35.25,3987956,0,0
2020-03-03,35.849998474121094,36.29999923706055,34.5,34.849998474121094,3822345,0,0
2020-03-04,35.5,36.150001525878906,34.849998474121094,35.349998474121094,10303460,0,0
2020-03-05,36.04999923706055,36.04999923706055,34.95000076293945,35.45000076293945,14850070,0,0
2020-03-06,35.20000076293945,35.849998474121094,34.400001525878906,34.75,6288375,0,0
2020-03-09,34.0,34.0,32.400001525878906,32.54999923706055,5964835,0,0
2020-03-10,32.54999923706055,33.0,31.299999237060547,31.75,5653119,0,0
2020-03-11,32.0,32.650001525878906,31.700000762939453,31.899999618530273,4180792,0,0
2020-03-12,31.450000762939453,31.549999237060547,29.0,29.25,7115705,0,0
2020-03-13,28.0,29.049999237060547,26.100000381469727,28.75,11126850,0,0
2020-03-16,27.899999618530273,29.100000381469727,25.850000381469727,25.950000762939453,7238001,0,0
2020-03-17,25.899999618530273,28.0,24.899999618530273,27.799999237060547,9280199,0,0
2020-03-18,28.799999237060547,29.600000381469727,26.950000762939453,27.75,8945215,0,0
2020-03-19,28.25,29.149999618530273,27.25,28.149999618530273,5274072,0,0
2020-03-20,29.0,29.649999618530273,28.0,29.649999618530273,6693860,0,0
2020-03-23,28.700000762939453,28.700000762939453,27.149999618530273,28.299999237060547,4424425,0,0
2020-03-24,29.799999237060547,29.799999237060547,28.100000381469727,28.75,3093278,0,0
2020-03-25,29.450000762939453,31.799999237060547,29.450000762939453,31.549999237060547,6255131,0,0
2020-03-26,32.0,32.70000076293945,31.0,31.75,3962095,0,0
2020-03-27,31.799999237060547,33.0,30.899999618530273,31.100000381469727,3141289,0,0
2020-03-30,30.0,31.649999618530273,29.700000762939453,30.149999618530273,3216269,0,0
2020-03-31,31.899999618530273,32.849998474121094,31.299999237060547,32.70000076293945,5769700,0,0
2020-04-01,32.79999923706055,34.0,31.75,33.25,8870832,0,0
2020-04-02,34.79999923706055,34.79999923706055,32.150001525878906,32.75,3143804,0,0
2020-04-03,32.650001525878906,33.45000076293945,31.549999237060547,31.799999237060547,3518803,0,0
2020-04-06,32.599998474121094,32.75,31.399999618530273,31.700000762939453,2008738,0,0
2020-04-07,32.25,33.599998474121094,31.5,33.5,5547031,0,0
2020-04-08,33.54999923706055,33.70000076293945,32.54999923706055,33.349998474121094,2000674,0,0
2020-04-09,34.29999923706055,34.849998474121094,33.70000076293945,34.150001525878906,3518670,0,0
2020-04-14,33.5,35.29999923706055,33.5,34.0,4397166,0,0
2020-04-15,34.0,34.45000076293945,33.45000076293945,33.95000076293945,5530149,0,0
2020-04-16,34.29999923706055,34.29999923706055,32.79999923706055,33.04999923706055,5106617,0,0
2020-04-17,33.75,34.5,33.099998474121094,33.349998474121094,4294966,0,0
2020-04-20,33.900001525878906,35.599998474121094,33.54999923706055,35.29999923706055,3402800,0,0
2020-04-21,35.0,36.45000076293945,34.45000076293945,34.95000076293945,2493326,0,0
2020-04-22,35.0,35.0,33.900001525878906,34.20000076293945,3071468,0,0
2020-04-23,35.25,35.45000076293945,34.54999923706055,34.849998474121094,5613918,0,0
2020-04-24,35.599998474121094,38.75,35.599998474121094,37.04999923706055,7218022,0,0
2020-04-27,37.599998474121094,39.70000076293945,37.349998474121094,39.20000076293945,6026548,0,0
2020-04-28,39.5,39.70000076293945,38.650001525878906,39.5,4270496,0,0
2020-04-29,39.5,39.599998474121094,37.75,38.400001525878906,4593314,0,0
2020-05-04,37.5,37.849998474121094,36.400001525878906,36.95000076293945,3389870,0,0
2020-05-05,37.099998474121094,37.349998474121094,35.79999923706055,35.900001525878906,2697259,0,0
2020-05-06,35.5,36.54999923706055,35.0,35.849998474121094,3496796,0,0
2020-05-07,36.54999923706055,38.29999923706055,36.349998474121094,38.0,5573265,0,0
2020-05-08,38.5,38.650001525878906,37.75,38.150001525878906,2322022,0,0
2020-05-11,39.20000076293945,39.45000076293945,38.099998474121094,38.599998474121094,2420298,0,0
2020-05-12,38.650001525878906,39.5,38.54999923706055,38.599998474121094,1520586,0,0
2020-05-13,38.29999923706055,39.70000076293945,38.150001525878906,39.150001525878906,2394180,0,0
2020-05-14,39.599998474121094,40.099998474121094,38.79999923706055,39.599998474121094,2971865,0,0
2020-05-15,39.599998474121094,44.70000076293945,39.54999923706055,43.04999923706055,9726942,0,0
2020-05-18,42.150001525878906,45.75,42.150001525878906,45.150001525878906,4595921,0,0
2020-05-19,46.70000076293945,46.79999923706055,42.75,43.79999923706055,4787145,0,0
2020-05-20,43.79999923706055,46.5,43.75,46.150001525878906,3761869,0,0
2020-05-21,46.349998474121094,46.70000076293945,41.599998474121094,42.0,8778256,0,0
2020-05-22,40.29999923706055,42.25,40.25,40.650001525878906,6576767,0,0
2020-05-25,40.5,41.70000076293945,39.900001525878906,40.849998474121094,2059191,0,0
2020-05-26,41.79999923706055,43.45000076293945,41.79999923706055,42.54999923706055,3354500,0,0
2020-05-27,43.29999923706055,45.29999923706055,42.0,42.25,3265051,0,0
2020-05-28,42.349998474121094,43.5,40.04999923706055,40.650001525878906,3631715,0,0
2020-05-29,39.79999923706055,42.400001525878906,39.79999923706055,42.29999923706055,5221145,0,0
2020-06-01,43.54999923706055,47.0,43.54999923706055,46.599998474121094,4704640,0,0
2020-06-02,45.79999923706055,48.349998474121094,45.79999923706055,47.70000076293945,1938951,0,0
2020-06-03,48.0,49.900001525878906,46.29999923706055,48.20000076293945,2709370,0,0
2020-06-04,47.599998474121094,48.0,45.95000076293945,47.0,3435058,0,0
2020-06-05,46.5,46.79999923706055,45.400001525878906,46.349998474121094,2553464,0,0
2020-06-08,46.25,47.25,45.54999923706055,46.5,4413222,0,0
2020-06-09,48.0,51.25,47.79999923706055,48.349998474121094,5980568,0,0
2020-06-10,49.650001525878906,49.79999923706055,47.599998474121094,48.0,2861482,0,0
2020-06-11,47.849998474121094,48.95000076293945,47.45000076293945,47.79999923706055,1858186,0,0
2020-06-12,46.599998474121094,48.54999923706055,46.20000076293945,47.5,2708597,0,0
2020-06-15,47.5,48.900001525878906,45.099998474121094,46.150001525878906,3797972,0,0
2020-06-16,47.099998474121094,50.54999923706055,47.099998474121094,47.75,4253442,0,0
2020-06-17,48.599998474121094,48.650001525878906,47.400001525878906,47.54999923706055,2043339,0,0
2020-06-18,47.849998474121094,49.900001525878906,47.79999923706055,48.95000076293945,4113950,0,0
2020-06-19,48.95000076293945,50.0,48.150001525878906,49.5,5227527,0,0
2020-06-22,50.04999923706055,53.04999923706055,50.04999923706055,53.0,6092766,0,0
2020-06-23,52.599998474121094,53.400001525878906,51.099998474121094,52.20000076293945,6198276,0,0
2020-06-24,52.20000076293945,58.20000076293945,52.20000076293945,57.900001525878906,4891115,0,0
2020-06-26,57.400001525878906,61.54999923706055,57.400001525878906,60.0,4611980,0,0
2020-06-29,60.0,60.0,56.0,58.150001525878906,5098281,0,0
2020-06-30,57.54999923706055,58.150001525878906,56.45000076293945,57.5,3938068,0,0
2020-07-02,57.5,60.25,56.70000076293945,57.099998474121094,6744656,0,0
2020-07-03,57.79999923706055,60.150001525878906,55.650001525878906,59.20000076293945,4559482,0,0
2020-07-06,59.04999923706055,59.900001525878906,55.099998474121094,55.650001525878906,5936280,0,0
2020-07-07,55.0,57.79999923706055,53.099998474121094,56.20000076293945,6816535,0,0
2020-07-08,56.0,58.45000076293945,56.0,58.349998474121094,4467677,0,0
2020-07-09,59.04999923706055,62.900001525878906,56.650001525878906,61.599998474121094,8768437,0,0
2020-07-10,60.0,61.349998474121094,57.54999923706055,59.150001525878906,5598304,0,0
2020-07-13,60.400001525878906,60.45000076293945,58.150001525878906,59.04999923706055,3600057,0,0
2020-07-14,56.349998474121094,57.849998474121094,54.099998474121094,55.0,8550924,0,0
2020-07-15,55.0,57.70000076293945,54.5,55.099998474121094,6753462,0,0
2020-07-16,56.0,56.5,49.349998474121094,51.0,11908540,0,0
2020-07-17,50.20000076293945,52.79999923706055,49.70000076293945,52.0,5144468,0,0
2020-07-20,51.400001525878906,52.04999923706055,49.0,51.150001525878906,6283045,0,0
2020-07-21,51.79999923706055,54.599998474121094,51.79999923706055,53.400001525878906,6288225,0,0
2020-07-22,52.54999923706055,54.849998474121094,52.349998474121094,52.45000076293945,6639791,0,0
2020-07-23,50.79999923706055,54.099998474121094,49.95000076293945,53.900001525878906,65542610,0,0
2020-07-24,52.45000076293945,53.650001525878906,48.5,50.04999923706055,15984790,0,0
2020-07-27,50.5,50.5,46.650001525878906,48.599998474121094,12960580,0,0
2020-07-28,49.400001525878906,49.95000076293945,47.79999923706055,48.95000076293945,8951464,0,0
2020-07-29,48.25,49.900001525878906,47.79999923706055,49.099998474121094,5812529,0,0
2020-07-30,49.20000076293945,50.150001525878906,47.79999923706055,48.70000076293945,8968463,0,0
2020-07-31,47.5,48.45000076293945,46.650001525878906,47.5,11916960,0,0
2020-08-03,48.0,48.099998474121094,45.54999923706055,47.70000076293945,17002750,0,0
2020-08-04,48.29999923706055,51.20000076293945,47.349998474121094,50.20000076293945,18200830,0,0
2020-08-05,50.400001525878906,51.900001525878906,49.75,51.650001525878906,13902000,0,0
2020-08-06,52.29999923706055,52.79999923706055,50.650001525878906,51.29999923706055,5352499,0,0
2020-08-07,51.45000076293945,51.79999923706055,48.599998474121094,50.04999923706055,3916573,0,0
2020-08-10,49.650001525878906,49.650001525878906,46.650001525878906,48.04999923706055,4632977,0,0
2020-08-11,48.54999923706055,50.20000076293945,47.70000076293945,50.099998474121094,5097663,0,0
2020-08-12,50.0,50.0,46.349998474121094,47.45000076293945,8570548,0,0
2020-08-13,47.599998474121094,49.5,47.599998474121094,48.70000076293945,5066225,0,0
2020-08-14,49.0,51.599998474121094,49.0,50.400001525878906,7629015,0,0
2020-08-17,50.650001525878906,51.20000076293945,48.5,48.900001525878906,4445764,0,0
2020-08-18,47.5,49.599998474121094,46.25,49.599998474121094,8994002,0,0
2020-08-19,51.0,55.400001525878906,50.400001525878906,54.349998474121094,15870350,0,0
2020-08-20,53.25,55.5,52.400001525878906,55.0,8669840,0,0
2020-08-21,55.0,57.349998474121094,54.150001525878906,55.849998474121094,7133168,0,0
2020-08-24,56.650001525878906,56.900001525878906,53.95000076293945,54.099998474121094,3416225,0,0
2020-08-25,53.5,54.75,52.75,53.900001525878906,4974788,0,0
2020-08-26,54.099998474121094,55.45000076293945,53.45000076293945,53.45000076293945,2739877,0,0
2020-08-27,53.0,55.099998474121094,52.54999923706055,54.54999923706055,5629065,0,0
2020-08-28,55.0,58.25,54.0,57.0,5790332,0,0
2020-08-31,55.70000076293945,56.650001525878906,51.599998474121094,51.650001525878906,16290890,0,0
2020-09-01,51.5,54.45000076293945,51.5,53.599998474121094,5504806,0,0
2020-09-02,53.79999923706055,54.70000076293945,52.75,53.20000076293945,2906832,0,0
2020-09-03,52.400001525878906,53.54999923706055,51.349998474121094,51.650001525878906,4276359,0,0
2020-09-04,50.150001525878906,52.25,49.79999923706055,51.79999923706055,5177666,0,0
2020-09-07,55.5,61.650001525878906,55.400001525878906,57.5,34850260,0,0
2020-09-08,59.5,60.900001525878906,57.5,57.5,13405240,0,0
2020-09-09,56.5,58.5,55.95000076293945,57.099998474121094,7903120,0,0
2020-09-10,58.0,58.75,54.5,54.599998474121094,8708725,0,0
2020-09-11,54.0,57.0,54.0,56.20000076293945,5251900,0,0
2020-09-14,56.20000076293945,60.0,56.099998474121094,57.25,6848229,0,0
2020-09-15,56.5,62.29999923706055,56.5,62.20000076293945,10171070,0,0
2020-09-16,62.45000076293945,67.19999694824219,61.0,64.19999694824219,12312890,0,0
2020-09-17,64.05000305175781,65.30000305175781,61.79999923706055,62.900001525878906,11470030,0,0
2020-09-18,63.0,63.650001525878906,62.099998474121094,62.650001525878906,7291180,0,0
2020-09-21,62.5,66.75,61.75,63.54999923706055,7817073,0,0
2020-09-22,64.0,64.6500015258789,60.099998474121094,60.54999923706055,7936581,0,0
2020-09-23,61.04999923706055,63.79999923706055,61.04999923706055,62.70000076293945,6478020,0,0
2020-09-24,61.099998474121094,62.0,57.900001525878906,58.349998474121094,9965887,0,0
2020-09-25,59.5,60.349998474121094,57.5,57.849998474121094,5643694,0,0
2020-09-28,59.45000076293945,59.70000076293945,56.54999923706055,57.54999923706055,5301701,0,0
2020-09-29,58.0,58.349998474121094,54.79999923706055,56.0,5774438,0,0
2020-09-30,56.400001525878906,57.900001525878906,55.599998474121094,57.400001525878906,4119023,0,0
2020-10-05,58.0,58.0,56.20000076293945,56.849998474121094,2046370,0,0
2020-10-06,58.0,60.599998474121094,57.099998474121094,60.54999923706055,5100748,0,0
2020-10-07,60.0,60.349998474121094,58.349998474121094,59.400001525878906,3596406,0,0
2020-10-08,59.79999923706055,60.099998474121094,58.5,59.95000076293945,2814985,0,0
2020-10-09,60.70000076293945,62.599998474121094,59.75,60.75,7980782,0,0
2020-10-12,63.29999923706055,67.80000305175781,62.5,67.5,17467200,0,0
2020-10-14,68.55000305175781,68.80000305175781,64.5999984741211,65.55000305175781,9622352,0,0
2020-10-15,65.0,69.75,65.0,65.80000305175781,7517984,0,0
2020-10-16,66.5999984741211,68.9000015258789,66.25,67.55000305175781,6994751,0,0
2020-10-19,68.25,68.44999694824219,64.19999694824219,64.8499984741211,7405007,0,0
2020-10-20,65.0,65.4000015258789,63.0,64.0,6178321,0,0
2020-10-21,63.95000076293945,67.75,63.900001525878906,66.19999694824219,8540607,0,0
2020-10-22,66.0,68.0,64.0999984741211,67.55000305175781,8077007,0,0
2020-10-23,67.69999694824219,68.3499984741211,62.79999923706055,64.0,11660820,0,0
2020-10-27,62.70000076293945,63.25,60.400001525878906,62.79999923706055,13975390,0,0
2020-10-28,63.0,63.849998474121094,60.54999923706055,62.400001525878906,8160337,0,0
2020-10-29,61.20000076293945,62.75,59.599998474121094,60.099998474121094,10907700,0,0
2020-10-30,60.54999923706055,61.45000076293945,56.400001525878906,57.20000076293945,13990480,0,0
2020-11-02,57.0,60.25,56.650001525878906,59.29999923706055,9665419,0,0
2020-11-03,59.400001525878906,59.599998474121094,57.0,58.25,7266435,0,0
2020-11-04,58.79999923706055,59.70000076293945,58.20000076293945,59.29999923706055,4930372,0,0
2020-11-05,60.599998474121094,62.0,59.0,61.0,8842364,0,0
2020-11-06,61.0,61.70000076293945,55.70000076293945,58.04999923706055,16736080,0,0
2020-11-09,58.04999923706055,58.70000076293945,55.0,55.400001525878906,17926610,0,0
2020-11-10,54.54999923706055,56.95000076293945,53.45000076293945,55.900001525878906,14381630,0,0
2020-11-11,55.900001525878906,56.45000076293945,52.29999923706055,54.04999923706055,12096650,0,0
2020-11-12,54.599998474121094,56.79999923706055,54.400001525878906,55.400001525878906,8223443,0,0
2020-11-13,56.099998474121094,56.79999923706055,54.20000076293945,55.349998474121094,7294069,0,0
2020-11-16,55.349998474121094,55.5,53.04999923706055,54.900001525878906,11262130,0,0
2020-11-17,54.849998474121094,54.900001525878906,52.150001525878906,53.29999923706055,8251635,0,0
2020-11-18,53.25,55.75,52.79999923706055,54.150001525878906,6498145,0,0
2020-11-19,54.099998474121094,55.20000076293945,52.79999923706055,54.45000076293945,5876959,0,0
2020-11-20,54.599998474121094,57.400001525878906,54.45000076293945,56.54999923706055,10560230,0,0
2020-11-23,56.95000076293945,57.04999923706055,54.5,55.5,8146751,0,0
2020-11-24,56.0,56.25,53.04999923706055,53.650001525878906,7855494,0,0
2020-11-25,53.29999923706055,53.79999923706055,50.54999923706055,50.849998474121094,10656160,0,0
2020-11-26,50.849998474121094,52.0,50.5,51.95000076293945,5942584,0,0
2020-11-27,52.0,52.5,50.849998474121094,51.95000076293945,4672924,0,0
2020-11-30,52.0,53.900001525878906,51.0,51.04999923706055,9272184,0,0
2020-12-01,51.5,53.95000076293945,51.349998474121094,53.45000076293945,8281425,0,0
2020-12-02,52.650001525878906,53.0,50.20000076293945,51.900001525878906,8727035,0,0
2020-12-03,51.900001525878906,54.20000076293945,51.0,53.900001525878906,7242989,0,0
2020-12-04,53.5,58.099998474121094,53.349998474121094,57.54999923706055,12741760,0,0
2020-12-07,57.599998474121094,59.349998474121094,56.79999923706055,57.95000076293945,4375544,0,0
