Date,Open,High,Low,Close,Volume,Dividends,Stock Splits
2020-01-02,26.549999237060547,27.100000381469727,26.450000762939453,27.100000381469727,1806456,0,0
2020-01-03,27.149999618530273,28.0,26.649999618530273,27.950000762939453,6797750,0,0
2020-01-06,28.0,28.0,27.0,27.399999618530273,2875558,0,0
2020-01-07,27.0,27.5,26.899999618530273,27.049999237060547,1949500,0,0
2020-01-08,27.0,27.0,26.5,26.850000381469727,1501573,0,0
2020-01-09,26.700000762939453,28.200000762939453,26.700000762939453,28.200000762939453,2505378,0,0
2020-01-10,27.75,28.450000762939453,27.75,28.149999618530273,3351797,0,0
2020-01-13,28.350000381469727,29.5,28.350000381469727,29.100000381469727,3304141,0,0
2020-01-14,29.399999618530273,29.899999618530273,28.75,29.75,3333982,0,0
2020-01-15,29.75,31.700000762939453,29.700000762939453,31.700000762939453,4000760,0,0
2020-01-16,31.149999618530273,32.95000076293945,31.049999237060547,32.70000076293945,2470385,0,0
2020-01-17,32.900001525878906,32.900001525878906,31.25,31.850000381469727,2694565,0,0
2020-01-20,32.400001525878906,33.0,32.04999923706055,32.70000076293945,2193052,0,0
2020-01-21,33.0,33.0,31.549999237060547,31.799999237060547,1691356,0,0
2020-01-22,31.5,32.29999923706055,31.049999237060547,31.399999618530273,2457824,0,0
2020-01-23,31.5,31.799999237060547,30.700000762939453,31.0,1792142,0,0
2020-01-24,30.649999618530273,31.450000762939453,30.549999237060547,31.299999237060547,613492,0,0
2020-01-29,30.450000762939453,31.350000381469727,30.450000762939453,31.350000381469727,1245007,0,0
2020-01-30,30.75,31.899999618530273,29.5,30.049999237060547,2182185,0,0
2020-01-31,31.0,31.0,29.799999237060547,30.0,1635500,0,0
2020-02-03,30.450000762939453,31.600000381469727,29.850000381469727,31.0,1492601,0,0
2020-02-04,31.350000381469727,32.900001525878906,31.0,31.200000762939453,2276589,0,0
2020-02-05,31.049999237060547,32.5,31.049999237060547,31.5,1713064,0,0
2020-02-06,32.099998474121094,32.25,31.350000381469727,32.150001525878906,913707,0,0
2020-02-07,32.04999923706055,32.650001525878906,31.200000762939453,31.700000762939453,1417938,0,0
2020-02-10,31.5,32.20000076293945,31.100000381469727,31.700000762939453,775042,0,0
2020-02-11,32.0,32.20000076293945,31.25,31.5,1221391,0,0
2020-02-12,31.950000762939453,33.20000076293945,31.600000381469727,31.799999237060547,2167395,0,0
2020-02-13,31.0,32.95000076293945,30.950000762939453,32.400001525878906,12739400,0,0
2020-02-14,33.20000076293945,35.25,32.599998474121094,34.25,5830743,0,0
2020-02-17,34.79999923706055,36.04999923706055,34.54999923706055,35.25,7180300,0,0
2020-02-18,35.25,35.54999923706055,34.150001525878906,34.70000076293945,4621068,0,0
2020-02-19,35.599998474121094,35.599998474121094,34.349998474121094,35.0,3390000,0,0
2020-02-20,35.5,35.5,33.75,33.75,4786644,0,0
2020-02-21,34.29999923706055,34.45000076293945,32.95000076293945,33.25,5517500,0,0
2020-02-24,33.95000076293945,34.650001525878906,33.400001525878906,34.099998474121094,4170240,0,0
2020-02-25,34.599998474121094,36.29999923706055,33.650001525878906,35.900001525878906,8852775,0,0
2020-02-26,35.599998474121094,37.04999923706055,34.900001525878906,36.400001525878906,6347713,0,0
2020-02-27,37.04999923706055,37.900001525878906,36.0,37.29999923706055,6207897,0,0
2020-02-28,36.45000076293945,37.0,34.5,35.599998474121094,16864460,0,0
2020-03-02,35.599998474121094,36.70000076293945,35.0,35.25,3987956,0,0
2020-03-03,35.849998474121094,36.29999923706055,34.5,34.849998474121094,3822345,0,0
2020-03-04,35.5,36.150001525878906,34.849998474121094,35.349998474121094,10303460,0,0
2020-03-05,36.04999923706055,36.04999923706055,34.95000076293945,35.45000076293945,14850070,0,0
2020-03-06,35.20000076293945,35.849998474121094,34.400001525878906,34.75,6288375,0,0
2020-03-09,34.0,34.0,32.400001525878906,32.54999923706055,5964835,0,0
2020-03-10,32.54999923706055,33.0,31.299999237060547,31.75,5653119,0,0
2020-03-11,32.0,32.650001525878906,31.700000762939453,31.899999618530273,4180792,0,0
2020-03-12,31.450000762939453,31.549999237060547,29.0,29.25,7115705,0,0
2020-03-13,28.0,29.049999237060547,26.100000381469727,28.75,11126850,0,0
2020-03-16,27.899999618530273,29.100000381469727,25.850000381469727,25.950000762939453,7238001,0,0
2020-03-17,25.899999618530273,28.0,24.899999618530273,27.799999237060547,9280199,0,0
2020-03-18,28.799999237060547,29.600000381469727,26.950000762939453,27.75,8945215,0,0
2020-03-19,28.25,29.149999618530273,27.25,28.149999618530273,5274072,0,0
2020-03-20,29.0,29.649999618530273,28.0,29.649999618530273,6693860,0,0
2020-03-23,28.700000762939453,28.700000762939453,27.149999618530273,28.299999237060547,4424425,0,0
2020-03-24,29.799999237060547,29.799999237060547,28.100000381469727,28.75,3093278,0,0
2020-03-25,29.450000762939453,31.799999237060547,29.450000762939453,31.549999237060547,6255131,0,0
2020-03-26,32.0,32.70000076293945,31.0,31.75,3962095,0,0
2020-03-27,31.799999237060547,33.0,30.899999618530273,31.100000381469727,3141289,0,0
2020-03-30,30.0,31.649999618530273,29.700000762939453,30.149999618530273,3216269,0,0
2020-03-31,31.899999618530273,32.849998474121094,31.299999237060547,32.70000076293945,5769700,0,0
2020-04-01,32.79999923706055,34.0,31.75,33.25,8870832,0,0
2020-04-02,34.79999923706055,34.79999923706055,32.150001525878906,32.75,3143804,0,0
2020-04-03,32.650001525878906,33.45000076293945,31.549999237060547,31.799999237060547,3518803,0,0
2020-04-06,32.599998474121094,32.75,31.399999618530273,31.700000762939453,2008738,0,0
2020-04-07,32.25,33.599998474121094,31.5,33.5,5547031,0,0
2020-04-08,33.54999923706055,33.70000076293945,32.54999923706055,33.349998474121094,2000674,0,0
2020-04-09,34.29999923706055,34.849998474121094,33.70000076293945,34.150001525878906,3518670,0,0
2020-04-14,33.5,35.29999923706055,33.5,34.0,4397166,0,0
2020-04-15,34.0,34.45000076293945,33.45000076293945,33.95000076293945,5530149,0,0
2020-04-16,34.29999923706055,34.29999923706055,32.79999923706055,33.04999923706055,5106617,0,0
2020-04-17,33.75,34.5,33.099998474121094,33.349998474121094,4294966,0,0
2020-04-20,33.900001525878906,35.599998474121094,33.54999923706055,35.29999923706055,3402800,0,0
2020-04-21,35.0,36.45000076293945,34.45000076293945,34.95000076293945,2493326,0,0
2020-04-22,35.0,35.0,33.900001525878906,34.20000076293945,3071468,0,0
2020-04-23,35.25,35.45000076293945,34.54999923706055,34.849998474121094,5613918,0,0
2020-04-24,35.599998474121094,38.75,35.599998474121094,37.04999923706055,7218022,0,0
2020-04-27,37.599998474121094,39.70000076293945,37.349998474121094,39.20000076293945,6026548,0,0
2020-04-28,39.5,39.70000076293945,38.650001525878906,39.5,4270496,0,0
2020-04-29,39.5,39.599998474121094,37.75,38.400001525878906,4593314,0,0
2020-05-04,37.5,37.849998474121094,36.400001525878906,36.95000076293945,3389870,0,0
2020-05-05,37.099998474121094,37.349998474121094,35.79999923706055,35.900001525878906,2697259,0,0
2020-05-06,35.5,36.54999923706055,35.0,35.849998474121094,3496796,0,0
2020-05-07,36.54999923706055,38.29999923706055,36.349998474121094,38.0,5573265,0,0
2020-05-08,38.5,38.650001525878906,37.75,38.150001525878906,2322022,0,0
2020-05-11,39.20000076293945,39.45000076293945,38.099998474121094,38.599998474121094,2420298,0,0
2020-05-12,38.650001525878906,39.5,38.54999923706055,38.599998474121094,1520586,0,0
2020-05-13,38.29999923706055,39.70000076293945,38.150001525878906,39.150001525878906,2394180,0,0
2020-05-14,39.599998474121094,40.099998474121094,38.79999923706055,39.599998474121094,2971865,0,0
2020-05-15,39.599998474121094,44.70000076293945,39.54999923706055,43.04999923706055,9726942,0,0
2020-05-18,42.150001525878906,45.75,42.150001525878906,45.150001525878906,4595921,0,0
2020-05-19,46.70000076293945,46.79999923706055,42.75,43.79999923706055,4787145,0,0
2020-05-20,43.79999923706055,46.5,43.75,46.150001525878906,3761869,0,0
2020-05-21,46.349998474121094,46.70000076293945,41.599998474121094,42.0,8778256,0,0
2020-05-22,40.29999923706055,42.25,40.25,40.650001525878906,6576767,0,0
2020-05-25,40.5,41.70000076293945,39.900001525878906,40.849998474121094,2059191,0,0
2020-05-26,41.79999923706055,43.45000076293945,41.79999923706055,42.54999923706055,3354500,0,0
2020-05-27,43.29999923706055,45.29999923706055,42.0,42.25,3265051,0,0
2020-05-28,42.349998474121094,43.5,40.04999923706055,40.650001525878906,3631715,0,0
2020-05-29,39.79999923706055,42.400001525878906,39.79999923706055,42.29999923706055,5221145,0,0
2020-06-01,43.54999923706055,47.0,43.54999923706055,46.599998474121094,4704640,0,0
2020-06-02,45.79999923706055,48.349998474121094,45.79999923706055,47.70000076293945,1938951,0,0
2020-06-03,48.0,49.900001525878906,46.29999923706055,48.20000076293945,2709370,0,0
2020-06-04,47.599998474121094,48.0,45.95000076293945,47.0,3435058,0,0
2020-06-05,46.5,46.79999923706055,45.400001525878906,46.349998474121094,2553464,0,0
2020-06-08,46.25,47.25,45.54999923706055,46.5,4413222,0,0
2020-06-09,48.0,51.25,47.79999923706055,48.349998474121094,5980568,0,0
2020-06-10,49.650001525878906,49.79999923706055,47.599998474121094,48.0,2861482,0,0
2020-06-11,47.849998474121094,48.95000076293945,47.45000076293945,47.79999923706055,1858186,0,0
2020-06-12,46.599998474121094,48.54999923706055,46.20000076293945,47.5,2708597,0,0
2020-06-15,47.5,48.900001525878906,45.099998474121094,46.150001525878906,3797972,0,0
2020-06-16,47.099998474121094,50.54999923706055,47.099998474121094,47.75,4253442,0,0
2020-06-17,48.599998474121094,48.650001525878906,47.400001525878906,47.54999923706055,2043339,0,0
2020-06-18,47.849998474121094,49.900001525878906,47.79999923706055,48.95000076293945,4113950,0,0
2020-06-19,48.95000076293945,50.0,48.150001525878906,49.5,5227527,0,0
2020-06-22,50.04999923706055,53.04999923706055,50.04999923706055,53.0,6092766,0,0
2020-06-23,52.599998474121094,53.400001525878906,51.099998474121094,52.20000076293945,6198276,0,0
2020-06-24,52.20000076293945,58.20000076293945,52.20000076293945,57.900001525878906,4891115,0,0
2020-06-26,57.400001525878906,61.54999923706055,57.400001525878906,60.0,4611980,0,0
2020-06-29,60.0,60.0,56.0,58.150001525878906,5098281,0,0
2020-06-30,57.54999923706055,58.150001525878906,56.45000076293945,57.5,3938068,0,0
2020-07-02,57.5,60.25,56.70000076293945,57.099998474121094,6744656,0,0
2020-07-03,57.79999923706055,60.150001525878906,55.650001525878906,59.20000076293945,4559482,0,0
2020-07-06,59.04999923706055,59.900001525878906,55.099998474121094,55.650001525878906,5936280,0,0
2020-07-07,55.0,57.79999923706055,53.099998474121094,56.20000076293945,6816535,0,0
2020-07-08,56.0,58.45000076293945,56.0,58.349998474121094,4467677,0,0
2020-07-09,59.04999923706055,62.900001525878906,56.650001525878906,61.599998474121094,8768437,0,0
2020-07-10,60.0,61.349998474121094,57.54999923706055,59.150001525878906,5598304,0,0
2020-07-13,60.400001525878906,60.45000076293945,58.150001525878906,59.04999923706055,3600057,0,0
2020-07-14,56.349998474121094,57.849998474121094,54.099998474121094,55.0,8550924,0,0
2020-07-15,55.0,57.70000076293945,54.5,55.099998474121094,6753462,0,0
2020-07-16,56.0,56.5,49.349998474121094,51.0,11908540,0,0
2020-07-17,50.20000076293945,52.79999923706055,49.70000076293945,52.0,5144468,0,0
2020-07-20,51.400001525878906,52.04999923706055,49.0,51.150001525878906,6283045,0,0
2020-07-21,51.79999923706055,54.599998474121094,51.79999923706055,53.400001525878906,6288225,0,0
2020-07-22,52.54999923706055,54.849998474121094,52.349998474121094,52.45000076293945,6639791,0,0
2020-07-23,50.79999923706055,54.099998474121094,49.95000076293945,53.900001525878906,65542610,0,0
2020-07-24,52.45000076293945,53.650001525878906,48.5,50.04999923706055,15984790,0,0
2020-07-27,50.5,50.5,46.650001525878906,48.599998474121094,12960580,0,0
2020-07-28,49.400001525878906,49.95000076293945,47.79999923706055,48.95000076293945,8951464,0,0
2020-07-29,48.25,49.900001525878906,47.79999923706055,49.099998474121094,5812529,0,0
2020-07-30,49.20000076293945,50.150001525878906,47.79999923706055,48.70000076293945,8968463,0,0
2020-07-31,47.5,48.45000076293945,46.650001525878906,47.5,11916960,0,0
2020-08-03,48.0,48.099998474121094,45.54999923706055,47.70000076293945,17002750,0,0
2020-08-04,48.29999923706055,51.20000076293945,47.349998474121094,50.20000076293945,18200830,0,0
2020-08-05,50.400001525878906,51.900001525878906,49.75,51.650001525878906,13902000,0,0
2020-08-06,52.29999923706055,52.79999923706055,50.650001525878906,51.29999923706055,5352499,0,0
2020-08-07,51.45000076293945,51.79999923706055,48.599998474121094,50.04999923706055,3916573,0,0
2020-08-10,49.650001525878906,49.650001525878906,46.650001525878906,48.04999923706055,4632977,0,0
2020-08-11,48.54999923706055,50.20000076293945,47.70000076293945,50.099998474121094,5097663,0,0
2020-08-12,50.0,50.0,46.349998474121094,47.45000076293945,8570548,0,0
2020-08-13,47.599998474121094,49.5,47.599998474121094,48.70000076293945,5066225,0,0
2020-08-14,49.0,51.599998474121094,49.0,50.400001525878906,7629015,0,0
2020-08-17,50.650001525878906,51.20000076293945,48.5,48.900001525878906,4445764,0,0
2020-08-18,47.5,49.599998474121094,46.25,49.599998474121094,8994002,0,0
2020-08-19,51.0,55.400001525878906,50.400001525878906,54.349998474121094,15870350,0,0
2020-08-20,53.25,55.5,52.400001525878906,55.0,8669840,0,0
2020-08-21,55.0,57.349998474121094,54.150001525878906,55.849998474121094,7133168,0,0
2020-08-24,56.650001525878906,56.900001525878906,53.95000076293945,54.099998474121094,3416225,0,0
2020-08-25,53.5,54.75,52.75,53.900001525878906,4974788,0,0
2020-08-26,54.099998474121094,55.45000076293945,53.45000076293945,53.45000076293945,2739877,0,0
2020-08-27,53.0,55.099998474121094,52.54999923706055,54.54999923706055,5629065,0,0
2020-08-28,55.0,58.25,54.0,57.0,5790332,0,0
2020-08-31,55.70000076293945,56.650001525878906,51.599998474121094,51.650001525878906,16290890,0,0
2020-09-01,51.5,54.45000076293945,51.5,53.599998474121094,5504806,0,0
2020-09-02,53.79999923706055,54.70000076293945,52.75,53.20000076293945,2906832,0,0
2020-09-03,52.400001525878906,53.54999923706055,51.349998474121094,51.650001525878906,4276359,0,0
2020-09-04,50.150001525878906,52.25,49.79999923706055,51.79999923706055,5177666,0,0
2020-09-07,55.5,61.650001525878906,55.400001525878906,57.5,34850260,0,0
2020-09-08,59.5,60.900001525878906,57.5,57.5,13405240,0,0
2020-09-09,56.5,58.5,55.95000076293945,57.099998474121094,7903120,0,0
2020-09-10,58.0,58.75,54.5,54.599998474121094,8708725,0,0
2020-09-11,54.0,57.0,54.0,56.20000076293945,5251900,0,0
2020-09-14,56.20000076293945,60.0,56.099998474121094,57.25,6848229,0,0
2020-09-15,56.5,62.29999923706055,56.5,62.20000076293945,10171070,0,0
2020-09-16,62.45000076293945,67.19999694824219,61.0,64.19999694824219,12312890,0,0
2020-09-17,64.05000305175781,65.30000305175781,61.79999923706055,62.900001525878906,11470030,0,0
2020-09-18,63.0,63.650001525878906,62.099998474121094,62.650001525878906,7291180,0,0
2020-09-21,62.5,66.75,61.75,63.54999923706055,7817073,0,0
2020-09-22,64.0,64.6500015258789,60.099998474121094,60.54999923706055,7936581,0,0
2020-09-23,61.04999923706055,63.79999923706055,61.04999923706055,62.70000076293945,6478020,0,0
2020-09-24,61.099998474121094,62.0,57.900001525878906,58.349998474121094,9965887,0,0
2020-09-25,59.5,60.349998474121094,57.5,57.849998474121094,5643694,0,0
2020-09-28,59.45000076293945,59.70000076293945,56.54999923706055,57.54999923706055,5301701,0,0
2020-09-29,58.0,58.349998474121094,54.79999923706055,56.0,5774438,0,0
2020-09-30,56.400001525878906,57.900001525878906,55.599998474121094,57.400001525878906,4119023,0,0
2020-10-05,58.0,58.0,56.20000076293945,56.849998474121094,2046370,0,0
2020-10-06,58.0,60.599998474121094,57.099998474121094,60.54999923706055,5100748,0,0
2020-10-07,60.0,60.349998474121094,58.349998474121094,59.400001525878906,3596406,0,0
2020-10-08,59.79999923706055,60.099998474121094,58.5,59.95000076293945,2814985,0,0
2020-10-09,60.70000076293945,62.599998474121094,59.75,60.75,7980782,0,0
2020-10-12,63.29999923706055,67.80000305175781,62.5,67.5,17467200,0,0
2020-10-14,68.55000305175781,68.80000305175781,64.5999984741211,65.55000305175781,9622352,0,0
2020-10-15,65.0,69.75,65.0,65.80000305175781,7517984,0,0
2020-10-16,66.5999984741211,68.9000015258789,66.25,67.55000305175781,6994751,0,0
2020-10-19,68.25,68.44999694824219,64.19999694824219,64.8499984741211,7405007,0,0
2020-10-20,65.0,65.4000015258789,63.0,64.0,6178321,0,0
2020-10-21,63.95000076293945,67.75,63.900001525878906,66.19999694824219,8540607,0,0
2020-10-22,66.0,68.0,64.0999984741211,67.55000305175781,8077007,0,0
2020-10-23,67.69999694824219,68.3499984741211,62.79999923706055,64.0,11660820,0,0
2020-10-27,62.70000076293945,63.25,60.400001525878906,62.79999923706055,13975390,0,0
2020-10-28,63.0,63.849998474121094,60.54999923706055,62.400001525878906,8160337,0,0
2020-10-29,61.20000076293945,62.75,59.599998474121094,60.099998474121094,10907700,0,0
2020-10-30,60.54999923706055,61.45000076293945,56.400001525878906,57.20000076293945,13990480,0,0
2020-11-02,57.0,60.25,56.650001525878906,59.29999923706055,9665419,0,0
2020-11-03,59.400001525878906,59.599998474121094,57.0,58.25,7266435,0,0
2020-11-04,58.79999923706055,59.70000076293945,58.20000076293945,59.29999923706055,4930372,0,0
2020-11-05,60.599998474121094,62.0,59.0,61.0,8842364,0,0
2020-11-06,61.0,61.70000076293945,55.70000076293945,58.04999923706055,16736080,0,0
2020-11-09,58.04999923706055,58.70000076293945,55.0,55.400001525878906,17926610,0,0
2020-11-10,54.54999923706055,56.95000076293945,53.45000076293945,55.900001525878906,14381630,0,0
2020-11-11,55.900001525878906,56.45000076293945,52.29999923706055,54.04999923706055,12096650,0,0
2020-11-12,54.599998474121094,56.79999923706055,54.400001525878906,55.400001525878906,8223443,0,0
2020-11-13,56.099998474121094,56.79999923706055,54.20000076293945,55.349998474121094,7294069,0,0
2020-11-16,55.349998474121094,55.5,53.04999923706055,54.900001525878906,11262130,0,0
2020-11-17,54.849998474121094,54.900001525878906,52.150001525878906,53.29999923706055,8251635,0,0
2020-11-18,53.25,55.75,52.79999923706055,54.150001525878906,6498145,0,0
2020-11-19,54.099998474121094,55.20000076293945,52.79999923706055,54.45000076293945,5876959,0,0
2020-11-20,54.599998474121094,57.400001525878906,54.45000076293945,56.54999923706055,10560230,0,0
2020-11-23,56.95000076293945,57.04999923706055,54.5,55.5,8146751,0,0
2020-11-24,56.0,56.25,53.04999923706055,53.650001525878906,7855494,0,0
2020-11-25,53.29999923706055,53.79999923706055,50.54999923706055,50.849998474121094,10656160,0,0
2020-11-26,50.849998474121094,52.0,50.5,51.95000076293945,5942584,0,0
2020-11-27,52.0,52.5,50.849998474121094,51.95000076293945,4672924,0,0
2020-11-30,52.0,53.900001525878906,51.0,51.04999923706055,9272184,0,0
2020-12-01,51.5,53.95000076293945,51.349998474121094,53.45000076293945,8281425,0,0
2020-12-02,52.650001525878906,53.0,50.20000076293945,51.900001525878906,8727035,0,0
2020-12-03,51.900001525878906,54.20000076293945,51.0,53.900001525878906,7242989,0,0
2020-12-04,53.5,58.099998474121094,53.349998474121094,57.54999923706055,12741760,0,0
2020-12-07,57.599998474121094,59.349998474121094,56.79999923706055,58.0,4562044,0,0
