Date,Open,High,Low,Close,Volume,Dividends,Stock Splits
2020-01-02,2.5299999713897705,2.559999942779541,2.440000057220459,2.5399999618530273,2451160,0,0
2020-01-03,2.5399999618530273,2.549999952316284,2.509999990463257,2.5199999809265137,2031600,0,0
2020-01-06,2.5,2.549999952316284,2.5,2.5399999618530273,1642928,0,0
2020-01-07,2.549999952316284,2.619999885559082,2.5299999713897705,2.5899999141693115,3370000,0,0
2020-01-08,2.5899999141693115,2.619999885559082,2.5299999713897705,2.5299999713897705,1947456,0,0
2020-01-09,2.5399999618530273,2.5899999141693115,2.5299999713897705,2.569999933242798,1389200,0,0
2020-01-10,2.559999942779541,2.569999933242798,2.490000009536743,2.509999990463257,1913600,0,0
2020-01-13,2.5399999618530273,2.5799999237060547,2.490000009536743,2.559999942779541,2329200,0,0
2020-01-14,2.549999952316284,2.569999933242798,2.5199999809265137,2.559999942779541,1610000,0,0
2020-01-15,2.559999942779541,2.5799999237060547,2.5399999618530273,2.559999942779541,726400,0,0
2020-01-16,2.5799999237060547,2.6700000762939453,2.5799999237060547,2.5899999141693115,6303200,0,0
2020-01-17,2.5999999046325684,2.890000104904175,2.559999942779541,2.7799999713897705,13913020,0,0
2020-01-20,2.799999952316284,2.930000066757202,2.6500000953674316,2.9100000858306885,5318800,0,0
2020-01-21,2.9100000858306885,2.9100000858306885,2.680000066757202,2.7300000190734863,2465800,0,0
2020-01-22,2.7899999618530273,2.799999952316284,2.690000057220459,2.7699999809265137,494400,0,0
2020-01-23,2.7100000381469727,2.740000009536743,2.630000114440918,2.740000009536743,1406800,0,0
2020-01-24,2.630000114440918,2.799999952316284,2.630000114440918,2.7899999618530273,527600,0,0
2020-01-29,2.75,2.75,2.569999933242798,2.700000047683716,1593600,0,0
2020-01-30,2.619999885559082,2.700000047683716,2.559999942779541,2.680000066757202,1081200,0,0
2020-01-31,2.630000114440918,2.6600000858306885,2.559999942779541,2.609999895095825,720400,0,0
2020-02-03,2.509999990463257,2.569999933242798,2.390000104904175,2.4600000381469727,4319771,0,0
2020-02-04,2.4700000286102295,2.5399999618530273,2.4200000762939453,2.5,2052400,0,0
2020-02-05,2.5399999618530273,2.5399999618530273,2.4700000286102295,2.5199999809265137,1094400,0,0
2020-02-06,2.5399999618530273,2.5999999046325684,2.5,2.5799999237060547,1673200,0,0
2020-02-07,2.5899999141693115,2.930000066757202,2.569999933242798,2.809999942779541,4965200,0,0
2020-02-10,2.9600000381469727,2.9600000381469727,2.690000057220459,2.7699999809265137,3294800,0,0
2020-02-11,2.7899999618530273,2.8299999237060547,2.7300000190734863,2.7899999618530273,1156000,0,0
2020-02-12,2.869999885559082,2.9100000858306885,2.7799999713897705,2.819999933242798,3073856,0,0
2020-02-13,2.9000000953674316,3.049999952316284,2.859999895095825,2.890000104904175,15288400,0,0
2020-02-14,2.9100000858306885,2.9200000762939453,2.809999942779541,2.890000104904175,2643256,0,0
2020-02-17,2.9000000953674316,3.0199999809265137,2.869999885559082,2.9700000286102295,4295600,0,0
2020-02-18,2.9700000286102295,3.0799999237060547,2.9200000762939453,3.0299999713897705,4701224,0,0
2020-02-19,3.0299999713897705,3.190000057220459,3.009999990463257,3.130000114440918,2996000,0,0
2020-02-20,3.25,3.25,3.009999990463257,3.069999933242798,8987184,0,0
2020-02-21,3.0799999237060547,3.119999885559082,3.0399999618530273,3.0799999237060547,4421600,0,0
2020-02-24,3.069999933242798,3.0799999237060547,2.880000114440918,3.0,5323183,0,0
2020-02-25,2.9600000381469727,2.990000009536743,2.880000114440918,2.990000009536743,2724926,0,0
2020-02-26,2.9700000286102295,2.9800000190734863,2.9200000762939453,2.9800000190734863,2363312,0,0
2020-02-27,2.950000047683716,3.0299999713897705,2.9000000953674316,3.009999990463257,2010400,0,0
2020-02-28,2.9100000858306885,3.009999990463257,2.859999895095825,2.940000057220459,2288656,0,0
2020-03-02,2.890000104904175,3.0,2.8399999141693115,2.890000104904175,3242784,0,0
2020-03-03,2.9000000953674316,2.930000066757202,2.75,2.799999952316284,3050621,0,0
2020-03-04,2.7799999713897705,2.819999933242798,2.75,2.7799999713897705,884400,0,0
2020-03-05,2.819999933242798,2.8399999141693115,2.700000047683716,2.759999990463257,1838656,0,0
2020-03-06,2.7300000190734863,2.7899999618530273,2.6700000762939453,2.7899999618530273,1324784,0,0
2020-03-09,2.700000047683716,2.759999990463257,2.5999999046325684,2.7200000286102295,2322800,0,0
2020-03-10,2.7100000381469727,2.759999990463257,2.6500000953674316,2.759999990463257,1321200,0,0
2020-03-11,2.7799999713897705,2.799999952316284,2.6700000762939453,2.700000047683716,1129440,0,0
2020-03-12,2.630000114440918,2.7100000381469727,2.5299999713897705,2.6600000858306885,2550512,0,0
2020-03-13,2.450000047683716,2.740000009536743,2.390000104904175,2.740000009536743,2030000,0,0
2020-03-16,2.5899999141693115,2.740000009536743,2.4100000858306885,2.6500000953674316,2154240,0,0
2020-03-17,2.5999999046325684,2.690000057220459,2.450000047683716,2.640000104904175,1476000,0,0
2020-03-18,2.5999999046325684,2.680000066757202,2.4200000762939453,2.619999885559082,896000,0,0
2020-03-19,2.630000114440918,2.690000057220459,2.4600000381469727,2.6500000953674316,2113840,0,0
2020-03-20,2.559999942779541,2.6600000858306885,2.5199999809265137,2.630000114440918,1164400,0,0
2020-03-23,2.619999885559082,2.640000104904175,2.450000047683716,2.549999952316284,1845600,0,0
2020-03-24,2.4800000190734863,2.5799999237060547,2.4800000190734863,2.559999942779541,3005600,0,0
2020-03-25,2.549999952316284,2.559999942779541,2.380000114440918,2.380000114440918,2943600,0,0
2020-03-26,2.390000104904175,2.5999999046325684,2.380000114440918,2.5299999713897705,3186800,0,0
2020-03-27,2.549999952316284,2.6700000762939453,2.359999895095825,2.450000047683716,4884400,0,0
2020-03-30,2.4000000953674316,2.4600000381469727,2.3299999237060547,2.4000000953674316,1608400,0,0
2020-03-31,2.4200000762939453,2.450000047683716,2.1600000858306885,2.2899999618530273,4258000,0,0
2020-04-01,2.2699999809265137,2.2799999713897705,2.180000066757202,2.25,706800,0,0
2020-04-02,2.299999952316284,2.299999952316284,2.180000066757202,2.25,1034400,0,0
2020-04-03,2.200000047683716,2.3299999237060547,2.0299999713897705,2.3299999237060547,3384865,0,0
2020-04-06,2.25,2.369999885559082,2.2300000190734863,2.299999952316284,574800,0,0
2020-04-07,2.3499999046325684,2.359999895095825,2.1700000762939453,2.25,4142400,0,0
2020-04-08,2.200000047683716,2.2100000381469727,2.1500000953674316,2.200000047683716,1782000,0,0
2020-04-09,2.2300000190734863,2.2799999713897705,2.200000047683716,2.2100000381469727,518624,0,0
2020-04-14,2.200000047683716,2.2300000190734863,2.1700000762939453,2.2200000286102295,473200,0,0
2020-04-15,2.2300000190734863,2.2300000190734863,2.1600000858306885,2.200000047683716,727200,0,0
2020-04-16,2.1600000858306885,2.240000009536743,2.1500000953674316,2.200000047683716,510000,0,0
2020-04-17,2.2300000190734863,2.2699999809265137,2.1600000858306885,2.1600000858306885,621600,0,0
2020-04-20,2.1600000858306885,2.2200000286102295,2.130000114440918,2.1600000858306885,486800,0,0
2020-04-21,2.180000066757202,2.200000047683716,2.0799999237060547,2.130000114440918,8353200,0,0
2020-04-22,2.119999885559082,2.200000047683716,2.069999933242798,2.0899999141693115,5334000,0,0
2020-04-23,2.049999952316284,2.140000104904175,2.049999952316284,2.109999895095825,574400,0,0
2020-04-24,2.130000114440918,2.130000114440918,2.069999933242798,2.0899999141693115,160800,0,0
2020-04-27,2.0799999237060547,2.180000066757202,2.069999933242798,2.109999895095825,1166800,0,0
2020-04-28,2.0899999141693115,2.200000047683716,2.0899999141693115,2.109999895095825,1828400,0,0
2020-04-29,2.0999999046325684,2.140000104904175,2.0899999141693115,2.0999999046325684,522800,0,0
2020-05-04,2.1600000858306885,2.190000057220459,2.0899999141693115,2.0999999046325684,1074256,0,0
2020-05-05,2.0999999046325684,2.1500000953674316,2.0899999141693115,2.0899999141693115,679200,0,0
2020-05-06,2.0899999141693115,2.1500000953674316,2.049999952316284,2.0999999046325684,4103600,0,0
2020-05-07,2.0999999046325684,2.130000114440918,2.0399999618530273,2.0399999618530273,4480000,0,0
2020-05-08,2.0399999618530273,2.2100000381469727,2.0299999713897705,2.180000066757202,1812000,0,0
2020-05-11,2.180000066757202,2.240000009536743,2.140000104904175,2.190000057220459,2131840,0,0
2020-05-12,2.2200000286102295,2.2200000286102295,2.069999933242798,2.069999933242798,4517424,0,0
2020-05-13,2.0799999237060547,2.1500000953674316,2.059999942779541,2.069999933242798,5059200,0,0
2020-05-14,2.069999933242798,2.1600000858306885,1.940000057220459,1.940000057220459,4893200,0,0
2020-05-15,1.899999976158142,2.119999885559082,1.899999976158142,2.109999895095825,2054342,0,0
2020-05-18,2.109999895095825,2.1700000762939453,2.0799999237060547,2.119999885559082,832400,0,0
2020-05-19,2.0999999046325684,2.1600000858306885,2.0799999237060547,2.0799999237060547,1754400,0,0
2020-05-20,2.119999885559082,2.200000047683716,2.0399999618530273,2.069999933242798,7209600,0,0
2020-05-21,2.119999885559082,2.1700000762939453,2.0199999809265137,2.0299999713897705,6375600,0,0
2020-05-22,2.0299999713897705,2.049999952316284,1.7999999523162842,1.8600000143051147,4490000,0,0
2020-05-25,1.8899999856948853,1.8899999856948853,1.7100000381469727,1.840000033378601,1925600,0,0
2020-05-26,1.8799999952316284,2.0,1.840000033378601,1.9600000381469727,3314496,0,0
2020-05-27,1.9700000286102295,2.0299999713897705,1.8600000143051147,1.899999976158142,3702240,0,0
2020-05-28,2.009999990463257,2.009999990463257,1.850000023841858,1.8600000143051147,3716400,0,0
2020-05-29,1.8799999952316284,1.899999976158142,1.7599999904632568,1.7899999618530273,3667200,0,0
2020-06-01,1.7899999618530273,1.8600000143051147,1.75,1.809999942779541,3822400,0,0
2020-06-02,1.8200000524520874,1.9299999475479126,1.8200000524520874,1.909999966621399,2477600,0,0
2020-06-03,1.9500000476837158,1.9700000286102295,1.850000023841858,1.8600000143051147,1564800,0,0
2020-06-04,1.909999966621399,1.909999966621399,1.8200000524520874,1.8300000429153442,870000,0,0
2020-06-05,1.840000033378601,1.8700000047683716,1.809999942779541,1.840000033378601,1072400,0,0
2020-06-08,1.8700000047683716,1.909999966621399,1.8300000429153442,1.850000023841858,1353440,0,0
2020-06-09,1.850000023841858,1.8799999952316284,1.840000033378601,1.8600000143051147,825600,0,0
2020-06-10,1.8600000143051147,1.8700000047683716,1.840000033378601,1.8600000143051147,615600,0,0
2020-06-11,1.8600000143051147,1.8600000143051147,1.7799999713897705,1.7899999618530273,1030000,0,0
2020-06-12,1.7799999713897705,1.7899999618530273,1.6799999475479126,1.7899999618530273,2097600,0,0
2020-06-15,1.8300000429153442,1.840000033378601,1.7899999618530273,1.8300000429153442,1635600,0,0
2020-06-16,1.8600000143051147,1.8600000143051147,1.809999942779541,1.8300000429153442,1646000,0,0
2020-06-17,1.850000023841858,1.850000023841858,1.7999999523162842,1.840000033378601,1177200,0,0
2020-06-18,1.7999999523162842,1.840000033378601,1.7999999523162842,1.840000033378601,642400,0,0
2020-06-19,1.8600000143051147,2.9000000953674316,1.8600000143051147,2.799999952316284,51011352,0,0
2020-06-22,2.700000047683716,2.990000009536743,2.319999933242798,2.490000009536743,23560620,0,0
2020-06-23,2.4600000381469727,2.6500000953674316,2.359999895095825,2.5,8273800,0,0
2020-06-24,2.4600000381469727,2.4600000381469727,2.25,2.2799999713897705,6351011,0,0
2020-06-26,2.2799999713897705,2.440000057220459,2.200000047683716,2.359999895095825,4218000,0,0
2020-06-29,2.3499999046325684,2.430000066757202,2.25,2.319999933242798,2266400,0,0
2020-06-30,2.319999933242798,2.3499999046325684,2.240000009536743,2.2899999618530273,1767189,0,0
2020-07-02,2.299999952316284,2.4800000190734863,2.25,2.4100000858306885,5051343,0,0
2020-07-03,2.4100000858306885,2.559999942779541,2.3499999046325684,2.5,5404000,0,0
2020-07-06,2.559999942779541,2.680000066757202,2.440000057220459,2.630000114440918,9318400,0,0
2020-07-07,2.7100000381469727,2.759999990463257,2.4200000762939453,2.430000066757202,5319200,0,0
2020-07-08,2.440000057220459,3.0999999046325684,2.380000114440918,3.0799999237060547,11909790,0,0
2020-07-09,3.049999952316284,3.75,3.049999952316284,3.569999933242798,27828260,0,0
2020-07-10,3.5799999237060547,3.950000047683716,3.509999990463257,3.7899999618530273,15146870,0,0
2020-07-13,3.700000047683716,3.930000066757202,3.700000047683716,3.8399999141693115,6665424,0,0
2020-07-14,3.6500000953674316,3.6500000953674316,2.9700000286102295,3.390000104904175,12612800,0,0
2020-07-15,3.390000104904175,3.5399999618530273,3.0999999046325684,3.180000066757202,7892800,0,0
2020-07-16,3.2799999713897705,3.2799999713897705,2.8399999141693115,2.930000066757202,7083600,0,0
2020-07-17,2.8499999046325684,3.0999999046325684,2.4800000190734863,3.049999952316284,14412000,0,0
2020-07-20,3.0999999046325684,3.1600000858306885,2.7899999618530273,2.9600000381469727,6500400,0,0
2020-07-21,3.0999999046325684,3.4600000381469727,3.069999933242798,3.2799999713897705,12562400,0,0
2020-07-22,3.2899999618530273,3.369999885559082,2.9700000286102295,3.0899999141693115,7505771,0,0
2020-07-23,3.0899999141693115,3.299999952316284,2.9800000190734863,3.2300000190734863,7103200,0,0
2020-07-24,3.190000057220459,3.240000009536743,2.9800000190734863,3.0399999618530273,6963200,0,0
2020-07-27,3.0999999046325684,3.119999885559082,2.809999942779541,2.869999885559082,4967200,0,0
2020-07-28,2.950000047683716,2.9700000286102295,2.809999942779541,2.8299999237060547,2904400,0,0
2020-07-29,2.799999952316284,3.0799999237060547,2.799999952316284,3.009999990463257,4559600,0,0
2020-07-30,3.0199999809265137,3.0999999046325684,2.9200000762939453,2.9200000762939453,4052000,0,0
2020-07-31,2.9200000762939453,3.0799999237060547,2.890000104904175,2.9800000190734863,4090000,0,0
2020-08-03,3.059999942779541,3.059999942779541,2.9000000953674316,3.0399999618530273,3734800,0,0
2020-08-04,2.990000009536743,3.2200000286102295,2.950000047683716,3.0999999046325684,8121742,0,0
2020-08-05,3.0999999046325684,3.380000114440918,3.0899999141693115,3.359999895095825,8779671,0,0
2020-08-06,3.369999885559082,3.430000066757202,3.0899999141693115,3.240000009536743,7463600,0,0
2020-08-07,3.2100000381469727,3.369999885559082,3.1600000858306885,3.299999952316284,6865200,0,0
2020-08-10,3.299999952316284,3.359999895095825,3.1600000858306885,3.200000047683716,3601200,0,0
2020-08-11,3.259999990463257,3.359999895095825,3.190000057220459,3.2300000190734863,6957600,0,0
2020-08-12,3.200000047683716,3.2200000286102295,2.9600000381469727,3.0299999713897705,4676400,0,0
2020-08-13,3.109999895095825,3.130000114440918,3.009999990463257,3.0999999046325684,2229600,0,0
2020-08-14,3.0999999046325684,3.2100000381469727,3.059999942779541,3.0799999237060547,3520400,0,0
2020-08-17,3.0999999046325684,3.1700000762939453,2.9800000190734863,3.069999933242798,3996800,0,0
2020-08-18,3.069999933242798,3.0999999046325684,2.9700000286102295,2.990000009536743,4074000,0,0
2020-08-19,2.990000009536743,3.009999990463257,2.8299999237060547,2.890000104904175,5133200,0,0
2020-08-20,2.9100000858306885,3.0,2.799999952316284,2.9700000286102295,4036800,0,0
2020-08-21,2.950000047683716,2.9800000190734863,2.8499999046325684,2.859999895095825,2145200,0,0
2020-08-24,2.880000114440918,2.9200000762939453,2.859999895095825,2.869999885559082,1742000,0,0
2020-08-25,2.930000066757202,2.930000066757202,2.8299999237060547,2.9100000858306885,1468400,0,0
2020-08-26,2.9100000858306885,2.9600000381469727,2.799999952316284,2.799999952316284,2298746,0,0
2020-08-27,2.809999942779541,2.859999895095825,2.700000047683716,2.7200000286102295,3343200,0,0
2020-08-28,2.700000047683716,2.7300000190734863,2.549999952316284,2.640000104904175,3686800,0,0
2020-08-31,2.640000104904175,2.7200000286102295,2.569999933242798,2.569999933242798,2325600,0,0
2020-09-01,2.5799999237060547,2.680000066757202,2.549999952316284,2.680000066757202,1515392,0,0
2020-09-02,2.680000066757202,2.7899999618530273,2.6500000953674316,2.7799999713897705,3024400,0,0
2020-09-03,2.7799999713897705,2.9800000190734863,2.7200000286102295,2.869999885559082,4702400,0,0
2020-09-04,2.7799999713897705,2.8399999141693115,2.700000047683716,2.799999952316284,2424400,0,0
2020-09-07,2.7699999809265137,2.7699999809265137,2.5,2.559999942779541,3772800,0,0
2020-09-08,2.5299999713897705,2.630000114440918,2.430000066757202,2.5399999618530273,2486344,0,0
2020-09-09,2.490000009536743,2.5199999809265137,2.430000066757202,2.450000047683716,1152400,0,0
2020-09-10,2.5299999713897705,2.5399999618530273,2.440000057220459,2.440000057220459,820000,0,0
2020-09-11,2.4600000381469727,2.509999990463257,2.4600000381469727,2.4700000286102295,570000,0,0
2020-09-14,2.4700000286102295,2.4700000286102295,2.3499999046325684,2.359999895095825,2230800,0,0
2020-09-15,2.440000057220459,2.440000057220459,2.2899999618530273,2.4100000858306885,1699200,0,0
2020-09-16,2.359999895095825,2.4100000858306885,2.3499999046325684,2.380000114440918,931200,0,0
2020-09-17,2.380000114440918,2.4200000762939453,2.309999942779541,2.3299999237060547,1474800,0,0
2020-09-18,2.3299999237060547,2.369999885559082,2.259999990463257,2.299999952316284,2616048,0,0
2020-09-21,2.299999952316284,2.4100000858306885,2.299999952316284,2.359999895095825,1600800,0,0
2020-09-22,2.2799999713897705,2.4600000381469727,2.2799999713897705,2.4000000953674316,1070000,0,0
2020-09-23,2.4000000953674316,2.4100000858306885,2.2799999713897705,2.2899999618530273,484000,0,0
2020-09-24,2.2899999618530273,2.390000104904175,2.259999990463257,2.299999952316284,1007200,0,0
2020-09-25,2.309999942779541,2.3399999141693115,2.0799999237060547,2.140000104904175,1826800,0,0
2020-09-28,2.140000104904175,2.1600000858306885,2.0199999809265137,2.0999999046325684,722000,0,0
2020-09-29,2.0799999237060547,2.1700000762939453,2.069999933242798,2.0799999237060547,544400,0,0
2020-09-30,2.0999999046325684,2.1500000953674316,2.069999933242798,2.069999933242798,589200,0,0
2020-10-05,2.1500000953674316,2.299999952316284,2.069999933242798,2.069999933242798,563600,0,0
2020-10-06,1.9800000190734863,2.200000047683716,1.899999976158142,2.1500000953674316,974400,0,0
2020-10-07,2.140000104904175,2.1500000953674316,2.0799999237060547,2.119999885559082,426400,0,0
2020-10-08,2.0999999046325684,2.119999885559082,2.049999952316284,2.0999999046325684,670800,0,0
2020-10-09,2.1700000762939453,2.259999990463257,2.0999999046325684,2.25,777600,0,0
2020-10-12,2.25,2.3399999141693115,2.2200000286102295,2.2699999809265137,899600,0,0
2020-10-14,2.2699999809265137,2.319999933242798,2.130000114440918,2.180000066757202,874800,0,0
2020-10-15,2.130000114440918,2.240000009536743,2.0199999809265137,2.059999942779541,1052971,0,0
2020-10-16,2.0999999046325684,2.180000066757202,2.0799999237060547,2.0999999046325684,744000,0,0
2020-10-19,2.0999999046325684,2.1500000953674316,2.0199999809265137,2.0799999237060547,924602,0,0
2020-10-20,2.0799999237060547,2.130000114440918,2.0399999618530273,2.109999895095825,484000,0,0
2020-10-21,2.109999895095825,2.1500000953674316,2.049999952316284,2.049999952316284,582000,0,0
2020-10-22,2.0899999141693115,2.0899999141693115,2.0399999618530273,2.0399999618530273,440800,0,0
2020-10-23,2.0799999237060547,2.0799999237060547,1.909999966621399,1.9600000381469727,1399200,0,0
2020-10-27,1.9600000381469727,2.009999990463257,1.7000000476837158,1.8200000524520874,5287900,0,0
2020-10-28,1.8200000524520874,1.9500000476837158,1.7400000095367432,1.8899999856948853,1602800,0,0
2020-10-29,1.850000023841858,1.9600000381469727,1.840000033378601,1.940000057220459,843600,0,0
2020-10-30,1.9900000095367432,2.059999942779541,1.940000057220459,1.9500000476837158,1086000,0,0
2020-11-02,1.940000057220459,2.009999990463257,1.7799999713897705,1.9800000190734863,223600,0,0
2020-11-03,2.0,2.3499999046325684,2.0,2.1600000858306885,3076400,0,0
2020-11-04,2.0799999237060547,2.2300000190734863,1.9700000286102295,2.2200000286102295,1842000,0,0
2020-11-05,2.2100000381469727,2.6700000762939453,2.2100000381469727,2.5,9086800,0,0
2020-11-06,2.5299999713897705,2.5799999237060547,2.309999942779541,2.3499999046325684,2086800,0,0
2020-11-09,2.3499999046325684,2.450000047683716,2.3499999046325684,2.390000104904175,1456000,0,0
2020-11-10,2.4000000953674316,2.4600000381469727,2.240000009536743,2.240000009536743,1525600,0,0
2020-11-11,2.240000009536743,2.2899999618530273,2.059999942779541,2.0899999141693115,1338000,0,0
2020-11-12,2.130000114440918,2.259999990463257,2.130000114440918,2.25,1266400,0,0
2020-11-13,2.25,2.2699999809265137,2.200000047683716,2.25,305600,0,0
2020-11-16,2.119999885559082,2.2799999713897705,2.119999885559082,2.240000009536743,184000,0,0
2020-11-17,2.259999990463257,2.259999990463257,2.1500000953674316,2.2100000381469727,424400,0,0
2020-11-18,2.2100000381469727,2.3499999046325684,2.200000047683716,2.3399999141693115,1936000,0,0
2020-11-19,2.3399999141693115,2.369999885559082,2.2200000286102295,2.309999942779541,684800,0,0
2020-11-20,2.2300000190734863,2.319999933242798,2.2300000190734863,2.2699999809265137,968012,0,0
2020-11-23,2.3499999046325684,2.4600000381469727,2.309999942779541,2.4000000953674316,2021600,0,0
2020-11-24,2.4100000858306885,2.549999952316284,2.4100000858306885,2.5399999618530273,3651600,0,0
2020-11-25,2.559999942779541,2.630000114440918,2.359999895095825,2.390000104904175,3394800,0,0
2020-11-26,2.440000057220459,2.440000057220459,2.2799999713897705,2.369999885559082,684000,0,0
2020-11-27,2.390000104904175,2.450000047683716,2.369999885559082,2.450000047683716,882345,0,0
2020-11-30,2.450000047683716,2.450000047683716,2.380000114440918,2.4000000953674316,326400,0,0
2020-12-01,2.3299999237060547,2.430000066757202,2.3299999237060547,2.359999895095825,1041600,0,0
2020-12-02,2.359999895095825,2.5199999809265137,2.3299999237060547,2.490000009536743,1695989,0,0
2020-12-03,2.490000009536743,2.5,2.369999885559082,2.380000114440918,668800,0,0
2020-12-04,2.3499999046325684,2.4000000953674316,2.3299999237060547,2.369999885559082,793178,0,0
2020-12-07,2.4600000381469727,2.4600000381469727,2.3399999141693115,2.369999885559082,726400,0,0
