Date,Open,High,Low,Close,Volume,Dividends,Stock Splits
2020-01-02,57.0,58.29999923706055,56.54999923706055,57.79999923706055,4073071,0,0
2020-01-03,58.5,58.95000076293945,57.04999923706055,57.599998474121094,2247436,0,0
2020-01-06,57.20000076293945,57.20000076293945,55.0,55.5,4602258,0,0
2020-01-07,56.5,59.25,55.79999923706055,57.5,9033842,0,0
2020-01-08,57.20000076293945,59.349998474121094,56.599998474121094,57.25,8073391,0,0
2020-01-09,58.25,59.20000076293945,57.79999923706055,58.150001525878906,5621402,0,0
2020-01-10,58.849998474121094,59.0,58.0,58.349998474121094,2720825,0,0
2020-01-13,58.79999923706055,61.650001525878906,58.5,61.349998474121094,11007150,0,0
2020-01-14,62.70000076293945,62.900001525878906,58.54999923706055,59.0,14004500,0,0
2020-01-15,59.0,61.099998474121094,58.150001525878906,60.0,6533277,0,0
2020-01-16,60.70000076293945,61.650001525878906,59.79999923706055,60.20000076293945,3106648,0,0
2020-01-17,61.20000076293945,61.79999923706055,59.79999923706055,61.79999923706055,4135834,0,0
2020-01-20,62.25,64.05000305175781,61.650001525878906,63.099998474121094,8612672,0,0
2020-01-21,64.30000305175781,68.3499984741211,62.5,67.0,18221090,0,0
2020-01-22,67.9000015258789,75.44999694824219,67.75,74.80000305175781,16927250,0,0
2020-01-23,75.0,75.1500015258789,67.9000015258789,71.5999984741211,12611670,0,0
2020-01-24,72.0,72.6500015258789,69.80000305175781,69.8499984741211,3752468,0,0
2020-01-29,68.5,74.25,68.0,72.44999694824219,8192839,0,0
2020-01-30,73.25,74.05000305175781,65.5,67.0,10271460,0,0
2020-01-31,68.30000305175781,69.5,65.94999694824219,67.05000305175781,4054759,0,0
2020-02-03,65.94999694824219,68.69999694824219,65.0,66.19999694824219,8717424,0,0
2020-02-04,67.44999694824219,70.4000015258789,67.1500015258789,67.6500015258789,6660795,0,0
2020-02-05,69.5999984741211,70.80000305175781,67.55000305175781,68.8499984741211,6373348,0,0
2020-02-06,70.8499984741211,73.1500015258789,70.0999984741211,71.9000015258789,8035050,0,0
2020-02-07,72.0,73.8499984741211,71.19999694824219,73.5,7121727,0,0
2020-02-10,73.5999984741211,80.0,73.0,79.44999694824219,13897990,0,0
2020-02-11,80.0,80.6500015258789,75.30000305175781,76.44999694824219,7717675,0,0
2020-02-12,77.0,77.0,70.0,72.30000305175781,16485320,0,0
2020-02-13,73.19999694824219,77.19999694824219,72.4000015258789,76.3499984741211,13672350,0,0
2020-02-14,76.8499984741211,77.6500015258789,73.0999984741211,74.19999694824219,8417343,0,0
2020-02-17,74.19999694824219,78.0,74.19999694824219,77.19999694824219,5988703,0,0
2020-02-18,77.3499984741211,80.0,76.4000015258789,78.5999984741211,7350262,0,0
2020-02-19,80.0,82.19999694824219,78.0,78.3499984741211,7616600,0,0
2020-02-20,79.3499984741211,79.80000305175781,75.80000305175781,77.25,7677250,0,0
2020-02-21,76.6500015258789,79.0,76.44999694824219,77.5,5541441,0,0
2020-02-24,76.3499984741211,77.5,73.19999694824219,74.30000305175781,7480004,0,0
2020-02-25,73.19999694824219,75.5999984741211,73.0,75.0999984741211,5077867,0,0
2020-02-26,74.0,76.4000015258789,73.9000015258789,74.8499984741211,3241717,0,0
2020-02-27,75.0999984741211,78.4000015258789,74.5999984741211,77.69999694824219,5595044,0,0
2020-02-28,75.9000015258789,77.94999694824219,74.5999984741211,76.1500015258789,5735337,0,0
2020-03-02,76.6500015258789,79.4000015258789,75.5,75.8499984741211,5252856,0,0
2020-03-03,78.0,81.30000305175781,76.19999694824219,76.44999694824219,10646200,0,0
2020-03-04,76.25,76.80000305175781,74.4000015258789,75.8499984741211,22704070,0,0
2020-03-05,77.0,77.5,73.5,75.0,8510575,0,0
2020-03-06,74.94999694824219,75.80000305175781,74.19999694824219,74.69999694824219,3623906,0,0
2020-03-09,72.5,73.5,69.0,70.4000015258789,7815235,0,0
2020-03-10,70.30000305175781,73.1500015258789,69.3499984741211,72.80000305175781,7362897,0,0
2020-03-11,73.30000305175781,74.5999984741211,71.30000305175781,71.94999694824219,4825851,0,0
2020-03-12,71.0,71.25,67.30000305175781,70.44999694824219,9944013,0,0
2020-03-13,66.80000305175781,71.0999984741211,63.349998474121094,70.55000305175781,8581420,0,0
2020-03-16,69.55000305175781,70.80000305175781,65.9000015258789,66.0,9904023,0,0
2020-03-17,66.0,67.5,64.19999694824219,65.30000305175781,11328340,0,0
2020-03-18,64.9000015258789,67.19999694824219,60.79999923706055,62.650001525878906,10298770,0,0
2020-03-19,63.0,64.30000305175781,56.0,59.54999923706055,14481010,0,0
2020-03-20,60.0,63.5,60.0,63.5,18594890,0,0
2020-03-23,60.0,62.5,59.650001525878906,60.599998474121094,6922300,0,0
2020-03-24,62.29999923706055,64.44999694824219,61.70000076293945,64.1500015258789,4074792,0,0
2020-03-25,66.30000305175781,67.75,64.44999694824219,66.1500015258789,6672422,0,0
2020-03-26,65.25,69.75,65.0,68.4000015258789,4932895,0,0
2020-03-27,71.30000305175781,72.0,70.3499984741211,70.69999694824219,5809730,0,0
2020-03-30,71.0,71.80000305175781,69.05000305175781,70.75,2873175,0,0
2020-03-31,74.19999694824219,74.19999694824219,71.3499984741211,72.30000305175781,4180480,0,0
2020-04-01,72.5,75.94999694824219,71.5999984741211,73.75,6660028,0,0
2020-04-02,75.0,79.94999694824219,74.1500015258789,79.0,8649524,0,0
2020-04-03,79.19999694824219,81.80000305175781,78.5999984741211,81.3499984741211,5313775,0,0
2020-04-06,82.0,85.55000305175781,81.0,84.5,4228688,0,0
2020-04-07,85.5,85.55000305175781,81.75,83.5,5773211,0,0
2020-04-08,84.0,88.5,83.75,86.5,7840811,0,0
2020-04-09,87.0,87.19999694824219,84.30000305175781,85.8499984741211,5434247,0,0
2020-04-14,86.4000015258789,92.44999694824219,85.0,90.25,7195765,0,0
2020-04-15,90.75,94.25,90.5,94.25,7450180,0,0
2020-04-16,94.9000015258789,99.75,93.94999694824219,98.5999984741211,6932517,0,0
2020-04-17,100.0,101.0999984741211,94.25,96.0,10919980,0,0
2020-04-20,96.0,104.80000305175781,95.0,104.5999984741211,8354339,0,0
2020-04-21,105.19999694824219,110.0999984741211,101.5999984741211,107.0,10510210,0,0
2020-04-22,104.80000305175781,123.30000305175781,104.80000305175781,114.69999694824219,16666430,0,0
2020-04-23,114.69999694824219,118.5,110.9000015258789,111.80000305175781,14972770,0,0
2020-04-24,111.9000015258789,115.30000305175781,109.0999984741211,111.19999694824219,6753711,0,0
2020-04-27,112.0,115.19999694824219,109.69999694824219,114.0,5383374,0,0
2020-04-28,114.0,115.30000305175781,111.69999694824219,114.0999984741211,4281220,0,0
2020-04-29,113.0,113.9000015258789,105.4000015258789,107.4000015258789,12491840,0,0
2020-05-04,103.0,107.9000015258789,100.69999694824219,105.0,8526811,0,0
2020-05-05,106.5999984741211,107.0,102.0999984741211,104.30000305175781,5561100,0,0
2020-05-06,105.5999984741211,106.5999984741211,102.80000305175781,105.5,4873057,0,0
2020-05-07,107.0,109.80000305175781,104.80000305175781,107.0,4881519,0,0
2020-05-08,108.0999984741211,109.4000015258789,107.30000305175781,108.4000015258789,3320059,0,0
2020-05-11,109.5999984741211,113.0,108.0,109.19999694824219,3387316,0,0
2020-05-12,110.0,116.0,109.5999984741211,115.69999694824219,6121021,0,0
2020-05-13,115.69999694824219,119.5999984741211,112.9000015258789,116.80000305175781,4966698,0,0
2020-05-14,116.9000015258789,117.5999984741211,110.0999984741211,111.80000305175781,6365762,0,0
2020-05-15,113.5,114.0,111.0999984741211,112.30000305175781,2053605,0,0
2020-05-18,110.9000015258789,110.9000015258789,100.0,102.80000305175781,14411430,0,0
2020-05-19,104.0,104.5999984741211,98.25,101.0,19215870,0,0
2020-05-20,100.0,108.19999694824219,98.4000015258789,106.19999694824219,15492330,0,0
2020-05-21,108.0,109.30000305175781,103.4000015258789,105.0999984741211,9355891,0,0
2020-05-22,101.30000305175781,103.69999694824219,96.5,100.5,11774650,0,0
2020-05-25,97.5999984741211,101.0999984741211,96.80000305175781,99.9000015258789,9684869,0,0
2020-05-26,100.80000305175781,103.80000305175781,100.0,102.19999694824219,5048360,0,0
2020-05-27,104.0,104.0,99.05000305175781,101.19999694824219,6206450,0,0
2020-05-28,101.0,101.9000015258789,95.80000305175781,100.5,6347707,0,0
2020-05-29,98.0,102.0999984741211,97.55000305175781,102.0999984741211,9359847,0,0
2020-06-01,104.0,107.5,103.0,105.69999694824219,4775397,0,0
2020-06-02,106.80000305175781,107.80000305175781,103.80000305175781,106.80000305175781,3152920,0,0
2020-06-03,109.0,111.5,107.30000305175781,109.5999984741211,6107582,0,0
2020-06-04,111.0999984741211,111.30000305175781,104.69999694824219,107.19999694824219,4175227,0,0
2020-06-05,108.9000015258789,109.0,104.69999694824219,105.5999984741211,2747216,0,0
2020-06-08,105.80000305175781,107.0,100.9000015258789,101.0,5686075,0,0
2020-06-09,100.0999984741211,103.9000015258789,98.8499984741211,101.0,5826781,0,0
2020-06-10,103.5,105.5,101.0999984741211,102.0,4155473,0,0
2020-06-11,102.9000015258789,104.5,100.9000015258789,102.69999694824219,3793925,0,0
2020-06-12,100.5,111.4000015258789,100.30000305175781,111.4000015258789,15847890,0,0
2020-06-15,109.0,117.0,106.69999694824219,107.5999984741211,8182998,0,0
2020-06-16,111.5,114.9000015258789,110.0999984741211,112.9000015258789,6479108,0,0
2020-06-17,114.80000305175781,114.80000305175781,110.0999984741211,111.30000305175781,3473726,0,0
2020-06-18,112.9000015258789,114.30000305175781,110.80000305175781,113.80000305175781,3389999,0,0
2020-06-19,113.9000015258789,116.69999694824219,111.0999984741211,112.69999694824219,9903938,0,0
2020-06-22,112.9000015258789,114.5,109.5999984741211,111.30000305175781,6188335,0,0
2020-06-23,111.80000305175781,114.0,109.5999984741211,112.69999694824219,4090406,0,0
2020-06-24,114.0,116.80000305175781,112.30000305175781,115.0,5820011,0,0
2020-06-26,116.0,124.80000305175781,115.19999694824219,119.9000015258789,10841330,0,0
2020-06-29,120.9000015258789,121.80000305175781,113.30000305175781,117.69999694824219,6055622,0,0
2020-06-30,119.5,119.69999694824219,115.5999984741211,117.9000015258789,4066774,0,0
2020-07-02,120.0,124.30000305175781,118.5,121.5999984741211,7664493,0,0
2020-07-03,124.0999984741211,124.0999984741211,118.0,121.0999984741211,6112083,0,0
2020-07-06,122.80000305175781,122.9000015258789,118.5999984741211,121.19999694824219,5391037,0,0
2020-07-07,122.80000305175781,122.80000305175781,118.0,121.19999694824219,6659095,0,0
2020-07-08,122.19999694824219,128.39999389648438,120.5,124.0,8895738,0,0
2020-07-09,127.0,130.10000610351562,125.0999984741211,128.6999969482422,6889222,0,0
2020-07-10,128.5,129.8000030517578,124.5,126.0,3596489,0,0
2020-07-13,126.19999694824219,126.80000305175781,119.0999984741211,125.5,6829863,0,0
2020-07-14,124.9000015258789,124.9000015258789,111.0,119.5,11886560,0,0
2020-07-15,120.5,121.30000305175781,115.0,117.80000305175781,6864876,0,0
2020-07-16,119.0,119.19999694824219,110.5,112.69999694824219,7448750,0,0
2020-07-17,112.9000015258789,117.0,112.69999694824219,116.4000015258789,4267464,0,0
2020-07-20,117.19999694824219,117.9000015258789,112.80000305175781,114.30000305175781,4113128,0,0
2020-07-21,119.5999984741211,125.5,117.30000305175781,125.30000305175781,10611130,0,0
2020-07-22,125.5,127.4000015258789,120.5,120.69999694824219,5403822,0,0
2020-07-23,122.9000015258789,124.0999984741211,120.19999694824219,123.5,3090007,0,0
2020-07-24,121.0,122.30000305175781,116.4000015258789,117.19999694824219,5340209,0,0
2020-07-27,117.30000305175781,119.0,112.5999984741211,114.30000305175781,3881900,0,0
2020-07-28,117.30000305175781,119.0,115.80000305175781,118.0999984741211,2813476,0,0
2020-07-29,119.0,125.0999984741211,118.0,123.30000305175781,5368021,0,0
2020-07-30,125.69999694824219,133.5,124.0999984741211,129.0,8678221,0,0
2020-07-31,131.0,134.1999969482422,130.3000030517578,132.39999389648438,5450715,0,0
2020-08-03,135.0,135.0,128.39999389648438,133.0,3335743,0,0
2020-08-04,133.60000610351562,134.6999969482422,129.0,131.39999389648438,3118715,0,0
2020-08-05,131.3000030517578,132.0,129.39999389648438,131.39999389648438,2423971,0,0
2020-08-06,132.3000030517578,132.89999389648438,128.6999969482422,132.89999389648438,4101432,0,0
2020-08-07,132.6999969482422,133.0,125.19999694824219,129.3000030517578,3930116,0,0
2020-08-10,128.0,128.8000030517578,124.0,125.5,2933407,0,0
2020-08-11,127.0,127.0,118.0,120.69999694824219,7604568,0,0
2020-08-12,119.5,120.69999694824219,115.4000015258789,117.4000015258789,5984705,0,0
2020-08-13,118.4000015258789,118.80000305175781,115.5,117.0,3144544,0,0
2020-08-14,117.0999984741211,118.0999984741211,115.19999694824219,116.4000015258789,2505149,0,0
2020-08-17,116.0,116.4000015258789,110.5999984741211,116.19999694824219,5505438,0,0
2020-08-18,118.9000015258789,119.0,115.5,117.0999984741211,4151883,0,0
2020-08-19,118.0,118.19999694824219,114.19999694824219,116.0,2888367,0,0
2020-08-20,116.0,116.0,113.30000305175781,116.0,3367546,0,0
2020-08-21,115.0,115.0,103.5,110.0,16565330,0,0
2020-08-24,110.9000015258789,111.0,104.4000015258789,107.5,10224760,0,0
2020-08-25,107.5,108.0,104.19999694824219,105.80000305175781,9719086,0,0
2020-08-26,107.5,108.69999694824219,105.80000305175781,107.9000015258789,6904517,0,0
2020-08-27,109.4000015258789,112.80000305175781,108.19999694824219,111.69999694824219,7056467,0,0
2020-08-28,112.80000305175781,115.0,108.80000305175781,113.30000305175781,5909595,0,0
2020-08-31,115.0,116.4000015258789,111.0999984741211,113.0,8865314,0,0
2020-09-01,114.5,115.80000305175781,111.5,114.0999984741211,5028850,0,0
2020-09-02,118.19999694824219,118.19999694824219,115.19999694824219,116.80000305175781,4473814,0,0
2020-09-03,117.9000015258789,117.9000015258789,114.4000015258789,115.4000015258789,3450621,0,0
2020-09-04,112.0,112.4000015258789,109.69999694824219,111.30000305175781,4284585,0,0
2020-09-07,112.0,112.0,108.30000305175781,110.19999694824219,4436803,0,0
2020-09-08,110.4000015258789,111.30000305175781,107.0,109.19999694824219,2412958,0,0
2020-09-09,108.0,110.0,105.19999694824219,109.9000015258789,3489403,0,0
2020-09-10,112.5,113.5,109.0,109.9000015258789,3037093,0,0
2020-09-11,110.0,111.5999984741211,108.0,111.30000305175781,3074076,0,0
2020-09-14,114.0,114.0,110.0,112.4000015258789,5381436,0,0
2020-09-15,112.0,114.80000305175781,111.5,114.5,3700391,0,0
2020-09-16,115.0,116.5,114.4000015258789,116.0,4129460,0,0
2020-09-17,116.0,116.30000305175781,113.30000305175781,114.5999984741211,2672720,0,0
2020-09-18,116.80000305175781,116.80000305175781,113.80000305175781,114.69999694824219,3746858,0,0
2020-09-21,114.80000305175781,114.80000305175781,109.5,110.30000305175781,10515330,0,0
2020-09-22,110.30000305175781,112.9000015258789,109.5,110.5999984741211,4831175,0,0
2020-09-23,112.9000015258789,112.9000015258789,109.80000305175781,111.5999984741211,5585060,0,0
2020-09-24,109.80000305175781,110.4000015258789,106.19999694824219,107.0999984741211,7035712,0,0
2020-09-25,107.0999984741211,108.5,103.5,105.9000015258789,6993901,0,0
2020-09-28,105.9000015258789,107.19999694824219,104.80000305175781,106.80000305175781,4203098,0,0
2020-09-29,108.0,108.9000015258789,106.5,107.30000305175781,1419309,0,0
2020-09-30,101.0,101.19999694824219,98.94999694824219,99.25,25754560,0,0
2020-10-05,102.19999694824219,102.19999694824219,98.19999694824219,99.0,6790835,0,0
2020-10-06,100.0,100.30000305175781,99.19999694824219,99.80000305175781,7077859,0,0
2020-10-07,101.0,101.0,98.0999984741211,98.75,7073675,0,0
2020-10-08,99.0,99.5,97.5999984741211,98.5999984741211,4287498,0,0
2020-10-09,99.44999694824219,99.5,97.0,98.0,6930833,0,0
2020-10-12,99.3499984741211,102.80000305175781,98.5999984741211,102.0,13285040,0,0
2020-10-14,104.0999984741211,105.69999694824219,99.5999984741211,101.0999984741211,14738240,0,0
2020-10-15,102.5,103.0999984741211,99.75,99.75,16447670,0,0
2020-10-16,102.69999694824219,102.69999694824219,99.5,100.0,6796412,0,0
2020-10-19,100.4000015258789,101.0,98.0,99.1500015258789,5288600,0,0
2020-10-20,99.25,102.30000305175781,99.0999984741211,101.80000305175781,4486206,0,0
2020-10-21,104.5,104.69999694824219,102.0999984741211,102.9000015258789,4540906,0,0
2020-10-22,106.5,106.5,101.19999694824219,102.5999984741211,3548396,0,0
2020-10-23,102.0,102.0999984741211,99.3499984741211,100.0,4368986,0,0
2020-10-27,102.0999984741211,102.0999984741211,99.5999984741211,100.5999984741211,3586090,0,0
2020-10-28,100.5999984741211,101.30000305175781,99.19999694824219,101.0,3725328,0,0
2020-10-29,100.5999984741211,100.5999984741211,99.5,100.0,4978236,0,0
2020-10-30,100.0,100.5999984741211,99.0,100.0,3948815,0,0
2020-11-02,100.0,101.0,97.80000305175781,99.6500015258789,5275089,0,0
2020-11-03,100.0,103.0,99.5,101.5,5568995,0,0
2020-11-04,101.0,105.0,100.80000305175781,103.80000305175781,4873146,0,0
2020-11-05,106.5,110.19999694824219,106.5,108.19999694824219,8887830,0,0
2020-11-06,110.0,110.80000305175781,100.5,103.5999984741211,10227810,0,0
2020-11-09,103.5999984741211,104.9000015258789,102.5,103.4000015258789,4924522,0,0
2020-11-10,104.0,104.0,98.9000015258789,100.5,8481707,0,0
2020-11-11,99.5,100.0,95.80000305175781,96.30000305175781,11687410,0,0
2020-11-12,97.05000305175781,100.5,96.94999694824219,100.0,5163326,0,0
2020-11-13,101.4000015258789,104.0999984741211,99.75,103.30000305175781,6153065,0,0
2020-11-16,104.69999694824219,105.80000305175781,102.0999984741211,104.69999694824219,5410533,0,0
2020-11-17,105.69999694824219,105.69999694824219,101.80000305175781,104.30000305175781,4569152,0,0
2020-11-18,104.9000015258789,105.9000015258789,102.4000015258789,104.30000305175781,3868393,0,0
2020-11-19,104.80000305175781,104.80000305175781,101.5,104.0,3502150,0,0
2020-11-20,104.5,104.9000015258789,99.94999694824219,101.30000305175781,5600780,0,0
2020-11-23,102.19999694824219,102.19999694824219,97.5,99.0,7666986,0,0
2020-11-24,100.30000305175781,100.30000305175781,96.05000305175781,97.1500015258789,6551611,0,0
2020-11-25,97.1500015258789,97.9000015258789,89.05000305175781,90.55000305175781,16481960,0,0
2020-11-26,91.0,92.30000305175781,88.1500015258789,90.9000015258789,7618177,0,0
2020-11-27,91.05000305175781,93.75,90.5999984741211,92.5999984741211,6044930,0,0
2020-11-30,93.80000305175781,95.75,92.80000305175781,94.8499984741211,8458600,0,0
2020-12-01,95.44999694824219,95.8499984741211,92.8499984741211,94.25,4002371,0,0
2020-12-02,94.8499984741211,94.8499984741211,91.1500015258789,91.5999984741211,6130988,0,0
2020-12-03,92.0,94.69999694824219,90.80000305175781,93.6500015258789,5502229,0,0
2020-12-04,94.94999694824219,94.94999694824219,91.8499984741211,92.69999694824219,4170980,0,0
2020-12-07,93.5,94.5,91.3499984741211,91.75,3112939,0,0
