Date,Open,High,Low,Close,Volume,Dividends,Stock Splits
2020-01-02,4.5417501192585465,4.611470139429729,4.472030099087365,4.491950511932373,810000,0.0,0
2020-01-03,4.4819907139915065,4.5716306802485605,4.44215083452811,4.511870861053467,973500,0.0,0
2020-01-06,4.481990742827357,4.481990742827357,4.332590956414013,4.362471103668213,1263500,0.0,0
2020-01-07,4.312670884154278,4.452110458892455,4.153311370167788,4.402310848236084,649000,0.0,0
2020-01-08,4.3325908234025885,4.452110458892455,4.252911066409344,4.402310848236084,604500,0.0,0
2020-01-09,4.382390808726365,4.5317905871351005,4.382390808726365,4.432190418243408,668500,0.0,0
2020-01-10,4.392350673675537,4.442150759629522,4.372430734279707,4.392350673675537,567000,0.0,0
2020-01-13,4.392350844344455,4.442150932233469,4.21307138281591,4.342551231384277,1402500,0.0,0
2020-01-14,4.242951226032478,4.382390797214228,4.203110873623175,4.292750835418701,1019000,0.0,0
2020-01-15,4.242951732298306,4.342551437883719,4.203111375135282,4.282791614532471,1148500,0.0,0
2020-01-16,4.242951404671814,4.551710705609664,4.232991197417937,4.5218305587768555,3533000,0.0,0
2020-01-17,4.511870800449075,4.730990134554498,4.5019105932526005,4.671230316162109,3706500,0.0,0
2020-01-20,4.671230348867773,4.73099016767857,4.5915505904533775,4.6612701416015625,1521414,0.0,0
2020-01-21,4.6612703101915045,4.6612703101915045,4.442150966626755,4.4720306396484375,723500,0.0,0
2020-01-22,4.481990613209456,4.541750431060791,4.342551038223008,4.541750431060791,885500,0.0,0
2020-01-23,4.402310650033487,4.472030196799228,4.332590628338955,4.462070465087891,669500,0.0,0
2020-01-24,4.332590514442701,4.372430390098315,4.272830700959279,4.352510452270508,439000,0.0,0
2020-01-29,4.183190822601318,4.272830781990805,4.073631399935043,4.183190822601318,4633000,0.0,0
2020-01-30,4.193151357463287,4.193151357463287,3.7947520872310627,3.8047120571136475,1729500,0.0,0
2020-01-31,3.8644719054351113,4.003911476270333,3.7748319438623548,3.7947518825531006,976500,0.0,0
2020-02-03,3.79475195401681,3.9043118563435724,3.734992136819161,3.8445518016815186,1146944,0.0,0
2020-02-04,3.8843920258201154,4.053711750075865,3.8146719996769174,3.9541118144989014,1003000,0.0,0
2020-02-05,3.9740314563223644,4.103511054165965,3.9740314563223644,4.043751239776611,757000,0.0,0
2020-02-06,4.14335134947549,4.14335134947549,3.993952035856561,4.063671588897705,944500,0.0,0
2020-02-07,4.183190806685104,4.183190806685104,3.944151549127687,4.043751239776611,499550,0.0,0
2020-02-10,4.043751581554802,4.153311487993023,3.9541118523944134,4.083591461181641,590500,0.0,0
2020-02-11,4.173231497156577,4.173231497156577,4.0537118562899,4.063671588897705,320600,0.0,0
2020-02-12,4.123431618989631,4.153311768189994,3.98399203088861,4.003911972045898,1616694,0.0,0
2020-02-13,4.043751577319719,4.043751577319719,3.844551941929734,3.9441518783569336,3002500,0.0,0
2020-02-14,3.983991723932667,4.113471568943397,3.9441518446876467,3.9541118144989014,1810000,0.0,0
2020-02-17,4.113471386756451,4.332590712899202,3.993951754314951,4.292750835418701,3381000,0.0,0
2020-02-18,4.282791412437898,4.56167057491742,4.183191236623518,4.481990814208984,5228000,0.0,0
2020-02-19,4.5616701234360555,4.5616701234360555,4.143350946190165,4.183190822601318,3673250,0.0,0
2020-02-20,4.203110929361091,4.262871221303131,4.023831478321396,4.133391380310059,2932500,0.0,0
2020-02-21,4.223031111875453,4.223031111875453,4.1134716784981435,4.203111171722412,1263000,0.0,0
2020-02-24,4.312671085239143,4.611470662824609,4.312671085239143,4.481990814208984,10726000,0.0,0
2020-02-25,4.501910613268315,4.501910613268315,4.292751010500614,4.382390975952148,2409500,0.0,0
2020-02-26,4.362471063941271,4.402310943298183,4.193151339209983,4.2329912185668945,1925000,0.0,0
2020-02-27,4.193151141717451,4.3425509197337275,4.193151141717451,4.292750835418701,1292500,0.0,0
2020-02-28,4.193151371721405,4.262871398600985,4.113471612389787,4.223031044006348,3816500,0.0,0
2020-03-02,4.292751347626583,4.3823913201178835,4.203111375135282,4.282791614532471,4315000,0.0,0
2020-03-03,4.372430734279707,4.521830517212844,4.30271118385871,4.392350673675537,3276000,0.0,0
2020-03-04,4.392350708264085,4.4720304664748625,4.312670950053308,4.382390975952148,2715500,0.0,0
2020-03-05,4.402310553844965,4.511870449848599,4.38239061592874,4.491950511932373,3019000,0.0,0
2020-03-06,4.3823908426266796,4.591550439031119,4.34255096473334,4.4222307205200195,4334000,0.0,0
2020-03-09,4.242951629779017,5.039749730138737,4.232991421996708,4.312671184539795,17982000,0.0,0
2020-03-10,4.551711057077514,4.551711057077514,4.232991524275335,4.282791614532471,4622500,0.0,0
2020-03-11,4.322630972513432,4.581590175628662,4.322630972513432,4.581590175628662,7722000,0.0,0
2020-03-12,4.581590184616728,4.581590184616728,4.242951226032478,4.292750835418701,5267000,0.0,0
2020-03-13,4.003911770191998,4.322631287569496,3.665272550125877,4.203111171722412,7916200,0.0,0
2020-03-16,4.153311555092677,4.18319122783112,3.8345920379999994,3.924232006072998,8627500,0.0,0
2020-03-17,4.203111004979444,4.481990630987336,4.103511308165489,4.25291109085083,11539000,0.0,0
2020-03-18,4.2927509055926985,4.352510722790348,3.734992136819161,3.8445518016815186,8474000,0.0,0
2020-03-19,4.083591451290439,4.083591451290439,3.7051123582877983,3.8047120571136475,5409500,0.0,0
2020-03-20,3.8545118762093984,3.934191872107778,3.7549121781669377,3.884392023086548,5315300,0.0,0
2020-03-23,3.7648720407485765,3.8246318578721086,3.725032162666222,3.774832010269165,3149500,0.0,0
2020-03-24,3.834591962086458,3.954111837996178,3.6055124176018736,3.6652724742889404,6282600,0.0,0
2020-03-25,3.7947518825531006,3.8345917599345922,3.545752411454376,3.7947518825531006,13061500,0.0,0
2020-03-26,3.685192485175686,3.9142720340828516,3.685192485175686,3.8545119762420654,4589500,0.0,0
2020-03-27,3.924232107840903,4.232991425408661,3.8744322562113327,4.033792018890381,7724000,0.0,0
2020-03-30,3.9341920118146874,4.103511504499568,3.904312101340885,4.053711891174316,2963500,0.0,0
2020-03-31,4.173231497156577,4.282791405415448,3.934191977958805,4.063671588897705,5862000,0.0,0
2020-04-01,4.013871870830845,4.163271180535261,3.9341918748763915,3.9541118144989014,6249500,0.0,0
2020-04-02,3.8843918957653485,4.033791675396479,3.8843918957653485,3.9939517974853516,1144500,0.0,0
2020-04-03,3.9939520035254756,4.083591495985433,3.904312036136687,4.073631763458252,2838500,0.0,0
2020-04-06,4.073631798192061,4.252911259569433,4.023831710345039,4.203111171722412,2753000,0.0,0
2020-04-07,4.332590916959175,4.352510856637631,4.193151339209983,4.2329912185668945,4935500,0.0,0
2020-04-08,4.252911158245351,4.332590916959175,4.213071278888439,4.2329912185668945,5088000,0.0,0
2020-04-09,4.272831076575801,4.561670437934719,4.272831076575801,4.5218305587768555,11023000,0.0,0
2020-04-14,4.5218303093635175,4.840549799975439,4.511870577587818,4.740950107574463,10935280,0.0,0
2020-04-15,4.780789984534853,4.860469738455635,4.5716303930284035,4.740950107574463,8503500,0.0,0
2020-04-16,4.770829866405562,4.790749805255591,4.551710539055245,4.571630477905273,5502500,0.0,0
2020-04-17,4.631390271536235,4.830589659050756,4.631390271536235,4.721029758453369,13490000,0.0,0
2020-04-20,4.750909971216573,4.800710056263712,4.68118994713634,4.701109886169434,7030000,0.0,0
2020-04-21,4.71107029266265,4.760870379818806,4.422230926986133,4.50191068649292,8339500,0.0,0
2020-04-22,4.501910528782436,4.750910005982635,4.422230772066983,4.691150188446045,5645000,0.0,0
2020-04-23,4.711070401461542,4.830590043481945,4.661270313155287,4.75091028213501,11978260,0.0,0
2020-04-24,4.750910350474346,4.800710439496948,4.701110261451743,4.730990409851074,5313000,0.0,0
2020-04-27,4.78079043010453,4.91026980482888,4.711070401461542,4.75091028213501,12579000,0.0,0
2020-04-28,4.760870558250405,4.890349934837247,4.6612703802052,4.730990409851074,7922500,0.0,0
2020-04-29,4.711070228074971,4.76087031454838,4.501910624772771,4.6612701416015625,5058000,0.0,0
2020-05-04,4.531790666479992,4.601510216010299,4.442150702879528,4.551710605621338,1810000,0.0,0
2020-05-05,4.541750136332682,4.63139009475708,4.541750136332682,4.63139009475708,1138500,0.0,0
2020-05-06,4.621430130037059,4.74095023916443,4.541750373904683,4.701109886169434,5450545,0.0,0
2020-05-07,4.641350169501506,4.740950341750972,4.641350169501506,4.671230316162109,2916500,0.0,0
2020-05-08,4.681190013885498,4.730990099642737,4.6413501352512325,4.681190013885498,3040500,0.0,0
2020-05-11,4.7210297927135825,4.760870145434408,4.681189914921563,4.7110700607299805,5303000,0.0,0
2020-05-12,4.730990217437737,5.109469548815675,4.721030010066769,5.069629669189453,28042500,0.0,0
2020-05-13,5.039749373430913,6.095507102259162,5.029789641282389,5.96602725982666,51567490,0.0,0
2020-05-14,5.866427795024778,6.205067250146597,5.7269882149453135,5.756868362426758,29527000,0.0,0
2020-05-15,5.856467755890026,6.364426437051643,5.776788000015954,6.274786949157715,32330350,0.0,0
2020-05-18,6.35446677439849,6.872385668162481,6.324586628155131,6.822585582733154,25212500,0.0,0
2020-05-19,6.922185460516528,7.220985031084664,6.53374639872101,7.051665306091309,33767500,0.0,0
2020-05-20,7.051665306091309,7.211024823765608,6.862425641388666,7.051665306091309,18882500,0.0,0
2020-05-21,7.171184609989028,8.177142705727098,7.151264671208512,7.5795440673828125,48860500,0.0,0
2020-05-22,7.390304542675293,7.768783861151595,6.3544667578455885,6.54370641708374,40854000,0.0,0
2020-05-25,6.543706474534081,7.649263818574873,6.473986449488295,7.519784450531006,25240000,0.0,0
2020-05-26,7.639304267626152,8.017783598404671,7.310625023765952,7.74886417388916,21836500,0.0,0
2020-05-27,7.74886401622337,7.818583566575846,7.171184824454408,7.370384693145752,12465000,0.0,0
2020-05-28,7.370385173781061,7.430144995806859,6.623386686065322,6.952065944671631,17668000,0.0,0
2020-05-29,6.952065443461802,7.390304581651604,6.852465747266122,7.101465225219727,19886540,0.0,0
2020-06-01,7.250865225978212,7.758823929382647,7.131345112004673,7.460024356842041,21611000,0.0,0
2020-06-02,7.549664174089261,7.699063957401104,7.071585152448654,7.220984935760498,13949000,0.0,0
2020-06-03,7.3106247611112565,7.848463590818911,7.091504956457732,7.689103603363037,27611500,0.0,0
2020-06-04,7.75882389047131,7.948063555474125,7.280744861761256,7.330544948577881,22006730,0.0,0
2020-06-05,7.280744662390521,7.499864468468855,7.280744662390521,7.3903045654296875,8241901,0.0,0
2020-06-08,7.479944976340378,7.918183664832398,7.260825157165527,7.260825157165527,25137170,0.0,0
2020-06-09,7.370384415333011,7.589503740212501,7.290704660831378,7.310624599456787,7508000,0.0,0
2020-06-10,7.420184444555041,7.6691839289351265,7.340504685542025,7.469984531402588,9525652,0.0,0
2020-06-11,7.489903974672944,8.147262892813655,7.4102242209416564,7.619383811950684,36916740,0.0,0
2020-06-12,7.380344702949683,7.967983649043898,7.380344702949683,7.709023952484131,18858290,0.0,0
2020-06-15,7.5942618659197585,7.863703458951946,7.185109464759021,7.364737510681152,17744210,0.015,0
2020-06-16,7.5443650661845725,7.584282303901078,7.294882092530912,7.4445719718933105,11787740,0.0,0
2020-06-17,7.484489349200867,7.534386135202614,7.2350063708941725,7.344779014587402,7079000,0.0,0
2020-06-18,7.384696088524652,7.384696088524652,6.925647380599403,7.254964828491211,12169000,0.0,0
2020-06-19,7.215047782223986,7.235006401539018,7.035420208388695,7.185109615325928,15091500,0.0,0
2020-06-22,7.225026832269411,7.674096479286245,6.915667995889469,6.995502948760986,24268710,0.0,0
2020-06-23,7.065357643074337,7.065357643074337,6.5963298682639,6.95558500289917,6176594,0.0,0
2020-06-24,7.135213304963857,7.344779045697206,6.915668016647481,7.185109615325928,13426500,0.0,0
2020-06-26,7.244985642822015,7.2948819510745935,6.795916013442808,6.845812797546387,10111500,0.0,0
2020-06-29,6.8358335942015405,7.853724139132343,6.8358335942015405,7.484489440917969,42036730,0.0,0
2020-06-30,7.584282429737395,9.061221677306072,7.504447952979794,8.662049293518066,67190530,0.0,0
2020-07-02,8.781800708468284,9.300724789654437,8.682007140081485,9.0213041305542,29778440,0.0,0
2020-07-03,8.78180067995785,9.81964979066274,8.4824209274714,8.831697463989258,46000675,0.0,0
2020-07-06,9.131076794454973,9.689919094960821,8.831697976303968,8.9414701461792,44526100,0.0,0
2020-07-07,8.981386736342463,10.65791256500436,8.88159316970231,10.13898754119873,49863330,0.0,0
2020-07-08,10.198863943860369,10.218822086308766,9.280766550386332,9.659980773925781,51247770,0.0,0
2020-07-09,9.759773868265386,10.37849154174417,9.520270436925607,10.278698921203613,42379160,0.0,0
2020-07-10,9.909464246219523,9.91944284210188,9.18097345149331,9.580146789550781,54707230,0.0,0
2020-07-13,9.63004207611084,9.869546445998129,9.380559110908983,9.63004207611084,25908500,0.0,0
2020-07-14,9.48035303384842,9.510290724320848,8.881593514187712,8.951449394226074,36134500,0.0,0
2020-07-15,9.061221677306072,9.310704655099086,8.622132055139264,8.662049293518066,24134000,0.0,0
2020-07-16,8.721924330330706,8.81173835105686,7.723992458621416,7.783868789672852,36594550,0.0,0
2020-07-17,7.8637037812908686,8.711945357100044,7.80382792214614,8.432524681091309,32856690,0.0,0
2020-07-20,8.532318377534848,8.84167674961447,8.302793533754482,8.682007789611816,24090500,0.0,0
2020-07-21,8.861635344194543,9.1610151031157,8.592193275654896,8.761841773986816,20999270,0.0,0
2020-07-22,8.711945044108287,9.460393970304615,8.642090115541277,8.791780471801758,40515000,0.0,0
2020-07-23,9.041263281962628,9.669959530979725,9.021304187478526,9.400518417358398,39400540,0.0,0
2020-07-24,9.280766786647806,9.510290665008332,8.831697625553979,8.921510696411133,33647140,0.0,0
2020-07-27,9.081180714217668,9.360601381080697,8.452483499999335,8.632110595703125,23350830,0.0,0
2020-07-28,8.811738967895508,9.170994124246684,8.672028153463463,8.811738967895508,15553500,0.0,0
2020-07-29,8.951449627447964,9.380559707739591,8.84167650668565,9.260807991027832,29445230,0.0,0
2020-07-30,9.430456304944629,9.450415399846861,8.91153220961294,8.9813871383667,13543000,0.0,0
2020-07-31,9.091159716285336,9.250829627616687,8.991367092368069,9.03128433227539,9610785,0.0,0
2020-08-03,9.200932399183426,9.230870089754712,8.642090115541277,8.791780471801758,18541170,0.0,0
2020-08-04,8.761841362840599,8.881593070449352,8.62213151314804,8.711944580078125,13371500,0.0,0
2020-08-05,8.781800722041258,10.418408393859863,8.55227589507767,10.418408393859863,70383800,0.0,0
2020-08-06,10.238781495504666,10.598036635947945,9.879525403359366,9.99927806854248,31885500,0.0,0
2020-08-07,10.178904733058076,10.977250407586588,9.919442222288463,10.458325386047363,43594950,0.0,0
2020-08-10,10.877457799757748,11.156879429067894,9.360601741040378,10.079113006591797,31034000,0.0,0
2020-08-11,10.198864257677634,10.498244017231377,9.789712332025061,9.99927806854248,22309000,0.0,0
2020-08-12,10.079112431642852,10.079112431642852,8.881593406800604,9.240849494934082,37553500,0.0,0
2020-08-13,9.18097345149331,9.72983619650856,9.18097345149331,9.580146789550781,18055500,0.0,0
2020-08-14,9.610084232151431,10.677871051823141,9.540229304270708,10.318615913391113,32185500,0.0,0
2020-08-17,9.839607947688066,10.178904937556965,9.280766630482114,9.879525184631348,31526500,0.0,0
2020-08-18,9.889504567054344,10.138987531719497,9.659980696379355,9.789711952209473,12318000,0.0,0
2020-08-19,9.979319197327685,10.099070913491373,9.59012540601917,9.769753456115723,6859500,0.0,0
2020-08-20,9.71985670262006,9.7897125843947,9.470373721844174,9.610084533691406,9871000,0.0,0
2020-08-21,9.630042455353264,9.929422215725817,9.610084312236173,9.839608192443848,9626000,0.0,0
2020-08-24,9.939401842064166,10.318616081320469,9.809670579815798,10.05915355682373,11106000,0.0,0
2020-08-25,9.999278070717931,10.079112546389362,9.58014659759191,9.650001525878906,12928000,0.0,0
2020-08-26,9.580147055997179,9.709877371394269,9.031284295716766,9.190953254699707,22699570,0.0,0
2020-08-27,9.260807581467864,9.360601150165307,9.001346015918116,9.21091079711914,12827240,0.0,0
2020-08-28,9.290746471247889,9.63004252013716,9.00134625633802,9.17099380493164,13482740,0.0,0
2020-08-31,9.170994106662047,9.330664016436254,8.881593882230762,9.161015510559082,12664440,0.0,0
2020-09-01,9.460393482099581,9.82962910413309,9.031283433715352,9.0612211227417,20130330,0.0,0
2020-09-02,9.260807691745725,9.380559404587462,9.001346123106304,9.270787239074707,12391500,0.0,0
2020-09-03,9.270787043826186,9.30072473348061,8.991366386413574,8.991366386413574,9835000,0.0,0
2020-09-04,8.82171824703327,8.86163548541207,8.63211065095744,8.662049293518066,10971330,0.0,0
2020-09-07,8.662049645462522,8.941470325467163,8.532318377534848,8.682007789611816,10604000,0.0,0
2020-09-08,8.682007244232429,8.891572978997093,8.222958537209921,8.382627487182617,12440500,0.0,0
2020-09-09,8.432524594632707,8.881593771539386,8.242917947210614,8.562255859375,17191000,0.0,0
2020-09-10,8.721924135475115,8.781800465188859,8.18304097485931,8.20300006866455,12195000,0.0,0
2020-09-11,8.220000267028809,8.869999885559082,8.220000267028809,8.5600004196167,16301630,0.017,0
2020-09-14,8.520000457763672,8.760000228881836,8.3100004196167,8.479999542236328,8478739,0.0,0
2020-09-15,8.5,8.65999984741211,8.40999984741211,8.609999656677246,5578500,0.0,0
2020-09-16,8.770000457763672,9.180000305175781,8.649999618530273,9.180000305175781,13093000,0.0,0
2020-09-17,9.1899995803833,9.289999961853027,8.949999809265137,9.020000457763672,8526500,0.0,0
2020-09-18,9.199999809265137,9.84000015258789,9.119999885559082,9.699999809265137,36042800,0.0,0
2020-09-21,9.699999809265137,9.930000305175781,9.460000038146973,9.5600004196167,7666700,0.0,0
2020-09-22,9.510000228881836,9.75,9.420000076293945,9.539999961853027,5832000,0.0,0
2020-09-23,9.550000190734863,10.079999923706055,9.550000190734863,9.90999984741211,12202150,0.0,0
2020-09-24,9.880000114440918,9.890000343322754,9.420000076293945,9.640000343322754,14540310,0.0,0
2020-09-25,9.779999732971191,9.949999809265137,9.460000038146973,9.5,12210500,0.0,0
2020-09-28,9.609999656677246,9.609999656677246,8.829999923706055,8.899999618530273,11105390,0.0,0
2020-09-29,8.949999809265137,9.100000381469727,8.829999923706055,8.859999656677246,2191963,0.0,0
2020-09-30,8.8100004196167,9.119999885559082,8.8100004196167,8.859999656677246,2960500,0.0,0
2020-10-05,8.890000343322754,8.960000038146973,8.75,8.90999984741211,2224500,0.0,0
2020-10-06,9.050000190734863,9.539999961853027,8.949999809265137,9.4399995803833,6030000,0.0,0
2020-10-07,9.40999984741211,9.489999771118164,9.289999961853027,9.399999618530273,1658000,0.0,0
2020-10-08,9.479999542236328,9.5,9.020000457763672,9.170000076293945,4310500,0.0,0
2020-10-09,9.270000457763672,9.319999694824219,8.779999732971191,8.819999694824219,13401000,0.0,0
2020-10-12,8.890000343322754,9.180000305175781,8.779999732971191,9.15999984741211,7565500,0.0,0
2020-10-14,9.15999984741211,9.199999809265137,8.8100004196167,8.859999656677246,7703000,0.0,0
2020-10-15,8.789999961853027,8.899999618530273,8.069999694824219,8.180000305175781,23757000,0.0,0
2020-10-16,8.25,8.430000305175781,8.199999809265137,8.380000114440918,5360500,0.0,0
2020-10-19,8.520000457763672,8.539999961853027,7.920000076293945,7.940000057220459,9477000,0.0,0
2020-10-20,7.960000038146973,8.15999984741211,7.940000057220459,8.130000114440918,5101500,0.0,0
2020-10-21,8.199999809265137,8.279999732971191,7.599999904632568,7.900000095367432,18975000,0.0,0
2020-10-22,7.929999828338623,7.929999828338623,7.480000019073486,7.800000190734863,9406300,0.0,0
2020-10-23,7.889999866485596,7.980000019073486,7.489999771118164,7.619999885559082,6124000,0.0,0
2020-10-27,7.739999771118164,8.039999961853027,7.630000114440918,7.949999809265137,8945649,0.0,0
2020-10-28,8.050000190734863,8.0600004196167,7.739999771118164,7.889999866485596,4042500,0.0,0
2020-10-29,7.699999809265137,7.960000038146973,7.699999809265137,7.769999980926514,4516000,0.0,0
2020-10-30,7.800000190734863,7.820000171661377,7.369999885559082,7.380000114440918,9260000,0.0,0
2020-11-02,7.369999885559082,8.140000343322754,7.369999885559082,8.029999732971191,10480500,0.0,0
2020-11-03,8.079999923706055,8.100000381469727,7.860000133514404,7.860000133514404,6165500,0.0,0
2020-11-04,7.860000133514404,8.350000381469727,7.789999961853027,8.180000305175781,5261500,0.0,0
2020-11-05,8.180000305175781,8.5,8.010000228881836,8.1899995803833,9368000,0.0,0
2020-11-06,8.180000305175781,8.300000190734863,8.050000190734863,8.199999809265137,4587000,0.0,0
2020-11-09,8.399999618530273,8.649999618530273,8.15999984741211,8.260000228881836,9546500,0.0,0
2020-11-10,8.300000190734863,8.329999923706055,7.860000133514404,7.869999885559082,5720739,0.0,0
2020-11-11,7.869999885559082,7.880000114440918,7.449999809265137,7.53000020980835,6480000,0.0,0
2020-11-12,7.539999961853027,7.840000152587891,7.539999961853027,7.619999885559082,2853500,0.0,0
2020-11-13,7.670000076293945,8.100000381469727,7.559999942779541,7.96999979019165,5304000,0.0,0
2020-11-16,8.100000381469727,8.100000381469727,7.599999904632568,7.769999980926514,9088616,0.0,0
2020-11-17,7.820000171661377,7.829999923706055,7.519999980926514,7.53000020980835,3570500,0.0,0
2020-11-18,7.510000228881836,7.760000228881836,7.429999828338623,7.550000190734863,3384500,0.0,0
2020-11-19,7.550000190734863,7.630000114440918,7.420000076293945,7.570000171661377,3596500,0.0,0
2020-11-20,7.570000171661377,7.789999961853027,7.570000171661377,7.699999809265137,4880000,0.0,0
2020-11-23,7.800000190734863,7.809999942779541,7.460000038146973,7.559999942779541,6016000,0.0,0
2020-11-24,7.53000020980835,7.610000133514404,7.079999923706055,7.269999980926514,9915500,0.0,0
2020-11-25,7.300000190734863,7.300000190734863,6.71999979019165,6.78000020980835,17632000,0.0,0
2020-11-26,6.78000020980835,7.25,6.78000020980835,7.119999885559082,9503000,0.0,0
2020-11-27,7.119999885559082,7.239999771118164,7.010000228881836,7.03000020980835,5139000,0.0,0
2020-11-30,7.190000057220459,7.309999942779541,7.070000171661377,7.199999809265137,4078000,0.0,0
2020-12-01,7.190000057220459,7.409999847412109,7.039999961853027,7.400000095367432,4458000,0.0,0
2020-12-02,7.409999847412109,7.429999828338623,7.010000228881836,7.099999904632568,3849700,0.0,0
2020-12-03,7.099999904632568,7.380000114440918,7.039999961853027,7.349999904632568,4132500,0.0,0
2020-12-04,7.400000095367432,7.599999904632568,7.179999828338623,7.449999809265137,5957500,0.0,0
2020-12-07,7.25,7.420000076293945,7.139999866485596,7.389999866485596,3961739,0.0,0
