Date,Open,High,Low,Close,Volume,Dividends,Stock Splits
2020-01-02,68.91060318131103,69.52927716298322,68.57747327169906,69.38650512695312,842270,0.0,0
2020-01-03,69.67204196436552,69.86240709970868,68.91060320805511,69.05337524414062,2404298,0.0,0
2020-01-06,68.62506013004986,69.05337624451138,67.91120720096816,68.33952331542969,1517559,0.0,0
2020-01-07,68.29193115234375,68.52988213196863,67.95880123320642,68.29193115234375,1962106,0.0,0
2020-01-08,67.10217506219978,67.67325595081718,66.86422408680191,67.34012603759766,1131469,0.0,0
2020-01-09,67.81603133018575,69.19614415082668,67.43530829845065,68.8630142211914,2167974,0.0,0
2020-01-10,68.8630164125311,69.29133255999578,68.62506541783563,69.10096740722656,837886,0.0,0
2020-01-13,69.48168210441054,71.19493196508459,68.9106012380816,71.1473388671875,1766494,0.0,0
2020-01-14,70.9569822755249,71.57564898919384,70.4810803347412,71.4328842163086,2136794,0.0,0
2020-01-15,71.14734107971192,71.57564992735628,70.48108125855681,71.38529205322266,1730687,0.0,0
2020-01-16,71.48047344795539,72.62264251708984,71.3852945076161,72.62264251708984,2065910,0.0,0
2020-01-17,72.62264565114553,73.43167757147503,72.00397161970956,72.81300354003906,1968410,0.0,0
2020-01-20,73.09854418661318,73.09854418661318,71.86119618211364,71.95637512207031,1319219,0.0,0
2020-01-21,71.86119839453733,71.86119839453733,69.52928161621094,69.52928161621094,1890160,0.0,0
2020-01-22,69.10096636264225,70.14794927113769,68.9106084744387,69.8148193359375,1282332,0.0,0
2020-01-23,69.10096198783353,70.14794483004408,69.10096198783353,69.33891296386719,2867695,0.0,0
2020-01-24,69.10096641474289,69.62446150022929,69.10096641474289,69.481689453125,671846,0.0,0
2020-01-29,66.1503667782871,67.53047943949022,66.1503667782871,67.19734954833984,2967698,0.0,0
2020-01-30,67.57808030248638,67.7208523470123,66.15037438060287,66.53109741210938,2287072,0.0,0
2020-01-31,66.19796725251923,67.48290112540941,65.43652119215359,65.53170013427734,2122132,0.0,0
2020-02-03,64.77025922198771,65.48411215715281,64.38953620422882,64.62748718261719,2414082,0.0,0
2020-02-04,65.81724426823236,66.48350412525103,64.96061926514562,65.19857025146484,2152846,0.0,0
2020-02-05,65.96001978546956,66.62627967756998,65.48411778777263,65.7220687866211,1872559,0.0,0
2020-02-06,66.62627525038262,68.72024099643384,65.96001540255388,67.91120910644531,1906228,0.0,0
2020-02-07,67.05458623199968,68.91060831529371,67.05458623199968,68.48229217529297,1655248,0.0,0
2020-02-10,68.05397668276912,68.4346996829822,67.10217281308005,67.7684326171875,2246000,0.0,0
2020-02-11,68.19675028931495,69.9099929372789,67.72084834348816,69.05337524414062,2031332,0.0,0
2020-02-12,68.5298854880137,69.81481938857637,68.5298854880137,69.481689453125,2251497,0.0,0
2020-02-13,69.67204635169277,69.86241149902344,68.81542860461231,69.86241149902344,932306,0.0,0
2020-02-14,70.24312811790568,70.814208984375,69.76722618556673,70.814208984375,1259736,0.0,0
2020-02-17,71.67083518670044,71.67083518670044,71.09974704841014,71.4328842163086,694522,0.0,0
2020-02-18,70.90939016188076,71.2425200727199,70.43348821448559,70.71903228759766,996092,0.0,0
2020-02-19,70.62384510762644,71.48047005337456,70.19553626559603,71.4328842163086,1066484,0.0,0
2020-02-20,71.38529727621288,71.62324826713359,69.8148192837986,70.14794921875,1092224,0.0,0
2020-02-21,69.57686718256178,70.4334921885438,68.72024217657976,68.8630142211914,913801,0.0,0
2020-02-24,68.67265420878748,69.76723016798456,67.72085028977916,67.95880126953125,1550730,0.0,0
2020-02-25,66.72144889288599,68.19674777523697,66.72144889288599,67.81602478027344,1045351,0.0,0
2020-02-26,67.38772130077636,68.1967531907649,66.95940517429699,67.91120910644531,2117316,0.0,0
2020-02-27,67.05457752022197,67.6732514676081,66.67386179415696,67.19734954833984,2340250,0.0,0
2020-02-28,66.2931397408794,67.95879648179753,65.76964471763029,66.8166275024414,2930619,0.0,0
2020-03-02,66.76904296875,67.72084683926194,66.531092001122,66.76904296875,1421729,0.0,0
2020-03-03,67.38772246503774,67.38772246503774,66.00760238256564,66.19796752929688,6923381,0.0,0
2020-03-04,65.67446485901884,67.72084456420971,65.67446485901884,67.19734954833984,2869019,0.0,0
2020-03-05,66.95940078028924,68.38710658482286,66.95940078028924,67.7684326171875,1459884,0.0,0
2020-03-06,67.24495462149581,67.6732635204457,65.86483445280159,66.00760650634766,1874648,0.0,0
2020-03-09,63.58050616301346,64.86544003101658,61.86725616455078,61.86725616455078,3368844,0.0,0
2020-03-10,61.39135419405424,62.10520714979906,61.1058101070812,61.86725616455078,2450067,0.0,0
2020-03-11,61.43894662723939,62.723880481260665,61.43894662723939,62.057613372802734,1441281,0.0,0
2020-03-12,60.43955114746094,60.96304622742906,59.107024158013985,59.48774719238281,1786425,0.0,0
2020-03-13,57.10823522248559,59.011843063235105,56.061252362410876,58.916664123535156,3576385,0.0,0
2020-03-16,56.20402183680768,57.346187289065725,53.872101461539955,54.01487350463867,3980152,0.0,0
2020-03-17,54.11004964061268,55.06185352967073,52.87270531100595,52.96788787841797,4174728,0.0,0
2020-03-18,51.92090307859789,52.967889568474355,49.06549132031558,49.5413932800293,4120929,0.0,0
2020-03-19,49.017901370399876,49.398624386779325,44.97273475245426,45.21068572998047,3646234,0.0,0
2020-03-20,45.30586306751079,46.44802844544041,44.40165228954168,45.44863510131836,5193246,0.0,0
2020-03-23,42.8787662280413,44.25888264973958,42.8311767578125,42.8311767578125,2483012,0.0,0
2020-03-24,43.87815998881463,46.40044187106657,43.87815998881463,45.82936096191406,2855145,0.0,0
2020-03-25,46.305263603595314,48.684773477760665,46.305263603595314,48.30405044555664,2885118,0.0,0
2020-03-26,48.30404985722024,48.49441137100368,47.1618844053635,47.828147888183594,2437231,0.0,0
2020-03-27,48.39922875530111,49.20826428044446,47.87573731599886,48.161277770996094,1596102,0.0,0
2020-03-30,46.82875496448158,47.4474253521318,45.78176844324872,46.30526351928711,2591807,0.0,0
2020-03-31,46.495619867138366,47.542606353759766,46.2576688880213,47.542606353759766,3675161,0.0,0
2020-04-01,46.543215581383784,48.11368995324397,46.305264588903995,46.59080505371094,1733861,0.0,0
2020-04-02,45.972128700241186,46.16249021078432,44.82996326782621,46.019718170166016,3110093,0.0,0
2020-04-03,46.4480322937249,46.4480322937249,45.30586682116528,45.781768798828125,2110264,0.0,0
2020-04-06,46.63839315059125,49.25585399067545,45.97212966512831,49.160675048828125,2322459,0.0,0
2020-04-07,49.65227605782303,50.38968609828575,48.7673825090032,50.143882751464844,2172171,1.65,0
2020-04-08,50.14388465881348,50.291368172780494,49.06235139192722,49.16067123413086,1949031,0.0,0
2020-04-09,50.43884738101654,50.832134246826165,49.947240674085265,50.83213424682617,2063494,0.0,0
2020-04-14,50.58633009816037,51.422059986541534,50.19304323853308,50.438846588134766,2787202,0.0,0
2020-04-15,50.53717266543457,51.667865878849746,49.45563562356507,49.7505989074707,2885656,0.0,0
2020-04-16,49.16067106867938,49.99640097658231,48.81654787146324,49.06235122680664,2740150,0.0,0
2020-04-17,50.14388550584521,52.01199254456292,50.14388550584521,51.56954574584961,3627189,0.0,0
2020-04-20,52.70023846757498,52.70023846757498,50.93045503968283,51.3237419128418,2172158,0.0,0
2020-04-21,50.73381089069893,50.93045432451715,49.013187408447266,49.013187408447266,2409987,0.0,0
2020-04-22,48.324940376484065,48.669063568115234,47.5383666516217,48.669063568115234,2565481,0.0,0
2020-04-23,48.71822332069937,49.35731353228668,47.833333509264804,48.570743560791016,2061079,0.0,0
2020-04-24,47.587533138896696,48.5707466025048,47.587533138896696,48.177459716796875,1165814,0.0,0
2020-04-27,48.17745797094343,49.55395827037787,48.17745797094343,49.25899124145508,1320300,0.0,0
2020-04-28,49.84892146517351,49.84892146517351,48.472421168043844,49.20983123779297,1654427,0.0,0
2020-04-29,49.35731638746781,50.09472648165111,49.209832868366476,50.04556655883789,1599240,0.0,0
2020-05-04,48.12829731428972,48.47242050855943,46.70263711537236,46.8992805480957,5465934,0.0,0
2020-05-05,47.3417290071684,48.02997542003124,46.899282205569676,47.78417205810547,1564977,0.0,0
2020-05-06,47.78417039229418,49.258990512434885,47.63669063067702,48.86570739746094,1507789,0.0,0
2020-05-07,48.91486917196216,48.91486917196216,47.83333587646485,47.833335876464844,2165708,0.0,0
2020-05-08,48.86570764607976,49.79976114372012,48.17745750304678,49.013187408447266,2000649,0.0,0
2020-05-11,49.60311928576462,50.832136097846686,49.2098324056337,49.79976272583008,2121792,0.0,0
2020-05-12,49.406475172283336,49.45563509396423,47.19424494068856,47.48920822143555,5141209,0.0,0
2020-05-13,47.489209382889044,48.2757794010055,46.99760265273354,48.079139709472656,1980864,0.0,0
2020-05-14,48.27577748239467,48.27577748239467,46.89928094306202,47.095924377441406,2211210,0.0,0
2020-05-15,46.80095566850843,47.24340244229508,46.260189056396484,46.260189056396484,2511121,0.0,0
2020-05-18,45.719422527707586,46.50599248772941,45.42445926153208,46.309349060058594,1911413,0.0,0
2020-05-19,47.685849688379896,48.61990316436705,47.685849688379896,48.42325973510742,3972099,0.0,0
2020-05-20,48.2757794010055,48.42326292031683,47.784172670850005,48.079139709472656,2348200,0.0,0
2020-05-21,48.17745789364084,48.17745789364084,47.09592462486455,47.243404388427734,1436900,0.0,0
2020-05-22,45.42446097046923,46.21103096008301,42.966427408762684,43.261390686035156,6994936,0.0,0
2020-05-25,43.2613915043456,43.2613915043456,41.39328446184785,41.68825149536133,5185163,0.0,0
2020-05-26,42.03237533569337,42.47482214199089,41.589928529395834,42.03237533569336,3594313,0.0,0
2020-05-27,41.78657102866991,42.0815343093282,40.803357592701204,41.540767669677734,3758426,0.0,0
2020-05-28,40.70503857086256,41.393284989401295,39.62350151907285,39.967628479003906,4777604,0.0,0
2020-05-29,39.52518081665039,40.21343097092606,39.476020895058184,39.52518081665039,4310185,0.0,0
2020-06-01,40.01678820361048,42.03237502791624,39.918464608118946,41.884891510009766,4553741,0.0,0
2020-06-02,41.88488976469945,43.11390652716906,41.88488976469945,42.917266845703125,2967072,0.0,0
2020-06-03,43.75299691336496,43.8513167544787,42.08153335980074,43.015586853027344,4527592,0.0,0
2020-06-04,43.26138989024695,43.35970973064201,42.13069297239636,42.86810302734375,2736696,0.0,0
2020-06-05,42.62230098348231,45.57194129377622,42.573141061776404,45.52278137207031,7120152,0.0,0
2020-06-08,46.997602577684276,47.04676250048899,45.522782389572875,46.06354904174805,2910234,0.0,0
2020-06-09,46.063549041748054,46.063549041748054,46.063549041748054,46.06354904174805,0,0.0,0
2020-06-10,47.24340235590786,48.91486585901139,45.719422360684014,46.211029052734375,7715278,0.0,0
2020-06-11,45.866906460044135,45.866906460044135,44.14628301567941,44.58872604370117,4289641,0.0,0
2020-06-12,43.35971163449114,43.99880187710482,42.4748217800972,43.851318359375,6160550,0.0,0
2020-06-15,43.55635339622968,44.19544361421743,42.917266928903445,42.966426849365234,4554180,0.0,0
2020-06-16,43.55635412917706,43.99880092210146,43.01558749367461,43.359710693359375,5300759,0.0,0
2020-06-17,43.06474708622188,43.31055044145221,42.376496941444636,43.16307067871094,4662050,0.0,0
2020-06-18,43.163070926110684,44.09712068081044,42.474820777388565,43.310550689697266,5735742,0.0,0
2020-06-19,43.26139113967483,46.16187152303535,42.818944343795835,45.4736213684082,13844046,0.0,0
2020-06-22,45.42445942392242,46.1618694673281,44.39208611328675,44.441246032714844,2423056,0.0,0
2020-06-23,43.60551514129819,44.146285540990085,42.278178479982024,43.900482177734375,3518420,0.0,0
2020-06-24,43.900479933457056,44.14628328414682,42.76978302001953,42.76978302001953,3003698,0.0,0
2020-06-26,42.37649885390638,42.76978574028866,42.17985916137695,42.17985916137695,2279636,0.0,0
2020-06-29,42.425662613391445,42.425662613391445,39.91846527129837,40.21343231201172,5592595,0.0,0
2020-06-30,40.508392100589,40.75419544616216,40.26258875501584,40.41006851196289,2694917,0.0,0
2020-07-02,40.21342979449881,40.99999976894811,40.16426612368326,40.901676177978516,5970030,0.0,0
2020-07-03,41.34412221348374,41.68824914966575,40.213429067729386,40.508392333984375,4848923,0.0,0
2020-07-06,40.31175033496861,43.359710445396736,40.31175033496861,43.21223068237305,6022486,0.0,0
2020-07-07,44.04796234389439,44.04796234389439,41.83573205457385,42.13069534301758,5201264,0.0,0
2020-07-08,42.27817543868355,42.91726563743984,41.49160548297986,42.327335357666016,3173940,0.0,0
2020-07-09,42.769785033064146,42.769785033064146,41.49160829944973,41.835731506347656,3213777,0.0,0
2020-07-10,41.589926947245495,41.63908686815027,40.70503711897481,41.1966438293457,3620483,0.0,0
2020-07-13,41.1966453965349,42.22901877745468,40.60671507125096,42.03237533569336,4764898,0.0,0
2020-07-14,41.44244798956305,41.6882513495233,40.65587423716095,41.63908767700195,2826622,0.0,0
2020-07-15,41.98321300282961,41.98321300282961,40.50839290027584,40.8033561706543,1707727,0.0,0
2020-07-16,41.04916225893492,41.147482105398225,40.115108714886695,40.21343231201172,2381600,0.0,0
2020-07-17,39.96762752921149,40.2134308873231,39.131893861235085,39.47602081298828,4930992,0.0,0
2020-07-20,39.13189371612112,39.672660351828995,37.9520368514284,39.426856994628906,3970124,0.0,0
2020-07-21,39.525180898618345,39.77098425775072,38.640287305477145,39.5743408203125,2258109,0.0,0
2020-07-22,39.47601921015485,39.72182255828618,38.640285576111495,38.68944549560547,2455507,0.0,0
2020-07-23,38.68944829551628,39.03357525820107,37.7553985055503,38.148681640625,2203240,0.0,0
2020-07-24,37.8537170171349,37.952036859771916,37.21462678800955,37.46043014526367,3080288,0.0,0
2020-07-27,37.804557490767266,38.099520772421435,37.46043053661939,37.657073974609375,2007772,0.0,0
2020-07-28,38.14868108865876,38.29616460634143,37.60791444159173,37.85371780395508,1010550,0.0,0
2020-07-29,37.90287788872828,38.19784117469603,37.55875468020952,37.9520378112793,1192421,0.0,0
2020-07-30,37.755397959274404,38.93525109808913,37.65707436393207,37.85371780395508,1757686,0.0,0
2020-07-31,37.853717494749446,38.2961642935217,37.36211077403841,37.706233978271484,1415814,0.0,0
2020-08-03,37.362109574090574,37.6079129265517,36.47721600496593,37.06714630126953,2763355,0.0,0
2020-08-04,37.362111461509066,38.29616499817913,36.96882457743903,38.05036163330078,2794164,0.0,0
2020-08-05,38.05035990196981,39.32853659104652,38.05035990196981,39.131893157958984,2381912,0.0,0
2020-08-06,38.83692842914671,39.377695036888625,37.952034888724384,38.39448165893555,1463883,0.0,0
2020-08-07,38.00120217498131,38.64028868108014,37.90287857743105,38.296165466308594,2086360,0.0,0
2020-08-10,37.90287849793495,38.44364515601109,37.65707513056746,38.247005462646484,2020410,0.0,0
2020-08-11,38.099519579065245,39.230216499095654,38.099519579065245,38.984413146972656,1595884,0.0,0
2020-08-12,39.52517911032414,40.65587226077854,38.93524882470054,40.606712341308594,3306120,0.0,0
2020-08-13,40.60671399469024,41.4916075838251,40.311750715199146,41.442447662353516,3978008,0.0,0
2020-08-14,41.29496562575489,41.442449146111564,40.065948791655046,40.21343231201172,2751579,0.0,0
2020-08-17,40.50839290027584,41.58992614188401,40.410069309708696,40.8033561706543,2219688,0.0,0
2020-08-18,41.34412262141128,41.34412262141128,40.41006914350333,40.70503616333008,1880019,0.0,0
2020-08-19,41.049160169527525,41.54076687814462,40.508393540181025,41.14748001098633,881365,0.0,0
2020-08-20,41.29496539424383,41.29496539424383,39.82014520159227,40.115108489990234,1881122,0.0,0
2020-08-21,40.6067119385537,40.80335536514451,39.918461820816574,40.41006851196289,2162089,0.0,0
2020-08-24,40.80335567079905,42.67146261141346,40.80335567079905,42.47481918334961,4612380,0.0,0
2020-08-25,42.081534950331175,42.523981753388945,41.786571665179885,41.884891510009766,1479998,0.0,0
2020-08-26,41.88489087200214,42.278177746654265,41.0983208733595,41.540767669677734,1277100,0.0,0
2020-08-27,41.884889819744124,41.884889819744124,40.852516488045225,41.0,1112111,0.0,0
2020-08-28,40.80335712432861,42.1798574191489,40.80335712432861,41.29496383666992,1421216,0.0,0
2020-08-31,41.934054461459496,42.72062445854771,41.3932840722161,41.491607666015625,2988326,0.0,0
2020-09-01,40.950841027433825,41.786570946091004,40.8525174336343,41.491607666015625,1383650,0.0,0
2020-09-02,42.17985758740718,42.17985758740718,40.901677129691784,41.39328384399414,1885533,0.0,0
2020-09-03,41.39328446184785,42.179858217001616,40.852517818175855,41.68825149536133,1036905,0.0,0
2020-09-04,40.99999976894811,41.58992631211971,40.50839306608461,40.901676177978516,2195674,0.0,0
2020-09-07,40.95084007956891,41.737410058450855,40.705036726751956,41.0,1355849,0.0,0
2020-09-08,41.491606705633906,41.78656997888194,41.0,41.0,1002324,0.0,0
2020-09-09,40.70000076293945,40.70000076293945,40.099998474121094,40.650001525878906,1347062,0.7,0
2020-09-10,41.0,41.0,40.20000076293945,40.20000076293945,1026997,0.0,0
2020-09-11,39.79999923706055,40.45000076293945,39.599998474121094,40.150001525878906,1140662,0.0,0
2020-09-14,40.150001525878906,40.75,39.849998474121094,39.95000076293945,810214,0.0,0
2020-09-15,39.849998474121094,40.349998474121094,39.75,40.349998474121094,1283094,0.0,0
2020-09-16,40.45000076293945,40.45000076293945,39.849998474121094,39.849998474121094,824488,0.0,0
2020-09-17,39.79999923706055,40.150001525878906,39.25,39.54999923706055,1118503,0.0,0
2020-09-18,39.79999923706055,39.79999923706055,39.0,39.150001525878906,3569524,0.0,0
2020-09-21,39.29999923706055,39.650001525878906,38.099998474121094,38.25,1331052,0.0,0
2020-09-22,37.5,37.95000076293945,36.650001525878906,37.0,3406146,0.0,0
2020-09-23,36.900001525878906,37.150001525878906,36.5,36.75,2412295,0.0,0
2020-09-24,36.400001525878906,36.70000076293945,36.0,36.5,1255968,0.0,0
2020-09-25,37.0,37.0,36.0,36.29999923706055,1293778,0.0,0
2020-09-28,36.04999923706055,37.5,36.0,37.150001525878906,1585857,0.0,0
2020-09-29,37.150001525878906,37.400001525878906,36.849998474121094,37.04999923706055,1605149,0.0,0
2020-09-30,37.25,37.900001525878906,36.849998474121094,37.20000076293945,1780620,0.0,0
2020-10-05,37.79999923706055,37.79999923706055,37.04999923706055,37.29999923706055,1697704,0.0,0
2020-10-06,37.599998474121094,38.400001525878906,37.599998474121094,38.0,1553999,0.0,0
2020-10-07,38.0,38.650001525878906,37.900001525878906,38.20000076293945,1456760,0.0,0
2020-10-08,38.20000076293945,38.29999923706055,37.5,38.0,597500,0.0,0
2020-10-09,38.099998474121094,38.400001525878906,37.54999923706055,37.79999923706055,1057578,0.0,0
2020-10-12,38.150001525878906,38.79999923706055,37.95000076293945,38.20000076293945,1063820,0.0,0
2020-10-14,38.20000076293945,38.349998474121094,37.79999923706055,38.0,912213,0.0,0
2020-10-15,37.900001525878906,37.900001525878906,37.5,37.599998474121094,733480,0.0,0
2020-10-16,37.5,38.0,37.5,37.599998474121094,948314,0.0,0
2020-10-19,38.0,38.0,37.349998474121094,37.54999923706055,916500,0.0,0
2020-10-20,37.54999923706055,37.79999923706055,36.599998474121094,37.75,1316457,0.0,0
2020-10-21,37.54999923706055,38.150001525878906,37.54999923706055,37.650001525878906,1111692,0.0,0
2020-10-22,37.349998474121094,37.650001525878906,36.849998474121094,37.0,1216175,0.0,0
2020-10-23,37.0,37.599998474121094,36.79999923706055,37.5,893230,0.0,0
2020-10-27,36.849998474121094,37.150001525878906,36.599998474121094,36.849998474121094,1669500,0.0,0
2020-10-28,36.5,36.849998474121094,36.25,36.75,1307744,0.0,0
2020-10-29,36.599998474121094,36.650001525878906,35.70000076293945,36.04999923706055,1910864,0.0,0
2020-10-30,36.04999923706055,36.04999923706055,35.099998474121094,35.29999923706055,2997376,0.0,0
2020-11-02,35.54999923706055,35.650001525878906,35.20000076293945,35.45000076293945,2229590,0.0,0
2020-11-03,35.95000076293945,37.900001525878906,35.45000076293945,37.20000076293945,2651421,0.0,0
2020-11-04,37.20000076293945,38.25,37.0,37.45000076293945,1791101,0.0,0
2020-11-05,38.04999923706055,38.20000076293945,37.349998474121094,37.75,1504644,0.0,0
2020-11-06,38.20000076293945,38.45000076293945,37.5,38.29999923706055,1910061,0.0,0
2020-11-09,38.95000076293945,38.95000076293945,37.70000076293945,37.849998474121094,1779819,0.0,0
2020-11-10,39.79999923706055,40.900001525878906,39.5,40.75,7345447,0.0,0
2020-11-11,41.599998474121094,44.45000076293945,41.45000076293945,44.45000076293945,15344740,0.0,0
2020-11-12,45.0,45.150001525878906,43.29999923706055,43.95000076293945,4730652,0.0,0
2020-11-13,43.400001525878906,43.45000076293945,42.04999923706055,43.25,2527777,0.0,0
2020-11-16,43.25,43.849998474121094,42.0,42.54999923706055,5209738,0.0,0
2020-11-17,43.5,44.25,43.25,44.20000076293945,7687172,0.0,0
2020-11-18,44.70000076293945,47.20000076293945,44.5,46.79999923706055,7882338,0.0,0
2020-11-19,46.900001525878906,47.150001525878906,46.5,46.599998474121094,7869470,0.0,0
2020-11-20,46.70000076293945,47.150001525878906,45.20000076293945,45.75,3785293,0.0,0
2020-11-23,45.75,45.75,44.0,45.0,3264110,0.0,0
2020-11-24,44.79999923706055,45.75,44.54999923706055,45.75,2401936,0.0,0
2020-11-25,46.20000076293945,48.150001525878906,46.099998474121094,47.0,6339616,0.0,0
2020-11-26,46.900001525878906,47.45000076293945,45.95000076293945,46.29999923706055,2487922,0.0,0
2020-11-27,46.45000076293945,46.599998474121094,45.849998474121094,46.5,2049516,0.0,0
2020-11-30,47.150001525878906,47.70000076293945,44.099998474121094,44.5,7375541,0.0,0
2020-12-01,44.45000076293945,44.849998474121094,43.79999923706055,44.349998474121094,3902658,0.0,0
2020-12-02,44.349998474121094,45.20000076293945,43.849998474121094,44.400001525878906,3767065,0.0,0
2020-12-03,44.20000076293945,45.25,43.599998474121094,44.70000076293945,4505354,0.0,0
2020-12-04,44.70000076293945,45.20000076293945,44.400001525878906,45.099998474121094,11662270,0.0,0
2020-12-07,45.349998474121094,45.849998474121094,44.25,44.70000076293945,4081063,0.0,0
