Date,Open,High,Low,Close,Volume,Dividends,Stock Splits
2020-01-02,45.215591236712335,47.13965894891286,45.215591236712335,47.04345703125,26222710,0.0,0
2020-01-03,47.38016640371696,47.66877582042593,45.937115650304264,46.03331756591797,14824350,0.0,0
2020-01-06,45.792810007652854,46.033318471285206,44.34975922585873,44.44596481323242,21095870,0.0,0
2020-01-07,44.830777092003736,45.60040712763978,44.15735631562419,44.54216766357422,15853080,0.0,0
2020-01-08,43.868743529171134,44.59026894030795,43.38772658841326,44.0130500793457,15067530,0.0,0
2020-01-09,44.39786263308728,45.600404918166916,44.39786263308728,44.87887954711914,14105960,0.0,0
2020-01-10,42.32948892805464,43.24342180933848,41.992778552255885,42.906707763671875,95756460,0.0,0
2020-01-13,43.29152530643595,43.72444129347392,42.81050835858666,42.95481491088867,31123000,0.0,0
2020-01-14,43.38772453490421,43.91684608058935,43.00291320243156,43.435829162597656,23744860,0.0,0
2020-01-15,43.387725504359864,43.67633859749794,41.94467471814123,42.2332878112793,30014730,0.0,0
2020-01-16,42.32949199768289,43.580135345458984,42.23329007472631,43.580135345458984,24338480,0.0,0
2020-01-17,43.916847909114765,43.964948868943104,42.906709403379715,43.24342346191406,16896380,0.0,0
2020-01-20,43.38772529168938,43.868742218071155,41.55986317335935,41.848472595214844,30808040,0.0,0
2020-01-21,41.36745788767873,41.463659810167954,39.68389855504064,39.82820510864258,41720120,0.0,0
2020-01-22,40.06871208153145,41.31935537631318,39.68389706627493,41.175048828125,14006520,0.0,0
2020-01-23,40.309222437407485,40.35732339910147,38.91427252907306,39.68389892578125,22269700,0.0,0
2020-01-24,39.15477922430879,40.26111597236062,39.01047267593039,39.876304626464844,8477138,0.0,0
2020-01-29,38.240845963977414,38.67376193527905,37.42311865030495,37.80792999267578,25944860,0.0,0
2020-01-30,37.567420983026686,38.00033694805404,35.98006733775022,36.2686767578125,23598070,0.0,0
2020-01-31,36.55728530883788,37.32691163399775,36.172470311324055,36.55728530883789,19699520,0.0,0
2020-02-03,36.31677713722105,38.09653825745561,35.64335272123279,37.32691192626953,41678780,0.0,0
2020-02-04,37.80793075196411,39.15477965198034,37.56742228195178,38.43325424194336,35967510,0.0,0
2020-02-05,38.48135354711951,39.34718546987684,37.85603008403168,38.09653854370117,26965880,0.0,0
2020-02-06,38.57755772892179,39.53959162410556,37.66362846439167,39.05857467651367,30107540,0.0,0
2020-02-07,38.48135557091019,39.010473476036594,37.80793111444565,38.28894805908203,18694330,0.0,0
2020-02-10,37.61552293707307,39.539590681575376,37.42311909851722,38.962371826171875,27301000,0.0,0
2020-02-11,39.20288150631197,41.46365970805388,39.05857495306542,41.126949310302734,29931530,0.0,0
2020-02-12,41.126947000311375,42.185182765120764,40.88643853832125,41.46365737915039,21641830,0.0,0
2020-02-13,41.752269459495594,43.24342115379162,41.463656376194336,42.28138732910156,33168790,0.0,0
2020-02-14,41.84847186527791,43.964947038414955,41.84847186527791,43.435829162597656,32517420,0.0,0
2020-02-17,43.14721787238939,43.77254135976176,42.714305564066365,43.24342346191406,20103270,0.0,0
2020-02-18,42.52189791711112,42.66620079612858,41.271254616286555,41.55986404418945,31908690,0.0,0
2020-02-19,41.41555860844242,42.714306573714296,41.41555860844242,42.0408821105957,11249730,0.0,0
2020-02-20,42.1370823238415,42.377590788783365,40.83833808110259,41.31935501098633,19042620,0.0,0
2020-02-21,40.98263952609792,41.12694606796774,39.97250474261262,40.06871032714844,30586800,0.0,0
2020-02-24,39.44338808812654,39.97250597484734,39.25098058299136,39.63579559326172,21881440,0.0,0
2020-02-25,39.68389561101339,41.223148275857085,39.68389561101339,40.83833694458008,25422610,0.0,0
2020-02-26,40.213016234969245,42.714306573714296,39.68389832461467,42.0408821105957,33491020,0.0,0
2020-02-27,42.04088009974114,42.42569143892582,41.17504816430677,41.848472595214844,21213180,0.0,0
2020-02-28,40.88644027709961,42.08898263819078,40.35732237219311,40.88644027709961,29790550,0.0,0
2020-03-02,40.59783165810057,43.868744743905566,40.59783165810057,43.1953239440918,44109700,0.0,0
2020-03-03,44.013051108028115,44.397866137575605,42.71430680557452,42.810508728027344,17085000,0.0,0
2020-03-04,43.291524005614384,45.215591739197244,42.71430515348671,44.68647384643555,39607160,0.0,0
2020-03-05,44.59026988058864,44.8788829870238,43.676340609770946,44.1092529296875,25008170,0.0,0
2020-03-06,43.67633918243642,43.772541101525555,42.37759125552532,42.47379684448242,16086170,0.0,0
2020-03-09,40.886438871838486,41.03074541815685,39.15477866535773,39.63579559326172,36576780,0.0,0
2020-03-10,40.405421943934506,40.886438871838486,38.19274480954977,39.63579559326172,36608210,0.0,0
2020-03-11,39.491488184652596,40.934538936855745,39.491488184652596,39.92440414428711,16967270,0.0,0
2020-03-12,39.106676274865116,39.106676274865116,37.66362554398253,38.38515090942383,27910760,0.0,0
2020-03-13,35.40284690663369,38.91427212154334,34.681321479175665,38.529457092285156,53462840,0.0,0
2020-03-16,37.134505110563154,38.38515205039693,34.969928949898694,35.35474395751953,42650400,0.0,0
2020-03-17,34.77752551514943,36.076269758508566,32.75725220675219,33.91169357299805,52324580,0.0,0
2020-03-18,33.574983729022996,35.49905148037404,30.544575552697893,31.554710388183594,62321950,0.0,0
2020-03-19,30.785084460202654,31.747118349583985,27.610373359217864,30.11166000366211,103374300,0.0,0
2020-03-20,31.795220048845803,34.15220386656852,31.073694615045056,33.71928787231445,55537370,0.0,0
2020-03-23,30.4002707424443,32.7572526294545,30.4002707424443,31.362302780151367,46894310,0.0,0
2020-03-24,33.478777398188555,33.911693366629756,32.516743543816084,33.526878356933594,37507180,0.0,0
2020-03-25,34.82562808573203,36.124372389190135,34.20030457970072,35.93196487426758,42897250,0.0,0
2020-03-26,35.59525319083094,36.701593609303956,34.92182874784162,35.98006820678711,24777040,0.0,0
2020-03-27,37.47121794913487,37.47121794913487,35.643352226789645,36.17247009277344,34492540,0.0,0
2020-03-30,35.066136431638924,35.21043931489365,33.62308557988315,33.86359405517578,39248870,0.0,0
2020-03-31,34.63321974249201,34.96993013315237,33.91169433119009,34.537017822265625,22939080,0.0,0
2020-04-01,34.00789727248711,35.69145661607297,33.23827087796434,33.334476470947266,26929020,0.0,0
2020-04-02,32.70914985957483,33.95979309082031,32.2281329498752,33.95979309082031,15414290,0.0,0
2020-04-03,33.04586253674049,34.05600105356424,32.99776157638413,34.007896423339844,11416530,0.0,0
2020-04-06,34.729421149832525,34.87372769790899,33.52687881542187,34.68132019042969,10227440,0.0,0
2020-04-07,35.45094522377328,36.028167724609375,34.825625435202305,36.028167724609375,27519930,0.0,0
2020-04-08,35.59525304014773,35.93196342528302,34.24840415987063,34.2965087890625,16835360,0.0,0
2020-04-09,34.58511647978107,35.01803243171327,33.76738553282741,34.87372589111328,20812800,0.0,0
2020-04-14,35.114236164791116,35.25854271286758,34.15220229726259,34.68132019042969,30390490,0.0,0
2020-04-15,34.92182821636749,34.96992917516297,32.22813415527344,32.22813415527344,85421580,0.0,0
2020-04-16,31.79521951632101,32.51674493803723,31.07369409460479,31.987627029418945,53623680,0.0,0
2020-04-17,32.80535183522549,33.91169219756112,32.70914992105187,33.045860290527344,34751440,0.0,0
2020-04-20,32.85345638693452,33.23826771261546,31.939523524907138,32.661048889160156,18832190,0.0,0
2020-04-21,32.32433723073581,32.70915225461973,31.169899498820136,31.602811813354492,21841960,0.0,0
2020-04-22,31.266101468372128,31.60281186239199,30.592677010464346,31.41040802001953,29291400,0.0,0
2020-04-23,31.74711846072287,32.22813540709746,31.266101514348282,31.79521942138672,27003100,0.0,0
2020-04-24,31.650915923835996,31.650915923835996,30.977491478034977,31.169898986816406,16965030,0.0,0
2020-04-27,31.362301865429263,32.61294879928029,31.266099948918203,32.372440338134766,22285870,0.0,0
2020-04-28,32.61295122469038,32.94966162738796,32.27623715212465,32.805355072021484,14399780,0.0,0
2020-04-29,32.997761846376214,33.38257687211178,32.80535433350843,33.09396743774414,17167630,0.0,0
2020-05-04,31.41040770146189,31.69901713196162,30.59267670019996,30.640779495239258,24645810,0.0,0
2020-05-05,30.977491627250856,31.79521895617588,30.833185077502673,31.74711799621582,8889035,0.0,0
2020-05-06,31.7471178972923,32.180033875319886,30.736983061806598,31.554710388183594,28062990,0.0,0
2020-05-07,31.458507537841797,31.650915041257992,30.977490614235247,31.458507537841797,18635740,0.0,0
2020-05-08,31.747117784288196,33.142067633025974,31.747117784288196,32.46864318847656,27496060,0.0,0
2020-05-11,32.997759197191385,33.95979301442651,32.90155728341498,33.574981689453125,25972670,0.0,0
2020-05-12,33.093966467898,33.238269345918866,32.03572701307182,32.08382797241211,20784290,0.0,0
2020-05-13,31.65091495469819,32.70915071579135,31.602810326574787,32.372440338134766,14994100,0.0,0
2020-05-14,32.13193207107048,32.22813398816262,31.314201096315767,31.650915145874023,14969190,0.0,0
2020-05-15,31.843320382050564,32.131933485769764,31.362303435675976,31.79521942138672,10661710,0.0,0
2020-05-18,31.795217829464782,33.23826859633793,31.410406493552667,32.372440338134766,20856260,0.0,0
2020-05-19,33.190169541607474,33.47877897756088,32.468644116789925,32.56484603881836,18799190,0.0,0
2020-05-20,32.75725187190514,32.75725187190514,31.4104066832758,31.650915145874023,26582230,0.0,0
2020-05-21,31.699018054188826,32.32433789348616,31.31420302241499,32.035728454589844,22563150,0.0,0
2020-05-22,31.74711775350323,31.74711775350323,29.630642502629417,29.871150970458984,42321990,0.0,0
2020-05-25,29.823049804952603,30.736982710368288,28.86101594027671,30.592676162719727,21604430,0.0,0
2020-05-26,30.977490510584904,31.650914935354376,30.640778298200168,31.26609992980957,10566470,0.0,0
2020-05-27,31.554711059964326,31.554711059964326,30.304067728934303,30.688880920410156,14215340,0.0,0
2020-05-28,30.496474244199316,31.362302520486846,29.96735451766719,30.592676162719727,11824680,0.0,0
2020-05-29,30.207863728225217,31.218000411987305,30.207863728225217,31.218000411987305,17131480,0.0,0
2020-06-01,31.799999237060547,34.29999923706055,31.799999237060547,33.79999923706055,35107490,1.232,0
2020-06-02,34.349998474121094,34.650001525878906,33.29999923706055,34.599998474121094,22493470,0.0,0
2020-06-03,35.099998474121094,36.29999923706055,34.599998474121094,34.70000076293945,31828900,0.0,0
2020-06-04,35.45000076293945,35.45000076293945,34.349998474121094,34.95000076293945,17821750,0.0,0
2020-06-05,35.0,35.95000076293945,34.150001525878906,35.900001525878906,21251360,0.0,0
2020-06-08,36.400001525878906,36.900001525878906,35.849998474121094,35.849998474121094,18530060,0.0,0
2020-06-09,36.349998474121094,37.29999923706055,36.099998474121094,36.79999923706055,20640560,0.0,0
2020-06-10,37.20000076293945,37.349998474121094,35.95000076293945,36.349998474121094,17624770,0.0,0
2020-06-11,36.0,36.29999923706055,34.349998474121094,34.54999923706055,26923910,0.0,0
2020-06-12,33.79999923706055,34.650001525878906,33.5,34.5,18280070,0.0,0
2020-06-15,33.5,34.29999923706055,33.04999923706055,33.650001525878906,23557240,0.0,0
2020-06-16,34.599998474121094,34.79999923706055,33.849998474121094,33.900001525878906,15600440,0.0,0
2020-06-17,34.0,34.0,33.25,33.79999923706055,10367140,0.0,0
2020-06-18,33.79999923706055,34.75,33.5,34.349998474121094,14197910,0.0,0
2020-06-19,34.0,35.099998474121094,34.0,35.04999923706055,16039269,0.0,0
2020-06-22,34.95000076293945,35.04999923706055,33.95000076293945,34.45000076293945,13440290,0.0,0
2020-06-23,34.650001525878906,34.650001525878906,33.400001525878906,33.849998474121094,9810340,0.0,0
2020-06-24,34.099998474121094,34.400001525878906,33.70000076293945,33.75,9399310,0.0,0
2020-06-26,33.400001525878906,34.150001525878906,33.400001525878906,33.54999923706055,7245696,0.0,0
2020-06-29,33.599998474121094,33.900001525878906,32.54999923706055,33.150001525878906,15632690,0.0,0
2020-06-30,33.29999923706055,33.45000076293945,32.099998474121094,32.45000076293945,20164790,0.0,0
2020-07-02,34.45000076293945,37.25,34.20000076293945,37.150001525878906,66192960,0.0,0
2020-07-03,37.099998474121094,39.25,37.099998474121094,38.349998474121094,40336170,0.0,0
2020-07-06,38.25,41.349998474121094,38.25,40.79999923706055,44541100,0.0,0
2020-07-07,41.099998474121094,41.95000076293945,38.79999923706055,39.20000076293945,41030510,0.0,0
2020-07-08,39.20000076293945,39.900001525878906,37.95000076293945,38.45000076293945,30925770,0.0,0
2020-07-09,39.25,39.25,37.150001525878906,37.29999923706055,31490790,0.0,0
2020-07-10,37.0,37.20000076293945,35.900001525878906,36.29999923706055,26142560,0.0,0
2020-07-13,36.70000076293945,37.70000076293945,35.54999923706055,37.099998474121094,31017730,0.0,0
2020-07-14,36.79999923706055,37.04999923706055,35.599998474121094,35.75,22392640,0.0,0
2020-07-15,36.25,36.5,35.150001525878906,35.650001525878906,13285380,0.0,0
2020-07-16,35.650001525878906,36.099998474121094,34.150001525878906,34.54999923706055,20312440,0.0,0
2020-07-17,34.79999923706055,36.099998474121094,34.650001525878906,35.150001525878906,18743500,0.0,0
2020-07-20,35.599998474121094,37.5,35.04999923706055,37.0,28660910,0.0,0
2020-07-21,37.599998474121094,38.849998474121094,36.29999923706055,38.25,28318660,0.0,0
2020-07-22,38.5,38.5,36.150001525878906,36.20000076293945,23221310,0.0,0
2020-07-23,36.0,37.25,35.75,36.599998474121094,20183450,0.0,0
2020-07-24,36.25,36.29999923706055,34.75,35.400001525878906,23554130,0.0,0
2020-07-27,35.5,35.900001525878906,34.45000076293945,34.75,15777170,0.0,0
2020-07-28,35.29999923706055,35.95000076293945,34.95000076293945,35.54999923706055,15431800,0.0,0
2020-07-29,35.29999923706055,36.79999923706055,35.20000076293945,35.95000076293945,11279370,0.0,0
2020-07-30,36.45000076293945,36.79999923706055,35.95000076293945,36.349998474121094,11453100,0.0,0
2020-07-31,36.5,37.29999923706055,35.95000076293945,36.5,17785900,0.0,0
2020-08-03,37.25,37.25,34.70000076293945,35.400001525878906,24771540,0.0,0
2020-08-04,35.70000076293945,35.75,34.70000076293945,35.54999923706055,21403930,0.0,0
2020-08-05,35.54999923706055,35.95000076293945,35.04999923706055,35.25,13968490,0.0,0
2020-08-06,35.54999923706055,35.599998474121094,34.79999923706055,34.95000076293945,16070940,0.0,0
2020-08-07,36.29999923706055,37.5,35.599998474121094,36.5,44590520,0.0,0
2020-08-10,36.70000076293945,36.95000076293945,35.70000076293945,36.70000076293945,23923600,0.0,0
2020-08-11,36.95000076293945,37.400001525878906,36.29999923706055,36.400001525878906,17578560,0.0,0
2020-08-12,36.349998474121094,36.650001525878906,35.75,36.349998474121094,10923560,0.0,0
2020-08-13,36.75,36.75,35.900001525878906,36.0,7645111,0.0,0
2020-08-14,35.900001525878906,37.349998474121094,35.79999923706055,36.70000076293945,16129740,0.0,0
2020-08-17,36.79999923706055,37.29999923706055,36.150001525878906,36.5,18371100,0.0,0
2020-08-18,36.599998474121094,36.650001525878906,35.650001525878906,36.04999923706055,12439720,0.0,0
2020-08-19,36.04999923706055,36.400001525878906,35.25,35.79999923706055,8900784,0.0,0
2020-08-20,35.54999923706055,35.54999923706055,34.75,35.25,14615460,0.0,0
2020-08-21,35.400001525878906,35.849998474121094,34.900001525878906,35.45000076293945,15961090,0.0,0
2020-08-24,35.29999923706055,35.900001525878906,34.099998474121094,34.20000076293945,23502110,0.0,0
2020-08-25,34.20000076293945,34.45000076293945,33.25,33.70000076293945,21756650,0.0,0
2020-08-26,33.849998474121094,34.900001525878906,33.54999923706055,34.29999923706055,28184210,0.0,0
2020-08-27,34.5,34.650001525878906,32.95000076293945,33.349998474121094,23357410,0.0,0
2020-08-28,33.099998474121094,33.79999923706055,32.70000076293945,33.5,23087430,0.0,0
2020-08-31,33.54999923706055,33.900001525878906,32.400001525878906,32.599998474121094,23429490,0.0,0
2020-09-01,32.75,32.95000076293945,32.150001525878906,32.75,17029380,0.0,0
2020-09-02,32.54999923706055,32.95000076293945,32.25,32.400001525878906,15869210,0.0,0
2020-09-03,32.400001525878906,33.349998474121094,31.950000762939453,32.400001525878906,16435220,0.0,0
2020-09-04,32.04999923706055,32.349998474121094,31.649999618530273,32.150001525878906,18906500,0.0,0
2020-09-07,32.29999923706055,32.29999923706055,31.649999618530273,31.950000762939453,12507480,0.0,0
2020-09-08,32.0,32.29999923706055,31.200000762939453,31.799999237060547,16218520,0.0,0
2020-09-09,31.299999237060547,31.799999237060547,31.049999237060547,31.5,12500940,0.0,0
2020-09-10,31.799999237060547,32.75,31.549999237060547,31.549999237060547,13461000,0.0,0
2020-09-11,31.600000381469727,31.950000762939453,31.049999237060547,31.549999237060547,8826144,0.0,0
2020-09-14,31.549999237060547,31.799999237060547,31.25,31.600000381469727,5975133,0.0,0
2020-09-15,31.799999237060547,33.5,31.5,32.5,23554760,0.0,0
2020-09-16,32.75,32.849998474121094,31.899999618530273,32.20000076293945,12309590,0.0,0
2020-09-17,31.950000762939453,32.45000076293945,31.549999237060547,31.799999237060547,12834340,0.0,0
2020-09-18,32.0,32.5,31.600000381469727,31.950000762939453,11812740,0.0,0
2020-09-21,32.25,32.29999923706055,31.299999237060547,31.399999618530273,10026660,0.0,0
2020-09-22,31.5,31.649999618530273,30.799999237060547,31.299999237060547,10244260,0.0,0
2020-09-23,31.5,31.5,30.700000762939453,31.0,9976797,0.0,0
2020-09-24,30.799999237060547,31.0,30.5,30.549999237060547,10715970,0.0,0
2020-09-25,30.350000381469727,30.75,28.75,28.950000762939453,46611250,0.0,0
2020-09-28,29.0,30.5,29.0,30.200000762939453,27915820,0.0,0
2020-09-29,30.100000381469727,30.399999618530273,29.299999237060547,29.950000762939453,10540730,0.0,0
2020-09-30,30.600000381469727,31.149999618530273,29.950000762939453,30.200000762939453,11950500,0.0,0
2020-10-05,30.350000381469727,30.799999237060547,29.850000381469727,30.100000381469727,3848000,0.0,0
2020-10-06,30.450000762939453,30.799999237060547,30.25,30.600000381469727,5166875,0.0,0
2020-10-07,30.350000381469727,30.899999618530273,30.149999618530273,30.75,8172879,0.0,0
2020-10-08,30.600000381469727,31.0,30.450000762939453,30.850000381469727,5548209,0.0,0
2020-10-09,31.149999618530273,31.200000762939453,30.25,30.600000381469727,8895058,0.0,0
2020-10-12,30.700000762939453,30.850000381469727,30.0,30.600000381469727,15918480,0.0,0
2020-10-14,30.200000762939453,30.299999237060547,29.399999618530273,29.799999237060547,25565680,0.0,0
2020-10-15,29.700000762939453,30.399999618530273,29.25,29.399999618530273,18829530,0.0,0
2020-10-16,29.75,29.75,29.049999237060547,29.149999618530273,12142330,0.0,0
2020-10-19,29.149999618530273,30.100000381469727,29.149999618530273,29.399999618530273,9916629,0.0,0
2020-10-20,29.399999618530273,29.600000381469727,28.700000762939453,29.200000762939453,16085670,0.0,0
2020-10-21,29.5,29.549999237060547,28.899999618530273,29.0,15685500,0.0,0
2020-10-22,28.799999237060547,29.799999237060547,28.799999237060547,29.450000762939453,13016730,0.0,0
2020-10-23,29.5,29.700000762939453,29.100000381469727,29.549999237060547,8390371,0.0,0
2020-10-27,29.5,29.850000381469727,28.399999618530273,28.5,22035760,0.0,0
2020-10-28,28.600000381469727,28.649999618530273,27.700000762939453,28.0,16137760,0.0,0
2020-10-29,27.649999618530273,28.600000381469727,27.5,28.450000762939453,13645410,0.0,0
2020-10-30,28.399999618530273,29.25,28.200000762939453,28.600000381469727,19324440,0.0,0
2020-11-02,28.950000762939453,29.649999618530273,28.75,28.899999618530273,12144820,0.0,0
2020-11-03,29.149999618530273,30.200000762939453,28.850000381469727,29.700000762939453,13623030,0.0,0
2020-11-04,29.549999237060547,30.649999618530273,29.450000762939453,30.299999237060547,15064490,0.0,0
2020-11-05,30.950000762939453,32.70000076293945,30.649999618530273,32.599998474121094,37218160,0.0,0
2020-11-06,32.54999923706055,33.150001525878906,31.700000762939453,32.150001525878906,17058520,0.0,0
2020-11-09,32.5,32.5,31.450000762939453,31.75,11182630,0.0,0
2020-11-10,32.150001525878906,32.29999923706055,31.0,31.549999237060547,17396260,0.0,0
2020-11-11,32.04999923706055,33.5,31.5,32.849998474121094,26511580,0.0,0
2020-11-12,32.79999923706055,32.849998474121094,31.5,32.150001525878906,17870410,0.0,0
2020-11-13,31.899999618530273,31.899999618530273,31.149999618530273,31.850000381469727,10509480,0.0,0
2020-11-16,32.04999923706055,32.04999923706055,31.25,31.649999618530273,12005820,0.0,0
2020-11-17,31.700000762939453,31.950000762939453,31.399999618530273,31.600000381469727,8891500,0.0,0
2020-11-18,31.649999618530273,33.0,31.5,32.04999923706055,14287070,0.0,0
2020-11-19,31.899999618530273,31.950000762939453,30.799999237060547,31.149999618530273,18593310,0.0,0
2020-11-20,31.149999618530273,31.149999618530273,30.049999237060547,30.25,16338230,0.0,0
2020-11-23,30.399999618530273,30.549999237060547,29.700000762939453,30.100000381469727,10080340,0.0,0
2020-11-24,29.950000762939453,30.149999618530273,29.600000381469727,29.799999237060547,10131270,0.0,0
2020-11-25,30.100000381469727,30.25,29.299999237060547,29.450000762939453,12954050,0.0,0
2020-11-26,29.299999237060547,29.600000381469727,28.899999618530273,29.200000762939453,15257860,0.0,0
2020-11-27,29.200000762939453,30.299999237060547,29.200000762939453,29.899999618530273,13889320,0.0,0
2020-11-30,30.149999618530273,31.049999237060547,29.549999237060547,29.700000762939453,20982060,0.0,0
2020-12-01,30.25,30.299999237060547,29.450000762939453,29.5,8982753,0.0,0
2020-12-02,29.399999618530273,29.950000762939453,29.149999618530273,29.5,13195660,0.0,0
2020-12-03,29.5,29.75,29.049999237060547,29.549999237060547,21264480,0.0,0
2020-12-04,29.75,29.75,28.350000381469727,28.799999237060547,28991660,0.0,0
2020-12-07,28.5,28.75,28.0,28.200000762939453,14041035,0.0,0
