Date,Open,High,Low,Close,Volume,Dividends,Stock Splits
2020-01-02,16.256264133593184,16.938480325529724,16.217279395193852,16.78254508972168,212300,0.0,0
2020-01-03,16.58762769887226,17.074925796778768,16.58762769887226,16.802038192749023,126900,0.0,0
2020-01-06,16.197789311110522,17.055433130622447,16.197789311110522,16.587627410888672,61700,0.0,0
2020-01-07,16.353724358348387,16.84102244205358,16.334231988865458,16.685087203979492,89200,0.0,0
2020-01-08,16.568134447799206,16.587626816813682,16.19778873099733,16.314739227294922,114100,0.0,0
2020-01-09,16.568135812975157,16.841023424979223,16.392708195179317,16.7630558013916,418800,0.0,0
2020-01-10,16.996958129666968,16.996958129666968,16.47067529307667,16.646102905273438,550300,0.0,0
2020-01-13,16.68508817780398,16.7630558013916,16.54864344235456,16.7630558013916,187400,0.0,0
2020-01-14,16.76305482511293,17.640191004113042,16.76305482511293,17.406288146972656,3816300,0.0,0
2020-01-15,17.640191104449052,17.796126343429588,16.938480670141956,16.996957778930664,466100,0.0,0
2020-01-16,16.977464989983623,17.913076400756836,16.841022123969523,17.913076400756836,596305,0.0,0
2020-01-17,18.010536300054195,18.400374385984986,17.991043931034,18.322406768798828,304906,0.0,0
2020-01-20,18.12749035184081,18.244440859118185,17.48425698513084,17.54273223876953,512400,0.0,0
2020-01-21,17.44527137635513,17.44527137635513,16.431692308451915,17.05543327331543,588600,0.0,0
2020-01-22,16.60711934360861,16.802037458921344,16.54864223600961,16.78254508972168,237800,0.0,0
2020-01-23,16.80203729928902,16.80203729928902,16.314739227294922,16.314739227294922,233900,0.0,0
2020-01-24,16.17829611692787,16.256263732910156,15.963883778805647,16.256263732910156,244500,0.0,0
2020-01-29,15.593538119319893,15.963883831740116,14.735893411223623,15.125732421875,307800,0.0,0
2020-01-30,15.12573262311857,15.26217548863168,14.03418412232981,14.385039329528809,354200,0.0,0
2020-01-31,14.112151389368485,14.307071357173598,13.897740911898524,14.092659950256348,204800,0.0,0
2020-02-03,13.936725137949802,14.05367656447537,13.254508018493654,13.254508018493652,376562,0.0,0
2020-02-04,13.644346336159014,14.112152050121175,13.507902538196383,13.956216812133789,295700,0.0,0
2020-02-05,14.131644782652106,14.365547645642431,14.131644782652106,14.326563835144043,348100,0.0,0
2020-02-06,14.443515266639205,14.443515266639205,14.131644782652106,14.326563835144043,199300,0.0,0
2020-02-07,14.599449593106492,14.599449593106492,14.229103881319737,14.482498168945312,326600,0.0,0
2020-02-10,14.385039794395947,14.48249885441947,14.209612185127327,14.34605598449707,521100,0.0,0
2020-02-11,14.385039113534646,14.579958153803279,14.346055305480919,14.482498168945312,637700,0.0,0
2020-02-12,15.008780553607515,15.301159588692821,14.813861506699755,15.164716720581055,325258,0.0,0
2020-02-13,15.22319272347593,15.340144157409668,15.106241289542192,15.340144157409668,122600,0.0,0
2020-02-14,15.223191289749824,15.359635081212545,15.12573223537413,15.301158905029297,170300,0.0,0
2020-02-17,15.242684578554671,15.866426467895506,15.223192208834329,15.866426467895508,221800,0.0,0
2020-02-18,15.242683658293338,15.39861888885228,15.242683658293338,15.301158905029297,119000,0.0,0
2020-02-19,15.320652716477733,15.632524136415078,15.301160346098422,15.340144157409668,94600,0.0,0
2020-02-20,15.320652081102914,15.593538748964537,14.989289233975843,15.55455493927002,259900,0.0,0
2020-02-21,15.61303130238145,15.61303130238145,14.618942749294686,14.657926559448242,606000,0.0,0
2020-02-24,14.657926188241573,14.657926188241573,14.287579536437988,14.287579536437988,239487,0.0,0
2020-02-25,14.326563492337101,14.326563492337101,13.897741587115718,14.034184455871582,321900,0.0,0
2020-02-26,14.151137373513748,14.989289777035694,14.131645003236613,14.229104995727539,255800,0.0,0
2020-02-27,14.307072617941332,14.307072617941332,14.092661192129718,14.229104995727539,207500,0.0,0
2020-02-28,14.190121184620644,14.229104995727539,14.092661192129718,14.229104995727539,604400,0.0,0
2020-03-02,14.229104860166583,14.229104860166583,13.741806761249197,13.839265823364258,192900,0.0,0
2020-03-03,13.936724775116424,14.424022837676807,13.936724775116424,14.248595237731934,271600,0.0,0
2020-03-04,14.501991400564885,14.59945046177437,14.112152367384882,14.170628547668457,193100,0.0,0
2020-03-05,14.170628083603585,14.424023307455206,14.170628083603585,14.209611892700195,129600,0.0,0
2020-03-06,14.20961196171857,14.20961196171857,13.72231388092041,13.72231388092041,51500,0.0,0
2020-03-09,13.74180702548296,14.151137510800147,13.605363220561438,13.89774227142334,274600,0.0,0
2020-03-10,13.839265889054403,14.15113730586608,13.722314456292786,14.073168754577637,152700,0.0,0
2020-03-11,14.07316758169692,14.131643757927911,13.644345697309708,14.092659950256348,288339,0.0,0
2020-03-12,14.092660584970037,14.092660584970037,13.371459645840565,13.878249168395996,219100,0.0,0
2020-03-13,13.410443968928476,14.09266112476159,12.903653497514105,14.073168754577637,217200,0.0,0
2020-03-16,14.073168138537246,14.073168138537246,13.488411000326387,13.644346237182617,335100,0.0,0
2020-03-17,13.468918824543293,13.58587025386605,13.254508335508575,13.546886444091797,203000,0.0,0
2020-03-18,13.897741533752129,13.897741533752129,13.15704822540283,13.157048225402832,461400,0.0,0
2020-03-19,12.806194752310395,12.903653817303372,12.552799510323354,12.68924331665039,241900,0.0,0
2020-03-20,12.689242606269202,13.468918800354004,12.533306438004903,13.468918800354004,1064000,0.0,0
2020-03-23,14.151136786309086,14.151136786309086,13.09857207120457,13.235015869140625,818144,0.0,0
2020-03-24,13.235016514652328,13.332476507852546,12.845178400746208,13.020605087280273,1335243,0.0,0
2020-03-25,13.351966998062753,13.351966998062753,13.040096529145403,13.09857177734375,201400,0.0,0
2020-03-26,13.312983437714985,13.332475807109478,13.079080581665039,13.079080581665039,102100,0.0,0
2020-03-27,13.312983134914123,13.332475503865266,12.903652681413185,12.942636489868164,310900,0.0,0
2020-03-30,12.708734446708847,13.059588745098534,12.474831581115723,12.474831581115723,124000,0.0,0
2020-03-31,12.669750372568766,12.80619417272055,11.500235139451888,11.695154190063477,334900,0.0,0
2020-04-01,11.714646211955174,11.792613829884383,11.383283371032375,11.402774810791016,207400,0.0,0
2020-04-02,12.14346773095741,12.14346773095741,10.993444008280678,11.110395431518555,77200,0.0,0
2020-04-03,11.110395844994992,11.110395844994992,10.91547679901123,10.91547679901123,40100,0.0,0
2020-04-06,10.876492441759183,11.207855267958207,10.72055721282959,10.72055721282959,115000,0.0,0
2020-04-07,10.915476552376685,11.305315564983145,10.837508935744854,10.857001304626465,216800,0.0,0
2020-04-08,11.032428160903613,11.578202415855397,10.74005005839274,11.402774810791016,344300,0.0,0
2020-04-09,11.519726043311596,11.92905649525694,11.012936535322837,11.500234603881836,687500,0.0,0
2020-04-14,11.500235536756584,11.695154594102144,10.330720263235845,11.42226791381836,762900,0.0,0
2020-04-15,11.402774748453576,11.987532809173171,11.402774748453576,11.8900728225708,311300,0.0,0
2020-04-16,11.500234603881836,11.77312126202963,11.324807001777458,11.500234603881836,745100,0.0,0
2020-04-17,11.812105821009963,11.812105821009963,11.383283902382711,11.597694396972656,763600,0.0,0
2020-04-20,11.71464692130592,11.71464692130592,11.071412640269543,11.266332626342773,100400,0.0,0
2020-04-21,11.012936760972236,11.071412009906952,10.798525346167851,10.837509155273438,61957,0.0,0
2020-04-22,11.36379119662812,11.36379119662812,10.93496929066647,11.227348327636719,183500,0.0,0
2020-04-23,11.363790868672394,11.363790868672394,10.818017549562972,11.01293659210205,278400,0.0,0
2020-04-24,10.99344395158789,11.012936320083993,10.740049667269545,10.954460144042969,193200,0.0,0
2020-04-27,10.837509446806708,11.071412307732302,10.837509446806708,10.973953247070312,13200,0.0,0
2020-04-28,10.915477435272525,11.480743166298337,10.818018371323435,11.42226791381836,189400,0.0,0
2020-04-29,11.500235044513786,11.519726484690363,11.22734837591033,11.383283615112305,144800,0.0,0
2020-05-04,11.30531657898059,11.441759455600488,10.915477531408651,10.934969902038574,176440,0.0,0
2020-05-05,10.915476248991581,10.93496861733142,10.72055721282959,10.72055721282959,172648,0.0,0
2020-05-06,10.837509621955208,11.792614380341497,10.759542000386617,11.597694396972656,408700,0.0,0
2020-05-07,11.012936933771366,11.480742650378529,11.012936933771366,11.305315971374512,89600,0.0,0
2020-05-08,11.363791510397771,11.695154366150273,10.993444843935995,11.519726753234863,348600,0.0,0
2020-05-11,11.929056068431324,12.35787887391031,11.929056068431324,12.260418891906738,323100,0.0,0
2020-05-12,12.435848050952135,12.435848050952135,11.675662326440445,11.812106132507324,402200,0.0,0
2020-05-13,11.714646041736824,11.714646041736824,11.402774645104278,11.578202247619629,327300,0.0,0
2020-05-14,11.578202032574533,12.084991532337805,11.402774433317447,11.675661087036133,367400,0.0,0
2020-05-15,11.792614587498614,11.792614587498614,11.402775543360114,11.42226791381836,96600,0.0,0
2020-05-18,11.773121662497001,11.773121662497001,11.20785595809661,11.227348327636719,71800,0.0,0
2020-05-19,11.441758593680511,11.5587100203078,11.246839549301697,11.324807167053223,73500,0.0,0
2020-05-20,11.344299852769991,11.656170332478633,11.227348422879249,11.53921890258789,83800,0.0,0
2020-05-21,11.57820238946934,11.617186198345102,11.246839549301697,11.324807167053223,75400,0.0,0
2020-05-22,11.285823502774264,11.285823502774264,11.012936837147633,11.071412086486816,625000,0.0,0
2020-05-25,10.77903414960932,11.051920819507165,10.681574159922132,10.818017959594727,102900,0.0,0
2020-05-26,10.934968704994152,11.051920127628915,10.681573491228521,10.954460144042969,129400,0.0,0
2020-05-27,10.759542427055154,10.759542427055154,10.584114806845577,10.603607177734375,66200,0.0,0
2020-05-28,10.720557951043551,10.720557951043551,9.862913203426386,10.096816062927246,325700,0.0,0
2020-05-29,10.525638850838897,10.525638850838897,9.94088077545166,9.94088077545166,378500,0.0,0
2020-06-01,9.940881438673664,10.759542427055154,9.940881438673664,10.603607177734375,182600,0.0,0
2020-06-02,11.16887250015636,11.16887250015636,10.233260110058803,10.876493453979492,239800,0.0,0
2020-06-03,10.759542021398218,11.03242869742119,10.662082029523473,10.876493453979492,475900,0.0,0
2020-06-04,10.993444417404735,11.07141203579824,10.77903393154626,10.91547679901123,488100,0.0,0
2020-06-05,10.818017931063661,11.695154118145648,10.77903412118107,11.461251258850098,1857562,0.0,0
2020-06-08,11.617185793571435,12.318895258333058,11.59769342508906,12.162959098815918,913400,0.0,0
2020-06-09,12.318895372479643,13.254507691015405,12.182451580180594,13.040096282958984,1440500,0.0,0
2020-06-10,13.040096113771943,13.040096113771943,12.182451422120954,12.650257110595703,501300,0.0,0
2020-06-11,12.669750679658517,12.84517829418464,11.89007352886698,12.630766868591309,610028,0.0,0
2020-06-12,12.182451548026894,12.435846763293203,11.79261347026895,12.31889533996582,178744,0.0,0
2020-06-15,12.236006742761731,12.236006742761731,11.407116728405489,11.900504112243652,571000,0.156,0
2020-06-16,11.95971006447798,12.21627172978209,11.565000534057617,11.565000534057617,500300,0.0,0
2020-06-17,11.584735700115685,11.999181183314393,11.584735700115685,11.742619514465332,124100,0.0,0
2020-06-18,11.762354666349543,11.939974416012076,11.525528960840635,11.584734916687012,160250,0.0,0
2020-06-19,11.841296634976393,11.88076758611718,11.58473498203043,11.643941879272461,141200,0.0,0
2020-06-22,11.979446122977844,11.979446122977844,11.347909927368166,11.347909927368164,171000,0.0,0
2020-06-23,11.367645812229808,11.446587718615147,11.209761058397376,11.288702964782715,117000,0.0,0
2020-06-24,11.407116366008351,11.446587317818965,11.150554708708494,11.209760665893555,102400,0.0,0
2020-06-26,11.071612570870284,11.071612570870284,10.874257815992198,10.97293472290039,80200,0.0,0
2020-06-29,10.893992701948264,11.051876504126085,10.657166998681532,10.854521751403809,252800,0.0,0
2020-06-30,11.782090476872858,11.782090476872858,10.972935457194295,11.071613311767578,56000,0.0,0
2020-07-02,10.933464065642404,11.40711643113576,10.933464065642404,11.268967628479004,757200,0.0,0
2020-07-03,11.28870245138484,11.48605814943442,10.696638180421239,11.091347694396973,741500,0.0,0
2020-07-06,11.683413393183727,11.683413393183727,11.249231968659577,11.565000534057617,763500,0.0,0
2020-07-07,11.683413278488349,11.801826136452005,11.367645657251932,11.446587562561035,523900,0.0,0
2020-07-08,11.446587562561037,11.643942325833796,11.328173763535638,11.446587562561035,208400,0.0,0
2020-07-09,11.446587621094297,12.038651913940159,11.446587621094297,11.841297149658203,1248000,0.0,0
2020-07-10,11.959710008227377,11.959710008227377,11.58473548556079,11.841297149658203,908000,0.0,0
2020-07-13,12.137329991401216,12.433362613837687,11.643942601027685,11.742619514465332,1672000,0.0,0
2020-07-14,11.683413443316732,11.939975109721738,11.387380823700322,11.62420654296875,1539200,0.0,0
2020-07-15,11.841296885500526,13.518813756067424,11.801825933524661,13.499078750610352,4077300,0.0,0
2020-07-16,13.518814252989037,15.196331185217733,12.689923289965932,13.025426864624023,4909400,0.0,0
2020-07-17,13.420137230820236,13.637227002370997,12.828071993172204,13.242517471313477,1630800,0.0,0
2020-07-20,13.321459430136391,13.61749205012955,12.39389155795703,12.630717277526855,823500,0.0,0
2020-07-21,13.02542600429939,13.20304575351884,12.689922451801186,12.808335304260254,636200,0.0,0
2020-07-22,12.828071973495238,12.887278873593925,12.216271730763644,12.236006736755371,510200,0.0,0
2020-07-23,12.236006623296422,12.512304233112644,11.624206386237775,12.117593765258789,474600,0.0,0
2020-07-24,12.492568454681399,12.492568454681399,11.387380823700322,11.62420654296875,690700,0.0,0
2020-07-27,11.643942548468383,11.959710175742343,11.347909927368166,11.347909927368164,323800,0.0,0
2020-07-28,11.407116599546145,11.505793510562032,11.051877084916073,11.111083984375,301600,0.0,0
2020-07-29,11.11108393292408,11.446587499160348,10.913729170744434,11.387380599975586,234100,0.0,0
2020-07-30,11.36764553066689,11.387380536243533,11.071612918523364,11.328173637390137,499600,0.0,0
2020-07-31,11.40711622382472,11.801825737011026,11.34790932631592,11.703147888183594,432986,0.0,0
2020-08-03,11.703148021981637,12.236006341405988,11.643942064857665,12.157064437866211,365000,0.0,0
2020-08-04,12.43336174344456,12.43336174344456,11.74261869242743,11.861032485961914,309300,0.0,0
2020-08-05,11.861033096617273,11.999180961083768,11.762355243945423,11.841297149658203,221600,0.0,0
2020-08-06,11.841297141038128,11.861033087982829,11.407116659933898,11.505793571472168,292700,0.0,0
2020-08-07,11.505793056389686,11.703147811692947,11.190025447904471,11.308438301086426,174900,0.0,0
2020-08-10,11.782090418577482,11.861033266482574,11.268968024095827,11.6834135055542,448300,0.0,0
2020-08-11,11.466322680921651,11.742619352215906,11.249231968659577,11.565000534057617,506541,0.0,0
2020-08-12,11.460000038146973,12.020000457763672,11.460000038146973,11.899999618530273,282300,0.155,0
2020-08-13,11.920000076293945,12.600000381469727,11.899999618530273,12.420000076293945,1161700,0.0,0
2020-08-14,12.420000076293945,12.779999732971191,12.0600004196167,12.119999885559082,210900,0.0,0
2020-08-17,12.420000076293945,12.699999809265137,12.199999809265137,12.479999542236328,961400,0.0,0
2020-08-18,12.520000457763672,12.859999656677246,12.4399995803833,12.619999885559082,631400,0.0,0
2020-08-19,12.619999885559082,12.619999885559082,12.0600004196167,12.220000267028809,442300,0.0,0
2020-08-20,12.479999542236328,12.699999809265137,12.0600004196167,12.5,550700,0.0,0
2020-08-21,12.539999961853027,12.539999961853027,12.300000190734863,12.380000114440918,185400,0.0,0
2020-08-24,12.699999809265137,12.960000038146973,12.5600004196167,12.880000114440918,488900,0.0,0
2020-08-25,12.960000038146973,12.960000038146973,12.600000381469727,12.899999618530273,1128300,0.0,0
2020-08-26,12.920000076293945,12.920000076293945,12.399999618530273,12.600000381469727,378100,0.0,0
2020-08-27,12.680000305175781,12.720000267028809,12.399999618530273,12.600000381469727,288300,0.0,0
2020-08-28,12.760000228881836,12.760000228881836,12.34000015258789,12.619999885559082,139900,0.0,0
2020-08-31,12.880000114440918,13.260000228881836,12.460000038146973,12.460000038146973,409600,0.0,0
2020-09-01,12.520000457763672,12.619999885559082,12.220000267028809,12.239999771118164,191100,0.0,0
2020-09-02,12.279999732971191,12.5,12.199999809265137,12.460000038146973,395200,0.0,0
2020-09-03,12.460000038146973,12.65999984741211,12.300000190734863,12.65999984741211,408200,0.0,0
2020-09-04,12.720000267028809,12.760000228881836,12.260000228881836,12.65999984741211,505300,0.0,0
2020-09-07,12.65999984741211,12.899999618530273,12.479999542236328,12.5,346000,0.0,0
2020-09-08,12.399999618530273,12.619999885559082,12.199999809265137,12.5600004196167,307800,0.0,0
2020-09-09,12.399999618530273,12.479999542236328,12.279999732971191,12.359999656677246,82800,0.0,0
2020-09-10,12.680000305175781,12.680000305175781,12.319999694824219,12.460000038146973,77400,0.0,0
2020-09-11,12.539999961853027,12.539999961853027,11.859999656677246,12.020000457763672,174100,0.0,0
2020-09-14,12.0600004196167,12.140000343322754,11.600000381469727,11.84000015258789,258800,0.0,0
2020-09-15,11.859999656677246,12.0,11.680000305175781,11.760000228881836,175200,0.0,0
2020-09-16,11.880000114440918,12.300000190734863,11.880000114440918,12.260000228881836,284500,0.0,0
2020-09-17,12.359999656677246,12.359999656677246,11.880000114440918,11.960000038146973,123530,0.0,0
2020-09-18,12.0600004196167,12.420000076293945,11.979999542236328,12.260000228881836,176100,0.0,0
2020-09-21,12.260000228881836,12.34000015258789,12.0,12.15999984741211,59500,0.0,0
2020-09-22,12.220000267028809,12.220000267028809,11.739999771118164,11.859999656677246,135600,0.0,0
2020-09-23,12.0,12.300000190734863,11.899999618530273,12.020000457763672,197600,0.0,0
2020-09-24,12.020000457763672,12.079999923706055,11.819999694824219,11.899999618530273,165900,0.0,0
2020-09-25,12.079999923706055,12.079999923706055,11.800000190734863,11.800000190734863,137100,0.0,0
2020-09-28,11.920000076293945,12.079999923706055,11.539999961853027,11.539999961853027,77200,0.0,0
2020-09-29,11.699999809265137,12.15999984741211,11.680000305175781,12.119999885559082,76800,0.0,0
2020-09-30,12.199999809265137,12.619999885559082,12.079999923706055,12.619999885559082,246771,0.0,0
2020-10-05,12.899999618530273,13.140000343322754,12.65999984741211,12.779999732971191,229200,0.0,0
2020-10-06,12.899999618530273,13.0600004196167,12.619999885559082,12.699999809265137,188800,0.0,0
2020-10-07,12.960000038146973,12.979999542236328,12.699999809265137,12.859999656677246,1078500,0.0,0
2020-10-08,12.899999618530273,13.279999732971191,12.539999961853027,13.100000381469727,628000,0.0,0
2020-10-09,13.0,13.140000343322754,12.5,12.819999694824219,452100,0.0,0
2020-10-12,12.819999694824219,13.15999984741211,12.819999694824219,13.0600004196167,708500,0.0,0
2020-10-14,13.039999961853027,13.100000381469727,12.800000190734863,13.020000457763672,752800,0.0,0
2020-10-15,13.039999961853027,13.0600004196167,12.84000015258789,13.039999961853027,253800,0.0,0
2020-10-16,13.039999961853027,13.039999961853027,12.800000190734863,12.9399995803833,182700,0.0,0
2020-10-19,12.9399995803833,12.9399995803833,12.399999618530273,12.399999618530273,79400,0.0,0
2020-10-20,12.4399995803833,12.680000305175781,12.140000343322754,12.680000305175781,227600,0.0,0
2020-10-21,12.5,12.579999923706055,11.859999656677246,12.300000190734863,635200,0.0,0
2020-10-22,12.100000381469727,12.359999656677246,12.100000381469727,12.300000190734863,72410,0.0,0
2020-10-23,12.300000190734863,12.420000076293945,12.279999732971191,12.399999618530273,262900,0.0,0
2020-10-27,12.319999694824219,12.600000381469727,12.319999694824219,12.5,287900,0.0,0
2020-10-28,12.479999542236328,12.619999885559082,12.479999542236328,12.539999961853027,139400,0.0,0
2020-10-29,12.680000305175781,12.680000305175781,12.34000015258789,12.619999885559082,140700,0.0,0
2020-10-30,12.479999542236328,12.619999885559082,12.300000190734863,12.600000381469727,164640,0.0,0
2020-11-02,12.680000305175781,12.680000305175781,12.460000038146973,12.539999961853027,104300,0.0,0
2020-11-03,12.5600004196167,12.65999984741211,12.319999694824219,12.579999923706055,102500,0.0,0
2020-11-04,12.380000114440918,12.779999732971191,12.380000114440918,12.5600004196167,40300,0.0,0
2020-11-05,12.5600004196167,13.4399995803833,12.479999542236328,12.800000190734863,281830,0.0,0
2020-11-06,13.199999809265137,13.199999809265137,12.859999656677246,13.100000381469727,407014,0.0,0
2020-11-09,12.960000038146973,13.199999809265137,12.960000038146973,13.140000343322754,483370,0.0,0
2020-11-10,13.779999732971191,14.0,12.9399995803833,13.199999809265137,2406300,0.0,0
2020-11-11,13.199999809265137,13.579999923706055,13.0600004196167,13.5,291391,0.0,0
2020-11-12,13.4399995803833,13.539999961853027,13.199999809265137,13.460000038146973,344300,0.0,0
2020-11-13,13.5,13.800000190734863,13.199999809265137,13.699999809265137,277000,0.0,0
2020-11-16,13.699999809265137,13.880000114440918,13.680000305175781,13.720000267028809,444700,0.0,0
2020-11-17,13.720000267028809,14.300000190734863,13.720000267028809,14.180000305175781,592151,0.0,0
2020-11-18,14.180000305175781,14.279999732971191,13.9399995803833,14.239999771118164,320700,0.0,0
2020-11-19,14.239999771118164,14.34000015258789,14.100000381469727,14.300000190734863,258354,0.0,0
2020-11-20,14.359999656677246,14.359999656677246,13.800000190734863,13.979999542236328,298600,0.0,0
2020-11-23,13.979999542236328,14.359999656677246,13.380000114440918,13.640000343322754,143000,0.0,0
2020-11-24,13.899999618530273,13.899999618530273,13.420000076293945,13.420000076293945,100300,0.0,0
2020-11-25,13.479999542236328,13.960000038146973,13.479999542236328,13.5600004196167,226200,0.0,0
2020-11-26,13.5600004196167,13.5600004196167,13.220000267028809,13.520000457763672,87400,0.0,0
2020-11-27,13.5,13.520000457763672,13.300000190734863,13.5,97600,0.0,0
2020-11-30,13.5,13.739999771118164,13.300000190734863,13.5,197400,0.0,0
2020-12-01,13.5,13.960000038146973,13.5,13.760000228881836,120450,0.0,0
2020-12-02,13.899999618530273,14.0,13.579999923706055,13.720000267028809,54800,0.0,0
2020-12-03,13.760000228881836,13.899999618530273,13.579999923706055,13.899999618530273,100617,0.0,0
2020-12-04,13.699999809265137,13.880000114440918,13.699999809265137,13.819999694824219,134300,0.0,0
2020-12-07,13.800000190734863,13.84000015258789,13.279999732971191,13.279999732971191,63800,0.0,0
