Date,Open,High,Low,Close,Volume,Dividends,Stock Splits
2018-12-17,1.728924366526513,1.7783221584606772,1.6301286648845585,1.7585630416870117,25548000,0.0,0
2018-12-18,1.7091652424937243,1.7486834758732148,1.6696470091142337,1.6795265674591064,8400000,0.0,0
2018-12-19,1.6795265409258637,1.7289243318698382,1.5708512830754962,1.7091652154922485,6442000,0.0,0
2018-12-20,1.7091652462067242,1.7289243629393942,1.649887778235088,1.719044804573059,3430000,0.0,0
2018-12-21,1.6696469523838668,1.7190447424298185,1.6498877185918648,1.699285626411438,174000,0.0,0
2018-12-24,1.6597673329957356,1.7289243591834695,1.6103695412713723,1.6795265674591064,704000,0.0,0
2018-12-27,1.6795265365412995,1.6894060947043028,1.6004899534636492,1.669646978378296,10546000,0.0,0
2018-12-28,1.6696470394906875,1.699285715064532,1.659767363192445,1.689406156539917,516000,0.0,0
2018-12-31,1.6992856913660144,1.7980813930079689,1.6992856913660144,1.7585630416870117,5534000,0.0,0
2019-01-02,1.7980812972427558,1.7980812972427558,1.719044716583929,1.72892427444458,1132000,0.0,0
2019-01-03,1.7783221006393433,1.8573586829377935,1.758562984508136,1.7783221006393433,1958000,0.0,0
2019-01-04,1.7980813345441724,1.8277200087409828,1.7684425425737396,1.7783221006393433,1128000,0.0,0
2019-01-07,1.7980813099512971,1.807960867881775,1.7882016342471985,1.807960867881775,1198000,0.0,0
2019-01-08,1.8079609239676944,1.8079609239676944,1.788201689720154,1.7882016897201538,368000,0.0,0
2019-01-09,1.7882016587049467,1.7980813345441724,1.7783221006393433,1.7783221006393433,408000,0.0,0
2019-01-10,1.7783221314831958,1.8079609239676944,1.7783221314831958,1.7882016897201538,128000,0.0,0
2019-01-11,1.788201757434632,1.9363953721479528,1.788201757434632,1.8869974613189697,4448000,0.0,0
2019-01-14,1.886997230205041,2.074708938598633,1.8771176728039896,2.074708938598633,4502000,0.0,0
2019-01-15,2.1438661878798886,2.1636253037135726,1.995672583580017,1.995672583580017,3046000,0.0,0
2019-01-16,1.995672583580017,2.015431699413701,1.956154351912649,1.995672583580017,1566000,0.0,0
2019-01-17,2.01543184103652,2.124107221305557,1.857358785485757,1.8869974613189697,2308000,0.0,0
2019-01-18,1.9166361963540814,1.9462748712815465,1.8771178453438362,1.9067565202713013,1644000,0.0,0
2019-01-21,1.9166361453165,1.9956726096851,1.906756469496803,1.966033935546875,696000,0.0,0
2019-01-22,1.9265156672128037,1.946274782934187,1.8474790865536501,1.9166361093521118,1164000,0.0,0
2019-01-23,1.916636109352112,1.9363952250734955,1.886997317996417,1.9166361093521118,374052,0.0,0
2019-01-24,1.8968768686754442,1.916636102095638,1.8771177530288696,1.8771177530288696,636000,0.0,0
2019-01-25,1.8672383810763533,2.035190998564387,1.8672383810763533,2.0154318809509277,1344000,0.0,0
2019-01-28,1.985793082828934,1.985793082828934,1.9561544082251885,1.9759135246276855,362000,0.0,0
2019-01-29,1.956154351912649,2.0253112573305434,1.956154351912649,1.995672583580017,296000,0.0,0
2019-01-30,1.985793082828934,1.9956726410301826,1.9363952918226914,1.9759135246276855,220000,0.0,0
2019-01-31,1.9759135624243176,2.084588704716864,1.9759135624243176,2.0648295879364014,1052000,0.0,0
2019-02-01,2.064829507760144,2.1339866493536808,2.064829507760144,2.114227533340454,942000,0.0,0
2019-02-04,2.124107040554884,2.213023060488222,2.124107040554884,2.1735048294067383,728000,0.0,0
2019-02-08,2.124107033985431,2.3315777465215537,2.124107033985431,2.3216981887817383,1074000,0.0,0
2019-02-11,2.3710962280213606,2.45013269043966,2.2920595300558233,2.4007349014282227,1006000,0.0,0
2019-02-12,2.4007349851774187,2.410614543324353,2.331577842601635,2.351337194442749,926000,0.0,0
2019-02-13,2.4007350166290164,2.4402532497344738,2.3414574314235814,2.3612167835235596,1194000,0.0,0
2019-02-14,2.351337211407153,2.5686874922078373,2.272300510114202,2.5094101428985596,2288000,0.0,0
2019-02-15,2.509409998770077,2.5489282293731907,2.3019390525564947,2.539048671722412,3054000,0.0,0
2019-02-18,2.56868746991319,2.64772417052015,2.489651004853475,2.5785670280456543,1380000,0.0,0
2019-02-19,2.588446523564477,2.7070014538334917,2.558807849884033,2.558807849884033,1578000,0.0,0
2019-02-20,2.5884466576588845,2.7366402692855085,2.5884466576588845,2.6773629188537598,1726000,0.0,0
2019-02-21,2.6971218399257886,2.8354356475620044,2.6872422822374875,2.7662787437438965,996000,0.0,0
2019-02-22,2.795917583474916,2.953990751457794,2.776158466920463,2.8947134017944336,1046000,0.0,0
2019-02-25,2.865074620740301,2.9638701998497288,2.786037921905518,2.7860379219055176,1334000,0.0,0
2019-02-26,2.8057968779396374,2.845315342880106,2.716880861804844,2.736639976501465,738000,0.0,0
2019-02-27,2.7168811290406265,2.766278920641006,2.6180855458398673,2.7465198040008545,1450000,0.0,0
2019-02-28,2.8156767835508507,2.944111280511803,2.7959176664102823,2.84531569480896,730000,0.0,0
2019-03-01,2.8354356392041113,3.161461513051506,2.8354356392041113,3.0626657009124756,1196000,0.0,0
2019-03-04,3.0231474702757577,3.2108593013474036,3.0231474702757577,3.0626657009124756,1090000,0.0,0
2019-03-05,3.0330272258453688,3.072545459060722,2.8749542929839556,2.973749876022339,1746000,0.0,0
2019-03-06,2.894713439451411,3.082425049160637,2.894713439451411,2.9836294651031494,492000,0.0,0
2019-03-07,2.9045930462306657,3.033027307644362,2.7761585492697134,2.84531569480896,1130000,0.0,0
2019-03-08,2.5983263307475837,2.8551950728838977,2.5983263307475837,2.6378445625305176,1700000,0.0,0
2019-03-11,2.5686874976245413,2.8551951576513828,2.5686874976245413,2.815676689147949,914000,0.0,0
2019-03-12,2.7563992614604977,3.003388445971972,2.7563992614604977,2.865074634552002,1050000,0.0,0
2019-03-13,2.7860378591204986,2.8947132292390463,2.7366400706789933,2.7662787437438965,786000,0.0,0
2019-03-14,2.746519699933587,2.786037931716521,2.578566979308875,2.6378445625305176,3030000,0.0,0
2019-03-15,2.568687266032962,2.8057968779396374,2.568687266032962,2.736639976501465,1624000,0.0,0
2019-03-18,2.7860378407747644,2.865074537307961,2.7366400526585375,2.835435628890991,1228000,0.0,0
2019-03-19,2.746519710711936,2.8255561745879727,2.7168810367584224,2.716881036758423,1898000,0.0,0
2019-03-20,2.7168808460300324,2.845315326359575,2.7168808460300324,2.8057968616485596,950000,0.0,0
2019-03-21,2.726760512990692,2.8057969744971007,2.726760512990692,2.7662787437438965,1310000,0.0,0
2019-03-22,2.697121923382581,2.9539906667739104,2.697121923382581,2.9441111087799072,926000,0.0,0
2019-03-25,2.805797070853708,3.1614616309412407,2.805797070853708,3.0231475830078125,2844000,0.0,0
2019-03-26,3.023147545503058,3.230618497055722,3.023147545503058,3.161461591720581,3206000,0.0,0
2019-03-27,3.171341129807977,3.4282098692805767,3.171341129807977,3.230618476867676,5038000,0.0,0
2019-03-28,3.2207390606838215,3.536885161121336,3.2207390606838215,3.4282100200653076,8156000,0.0,0
2019-03-29,3.4282098692805767,3.497366774183558,3.220738919024393,3.230618476867676,5608000,0.0,0
2019-04-01,3.280016372231325,3.60604226270493,3.230618581416308,3.339293956756592,30416000,0.0,0
2019-04-02,3.408450863897616,3.4380895383866257,3.0725454152610077,3.339293956756592,6992000,0.0,0
2019-04-03,3.2503775610292527,3.2997753497665654,3.1911002145444773,3.2207388877868652,5198000,0.0,0
2019-04-04,3.240498022905385,3.240498022905385,3.0824248624414987,3.1515820026397705,5058000,0.0,0
2019-04-08,3.082424913056726,3.1911002862686733,3.0626657971176887,3.0923047065734863,2262000,0.0,0
2019-04-09,3.0429067504970906,3.2404981499359042,3.0231476341079335,3.1911003589630127,2594000,0.0,0
2019-04-10,3.1614615917205806,3.210859381245682,3.1219433601005,3.161461591720581,1542000,0.0,0
2019-04-11,3.112063884735107,3.151582117403309,3.082424974686709,3.1120638847351074,1960000,0.0,0
2019-04-12,3.0626657973981426,3.3788121235461737,3.0626657973981426,3.3195345401763916,2846700,0.0,0
2019-04-15,3.438089448608386,3.5270054697535675,3.13182291800552,3.161461591720581,5758000,0.0,0
2019-04-16,3.171341310479088,3.2898960113525386,3.171341310479088,3.289896011352539,566000,0.0,0
2019-04-17,3.2898960113525386,3.309655128164781,3.2207391025096923,3.289896011352539,232000,0.0,0
2019-04-18,3.2602571149390425,3.487487178410443,3.210859326259876,3.3689324855804443,2882000,0.0,0
2019-04-23,3.339293958124515,3.368932632625666,3.082424974686709,3.1120638847351074,2748000,0.0,0
2019-04-24,3.1318230700474556,3.2404982122785757,3.1318230700474556,3.210859537124634,624050,0.0,0
2019-04-25,3.1713413273536073,3.1713413273536073,3.082425065678149,3.141702651977539,2824000,0.0,0
2019-04-26,3.0923046863854395,3.230618497055722,3.072545335028159,3.161461591720581,1216000,0.0,0
2019-04-29,3.1219434303284626,3.3195345928736693,3.1219434303284626,3.2602572441101074,1387000,0.0,0
2019-04-30,3.230618497055722,3.339293869558184,3.1614615917205806,3.161461591720581,712000,0.0,0
2019-05-02,3.1713411496256008,3.2701367286758027,3.1219433601005,3.161461591720581,1254000,0.0,0
2019-05-03,3.191100226389299,3.3096549197989042,3.151581995252764,3.2997753620147705,984000,0.0,0
2019-05-06,3.220738824733338,3.2404979398414318,3.062665668321354,3.200979709625244,1496000,0.0,0
2019-05-07,3.2404982193219345,3.3392940389303956,3.2009799856974506,3.289896011352539,1352000,0.0,0
2019-05-08,3.2503778630324702,3.3096552150248977,3.1515822763784245,3.2404983043670654,1146000,0.0,0
2019-05-09,3.17134123373741,3.2306185827397127,3.042906742018507,3.1120638847351074,6426000,0.0,0
2019-05-10,3.1812207790920244,3.3195345928736693,3.1515821047102435,3.2602572441101074,2518000,0.0,0
2019-05-14,3.1219434429021575,3.2602572572408643,3.102184326568057,3.1120638847351074,2364000,0.0,0
2019-05-15,3.161461752072967,3.3491735973365167,3.1515821936668464,3.289896011352539,1814000,0.0,0
2019-05-16,3.2898959091654065,3.457848632399951,3.210859444371383,3.4084508419036865,2028000,0.0,0
2019-05-17,3.40845089536264,3.5072464779047023,3.3096550772733284,3.3491735458374023,1432000,0.0,0
2019-05-20,3.3195345182009035,3.3195345182009035,3.1219433601005,3.161461591720581,2124000,0.0,0
2019-05-21,3.210859285358001,3.27013663101789,3.062665685661046,3.1318228244781494,1784000,0.0,0
2019-05-22,3.161461719342517,3.1812208359501937,2.9638703177185004,2.973749876022339,4424000,0.0,0
2019-05-23,2.95399068815696,2.95399068815696,2.8057970816269386,2.8749542236328125,1478000,0.0,0
2019-05-24,2.8650747875257325,2.9539908139003126,2.8650747875257325,2.9144725799560547,98000,0.0,0
2019-05-27,2.9342314694446174,3.042906604366017,2.8255560989759823,2.993508815765381,544000,0.0,0
2019-05-28,3.0429065584514214,3.0626656735935294,2.855194964601395,2.904592752456665,3166000,0.0,0
2019-05-29,2.9045929290570935,2.9737498362592394,2.8551951381984177,2.884833812713623,2142000,0.0,0
2019-05-30,2.907837539990851,3.0173792577981544,2.907837539990851,2.987504243850708,482000,0.0231,0
2019-05-31,2.9875042696990994,3.1667545923601876,2.9875042696990994,3.0173792839050293,2034000,0.0,0
2019-06-03,3.017379203986026,3.017379203986026,2.907837488132296,2.9277541637420654,802000,0.0,0
2019-06-04,2.967587733862846,3.0372961036390085,2.9476710567839426,2.997462749481201,298000,0.0,0
2019-06-05,3.0372961055811625,3.1667547441023345,3.0372961055811625,3.097046136856079,756000,0.0,0
2019-06-06,3.087087702249619,3.146837969090811,3.077129364013672,3.077129364013672,266000,0.0,0
2019-06-10,3.1567962169647217,3.196629568768295,3.126921203112042,3.1567962169647217,390000,0.0,0
2019-06-11,3.1567963232537792,3.4157133561202224,3.1567963232537792,3.375880002975464,2334000,0.0,0
2019-06-12,3.3758798786833943,3.5053382716375014,3.2862545999819694,3.3260879516601562,1658000,0.0,0
2019-06-13,3.276296406926073,3.4057550430297856,3.2563797302063504,3.405755043029785,826000,0.0,0
2019-06-14,3.395796729355099,3.5850051595678836,3.3460047997683233,3.4356300830841064,1990000,0.0,0
2019-06-17,3.455546643274212,3.545171686138344,3.455546643274212,3.485421657562256,296000,0.0,0
2019-06-18,3.525255009946315,3.525255009946315,3.355963024888557,3.485421657562256,1004000,0.0,0
2019-06-19,3.5850050854658013,3.833963778551635,3.425671673843195,3.4455883502960205,7504000,0.0,0
2019-06-20,3.4953800920340736,3.565088460628199,3.4356300618105373,3.505338430404663,4395700,0.0,0
2019-06-21,3.5451717584441873,3.5451717584441873,3.4455883754529792,3.475463390350342,834000,0.0,0
2019-06-24,3.525255009946315,3.545171686138344,3.455546643274212,3.485421657562256,3070000,0.0,0
2019-06-25,3.4953800669485835,3.555130096743308,3.3858383456582546,3.475463390350342,3022000,0.0,0
2019-06-26,3.4854216575622563,3.525255009946315,3.455546643274212,3.485421657562256,6840000,0.0,0
2019-06-27,3.5152966718503,3.5152966718503,3.455546643274212,3.485421657562256,974000,0.0,0
2019-06-28,3.4754633391562977,3.485421677308731,3.2862546768345586,3.415713310241699,4266000,0.0,0
2019-07-02,3.4655049292384565,3.5750466466467765,3.3260879605659994,3.4256715774536133,9396000,0.0,0
2019-07-03,3.445588216632892,3.565088270714136,3.246421222405317,3.296212911605835,8178000,0.0,0
2019-07-04,3.3061712494459385,3.38583818959227,3.2065878710449023,3.296212911605835,5826000,0.0,0
2019-07-05,3.326087996610434,3.326087996610434,3.23646295412328,3.286254644393921,2646000,0.0,0
2019-07-08,3.316129658556306,3.3360463346645624,3.23646295412328,3.286254644393921,1324000,0.0,0
2019-07-09,3.2862546582164542,3.5750467004263884,3.2762963201204394,3.485421657562256,2056415,0.0,0
2019-07-10,3.744338675192518,4.092880982446051,3.664671970643371,4.023172378540039,10570850,0.0,0
2019-07-11,4.023172232229111,4.431464315620616,4.023172232229111,4.212380886077881,12839595,0.0,0
2019-07-12,4.222339117689827,4.381673000800527,4.142672413559983,4.361756324768066,3624000,0.0,0
2019-07-15,4.282089482247965,4.421506209969467,4.222338981230609,4.3816728591918945,2518000,0.0,0
2019-07-16,4.302006386684789,4.3617564160323665,4.242256357337211,4.282089710235596,2688000,0.0,0
2019-07-17,4.252214317754749,4.411547724088096,4.192464290379744,4.302006244659424,1576000,0.0,0
2019-07-18,4.232297755437033,4.391631166042336,4.192464402785707,4.252214431762695,1254000,0.0,0
2019-07-19,4.262173007351037,4.2820896836767,4.202422503523029,4.252214431762695,1314000,0.0,0
2019-07-22,4.282089541444083,4.351797668842989,4.2322976148582905,4.272130966186523,960000,0.0,0
2019-07-23,4.282089603755792,4.451381111938761,4.152630972629689,4.162589073181152,2250000,0.0,0
2019-07-24,4.162589073181152,4.192464324537565,3.9833389895957096,4.162589073181152,1442000,0.0,0
2019-07-25,4.162588960119942,4.242256136622844,4.1028389338810145,4.212380886077881,802000,0.0,0
2019-07-26,4.142672706660076,4.182506061543266,4.112797927923207,4.1526312828063965,558000,0.0,0
2019-07-29,4.122755696203493,4.152630947378238,4.03313089238127,4.13271427154541,1934000,0.0,0
2019-07-30,4.102839161437262,4.142672514472495,4.072964384086348,4.112797737121582,480000,0.0,0
2019-07-31,4.013214323242806,4.102839129447773,3.9833390712738033,3.9833390712738037,462000,0.0,0
2019-08-01,3.983339045570198,4.013214297346422,3.843922074508017,3.9534640312194824,1484000,0.0,0
2019-08-02,3.7841720648044217,3.883755683898926,3.585005064040924,3.883755683898926,6040000,0.0,0
2019-08-05,3.833963842681798,3.8737974336792513,3.6845887667870287,3.704505443572998,752000,0.0,0
2019-08-06,3.5750467435472006,3.9036723795304553,3.4057549938730203,3.81404709815979,3440371,0.0,0
2019-08-07,3.7841720648044217,3.933547374733423,3.6945470213023275,3.883755683898926,924972,0.0,0
2019-08-08,3.883755586892851,3.983338966074512,3.8339636598765163,3.8638389110565186,806000,0.0,0
2019-08-09,3.8737974371874127,3.9634224828054396,3.744338800535858,3.804088830947876,444000,0.0,0
2019-08-12,3.7841721786694773,3.8837558007604343,3.694547132470581,3.8339638710021973,1404000,0.0,0
2019-08-13,3.7343803816588728,3.784172072595889,3.5850050714223136,3.614880323410034,1734000,0.0,0
2019-08-14,3.7045053209936216,3.7841720255013853,3.624838616485858,3.6547136306762695,1714000,0.0,0
2019-08-15,3.68458877012384,3.824005507751882,3.624838739711822,3.804088830947876,4720000,0.0,0
2019-08-16,3.8538804456150237,3.9136307122534393,3.7045053725827617,3.714463710784912,2884000,0.0,0
2019-08-19,3.734380458751952,3.754297135537921,3.6447554132150906,3.704505443572998,1821601,0.0,0
2019-08-20,3.7343804375477934,3.794130467566435,3.6746304075291523,3.7742137908935547,853700,0.0,0
2019-08-21,3.734380538083451,4.132714557115894,3.734380538083451,4.092881202697754,3172000,0.0,0
2019-08-22,4.1426724477023305,4.152631023226142,3.8439220673277217,3.8538804054260254,1378494,0.0,0
2019-08-23,3.863838969441746,4.063005730814613,3.8538803939475947,4.023172378540039,2622000,0.0,0
2019-08-26,3.8837558044160674,3.983339189175241,3.8040888591832105,3.9335474967956543,1685700,0.0,0
2019-08-27,3.9335471726600533,4.082922237489879,3.8937138220387664,4.013214111328125,8520000,0.0,0
2019-08-28,4.063005896982581,4.0829225739344155,3.9036724813679022,3.9335474967956543,1750000,0.0,0
2019-08-29,3.953464148806806,3.953464148806806,3.8638391030889547,3.903672456741333,708000,0.0,0
2019-08-30,3.9833391854258746,3.9833391854258746,3.794130517136021,3.8339638710021973,1966877,0.0,0
2019-09-02,3.863839047502721,3.8837557240423837,3.7144637360297397,3.7443387508392334,1200000,0.0,0
2019-09-03,3.7841721759239135,3.7941305143832325,3.694547129790044,3.7343804836273193,2060000,0.0,0
2019-09-04,3.7841720895127584,3.9136307239532466,3.7144637218893095,3.913630723953247,1192000,0.0,0
2019-09-05,3.9534641023035264,4.023172470375233,3.9235890874156527,3.9435057640075684,1382000,0.0,0
2019-09-06,4.023172341503586,4.182505749135091,3.9534639756648025,4.162589073181152,3374000,0.0,0
2019-09-09,4.202422568660436,4.202422568660436,4.102839185488583,4.142672538757324,1400000,0.0,0
2019-09-10,4.14267256466631,4.172547817230225,4.033131079917694,4.172547817230225,1366000,0.0,0
2019-09-11,4.272131246224982,4.272131246224982,4.003255869709109,4.033131122589111,1930000,0.0,0
2019-09-12,4.033131122589111,4.072964476528423,3.9932977686497995,4.033131122589111,1270000,0.0,0
2019-09-13,4.053047799558767,4.082922577587733,3.9833391927394537,4.033131122589111,1300000,0.0,0
2019-09-16,4.043089100360788,4.043089100360788,3.9036723658244905,3.9833390712738037,1562000,0.0,0
2019-09-17,3.983339001472131,4.003255677485451,3.9435056494454903,3.993297576904297,1270445,0.0,0
2019-09-18,4.003255840872279,4.023172517698468,3.8937141183282384,3.903672456741333,2032000,0.0,0
2019-09-19,3.9335474719806167,4.013214416710889,3.8737974415020493,3.903672456741333,1540000,0.0,0
2019-09-20,3.933547400417089,3.963422415112853,3.8538804571362073,3.913630723953247,1608000,0.0,0
2019-09-23,3.923589062185168,3.9534640768809317,3.814047104208522,3.913630723953247,2040900,0.0,0
2019-09-24,3.9634223081153066,3.9634223081153066,3.7941303253173824,3.794130325317383,2396000,0.0,0
2019-09-25,3.78417215414387,3.804088830947876,3.714463785329849,3.804088830947876,2784000,0.0,0
2019-09-26,3.7742137452952766,3.8638390266659424,3.7742137452952766,3.81404709815979,1460371,0.0,0
2019-09-27,3.8140471233682716,3.8937140670493577,3.734380417112698,3.8439221382141113,1964000,0.0,0
2019-09-30,3.8439220341448763,3.8439220341448763,3.714463639984489,3.724421977996826,1368000,0.0,0
2019-10-02,3.704505346997337,3.724422023264083,3.614880303796981,3.684588670730591,1338000,0.0,0
2019-10-03,3.624838763204773,3.8638391238273466,3.624838763204773,3.8339638710021973,3066000,0.0,0
2019-10-04,3.833963846153885,3.8937141139914186,3.734380462133855,3.804088830947876,2306000,0.0,0
2019-10-08,3.7244220542146356,3.824005436375918,3.7244220542146356,3.81404709815979,1892429,0.0,0
2019-10-09,3.784172182231376,3.9335474967956543,3.784172182231376,3.9335474967956543,4358000,0.0,0
2019-10-10,3.923589136746898,4.013214419962891,3.8538805303732335,4.003255844116211,3600000,0.0,0
2019-10-11,3.9833392871273183,4.162589384101671,3.943505932244129,4.1526312828063965,7392000,0.0,0
2019-10-14,4.1526308937390315,4.18250566967688,4.063005616223484,4.072964191436768,2728000,0.0,0
2019-10-15,4.03313114602231,4.07296450019306,3.9435058617126018,4.0630059242248535,2688285,0.0,0
2019-10-16,4.063005996893698,4.172547960247992,4.023172642010508,4.1526312828063965,3918000,0.0,0
2019-10-17,4.172547775938481,4.381673117263278,4.152631099376645,4.311964511871338,9122857,0.0,0
2019-10-18,4.331880958803363,4.531048188715046,4.311964283297295,4.411547660827637,9454000,0.0,0
2019-10-21,4.4314647673286425,4.481256698361972,4.321923278816992,4.351798057556152,2978000,0.0,0
2019-10-22,4.401589534580681,4.521089586913397,4.331880933294431,4.3816728591918945,3440000,0.0,0
2019-10-23,4.361756217815339,4.5011729466239885,4.202422338611595,4.242256164550781,2780570,0.0,0
2019-10-24,4.272130907128073,4.391630959460789,4.232297556350501,4.3816728591918945,3298293,0.0,0
2019-10-25,4.471298079167991,4.740173934338143,4.331881338408352,4.69038200378418,5980000,0.0,0
2019-10-28,4.77004845175997,4.879590408073637,4.650548394791069,4.760090351104736,4776000,0.0,0
2019-10-29,4.760090591070575,5.068799324561712,4.7202567618884865,4.859673976898193,10810000,0.0,0
2019-10-30,4.909465356315076,4.919423932169051,4.5808399507504145,4.77004861831665,8112000,0.0,0
2019-10-31,4.829798337030341,4.999090316808582,4.750131634746698,4.7800068855285645,6212000,0.0,0
2019-11-01,4.780007143899616,4.8497152747401975,4.6704651849130965,4.710298538208008,6194000,0.0,0
2019-11-04,4.760090517313708,4.789965295173569,4.59079852660439,4.77004861831665,16814000,0.0,0
2019-11-05,4.780007212451463,4.88954869815793,4.5907985441616095,4.600756645202637,15830000,0.0,0
2019-11-06,4.660506454365073,4.67046502978354,4.481256370491766,4.53104829788208,20947120,0.0,0
2019-11-07,4.511131507188936,4.64058966038012,4.4912148317094465,4.58083963394165,6246000,0.0,0
2019-11-08,4.6505482568921455,4.78996498588852,4.590798230179413,4.7800068855285645,23772000,0.0,0
2019-11-11,4.799923539067038,4.799923539067038,4.560922958462161,4.58083963394165,10292000,0.0,0
2019-11-12,4.63063174262303,4.819840404563009,4.6007564908004985,4.7899651527404785,24078000,0.0,0
2019-11-13,4.760090561883161,4.7700486629793435,4.610715246632137,4.630631923675537,30466000,0.0,0
2019-11-14,4.650548516104422,5.019007272128923,4.650548516104422,4.909465312957764,19544000,0.0,0
2019-11-15,5.0090489187888,5.0090489187888,4.770048335809609,4.809881687164307,18214000,0.0,0
2019-11-18,4.869631944158438,5.138507315925443,4.859673843275007,5.078757286071777,14688000,0.0,0
2019-11-19,5.088715861806236,5.218174022396996,5.068799185188347,5.078757286071777,19618000,0.0,0
2019-11-20,5.088715705219077,5.128549057229123,4.8696317943128085,4.89950704574585,48991340,0.0,0
2019-11-21,4.889548363743073,4.889548363743073,4.730214959175788,4.7800068855285645,45625040,0.0,0
2019-11-22,4.829798399139436,4.849715074966467,4.640589741357144,4.670464992523193,9354000,0.0,0
2019-11-25,4.710298511965359,4.7501318650383455,4.610715129282894,4.680423259735107,3590000,0.0,0
2019-11-26,4.710298423275519,4.760090351104736,4.630631718629585,4.760090351104736,8030000,0.0,0
2019-11-27,4.7899650732888865,4.7899650732888865,4.590798313945673,4.7003397941589355,6184000,0.0,0
2019-11-28,4.720256612808093,4.720256612808093,4.580839877052641,4.680423259735107,4044000,0.0,0
2019-11-29,4.670465107849036,4.670465107849036,4.541006474351167,4.620673179626465,6428000,0.0,0
2019-12-02,4.620673065530114,4.7202564446652655,4.610714965042102,4.670464992523193,1870000,0.0,0
2019-12-03,4.710298681035557,4.750132035538311,4.650548649281426,4.69038200378418,2748000,0.0,0
2019-12-04,4.64058966038012,4.650548235545364,4.560922958462161,4.58083963394165,3398400,0.0,0
2019-12-05,4.620673347728319,4.650548600718938,4.541006639554715,4.630631923675537,4648000,0.0,0
2019-12-06,4.670465210605825,4.82979862466198,4.6605066348018,4.740173816680908,3660000,0.0,0
2019-12-09,4.849715128923555,4.849715128923555,4.66050646903616,4.730215072631836,3738000,0.0,0
2019-12-10,4.780007117268598,4.799923793805091,4.660506583198614,4.680423259735107,3230960,0.0,0
2019-12-11,4.750131607055664,4.760090182208567,4.680423005538345,4.750131607055664,3548000,0.0,0
2019-12-12,4.780007263025189,4.809882041315387,4.650548624164894,4.660506725311279,6360000,0.0,0
2019-12-13,4.730215381520044,4.829798768266047,4.680423450721521,4.720256805419922,10986500,0.0,0
2019-12-16,4.75013166787988,4.75013166787988,4.5808396869207915,4.640589714050293,4562000,0.0,0
2019-12-17,4.690381910888979,4.770048618316651,4.640589981321168,4.77004861831665,5326000,0.0,0
2019-12-18,4.789965271147941,4.799923846951966,4.690381887362845,4.740173816680908,10892000,0.0,0
2019-12-19,4.7600902353964365,4.899506965137879,4.75013166013226,4.809881687164307,8572000,0.0,0
2019-12-20,4.869631688172162,4.93934029009585,4.770048310317609,4.7800068855285645,4635000,0.0,0
2019-12-23,4.82979862466198,4.82979862466198,4.730215240876883,4.740173816680908,4274000,0.0,0
2019-12-24,4.7800071701949465,4.849715301419,4.740173816680908,4.740173816680908,2740000,0.0,0
2019-12-27,4.740173760908928,5.058840585271865,4.740173760908928,5.048882484436035,9225822,0.0,0
2019-12-30,5.118590450517422,5.42729916413403,5.0787570987508275,5.407382488250732,8390000,0.0,0
2019-12-31,5.337674712020824,5.337674712020824,5.2181741739908425,5.258008003234863,2260000,0.0,0
2020-01-02,5.327716059950968,5.397424666569207,5.138507391859494,5.16838264465332,5062000,0.0,0
2020-01-03,5.178340614135747,5.397424529455541,5.178340614135747,5.387465953826904,9202000,0.0,0
2020-01-06,5.42729911089377,5.576674415978673,5.297840956347792,5.34763240814209,7736000,0.0,0
2020-01-07,5.437257644989125,5.6662996510912675,5.407382394257976,5.656341075897217,9487000,0.0,0
2020-01-08,5.686216646998338,5.895341989345817,5.516924657969329,5.845550060272217,15362000,0.0,0
2020-01-09,5.835591891259664,6.33350927678026,5.835591891259664,6.323550701141357,13460780,0.0,0
2020-01-10,6.283717423964197,6.4928427663894785,6.174175464872138,6.4131760597229,15550920,0.0,0
2020-01-13,6.3733426159512225,6.662134660945093,6.3733426159512225,6.492842674255371,13764000,0.0,0
2020-01-14,6.622301359675704,6.7617180954480585,6.373342665513842,6.552592754364014,13807690,0.0,0
2020-01-15,6.6223013450041135,6.721884727478028,6.552592739846862,6.721884727478027,6069765,0.0,0
2020-01-16,6.672092914581299,6.87126015783585,6.672092914581299,6.672092914581299,5678000,0.0,0
2020-01-17,6.87125976780669,6.970843146355858,6.731843037837854,6.9608845710754395,6575940,0.0,0
2020-01-20,6.970843182457181,6.970843182457181,6.711925922037431,6.821467876434326,8086000,0.0,0
2020-01-21,6.791593495429629,6.791593495429629,6.4530095120514455,6.5326762199401855,5566171,0.0,0
2020-01-22,6.5725095383496255,6.891176843032716,6.49284283089161,6.871260166168213,4428605,0.0,0
2020-01-23,6.761717857860831,6.861301237056298,6.333509089894818,6.6521759033203125,5912000,0.0,0
2020-01-24,6.552592788761377,6.821468160873588,6.522718011221702,6.78163480758667,1195000,0.0,0
2020-01-29,6.622301191281943,6.652175967905128,6.453009207580519,6.5426344871521,5905000,0.0,0
2020-01-30,6.552592750171712,6.552592750171712,5.925216727320968,5.984967231750488,5918000,0.0,0
2020-01-31,6.164217188723196,6.353425849102863,6.034758556644843,6.204050540924072,6173040,0.0,0
2020-02-03,6.034758642571779,6.522717926256919,5.984967189037228,6.492842674255371,5821660,0.0,0
2020-02-04,6.4729260821875405,6.791593383333913,6.4729260821875405,6.78163480758667,4548000,0.0,0
2020-02-05,6.821468228309453,6.980802117883301,6.592426207219891,6.672092914581299,5604200,0.0,0
2020-02-06,6.761718015990856,6.881218073820054,6.622301281856792,6.831426620483398,2975694,0.0,0
2020-02-07,6.811509854798266,6.921051335612123,6.751759826667704,6.911093235015869,3048000,0.0,0
2020-02-10,6.911093398309644,7.31938550427436,6.821468116570648,7.289510726928711,10850000,0.0,0
2020-02-11,7.359219006776614,7.528510998010552,7.299468976020702,7.468760967254639,5608000,0.0,0
2020-02-12,7.578302850685614,7.578302850685614,7.289510800875941,7.379135608673096,3675450,0.0,0
2020-02-13,7.4189686678368405,7.657969253801855,7.319385288206006,7.588260650634766,3690000,0.0,0
2020-02-14,7.677885920143561,7.857136003255302,7.578302540637039,7.757552623748779,8218000,0.0,0
2020-02-17,7.767511226250822,7.946761309988545,7.6978026229273135,7.78742790222168,5812000,0.0,0
2020-02-18,7.717719822224966,8.245512008666992,7.677886467582211,8.245512008666992,9458507,0.0,0
2020-02-19,8.295303551254403,8.564179394788724,8.126011564518432,8.165844917297363,8573098,0.0,0
2020-02-20,8.315220832824707,8.394887539631238,8.026428783225517,8.315220832824707,6378941,0.0,0
2020-02-21,8.265428671306005,8.514387360503763,8.16584481574609,8.414803504943848,2568810,0.0,0
2020-02-24,8.35505432302548,8.35505432302548,8.006511762763667,8.096137046813965,5613983,0.0,0
2020-02-25,7.966678027829993,8.225595291662955,7.807344619225717,8.016469955444336,5234000,0.0,0
2020-02-26,7.916885994198718,7.996552697434019,7.767511163058031,7.896969318389893,6662000,0.0,0
2020-02-27,7.9069284232284796,8.205678580367467,7.9069284232284796,8.15588665008545,5270000,0.0,0
2020-02-28,7.976636928176537,8.036386483985687,7.598219592477675,7.837219715118408,6766996,0.0,0
2020-03-02,7.926844659474438,8.265428626917386,7.777469351787783,7.817302703857422,6063317,0.0,0
2020-03-03,8.116052964481055,8.335136878957087,7.867094747787232,8.135970115661621,13570000,0.0,0
2020-03-04,8.046344836471034,8.096136764731042,7.717719439537845,7.767511367797852,17366460,0.0,0
2020-03-05,7.867094988038773,8.434720993041992,7.83721973520659,8.434720993041992,12546000,0.0,0
2020-03-06,8.285344872596768,8.474554008220203,8.135970038958925,8.414803504943848,4938059,0.0,0
2020-03-09,8.135970266422348,8.195719821667135,7.67788622750339,7.747594833374023,12552460,0.0,0
2020-03-10,7.787428151800633,7.916886312334703,7.179968802944506,7.518552780151367,17125580,0.0,0
2020-03-11,7.657969623137858,7.996553130212231,7.5882610166087945,7.837219715118408,7852000,0.0,0
2020-03-12,7.7376362741905025,7.7376362741905025,7.369177517050724,7.57830286026001,13494220,0.0,0
2020-03-13,6.980801831988283,7.518552559505522,6.950926580525764,7.448843955993652,13949230,0.0,0
2020-03-16,7.289510650346341,7.3293440029560735,6.61234270627885,6.831426620483398,13412040,0.0,0
2020-03-17,6.652176112324306,6.901134805560484,6.283717360299009,6.5227179527282715,18158000,0.0,0
2020-03-18,6.54263476407395,7.160052222063903,6.184134105464834,6.303634166717529,14398660,0.0,0
2020-03-19,6.273759273576001,6.4131760091429495,5.875425268533696,6.353425979614258,19704000,0.0,0
2020-03-20,6.3932592060568645,7.120218596539832,6.3932592060568645,6.940968036651611,28927770,0.0,0
2020-03-23,6.443050893491736,6.931010188356905,6.413176115656724,6.672092914581299,10050930,0.0,0
2020-03-24,7.070426406094286,8.145928300905693,6.9210511033551185,8.056303024291992,25470800,0.0,0
2020-03-25,8.345095428722708,8.613970320914019,8.265428723651057,8.474554061889648,19019460,0.0,0
2020-03-26,8.46459584543391,8.91272131789882,8.384929136982464,8.524346351623535,9718406,0.0,0
2020-03-27,8.793220723419976,8.862928851673622,8.454636758127371,8.663762092590332,7939708,0.0,0
2020-03-30,8.544262560820483,9.052138539887245,8.434721074036352,8.922679901123047,7735000,0.0,0
2020-03-31,8.952554717204055,9.759181331464225,8.952554717204055,9.749222755432129,10588000,0.0,0
2020-04-01,9.749222347687013,9.898597183112761,9.111887753819603,9.271222114562988,9984515,0.0,0
2020-04-02,9.251305257123324,9.679514525172003,9.21147190309801,9.629722595214844,8295467,0.0,0
2020-04-03,9.609804952739534,9.808972662400022,9.350888639644545,9.43055534362793,8609841,0.0,0
2020-04-06,9.699430703547137,9.719347855361987,9.20151330460075,9.599847793579102,11303370,0.0,0
2020-04-07,9.699430387963304,9.848806172608322,9.490305049221908,9.6098051071167,11482050,0.0,0
2020-04-08,9.579930102507113,9.828888787966347,9.540096750821716,9.709388732910156,4372000,0.0,0
2020-04-09,9.759181257007612,9.848806541208521,9.550055910439518,9.659597396850586,7481940,0.0,0
2020-04-14,9.749222786517091,10.29693212390162,9.579930792240017,10.1774320602417,11406620,0.0,0
2020-04-15,10.237181097066452,10.376598305770237,9.500263600422233,9.579930305480957,8132823,0.0,0
2020-04-16,9.390722505385257,10.117681456429729,9.390722505385257,10.057931900024414,9498132,0.0,0
2020-04-17,10.257098618723976,10.257098618723976,9.719347865300104,9.998181343078613,6388000,0.0,0
2020-04-20,10.097765017140917,10.23718127861511,9.868722523758663,10.157514572143555,9750993,0.0,0
2020-04-21,10.11768106805024,10.217264924505884,9.82888902397132,9.978264808654785,7826242,0.0,0
2020-04-22,9.828888948067455,10.257098197937012,9.709388891064748,10.257098197937012,12332000,0.0,0
2020-04-23,10.396514779296528,10.535931991649342,9.84880640510789,9.878681182861328,6140147,0.0,0
2020-04-24,9.878681206671626,10.057931773028422,9.799014499335732,9.90855598449707,5308599,0.0,0
2020-04-27,10.018098132544425,10.018098132544425,9.8089727943494,9.948389053344727,5396469,0.0,0
2020-04-28,9.90855592765711,10.257098482528802,9.888639725788417,10.217265129089355,7614000,0.0,0
2020-04-29,10.097765315645388,10.914349555969238,10.097765315645388,10.914349555969238,9946000,0.0,0
2020-05-04,10.396514206114373,10.834682020950625,10.396514206114373,10.69526481628418,5403795,0.0,0
2020-05-05,10.75501537322998,11.093599336508085,10.615598167850168,10.75501537322998,5196000,0.0,0
2020-05-06,10.91434883076896,10.934265031801248,10.51601531310302,10.814764976501465,3016000,0.0,0
2020-05-07,10.774931437441753,11.332599302182535,10.774931437441753,11.312682151794434,5356000,0.0,0
2020-05-08,11.312682839341665,12.009767950059658,11.312682839341665,11.750850677490234,8494160,0.0,0
2020-05-11,11.770766541744615,12.248767719676952,11.452099722924412,11.73093318939209,5838332,0.0,0
2020-05-12,11.591517181428665,12.16910127786924,11.591517181428665,12.029684066772461,4465266,0.0,0
2020-05-13,12.089434769660274,12.46785210623998,11.870350848545272,12.268684387207031,5382692,0.0,0
2020-05-14,12.348351059203187,12.62718548516154,12.0695175829469,12.607268333435059,4916000,0.0,0
2020-05-15,12.627184706370462,12.786518111547048,12.328434096813362,12.4479341506958,5654000,0.0,0
2020-05-18,12.428017854381576,12.62718557424321,12.149184376158187,12.328434944152832,4866000,0.0,0
2020-05-19,12.507685411624909,12.507685411624909,11.910184156246185,12.208934783935547,6702166,0.0,0
2020-05-20,12.44793434937795,12.44793434937795,11.810599768797072,11.950016975402832,3833066,0.0,0
2020-05-21,11.89026683792026,12.169101259697443,11.372433246923588,11.63135051727295,3988315,0.0,0
2020-05-22,11.37243351349531,11.691100346193634,10.854598960658459,11.193182945251465,9292657,0.0,0
2020-05-25,11.193182139412261,11.730932855727028,10.854598179195184,11.711016654968262,8899790,0.0,0
2020-05-26,11.850433141166604,11.93009984516387,11.392349118331312,11.611433029174805,4074000,0.0,0
2020-05-27,11.511850576152106,11.611433485208753,10.814765464245282,11.013933181762695,7440325,0.0,0
2020-05-28,11.033849567900832,11.27284969326931,10.57576551942688,10.854598999023438,4599000,0.0,0
2020-05-29,10.755015309129302,12.109350204467773,10.755015309129302,12.109350204467773,14168000,0.0,0
2020-06-01,12.10935034471042,12.766601124320383,12.029683641103274,12.627184867858887,10622130,0.0,0
2020-06-02,12.746685598206355,12.746685598206355,12.507685474729866,12.66701889038086,3134240,0.0,0
2020-06-03,12.906018961417827,13.244602943151493,12.56743497968416,12.607268333435059,8676000,0.0,0
2020-06-04,12.089433952369584,12.28860070823605,11.910183397238761,12.049600601196289,191386600,0.0,0
2020-06-05,11.95001744496592,12.029684151956197,11.6911001723965,11.750850677490234,16345530,0.0,0
2020-06-08,11.930099679950251,11.969933981099263,11.272848906223711,11.432182312011719,13798750,0.0,0
2020-06-09,11.55168342590332,11.611432978790996,11.013932701404146,11.55168342590332,15836620,0.0,0
2020-06-10,11.571599880714412,11.890266702308656,11.472016973817233,11.850433349609375,8368658,0.0,0
2020-06-11,11.770766406188361,11.850433109975944,11.153348976983597,11.213099479675293,9420765,0.0,0
2020-06-12,10.854598561092882,11.571599857972853,10.854598561092882,11.452099800109863,11136000,0.0,0
2020-06-15,11.34000015258789,11.479999542236328,10.819999694824219,10.920000076293945,14622470,0.0479,0
2020-06-16,11.239999771118164,11.619999885559082,11.020000457763672,11.619999885559082,8792958,0.0,0
2020-06-17,11.619999885559082,11.800000190734863,11.279999732971191,11.579999923706055,6032000,0.0,0
2020-06-18,11.5,11.960000038146973,11.34000015258789,11.9399995803833,7957665,0.0,0
2020-06-19,12.0,12.739999771118164,12.0,12.739999771118164,15904429,0.0,0
2020-06-22,12.5,12.800000190734863,12.180000305175781,12.680000305175781,9079714,0.0,0
2020-06-23,12.640000343322754,13.039999961853027,12.520000457763672,12.680000305175781,8345276,0.0,0
2020-06-24,12.619999885559082,12.65999984741211,12.239999771118164,12.380000114440918,5278612,0.0,0
2020-06-26,12.619999885559082,12.619999885559082,12.180000305175781,12.279999732971191,4816624,0.0,0
2020-06-29,12.279999732971191,12.319999694824219,11.84000015258789,12.220000267028809,4376158,0.0,0
2020-06-30,12.300000190734863,12.319999694824219,11.739999771118164,11.979999542236328,6457182,0.0,0
2020-07-02,12.0,12.680000305175781,11.979999542236328,12.600000381469727,9723913,0.0,0
2020-07-03,12.5600004196167,12.65999984741211,12.140000343322754,12.359999656677246,10795000,0.0,0
2020-07-06,12.319999694824219,12.600000381469727,11.720000267028809,11.920000076293945,20794320,0.0,0
2020-07-07,11.779999732971191,12.9399995803833,11.600000381469727,12.460000038146973,19594240,0.0,0
2020-07-08,12.800000190734863,13.220000267028809,12.619999885559082,13.15999984741211,18977840,0.0,0
2020-07-09,13.279999732971191,13.880000114440918,13.279999732971191,13.460000038146973,12194040,0.0,0
2020-07-10,13.699999809265137,14.680000305175781,13.520000457763672,14.34000015258789,17061680,0.0,0
2020-07-13,14.579999923706055,14.960000038146973,14.359999656677246,14.800000190734863,7663892,0.0,0
2020-07-14,14.579999923706055,14.579999923706055,13.920000076293945,14.199999809265137,7932644,0.0,0
2020-07-15,14.319999694824219,14.760000228881836,14.100000381469727,14.600000381469727,5804263,0.0,0
2020-07-16,14.720000267028809,14.84000015258789,13.479999542236328,13.600000381469727,14433270,0.0,0
2020-07-17,13.520000457763672,14.319999694824219,13.520000457763672,14.100000381469727,6634647,0.0,0
2020-07-20,14.140000343322754,14.479999542236328,13.760000228881836,14.079999923706055,6660053,0.0,0
2020-07-21,14.199999809265137,15.300000190734863,14.0600004196167,15.279999732971191,11021510,0.0,0
2020-07-22,15.119999885559082,15.640000343322754,14.65999984741211,14.65999984741211,11011580,0.0,0
2020-07-23,14.899999618530273,15.239999771118164,14.819999694824219,15.100000381469727,6860007,0.0,0
2020-07-24,14.920000076293945,15.039999961853027,13.819999694824219,14.199999809265137,10365080,0.0,0
2020-07-27,14.520000457763672,14.760000228881836,13.65999984741211,13.9399995803833,6893367,0.0,0
2020-07-28,14.199999809265137,14.5600004196167,14.0600004196167,14.300000190734863,5341937,0.0,0
2020-07-29,14.300000190734863,14.720000267028809,14.100000381469727,14.600000381469727,3544000,0.0,0
2020-07-30,14.5600004196167,15.199999809265137,14.5,14.880000114440918,6898000,0.0,0
2020-07-31,15.100000381469727,15.34000015258789,14.720000267028809,14.899999618530273,5154000,0.0,0
2020-08-03,15.220000267028809,15.359999656677246,14.779999732971191,15.119999885559082,7780240,0.0,0
2020-08-04,15.239999771118164,15.739999771118164,15.220000267028809,15.640000343322754,8113704,0.0,0
2020-08-05,15.640000343322754,15.800000190734863,15.399999618530273,15.65999984741211,4007498,0.0,0
2020-08-06,15.600000381469727,15.739999771118164,15.15999984741211,15.399999618530273,2712793,0.0,0
2020-08-07,15.359999656677246,15.479999542236328,14.819999694824219,15.300000190734863,5405211,0.0,0
2020-08-10,15.079999923706055,15.300000190734863,14.819999694824219,14.880000114440918,3998164,0.0,0
2020-08-11,14.859999656677246,15.180000305175781,14.65999984741211,14.739999771118164,4005726,0.0,0
2020-08-12,14.779999732971191,14.800000190734863,14.0,14.399999618530273,10732950,0.0,0
2020-08-13,14.699999809265137,14.859999656677246,14.600000381469727,14.699999809265137,8143433,0.0,0
2020-08-14,14.680000305175781,15.399999618530273,14.600000381469727,15.119999885559082,7324105,0.0,0
2020-08-17,15.300000190734863,15.300000190734863,14.619999885559082,14.760000228881836,5452000,0.0,0
2020-08-18,14.739999771118164,15.220000267028809,14.640000343322754,15.0600004196167,4368935,0.0,0
2020-08-19,15.0600004196167,15.079999923706055,14.739999771118164,14.819999694824219,2837490,0.0,0
2020-08-20,14.779999732971191,14.800000190734863,14.4399995803833,14.699999809265137,4224758,0.0,0
2020-08-21,14.720000267028809,14.800000190734863,14.34000015258789,14.600000381469727,3801224,0.0,0
2020-08-24,14.760000228881836,14.979999542236328,14.640000343322754,14.880000114440918,3333837,0.0,0
2020-08-25,14.979999542236328,15.0600004196167,13.859999656677246,14.600000381469727,14096000,0.0,0
2020-08-26,14.520000457763672,14.880000114440918,14.100000381469727,14.100000381469727,5471256,0.0,0
2020-08-27,14.960000038146973,16.739999771118164,14.84000015258789,16.299999237060547,26741160,0.0,0
2020-08-28,16.5,16.760000228881836,15.9399995803833,16.200000762939453,8695000,0.0,0
2020-08-31,16.479999542236328,16.5,15.699999809265137,15.960000038146973,5861793,0.0,0
2020-09-01,16.139999389648438,16.360000610351562,15.9399995803833,15.960000038146973,4810574,0.0,0
2020-09-02,16.059999465942383,16.520000457763672,15.680000305175781,16.479999542236328,7002347,0.0,0
2020-09-03,16.479999542236328,16.899999618530273,16.219999313354492,16.68000030517578,5150492,0.0,0
2020-09-04,16.0,16.479999542236328,15.699999809265137,16.399999618530273,4473578,0.0,0
2020-09-07,16.719999313354492,18.059999465942383,16.520000457763672,17.18000030517578,29655500,0.0,0
2020-09-08,17.1200008392334,17.1200008392334,15.300000190734863,16.200000762939453,23024000,0.0,0
2020-09-09,15.9399995803833,16.100000381469727,15.34000015258789,15.5600004196167,12194330,0.0,0
2020-09-10,15.65999984741211,15.979999542236328,14.539999961853027,14.760000228881836,8921996,0.0,0
2020-09-11,14.760000228881836,15.779999732971191,14.5600004196167,15.699999809265137,12284860,0.0,0
2020-09-14,15.859999656677246,16.360000610351562,15.5,16.239999771118164,8966793,0.0,0
2020-09-15,16.5,16.739999771118164,15.899999618530273,16.1200008392334,8082000,0.0,0
2020-09-16,16.280000686645508,17.1200008392334,16.100000381469727,17.0,7808981,0.0,0
2020-09-17,16.799999237060547,16.81999969482422,15.920000076293945,16.139999389648438,5953808,0.0,0
2020-09-18,16.139999389648438,16.280000686645508,15.800000190734863,16.15999984741211,6314157,0.0,0
2020-09-21,15.9399995803833,16.139999389648438,15.199999809265137,15.300000190734863,6432377,0.0,0
2020-09-22,15.479999542236328,15.9399995803833,15.300000190734863,15.819999694824219,9336000,0.0,0
2020-09-23,15.819999694824219,15.859999656677246,15.359999656677246,15.399999618530273,4625566,0.0,0
2020-09-24,15.300000190734863,15.4399995803833,14.859999656677246,14.899999618530273,5744000,0.0,0
2020-09-25,15.0,15.199999809265137,14.239999771118164,14.420000076293945,5854653,0.0,0
2020-09-28,14.420000076293945,14.859999656677246,14.260000228881836,14.520000457763672,5405188,0.0,0
2020-09-29,14.619999885559082,14.880000114440918,14.5,14.600000381469727,2375649,0.0,0
2020-09-30,14.640000343322754,15.4399995803833,14.619999885559082,15.260000228881836,4677115,0.0,0
2020-10-05,15.399999618530273,15.5,14.5600004196167,14.680000305175781,3521811,0.0,0
2020-10-06,14.859999656677246,15.420000076293945,14.859999656677246,15.300000190734863,3401309,0.0,0
2020-10-07,15.100000381469727,15.319999694824219,14.899999618530273,15.0,1899138,0.0,0
2020-10-08,15.039999961853027,15.260000228881836,14.699999809265137,15.199999809265137,4151228,0.0,0
2020-10-09,15.399999618530273,16.200000762939453,15.300000190734863,15.9399995803833,11626890,0.0,0
2020-10-12,16.200000762939453,16.239999771118164,15.800000190734863,16.0,4612171,0.0,0
2020-10-14,16.0,16.0,15.15999984741211,15.260000228881836,5562902,0.0,0
2020-10-15,15.119999885559082,15.199999809265137,14.039999961853027,14.100000381469727,16368270,0.0,0
2020-10-16,14.399999618530273,14.5600004196167,13.920000076293945,14.039999961853027,8113991,0.0,0
2020-10-19,14.380000114440918,14.380000114440918,12.979999542236328,13.140000343322754,17930000,0.0,0
2020-10-20,13.100000381469727,13.5600004196167,12.539999961853027,13.520000457763672,7344806,0.0,0
2020-10-21,13.520000457763672,13.779999732971191,12.979999542236328,13.079999923706055,7628000,0.0,0
2020-10-22,13.079999923706055,13.720000267028809,12.9399995803833,13.359999656677246,7642653,0.0,0
2020-10-23,13.239999771118164,13.34000015258789,13.020000457763672,13.260000228881836,11498550,0.0,0
2020-10-27,13.199999809265137,13.199999809265137,12.680000305175781,12.979999542236328,7151367,0.0,0
2020-10-28,12.920000076293945,13.279999732971191,12.760000228881836,13.239999771118164,4442160,0.0,0
2020-10-29,13.0,14.0,12.899999618530273,13.619999885559082,7340824,0.0,0
2020-10-30,13.84000015258789,13.84000015258789,13.020000457763672,13.34000015258789,6216000,0.0,0
2020-11-02,13.34000015258789,13.760000228881836,13.34000015258789,13.640000343322754,5819099,0.0,0
2020-11-03,13.640000343322754,13.979999542236328,13.100000381469727,13.699999809265137,11527000,0.0,0
2020-11-04,13.699999809265137,14.319999694824219,13.5600004196167,14.0600004196167,6114000,0.0,0
2020-11-05,14.34000015258789,15.180000305175781,14.220000267028809,15.15999984741211,12189480,0.0,0
2020-11-06,15.300000190734863,15.640000343322754,14.380000114440918,14.760000228881836,12977810,0.0,0
2020-11-09,14.920000076293945,14.920000076293945,14.119999885559082,14.199999809265137,7905763,0.0,0
2020-11-10,14.319999694824219,14.319999694824219,13.380000114440918,13.5600004196167,5164388,0.0,0
2020-11-11,13.5,13.800000190734863,12.579999923706055,12.699999809265137,7662161,0.0,0
2020-11-12,12.899999618530273,13.380000114440918,12.899999618530273,13.0600004196167,9638391,0.0,0
2020-11-13,13.0600004196167,14.100000381469727,12.960000038146973,13.979999542236328,11849180,0.0,0
2020-11-16,14.100000381469727,14.199999809265137,13.699999809265137,13.920000076293945,8038305,0.0,0
2020-11-17,13.84000015258789,13.84000015258789,13.34000015258789,13.520000457763672,8534536,0.0,0
2020-11-18,13.420000076293945,14.239999771118164,13.420000076293945,13.9399995803833,4017768,0.0,0
2020-11-19,14.180000305175781,14.180000305175781,13.539999961853027,14.0,4040964,0.0,0
2020-11-20,13.979999542236328,14.4399995803833,13.960000038146973,14.039999961853027,4246347,0.0,0
2020-11-23,14.0600004196167,14.359999656677246,13.619999885559082,13.920000076293945,10410320,0.0,0
2020-11-24,13.699999809265137,14.0,13.680000305175781,13.779999732971191,7199884,0.0,0
2020-11-25,13.640000343322754,13.800000190734863,13.220000267028809,13.399999618530273,12711020,0.0,0
2020-11-26,13.180000305175781,13.819999694824219,13.020000457763672,13.15999984741211,6038578,0.0,0
2020-11-27,13.399999618530273,13.5600004196167,13.15999984741211,13.520000457763672,6673000,0.0,0
2020-11-30,13.520000457763672,14.0600004196167,13.520000457763672,13.600000381469727,4579545,0.0,0
2020-12-01,13.5600004196167,13.880000114440918,13.359999656677246,13.600000381469727,5040971,0.0,0
2020-12-02,13.619999885559082,13.979999542236328,13.460000038146973,13.699999809265137,4314752,0.0,0
2020-12-03,13.699999809265137,13.779999732971191,13.479999542236328,13.65999984741211,4495681,0.0,0
2020-12-04,13.65999984741211,14.640000343322754,13.65999984741211,14.579999923706055,10663780,0.0,0
2020-12-07,14.579999923706055,14.680000305175781,13.720000267028809,13.880000114440918,4975795,0.0,0
