Date,Open,High,Low,Close,Volume,Dividends,Stock Splits
2020-01-02,68.15468658887882,69.85106658935547,67.50606801934524,69.85106658935547,9035304,0.0,0
2020-01-03,71.44765860944425,72.74489570738635,66.40840781886388,66.5580825805664,17956560,0.0,0
2020-01-06,65.80967509617705,66.6578726411448,63.06553007957409,64.26297760009766,16491280,0.0,0
2020-01-07,65.21095410941493,65.51031884847626,63.56446707748157,64.16319274902344,12927860,0.0,0
2020-01-08,62.56659689007013,63.963615891293124,61.56872454351903,63.46467971801758,11321290,0.0,0
2020-01-09,65.06127659490349,66.30861707880243,64.66213373058554,66.25872802734375,11081620,0.0,0
2020-01-10,66.55808388328441,67.50606720053875,65.80967960747614,66.40840911865234,8264259,0.0,0
2020-01-13,66.15893964533333,67.5559548404765,66.15893964533333,67.45616912841797,8333252,0.0,0
2020-01-14,67.80542591863382,68.20457639763946,63.76404730325238,64.46255493164062,16425530,0.0,0
2020-01-15,64.46255566136976,66.15894331305664,63.76404802507426,65.26085662841797,11237680,0.0,0
2020-01-16,65.56020920531864,65.85957395035769,63.06553218044655,64.01351165771484,13480580,0.0,0
2020-01-17,64.36276494420873,65.16106584924653,63.21521024815252,64.96148681640625,9861231,0.0,0
2020-01-20,65.66000768564165,65.66000768564165,63.813941441439205,64.31287384033203,8521300,0.0,0
2020-01-21,63.66425464926251,63.86382987895041,61.718402821322066,62.16744613647461,11546990,0.0,0
2020-01-22,62.21734247782709,64.8118091893758,61.818195802670964,64.41266632080078,12393790,0.0,0
2020-01-23,63.06553450996217,64.31287116518192,60.970000250188306,61.967872619628906,10552200,0.0,0
2020-01-24,61.66851204385958,62.86595965576172,61.56872632894316,62.36702346801758,3754865,0.0,0
2020-01-29,59.373405835505935,60.770428671914935,59.22372345782604,59.77255630493164,17391150,0.0,0
2020-01-30,58.87447022876753,59.672767368858345,54.63351262754275,55.28213119506836,19420630,0.0,0
2020-01-31,56.1802110046745,58.07616994036867,55.33202105304231,55.63138198852539,14276280,0.0,0
2020-02-03,54.68340283131962,57.377658879134266,53.735423358087324,56.92861557006836,14457820,0.0,0
2020-02-04,56.67914830335862,59.07404344844203,56.67914830335862,57.27787399291992,14393860,0.0,0
2020-02-05,58.32563828147991,59.523085835340076,56.679147419099586,57.82670211791992,13377330,0.0,0
2020-02-06,58.674894092253375,59.82244883055932,58.275747431619855,58.92436218261719,9264619,0.0,0
2020-02-07,58.47531939452852,59.12393795805093,57.477447023928505,57.976383209228516,8210627,0.0,0
2020-02-10,56.8787255480695,58.27574839995274,56.32989650146573,57.926490783691406,6900204,0.0,0
2020-02-11,58.42542728786061,59.07404585971532,57.427554904441706,58.77468490600586,6010661,0.0,0
2020-02-12,59.12393520362911,60.62074368979693,58.27574525076634,60.07191467285156,7272182,0.0,0
2020-02-13,60.07191736091316,60.67063925953921,58.175958337629034,58.87446975708008,9164073,0.0,0
2020-02-14,58.87446777669818,58.87446777669818,56.379786938702495,57.32776641845703,15852450,0.0,0
2020-02-17,57.477444443816225,59.273617675532414,57.327765878893764,58.72478485107422,8519181,0.0,0
2020-02-18,58.175959063934336,58.175959063934336,55.5814923953892,56.57936477661133,15246300,0.0,0
2020-02-19,56.87872486220245,57.27787533123627,55.8808524961989,56.67914962768555,7414908,0.0,0
2020-02-20,57.12819376592377,57.277876145584806,55.88085329068526,57.02840805053711,5773180,0.0,0
2020-02-21,56.67914882002333,57.07829928336936,56.08042693158521,56.32989501953125,5018303,0.0,0
2020-02-24,55.38191727507557,56.230107278277636,54.93287394125875,55.681278228759766,4773100,0.0,0
2020-02-25,54.882978472793305,57.227976939453036,54.58361753334879,56.87872314453125,8696298,0.0,0
2020-02-26,54.98276643677591,55.93074595601295,54.284258818309596,55.28213119506836,14142940,0.0,0
2020-02-27,54.48382907549678,55.28213000498321,53.18659577495275,54.53372573852539,10131620,0.0,0
2020-02-28,52.38829904925488,52.837342373850404,50.09319337603229,50.941383361816406,23570180,0.0,0
2020-03-02,50.791704269977345,52.48808422413276,50.24287143078254,51.88936233520508,15119070,0.0,0
2020-03-03,52.88723517853079,53.53585373637157,50.741808077901396,51.39042663574219,12724710,0.0,0
2020-03-04,50.89149099123947,51.240744798939104,49.59425766846526,50.442447662353516,11618020,0.0,0
2020-03-05,51.39042439837337,53.58574426020257,51.39042439837337,52.98701858520508,19435810,0.0,0
2020-03-06,51.889361012081274,52.88723333923669,51.540107220209215,52.48808288574219,8769260,0.0,0
2020-03-09,49.89361786962154,51.390426405710194,49.39468169092533,49.64414978027344,13216950,0.0,0
2020-03-10,48.89574454880142,51.78957585085263,48.89574454880142,51.091064453125,13407010,0.0,0
2020-03-11,51.39042507957734,51.63989316248791,49.544362788671464,49.79383087158203,10185280,0.0,0
2020-03-12,48.39680795010919,48.54649032207176,45.50297667375899,46.251380920410156,17805860,0.0,0
2020-03-13,41.661170938627315,45.85223560275153,40.912766670268745,45.65266036987305,24459490,0.0,0
2020-03-16,43.70680823269299,44.105958695909926,39.91489405845587,40.36393737792969,25244730,0.0,0
2020-03-17,40.363937809182524,41.910639209156635,38.56776831867772,40.31404495239258,14234670,0.0,0
2020-03-18,40.91276635424746,40.91276635424746,35.57415080382559,36.82149124145508,19328270,0.0,0
2020-03-19,39.9148955902496,39.9148955902496,36.27265984500689,38.418087005615234,28964970,0.0,0
2020-03-20,39.415959770929895,39.81511025326796,36.97117163141675,38.817237854003906,17328870,0.0,0
2020-03-23,36.12298035921209,37.619788906086235,35.77372274765954,35.873512268066406,11983820,0.0,0
2020-03-24,37.270531815595874,38.81723704758771,37.270531815595874,38.467979431152344,10968820,0.0,0
2020-03-25,39.964785251726504,41.910637017423014,37.12085069103368,40.11446762084961,28398960,0.0,0
2020-03-26,39.96478755240666,43.108087032298165,39.0667047057098,42.06032180786133,21854630,0.0,0
2020-03-27,43.40744867457253,43.50723439027246,40.014681048640185,40.214256286621094,14831390,0.0,0
2020-03-30,38.66755375455008,39.96478705467686,38.068831864208775,39.016807556152344,10180020,0.0,0
2020-03-31,39.91489239754572,40.5136142608766,38.91702008760708,40.11446762084961,9129449,0.0,0
2020-04-01,39.11659660240976,40.8129803466305,38.96691422834464,39.515743255615234,7709772,0.0,0
2020-04-02,39.46585121048121,40.26414833987141,38.76733979479692,39.8650016784668,7412412,0.0,0
2020-04-03,39.415959629767336,40.06457820959847,38.81723771498559,39.7153205871582,6491035,0.0,0
2020-04-06,40.41383051158425,42.11021428202867,40.01468004562758,41.661170959472656,9656014,0.0,0
2020-04-07,42.858618397290684,43.40744743108011,41.91063889897389,43.008296966552734,12353650,0.0,0
2020-04-08,42.60915041197761,42.908511357808926,41.71106376790272,42.11021423339844,6974203,0.0,0
2020-04-09,39.51574359523894,40.713191178308804,38.86712885073759,40.36393737792969,32250270,0.0,0
2020-04-14,40.21425470821896,40.31404422658322,38.51787096183554,39.06670379638672,17996300,0.0,0
2020-04-15,39.41595939537148,40.36393892695612,38.41808700561524,38.418087005615234,21440620,0.0,0
2020-04-16,38.16861635716657,38.717445373535156,37.470104969706185,38.717445373535156,16736000,0.0,0
2020-04-17,39.31617144987575,40.0146790378362,38.66755291067721,39.11659622192383,13173180,0.0,0
2020-04-20,39.31617323685449,39.36606609446496,38.26840419412943,38.467979431152344,9798448,0.0,0
2020-04-21,38.318301492340765,38.41808720921278,36.572024801012915,37.070960998535156,19300150,0.0,0
2020-04-22,36.42234035337414,36.87138366699219,35.773721810750196,36.87138366699219,15391360,0.0,0
2020-04-23,36.92127743726133,37.37032076200368,35.87351221724984,36.32255554199219,12912480,0.0,0
2020-04-24,36.07308610409486,37.42021222143416,35.82361802261863,37.37031936645508,10425700,0.0,0
2020-04-27,37.66968033764813,37.91914841935441,36.721700865848106,36.9212760925293,9591896,0.0,0
2020-04-28,37.120852938359846,37.61978912353516,36.272659139613204,37.619789123535156,6192235,0.0,0
2020-04-29,37.669679841863456,38.31829836839541,37.42021176344052,37.86925506591797,8112563,0.0,0
2020-05-04,36.92127837161261,36.92127837161261,35.72383074419004,35.77372360229492,13606430,0.0,0
2020-05-05,35.82361893561045,36.67180891161404,35.82361893561045,36.3724479675293,6252193,0.0,0
2020-05-06,36.422339449748776,38.268401707446195,36.2726570800627,37.86925506591797,11772130,0.0,0
2020-05-07,38.11872273713229,38.61765888864821,37.27052899560678,37.4701042175293,7576174,0.0,0
2020-05-08,38.218510856122315,39.216383222112874,37.619788959160374,38.966915130615234,12313640,0.0,0
2020-05-11,39.61553149270926,40.6134038033237,39.51574197769935,39.66542434692383,16760190,0.0,0
2020-05-12,39.41595750284293,40.06457604767397,38.966914187696894,39.964786529541016,8758997,0.0,0
2020-05-13,39.61553149270926,40.46372143409922,39.116595337402046,39.66542434692383,10263300,0.0,0
2020-05-14,39.11659656160587,40.862873159833086,38.917021331920864,39.964786529541016,16376490,0.0,0
2020-05-15,40.46372327571204,43.90638366533273,40.46372327571204,42.55925750732422,44316940,0.0,0
2020-05-18,42.40957498550415,42.40957498550415,39.26627555218147,39.914894104003906,36473000,0.0,0
2020-05-19,40.81297936458416,41.21212600818533,40.06457512542857,40.9626579284668,11420240,0.0,0
2020-05-20,41.26202146837917,44.65478908942608,41.06245003726668,43.7567024230957,35431890,0.0,0
2020-05-21,44.50510465712368,44.654787030136376,41.810852395542156,42.65904235839844,14572970,0.0,0
2020-05-22,40.91276777787797,41.212128732009646,38.81723729237518,39.76521301269531,22438040,0.0,0
2020-05-25,39.46585105644251,41.56138529531633,38.71744678682635,41.212127685546875,11832850,0.0,0
2020-05-26,41.61127771720426,42.90851100966876,41.262020111083984,41.262020111083984,11277400,0.0,0
2020-05-27,41.41170166759956,41.76095546023613,40.26414696622651,40.91276550292969,11297170,0.0,0
2020-05-28,40.21425597563727,40.91276739987822,38.51787217578953,39.366065979003906,15955710,0.0,0
2020-05-29,38.867130573453885,40.61340726591193,38.717448191467895,39.7153205871582,11728340,0.0,0
2020-06-01,40.71319020642788,42.359681069667516,40.71319020642788,41.81085205078125,15815640,0.0,0
2020-06-02,41.71106167910192,42.01042260994187,40.96265744871164,41.91063690185547,5353553,0.0,0
2020-06-03,42.708936125061065,42.708936125061065,41.611278054819266,42.11021423339844,10320350,0.0,0
2020-06-04,42.70893617438272,42.758829030982064,41.16223478031729,41.661170959472656,9807406,0.0,0
2020-06-05,41.661172008561095,44.20574582501329,41.51148962841288,43.30766296386719,16553710,0.0,0
2020-06-08,43.90638308411655,44.85436257111252,43.35755405688127,43.956275939941406,13658630,0.0,0
2020-06-09,43.90638317735362,44.70468029198933,42.90851083241377,43.05819320678711,9200653,0.0,0
2020-06-10,43.40744748731758,43.60702271983983,41.611278007779255,42.55925750732422,14334250,0.0,0
2020-06-11,42.409575179229755,43.557129912594235,41.81085328756713,42.11021423339844,10971950,0.0,0
2020-06-12,40.91276543327221,41.81085205078125,40.41382926945182,41.81085205078125,13609130,0.0,0
2020-06-15,41.26201929556626,41.860744977118614,40.56351171029311,40.91276550292969,9958573,0.0,0
2020-06-16,41.81085277561229,43.40744700488369,41.711063257169755,43.05819320678711,12532640,0.0,0
2020-06-17,42.8586175868884,42.95840329784295,41.810852395542156,42.65904235839844,4322271,0.0,0
2020-06-18,42.45946746636666,43.70680789608708,41.56138464091651,43.507232666015625,10181780,0.0,0
2020-06-19,43.806599560884365,46.99978817216633,43.6569171793513,46.351173400878906,35309378,0.0,0
2020-06-22,46.351173267168775,48.29702518857998,46.301280408995375,47.2492561340332,20056590,0.0,0
2020-06-23,47.498724303452846,47.64840668478092,45.90212999999838,46.80021667480469,11218670,0.0,0
2020-06-24,47.19936056040043,49.893616619150734,46.40106345581019,49.34478759765625,23556740,0.0,0
2020-06-26,48.89574560895923,50.44244700466114,48.44670228592811,48.746063232421875,14673930,0.0,0
2020-06-29,47.997660363186334,49.195107990676824,47.14947035561199,47.698299407958984,11773160,0.0,0
2020-06-30,48.69617009283987,49.09532055689975,46.80021490500776,47.448829650878906,12119210,0.0,0
2020-07-02,47.847978295778574,49.29489391475835,47.748188780267085,48.99552917480469,12604330,0.0,0
2020-07-03,49.29489650295701,53.28638597504807,48.795960318945625,52.238616943359375,27884746,0.0,0
2020-07-06,53.286383822967764,57.87659500785496,53.1865943062471,57.37765884399414,33863420,0.0,0
2020-07-07,58.3755329672387,59.37340532565303,56.429681107014545,56.729042053222656,31446400,0.0,0
2020-07-08,56.479572085554764,59.72265714256197,56.18021114930104,59.173828125,16790190,0.0,0
2020-07-09,59.772555300538265,63.16531900732227,59.57298006917899,61.21946716308594,26058360,0.0,0
2020-07-10,60.47106478286704,62.66638478299676,58.774684779957795,59.672767639160156,18574000,0.0,0
2020-07-13,59.8224486253427,61.86808619799239,59.772555768757286,60.72053146362305,12495080,0.0,0
2020-07-14,59.373403385480714,60.121807629835516,57.37765873386792,58.72478485107422,16831210,0.0,0
2020-07-15,59.473192132190384,59.672767368858345,54.48383024839652,55.28213119506836,23014540,0.0,0
2020-07-16,55.03266167248868,55.681276416598266,50.59212894985136,52.78744888305664,27184740,0.0,0
2020-07-17,52.18872489022068,53.78532298760066,51.440320602674745,52.58787536621094,13049960,0.0,0
2020-07-20,52.188723931417755,53.98489342721286,50.24287205823098,53.58574676513672,16486080,0.0,0
2020-07-21,55.28212892977324,57.17808408397576,55.18233941223782,56.87872314453125,13623330,0.0,0
2020-07-22,55.93074359336372,57.17808401162153,52.737551361307574,52.88723373413086,15458700,0.0,0
2020-07-23,59.87234244343827,61.36915100452423,56.87872532126636,59.722660064697266,49997560,0.0,0
2020-07-24,58.575106837454875,59.622872028096886,56.878723106301635,57.32776641845703,16730720,0.0,0
2020-07-27,58.22585147728585,58.82457718539815,55.880852921943834,56.62925720214844,8860935,0.0,0
2020-07-28,58.17595887820049,58.77468458897089,56.9286184056551,57.926490783691406,7603297,0.0,0
2020-07-29,57.876596169719065,59.07404374833978,57.62712808278062,58.57510757446289,5839511,0.0,0
2020-07-30,59.373405025727585,61.46893544517971,58.47531838505899,59.42329788208008,17605160,0.0,0
2020-07-31,60.870214170209074,63.5145774559735,60.37127798848605,61.5687255859375,20718040,0.0,0
2020-08-03,62.86596015191848,63.165321105611405,60.17170395552005,61.86808776855469,13024370,0.0,0
2020-08-04,62.36702396023659,62.66638491392951,60.87021538519091,61.86808776855469,8034808,0.0,0
2020-08-05,61.86808722476384,63.2651100718264,60.97000056499776,62.81606674194336,8812683,0.0,0
2020-08-06,63.21521346455021,63.81393917379179,61.069790141199014,62.36702346801758,9513390,0.0,0
2020-08-07,62.66638371532602,62.66638371532602,59.6228737655951,61.11968231201172,10745940,0.0,0
2020-08-10,59.07404383822464,59.273619069395245,57.2279777081227,57.67702102661133,15843700,0.0,0
2020-08-11,57.3776587753385,60.121807673289474,57.3776587753385,58.2757453918457,12568390,0.0,0
2020-08-12,58.37553076737147,58.37553076737147,54.53372385488619,56.97850799560547,17486040,0.0,0
2020-08-13,57.97638250124058,58.275747254029646,56.479573963619075,56.729042053222656,7550221,0.0,0
2020-08-14,56.32989458917651,57.178084559080574,55.48170081269154,56.37978744506836,4199296,0.0,0
2020-08-17,56.87872486220245,57.42755390218821,56.230106301667746,56.67914962768555,5412023,0.0,0
2020-08-18,56.679150238582025,56.878725475249986,53.68553310830571,55.28213119506836,15821310,0.0,0
2020-08-19,55.28212961320517,55.28212961320517,53.88510680308541,54.13457489013672,4228663,0.0,0
2020-08-20,53.88510755332936,55.08255514916399,52.68765995749474,54.9328727722168,6360499,0.0,0
2020-08-21,55.38191405031115,55.481699760201906,53.086808463596405,53.83521270751953,7576325,0.0,0
2020-08-24,53.8851060687371,55.7311683651263,48.99553010653416,52.88723373413086,26875910,0.0,0
2020-08-25,51.88936041276424,52.08893563720642,48.59638253250113,48.99552917480469,36139840,0.0,0
2020-08-26,49.244999078182445,49.394681453704834,47.498722461132274,47.89787292480469,18478140,0.0,0
2020-08-27,47.79808702715788,50.39255361124297,47.29915085278913,49.69404220581055,15319210,0.0,0
2020-08-28,49.294895213372556,49.993402807450316,48.44670143879387,48.84585189819336,11557320,0.0,0
2020-08-31,49.59425659191306,50.592128942629294,48.69616995363607,48.79595947265625,12884030,0.0,0
2020-09-01,48.19723414797719,49.39468173933794,48.09744843477253,49.195106506347656,5891267,0.0,0
2020-09-02,50.093192667937906,50.14308552405859,48.69616985707306,49.69404220581055,10109890,0.0,0
2020-09-03,49.294894779617756,49.69404142892418,48.49659386784318,48.89574432373047,7300447,0.0,0
2020-09-04,47.0995762280796,48.09744858966357,46.101703866495626,47.84798049926758,15477920,0.0,0
2020-09-07,46.401064112643844,47.54861883376095,46.30127840062536,46.60063934326172,6764108,0.0,0
2020-09-08,46.900001525878906,47.29915199766773,45.852236295659516,46.900001525878906,5460190,0.0,0
2020-09-09,46.0,48.04999923706055,45.79999923706055,47.29999923706055,6808227,0.1,0
2020-09-10,47.95000076293945,47.95000076293945,45.29999923706055,45.70000076293945,10155300,0.0,0
2020-09-11,45.099998474121094,45.95000076293945,44.79999923706055,45.70000076293945,12961890,0.0,0
2020-09-14,46.150001525878906,48.099998474121094,46.0,46.849998474121094,13843770,0.0,0
2020-09-15,47.0,47.29999923706055,46.20000076293945,46.79999923706055,5537749,0.0,0
2020-09-16,47.20000076293945,47.54999923706055,46.04999923706055,46.54999923706055,9383685,0.0,0
2020-09-17,46.150001525878906,46.45000076293945,45.54999923706055,45.75,6528892,0.0,0
2020-09-18,45.75,46.0,45.099998474121094,45.150001525878906,6907299,0.0,0
2020-09-21,45.5,45.599998474121094,43.599998474121094,43.650001525878906,11560320,0.0,0
2020-09-22,43.650001525878906,44.150001525878906,42.849998474121094,43.5,8501582,0.0,0
2020-09-23,43.900001525878906,44.04999923706055,43.0,43.54999923706055,4084181,0.0,0
2020-09-24,42.54999923706055,43.0,41.900001525878906,42.04999923706055,8332135,0.0,0
2020-09-25,42.45000076293945,42.70000076293945,41.0,41.54999923706055,5030879,0.0,0
2020-09-28,41.5,41.5,40.70000076293945,41.04999923706055,6347211,0.0,0
2020-09-29,41.599998474121094,42.04999923706055,41.20000076293945,41.25,5146427,0.0,0
2020-09-30,41.5,42.599998474121094,41.20000076293945,41.75,3693725,0.0,0
2020-10-05,42.900001525878906,42.95000076293945,40.75,41.599998474121094,4813956,0.0,0
2020-10-06,42.25,44.099998474121094,42.0,43.5,9658107,0.0,0
2020-10-07,43.5,45.25,42.849998474121094,44.95000076293945,10830740,0.0,0
2020-10-08,45.5,46.0,44.900001525878906,45.900001525878906,10710060,0.0,0
2020-10-09,45.900001525878906,46.25,43.900001525878906,44.650001525878906,9643274,0.0,0
2020-10-12,45.849998474121094,45.95000076293945,43.75,44.45000076293945,13764140,0.0,0
2020-10-14,44.349998474121094,44.599998474121094,43.25,43.95000076293945,11488040,0.0,0
2020-10-15,43.599998474121094,43.95000076293945,43.099998474121094,43.5,5056054,0.0,0
2020-10-16,43.849998474121094,43.95000076293945,43.25,43.70000076293945,2351780,0.0,0
2020-10-19,43.95000076293945,45.25,43.95000076293945,44.79999923706055,8405217,0.0,0
2020-10-20,45.349998474121094,45.400001525878906,44.29999923706055,44.70000076293945,3459346,0.0,0
2020-10-21,44.900001525878906,44.900001525878906,43.599998474121094,43.75,5888513,0.0,0
2020-10-22,43.54999923706055,43.650001525878906,42.900001525878906,43.349998474121094,5689500,0.0,0
2020-10-23,43.349998474121094,43.75,42.45000076293945,43.0,5234398,0.0,0
2020-10-27,42.20000076293945,43.349998474121094,41.70000076293945,42.150001525878906,6697019,0.0,0
2020-10-28,42.5,42.5,41.20000076293945,42.150001525878906,4322100,0.0,0
2020-10-29,41.400001525878906,42.099998474121094,40.900001525878906,42.0,3669548,0.0,0
2020-10-30,41.349998474121094,42.650001525878906,40.5,40.849998474121094,8360510,0.0,0
2020-11-02,41.20000076293945,41.400001525878906,40.54999923706055,40.900001525878906,2926698,0.0,0
2020-11-03,41.349998474121094,43.099998474121094,41.04999923706055,42.349998474121094,12498310,0.0,0
2020-11-04,42.400001525878906,43.95000076293945,42.20000076293945,42.70000076293945,8945399,0.0,0
2020-11-05,43.79999923706055,44.849998474121094,43.650001525878906,44.599998474121094,12347670,0.0,0
2020-11-06,45.0,45.70000076293945,43.45000076293945,43.900001525878906,11719870,0.0,0
2020-11-09,44.79999923706055,47.0,44.79999923706055,46.04999923706055,19701620,0.0,0
2020-11-10,45.25,45.95000076293945,44.349998474121094,45.29999923706055,11362310,0.0,0
2020-11-11,45.29999923706055,45.349998474121094,42.900001525878906,43.79999923706055,11283170,0.0,0
2020-11-12,44.25,45.04999923706055,43.75,44.04999923706055,7092082,0.0,0
2020-11-13,44.25,45.5,42.400001525878906,44.900001525878906,18815090,0.0,0
2020-11-16,45.0,45.29999923706055,42.79999923706055,43.650001525878906,14871910,0.0,0
2020-11-17,43.0,43.5,41.79999923706055,42.599998474121094,11147260,0.0,0
2020-11-18,42.29999923706055,43.45000076293945,42.29999923706055,42.650001525878906,8114514,0.0,0
2020-11-19,42.599998474121094,42.599998474121094,41.599998474121094,42.099998474121094,7213726,0.0,0
2020-11-20,42.150001525878906,42.5,41.5,42.099998474121094,7552535,0.0,0
2020-11-23,42.20000076293945,42.20000076293945,41.54999923706055,41.900001525878906,6671598,0.0,0
2020-11-24,41.900001525878906,43.29999923706055,41.849998474121094,42.70000076293945,8163066,0.0,0
2020-11-25,43.29999923706055,43.29999923706055,41.599998474121094,42.099998474121094,9825168,0.0,0
2020-11-26,42.099998474121094,42.29999923706055,41.5,42.25,3586592,0.0,0
2020-11-27,42.25,43.79999923706055,42.25,43.400001525878906,10869290,0.0,0
2020-11-30,43.29999923706055,44.29999923706055,43.25,43.400001525878906,12959150,0.0,0
2020-12-01,43.54999923706055,44.54999923706055,43.5,43.79999923706055,8532725,0.0,0
2020-12-02,43.849998474121094,44.5,43.25,43.599998474121094,5975183,0.0,0
2020-12-03,43.25,44.25,42.849998474121094,43.849998474121094,5089274,0.0,0
2020-12-04,44.150001525878906,44.25,43.5,43.900001525878906,4467018,0.0,0
2020-12-07,43.900001525878906,44.400001525878906,42.5,42.5,5332638,0.0,0
