Date,Open,High,Low,Close,Volume,Dividends,Stock Splits
2020-01-02,3.911478485222726,3.9211362168618007,3.8825043692496015,3.892162561416626,2009000,0.0,0
2020-01-03,3.892162527028996,3.892162527028996,3.85353044949414,3.8728466033935547,2040000,0.0,0
2020-01-06,3.872846731323035,3.911478579870021,3.853530576785561,3.882504463195801,2016000,0.0,0
2020-01-07,3.8825043349473023,3.921136182218185,3.8728466033935542,3.8728466033935547,1979000,0.0,0
2020-01-08,3.8728466974890807,3.90182035338222,3.8631885051727295,3.8631885051727295,2042000,0.0,0
2020-01-09,3.8921625614166264,3.8921625614166264,3.8728466376105266,3.892162561416626,2035000,0.0,0
2020-01-10,3.892162553941966,3.959768056869507,3.8728466301729614,3.959768056869507,2170000,0.0,0
2020-01-13,3.950110496414929,3.950110496414929,3.9018204546359425,3.9211363792419434,2035000,0.0,0
2020-01-14,3.930794443414769,3.9501103673898412,3.882504403213112,3.9114785194396973,2054000,0.0,0
2020-01-15,3.9114785194396973,3.921136251163256,3.892162595464625,3.9114785194396973,2041000,0.0,0
2020-01-16,3.901820421218872,3.9114786137031397,3.882504496778302,3.901820421218872,1986000,0.0,0
2020-01-17,3.9307944774627686,3.9404522092699814,3.911478553320385,3.9307944774627686,2030000,0.0,0
2020-01-20,3.9307945718089283,3.950110496414929,3.9018204546359425,3.9211363792419434,2017000,0.0,0
2020-01-21,3.9211362774869656,3.9211362774869656,3.8631885051727295,3.8631885051727295,2050000,0.0,0
2020-01-22,3.8825043692496015,3.901820293055701,3.8825043692496015,3.892162561416626,2005000,0.0,0
2020-01-23,3.8825043692496015,3.8921625614166264,3.863188445443502,3.892162561416626,2110000,0.0,0
2020-01-24,3.901820421218872,3.901820421218872,3.8728467648219995,3.901820421218872,1033000,0.0,0
2020-01-29,3.853530645370483,3.8631886076791213,3.8342147207532062,3.8535306453704834,2247000,0.0,0
2020-01-30,3.843872581067984,3.8728466974890807,3.843872581067984,3.8631885051727295,2029000,0.0,0
2020-01-31,3.853530645370483,3.892162724869021,3.8438726830618446,3.8535306453704834,2006000,0.0,0
2020-02-03,3.853530645370483,3.8631886076791213,3.8342147207532062,3.8535306453704834,2020000,0.0,0
2020-02-04,3.853530576785561,3.911478579870021,3.8438726146488147,3.882504463195801,2038000,0.0,0
2020-02-05,3.882504429277475,3.892162621593826,3.843872581067984,3.8631885051727295,2007000,0.0,0
2020-02-06,3.872846671489553,3.9501103673898412,3.86318847923804,3.9114785194396973,1995000,0.0,0
2020-02-07,3.8921625614166264,3.930794409028825,3.863188445443502,3.892162561416626,2037000,0.0,0
2020-02-10,3.863188512700446,3.9404522092699814,3.863188512700446,3.9307944774627686,2094000,0.0,0
2020-02-11,3.940452303847944,3.959768228453945,3.8825045300299412,3.9211363792419434,1968000,0.0,0
2020-02-12,3.9211363792419434,3.9307945718089283,3.8728467979909253,3.9211363792419434,1977000,0.0,0
2020-02-13,3.9211362774869656,3.950110393908062,3.8631885051727295,3.8631885051727295,1987000,0.0,0
2020-02-14,3.8921625614166264,3.9211362168618007,3.8728466376105266,3.892162561416626,1998000,0.0,0
2020-02-17,3.892162722596926,3.9211363792419434,3.85353064312094,3.9211363792419434,2021000,0.0,0
2020-02-18,3.9211362774869656,3.9597681256964563,3.8631885051727295,3.8631885051727295,2020000,0.0,0
2020-02-19,3.8728467979909253,3.940452303847944,3.8728467979909253,3.9211363792419434,2000000,0.0,0
2020-02-20,3.9501103673898412,3.9597680991134,3.882504403213112,3.9114785194396973,2096000,0.0,0
2020-02-21,3.940452175138328,3.9597680991134,3.901820327188184,3.9114785194396973,2103000,0.0,0
2020-02-24,3.9694261493137897,4.346086883612372,3.9404520341240814,4.037031650543213,7885000,0.0,0
2020-02-25,4.08532179163201,4.08532179163201,3.9404521331005027,3.959768056869507,2068000,0.0,0
2020-02-26,3.9597682010088664,4.152927906258059,3.921136352064621,3.969426393508911,1956000,0.0,0
2020-02-27,4.0466899089164174,4.0466899089164174,3.843872480840973,3.9404520988464355,2034000,0.0,0
2020-02-28,3.9114786137031397,3.98874231146542,3.8728467648219995,3.901820421218872,2202000,0.0,0
2020-03-02,3.930794435318339,4.104637750735915,3.863188471280861,3.979084014892578,4687000,0.0,0
2020-03-03,4.008058071136475,4.172243652395705,3.950110300196972,4.008058071136475,6849000,0.0,0
2020-03-04,4.008058212786197,4.220533380406841,4.008058212786197,4.152927875518799,10110000,0.0,0
2020-03-05,4.181901454925537,4.394377079170892,4.066005911079682,4.181901454925537,6341000,0.0,0
2020-03-06,4.181901256457175,4.27848087174516,4.104637564226787,4.133611679077148,2091000,0.0,0
2020-03-09,4.008058242453156,4.201217487174382,3.940452276536744,3.969426393508911,2360000,0.0,0
2020-03-10,4.0177159678622925,4.0370318923028625,3.8921626892625696,3.901820421218872,2149000,0.0,0
2020-03-11,3.9694263526905003,4.046690049784472,3.8438726146488147,3.882504463195801,2449000,0.0,0
2020-03-12,3.843872547149658,3.9404521668211663,3.7279767732798716,3.843872547149658,4494000,0.0,0
2020-03-13,3.7279768061755334,3.882504429277475,3.612081261547061,3.8631885051727295,8108000,0.0,0
2020-03-16,3.7762668471940044,3.9307944703161044,3.7472929610331067,3.7955827713012695,2284000,0.0,0
2020-03-17,3.737634831694511,3.8342146841221827,3.5927653984489774,3.631397247314453,2301000,0.0,0
2020-03-18,3.70866087531365,3.747292953716732,3.621739217000666,3.6603710651397705,2410000,0.0,0
2020-03-19,3.6700290275545178,3.7086608756976216,3.4768695565750214,3.5927653312683105,3633000,0.0,0
2020-03-20,3.718318836977418,3.7569509153766454,3.6217392166392948,3.7279767990112305,2108000,0.0,0
2020-03-23,3.6217391593601813,3.8342145510076553,3.6217391593601813,3.824556589126587,2075000,0.0,0
2020-03-24,3.9404521316994052,3.9404521316994052,3.7666088178401784,3.824556589126587,2035000,0.0,0
2020-03-25,3.824556597831303,3.950110332834925,3.7762667883160543,3.892162561416626,2110000,0.0,0
2020-03-26,3.9211364500623533,4.037031999791571,3.901820525107484,4.027374267578125,1948000,0.0,0
2020-03-27,4.0466900570261375,4.0466900570261375,3.9404522430678295,3.95011043548584,1928000,0.0,0
2020-03-30,3.9501105677586468,4.075663849701311,3.911478717848907,4.027374267578125,1939000,0.0,0
2020-03-31,4.027373860779511,4.085321629790908,3.94045197699845,4.066005706787109,1926000,0.0,0
2020-04-01,4.0466900570261375,4.0466900570261375,3.9501104354858403,3.95011043548584,1943000,0.0,0
2020-04-02,4.008058276166579,4.046690125435773,3.959768234316102,3.9887423515319824,1951000,0.0,0
2020-04-03,3.988742147489974,4.008058071136475,3.8921625292574697,4.008058071136475,1949000,0.0,0
2020-04-06,4.008057937775712,4.114295744560573,3.979083823006048,4.066005706787109,1917000,0.0,0
2020-04-07,4.066005706787109,4.123953475798507,3.9983997460098473,4.066005706787109,3951000,0.0,0
2020-04-08,3.9887422817455187,4.133611944234361,3.9887422817455187,4.08532190322876,2898000,0.0,0
2020-04-09,4.172243861070353,4.172243861070353,4.056347852866867,4.123953819274902,1951000,0.0,0
2020-04-14,4.094979420394692,4.123953535584401,4.037031650543213,4.037031650543213,1896000,0.0,0
2020-04-15,4.037031726342253,4.056347649988754,3.9307943765504714,4.008058071136475,1916000,0.0,0
2020-04-16,4.008058096555993,4.008058096555993,3.892162553941966,3.959768056869507,1968000,0.0,0
2020-04-17,4.046689842449095,4.075663497110866,3.950110226029963,4.037031650543213,1917000,0.0,0
2020-04-20,4.056347745215533,4.123953709829376,3.9501103929297243,3.9983999729156494,1930000,0.0,0
2020-04-21,3.998399938827864,4.046689978930056,3.8921625874477668,3.979084014892578,2077000,0.0,0
2020-04-22,3.979084048815688,4.066005937529492,3.9501103929297243,3.9983999729156494,1943000,0.0,0
2020-04-23,4.027374190371982,4.094979696154017,3.979084148646556,4.056347846984863,1920000,0.0,0
2020-04-24,4.056347846984863,4.143269737879442,3.9887423412028284,4.056347846984863,1943000,0.0,0
2020-04-27,4.056347718905979,4.114295951357966,3.9597680990325896,4.046689987182617,10352000,0.0,0
2020-04-28,4.05634757382704,4.085321689016748,3.9597679574079074,4.037031650543213,2016000,0.0,0
2020-04-29,4.056347857489086,4.056347857489086,3.9790841589506987,3.9887423515319824,1982000,0.0,0
2020-05-04,3.9790839806385114,3.988742172786988,3.9501103252489793,3.959768056869507,2210000,0.0,0
2020-05-05,3.9404523096815054,4.104637899339563,3.9404523096815054,3.9887423515319824,2085000,0.0,0
2020-05-06,3.988742241129647,4.046690013429531,3.988742241129647,3.9983999729156494,9793000,0.0,0
2020-05-07,3.9984000499531116,4.037031898897357,3.9597682010088664,3.969426393508911,9162000,0.0,0
2020-05-08,3.998399938827864,4.037031786698437,3.950110359253625,3.979084014892578,2318000,0.0,0
2020-05-11,4.008058131059483,4.046689978930056,3.979084014892578,3.979084014892578,3313000,0.0,0
2020-05-12,4.008058096555993,4.037031751945524,3.9501103252489793,3.959768056869507,5259000,0.0,0
2020-05-13,3.998400015992008,4.008058208410018,3.9404522430678295,3.95011043548584,2301000,0.0,0
2020-05-14,3.979084048815688,4.037031821115572,3.9597681247157266,3.9983999729156494,2109000,0.0,0
2020-05-15,3.9790840916839483,4.0756637132242455,3.9501104354858403,3.95011043548584,2548000,0.0,0
2020-05-18,3.9983998696497136,4.0370317168518985,3.9211361752453433,3.9404520988464355,2985000,0.0,0
2020-05-19,3.988742215258583,4.094979566855335,3.988742215258583,4.046689987182617,3921000,0.0,0
2020-05-20,3.988742147489974,4.046689918429476,3.9790839554027504,4.008058071136475,2708000,0.0,0
2020-05-21,4.037031922400286,4.056347846984863,3.979084148646556,4.056347846984863,2376000,0.0,0
2020-05-22,4.01771582817652,4.037031751945524,3.9307944014799747,3.959768056869507,2143000,0.0,0
2020-05-25,3.998399904407516,4.01771582817652,3.882504361793489,3.959768056869507,1710000,0.0,0
2020-05-26,3.9984000499531116,4.0466900913974015,3.9307945445646655,3.969426393508911,1927000,0.0,0
2020-05-27,3.96942638702485,4.0177159678622925,3.901820421218872,3.901820421218872,2379000,0.0,0
2020-05-28,3.959768160289773,3.9887422769639933,3.882504463195801,3.882504463195801,2079000,0.0,0
2020-05-29,3.930794574103575,3.9404523061482286,3.8438726830618446,3.8535306453704834,1747000,0.0,0
2020-06-01,3.9018202516442506,3.940452098846436,3.8728465965065846,3.9404520988464355,2193000,0.0,0
2020-06-02,3.959768090957292,4.017715862763151,3.930794435318339,3.979084014892578,10968000,0.0,0
2020-06-03,3.979084014892578,4.008058131059483,3.9404521670220056,3.979084014892578,1530000,0.0,0
2020-06-04,4.008058096555993,4.037031751945524,3.9307944014799747,3.959768056869507,5885000,0.0,0
2020-06-05,3.988742147489974,4.037031726342253,3.950110300196972,4.008058071136475,3812000,0.0,0
2020-06-08,4.027373919165269,4.05634757382704,3.9694261493137897,4.037031650543213,6306000,0.0,0
2020-06-09,4.056347924746441,4.143269817307343,4.027374267578125,4.027374267578125,5600000,0.0,0
2020-06-10,4.0273741948389326,4.037031926877949,3.9114786472029275,3.9211363792419434,5672000,0.0,0
2020-06-11,3.9597681334123656,4.017715905839517,3.911478553320385,3.9307944774627686,1589000,0.0,0
2020-06-12,3.8825044283158814,3.998399972915649,3.8825044283158814,3.9983999729156494,1878000,0.0,0
2020-06-15,4.050000190734863,4.239999771118164,4.019999980926514,4.099999904632568,2079000,0.1416,0
2020-06-16,4.179999828338623,4.230000019073486,4.110000133514404,4.119999885559082,2060000,0.0,0
2020-06-17,4.170000076293945,4.289999961853027,4.070000171661377,4.269999980926514,2491000,0.0,0
2020-06-18,4.25,4.329999923706055,4.199999809265137,4.309999942779541,2004000,0.0,0
2020-06-19,4.269999980926514,4.360000133514404,4.25,4.260000228881836,6428000,0.0,0
2020-06-22,4.260000228881836,4.340000152587891,4.210000038146973,4.309999942779541,1744000,0.0,0
2020-06-23,4.349999904632568,4.360000133514404,4.159999847412109,4.199999809265137,1712000,0.0,0
2020-06-24,4.190000057220459,4.269999980926514,4.130000114440918,4.170000076293945,1964000,0.0,0
2020-06-26,4.170000076293945,4.230000019073486,4.110000133514404,4.210000038146973,2466000,0.0,0
2020-06-29,4.210000038146973,4.210000038146973,4.099999904632568,4.170000076293945,5071000,0.0,0
2020-06-30,4.199999809265137,4.199999809265137,4.099999904632568,4.139999866485596,2084000,0.0,0
2020-07-02,4.170000076293945,4.260000228881836,4.159999847412109,4.199999809265137,1561000,0.0,0
2020-07-03,4.170000076293945,4.230000019073486,4.110000133514404,4.119999885559082,1970000,0.0,0
2020-07-06,4.150000095367432,4.21999979019165,4.079999923706055,4.150000095367432,2439000,0.0,0
2020-07-07,4.150000095367432,4.190000057220459,4.110000133514404,4.159999847412109,1798000,0.0,0
2020-07-08,4.119999885559082,4.190000057220459,4.110000133514404,4.150000095367432,9144000,0.0,0
2020-07-09,4.159999847412109,4.170000076293945,4.099999904632568,4.159999847412109,1671000,0.0,0
2020-07-10,4.170000076293945,4.199999809265137,4.130000114440918,4.179999828338623,1879000,0.0,0
2020-07-13,4.199999809265137,4.199999809265137,4.090000152587891,4.119999885559082,2352000,0.0,0
2020-07-14,4.099999904632568,4.159999847412109,4.070000171661377,4.079999923706055,8936000,0.0,0
2020-07-15,4.119999885559082,4.119999885559082,4.059999942779541,4.099999904632568,1706000,0.0,0
2020-07-16,4.099999904632568,4.139999866485596,4.050000190734863,4.059999942779541,2006000,0.0,0
2020-07-17,4.059999942779541,4.110000133514404,4.03000020980835,4.050000190734863,4635000,0.0,0
2020-07-20,4.070000171661377,4.170000076293945,4.070000171661377,4.079999923706055,1738000,0.0,0
2020-07-21,4.150000095367432,4.150000095367432,4.059999942779541,4.079999923706055,2097000,0.0,0
2020-07-22,4.119999885559082,4.150000095367432,4.070000171661377,4.119999885559082,3303000,0.0,0
2020-07-23,4.130000114440918,4.139999866485596,4.079999923706055,4.079999923706055,1885000,0.0,0
2020-07-24,4.059999942779541,4.099999904632568,4.010000228881836,4.010000228881836,4774000,0.0,0
2020-07-27,4.039999961853027,4.110000133514404,4.039999961853027,4.050000190734863,1648000,0.0,0
2020-07-28,4.090000152587891,4.090000152587891,4.03000020980835,4.050000190734863,4944000,0.0,0
2020-07-29,4.090000152587891,4.130000114440918,4.079999923706055,4.119999885559082,1591000,0.0,0
2020-07-30,4.139999866485596,4.139999866485596,4.019999980926514,4.059999942779541,1759000,0.0,0
2020-07-31,4.090000152587891,4.110000133514404,3.9800000190734863,4.059999942779541,1829000,0.0,0
2020-08-03,4.059999942779541,4.110000133514404,4.03000020980835,4.070000171661377,1982000,0.0,0
2020-08-04,4.110000133514404,4.139999866485596,4.050000190734863,4.090000152587891,2010000,0.0,0
2020-08-05,4.119999885559082,4.119999885559082,4.019999980926514,4.050000190734863,1877000,0.0,0
2020-08-06,4.059999942779541,4.110000133514404,3.9800000190734863,4.010000228881836,2969000,0.0,0
2020-08-07,4.03000020980835,4.090000152587891,3.990000009536743,4.070000171661377,1664000,0.0,0
2020-08-10,4.090000152587891,4.099999904632568,4.03000020980835,4.050000190734863,1607000,0.0,0
2020-08-11,4.079999923706055,4.079999923706055,4.019999980926514,4.059999942779541,1865000,0.0,0
2020-08-12,4.090000152587891,4.099999904632568,4.0,4.059999942779541,2001000,0.0,0
2020-08-13,4.070000171661377,4.099999904632568,4.050000190734863,4.059999942779541,1680000,0.0,0
2020-08-14,4.090000152587891,4.090000152587891,4.039999961853027,4.090000152587891,1703000,0.0,0
2020-08-17,4.099999904632568,4.119999885559082,4.079999923706055,4.110000133514404,2133000,0.0,0
2020-08-18,4.139999866485596,4.139999866485596,4.0,4.090000152587891,1961000,0.0,0
2020-08-19,4.079999923706055,4.110000133514404,4.050000190734863,4.079999923706055,968000,0.0,0
2020-08-20,4.099999904632568,4.099999904632568,4.070000171661377,4.099999904632568,1899000,0.0,0
2020-08-21,4.099999904632568,4.110000133514404,4.050000190734863,4.110000133514404,1885000,0.0,0
2020-08-24,4.139999866485596,4.139999866485596,4.019999980926514,4.070000171661377,6753000,0.0,0
2020-08-25,4.079999923706055,4.099999904632568,4.0,4.039999961853027,1962000,0.0,0
2020-08-26,4.070000171661377,4.070000171661377,4.010000228881836,4.019999980926514,1521000,0.0,0
2020-08-27,4.039999961853027,4.070000171661377,4.010000228881836,4.010000228881836,1715000,0.0,0
2020-08-28,4.039999961853027,4.099999904632568,4.03000020980835,4.039999961853027,1996000,0.0,0
2020-08-31,4.070000171661377,4.099999904632568,4.039999961853027,4.050000190734863,1787000,0.0,0
2020-09-01,4.070000171661377,4.079999923706055,4.019999980926514,4.019999980926514,2082000,0.0,0
2020-09-02,4.019999980926514,4.099999904632568,3.990000009536743,4.059999942779541,2229000,0.0,0
2020-09-03,4.050000190734863,4.090000152587891,4.010000228881836,4.019999980926514,1637000,0.0,0
2020-09-04,4.070000171661377,4.079999923706055,3.9800000190734863,4.0,2121000,0.0,0
2020-09-07,4.0,4.079999923706055,3.9700000286102295,3.990000009536743,2545000,0.0,0
2020-09-08,4.039999961853027,4.090000152587891,3.950000047683716,3.990000009536743,2295000,0.0,0
2020-09-09,4.03000020980835,4.03000020980835,3.940000057220459,3.9700000286102295,1693000,0.0,0
2020-09-10,3.9800000190734863,4.059999942779541,3.940000057220459,3.950000047683716,1742000,0.0,0
2020-09-11,4.0,4.050000190734863,3.950000047683716,3.9600000381469727,1876000,0.0,0
2020-09-14,4.039999961853027,4.070000171661377,3.9700000286102295,3.990000009536743,1686000,0.0,0
2020-09-15,4.03000020980835,4.03000020980835,3.9600000381469727,4.0,1839000,0.0,0
2020-09-16,4.010000228881836,4.050000190734863,3.9800000190734863,3.990000009536743,2265000,0.0,0
2020-09-17,4.03000020980835,4.039999961853027,3.9700000286102295,3.9700000286102295,1616000,0.0,0
2020-09-18,3.9800000190734863,4.039999961853027,3.9700000286102295,4.039999961853027,1749000,0.0,0
2020-09-21,4.059999942779541,4.059999942779541,3.990000009536743,4.03000020980835,1950000,0.0,0
2020-09-22,4.019999980926514,4.019999980926514,3.940000057220459,3.9800000190734863,1842000,0.0,0
2020-09-23,3.990000009536743,4.03000020980835,3.950000047683716,3.9800000190734863,1796000,0.0,0
2020-09-24,4.019999980926514,4.03000020980835,3.9200000762939453,3.950000047683716,2063000,0.0,0
2020-09-25,3.990000009536743,3.990000009536743,3.930000066757202,3.950000047683716,1836000,0.0,0
2020-09-28,3.9800000190734863,4.03000020980835,3.9700000286102295,4.0,1883000,0.0,0
2020-09-29,4.03000020980835,4.039999961853027,3.950000047683716,3.9700000286102295,2756000,0.0,0
2020-09-30,4.0,4.039999961853027,3.9800000190734863,4.0,1649000,0.0,0
2020-10-05,4.010000228881836,4.010000228881836,3.930000066757202,3.9700000286102295,2481000,0.0,0
2020-10-06,3.9800000190734863,4.050000190734863,3.9800000190734863,4.039999961853027,1662000,0.0,0
2020-10-07,4.03000020980835,4.050000190734863,4.0,4.050000190734863,1985000,0.0,0
2020-10-08,4.039999961853027,4.090000152587891,4.010000228881836,4.039999961853027,2510000,0.0,0
2020-10-09,4.090000152587891,4.099999904632568,4.03000020980835,4.039999961853027,2088000,0.0,0
2020-10-12,4.090000152587891,4.130000114440918,4.050000190734863,4.090000152587891,1545000,0.0,0
2020-10-14,4.090000152587891,4.110000133514404,4.010000228881836,4.090000152587891,1847000,0.0,0
2020-10-15,4.119999885559082,4.150000095367432,4.059999942779541,4.150000095367432,1751000,0.0,0
2020-10-16,4.139999866485596,4.25,4.139999866485596,4.239999771118164,1971000,0.0,0
2020-10-19,4.239999771118164,4.309999942779541,4.21999979019165,4.230000019073486,2132000,0.0,0
2020-10-20,4.25,4.309999942779541,4.179999828338623,4.300000190734863,1517000,0.0,0
2020-10-21,4.300000190734863,4.320000171661377,4.230000019073486,4.239999771118164,1649000,0.0,0
2020-10-22,4.239999771118164,4.550000190734863,4.190000057220459,4.420000076293945,4354000,0.0,0
2020-10-23,4.53000020980835,4.53000020980835,4.28000020980835,4.300000190734863,1696000,0.0,0
2020-10-27,4.420000076293945,4.420000076293945,4.269999980926514,4.380000114440918,2405000,0.0,0
2020-10-28,4.320000171661377,4.380000114440918,4.25,4.28000020980835,13283000,0.0,0
2020-10-29,4.269999980926514,4.300000190734863,4.239999771118164,4.28000020980835,3516000,0.0,0
2020-10-30,4.269999980926514,4.300000190734863,4.130000114440918,4.170000076293945,1824000,0.0,0
2020-11-02,4.170000076293945,4.179999828338623,4.090000152587891,4.110000133514404,1587000,0.0,0
2020-11-03,4.070000171661377,4.25,4.070000171661377,4.150000095367432,1715000,0.0,0
2020-11-04,4.289999961853027,4.369999885559082,4.159999847412109,4.300000190734863,1719000,0.0,0
2020-11-05,4.320000171661377,4.349999904632568,3.880000114440918,4.210000038146973,1935000,0.0,0
2020-11-06,4.199999809265137,4.269999980926514,4.150000095367432,4.190000057220459,1492000,0.0,0
2020-11-09,4.210000038146973,4.239999771118164,4.159999847412109,4.179999828338623,1687000,0.0,0
2020-11-10,4.21999979019165,4.239999771118164,4.159999847412109,4.179999828338623,1821000,0.0,0
2020-11-11,4.199999809265137,4.239999771118164,4.159999847412109,4.179999828338623,1576000,0.0,0
2020-11-12,4.190000057220459,4.199999809265137,4.130000114440918,4.130000114440918,1842702,0.0,0
2020-11-13,4.099999904632568,4.190000057220459,4.050000190734863,4.170000076293945,1893000,0.0,0
2020-11-16,4.199999809265137,4.289999961853027,4.119999885559082,4.150000095367432,3328000,0.0,0
2020-11-17,4.150000095367432,4.21999979019165,4.139999866485596,4.190000057220459,2815000,0.0,0
2020-11-18,4.150000095367432,4.260000228881836,4.150000095367432,4.179999828338623,3581000,0.0,0
2020-11-19,4.199999809265137,4.199999809265137,4.090000152587891,4.179999828338623,4880000,0.0,0
2020-11-20,4.179999828338623,4.199999809265137,4.099999904632568,4.110000133514404,1657000,0.0,0
2020-11-23,4.150000095367432,4.199999809265137,4.090000152587891,4.159999847412109,1738000,0.0,0
2020-11-24,4.179999828338623,4.179999828338623,4.119999885559082,4.150000095367432,1601000,0.0,0
2020-11-25,4.159999847412109,4.199999809265137,4.079999923706055,4.190000057220459,3159000,0.0,0
2020-11-26,4.139999866485596,4.25,4.119999885559082,4.239999771118164,12571000,0.0,0
2020-11-27,4.230000019073486,4.300000190734863,4.119999885559082,4.119999885559082,19899000,0.0,0
2020-11-30,4.150000095367432,4.199999809265137,4.110000133514404,4.159999847412109,1618000,0.0,0
2020-12-01,4.159999847412109,4.159999847412109,4.079999923706055,4.119999885559082,1753000,0.0,0
2020-12-02,4.099999904632568,4.150000095367432,4.03000020980835,4.050000190734863,17220000,0.0,0
2020-12-03,4.050000190734863,4.139999866485596,4.050000190734863,4.139999866485596,1632000,0.0,0
2020-12-04,4.139999866485596,4.179999828338623,4.010000228881836,4.03000020980835,7663000,0.0,0
2020-12-07,4.110000133514404,4.159999847412109,4.050000190734863,4.050000190734863,1393000,0.0,0
