Date,Open,High,Low,Close,Volume,Dividends,Stock Splits
2020-01-02,31.740545543351246,31.988906613659644,31.343166314982135,31.690872192382812,4161362,0.0,0
2020-01-03,31.83988709115949,31.83988709115949,31.19414871499849,31.59152603149414,7055473,0.0,0
2020-01-06,31.59152662310097,31.690871427796417,30.796771975226495,31.14447784423828,3314885,0.0,0
2020-01-07,31.49218450955183,31.889559948692437,31.144478631748054,31.34316635131836,6482994,0.0,0
2020-01-08,30.995461557110858,31.492183685302734,30.69742714328901,31.492183685302734,3893053,0.0,0
2020-01-09,31.690870242641903,32.38628005981445,31.54185398859382,32.38628005981445,9753647,0.0,0
2020-01-10,32.535299340693186,32.7836604043626,31.790216149684948,32.18759536743164,3858438,0.0,0
2020-01-13,32.78365926373531,32.78365926373531,31.939233192514678,32.38628005981445,8412772,0.0,0
2020-01-14,32.435955865099984,32.4856273190293,31.79021559495192,32.28693771362305,6988089,0.0,0
2020-01-15,32.584970795489255,32.68431749477047,31.988905758558296,32.18759536743164,3532343,0.0,0
2020-01-16,32.088250791359975,32.634644409648544,31.83988971125705,32.48563003540039,7436349,0.0,0
2020-01-17,32.6843169586949,32.6843169586949,31.492183114696815,31.939233779907227,8683942,0.0,0
2020-01-20,32.584971629568216,32.78366124352743,31.88955987555556,32.038578033447266,7435919,0.0,0
2020-01-21,32.08824846182599,32.28693806942178,31.094804213536086,31.194149017333984,6282522,0.0,0
2020-01-22,31.194150016387486,32.18759619133897,31.04513375334037,32.038578033447266,10912640,0.0,0
2020-01-23,31.44251033557682,31.98890581349461,31.19414927148088,31.492183685302734,6794432,0.0,0
2020-01-24,31.49218450955183,31.740545580148154,31.045133824540606,31.34316635131836,2864443,0.0,0
2020-01-29,29.703982668786313,31.045132784025103,29.703982668786313,30.84644317626953,15633890,0.0,0
2020-01-30,30.250377736705367,30.598081703344334,28.809882836921492,28.859554290771484,12848850,0.0,0
2020-01-31,29.058245296166877,29.35627782331793,28.313162083444652,28.611194610595703,11534850,0.0,0
2020-02-03,28.313161783005132,29.256934600376468,27.965455908455453,29.008573532104492,15121620,0.0,0
2020-02-04,29.7039835073998,30.44906671525186,29.256934719595318,30.349721908569336,15243890,0.0,0
2020-02-05,30.796771498689797,31.0451325591631,29.852998710953432,30.20070457458496,15330790,0.0,0
2020-02-06,30.449066646787923,31.045133590698246,30.250378928714202,31.045133590698242,8155759,0.0,0
2020-02-07,30.945787710798157,30.995461059726964,30.200704530466687,30.896116256713867,9000079,0.0,0
2020-02-10,30.54841099599734,30.64775580096949,29.65431154093706,30.101360321044922,13544060,0.0,0
2020-02-11,30.39939449060221,30.39939449060221,29.60463795208416,29.803327560424805,16107420,0.0,0
2020-02-12,29.60463874749552,30.498740114206427,29.60463874749552,30.002017974853516,11667190,0.0,0
2020-02-13,29.80332814594735,29.80332814594735,29.00857348665992,29.356277465820312,15851420,0.0,0
2020-02-14,29.256935068081187,29.952344933452874,29.256935068081187,29.604639053344727,8004978,0.0,0
2020-02-17,29.70398299600086,30.25037847592543,29.65431154093706,30.101360321044922,8460508,0.0,0
2020-02-18,29.952344933452874,29.952344933452874,29.306606524591807,29.604639053344727,4541356,0.0,0
2020-02-19,30.00201692172164,30.00201692172164,29.15758893549392,29.505294799804688,10463690,0.0,0
2020-02-20,29.9026723911008,29.9026723911008,29.10791585187828,29.45562171936035,6245195,0.0,0
2020-02-21,29.455622271942385,29.554967078064458,29.207261204059492,29.356277465820312,5057961,0.0,0
2020-02-24,28.909229319186316,29.207261849291946,28.412507172447185,28.5615234375,12388370,0.0,0
2020-02-25,28.114472203296582,28.80988395320841,28.114472203296582,28.66086769104004,6587990,0.0,0
2020-02-26,27.86611171424861,28.362833861702914,27.86611171424861,28.213817596435547,8592852,0.0,0
2020-02-27,28.015129605535932,28.362833589541786,27.667423726685474,28.263490676879883,9756435,0.0,0
2020-02-28,27.86611041079942,28.164144822238082,27.3693882865795,27.766767501831055,12220930,0.0,0
2020-03-02,28.114472518197832,28.46217839704829,27.51840746284802,28.263490676879883,11552540,0.0,0
2020-03-03,28.362833589541786,29.157590154749204,28.164145869373385,28.263490676879883,9915785,0.0,0
2020-03-04,28.412506103515625,28.760211972120594,27.91578397546411,28.412506103515625,10915270,0.0,0
2020-03-05,28.611193999431,29.60463826183964,28.511851089065782,29.40595054626465,12075490,0.0,0
2020-03-06,29.20726096574513,29.356277226290068,28.90922844465526,29.058244705200195,7918223,0.0,0
2020-03-09,28.36283306695486,28.462177872630924,27.717094672327264,28.01512908935547,13468880,0.0,0
2020-03-10,28.064801099854584,28.362833627932897,27.617750412892512,27.91578483581543,10415060,0.0,0
2020-03-11,27.86611123732316,28.114472306799637,27.27004618645528,27.61775016784668,14927800,0.0,0
2020-03-12,26.972010487832048,27.319716347588436,26.47528837242135,26.822994232177734,10585060,0.0,0
2020-03-13,24.19036891157494,26.773324452136293,24.19036891157494,26.52496337890625,16114550,0.0,0
2020-03-16,25.382500855679098,25.9785678087447,24.68709098947307,24.83610725402832,19432580,0.0,0
2020-03-17,25.034796239147852,26.02824050427523,24.53807410658416,25.630861282348633,15738690,0.0,0
2020-03-18,25.829551503716775,26.32627364801902,24.7864357586199,25.183813095092773,19150170,0.0,0
2020-03-19,24.885778633672885,25.730206656668518,24.38905649012776,25.531518936157227,16987700,0.0,0
2020-03-20,25.531518619380574,26.127583668363496,24.73676206266238,25.928895950317383,15753890,0.0,0
2020-03-23,24.93545150756836,25.879222425329726,24.736761896016194,24.93545150756836,9287935,0.0,0
2020-03-24,26.524962330687952,26.723650044513438,25.581189531772132,26.028240203857422,11743210,0.0,0
2020-03-25,26.326272392590795,26.773323059082028,25.829550271975872,26.77332305908203,13285070,0.0,0
2020-03-26,27.319716656911222,27.319716656911222,26.12758280849002,26.425617218017578,12935230,0.0,0
2020-03-27,26.673979191918086,26.77332399849575,25.43217384680872,25.58119010925293,23755220,0.0,0
2020-03-30,24.93545164322013,26.624305771222826,24.885778292639575,26.276601791381836,13205470,0.0,0
2020-03-31,27.319716633820637,27.319716633820637,26.62430490702194,26.77332305908203,12934670,0.0,0
2020-04-01,28.26348916524653,28.26348916524653,25.879221491988122,26.127582550048828,9303963,0.0,0
2020-04-02,26.72364971011383,27.071355573513177,26.12758278640702,26.77332305908203,11116200,0.0,0
2020-04-03,26.872667042111498,27.02168520013162,26.326273445519682,26.922340393066406,12096850,0.0,0
2020-04-06,27.319717375452708,27.76676805407976,26.972011502614397,27.667423248291016,7878613,0.0,0
2020-04-07,27.965454910525914,28.561521832077297,27.717093851116545,28.16414451599121,9628313,0.0,0
2020-04-08,28.462178183035626,28.561522989795137,27.419062449172248,27.61775016784668,9404591,0.0,0
2020-04-09,28.462177586313427,28.462177586313427,27.568078133912213,28.064800262451172,11029930,0.0,0
2020-04-14,28.31316156773239,28.36283302307129,27.56807836858154,28.36283302307129,14070430,0.0,0
2020-04-15,28.809882913317,28.809882913317,27.617749069310907,27.816438674926758,14366530,0.0,0
2020-04-16,28.809883777750127,28.809883777750127,27.617749897974363,27.667423248291016,11259000,0.0,0
2020-04-17,28.313161884709817,28.313161884709817,27.816439746381576,27.965456008911133,10684340,0.0,0
2020-04-20,28.114471188506027,28.164144537332245,27.617749069310907,27.816438674926758,5115149,0.0,0
2020-04-21,27.71709395134367,27.71709395134367,26.673978255990143,26.77332305908203,12663520,0.0,0
2020-04-22,26.07791237527893,27.02168520013162,26.07791237527893,26.922340393066406,13965790,0.0,0
2020-04-23,27.319717407226562,27.419062213130847,26.872666728079576,27.319717407226562,10337750,0.0,0
2020-04-24,27.419062497108353,27.419062497108353,26.972011813331285,27.27004623413086,4615983,0.0,0
2020-04-27,27.568077615329198,28.015128280542612,27.369388009713347,27.816438674926758,5743590,0.0,0
2020-04-28,27.76676717937837,28.511850357055664,27.717093830626514,28.511850357055664,8532470,0.0,0
2020-04-29,28.66086667879459,28.66086667879459,27.319716576956896,27.468732833862305,16583800,0.0,0
2020-05-04,27.617748898413087,27.617748898413087,26.07791109637449,26.127582550048828,18515890,0.0,0
2020-05-05,26.624305971870747,27.071356656241935,26.276601989409368,26.922340393066406,8000295,0.0,0
2020-05-06,27.270046693422003,27.9157851070966,26.872667458996446,27.866111755371094,11260680,0.0,0
2020-05-07,27.81643954190341,27.81643954190341,27.220372601322282,27.319717407226562,8010078,0.0,0
2020-05-08,27.766767527004678,27.965455239966058,27.270045402334432,27.4190616607666,9944723,0.0,0
2020-05-11,27.816438653849193,28.313160772667928,27.816438653849193,28.16414451599121,19131680,0.0,0
2020-05-12,28.90922903259135,29.505295981738055,28.06480101253724,28.611194610595703,21957800,0.0,0
2020-05-13,28.660867888972476,29.654312170081784,28.3131620116153,29.30660629272461,14916300,0.0,0
2020-05-14,28.809883700499626,29.008573311544342,28.21381676221003,28.36283302307129,12569780,0.0,0
2020-05-15,28.11447200018697,28.462177872630924,27.866110933419083,28.01512908935547,11288250,0.0,0
2020-05-18,28.362833861702914,28.71053974388985,28.06480133116818,28.213817596435547,13553100,0.0,0
2020-05-19,28.809883426987927,28.958899686434474,28.362832753803747,28.412506103515625,9352170,0.0,0
2020-05-20,28.412505798469848,28.909227921188396,28.412505798469848,28.80988311767578,16677470,0.0,0
2020-05-21,29.00857274896548,29.00857274896548,28.412505822235733,28.462177276611328,8948262,0.0,0
2020-05-22,27.12102699279785,27.76676726464336,26.72364967578528,27.12102699279785,16168250,0.0,0
2020-05-25,27.270045642158678,27.8661106811294,26.972011227828773,27.71709442138672,7609393,0.0,0
2020-05-26,28.114472432690047,28.958900451660156,27.71709509871723,28.958900451660156,12584750,0.0,0
2020-05-27,29.505295444311578,29.505295444311578,28.06480050134877,28.36283302307129,12640240,0.0,0
2020-05-28,28.46217733883222,28.46217733883222,27.220372028282434,27.766767501831055,14814880,0.0,0
2020-05-29,27.319718204051597,27.81644035321617,27.170701938271147,27.518407821655273,19983220,0.0,0
2020-06-01,28.710538314163166,28.958899375522442,28.412505798469848,28.80988311767578,16655420,0.0,0
2020-06-02,28.80988311767578,29.405950043906945,28.710538314163166,28.80988311767578,11153740,0.0,0
2020-06-03,29.356277196237478,29.55496680665703,28.76021215466794,29.40595054626465,16689970,0.0,0
2020-06-04,29.604637672859454,29.852998733520508,29.05824409734295,29.852998733520508,22168970,0.0,0
2020-06-05,29.850000381469727,29.950000762939453,29.0,29.649999618530273,47862550,0.197,0
2020-06-08,29.450000762939453,30.200000762939453,29.0,29.200000762939453,19484980,0.0,0
2020-06-09,29.600000381469727,31.700000762939453,29.5,30.799999237060547,26257420,0.0,0
2020-06-10,31.5,31.5,30.200000762939453,30.399999618530273,16659820,0.0,0
2020-06-11,30.25,30.75,29.799999237060547,29.899999618530273,10361230,0.0,0
2020-06-12,29.600000381469727,30.399999618530273,29.450000762939453,29.600000381469727,9938676,0.0,0
2020-06-15,28.950000762939453,29.600000381469727,28.75,29.149999618530273,13910560,0.0,0
2020-06-16,30.0,30.100000381469727,29.399999618530273,29.549999237060547,6236979,0.0,0
2020-06-17,30.299999237060547,30.299999237060547,29.75,30.299999237060547,9192400,0.0,0
2020-06-18,30.350000381469727,30.399999618530273,29.649999618530273,30.399999618530273,9188153,0.0,0
2020-06-19,29.899999618530273,30.5,29.799999237060547,30.450000762939453,10023749,0.0,0
2020-06-22,30.0,30.549999237060547,30.0,30.399999618530273,6949212,0.0,0
2020-06-23,30.149999618530273,30.450000762939453,29.549999237060547,30.200000762939453,8687118,0.0,0
2020-06-24,30.399999618530273,30.5,29.799999237060547,30.0,5437145,0.0,0
2020-06-26,29.850000381469727,30.100000381469727,29.600000381469727,30.0,6417549,0.0,0
2020-06-29,30.399999618530273,30.399999618530273,29.450000762939453,29.700000762939453,6093761,0.0,0
2020-06-30,30.0,30.450000762939453,29.549999237060547,29.600000381469727,7225514,0.0,0
2020-07-02,30.0,30.850000381469727,29.899999618530273,30.850000381469727,15710460,0.0,0
2020-07-03,31.450000762939453,31.75,30.799999237060547,31.25,11202424,0.0,0
2020-07-06,31.799999237060547,32.900001525878906,31.25,32.599998474121094,13870340,0.0,0
2020-07-07,32.79999923706055,33.29999923706055,32.0,32.400001525878906,16467870,0.0,0
2020-07-08,33.29999923706055,35.25,33.29999923706055,34.349998474121094,25369640,0.0,0
2020-07-09,35.0,35.099998474121094,34.349998474121094,34.79999923706055,15461520,0.0,0
2020-07-10,34.900001525878906,35.45000076293945,34.29999923706055,34.79999923706055,8744521,0.0,0
2020-07-13,34.849998474121094,35.29999923706055,34.29999923706055,35.0,10263500,0.0,0
2020-07-14,34.79999923706055,35.04999923706055,34.25,35.04999923706055,12018370,0.0,0
2020-07-15,36.54999923706055,36.54999923706055,34.400001525878906,34.79999923706055,11288940,0.0,0
2020-07-16,35.849998474121094,35.849998474121094,33.5,33.79999923706055,11238260,0.0,0
2020-07-17,34.0,35.400001525878906,33.5,35.25,12466380,0.0,0
2020-07-20,34.70000076293945,35.75,34.5,34.70000076293945,12517440,0.0,0
2020-07-21,34.849998474121094,35.70000076293945,34.75,35.54999923706055,7632817,0.0,0
2020-07-22,35.599998474121094,36.099998474121094,34.95000076293945,34.95000076293945,8051823,0.0,0
2020-07-23,35.599998474121094,36.349998474121094,34.900001525878906,35.95000076293945,8143396,0.0,0
2020-07-24,35.79999923706055,36.25,34.45000076293945,34.650001525878906,9837134,0.0,0
2020-07-27,35.20000076293945,36.04999923706055,34.79999923706055,35.0,10814260,0.0,0
2020-07-28,35.900001525878906,37.349998474121094,35.25,36.95000076293945,14692440,0.0,0
2020-07-29,36.95000076293945,37.400001525878906,36.599998474121094,37.150001525878906,8387883,0.0,0
2020-07-30,37.29999923706055,37.54999923706055,36.650001525878906,36.95000076293945,8788957,0.0,0
2020-07-31,37.0,37.29999923706055,36.150001525878906,36.349998474121094,6776121,0.0,0
2020-08-03,36.29999923706055,36.75,35.849998474121094,36.29999923706055,11081590,0.0,0
2020-08-04,36.599998474121094,37.04999923706055,35.849998474121094,36.150001525878906,7314303,0.0,0
2020-08-05,36.75,36.95000076293945,36.20000076293945,36.70000076293945,7835736,0.0,0
2020-08-06,37.400001525878906,37.400001525878906,35.599998474121094,36.099998474121094,9446532,0.0,0
2020-08-07,36.29999923706055,36.29999923706055,34.79999923706055,35.45000076293945,12532940,0.0,0
2020-08-10,34.79999923706055,35.599998474121094,34.5,34.900001525878906,7665248,0.0,0
2020-08-11,35.400001525878906,36.0,35.150001525878906,35.650001525878906,8955045,0.0,0
2020-08-12,35.79999923706055,35.79999923706055,34.54999923706055,35.25,4643943,0.0,0
2020-08-13,35.04999923706055,35.900001525878906,34.95000076293945,35.20000076293945,6946559,0.0,0
2020-08-14,34.79999923706055,35.54999923706055,34.54999923706055,35.400001525878906,5908347,0.0,0
2020-08-17,35.650001525878906,35.849998474121094,34.849998474121094,35.400001525878906,4528008,0.0,0
2020-08-18,35.20000076293945,36.900001525878906,35.20000076293945,36.20000076293945,6291460,0.0,0
2020-08-19,36.099998474121094,36.099998474121094,35.25,35.54999923706055,4262039,0.0,0
2020-08-20,35.20000076293945,35.20000076293945,34.0,34.25,11623630,0.0,0
2020-08-21,34.599998474121094,34.650001525878906,34.20000076293945,34.349998474121094,6633506,0.0,0
2020-08-24,35.0,36.150001525878906,34.5,35.650001525878906,7889660,0.0,0
2020-08-25,36.0,36.0,34.70000076293945,35.400001525878906,7314226,0.0,0
2020-08-26,35.29999923706055,36.54999923706055,34.79999923706055,36.45000076293945,11218200,0.0,0
2020-08-27,37.95000076293945,38.099998474121094,35.150001525878906,35.5,15733880,0.0,0
2020-08-28,36.5,40.650001525878906,36.25,39.20000076293945,29294310,0.0,0
2020-08-31,39.75,40.20000076293945,37.900001525878906,38.099998474121094,18532990,0.0,0
2020-09-01,37.099998474121094,38.900001525878906,37.099998474121094,38.349998474121094,7388677,0.0,0
2020-09-02,37.95000076293945,38.75,37.79999923706055,38.150001525878906,7506191,0.0,0
2020-09-03,38.0,39.099998474121094,37.650001525878906,38.04999923706055,11037110,0.0,0
2020-09-04,37.0,38.04999923706055,37.0,37.79999923706055,19092810,0.0,0
2020-09-07,37.599998474121094,38.0,36.79999923706055,37.349998474121094,8484790,0.0,0
2020-09-08,37.29999923706055,38.04999923706055,37.150001525878906,37.54999923706055,6611686,0.0,0
2020-09-09,36.79999923706055,36.95000076293945,35.75,36.04999923706055,10132060,0.0,0
2020-09-10,36.099998474121094,36.900001525878906,36.0,36.5,7540802,0.0,0
2020-09-11,36.29999923706055,37.25,36.099998474121094,37.150001525878906,8823335,0.0,0
2020-09-14,37.20000076293945,37.349998474121094,36.45000076293945,36.95000076293945,7178108,0.0,0
2020-09-15,37.0,37.5,36.70000076293945,37.400001525878906,5880763,0.0,0
2020-09-16,37.45000076293945,37.5,36.5,36.599998474121094,7085300,0.0,0
2020-09-17,36.29999923706055,36.54999923706055,35.849998474121094,36.29999923706055,11113270,0.0,0
2020-09-18,36.04999923706055,36.099998474121094,34.900001525878906,35.150001525878906,39845360,0.0,0
2020-09-21,35.900001525878906,35.900001525878906,34.599998474121094,35.0,36321360,0.0,0
2020-09-22,34.599998474121094,35.79999923706055,34.599998474121094,35.400001525878906,8180360,0.0,0
2020-09-23,35.0,36.150001525878906,35.0,35.70000076293945,8472849,0.0,0
2020-09-24,35.400001525878906,35.900001525878906,35.29999923706055,35.54999923706055,7611107,0.0,0
2020-09-25,35.900001525878906,36.20000076293945,35.54999923706055,35.900001525878906,10930800,0.0,0
2020-09-28,36.04999923706055,36.29999923706055,35.599998474121094,36.099998474121094,5909733,0.0,0
2020-09-29,35.5,35.95000076293945,35.349998474121094,35.349998474121094,10896040,0.0,0
2020-09-30,36.04999923706055,36.70000076293945,35.650001525878906,36.29999923706055,10419620,0.0,0
2020-10-05,36.5,36.650001525878906,35.650001525878906,35.900001525878906,7774028,0.0,0
2020-10-06,36.29999923706055,37.099998474121094,36.25,37.099998474121094,7036635,0.0,0
2020-10-07,36.849998474121094,37.20000076293945,36.599998474121094,37.150001525878906,3843073,0.0,0
2020-10-08,37.5,37.900001525878906,36.54999923706055,37.25,6998950,0.0,0
2020-10-09,37.75,37.79999923706055,36.849998474121094,37.45000076293945,8871237,0.0,0
2020-10-12,37.45000076293945,38.5,37.400001525878906,38.400001525878906,8344183,0.0,0
2020-10-14,39.54999923706055,39.54999923706055,37.79999923706055,38.45000076293945,10428910,0.0,0
2020-10-15,38.04999923706055,38.54999923706055,37.599998474121094,38.0,5629588,0.0,0
2020-10-16,37.650001525878906,37.95000076293945,36.900001525878906,37.099998474121094,8428025,0.0,0
2020-10-19,37.099998474121094,38.0,36.599998474121094,37.45000076293945,10956170,0.0,0
2020-10-20,38.0,39.54999923706055,37.900001525878906,39.099998474121094,11394760,0.0,0
2020-10-21,39.5,40.29999923706055,39.150001525878906,40.29999923706055,12980770,0.0,0
2020-10-22,40.650001525878906,40.650001525878906,39.099998474121094,39.650001525878906,5982736,0.0,0
2020-10-23,39.75,39.75,38.79999923706055,39.04999923706055,4582594,0.0,0
2020-10-27,39.349998474121094,39.349998474121094,38.20000076293945,38.45000076293945,5665051,0.0,0
2020-10-28,38.45000076293945,38.900001525878906,37.650001525878906,38.54999923706055,7556268,0.0,0
2020-10-29,38.5,38.849998474121094,37.70000076293945,38.75,10271070,0.0,0
2020-10-30,38.04999923706055,38.20000076293945,36.25,36.45000076293945,14175940,0.0,0
2020-11-02,37.099998474121094,37.900001525878906,36.75,37.849998474121094,11683250,0.0,0
2020-11-03,38.099998474121094,38.400001525878906,37.5,37.95000076293945,6833540,0.0,0
2020-11-04,37.400001525878906,38.54999923706055,37.400001525878906,38.400001525878906,6359615,0.0,0
2020-11-05,39.54999923706055,40.900001525878906,39.400001525878906,40.900001525878906,15059480,0.0,0
2020-11-06,41.0,41.349998474121094,39.349998474121094,40.25,10079320,0.0,0
2020-11-09,40.900001525878906,41.150001525878906,39.900001525878906,40.29999923706055,11142210,0.0,0
2020-11-10,40.04999923706055,40.650001525878906,39.5,40.5,10141110,0.0,0
2020-11-11,41.400001525878906,42.650001525878906,39.900001525878906,40.150001525878906,14893880,0.0,0
2020-11-12,39.79999923706055,41.95000076293945,39.79999923706055,41.150001525878906,8672098,0.0,0
2020-11-13,41.349998474121094,41.5,40.75,41.25,5184238,0.0,0
2020-11-16,41.75,42.0,40.70000076293945,41.5,6071902,0.0,0
2020-11-17,41.04999923706055,41.29999923706055,40.20000076293945,40.45000076293945,6601563,0.0,0
2020-11-18,40.25,41.54999923706055,40.099998474121094,41.54999923706055,5905937,0.0,0
2020-11-19,41.349998474121094,42.29999923706055,40.95000076293945,41.70000076293945,7925946,0.0,0
2020-11-20,41.0,41.650001525878906,40.849998474121094,41.20000076293945,7623359,0.0,0
2020-11-23,41.45000076293945,41.849998474121094,40.75,40.95000076293945,5233189,0.0,0
2020-11-24,40.25,41.349998474121094,40.0,41.25,8005150,0.0,0
2020-11-25,40.75,41.150001525878906,39.70000076293945,39.75,8201204,0.0,0
2020-11-26,39.900001525878906,40.650001525878906,39.5,40.29999923706055,5510455,0.0,0
2020-11-27,39.79999923706055,40.150001525878906,39.349998474121094,39.95000076293945,5524012,0.0,0
2020-11-30,40.150001525878906,40.20000076293945,38.95000076293945,39.20000076293945,17896910,0.0,0
2020-12-01,40.25,40.75,39.75,39.849998474121094,8512303,0.0,0
2020-12-02,39.849998474121094,40.150001525878906,39.20000076293945,39.400001525878906,9512473,0.0,0
2020-12-03,39.0,40.75,39.0,40.70000076293945,13657540,0.0,0
2020-12-04,41.0,43.20000076293945,40.599998474121094,43.150001525878906,19883040,0.0,0
2020-12-07,43.0,43.400001525878906,42.400001525878906,42.5,8303320,0.0,0
