Date,Open,High,Low,Close,Volume,Dividends,Stock Splits
2020-01-02,1.6166826662948222,1.6264807338576492,1.5872884636063402,1.6068845987319946,5930000,0.0,0
2020-01-03,1.6068846164762607,1.6362788194893325,1.587288481134213,1.5970865488052368,4087000,0.0,0
2020-01-06,1.606884531195491,1.606884531195491,1.5774903297424319,1.5774903297424316,6072540,0.0,0
2020-01-07,1.587288481134213,1.6166826841472846,1.577490413463189,1.5970865488052368,6138000,0.0,0
2020-01-08,1.5872883968934515,1.597086464044471,1.567692262591412,1.5774903297424316,4618000,0.0,0
2020-01-09,1.5578941954403924,1.5872883968934515,1.5578941954403924,1.5774903297424316,6415570,0.0,0
2020-01-10,1.5676923328049626,1.5676923328049626,1.5382981300354006,1.5382981300354004,5894000,0.0,0
2020-01-13,1.5382981137762062,1.5578942487487908,1.4795095920562744,1.4795095920562744,16917000,0.0,0
2020-01-14,1.4795096097328724,1.5089038125429397,1.4599134745261608,1.4697115421295166,19829000,0.0,0
2020-01-15,1.4697115421295166,1.4795096097328724,1.450115406922805,1.4697115421295166,7095000,0.0,0
2020-01-16,1.4697115599247494,1.4795096276467399,1.4501154244807684,1.4599134922027588,6622603,0.0,0
2020-01-17,1.4697114565975884,1.5187017917633059,1.4697114565975884,1.5187017917633057,10156660,0.0,0
2020-01-20,1.5284998936800585,1.5284998936800585,1.489307624653034,1.49910569190979,1327000,0.0,0
2020-01-21,1.4893076773362282,1.4893076773362282,1.4697115421295166,1.4697115421295166,2799000,0.0,0
2020-01-22,1.469711524569982,1.4893076595425667,1.4599134570836898,1.4795095920562744,4024910,0.0,0
2020-01-23,1.4599134922027588,1.4795096276467399,1.4501154244807684,1.4599134922027588,7895770,0.0,0
2020-01-24,1.4599134745261608,1.4697115421295166,1.450115406922805,1.4697115421295166,2033753,0.0,0
2020-01-29,1.450115340293109,1.450115340293109,1.3717306862656906,1.4403172731399536,9339460,0.0,0
2020-01-30,1.44031734149853,1.44031734149853,1.3913268866054536,1.4011249542236328,5271000,0.0,0
2020-01-31,1.4207211200576646,1.4207211200576646,1.3717306681371613,1.3815287351608276,5191470,0.0,0
2020-02-03,1.3619326704994874,1.371730738022333,1.3227404004081054,1.3423365354537964,7377000,0.0,0
2020-02-04,1.3521345853805542,1.3717307201712299,1.3423365179852165,1.3521345853805542,9181604,0.0,0
2020-02-05,1.361932618088283,1.3717306852340698,1.352134550942496,1.3717306852340698,15351000,0.0,0
2020-02-06,1.3717307513690946,1.4109231386439918,1.3619326837509151,1.4011249542236328,19669980,0.0,0
2020-02-07,1.3815288055451784,1.4011249405908694,1.3325384679309509,1.3423365354537964,14977330,0.0,0
2020-02-10,1.3423365030420353,1.3423365030420353,1.2933461666107178,1.2933461666107178,17289000,0.0,0
2020-02-11,1.3031443000332246,1.3325385033838086,1.2933462322496965,1.3227404356002808,18456000,0.0,0
2020-02-12,1.3325384978402741,1.401124972039642,1.3325384978402741,1.391326904296875,20337540,0.0,0
2020-02-13,1.4109231565845894,1.4207212243273564,1.3717307688113414,1.391326904296875,10522020,0.0,0
2020-02-14,1.3913268195256434,1.410923070619391,1.3717306852340698,1.3717306852340698,3457000,0.0,0
2020-02-17,1.3717306852340698,1.3913268195256434,1.352134550942496,1.3717306852340698,6743000,0.0,0
2020-02-18,1.3717307201712299,1.3717307201712299,1.3423365179852165,1.3521345853805542,11075900,0.0,0
2020-02-19,1.3423364675457334,1.3423364675457334,1.3031441994370667,1.3129422664642334,15182000,0.0,0
2020-02-20,1.3129422664642334,1.3227403334914,1.2933461324099,1.3129422664642334,23777000,0.0,0
2020-02-21,1.3129423502225819,1.3325384855270386,1.3129423502225819,1.3325384855270386,7449200,0.0,0
2020-02-24,1.3227404204512119,1.3227404204512119,1.254153829949842,1.2639518976211548,11304000,0.0,0
2020-02-25,1.2345576115462502,1.254153745570449,1.2247595445341506,1.2443556785583496,15441000,0.0,0
2020-02-26,1.224759578704834,1.2443557132757632,1.224759578704834,1.224759578704834,12547880,0.0,0
2020-02-27,1.2541537629269863,1.2541537629269863,1.2247595614838944,1.2345576286315918,23525620,0.0,0
2020-02-28,1.2247596160022034,1.2247596160022034,1.116980755777748,1.1365768909454346,24543030,0.0,0
2020-03-02,1.146374956642821,1.2247596139867578,1.146374956642821,1.2051634788513184,12963050,0.0,0
2020-03-03,1.2149614779230897,1.2345576119537571,1.1757692098617554,1.1757692098617554,12014020,0.0,0
2020-03-04,1.2149614779230897,1.2345576119537571,1.1757692098617554,1.1757692098617554,9694000,0.0,0
2020-03-05,1.2149614943361973,1.244355695779289,1.1953653600408027,1.2345576286315918,13907000,0.0,0
2020-03-06,1.2149615643491958,1.2247596320615135,1.1855673612122428,1.1953654289245605,5904000,0.0,0
2020-03-09,1.1757692599731542,1.1757692599731542,1.1169807385734078,1.1463749408721924,48214810,0.0,0
2020-03-10,1.1267788233615912,1.1561730261131211,1.1267788233615912,1.1365768909454346,15173510,0.0,0
2020-03-11,1.1561730586177037,1.2247596504350253,1.1561730586177037,1.1855673789978027,25989200,0.0,0
2020-03-12,1.1757692965077726,1.1757692965077726,1.1169807732812935,1.1267788410186768,36893010,0.0,0
2020-03-13,1.1071827112620107,1.1071827112620107,0.9406153836629827,1.0581923723220825,31800950,0.0,0
2020-03-16,1.0385960866925967,1.0581923384433627,0.9896057493211262,1.0092018842697144,27394870,0.0,0
2020-03-17,0.9896057518670717,0.9994038193665731,0.9308172884689738,0.9406153559684753,175739600,0.0,0
2020-03-18,0.9700096395583109,0.9700096395583109,0.8426346422830873,0.8622307777404785,19112230,0.0,0
2020-03-19,0.8622307601385624,0.8916250211256737,0.8328365575525403,0.8720288276672363,31626430,0.0,0
2020-03-20,0.8916250290411422,0.9504134931361745,0.8916250290411422,0.9014230966567993,24146000,0.0,0
2020-03-23,0.8524326857319352,0.8818268880807867,0.823038424981995,0.8426346182823181,10960200,0.0,0
2020-03-24,0.8622307510551982,0.9210192140090112,0.8524326836297441,0.9112211465835571,14141000,0.0,0
2020-03-25,0.9896057518670717,0.9994038193665731,0.9210192209694724,0.9406153559684753,10993400,0.0,0
2020-03-26,0.9602115400754485,0.98960574228947,0.9406153468650125,0.9798076748847961,10437540,0.0,0
2020-03-27,0.98960574228947,0.9994038096941438,0.9700096074801223,0.9798076748847961,8711093,0.0,0
2020-03-30,0.97980765834719,0.9896057255864878,0.921019196510315,0.9210191965103149,7684684,0.0,0
2020-03-31,0.9406153488599194,0.950413474686462,0.901423079158103,0.9112211465835571,16201750,0.0,0
2020-04-01,0.9308172637496129,0.9602115238685941,0.9112211292710171,0.9210191965103149,12117000,0.0,0
2020-04-02,0.9210192318881135,0.9210192318881135,0.8916250290411422,0.9014230966567993,13805370,0.0,0
2020-04-03,0.901423079158103,0.9210192140090112,0.901423079158103,0.9112211465835571,2619023,0.0,0
2020-04-06,0.9112211642724564,0.9112211642724564,0.8818269030243954,0.9014230966567993,7459714,0.0,0
2020-04-07,0.9210192051065486,0.9504134654998779,0.9112211377758015,0.9504134654998779,7470841,0.0,0
2020-04-08,0.92101923835724,0.9700096351807177,0.9112211706727624,0.9308173060417175,5008510,0.0,0
2020-04-09,0.960211523116678,0.9994037920431792,0.94061533025234,0.989605724811554,12410000,0.0,0
2020-04-14,0.9896057322797684,1.0385960688076081,0.9798076649742005,1.0189999341964722,11526040,0.0,0
2020-04-15,1.0385960688076081,1.0483942529153518,1.0092018668909044,1.0189999341964722,7116951,0.0,0
2020-04-16,1.0092018668909044,1.0189999341964722,0.9896057322797684,1.0189999341964722,9541000,0.0,0
2020-04-17,1.0299999713897705,1.0499999523162842,1.0099999904632568,1.0399999618530273,4108546,0.021,0
2020-04-20,1.0199999809265137,1.0700000524520874,1.0099999904632568,1.0399999618530273,6594455,0.0,0
2020-04-21,1.0399999618530273,1.0399999618530273,0.9900000095367432,0.9900000095367432,7482000,0.0,0
2020-04-22,0.9900000095367432,1.0099999904632568,0.9599999785423279,1.0,11237600,0.0,0
2020-04-23,0.9900000095367432,1.0199999809265137,0.9800000190734863,1.0099999904632568,9685000,0.0,0
2020-04-24,1.0099999904632568,1.0099999904632568,1.0,1.0099999904632568,9958000,0.0,0
2020-04-27,1.0,1.0,0.9800000190734863,1.0,3577962,0.0,0
2020-04-28,0.9800000190734863,0.9900000095367432,0.9700000286102295,0.9800000190734863,3238000,0.0,0
2020-04-29,0.9800000190734863,0.9900000095367432,0.9599999785423279,0.9599999785423279,8774501,0.0,0
2020-05-04,0.9399999976158142,0.9399999976158142,0.8999999761581421,0.9200000166893005,26339000,0.0,0
2020-05-05,0.9200000166893005,0.949999988079071,0.8999999761581421,0.8999999761581421,21465090,0.0,0
2020-05-06,0.9200000166893005,0.9800000190734863,0.9200000166893005,0.9700000286102295,25398000,0.0,0
2020-05-07,0.9700000286102295,0.9700000286102295,0.9200000166893005,0.9399999976158142,20598270,0.0,0
2020-05-08,0.9599999785423279,1.0,0.9599999785423279,0.9599999785423279,39089020,0.0,0
2020-05-11,0.949999988079071,0.9599999785423279,0.9399999976158142,0.9399999976158142,4084000,0.0,0
2020-05-12,0.9300000071525574,0.9300000071525574,0.8999999761581421,0.9200000166893005,14281000,0.0,0
2020-05-13,0.9100000262260437,0.9200000166893005,0.8999999761581421,0.9100000262260437,3170000,0.0,0
2020-05-14,0.9100000262260437,0.9100000262260437,0.8500000238418579,0.8999999761581421,23961000,0.0,0
2020-05-15,0.8999999761581421,0.9100000262260437,0.8700000047683716,0.9100000262260437,9557592,0.0,0
2020-05-18,0.9100000262260437,0.9100000262260437,0.8899999856948853,0.8899999856948853,1599000,0.0,0
2020-05-19,0.9100000262260437,0.949999988079071,0.9100000262260437,0.9399999976158142,80334940,0.0,0
2020-05-20,0.9399999976158142,0.9399999976158142,0.8899999856948853,0.9100000262260437,12442000,0.0,0
2020-05-21,0.8999999761581421,0.9200000166893005,0.8999999761581421,0.9200000166893005,41879210,0.0,0
2020-05-22,0.9100000262260437,0.9200000166893005,0.8700000047683716,0.8899999856948853,13337660,0.0,0
2020-05-25,0.8799999952316284,0.8999999761581421,0.8500000238418579,0.8899999856948853,4709000,0.0,0
2020-05-26,0.9100000262260437,0.9100000262260437,0.8799999952316284,0.8899999856948853,6565174,0.0,0
2020-05-27,0.8999999761581421,0.9100000262260437,0.8799999952316284,0.8999999761581421,3430749,0.0,0
2020-05-28,0.8999999761581421,0.9100000262260437,0.8799999952316284,0.8999999761581421,12449640,0.0,0
2020-05-29,0.8999999761581421,0.9300000071525574,0.8799999952316284,0.9300000071525574,11184700,0.0,0
2020-06-01,0.9200000166893005,0.9800000190734863,0.9200000166893005,0.949999988079071,10360820,0.0,0
2020-06-02,0.949999988079071,1.0499999523162842,0.9399999976158142,1.0,15465200,0.0,0
2020-06-03,1.0,1.0399999618530273,0.9900000095367432,1.0199999809265137,50782870,0.0,0
2020-06-04,1.0299999713897705,1.059999942779541,1.0199999809265137,1.059999942779541,18854320,0.0,0
2020-06-05,1.0700000524520874,1.1399999856948853,1.059999942779541,1.1399999856948853,17080430,0.0,0
2020-06-08,1.149999976158142,1.2000000476837158,1.1399999856948853,1.1799999475479126,26298570,0.0,0
2020-06-09,1.1799999475479126,1.2000000476837158,1.149999976158142,1.1799999475479126,11261000,0.0,0
2020-06-10,1.1799999475479126,1.2000000476837158,1.1699999570846558,1.1799999475479126,19605000,0.0,0
2020-06-11,1.1799999475479126,1.1799999475479126,1.100000023841858,1.1100000143051147,23751570,0.0,0
2020-06-12,1.0700000524520874,1.1299999952316284,1.0700000524520874,1.1100000143051147,13419160,0.0,0
2020-06-15,1.100000023841858,1.1299999952316284,1.090000033378601,1.1200000047683716,8160702,0.0,0
2020-06-16,1.1299999952316284,1.1399999856948853,1.1100000143051147,1.1200000047683716,5652000,0.0,0
2020-06-17,1.1299999952316284,1.1399999856948853,1.100000023841858,1.1200000047683716,2477248,0.0,0
2020-06-18,1.1299999952316284,1.159999966621399,1.1200000047683716,1.159999966621399,8963116,0.0,0
2020-06-19,1.1699999570846558,1.190000057220459,1.149999976158142,1.1699999570846558,21286766,0.0,0
2020-06-22,1.1699999570846558,1.1699999570846558,1.1200000047683716,1.1399999856948853,6244000,0.0,0
2020-06-23,1.100000023841858,1.149999976158142,1.0800000429153442,1.1200000047683716,8563250,0.0,0
2020-06-24,1.1299999952316284,1.159999966621399,1.100000023841858,1.1399999856948853,6593000,0.0,0
2020-06-26,1.1299999952316284,1.1399999856948853,1.1100000143051147,1.1100000143051147,7953556,0.0,0
2020-06-29,1.100000023841858,1.1200000047683716,1.100000023841858,1.1100000143051147,3779000,0.0,0
2020-06-30,1.1200000047683716,1.1399999856948853,1.100000023841858,1.1299999952316284,10247000,0.0,0
2020-07-02,1.1299999952316284,1.1399999856948853,1.100000023841858,1.100000023841858,7726000,0.0,0
2020-07-03,1.100000023841858,1.1100000143051147,1.090000033378601,1.100000023841858,4858058,0.0,0
2020-07-06,1.1100000143051147,1.1299999952316284,1.0800000429153442,1.1200000047683716,13085000,0.0,0
2020-07-07,1.1299999952316284,1.1299999952316284,1.059999942779541,1.059999942779541,15584710,0.0,0
2020-07-08,1.0800000429153442,1.090000033378601,1.0399999618530273,1.0499999523162842,18616260,0.0,0
2020-07-09,1.059999942779541,1.0700000524520874,1.0399999618530273,1.0399999618530273,29854000,0.0,0
2020-07-10,1.0299999713897705,1.0299999713897705,0.9900000095367432,1.0099999904632568,11353000,0.0,0
2020-07-13,0.9900000095367432,1.0099999904632568,0.9800000190734863,0.9900000095367432,8557540,0.0,0
2020-07-14,0.9800000190734863,1.0,0.9800000190734863,0.9900000095367432,18992000,0.0,0
2020-07-15,0.9900000095367432,1.0,0.949999988079071,0.9800000190734863,21092880,0.0,0
2020-07-16,1.0,1.0,0.9700000286102295,0.9900000095367432,16802670,0.0,0
2020-07-17,0.9900000095367432,0.9900000095367432,0.9599999785423279,0.9700000286102295,4602000,0.0,0
2020-07-20,0.9700000286102295,0.9800000190734863,0.9300000071525574,0.949999988079071,6535711,0.0,0
2020-07-21,0.9399999976158142,0.9700000286102295,0.9399999976158142,0.949999988079071,7108508,0.0,0
2020-07-22,0.949999988079071,0.9800000190734863,0.949999988079071,0.9700000286102295,7484000,0.0,0
2020-07-23,0.9800000190734863,0.9800000190734863,0.9399999976158142,0.9399999976158142,5574000,0.0,0
2020-07-24,0.9399999976158142,0.9399999976158142,0.9200000166893005,0.9300000071525574,5358000,0.0,0
2020-07-27,0.9399999976158142,0.9399999976158142,0.8999999761581421,0.9300000071525574,9017000,0.0,0
2020-07-28,0.9399999976158142,0.9700000286102295,0.9200000166893005,0.9200000166893005,6784512,0.0,0
2020-07-29,0.9399999976158142,0.9599999785423279,0.9200000166893005,0.949999988079071,2378800,0.0,0
2020-07-30,0.949999988079071,0.9800000190734863,0.9399999976158142,0.9399999976158142,7980000,0.0,0
2020-07-31,0.9399999976158142,0.9700000286102295,0.9300000071525574,0.949999988079071,12793170,0.0,0
2020-08-03,0.9700000286102295,0.9700000286102295,0.949999988079071,0.9599999785423279,1400811,0.0,0
2020-08-04,0.9599999785423279,0.9599999785423279,0.9399999976158142,0.9599999785423279,4962408,0.0,0
2020-08-05,0.9599999785423279,1.0299999713897705,0.9599999785423279,1.0199999809265137,15127400,0.0,0
2020-08-06,1.0299999713897705,1.0499999523162842,1.0099999904632568,1.0399999618530273,10375000,0.0,0
2020-08-07,1.0299999713897705,1.0299999713897705,1.0,1.0299999713897705,7257382,0.0,0
2020-08-10,1.0499999523162842,1.0499999523162842,1.0199999809265137,1.0199999809265137,7256000,0.0,0
2020-08-11,1.0199999809265137,1.0399999618530273,1.0099999904632568,1.0399999618530273,6370000,0.0,0
2020-08-12,1.0399999618530273,1.0499999523162842,1.0199999809265137,1.0399999618530273,5441000,0.0,0
2020-08-13,1.0499999523162842,1.100000023841858,1.0399999618530273,1.100000023841858,10103000,0.0,0
2020-08-14,1.100000023841858,1.1200000047683716,1.0800000429153442,1.090000033378601,10613000,0.0,0
2020-08-17,1.090000033378601,1.25,1.0800000429153442,1.2300000190734863,35622000,0.0,0
2020-08-18,1.2200000286102295,1.2300000190734863,1.1799999475479126,1.2000000476837158,14390530,0.0,0
2020-08-19,1.2200000286102295,1.2200000286102295,1.1699999570846558,1.1699999570846558,3685000,0.0,0
2020-08-20,1.1699999570846558,1.1799999475479126,1.149999976158142,1.1699999570846558,6114000,0.0,0
2020-08-21,1.1799999475479126,1.2000000476837158,1.149999976158142,1.1799999475479126,4382486,0.0,0
2020-08-24,1.159999966621399,1.2000000476837158,1.1200000047683716,1.1299999952316284,10015010,0.0,0
2020-08-25,1.1200000047683716,1.1399999856948853,1.100000023841858,1.1299999952316284,8013187,0.0,0
2020-08-26,1.1299999952316284,1.1399999856948853,1.1200000047683716,1.1299999952316284,2403000,0.0,0
2020-08-27,1.1299999952316284,1.1299999952316284,1.1100000143051147,1.1299999952316284,1321000,0.0,0
2020-08-28,1.1299999952316284,1.1799999475479126,1.1299999952316284,1.149999976158142,9762000,0.0,0
2020-08-31,1.1399999856948853,1.159999966621399,1.1200000047683716,1.1299999952316284,8086423,0.0,0
2020-09-01,1.1399999856948853,1.149999976158142,1.100000023841858,1.1200000047683716,5195000,0.0,0
2020-09-02,1.1200000047683716,1.1200000047683716,1.090000033378601,1.1100000143051147,2575860,0.0,0
2020-09-03,1.1200000047683716,1.1200000047683716,1.0499999523162842,1.090000033378601,7326500,0.0,0
2020-09-04,1.0700000524520874,1.090000033378601,1.0499999523162842,1.090000033378601,10263000,0.0,0
2020-09-07,1.0800000429153442,1.0800000429153442,1.0399999618530273,1.059999942779541,3077457,0.0,0
2020-09-08,1.0700000524520874,1.100000023841858,1.059999942779541,1.090000033378601,4735000,0.0,0
2020-09-09,1.0800000429153442,1.1200000047683716,1.059999942779541,1.1100000143051147,3776256,0.0,0
2020-09-10,1.1200000047683716,1.1699999570846558,1.090000033378601,1.159999966621399,12045790,0.0,0
2020-09-11,1.149999976158142,1.149999976158142,1.1299999952316284,1.1399999856948853,2773000,0.0,0
2020-09-14,1.1399999856948853,1.1399999856948853,1.1100000143051147,1.1299999952316284,1510028,0.0,0
2020-09-15,1.1299999952316284,1.1399999856948853,1.100000023841858,1.1200000047683716,5921467,0.0,0
2020-09-16,1.1299999952316284,1.1299999952316284,1.100000023841858,1.1200000047683716,1552960,0.0,0
2020-09-17,1.1299999952316284,1.1399999856948853,1.100000023841858,1.1399999856948853,3195000,0.0,0
2020-09-18,1.1399999856948853,1.1399999856948853,1.1100000143051147,1.1299999952316284,5831486,0.0,0
2020-09-21,1.1200000047683716,1.1299999952316284,1.1100000143051147,1.1299999952316284,835000,0.0,0
2020-09-22,1.1299999952316284,1.1399999856948853,1.1200000047683716,1.1299999952316284,3189000,0.0,0
2020-09-23,1.1399999856948853,1.149999976158142,1.1200000047683716,1.1399999856948853,6050742,0.0,0
2020-09-24,1.1299999952316284,1.190000057220459,1.1200000047683716,1.149999976158142,12467000,0.0,0
2020-09-25,1.1699999570846558,1.1799999475479126,1.1399999856948853,1.149999976158142,6993209,0.0,0
2020-09-28,1.159999966621399,1.2100000381469727,1.149999976158142,1.2000000476837158,9600121,0.0,0
2020-09-29,1.2000000476837158,1.25,1.190000057220459,1.2400000095367432,14273260,0.0,0
2020-09-30,1.2400000095367432,1.2400000095367432,1.1699999570846558,1.190000057220459,8447799,0.0,0
2020-10-05,1.190000057220459,1.25,1.1699999570846558,1.25,7479335,0.0,0
2020-10-06,1.2400000095367432,1.2799999713897705,1.2400000095367432,1.2599999904632568,6421608,0.0,0
2020-10-07,1.25,1.2799999713897705,1.2300000190734863,1.2400000095367432,5303000,0.0,0
2020-10-08,1.2400000095367432,1.2599999904632568,1.2200000286102295,1.2599999904632568,7897008,0.0,0
2020-10-09,1.2899999618530273,1.3200000524520874,1.2599999904632568,1.2699999809265137,15581220,0.0,0
2020-10-12,1.2799999713897705,1.2899999618530273,1.2400000095367432,1.25,4063354,0.0,0
2020-10-14,1.2699999809265137,1.2699999809265137,1.1799999475479126,1.2100000381469727,11756560,0.0,0
2020-10-15,1.2100000381469727,1.2100000381469727,1.149999976158142,1.1699999570846558,5878000,0.0,0
2020-10-16,1.1799999475479126,1.2000000476837158,1.149999976158142,1.1799999475479126,4858090,0.0,0
2020-10-19,1.1799999475479126,1.2000000476837158,1.1799999475479126,1.2000000476837158,1816000,0.0,0
2020-10-20,1.2100000381469727,1.2400000095367432,1.190000057220459,1.2400000095367432,14924000,0.0,0
2020-10-21,1.2300000190734863,1.3200000524520874,1.2300000190734863,1.2599999904632568,19495000,0.0,0
2020-10-22,1.2599999904632568,1.2799999713897705,1.25,1.2699999809265137,5327000,0.0,0
2020-10-23,1.2799999713897705,1.2999999523162842,1.2699999809265137,1.2799999713897705,7219000,0.0,0
2020-10-27,1.2799999713897705,1.2899999618530273,1.2599999904632568,1.2699999809265137,9645390,0.0,0
2020-10-28,1.2799999713897705,1.2799999713897705,1.2400000095367432,1.2599999904632568,9282600,0.0,0
2020-10-29,1.2599999904632568,1.2599999904632568,1.2000000476837158,1.2100000381469727,2957983,0.0,0
2020-10-30,1.2100000381469727,1.2100000381469727,1.090000033378601,1.1299999952316284,16717720,0.0,0
2020-11-02,1.1299999952316284,1.149999976158142,1.1299999952316284,1.1299999952316284,14660390,0.0,0
2020-11-03,1.1399999856948853,1.190000057220459,1.1399999856948853,1.149999976158142,15739000,0.0,0
2020-11-04,1.1699999570846558,1.1699999570846558,1.149999976158142,1.159999966621399,11366000,0.0,0
2020-11-05,1.159999966621399,1.190000057220459,1.159999966621399,1.159999966621399,10837000,0.0,0
2020-11-06,1.159999966621399,1.2300000190734863,1.159999966621399,1.2200000286102295,14284000,0.0,0
2020-11-09,1.2300000190734863,1.350000023841858,1.2300000190734863,1.340000033378601,37134000,0.0,0
2020-11-10,1.3600000143051147,1.3899999856948853,1.2799999713897705,1.2999999523162842,20672000,0.0,0
2020-11-11,1.2999999523162842,1.309999942779541,1.159999966621399,1.159999966621399,36532000,0.0,0
2020-11-12,1.1799999475479126,1.2000000476837158,1.1699999570846558,1.1799999475479126,8537900,0.0,0
2020-11-13,1.190000057220459,1.2000000476837158,1.149999976158142,1.1799999475479126,7908000,0.0,0
2020-11-16,1.2000000476837158,1.25,1.2000000476837158,1.2400000095367432,11251560,0.0,0
2020-11-17,1.2599999904632568,1.2899999618530273,1.2100000381469727,1.2799999713897705,14912880,0.0,0
2020-11-18,1.2799999713897705,1.3300000429153442,1.2599999904632568,1.2699999809265137,11973300,0.0,0
2020-11-19,1.2899999618530273,1.2999999523162842,1.2699999809265137,1.2799999713897705,11506330,0.0,0
2020-11-20,1.2899999618530273,1.340000033378601,1.2799999713897705,1.3300000429153442,30458600,0.0,0
2020-11-23,1.350000023841858,1.3700000047683716,1.309999942779541,1.3200000524520874,14097000,0.0,0
2020-11-24,1.3300000429153442,1.350000023841858,1.2899999618530273,1.309999942779541,17461000,0.0,0
2020-11-25,1.3300000429153442,1.4299999475479126,1.3200000524520874,1.3300000429153442,49488000,0.0,0
2020-11-26,1.340000033378601,1.350000023841858,1.2799999713897705,1.2899999618530273,15781360,0.0,0
2020-11-27,1.2799999713897705,1.2999999523162842,1.2599999904632568,1.2599999904632568,11722930,0.0,0
2020-11-30,1.2899999618530273,1.3300000429153442,1.2699999809265137,1.2699999809265137,19963110,0.0,0
2020-12-01,1.2799999713897705,1.3300000429153442,1.2699999809265137,1.309999942779541,23064820,0.0,0
2020-12-02,1.3200000524520874,1.399999976158142,1.309999942779541,1.3700000047683716,68866000,0.0,0
2020-12-03,1.3600000143051147,1.399999976158142,1.350000023841858,1.3700000047683716,50594000,0.0,0
2020-12-04,1.3700000047683716,1.3799999952316284,1.350000023841858,1.3700000047683716,20729170,0.0,0
2020-12-07,1.3700000047683716,1.4199999570846558,1.3600000143051147,1.3700000047683716,22588000,0.0,0
