Date,Open,High,Low,Close,Volume,Dividends,Stock Splits
2020-01-02,9.959344863891602,10.14761207443486,9.921691421782949,9.959344863891602,217702,0.0,0
2020-01-03,9.959345347510064,10.07230567932129,9.959345347510064,10.072305679321289,612000,0.0,0
2020-01-06,10.166439244353622,10.166439244353622,9.808731095456993,9.959344863891602,428400,0.0,0
2020-01-07,9.789904655492144,9.978172777801907,9.789904655492144,9.940519332885742,94400,0.0,0
2020-01-08,9.884037500573427,10.015824990430117,9.771077179722903,9.921690940856934,507600,0.0,0
2020-01-09,9.978171830265884,10.072304984752858,9.978171830265884,10.015825271606445,292648,0.0,0
2020-01-10,9.9781723083518,10.10995891049365,9.9781723083518,10.053479194641113,598000,0.0,0
2020-01-13,10.053478942243382,10.279399595439466,10.015825500044034,10.18526554107666,387328,0.0,0
2020-01-14,10.22291923367215,10.22291923367215,9.978172302246094,9.978172302246094,248400,0.0,0
2020-01-15,10.091132631610943,10.091132631610943,9.84638480245599,9.978172302246094,496480,0.0,0
2020-01-16,9.884037979674297,9.978172033810363,9.884037979674297,9.959344863891602,118000,0.0,0
2020-01-17,9.996999058955456,10.1664400100708,9.959345614010816,10.1664400100708,241356,0.0,0
2020-01-20,10.16644000754636,10.2982266159554,10.072305946343667,10.091133117675781,180800,0.0,0
2020-01-21,9.996998777677074,9.996998777677074,9.80873155825102,9.84638500213623,303200,0.0,0
2020-01-22,9.808731284502695,9.94051878328738,9.67694378571801,9.752250671386719,156800,0.0,0
2020-01-23,9.695770263671875,9.90286463333767,9.67694309473461,9.695770263671875,531200,0.0,0
2020-01-24,9.676943792341236,9.82755756378174,9.676943792341236,9.827557563781738,103013,0.0,0
2020-01-29,9.752250441818024,9.752250441818024,9.394542294447687,9.582810401916504,395277,0.0,0
2020-01-30,9.563984182868204,9.563984182868204,9.469851017504546,9.5075044631958,294800,0.0,0
2020-01-31,9.375715862100334,9.488676186013729,9.338062420795868,9.3474760055542,866400,0.0,0
2020-02-03,9.319235717677177,9.319235717677177,9.18744911538048,9.234516143798828,173254,0.0,0
2020-02-04,9.290996418131657,9.347477035174093,9.21568952722771,9.281582832336426,519072,0.0,0
2020-02-05,9.563982963562012,9.582810132871854,9.319235148907124,9.563982963562012,990568,0.0,0
2020-02-06,9.601636682475403,9.789903892381025,9.601636682475403,9.658117294311523,254401,0.0,0
2020-02-07,9.60163735554943,9.639290800170057,9.309823384171796,9.413370132446289,532272,0.0,0
2020-02-10,9.309823119401498,9.432197035370471,9.309823119401498,9.394542694091797,162000,0.0,0
2020-02-11,9.375716687825662,9.469850748241697,9.375716687825662,9.413370132446289,476400,0.0,0
2020-02-12,9.52633047565859,9.658117980824608,9.394542970492573,9.639290809631348,1069932,0.0,0
2020-02-13,9.695770935461786,9.771077820970978,9.52632999420166,9.52632999420166,471200,0.0,0
2020-02-14,9.58281135457831,9.601637628559457,9.5075044631958,9.5075044631958,229600,0.0,0
2020-02-17,9.545156691981013,9.601636404452853,9.507503251090172,9.563982963562012,239012,0.0,0
2020-02-18,9.58281135457831,9.58281135457831,9.5075044631958,9.5075044631958,426800,0.0,0
2020-02-19,9.545157908887056,9.601637628559457,9.469851017504546,9.5075044631958,178000,0.0,0
2020-02-20,9.676943557922044,9.676943557922044,9.413369464286117,9.582810401916504,383040,0.0,0
2020-02-21,9.451023580208167,9.488677024841309,9.432197306756061,9.488677024841309,80000,0.0,0
2020-02-24,9.432197030010801,9.451023302910533,9.319235801696777,9.319235801696777,313292,0.0,0
2020-02-25,9.319235935424622,9.36630296494271,9.309823247704141,9.328649520874023,168800,0.0,0
2020-02-26,9.27216870864056,9.375715443168886,9.243927955627441,9.243927955627441,395200,0.0,0
2020-02-27,9.432196472921458,9.432196472921458,9.262755538186939,9.3474760055542,229600,0.0,0
2020-02-28,9.545156707569642,9.545156707569642,9.121554374694824,9.121554374694824,642400,0.0,0
2020-03-02,9.187449448690888,9.281582611213734,9.018008499329262,9.036835670471191,694411,0.0,0
2020-03-03,9.168622625497454,9.168622625497454,8.895634917682155,8.914462089538574,800418,0.0,0
2020-03-04,8.886220372572016,8.886220372572016,8.801500801549695,8.839154243469238,836400,0.0,0
2020-03-05,8.914461347983057,9.027421676537985,8.867394319986282,8.933287620544434,1012000,0.0,0
2020-03-06,8.8956336756257,8.8956336756257,8.745019912719727,8.745019912719727,400640,0.0,0
2020-03-09,8.660299748885887,8.660299748885887,8.359072212561502,8.39672565460205,865200,0.0,0
2020-03-10,8.377899169921875,8.424966200754257,8.189631944321295,8.377899169921875,376400,0.0,0
2020-03-11,8.406140194775574,8.472033501402096,8.246112823486328,8.246112823486328,374800,0.0,0
2020-03-12,8.208458126335351,8.208458126335351,7.991950169694866,8.001363754272461,341480,0.0,0
2020-03-13,7.747203004573994,7.803683619031463,7.436562318244651,7.718963146209717,1805904,0.0,0
2020-03-16,7.756616186480923,7.756616186480923,7.417735210549612,7.464801788330078,619395,0.0,0
2020-03-17,7.474215844475929,7.474215844475929,7.351841926574707,7.351841926574707,438399,0.0,0
2020-03-18,7.5306955973307295,7.5306955973307295,7.060027122497559,7.060027122497559,499850,0.0,0
2020-03-19,7.060027122497559,7.060027122497559,5.986903125559972,6.354024410247803,2610352,0.0,0
2020-03-20,6.485811601026133,6.542291765392079,6.335197829383611,6.438745021820068,1766000,0.0,0
2020-03-23,6.306957857800885,6.457572086308645,6.08103718833595,6.391678333282471,912906,0.0,0
2020-03-24,6.579945324540584,6.655252660556631,6.532878744503065,6.5611186027526855,955456,0.0,0
2020-03-25,6.777626021538903,6.994133543139241,6.5893588066101065,6.589358806610107,3317600,0.0,0
2020-03-26,6.504638564293181,6.589359038423829,6.4387452611821985,6.457571983337402,2153920,0.0,0
2020-03-27,6.636425582969006,6.636425582969006,6.410504484762116,6.495224952697754,2160883,0.0,0
2020-03-30,6.495225393215374,6.495225393215374,6.259891143090646,6.344611167907715,1225601,0.0,0
2020-03-31,6.485811457519048,6.504638178557798,6.288130662179962,6.354024410247803,1289023,0.0,0
2020-04-01,6.288130763704948,6.372851234179392,6.184584020752231,6.325784206390381,1048224,0.0,0
2020-04-02,6.259890667740815,6.344610686124602,6.193996921118381,6.306957244873047,939600,0.0,0
2020-04-03,6.382264815718319,6.391677951952198,6.26930403886067,6.288130760192871,1297600,0.0,0
2020-04-06,6.288131135345474,6.429331778193293,6.278717998550003,6.391678333282471,1152800,0.0,0
2020-04-07,6.495224966381082,6.645838732926683,6.457571524744682,6.608185291290283,2215600,0.0,0
2020-04-08,6.721145869871382,6.768212898125518,6.589358819170027,6.7399725914001465,1442400,0.0,0
2020-04-09,6.78703952748463,6.909413440191959,6.730559363665349,6.881173133850098,1670400,0.0,0
2020-04-14,6.871760153696712,7.220054729590593,6.824693125012912,7.191814422607422,1280000,0.0,0
2020-04-15,7.2106411357631295,7.229467857441449,6.99413361203023,7.078854084014893,872322,0.0,0
2020-04-16,6.871759887253801,6.909413329195101,6.683492228682866,6.8341064453125,980000,0.0,0
2020-04-17,6.871759916098934,7.135334010794423,6.871759916098934,7.097680568695068,1314408,0.0,0
2020-04-20,7.088267660613944,7.088267660613944,6.965893745422363,6.965893745422363,734000,0.0,0
2020-04-21,6.918826568972434,6.918826568972434,6.777625935143519,6.805866241455078,1040406,0.0,0
2020-04-22,6.777626037597656,6.787039622798623,6.636425850498726,6.777626037597656,694800,0.0,0
2020-04-23,6.7117328667724125,6.79645289090139,6.6834925594864485,6.749386310577393,622907,0.0,0
2020-04-24,6.739972827083756,6.758799549270854,6.655252801674044,6.683492660522461,312000,0.0,0
2020-04-27,6.758799112565466,6.965893492107051,6.758799112565466,6.8341064453125,290156,0.0,0
2020-04-28,6.9094135804565076,7.012960325128351,6.8435198302307825,6.965893745422363,686000,0.0,0
2020-04-29,7.022373692520565,7.182401046057902,6.975306665410371,7.172987461090088,1144400,0.0,0
2020-05-04,7.041200726980346,7.041200726980346,6.711732869138395,6.787039756774902,866800,0.0,0
2020-05-05,7.003547426010314,7.09768103747595,6.871760369958424,6.909413814544678,412800,0.0,0
2020-05-06,6.871759997645772,6.937653297669378,6.78703952748463,6.881173133850098,668000,0.0,0
2020-05-07,6.862346512092672,6.862346512092672,6.777626040702939,6.815279483795166,365953,0.0,0
2020-05-08,6.824693339793373,6.96589398142406,6.824693339793373,6.909413814544678,301600,0.0,0
2020-05-11,7.031787052549795,7.097680802829553,7.012960330879071,7.041200637817383,755255,0.0,0
2020-05-12,6.900000335332229,6.956480503082275,6.862346890165531,6.956480503082275,763200,0.0,0
2020-05-13,6.87175989151001,6.909413333474632,6.787039422657393,6.87175989151001,354800,0.0,0
2020-05-14,6.871759752068164,6.871759752068164,6.777625700202345,6.824692726135254,600884,0.0,0
2020-05-15,6.787039862446097,6.852933614586206,6.7776262769127396,6.79645299911499,399050,0.0,0
2020-05-18,6.805866378318878,6.871760128461325,6.777626071439416,6.852933406829834,259200,0.0,0
2020-05-19,6.918826232262992,6.918826232262992,6.79645232564238,6.8905863761901855,1134808,0.0,0
2020-05-20,6.824693200593157,6.862346644411411,6.777626171388111,6.787039756774902,653690,0.0,0
2020-05-21,6.787039622798623,6.862346508948572,6.758799316060169,6.777626037597656,438176,0.0,0
2020-05-22,6.7305596790200894,6.7305596790200894,6.269304312920901,6.457571983337402,1405392,0.0,0
2020-05-25,6.3822650608829745,6.3822650608829745,6.184584254869047,6.344611167907715,858000,0.0,0
2020-05-26,6.457571515727619,6.570531840479086,6.438744794935706,6.532878398895264,668107,0.0,0
2020-05-27,6.664666037273196,6.664666037273196,6.419918645207608,6.504638671875,334063,0.0,0
2020-05-28,6.542291629020092,6.56111835008297,6.3634380033549665,6.429331302642822,455540,0.0,0
2020-05-29,6.4105045856161365,6.532878497034113,6.382264728436256,6.466984748840332,408800,0.0,0
2020-06-01,6.589358812961026,6.683492420516152,6.5328786484279515,6.664665699005127,855600,0.0,0
2020-06-02,6.758798979602066,6.89999960853637,6.68349209720095,6.824692726135254,3225959,0.0,0
2020-06-03,6.953274749258413,6.953274749258413,6.795020669418789,6.864256858825684,940400,0.35,0
2020-06-04,6.933493102003012,6.933493102003012,6.725785003804468,6.854365825653076,846000,0.0,0
2020-06-05,6.88403818709503,7.151091372299883,6.854365401346522,7.10163688659668,2090800,0.0,0
2020-06-08,7.0422920391315476,7.279672918728662,7.0422920391315476,7.141200542449951,1949600,0.0,0
2020-06-09,7.1807645054328475,7.220327907256201,7.111528316425504,7.210436820983887,1472400,0.0,0
2020-06-10,7.210436677173968,7.220327763249008,7.091746474071148,7.151091575622559,553600,0.0,0
2020-06-11,7.091746687862694,7.091746687862694,6.9038202914680955,6.943383693695068,812000,0.0,0
2020-06-12,6.893928971573448,6.893928971573448,6.64665748021434,6.814802169799805,883200,0.0,0
2020-06-15,6.755457289692483,6.874147496239732,6.6862215716897335,6.775238990783691,731920,0.0,0
2020-06-16,6.824693456774017,6.973056450284247,6.824693456774017,6.864256858825684,637776,0.0,0
2020-06-17,6.943383361716203,7.022510162386917,6.884038261213168,7.002728462219238,1413600,0.0,0
2020-06-18,7.0027286315281865,7.0225103321741384,6.8840384276524755,6.973056316375732,589613,0.0,0
2020-06-19,6.93349299901915,7.0521832043316985,6.884038510989113,7.04229211807251,810419,0.0,0
2020-06-22,7.022510528564452,7.052183316179677,6.8939292349534105,7.022510528564453,584096,0.0,0
2020-06-23,6.93349299901915,7.0521832043316985,6.735675518531952,7.04229211807251,892480,0.0,0
2020-06-24,7.071964936327256,7.210436843134378,7.062073850024556,7.1214189529418945,2128092,0.0,0
2020-06-26,7.111528338272148,7.200546228464632,7.032401534382364,7.1214189529418945,1919760,0.0,0
2020-06-29,6.973056458588881,7.121418980642851,6.884038568050135,7.0324015617370605,789952,0.0,0
2020-06-30,7.062073562722273,7.07196464862258,6.98294676205156,7.002728462219238,636000,0.0,0
2020-07-02,6.982946823744624,7.447817489241515,6.982946823744624,7.418144702911377,1844400,0.0,0
2020-07-03,7.418144925768726,7.586289619547424,7.269781932926762,7.378581523895264,1329600,0.0,0
2020-07-06,7.52694445697382,7.8632333702281505,7.418144866869179,7.813779354095459,2042400,0.0,0
2020-07-07,7.9225790725355,7.962142474735709,7.536835193634034,7.536835193634033,1018000,0.0,0
2020-07-08,7.507162869910816,7.576398587871941,7.250000284246767,7.368690490722656,1049840,0.0,0
2020-07-09,7.497271392562456,7.596179892800826,7.4181445923717595,7.437926292419434,567675,0.0,0
2020-07-10,7.418145007602508,7.4379267087574625,7.170873507349091,7.279673099517822,659600,0.0,0
2020-07-13,7.3192363898782675,7.3192363898782675,7.190655098521263,7.299454689025879,398264,0.0,0
2020-07-14,7.200545898368813,7.269781612781912,7.131309712322781,7.180764198303223,364800,0.0,0
2020-07-15,7.319236299039371,7.348908614133217,7.160982222551395,7.230218410491943,636481,0.0,0
2020-07-16,7.1807645054328475,7.33901811272626,7.1807645054328475,7.210436820983887,678400,0.0,0
2020-07-17,7.17087334049858,7.339018032219818,7.17087334049858,7.309345245361328,454000,0.0,0
2020-07-20,7.28956351231258,7.3093452129194585,7.220327796004976,7.230218410491943,692961,0.0,0
2020-07-21,7.3489083895170975,7.3489083895170975,7.220327575318873,7.269781589508057,1368000,0.0,0
2020-07-22,7.3390182264284425,7.3390182264284425,7.180764616683233,7.19065523147583,228401,0.0,0
2020-07-23,7.190654830841198,7.190654830841198,7.012619529797256,7.0917463302612305,457610,0.0,0
2020-07-24,7.042292229763616,7.091746718578004,6.963165424966962,7.022510528564453,401724,0.0,0
2020-07-27,7.022510444418666,7.081855547305065,6.8840385376837325,6.953274726867676,343973,0.0,0
2020-07-28,6.874147089130517,7.02251007434452,6.874147089130517,6.933492660522461,306345,0.0,0
2020-07-29,6.864256689678096,6.973056278455642,6.854365603592435,6.8939290046691895,304800,0.0,0
2020-07-30,6.8741473621645754,7.012619738735188,6.8741473621645754,6.88403844833374,241600,0.0,0
2020-07-31,6.953274413271272,6.953274413271272,6.804911426930046,6.9236016273498535,314746,0.0,0
2020-08-03,6.9236019031223295,6.963165304838107,6.8345840134453555,6.874147415161133,269355,0.0,0
2020-08-04,6.844474860877811,7.002728462219238,6.804911460542454,7.002728462219238,509360,0.0,0
2020-08-05,7.002728674095368,7.240109554922692,6.893929084064805,7.220327854156494,1068400,0.0,0
2020-08-06,7.259891144126766,7.289563459003617,7.091746454381473,7.240109443664551,1260480,0.0,0
2020-08-07,7.289563459003617,7.289563459003617,7.121418769258324,7.240109443664551,729248,0.0,0
2020-08-10,7.230218540337542,7.309345344186075,6.953274726867676,6.953274726867676,504000,0.0,0
2020-08-11,7.151091665658327,7.339018058753682,7.071964862593535,7.220327854156494,1962800,0.0,0
2020-08-12,7.2302184839939665,7.734652562046847,7.2302184839939665,7.55661678314209,2580000,0.0,0
2020-08-13,7.714870902625882,7.833561108110477,7.625853012695959,7.803888320922852,1312104,0.0,0
2020-08-14,7.803888099234661,7.863233200291118,7.536834908664134,7.843451499938965,1311440,0.0,0
2020-08-17,7.73465226346147,7.843451377888841,7.68519777753417,7.695088863372803,541600,0.0,0
2020-08-18,7.645634414008354,7.645634414008354,7.447817412619017,7.517053127288818,740000,0.0,0
2020-08-19,7.566507816314697,7.665416319661155,7.46759931296824,7.566507816314697,133200,0.0,0
2020-08-20,7.4774898953367215,7.55661669767368,7.398363092999763,7.4873809814453125,1933200,0.0,0
2020-08-21,7.4379265146809095,7.497271616597293,7.378581412764526,7.39836311340332,500800,0.0,0
2020-08-24,7.497271616597293,7.497271616597293,7.2598912089317595,7.39836311340332,390000,0.0,0
2020-08-25,7.329126892993194,7.3785813801883124,7.279672877431018,7.3192362785339355,165968,0.0,0
2020-08-26,7.319236411814583,7.319236411814583,7.170873419160533,7.210436820983887,597200,0.0,0
2020-08-27,7.309345271787911,7.418144861818474,7.220327854156494,7.220327854156494,839600,0.0,0
2020-08-28,7.190654772120743,7.467599043115999,7.190654772120743,7.358799457550049,814384,0.0,0
2020-08-31,7.279673041171546,7.467599436453876,7.279673041171546,7.2895636558532715,592975,0.0,0
2020-09-01,7.230218580439738,7.25000028151159,7.15109177615233,7.2005462646484375,1649200,0.0,0
2020-09-02,7.180764303947568,7.180764303947568,7.091746416526304,7.160982131958008,321200,0.0,0
2020-09-03,7.121418731244766,7.269781719735894,7.121418731244766,7.160982131958008,276800,0.0,0
2020-09-04,7.160982131958009,7.2302183190226526,7.081855330531524,7.160982131958008,432389,0.0,0
2020-09-07,7.348908521162379,7.3587996071571595,7.160982131958009,7.160982131958008,338592,0.0,0
2020-09-08,7.269781700303744,7.269781700303744,7.141200412512935,7.25,242000,0.0,0
2020-09-09,7.25,7.269999980926514,7.190000057220459,7.25,287600,0.08,0
2020-09-10,7.289999961853027,7.289999961853027,7.119999885559082,7.230000019073486,348794,0.0,0
2020-09-11,7.150000095367432,7.21999979019165,7.119999885559082,7.199999809265137,331400,0.0,0
2020-09-14,7.289999961853027,7.289999961853027,7.090000152587891,7.159999847412109,388016,0.0,0
2020-09-15,7.230000019073486,7.230000019073486,7.119999885559082,7.199999809265137,375600,0.0,0
2020-09-16,7.199999809265137,7.289999961853027,7.179999828338623,7.210000038146973,416077,0.0,0
2020-09-17,7.210000038146973,7.230000019073486,7.130000114440918,7.170000076293945,139200,0.0,0
2020-09-18,7.170000076293945,7.190000057220459,6.929999828338623,6.929999828338623,1859024,0.0,0
2020-09-21,7.010000228881836,7.010000228881836,6.900000095367432,6.900000095367432,940800,0.0,0
2020-09-22,6.900000095367432,6.940000057220459,6.849999904632568,6.920000076293945,347923,0.0,0
2020-09-23,6.869999885559082,6.949999809265137,6.840000152587891,6.869999885559082,258560,0.0,0
2020-09-24,6.820000171661377,6.840000152587891,6.539999961853027,6.559999942779541,807200,0.0,0
2020-09-25,6.679999828338623,6.760000228881836,6.480000019073486,6.670000076293945,419200,0.0,0
2020-09-28,6.679999828338623,6.769999980926514,6.599999904632568,6.769999980926514,492256,0.0,0
2020-09-29,6.769999980926514,6.860000133514404,6.619999885559082,6.639999866485596,334400,0.0,0
2020-09-30,6.760000228881836,6.860000133514404,6.599999904632568,6.710000038146973,387200,0.0,0
2020-10-05,6.739999771118164,6.920000076293945,6.659999847412109,6.789999961853027,646202,0.0,0
2020-10-06,6.820000171661377,6.909999847412109,6.75,6.909999847412109,612000,0.0,0
2020-10-07,6.78000020980835,6.889999866485596,6.769999980926514,6.78000020980835,669600,0.0,0
2020-10-08,6.860000133514404,6.940000057220459,6.840000152587891,6.929999828338623,424800,0.0,0
2020-10-09,6.809999942779541,6.920000076293945,6.800000190734863,6.800000190734863,301200,0.0,0
2020-10-12,7.139999866485596,7.139999866485596,6.869999885559082,6.900000095367432,331600,0.0,0
2020-10-14,6.900000095367432,6.900000095367432,6.820000171661377,6.880000114440918,292400,0.0,0
2020-10-15,6.820000171661377,6.869999885559082,6.800000190734863,6.820000171661377,152400,0.0,0
2020-10-16,6.820000171661377,6.900000095367432,6.820000171661377,6.849999904632568,175200,0.0,0
2020-10-19,6.889999866485596,6.920000076293945,6.869999885559082,6.869999885559082,176000,0.0,0
2020-10-20,6.900000095367432,6.900000095367432,6.730000019073486,6.769999980926514,165200,0.0,0
2020-10-21,6.889999866485596,6.889999866485596,6.760000228881836,6.769999980926514,140360,0.0,0
2020-10-22,6.849999904632568,6.849999904632568,6.760000228881836,6.769999980926514,428400,0.0,0
2020-10-23,6.840000152587891,6.929999828338623,6.809999942779541,6.809999942779541,303200,0.0,0
2020-10-27,6.860000133514404,6.860000133514404,6.670000076293945,6.760000228881836,315800,0.0,0
2020-10-28,6.849999904632568,6.849999904632568,6.630000114440918,6.769999980926514,268000,0.0,0
2020-10-29,6.789999961853027,6.800000190734863,6.659999847412109,6.769999980926514,222000,0.0,0
2020-10-30,6.769999980926514,6.769999980926514,6.659999847412109,6.659999847412109,171286,0.0,0
2020-11-02,6.75,6.800000190734863,6.639999866485596,6.659999847412109,120000,0.0,0
2020-11-03,6.849999904632568,6.900000095367432,6.71999979019165,6.789999961853027,173600,0.0,0
2020-11-04,6.800000190734863,6.849999904632568,6.710000038146973,6.78000020980835,151248,0.0,0
2020-11-05,6.849999904632568,6.880000114440918,6.78000020980835,6.800000190734863,593114,0.0,0
2020-11-06,6.789999961853027,6.920000076293945,6.789999961853027,6.900000095367432,324400,0.0,0
2020-11-09,7.0,7.0,6.849999904632568,6.920000076293945,238496,0.0,0
2020-11-10,6.949999809265137,7.059999942779541,6.929999828338623,7.039999961853027,2746000,0.0,0
2020-11-11,7.110000133514404,7.230000019073486,6.980000019073486,7.190000057220459,1577600,0.0,0
2020-11-12,7.199999809265137,7.300000190734863,7.139999866485596,7.210000038146973,746001,0.0,0
2020-11-13,7.099999904632568,7.150000095367432,7.0,7.059999942779541,593600,0.0,0
2020-11-16,7.179999828338623,7.179999828338623,7.019999980926514,7.139999866485596,539221,0.0,0
2020-11-17,7.139999866485596,7.300000190734863,7.099999904632568,7.300000190734863,1249440,0.0,0
2020-11-18,7.300000190734863,7.550000190734863,7.199999809265137,7.5,1369600,0.0,0
2020-11-19,7.53000020980835,7.579999923706055,7.409999847412109,7.5,1480200,0.0,0
2020-11-20,7.539999961853027,7.630000114440918,7.420000076293945,7.630000114440918,1713600,0.0,0
2020-11-23,7.639999866485596,7.730000019073486,7.440000057220459,7.650000095367432,1639200,0.0,0
2020-11-24,7.659999847412109,7.900000095367432,7.630000114440918,7.889999866485596,2450800,0.0,0
2020-11-25,7.900000095367432,8.130000114440918,7.900000095367432,8.010000228881836,1127936,0.0,0
2020-11-26,8.050000190734863,8.109999656677246,7.860000133514404,8.100000381469727,1389600,0.0,0
2020-11-27,8.100000381469727,8.15999984741211,7.980000019073486,8.15999984741211,805200,0.0,0
2020-11-30,8.029999732971191,8.479999542236328,8.029999732971191,8.319999694824219,2398640,0.0,0
2020-12-01,8.369999885559082,8.369999885559082,8.170000076293945,8.270000457763672,882400,0.0,0
2020-12-02,8.270000457763672,8.430000305175781,8.210000038146973,8.319999694824219,1091000,0.0,0
2020-12-03,8.319999694824219,8.5,8.220000267028809,8.319999694824219,1239600,0.0,0
2020-12-04,8.319999694824219,8.319999694824219,8.119999885559082,8.140000343322754,542824,0.0,0
2020-12-07,8.180000305175781,8.180000305175781,7.71999979019165,7.860000133514404,510400,0.0,0
