Date,Open,High,Low,Close,Volume,Dividends,Stock Splits
2020-01-02,13.263077238018791,13.609070222524418,13.263077238018791,13.45529556274414,1495600,0.0,0
2020-01-03,13.551404786773501,13.685957151858576,13.455295168939095,13.60906982421875,1288200,0.0,0
2020-01-06,13.416851337615094,13.570625990974932,13.263076684255257,13.301520347595215,823400,0.0,0
2020-01-07,13.455295763041532,13.724401421662963,13.224633769937448,13.378408432006836,421400,0.0,0
2020-01-08,13.532182427594101,13.532182427594101,13.03241480048296,13.263076782226562,1039761,0.0,0
2020-01-09,13.455295531553013,13.647513855832774,13.359185911128499,13.474517822265625,1270480,0.0,0
2020-01-10,13.993507278039917,14.031950941582503,13.512961025472972,13.647513389587402,1396200,0.0,0
2020-01-13,14.012729392549488,14.012729392549488,13.512961740067094,13.743623733520508,1403600,0.0,0
2020-01-14,13.993507645700822,13.993507645700822,13.762844741815703,13.878175735473633,987000,0.0,0
2020-01-15,13.82051096418521,13.82051096418521,13.551405307112848,13.78206729888916,428049,0.0,0
2020-01-16,13.974285625369419,13.974285625369419,13.666736303001004,13.78206729888916,327731,0.0,0
2020-01-17,14.031951310253463,14.031951310253463,13.724401077263062,13.878175735473633,810933,0.0,0
2020-01-20,13.724401046609978,13.955063949979916,13.64751371767642,13.897397994995117,306558,0.0,0
2020-01-21,13.916618992921066,13.916618992921066,13.205410761217642,13.28229808807373,975600,0.0,0
2020-01-22,13.30152115169561,13.724401473999025,13.147746489039823,13.724401473999023,440200,0.0,0
2020-01-23,13.28229889114381,13.512961802227574,12.667200239105217,12.974749565124512,327930,0.0,0
2020-01-24,12.72486523166776,14.28183506364802,12.686421566059702,13.359186172485352,296800,0.0,0
2020-01-29,12.84019615593358,12.897862112304445,12.590312789177908,12.647977828979492,771800,0.0,0
2020-01-30,12.66719958958136,12.78253058092488,11.95599043477579,12.109766006469727,785800,0.0,0
2020-01-31,12.052100311886864,12.244318634929465,11.859881988844265,11.994434356689453,642800,0.0,0
2020-02-03,12.03287941131861,12.340428740287754,11.494667169053312,11.821438789367676,2020395,0.0,0
2020-02-04,11.840659292953632,12.628755765305916,11.840659292953632,12.551868438720703,2480878,0.0,0
2020-02-05,12.551869024825761,12.878639719786744,12.551869024825761,12.686421394348145,554200,0.0,0
2020-02-06,12.70564342052429,13.166967391967775,12.571090137235311,13.166967391967773,1340250,0.0,0
2020-02-07,13.243854789050529,13.30152074406389,12.80175218917895,13.147746086120605,590999,0.0,0
2020-02-10,12.782530911867177,13.186189850304928,12.667199917537713,13.109302520751953,676200,0.0,0
2020-02-11,13.282298686828119,13.282298686828119,12.897862035217615,13.051636695861816,605588,0.0,0
2020-02-12,13.205410828506043,13.436072810249646,12.955526556665852,13.263076782226562,1109200,0.0,0
2020-02-13,13.4168513683565,13.4168513683565,12.974748780649382,13.28229808807373,592000,0.0,0
2020-02-14,13.28229805764062,13.359185384320538,13.2054107309607,13.301520347595215,436600,0.0,0
2020-02-17,13.455295814351398,13.878176136654812,13.455295814351398,13.724401473999023,1294000,0.0,0
2020-02-18,13.762844579344156,13.820510533777,13.570626258850098,13.570626258850098,258400,0.0,0
2020-02-19,13.666736077373619,13.743623406696372,13.436073172836098,13.493739128112793,1305400,0.0,0
2020-02-20,13.37840828857914,13.916619600051927,13.33996462347394,13.801288604736328,1920800,0.0,0
2020-02-21,13.85895468277417,14.6278289082211,13.820511017330288,14.128060340881348,2188000,0.0,0
2020-02-24,14.14728255332215,14.14728255332215,13.41685199737549,13.416851997375488,2111800,0.0,0
2020-02-25,13.455295100346234,13.455295100346234,13.09007983763424,13.263076782226562,999600,0.0,0
2020-02-26,13.090079798254294,13.2822981157957,12.840195527165852,12.89786148071289,1295578,0.0,0
2020-02-27,13.18618968239588,13.263077010969795,13.051636399106902,13.166967391967773,885200,0.0,0
2020-02-28,12.84019555561174,12.878639219205189,12.51342487335205,12.51342487335205,1759000,0.0,0
2020-03-02,12.87863909297198,13.186189315274271,12.474980170912719,12.936305046081543,1859000,0.0,0
2020-03-03,12.974748709298176,13.416851294574068,12.820974056431645,12.936305046081543,1921400,0.0,0
2020-03-04,12.744086989348597,13.359185613332368,12.744086989348597,13.205410957336426,1130400,0.0,0
2020-03-05,13.436073590585986,13.801288874508844,13.26307755251569,13.705180168151855,1999400,0.0,0
2020-03-06,13.782066801831146,13.782066801831146,13.205410926618507,13.22463321685791,1297000,0.0,0
2020-03-09,12.74408760353296,12.859418601088143,11.840660081163437,12.22509765625,1986000,0.0,0
2020-03-10,12.378872218228853,12.590312836965529,12.052100602881977,12.263541221618652,2471200,0.0,0
2020-03-11,12.340428020444032,12.532646339837239,12.09054374694824,12.090543746948242,1097000,0.0,0
2020-03-12,11.782994698928604,11.879103402485837,11.571554084591867,11.609997749328613,1294382,0.0,0
2020-03-13,11.609997790705325,11.609997790705325,10.399020972328131,11.225561141967773,2898355,0.0,0
2020-03-16,11.033341673105772,11.302448238232193,10.841123352707791,10.937232971191406,1911800,0.0,0
2020-03-17,11.2447820822718,11.302448035642191,10.533573851262659,11.014120101928711,2681029,0.0,0
2020-03-18,11.340891902311789,11.533110222709768,10.821901978952619,10.937232971191406,1979300,0.0,0
2020-03-19,10.821902437791083,11.302448717445365,9.860809878482517,10.0145845413208,7694900,0.0,0
2020-03-20,10.360576794594367,10.47590778350662,10.053027490828356,10.302911758422852,4987867,0.0,0
2020-03-23,9.764699612143398,10.264468149987684,9.726255948968394,9.899252891540527,3162600,0.0,0
2020-03-24,9.899253057604755,10.379799313638294,9.899253057604755,10.206802368164062,1787695,0.0,0
2020-03-25,10.648905062353524,11.148673613367517,10.648905062353524,10.918010711669922,3037000,0.0,0
2020-03-26,10.725792582039684,11.321669845867525,10.725792582039684,11.225561141967773,3732800,0.0,0
2020-03-27,11.456223265289925,11.456223265289925,10.994898364836407,11.167895317077637,2085000,0.0,0
2020-03-30,10.879567314498177,11.167895261269638,10.764236319103446,10.82190227508545,841200,0.0,0
2020-03-31,11.782995091208697,11.840660131948972,10.764236566914455,11.091008186340332,1212200,0.0,0
2020-04-01,10.802679428845265,11.32166933972376,10.802679428845265,11.033341407775879,2024901,0.0,0
2020-04-02,11.30244860399518,11.30244860399518,10.802680038217975,11.167895317077637,629400,0.0,0
2020-04-03,11.14867358191381,11.187117245993406,10.783458314873023,10.937232971191406,157200,0.0,0
2020-04-06,10.994898563014146,11.16789551837356,10.648905568864611,11.091008186340332,580600,0.0,0
2020-04-07,11.34089183807373,11.417779165797409,11.14867351876453,11.34089183807373,2131000,0.0,0
2020-04-08,11.321669646518878,11.34089193690193,11.148673615917676,11.302448272705078,789400,0.0,0
2020-04-09,11.571554023609607,11.648441352677903,11.225561042802276,11.264004707336426,1153600,0.0,0
2020-04-14,11.321669677485595,11.456222960827224,11.033341736935963,11.283226013183594,1885200,0.0,0
2020-04-15,11.41777912778394,11.41777912778394,10.97567653656006,10.975676536560059,1506935,0.0,0
2020-04-16,11.033341975024483,11.187117552120064,10.82190227508545,10.82190227508545,1617300,0.0,0
2020-04-17,10.918010680866983,11.14867358191381,10.7642360245486,10.937232971191406,2660395,0.0,0
2020-04-20,11.110230254077782,11.110230254077782,10.725792685077831,10.802680015563965,1994400,0.0,0
2020-04-21,10.629683351958851,10.80267937704262,10.2644680954521,10.302911758422852,2771691,0.0,0
2020-04-22,10.28369002260003,10.533574303654937,10.24524635755845,10.456686973571777,903712,0.0,0
2020-04-23,10.533574404431254,10.533574404431254,10.36057745180442,10.418243408203125,340827,0.0,0
2020-04-24,10.47590778350662,10.47590778350662,10.2644680954521,10.302911758422852,796405,0.0,0
2020-04-27,10.399021217439776,10.514352214779468,10.129915556980494,10.379799842834473,3645600,0.0,0
2020-04-28,10.514351587539087,10.629683494567871,10.322133270106507,10.629683494567871,1192800,0.0,0
2020-04-29,10.706571510131802,10.745015176090813,10.591240512254764,10.72579288482666,503132,0.0,0
2020-05-04,10.379799928886147,10.379799928886147,9.562870878579126,9.601314544677734,2620432,0.0,0
2020-05-05,9.68781237278243,9.726256036302628,9.41870672814104,9.476371765136719,1324400,0.0,0
2020-05-06,9.668591580518946,10.05302823883073,9.630147914687768,9.995362281799316,2578600,0.0,0
2020-05-07,10.014583782502466,10.033805155616179,9.860809131315893,9.93769645690918,1592400,0.0,0
2020-05-08,10.014584311229198,10.341355920537406,9.937696981576593,10.11069393157959,2512376,0.0,0
2020-05-11,10.245246486578807,10.514352145258766,10.206802821053099,10.39902114868164,1512200,0.0,0
2020-05-12,10.379799483645659,10.379799483645659,10.091471541989257,10.149137496948242,2132629,0.0,0
2020-05-13,10.091471974240871,10.091471974240871,9.860809977663425,9.976140975952148,2692514,0.0,0
2020-05-14,9.937696684124054,9.937696684124054,9.803143402974774,9.84158706665039,1784800,0.0,0
2020-05-15,9.803143800883912,9.841587466119956,9.6685914308424,9.687812805175781,2895600,0.0,0
2020-05-18,9.610925474703693,9.764700135647868,9.610925474703693,9.687812805175781,1094045,0.0,0
2020-05-19,9.783922029421586,9.899253020448437,9.726256075623539,9.84158706665039,2382000,0.0,0
2020-05-20,9.783922426550529,9.841587466119956,9.6685914308424,9.687812805175781,4677400,0.0,0
2020-05-21,9.937696783780334,9.937696783780334,9.649368845037202,9.803143501281738,1863800,0.0,0
2020-05-22,9.64936902884613,9.668591319527483,9.255321235571053,9.35142993927002,3674006,0.0,0
2020-05-25,9.351430092165469,9.418707194080918,9.25532138689513,9.303376197814941,1956000,0.0,0
2020-05-26,9.255321631803568,9.668591733452638,9.255321631803568,9.572482109069824,2331000,0.0,0
2020-05-27,9.610925045742032,9.745478326347346,9.399484438096321,9.476371765136719,3565000,0.0,0
2020-05-28,9.582093054090087,9.899253524712261,9.495594577271444,9.649369239807129,3099356,0.0,0
2020-05-29,9.514815628569826,9.78392219543457,9.514815628569826,9.78392219543457,12232730,0.0,0
2020-06-01,9.80314325206888,10.437464151236686,9.80314325206888,10.283689498901367,3229685,0.0,0
2020-06-02,10.283689664957826,10.322133328662428,10.187580963980945,10.226024627685547,1322200,0.0,0
2020-06-03,10.245245933532715,10.437464250785169,10.206802270082225,10.245245933532715,1178800,0.0,0
2020-06-04,10.302912611312648,10.456687275925338,10.129915655338719,10.34135627746582,1654657,0.0,0
2020-06-05,10.283689512037911,10.821901712468277,10.264468138756056,10.668127059936523,3330707,0.0,0
2020-06-08,11.167895573454143,11.187117864841904,10.687349287591731,10.706571578979492,2080000,0.0,0
2020-06-09,10.572017830003336,11.07178638555674,10.572017830003336,10.87956714630127,1956754,0.0,0
2020-06-10,10.783458121585623,11.110229718689617,10.783458121585623,11.014120101928711,2154396,0.0,0
2020-06-11,10.802680216744683,11.05256450376291,10.687349218867647,10.72579288482666,1013400,0.0,0
2020-06-12,10.495130311307944,10.745014584569859,10.399020693416672,10.591239929199219,1713689,0.0,0
2020-06-15,10.418243308530197,10.860345914793005,10.418243308530197,10.456686973571777,1558800,0.0,0
2020-06-16,10.591240580360829,10.841123952416615,10.591240580360829,10.706571578979492,892400,0.0,0
2020-06-17,10.86034617396785,10.879567548662708,10.629684178213777,10.72579288482666,1087950,0.0,0
2020-06-18,10.62968378509383,11.052564095003488,10.591240120556588,10.87956714630127,2010800,0.0,0
2020-06-19,10.783458663840772,11.283226313048695,10.783458663840772,11.167895317077637,3245414,0.0,0
2020-06-22,10.97567695962815,11.763772554834572,10.956454668735661,11.187117576599121,3422391,0.0,0
2020-06-23,11.110229817913151,11.20633851896315,10.898789209092362,10.975676536560059,1756755,0.0,0
2020-06-24,11.033342283447718,11.167895573454143,10.706571578979492,10.706571578979492,1389512,0.0,0
2020-06-26,10.706570982990407,10.745014647056632,10.533574036407762,10.55279541015625,617800,0.0,0
2020-06-29,10.760000228881836,10.760000228881836,10.399999618530273,10.5600004196167,2773700,0.427204,0
2020-06-30,10.420000076293945,10.84000015258789,10.420000076293945,10.720000267028809,4569200,0.0,0
2020-07-02,10.479999542236328,11.760000228881836,10.479999542236328,11.720000267028809,3435986,0.0,0
2020-07-03,11.899999618530273,12.239999771118164,11.5,12.079999923706055,6862000,0.0,0
2020-07-06,12.680000305175781,13.720000267028809,12.680000305175781,13.699999809265137,9777461,0.0,0
2020-07-07,14.699999809265137,14.699999809265137,13.279999732971191,13.380000114440918,6085796,0.0,0
2020-07-08,13.680000305175781,14.460000038146973,13.539999961853027,14.279999732971191,7100000,0.0,0
2020-07-09,15.039999961853027,15.039999961853027,14.100000381469727,14.239999771118164,3140600,0.0,0
2020-07-10,14.619999885559082,14.619999885559082,13.720000267028809,14.0,3148100,0.0,0
2020-07-13,14.0600004196167,14.819999694824219,13.899999618530273,14.5600004196167,4295200,0.0,0
2020-07-14,14.5,14.5,14.100000381469727,14.220000267028809,7398400,0.0,0
2020-07-15,14.619999885559082,14.619999885559082,13.859999656677246,14.15999984741211,3767200,0.0,0
2020-07-16,14.300000190734863,14.300000190734863,13.260000228881836,13.4399995803833,4183200,0.0,0
2020-07-17,13.5600004196167,13.84000015258789,13.359999656677246,13.640000343322754,4319800,0.0,0
2020-07-20,14.0,14.359999656677246,13.640000343322754,14.15999984741211,5023600,0.0,0
2020-07-21,14.199999809265137,14.319999694824219,13.899999618530273,14.100000381469727,2074600,0.0,0
2020-07-22,14.359999656677246,14.359999656677246,13.880000114440918,14.039999961853027,2932416,0.0,0
2020-07-23,14.039999961853027,14.239999771118164,13.819999694824219,14.15999984741211,2814200,0.0,0
2020-07-24,14.020000457763672,14.020000457763672,13.020000457763672,13.15999984741211,2885400,0.0,0
2020-07-27,13.119999885559082,13.5,12.880000114440918,12.880000114440918,1470379,0.0,0
2020-07-28,12.899999618530273,13.15999984741211,12.859999656677246,12.960000038146973,685187,0.0,0
2020-07-29,12.920000076293945,13.359999656677246,12.760000228881836,13.100000381469727,1202600,0.0,0
2020-07-30,13.039999961853027,13.239999771118164,12.880000114440918,13.0,658800,0.0,0
2020-07-31,12.979999542236328,13.279999732971191,12.779999732971191,12.819999694824219,689850,0.0,0
2020-08-03,13.079999923706055,13.199999809265137,12.680000305175781,12.9399995803833,847709,0.0,0
2020-08-04,12.9399995803833,13.239999771118164,12.84000015258789,13.039999961853027,664000,0.0,0
2020-08-05,13.0,13.079999923706055,12.760000228881836,13.020000457763672,635468,0.0,0
2020-08-06,13.140000343322754,13.319999694824219,12.779999732971191,13.319999694824219,1397990,0.0,0
2020-08-07,13.319999694824219,13.319999694824219,12.680000305175781,12.899999618530273,956433,0.0,0
2020-08-10,12.760000228881836,13.0,12.65999984741211,12.84000015258789,637400,0.0,0
2020-08-11,12.720000267028809,13.039999961853027,12.600000381469727,12.680000305175781,732200,0.0,0
2020-08-12,12.579999923706055,12.760000228881836,12.319999694824219,12.640000343322754,1012000,0.0,0
2020-08-13,12.739999771118164,12.9399995803833,12.65999984741211,12.84000015258789,1969494,0.0,0
2020-08-14,12.920000076293945,13.039999961853027,12.760000228881836,12.979999542236328,1927000,0.0,0
2020-08-17,13.0,13.720000267028809,12.9399995803833,13.399999618530273,2189727,0.0,0
2020-08-18,13.579999923706055,13.579999923706055,13.039999961853027,13.220000267028809,1278650,0.0,0
2020-08-19,13.039999961853027,13.380000114440918,13.039999961853027,13.260000228881836,634637,0.0,0
2020-08-20,13.100000381469727,13.199999809265137,12.899999618530273,13.039999961853027,771902,0.0,0
2020-08-21,13.119999885559082,13.34000015258789,13.0600004196167,13.260000228881836,1007214,0.0,0
2020-08-24,13.260000228881836,13.359999656677246,13.020000457763672,13.119999885559082,412200,0.0,0
2020-08-25,13.119999885559082,13.260000228881836,12.880000114440918,13.020000457763672,793400,0.0,0
2020-08-26,13.079999923706055,13.079999923706055,12.579999923706055,12.779999732971191,1017046,0.0,0
2020-08-27,12.899999618530273,12.899999618530273,12.380000114440918,12.479999542236328,1703520,0.0,0
2020-08-28,12.539999961853027,12.65999984741211,12.34000015258789,12.380000114440918,1317200,0.0,0
2020-08-31,12.640000343322754,12.960000038146973,12.100000381469727,12.100000381469727,3287500,0.0,0
2020-09-01,12.100000381469727,12.4399995803833,12.039999961853027,12.34000015258789,1295400,0.0,0
2020-09-02,12.199999809265137,12.300000190734863,11.84000015258789,11.880000114440918,2295560,0.0,0
2020-09-03,11.960000038146973,12.140000343322754,11.619999885559082,11.699999809265137,2673200,0.0,0
2020-09-04,11.819999694824219,11.819999694824219,11.319999694824219,11.460000038146973,4296200,0.0,0
2020-09-07,11.640000343322754,11.640000343322754,11.239999771118164,11.34000015258789,2484557,0.0,0
2020-09-08,11.4399995803833,11.720000267028809,11.359999656677246,11.579999923706055,2008640,0.0,0
2020-09-09,11.319999694824219,11.600000381469727,11.300000190734863,11.34000015258789,928733,0.0,0
2020-09-10,11.420000076293945,11.5,11.239999771118164,11.239999771118164,1458000,0.0,0
2020-09-11,11.220000267028809,11.359999656677246,11.039999961853027,11.239999771118164,1370800,0.0,0
2020-09-14,11.260000228881836,11.380000114440918,11.199999809265137,11.199999809265137,1251000,0.0,0
2020-09-15,11.279999732971191,11.359999656677246,11.140000343322754,11.239999771118164,906600,0.0,0
2020-09-16,11.300000190734863,11.460000038146973,11.220000267028809,11.34000015258789,833000,0.0,0
2020-09-17,11.239999771118164,11.279999732971191,11.100000381469727,11.119999885559082,1461194,0.0,0
2020-09-18,11.100000381469727,11.479999542236328,11.0,11.359999656677246,2951165,0.0,0
2020-09-21,11.479999542236328,11.760000228881836,11.279999732971191,11.279999732971191,1683906,0.0,0
2020-09-22,11.279999732971191,11.34000015258789,11.039999961853027,11.119999885559082,952504,0.0,0
2020-09-23,11.100000381469727,11.119999885559082,10.920000076293945,10.979999542236328,1401653,0.0,0
2020-09-24,10.979999542236328,10.979999542236328,10.539999961853027,10.739999771118164,3688200,0.0,0
2020-09-25,10.800000190734863,11.0600004196167,10.739999771118164,10.859999656677246,3887000,0.0,0
2020-09-28,10.720000267028809,11.260000228881836,10.720000267028809,11.180000305175781,1922923,0.0,0
2020-09-29,11.220000267028809,11.220000267028809,10.640000343322754,10.640000343322754,1232734,0.0,0
2020-09-30,10.779999732971191,11.039999961853027,10.619999885559082,10.739999771118164,2143800,0.0,0
2020-10-05,10.680000305175781,10.699999809265137,10.260000228881836,10.319999694824219,1386600,0.0,0
2020-10-06,10.460000038146973,10.460000038146973,10.260000228881836,10.34000015258789,798584,0.0,0
2020-10-07,10.4399995803833,10.4399995803833,10.119999885559082,10.180000305175781,916461,0.0,0
2020-10-08,10.260000228881836,10.260000228881836,10.039999961853027,10.260000228881836,3835999,0.0,0
2020-10-09,10.359999656677246,10.460000038146973,10.180000305175781,10.420000076293945,5979800,0.0,0
2020-10-12,10.479999542236328,10.920000076293945,10.4399995803833,10.899999618530273,5332781,0.0,0
2020-10-14,10.880000114440918,10.9399995803833,10.4399995803833,10.520000457763672,5716128,0.0,0
2020-10-15,10.5,10.539999961853027,10.300000190734863,10.300000190734863,6955917,0.0,0
2020-10-16,10.380000114440918,10.460000038146973,10.239999771118164,10.359999656677246,8754000,0.0,0
2020-10-19,10.460000038146973,10.65999984741211,10.380000114440918,10.4399995803833,3331400,0.0,0
2020-10-20,10.5,10.5,10.300000190734863,10.359999656677246,2919427,0.0,0
2020-10-21,10.319999694824219,10.479999542236328,10.319999694824219,10.399999618530273,3701400,0.0,0
2020-10-22,10.4399995803833,10.539999961853027,10.359999656677246,10.4399995803833,2314800,0.0,0
2020-10-23,10.380000114440918,10.680000305175781,10.380000114440918,10.579999923706055,3983200,0.0,0
2020-10-27,10.460000038146973,10.539999961853027,10.220000267028809,10.220000267028809,4643370,0.0,0
2020-10-28,10.260000228881836,10.260000228881836,9.989999771118164,10.0,5859600,0.0,0
2020-10-29,10.100000381469727,10.260000228881836,9.890000343322754,10.15999984741211,7053272,0.0,0
2020-10-30,10.0600004196167,10.420000076293945,10.039999961853027,10.079999923706055,4970216,0.0,0
2020-11-02,10.100000381469727,10.460000038146973,10.079999923706055,10.260000228881836,4375779,0.0,0
2020-11-03,10.260000228881836,10.819999694824219,10.180000305175781,10.600000381469727,7649077,0.0,0
2020-11-04,10.539999961853027,10.640000343322754,10.34000015258789,10.4399995803833,4830107,0.0,0
2020-11-05,10.520000457763672,10.760000228881836,10.520000457763672,10.760000228881836,8255200,0.0,0
2020-11-06,10.699999809265137,10.960000038146973,10.680000305175781,10.859999656677246,18228000,0.0,0
2020-11-09,10.880000114440918,11.260000228881836,10.84000015258789,11.0600004196167,6666400,0.0,0
2020-11-10,11.300000190734863,11.800000190734863,11.15999984741211,11.300000190734863,6192750,0.0,0
2020-11-11,11.479999542236328,11.619999885559082,11.199999809265137,11.619999885559082,7463254,0.0,0
2020-11-12,11.619999885559082,11.619999885559082,11.15999984741211,11.260000228881836,5330400,0.0,0
2020-11-13,11.279999732971191,11.279999732971191,10.720000267028809,10.800000190734863,4781695,0.0,0
2020-11-16,10.880000114440918,11.0600004196167,10.680000305175781,11.039999961853027,7422200,0.0,0
2020-11-17,11.039999961853027,11.079999923706055,10.84000015258789,10.960000038146973,6439400,0.0,0
2020-11-18,10.899999618530273,11.260000228881836,10.800000190734863,11.039999961853027,7802663,0.0,0
2020-11-19,10.979999542236328,11.020000457763672,10.84000015258789,10.9399995803833,5075426,0.0,0
2020-11-20,10.960000038146973,10.960000038146973,10.84000015258789,10.920000076293945,6208060,0.0,0
2020-11-23,10.920000076293945,11.420000076293945,10.859999656677246,11.199999809265137,5321329,0.0,0
2020-11-24,11.260000228881836,11.300000190734863,10.9399995803833,11.020000457763672,5540839,0.0,0
2020-11-25,11.100000381469727,11.420000076293945,10.920000076293945,10.920000076293945,11809490,0.0,0
2020-11-26,11.140000343322754,11.300000190734863,10.920000076293945,11.220000267028809,11546510,0.0,0
2020-11-27,11.199999809265137,11.380000114440918,11.0,11.300000190734863,9149573,0.0,0
2020-11-30,11.260000228881836,11.84000015258789,11.100000381469727,11.399999618530273,64394100,0.0,0
2020-12-01,11.399999618530273,11.739999771118164,11.0600004196167,11.520000457763672,12086140,0.0,0
2020-12-02,11.579999923706055,11.800000190734863,11.420000076293945,11.479999542236328,9514800,0.0,0
2020-12-03,11.479999542236328,11.640000343322754,11.34000015258789,11.460000038146973,4033652,0.0,0
2020-12-04,11.420000076293945,11.520000457763672,11.319999694824219,11.460000038146973,5642600,0.0,0
2020-12-07,11.4399995803833,11.4399995803833,11.119999885559082,11.15999984741211,2468600,0.0,0
