Date,Open,High,Low,Close,Volume,Dividends,Stock Splits
2020-01-02,20.83895687197086,21.271100024707927,20.742924449696147,21.127052307128906,35604600,0.0,0
2020-01-03,21.415148281828678,21.463165410008852,20.646892547607422,20.646892547607422,36777400,0.0,0
2020-01-06,20.502845222598154,21.27110097166526,20.502845222598154,20.98300552368164,45437040,0.0,0
2020-01-07,21.127053935876056,21.559198953594564,20.934989076519773,21.36713409423828,47867180,0.0,0
2020-01-08,20.886972128099988,21.175067562717686,20.74292441079114,20.838956832885742,43169910,0.0,0
2020-01-09,21.223086091905618,21.607213973999023,21.07903836507887,21.607213973999023,39977460,0.0,0
2020-01-10,21.55919867561218,21.751261700825772,21.367133818732366,21.607213973999023,47800830,0.0,0
2020-01-13,21.799278555978425,21.943326280988654,21.655228999301993,21.847293853759766,34655930,0.0,0
2020-01-14,21.991341173310968,21.991341173310968,21.41514845222723,21.511180877685547,38648830,0.0,0
2020-01-15,21.41514815530664,21.607213003560297,21.22308513871912,21.463165283203125,25998150,0.0,0
2020-01-16,21.319118127092143,21.415148722094443,20.983005549585528,21.271100997924805,36390520,0.0,0
2020-01-17,21.22308472940362,21.319117151678338,20.79093974500045,21.127052307128906,50324450,0.0,0
2020-01-20,21.51118152478396,21.943326536513073,21.2230860714087,21.31911849975586,67559900,0.0,0
2020-01-21,20.886971968393695,21.12705210596144,20.166731555690465,20.26276397705078,59096470,0.0,0
2020-01-22,20.35879803636347,20.59887819324669,19.92665302130718,20.502845764160156,38970370,0.0,0
2020-01-23,20.16673238475758,20.26276481006585,19.542524367753078,19.83061981201172,49423940,0.0,0
2020-01-24,19.638556497567407,19.83061951362788,19.5425240737041,19.782604217529297,15030050,0.0,0
2020-01-29,18.918316926113505,19.091173098926088,18.841491349863617,19.07196807861328,60478780,0.0,0
2020-01-30,19.071967263677163,19.071967263677163,18.226884129372184,18.399742126464844,56133860,0.0,0
2020-01-31,18.572599935591064,18.66863235874465,18.073232800525318,18.092439651489258,45983400,0.0,0
2020-02-03,17.919582664319126,18.150059393854903,17.765931511295275,17.957996368408203,48080370,0.0,0
2020-02-04,17.765931531002646,18.39974299584566,17.765931531002646,18.246091842651367,42755180,0.0,0
2020-02-05,18.534185892601034,18.553392743211536,18.130851188110952,18.32291603088379,38310310,0.0,0
2020-02-06,18.66863239350363,19.110378976500034,18.438155676505573,18.93752098083496,46489970,0.0,0
2020-02-07,18.649426544830447,18.822284549785895,18.591807820400707,18.803077697753906,22217740,0.0,0
2020-02-10,18.495775371499946,18.72625210063084,18.418949795122984,18.514982223510742,30602410,0.0,0
2020-02-11,18.726251229008497,18.764664931242105,18.649425656207413,18.66863250732422,34349180,0.0,0
2020-02-12,18.687837854768215,19.302444279630066,18.611012280618755,18.995141983032227,82636170,0.0,0
2020-02-13,18.975934873601442,19.01434674432088,18.59180700807634,18.687837600708008,48070510,0.0,0
2020-02-14,18.611012820232283,18.745458952641638,18.47656851948915,18.514982223510742,50536650,0.0,0
2020-02-17,18.611012176374956,18.899109451571373,18.572600305348463,18.70704460144043,35984780,0.0,0
2020-02-18,18.668633226153123,18.70704509819963,18.49577522277832,18.49577522277832,40328610,0.0,0
2020-02-19,18.59180715669479,18.726251452786755,18.514981582975643,18.70704460144043,45704330,0.0,0
2020-02-20,18.687838269287997,18.822284400781363,18.438156521513623,18.783870697021484,46042220,0.0,0
2020-02-21,18.63021967224308,18.687838396609248,18.457361667478352,18.514982223510742,26378380,0.0,0
2020-02-24,18.246090493145008,18.265297343790287,17.93878820948493,18.054025650024414,56264270,0.0,0
2020-02-25,17.86196312252798,17.996407417355417,17.74672384720007,17.842756271362305,63639280,0.0,0
2020-02-26,17.535453463571045,17.80434387698266,17.51624661297034,17.76593017578125,51741770,0.0,0
2020-02-27,17.650692230694276,18.092440669387514,17.57386665418235,17.957996368408203,41316140,0.0,0
2020-02-28,17.61227936858157,17.669898089811177,17.36259580103177,17.53545379638672,58031370,0.0,0
2020-03-02,17.631486892700195,17.74672433955907,17.497040762476587,17.631486892700195,27914330,0.0,0
2020-03-03,17.727516811040786,17.86196293613137,17.49704009445623,17.53545379638672,40552950,0.0,0
2020-03-04,17.593071990199668,17.593071990199668,17.324183411411664,17.458627700805664,29476090,0.0,0
2020-03-05,17.458628259875013,17.938788544990757,17.34338898551414,17.823549270629883,52446950,0.0,0
2020-03-06,17.47783594048792,17.650692112734887,17.30497793657474,17.381803512573242,41099090,0.0,0
2020-03-09,16.517514132237594,16.69037029200569,16.32544929027382,16.363862991333008,87437420,0.0,0
2020-03-10,16.49830803243384,16.767196625419114,16.287036330326938,16.479101181030273,51326380,0.0,0
2020-03-11,16.421481711255705,16.5559260016307,16.287035589214632,16.363862991333008,32549700,0.0,0
2020-03-12,15.845289418431305,15.883703120463608,15.499573426805098,15.595605850219727,67382520,0.0,0
2020-03-13,14.32798362940436,15.365129818914436,14.308776777530827,15.134653091430664,115894700,0.0,0
2020-03-16,14.520047648062855,14.769731228780152,14.097506978707754,14.30877685546875,77943240,0.0,0
2020-03-17,14.212744639490696,14.673698074149984,13.77099714002568,13.92464828491211,85283870,0.0,0
2020-03-18,13.674964978142494,13.924648551275652,12.868295536224956,12.983534812927246,85387260,0.0,0
2020-03-19,12.753057596522455,12.79147038474743,11.17813236346533,12.349722862243652,290379200,0.0,0
2020-03-20,12.657025673578197,13.406075477600096,12.618612886598434,13.406075477600098,115801900,0.0,0
2020-03-23,12.464960419721626,13.041153121616702,12.388134848246688,12.925914764404297,85362810,0.0,0
2020-03-24,13.52131418693935,13.790203702726085,13.32925024709168,13.598139762878418,72240730,0.0,0
2020-03-25,14.193537766817974,14.673698051772346,14.020680687000883,14.616079330444336,75213930,0.0,0
2020-03-26,14.692905186796825,14.86576226995539,14.40480882708844,14.520047187805176,80662930,0.0,0
2020-03-27,14.884969540220931,14.981001968103987,14.462428872368324,14.577667236328125,64558590,0.0,0
2020-03-30,13.982267828839781,14.731317613078305,13.982267828839781,14.327982902526855,50891610,0.0,0
2020-03-31,14.616080024314726,14.788937112337877,14.347189592575415,14.577667236328125,44122300,0.0,0
2020-04-01,14.193538209702396,14.827349659085849,14.193538209702396,14.40480899810791,48862210,0.0,0
2020-04-02,14.270363505253053,14.596872649355927,14.25115756986451,14.50084114074707,28454340,0.0,0
2020-04-03,14.40480871630514,14.55845986274577,14.347189078473367,14.50084114074707,22960290,0.0,0
2020-04-06,14.788936334795338,14.96179432956342,14.539253683926292,14.884968757629395,31270180,0.0,0
2020-04-07,15.077033021557154,15.307509742466369,14.865762236140501,15.211478233337402,58578320,0.0,0
2020-04-08,15.134653142713242,15.134653142713242,14.731318410333422,14.865762710571289,38431390,0.0,0
2020-04-09,14.884968998286793,15.09623978243767,14.865762147076223,15.05782699584961,21925770,0.0,0
2020-04-14,15.057827367311289,15.307510028376582,14.981001792239953,15.115446090698242,25944860,0.0,0
2020-04-15,15.038619883102564,15.192271026782668,14.884968739422462,15.019413948059082,30571710,0.0,0
2020-04-16,14.827349662780762,14.981001728098665,14.654492577526893,14.827349662780762,30179670,0.0,0
2020-04-17,15.057826753045294,15.634019458408314,15.057826753045294,15.441954612731934,65690930,0.0,0
2020-04-20,15.614813222495009,15.998941097310482,15.403543349263046,15.672431945800781,49005600,0.0,0
2020-04-21,15.576399272251498,15.653224845996695,15.019414320515358,15.077033042907715,52198460,0.0,0
2020-04-22,14.884968941081494,15.307509591926289,14.78893651706387,15.19227123260498,27357550,0.0,0
2020-04-23,15.269096805485853,15.403542931776984,15.057826937979991,15.19227123260498,23559010,0.0,0
2020-04-24,15.34592252928457,15.384336231935851,15.077033021557154,15.211478233337402,30292950,0.0,0
2020-04-27,15.345922282008145,15.672431422618201,15.307509495808906,15.595605850219727,39844410,0.0,0
2020-04-28,15.691638365986085,15.806875809428956,15.51878036915564,15.74925708770752,30554460,0.0,0
2020-04-29,15.710845234786651,16.037354377685602,15.710845234786651,15.883703231811523,29476340,0.0,0
2020-05-04,14.90417584949736,15.173065355613796,14.90417584949736,15.05782699584961,55791140,0.0,0
2020-05-05,15.057827256387439,15.211478405398234,14.961794830339146,15.096240043640137,22590770,0.0,0
2020-05-06,15.153858240862643,15.230683812702695,14.923381525342487,15.019413948059082,79649100,0.0,0
2020-05-07,15.00020764052187,15.019414492094123,14.808143703964776,14.96179485321045,34981720,0.0,0
2020-05-08,15.09624021702451,15.09624021702451,14.90417627855511,14.981001853942871,35206400,0.0,0
2020-05-11,15.134652491083472,15.53798720609752,15.115445639971817,15.326716423034668,51156630,0.0,0
2020-05-12,15.211478718801484,15.211478718801484,14.750524346438928,14.865762710571289,47402800,0.0,0
2020-05-13,14.846556252948956,14.923381826338536,14.654492319475006,14.788936614990234,26104310,0.0,0
2020-05-14,14.50084116156246,14.596872670309166,14.308776312402898,14.366395950317383,51348920,0.0,0
2020-05-15,14.347189120052134,14.385601906773612,14.020680890836097,14.231950759887695,60855430,0.0,0
2020-05-18,14.155125334892766,14.251157760620115,14.020681037874178,14.251157760620117,40782420,0.0,0
2020-05-19,14.67369883358488,14.884969626654538,14.59687325716557,14.731318473815918,65193970,0.0,0
2020-05-20,14.788936410261428,14.923381619748554,14.520046907120237,14.616079330444336,43515180,0.0,0
2020-05-21,14.731317708319434,14.731317708319434,14.366395781373917,14.481634140014648,42115170,0.0,0
2020-05-22,14.02068069152395,14.135919050050207,13.406075196884178,13.502107620239258,91852470,0.0,0
2020-05-25,13.252424052182501,13.636551913936694,13.194804415002842,13.502107620239258,37517270,0.0,0
2020-05-26,13.694172103221577,14.059094044517076,13.636552463718877,13.867029190063477,34645200,0.0,0
2020-05-27,13.924648953146505,14.270364045731602,13.809410588951472,14.020681381225586,59573190,0.0,0
2020-05-28,13.770996991768014,14.174331700669148,13.674964569331342,13.905441284179688,37197320,0.0,0
2020-05-29,13.636552076739315,13.943855285644531,13.636552076739315,13.943855285644531,48233130,0.0,0
2020-06-01,14.347188837592942,14.50084089728692,14.155124907766789,14.327982902526855,47955720,0.0,0
2020-06-02,14.135919064092452,14.50084099103797,14.135919064092452,14.481634140014648,39225340,0.0,0
2020-06-03,14.78893713448305,14.94258920249264,14.731318410333422,14.865762710571289,78996930,0.0,0
2020-06-04,15.115445492257347,15.153858278272201,14.654492060079102,14.750523567199707,54007960,0.0,0
2020-06-05,14.865762769106901,15.173065990503014,14.731318468339643,15.15385913848877,61820130,0.0,0
2020-06-08,15.365129499617009,15.672431796542762,15.28830392538557,15.65322494506836,94969200,0.0,0
2020-06-09,16.018147008464652,16.5559260016307,15.902907736953171,16.363862991333008,156988100,0.0,0
2020-06-10,16.421482954909262,16.517515383164003,16.075766945858682,16.267831802368164,69654300,0.0,0
2020-06-11,16.171798868773784,16.344656867897573,15.537987426430668,15.63401985168457,78812610,0.0,0
2020-06-12,15.134652601324103,15.422748043432849,15.096239814654066,15.345922470092773,56070460,0.0,0
2020-06-15,15.134652589861657,15.230684098547483,14.788936594260074,14.923381805419922,54733400,0.0,0
2020-06-16,15.24989085025419,15.614812778878,15.230683999142537,15.326716423034668,51887680,0.0,0
2020-06-17,15.192271618641982,15.422748343141032,15.077033256392458,15.384336471557617,35825440,0.0,0
2020-06-18,15.441955344245285,15.441955344245285,15.077033402339433,15.403543472290039,32362680,0.0,0
2020-06-19,15.249891405303547,15.57639964358795,15.11544619012778,15.403543472290039,48511281,0.0,0
2020-06-22,15.269097216949165,15.51878079345687,15.134652918701242,15.24989128112793,30747910,0.0,0
2020-06-23,15.249891257683291,15.422748343141032,14.923382106726423,15.384336471557617,30497060,0.0,0
2020-06-24,15.461162333418303,15.614813485936782,15.269097476937093,15.288304328918457,25541520,0.0,0
2020-06-26,15.077032762236557,15.288303544019413,15.077032762236557,15.173065185546875,26235680,0.0,0
2020-06-29,15.24989110235436,15.24989110235436,14.80814359364742,14.942588806152344,51499270,0.0,0
2020-06-30,15.230684516036542,15.230684516036542,14.94258906624899,14.981001853942871,31156740,0.0,0
2020-07-02,15.269096810512409,16.479100957534076,15.173065302296239,16.440689086914062,143409900,0.0,0
2020-07-03,16.51751414337259,17.189737427366797,16.51751414337259,16.920848846435547,112571469,0.0,0
2020-07-06,17.20894551769924,19.926652788614746,17.20894551769924,19.350460052490234,276689300,0.0,0
2020-07-07,20.950000762939453,21.149999618530273,19.139999389648438,19.299999237060547,260295200,0.79954,0
2020-07-08,19.299999237060547,20.950000762939453,19.299999237060547,20.649999618530273,172708400,0.0,0
2020-07-09,20.950000762939453,21.899999618530273,20.75,20.899999618530273,171909700,0.0,0
2020-07-10,20.299999237060547,20.350000381469727,19.360000610351562,19.5,124374500,0.0,0
2020-07-13,19.6200008392334,20.5,19.360000610351562,19.780000686645508,84871520,0.0,0
2020-07-14,19.520000457763672,19.760000228881836,18.959999084472656,19.100000381469727,81571260,0.0,0
2020-07-15,19.5,19.639999389648438,18.540000915527344,19.059999465942383,64387410,0.0,0
2020-07-16,19.0,19.31999969482422,17.84000015258789,17.899999618530273,100517900,0.0,0
2020-07-17,18.059999465942383,18.3799991607666,17.81999969482422,18.020000457763672,61057800,0.0,0
2020-07-20,18.200000762939453,19.65999984741211,18.059999465942383,19.520000457763672,126889100,0.0,0
2020-07-21,20.200000762939453,20.450000762939453,19.219999313354492,19.540000915527344,89450910,0.0,0
2020-07-22,19.5,19.6200008392334,18.6200008392334,18.6200008392334,61643550,0.0,0
2020-07-23,18.799999237060547,18.979999542236328,18.18000030517578,18.799999237060547,64685630,0.0,0
2020-07-24,18.520000457763672,18.760000228881836,17.920000076293945,18.0,70729560,0.0,0
2020-07-27,18.200000762939453,18.3799991607666,17.860000610351562,18.059999465942383,42171860,0.0,0
2020-07-28,18.31999969482422,18.420000076293945,17.920000076293945,18.100000381469727,25663330,0.0,0
2020-07-29,17.899999618530273,18.65999984741211,17.899999618530273,18.3799991607666,47190270,0.0,0
2020-07-30,18.420000076293945,18.5,17.81999969482422,17.899999618530273,52374100,0.0,0
2020-07-31,17.899999618530273,18.31999969482422,17.739999771118164,17.860000610351562,35526320,0.0,0
2020-08-03,17.799999237060547,18.079999923706055,17.68000030517578,17.899999618530273,32565410,0.0,0
2020-08-04,18.200000762939453,18.920000076293945,18.020000457763672,18.700000762939453,84920930,0.0,0
2020-08-05,18.780000686645508,18.84000015258789,18.31999969482422,18.459999084472656,36182520,0.0,0
2020-08-06,18.600000381469727,18.700000762939453,18.139999389648438,18.5,37336050,0.0,0
2020-08-07,18.360000610351562,18.420000076293945,17.940000534057617,18.18000030517578,29777710,0.0,0
2020-08-10,17.799999237060547,18.600000381469727,17.799999237060547,18.399999618530273,35091250,0.0,0
2020-08-11,18.65999984741211,19.079999923706055,18.559999465942383,18.700000762939453,57724050,0.0,0
2020-08-12,18.700000762939453,19.100000381469727,18.559999465942383,19.0,57046350,0.0,0
2020-08-13,19.200000762939453,19.239999771118164,18.700000762939453,18.780000686645508,25344500,0.0,0
2020-08-14,18.68000030517578,19.600000381469727,18.579999923706055,19.15999984741211,57377870,0.0,0
2020-08-17,19.299999237060547,20.5,19.280000686645508,20.149999618530273,149584300,0.0,0
2020-08-18,20.149999618530273,20.25,19.68000030517578,20.100000381469727,59992000,0.0,0
2020-08-19,19.799999237060547,19.799999237060547,19.079999923706055,19.200000762939453,53677490,0.0,0
2020-08-20,18.899999618530273,18.979999542236328,18.5,18.799999237060547,57967580,0.0,0
2020-08-21,18.899999618530273,19.079999923706055,18.65999984741211,18.84000015258789,33790190,0.0,0
2020-08-24,19.0,19.15999984741211,18.739999771118164,19.040000915527344,27380320,0.0,0
2020-08-25,19.059999465942383,19.520000457763672,18.940000534057617,19.100000381469727,28749530,0.0,0
2020-08-26,19.219999313354492,19.239999771118164,18.739999771118164,18.84000015258789,42843710,0.0,0
2020-08-27,19.059999465942383,19.239999771118164,18.360000610351562,18.780000686645508,43020290,0.0,0
2020-08-28,18.799999237060547,19.31999969482422,18.6200008392334,18.920000076293945,51268200,0.0,0
2020-08-31,19.399999618530273,19.600000381469727,18.860000610351562,18.8799991607666,57312430,0.0,0
2020-09-01,18.68000030517578,18.920000076293945,18.6200008392334,18.780000686645508,27125340,0.0,0
2020-09-02,18.700000762939453,18.799999237060547,18.31999969482422,18.5,42139970,0.0,0
2020-09-03,18.360000610351562,18.799999237060547,18.31999969482422,18.360000610351562,36630300,0.0,0
2020-09-04,18.200000762939453,18.540000915527344,18.059999465942383,18.399999618530273,52685490,0.0,0
2020-09-07,18.299999237060547,18.68000030517578,18.200000762939453,18.280000686645508,31867240,0.0,0
2020-09-08,18.479999542236328,19.020000457763672,18.3799991607666,18.760000228881836,45730350,0.0,0
2020-09-09,18.399999618530273,18.760000228881836,18.260000228881836,18.360000610351562,35016160,0.0,0
2020-09-10,18.399999618530273,18.540000915527344,18.200000762939453,18.200000762939453,24966570,0.0,0
2020-09-11,18.299999237060547,18.299999237060547,18.100000381469727,18.219999313354492,27781910,0.0,0
2020-09-14,18.219999313354492,18.420000076293945,18.1200008392334,18.219999313354492,28206010,0.0,0
2020-09-15,18.219999313354492,18.3799991607666,18.1200008392334,18.219999313354492,24157570,0.0,0
2020-09-16,18.34000015258789,18.3799991607666,18.020000457763672,18.100000381469727,27606660,0.0,0
2020-09-17,18.0,18.100000381469727,17.700000762939453,17.760000228881836,47476860,0.0,0
2020-09-18,17.8799991607666,18.799999237060547,17.81999969482422,18.559999465942383,86260320,0.0,0
2020-09-21,18.68000030517578,18.799999237060547,18.040000915527344,18.040000915527344,32727450,0.0,0
2020-09-22,18.139999389648438,18.139999389648438,17.719999313354492,17.959999084472656,35401020,0.0,0
2020-09-23,17.84000015258789,17.959999084472656,17.700000762939453,17.760000228881836,28261560,0.0,0
2020-09-24,17.600000381469727,17.65999984741211,17.020000457763672,17.200000762939453,54215060,0.0,0
2020-09-25,17.280000686645508,17.3799991607666,17.0,17.100000381469727,33552140,0.0,0
2020-09-28,17.15999984741211,17.459999084472656,17.079999923706055,17.239999771118164,26704620,0.0,0
2020-09-29,17.299999237060547,17.440000534057617,17.15999984741211,17.299999237060547,28695660,0.0,0
2020-09-30,17.440000534057617,17.600000381469727,17.18000030517578,17.34000015258789,20500390,0.0,0
2020-10-05,17.600000381469727,18.260000228881836,17.239999771118164,18.15999984741211,69069180,0.0,0
2020-10-06,18.239999771118164,18.280000686645508,17.940000534057617,18.0,24061990,0.0,0
2020-10-07,18.0,18.020000457763672,17.760000228881836,17.940000534057617,20801230,0.0,0
2020-10-08,17.84000015258789,18.1200008392334,17.84000015258789,18.059999465942383,22787130,0.0,0
2020-10-09,18.280000686645508,18.280000686645508,17.860000610351562,17.959999084472656,22490690,0.0,0
2020-10-12,18.0,18.459999084472656,18.0,18.219999313354492,45937870,0.0,0
2020-10-14,18.299999237060547,18.299999237060547,17.920000076293945,17.959999084472656,41141440,0.0,0
2020-10-15,17.920000076293945,18.100000381469727,17.719999313354492,17.81999969482422,92798810,0.0,0
2020-10-16,17.8799991607666,18.579999923706055,17.799999237060547,18.5,83330820,0.0,0
2020-10-19,18.559999465942383,19.200000762939453,18.559999465942383,18.700000762939453,71541330,0.0,0
2020-10-20,18.700000762939453,18.84000015258789,18.600000381469727,18.760000228881836,30410260,0.0,0
2020-10-21,19.040000915527344,19.079999923706055,18.3799991607666,18.479999542236328,72582920,0.0,0
2020-10-22,18.299999237060547,18.780000686645508,18.219999313354492,18.639999389648438,40024680,0.0,0
2020-10-23,18.760000228881836,19.200000762939453,18.579999923706055,19.079999923706055,78491050,0.0,0
2020-10-27,18.739999771118164,18.84000015258789,18.18000030517578,18.239999771118164,63332690,0.0,0
2020-10-28,18.239999771118164,18.34000015258789,17.899999618530273,18.1200008392334,56211930,0.0,0
2020-10-29,17.860000610351562,17.8799991607666,17.239999771118164,17.559999465942383,99668700,0.0,0
2020-10-30,17.299999237060547,17.5,16.719999313354492,16.84000015258789,101810100,0.0,0
2020-11-02,16.899999618530273,17.059999465942383,16.639999389648438,16.799999237060547,56593530,0.0,0
2020-11-03,16.979999542236328,17.639999389648438,16.920000076293945,17.420000076293945,63628080,0.0,0
2020-11-04,17.200000762939453,17.520000457763672,17.040000915527344,17.100000381469727,46425870,0.0,0
2020-11-05,17.34000015258789,17.579999923706055,17.239999771118164,17.34000015258789,83695850,0.0,0
2020-11-06,17.360000610351562,17.479999542236328,17.239999771118164,17.420000076293945,32145580,0.0,0
2020-11-09,17.68000030517578,17.8799991607666,17.5,17.799999237060547,54651190,0.0,0
2020-11-10,18.299999237060547,18.3799991607666,17.84000015258789,17.979999542236328,55869360,0.0,0
2020-11-11,18.100000381469727,18.31999969482422,17.920000076293945,18.200000762939453,66980150,0.0,0
2020-11-12,18.15999984741211,18.3799991607666,17.739999771118164,18.020000457763672,58595630,0.0,0
2020-11-13,17.920000076293945,17.920000076293945,17.3799991607666,17.5,55547530,0.0,0
2020-11-16,17.799999237060547,17.940000534057617,17.639999389648438,17.860000610351562,34787850,0.0,0
2020-11-17,18.0,18.280000686645508,17.959999084472656,18.0,47387270,0.0,0
2020-11-18,17.979999542236328,18.34000015258789,17.920000076293945,18.0,58424110,0.0,0
2020-11-19,17.860000610351562,17.940000534057617,17.6200008392334,17.65999984741211,40267100,0.0,0
2020-11-20,17.6200008392334,17.700000762939453,17.479999542236328,17.579999923706055,39756800,0.0,0
2020-11-23,17.68000030517578,17.68000030517578,17.420000076293945,17.6200008392334,36704300,0.0,0
2020-11-24,17.540000915527344,17.559999465942383,17.360000610351562,17.399999618530273,47677290,0.0,0
2020-11-25,17.5,18.059999465942383,17.5,17.559999465942383,66607070,0.0,0
2020-11-26,17.559999465942383,17.979999542236328,17.5,17.959999084472656,39749700,0.0,0
2020-11-27,17.979999542236328,18.5,17.959999084472656,18.5,73724740,0.0,0
2020-11-30,18.5,18.860000610351562,17.579999923706055,17.579999923706055,126377600,0.0,0
2020-12-01,17.6200008392334,18.059999465942383,17.559999465942383,18.020000457763672,57030970,0.0,0
2020-12-02,18.1200008392334,18.219999313354492,17.860000610351562,18.020000457763672,37439820,0.0,0
2020-12-03,18.0,18.100000381469727,17.719999313354492,17.899999618530273,42527670,0.0,0
2020-12-04,18.0,18.0,17.68000030517578,17.780000686645508,45704560,0.0,0
2020-12-07,17.68000030517578,17.760000228881836,17.399999618530273,17.579999923706055,30555902,0.0,0
