Date,Open,High,Low,Close,Volume,Dividends,Stock Splits
2020-01-02,8.552345878581457,8.727279592058155,8.552345878581457,8.717561721801758,123500,0.0,0
2020-01-03,8.746716943857926,8.746716943857926,8.562064438406315,8.591219902038574,121000,0.0,0
2020-01-06,8.552345374318541,8.610656299760812,8.455159262800821,8.562064170837402,186000,0.0,0
2020-01-07,8.523190056046765,8.766154412123326,8.503752462679618,8.67868709564209,441500,0.0,0
2020-01-08,8.610656200650004,8.610656200650004,8.426003703094274,8.552345275878906,364500,0.0,0
2020-01-09,8.552345907041065,8.659249894901208,8.484315254006878,8.620375633239746,332000,0.0,0
2020-01-10,8.620375051005224,9.009118568198959,8.620375051005224,8.960525512695312,571000,0.0,0
2020-01-13,8.989680757016401,9.329831210448488,8.960525295156213,9.038273811340332,1173500,0.0,0
2020-01-14,9.047993353004463,9.320113182067873,9.047993353004463,9.320113182067871,466000,0.0,0
2020-01-15,9.329831880970067,9.417298272836717,9.164616040496133,9.310394287109375,151500,0.0,0
2020-01-16,9.213208394133913,9.388143035765863,9.164616261978823,9.232645988464355,138000,0.0,0
2020-01-17,9.242364393935487,9.38814263789365,9.193771337004277,9.2909574508667,307500,0.0,0
2020-01-20,9.29095781532357,9.388143006162808,9.242364756486197,9.329832077026367,122000,0.0,0
2020-01-21,9.26180108609431,9.388142663728951,9.1063040449549,9.193771362304688,368000,0.0,0
2020-01-22,9.096585150931439,9.222926727215475,9.018836631192872,9.184052467346191,327500,0.0,0
2020-01-23,9.135459744017954,9.038274554217635,8.736998334114997,8.814746856689453,192500,0.0,0
2020-01-24,8.746716790303733,9.086867258438618,8.746716790303733,8.979962348937988,66500,0.0,0
2020-01-29,8.698123537106664,8.736997795999608,8.319099744609305,8.455159187316895,358500,0.0,0
2020-01-30,8.53290800766438,8.53290800766438,7.930356510040611,8.183039665222168,556000,0.0,0
2020-01-31,7.774859653655348,8.183039859619093,7.774859653655348,7.949794292449951,364000,0.0,0
2020-02-03,7.823452421610603,8.085853443232033,7.794296958504991,7.920637607574463,684000,0.0,0
2020-02-04,7.920637210175168,8.348254972834916,7.920637210175168,8.027542114257812,416495,0.0,0
2020-02-05,8.037261682917366,8.309381513687606,8.037261682917366,8.21219539642334,205000,0.0,0
2020-02-06,8.173320673767016,8.47459687882061,8.173320673767016,8.46487808227539,206000,0.0,0
2020-02-07,8.64953076180549,8.668968355298965,8.076135656280048,8.28022575378418,331500,0.0,0
2020-02-10,8.552345320429076,8.552345320429076,8.066416619573282,8.153883934020996,272500,0.0,0
2020-02-11,8.066416838654396,8.134446562034528,8.017823781881956,8.076135635375977,262500,0.0,0
2020-02-12,8.076135930718605,8.12472806243258,7.872045826279203,8.008105278015137,706500,0.0,0
2020-02-13,8.212194931184406,8.260787987063635,8.06641669038217,8.163601875305176,801500,0.0,0
2020-02-14,7.988668004963,8.299662073162,7.988668004963,8.1441650390625,215500,0.0,0
2020-02-17,8.13444653252651,8.484314871715068,8.008104956110666,8.377410888671875,718500,0.0,0
2020-02-18,8.513470988492987,8.513470988492987,8.192758122822775,8.348255157470703,321500,0.0,0
2020-02-19,8.348255585968928,8.73699819254208,8.241350674034699,8.698123931884766,383500,0.0,0
2020-02-20,8.542626722578449,8.67868709564209,8.357974219767867,8.67868709564209,559500,0.0,0
2020-02-21,8.591220255224002,8.591220255224002,8.289944029186918,8.426004409790039,530000,0.0,0
2020-02-24,8.32881766296223,8.474596829790737,8.260787941210195,8.3579740524292,217000,0.0,0
2020-02-25,8.20247666752295,8.357974641805642,8.153884535322339,8.319100379943848,345500,0.0,0
2020-02-26,8.299662420442182,8.299662420442182,8.183039639987747,8.28022575378418,199500,0.0,0
2020-02-27,8.173320501247298,8.260787814637126,8.124727446382346,8.1441650390625,154500,0.0,0
2020-02-28,8.06641686391113,8.12472779075226,7.901201026468812,7.978949546813965,614000,0.0,0
2020-03-02,7.920638094853947,8.36769257292989,7.920638094853947,8.124728202819824,501500,0.0,0
2020-03-03,8.25106926634236,8.25106926634236,7.940075188794194,7.969230651855469,277500,0.0,0
2020-03-04,8.046979296224334,8.046979296224334,7.862326791521041,7.881763458251953,331500,0.0,0
2020-03-05,8.066416715878775,8.066416715878775,7.804014769402799,7.862326622009277,199500,0.0,0
2020-03-06,7.901200856151227,7.901200856151227,7.53189492905474,7.658236503601074,615000,0.0,0
2020-03-09,7.609643648716165,7.629080778896858,7.298649565825081,7.376398086547852,674000,0.0,0
2020-03-10,7.337523643770546,7.940075127809913,7.191744939330641,7.356960773468018,262000,0.0,0
2020-03-11,7.376398026699817,7.405553490025436,7.1237148729832045,7.269493579864502,340500,0.0,0
2020-03-12,7.269493351411623,7.269493351411623,6.171294381080588,6.793282985687256,1180500,0.0,0
2020-03-13,6.074109069914681,6.705816505869357,6.035234808940647,6.579474925994873,2506500,0.0,0
2020-03-16,6.190731550109785,6.394821641952325,6.035234513817459,6.142138957977295,1052500,0.0,0
2020-03-17,5.928330014725236,5.928330014725236,5.520149834822387,5.733958721160889,1797000,0.0,0
2020-03-18,5.6659286207038395,5.976923158435115,5.6659286207038395,5.743677139282227,886500,0.0,0
2020-03-19,5.636773433165159,5.801988811502125,5.461838794404756,5.772833347320557,1386000,0.0,0
2020-03-20,5.733958806168791,5.889455843325567,5.500712787015903,5.743677139282227,843500,0.0,0
2020-03-23,5.490994502764889,5.578461355235049,5.306341537789194,5.345215797424316,303000,0.0,0
2020-03-24,5.277185540167733,5.568742946915933,5.277185540167733,5.539587020874023,439000,0.0,0
2020-03-25,5.733958756822645,5.733958756822645,5.578461257586348,5.636773109436035,154000,0.0,0
2020-03-26,5.724240303039551,5.918612072865973,5.685366041757816,5.724240303039551,403000,0.0,0
2020-03-27,5.928329979083628,5.9672042375627825,5.782551278077941,5.831144332885742,423025,0.0,0
2020-03-30,5.811707350217062,5.831144479946842,5.607617256345504,5.695084571838379,414000,0.0,0
2020-03-31,5.743677433680419,5.889456145195798,5.636773446864522,5.724240303039551,439000,0.0,0
2020-04-01,5.529868687805203,5.665928594692759,5.4909944286944725,5.539587020874023,551000,0.0,0
2020-04-02,5.870018633787824,5.870018633787824,5.403527065248897,5.432682991027832,271000,0.0,0
2020-04-03,5.490994762190959,5.5201502265859075,5.422964572906494,5.422964572906494,34000,0.0,0
2020-04-06,5.354934818330712,5.403527413201026,5.257748701754585,5.267467498779297,185500,0.0,0
2020-04-07,5.286904684991697,5.646491837166873,5.277185887864812,5.3743720054626465,508000,0.0,0
2020-04-08,5.432683298898462,5.4618387629119205,5.2966229221098375,5.36465311050415,501000,0.0,0
2020-04-09,5.3063417349182735,5.704803142689867,5.3063417349182735,5.5687432289123535,871500,0.0,0
2020-04-14,5.44240163534785,5.656210534177307,5.44240163534785,5.617336273193359,536500,0.0,0
2020-04-15,5.724239924773812,5.733958721160888,5.636773074378714,5.733958721160889,457000,0.0,0
2020-04-16,5.588180138246666,5.704802916868081,5.578461341652684,5.646491527557373,154500,0.0,0
2020-04-17,5.733958942948901,5.782551536510677,5.636773292407612,5.656210422515869,262500,0.0,0
2020-04-20,5.743677372139478,5.743677372139478,5.393809024352549,5.413246154785156,983500,0.0,0
2020-04-21,5.481275668517414,5.520149927885658,5.34521576072856,5.44240140914917,250500,0.0,0
2020-04-22,5.461838576329683,5.461838576329683,5.267467278154072,5.345215797424316,178500,0.0,0
2020-04-23,5.393808853677084,5.413245983494645,5.296622741171549,5.345215797424316,458000,0.0,0
2020-04-24,5.296622640544954,5.296622640544954,5.053658290732475,5.0828142166137695,695000,0.0,0
2020-04-27,5.092532538664178,5.22859290792697,5.024502817450502,5.131407260894775,383500,0.0,0
2020-04-28,5.131407334244287,5.248030112349952,5.014784092720895,5.189718723297119,336500,0.0,0
2020-04-29,5.248030040811579,5.510431519681272,5.248030040811579,5.384089946746826,1134500,0.0,0
2020-05-04,5.248030224472337,5.248030224472337,5.092532720258237,5.150844573974609,435000,0.0,0
2020-05-05,5.1508446856943575,5.248030338300002,5.063377366640404,5.1119704246521,212990,0.0,0
2020-05-06,5.150844658595385,5.199437252933685,5.111970397757648,5.160562992095947,226500,0.0,0
2020-05-07,5.189718919433123,5.374371890121247,5.111970397757648,5.160562992095947,637500,0.0,0
2020-05-08,5.209155743344444,5.2869042604451835,5.179999817722808,5.228592872619629,644500,0.0,0
2020-05-11,5.199436946997993,5.413245832442744,5.199436946997993,5.228592872619629,794500,0.0,0
2020-05-12,5.20915575402001,5.20915575402001,5.111970107444915,5.179999828338623,821690,0.0,0
2020-05-13,5.199999809265137,5.199999809265137,5.019999980926514,5.070000171661377,1736500,0.15,0
2020-05-14,5.0,5.050000190734863,4.949999809265137,4.949999809265137,1037500,0.0,0
2020-05-15,5.0,5.050000190734863,4.849999904632568,4.909999847412109,456500,0.0,0
2020-05-18,4.829999923706055,4.869999885559082,4.710000038146973,4.730000019073486,594000,0.0,0
2020-05-19,4.869999885559082,5.519999980926514,4.869999885559082,5.360000133514404,1866065,0.0,0
2020-05-20,5.360000133514404,5.5,5.179999828338623,5.179999828338623,349645,0.0,0
2020-05-21,5.199999809265137,5.289999961853027,5.010000228881836,5.179999828338623,437500,0.0,0
2020-05-22,5.03000020980835,5.119999885559082,4.920000076293945,5.099999904632568,384500,0.0,0
2020-05-25,5.079999923706055,5.210000038146973,4.800000190734863,5.199999809265137,744500,0.0,0
2020-05-26,5.199999809265137,5.53000020980835,5.199999809265137,5.5,942000,0.0,0
2020-05-27,5.449999809265137,5.559999942779541,5.429999828338623,5.559999942779541,600500,0.0,0
2020-05-28,5.559999942779541,5.579999923706055,5.150000095367432,5.340000152587891,670000,0.0,0
2020-05-29,5.340000152587891,5.400000095367432,5.190000057220459,5.329999923706055,685000,0.0,0
2020-06-01,5.329999923706055,5.610000133514404,5.329999923706055,5.599999904632568,608500,0.0,0
2020-06-02,5.519999980926514,5.889999866485596,5.519999980926514,5.880000114440918,1114000,0.0,0
2020-06-03,5.829999923706055,6.21999979019165,5.829999923706055,6.090000152587891,812000,0.0,0
2020-06-04,6.090000152587891,6.25,5.940000057220459,6.079999923706055,533000,0.0,0
2020-06-05,6.079999923706055,6.320000171661377,5.909999847412109,6.260000228881836,839239,0.0,0
2020-06-08,6.300000190734863,6.360000133514404,6.110000133514404,6.179999828338623,560500,0.0,0
2020-06-09,6.230000019073486,6.300000190734863,5.989999771118164,6.110000133514404,705500,0.0,0
2020-06-10,6.050000190734863,6.170000076293945,5.949999809265137,6.079999923706055,242500,0.0,0
2020-06-11,6.079999923706055,6.5,6.039999961853027,6.239999771118164,987500,0.0,0
2020-06-12,6.059999942779541,6.480000019073486,6.059999942779541,6.329999923706055,677000,0.0,0
2020-06-15,6.320000171661377,6.320000171661377,6.019999980926514,6.03000020980835,322000,0.0,0
2020-06-16,6.269999980926514,6.269999980926514,6.03000020980835,6.190000057220459,161000,0.0,0
2020-06-17,6.190000057220459,6.239999771118164,6.139999866485596,6.210000038146973,127000,0.0,0
2020-06-18,6.289999961853027,6.289999961853027,6.059999942779541,6.090000152587891,166000,0.0,0
2020-06-19,6.079999923706055,6.159999847412109,5.940000057220459,5.940000057220459,411806,0.0,0
2020-06-22,5.980000019073486,5.989999771118164,5.869999885559082,5.920000076293945,230000,0.0,0
2020-06-23,6.039999961853027,6.110000133514404,5.949999809265137,6.059999942779541,261500,0.0,0
2020-06-24,6.059999942779541,6.150000095367432,5.920000076293945,6.130000114440918,265000,0.0,0
2020-06-26,6.0,6.139999866485596,5.980000019073486,6.130000114440918,425800,0.0,0
2020-06-29,6.010000228881836,6.150000095367432,5.980000019073486,6.099999904632568,152000,0.0,0
2020-06-30,6.050000190734863,6.21999979019165,6.0,6.199999809265137,879000,0.0,0
2020-07-02,6.050000190734863,6.269999980926514,6.050000190734863,6.070000171661377,316000,0.0,0
2020-07-03,6.099999904632568,6.190000057220459,6.03000020980835,6.179999828338623,476000,0.0,0
2020-07-06,6.150000095367432,6.28000020980835,6.079999923706055,6.28000020980835,2413000,0.0,0
2020-07-07,6.28000020980835,6.659999847412109,6.260000228881836,6.579999923706055,1211500,0.0,0
2020-07-08,6.599999904632568,6.880000114440918,6.599999904632568,6.75,533500,0.0,0
2020-07-09,6.800000190734863,7.150000095367432,6.699999809265137,7.150000095367432,1595000,0.0,0
2020-07-10,7.059999942779541,7.099999904632568,6.559999942779541,6.619999885559082,1059000,0.0,0
2020-07-13,6.369999885559082,6.599999904632568,6.179999828338623,6.21999979019165,1043500,0.0,0
2020-07-14,6.400000095367432,6.400000095367432,5.909999847412109,6.050000190734863,613000,0.0,0
2020-07-15,5.960000038146973,6.059999942779541,5.71999979019165,5.820000171661377,569000,0.0,0
2020-07-16,5.860000133514404,5.860000133514404,5.449999809265137,5.550000190734863,1192500,0.0,0
2020-07-17,5.429999828338623,5.690000057220459,5.349999904632568,5.590000152587891,1456500,0.0,0
2020-07-20,5.579999923706055,5.730000019073486,5.400000095367432,5.619999885559082,929500,0.0,0
2020-07-21,5.570000171661377,5.670000076293945,5.53000020980835,5.630000114440918,967500,0.0,0
2020-07-22,5.550000190734863,5.559999942779541,5.369999885559082,5.380000114440918,1738000,0.0,0
2020-07-23,5.400000095367432,5.769999980926514,5.400000095367432,5.690000057220459,1318500,0.0,0
2020-07-24,5.599999904632568,5.679999828338623,5.480000019073486,5.550000190734863,1411000,0.0,0
2020-07-27,5.510000228881836,5.829999923706055,5.510000228881836,5.739999771118164,923000,0.0,0
2020-07-28,5.840000152587891,6.099999904632568,5.820000171661377,6.099999904632568,683000,0.0,0
2020-07-29,6.170000076293945,6.170000076293945,5.96999979019165,6.119999885559082,451000,0.0,0
2020-07-30,6.21999979019165,6.21999979019165,6.059999942779541,6.099999904632568,321000,0.0,0
2020-07-31,5.960000038146973,6.139999866485596,5.829999923706055,5.920000076293945,694500,0.0,0
2020-08-03,5.849999904632568,5.900000095367432,5.619999885559082,5.699999809265137,582000,0.0,0
2020-08-04,5.630000114440918,5.789999961853027,5.599999904632568,5.760000228881836,285500,0.0,0
2020-08-05,5.710000038146973,6.010000228881836,5.710000038146973,5.900000095367432,574000,0.0,0
2020-08-06,6.179999828338623,6.179999828338623,5.900000095367432,6.150000095367432,415000,0.0,0
2020-08-07,6.099999904632568,6.210000038146973,5.960000038146973,6.139999866485596,623500,0.0,0
2020-08-10,6.139999866485596,6.139999866485596,6.019999980926514,6.090000152587891,103000,0.0,0
2020-08-11,6.050000190734863,6.159999847412109,5.829999923706055,5.829999923706055,195000,0.0,0
2020-08-12,5.809999942779541,6.0,5.800000190734863,5.96999979019165,84500,0.0,0
2020-08-13,5.889999866485596,5.960000038146973,5.889999866485596,5.949999809265137,51000,0.0,0
2020-08-14,5.900000095367432,6.119999885559082,5.840000152587891,5.889999866485596,160000,0.0,0
2020-08-17,5.46999979019165,5.940000057220459,5.46999979019165,5.920000076293945,473501,0.0,0
2020-08-18,5.889999866485596,5.929999828338623,5.800000190734863,5.869999885559082,152500,0.0,0
2020-08-19,5.869999885559082,6.099999904632568,5.760000228881836,5.960000038146973,142000,0.0,0
2020-08-20,5.840000152587891,5.96999979019165,5.840000152587891,5.920000076293945,99000,0.0,0
2020-08-21,5.900000095367432,6.079999923706055,5.900000095367432,6.019999980926514,144000,0.0,0
2020-08-24,5.929999828338623,6.179999828338623,5.809999942779541,6.179999828338623,525000,0.0,0
2020-08-25,6.070000171661377,6.210000038146973,6.03000020980835,6.03000020980835,107000,0.0,0
2020-08-26,5.699999809265137,6.099999904632568,5.699999809265137,5.880000114440918,281500,0.0,0
2020-08-27,5.869999885559082,5.869999885559082,5.690000057220459,5.699999809265137,545500,0.0,0
2020-08-28,5.769999980926514,5.989999771118164,5.739999771118164,5.849999904632568,368500,0.0,0
2020-08-31,5.989999771118164,6.079999923706055,5.849999904632568,6.039999961853027,730500,0.0,0
2020-09-01,5.949999809265137,6.230000019073486,5.949999809265137,6.199999809265137,758500,0.0,0
2020-09-02,6.150000095367432,6.329999923706055,5.960000038146973,6.03000020980835,576000,0.0,0
2020-09-03,6.190000057220459,6.190000057220459,6.010000228881836,6.039999961853027,188500,0.0,0
2020-09-04,5.78000020980835,5.980000019073486,5.659999847412109,5.940000057220459,462500,0.0,0
2020-09-07,5.820000171661377,5.849999904632568,5.670000076293945,5.679999828338623,645000,0.0,0
2020-09-08,5.659999847412109,5.809999942779541,5.5,5.690000057220459,620500,0.0,0
2020-09-09,5.510000228881836,5.820000171661377,5.510000228881836,5.730000019073486,376000,0.0,0
2020-09-10,5.650000095367432,5.800000190734863,5.650000095367432,5.659999847412109,311500,0.0,0
2020-09-11,5.659999847412109,5.789999961853027,5.599999904632568,5.75,123000,0.0,0
2020-09-14,5.800000190734863,5.809999942779541,5.570000171661377,5.590000152587891,283000,0.0,0
2020-09-15,5.550000190734863,5.789999961853027,5.550000190734863,5.690000057220459,199000,0.0,0
2020-09-16,5.760000228881836,5.760000228881836,5.519999980926514,5.519999980926514,199500,0.0,0
2020-09-17,5.579999923706055,5.829999923706055,5.559999942779541,5.71999979019165,725500,0.0,0
2020-09-18,5.78000020980835,5.880000114440918,5.610000133514404,5.809999942779541,1985469,0.0,0
2020-09-21,5.820000171661377,5.880000114440918,5.599999904632568,5.670000076293945,2457500,0.0,0
2020-09-22,5.570000171661377,5.619999885559082,5.420000076293945,5.420000076293945,319500,0.0,0
2020-09-23,5.489999771118164,5.489999771118164,5.369999885559082,5.449999809265137,260500,0.0,0
2020-09-24,5.480000019073486,5.489999771118164,5.139999866485596,5.170000076293945,691000,0.0,0
2020-09-25,5.25,5.409999847412109,5.190000057220459,5.309999942779541,288000,0.0,0
2020-09-28,5.269999980926514,5.349999904632568,5.21999979019165,5.320000171661377,110000,0.0,0
2020-09-29,5.550000190734863,5.550000190734863,5.25,5.309999942779541,27500,0.0,0
2020-09-30,5.150000095367432,5.590000152587891,5.150000095367432,5.550000190734863,66000,0.0,0
2020-10-05,5.610000133514404,5.610000133514404,5.190000057220459,5.199999809265137,116000,0.0,0
2020-10-06,5.519999980926514,5.519999980926514,5.210000038146973,5.21999979019165,17500,0.0,0
2020-10-07,5.21999979019165,5.389999866485596,5.179999828338623,5.230000019073486,115000,0.0,0
2020-10-08,5.21999979019165,5.409999847412109,5.21999979019165,5.329999923706055,98000,0.0,0
2020-10-09,5.239999771118164,5.489999771118164,5.239999771118164,5.489999771118164,123500,0.0,0
2020-10-12,5.599999904632568,6.449999809265137,5.53000020980835,6.170000076293945,1430500,0.0,0
2020-10-14,6.0,6.400000095367432,5.849999904632568,5.940000057220459,1588500,0.0,0
2020-10-15,5.840000152587891,6.559999942779541,5.840000152587891,6.550000190734863,1283000,0.0,0
2020-10-16,6.679999828338623,6.920000076293945,6.599999904632568,6.900000095367432,2441000,0.0,0
2020-10-19,6.980000019073486,7.360000133514404,6.679999828338623,6.78000020980835,2909500,0.0,0
2020-10-20,6.789999961853027,7.119999885559082,6.789999961853027,7.050000190734863,1380500,0.0,0
2020-10-21,7.050000190734863,7.320000171661377,6.829999923706055,7.21999979019165,2633500,0.0,0
2020-10-22,6.940000057220459,7.0,6.900000095367432,6.929999828338623,933000,0.0,0
2020-10-23,6.840000152587891,6.849999904632568,6.449999809265137,6.699999809265137,926000,0.0,0
2020-10-27,6.409999847412109,6.889999866485596,6.400000095367432,6.510000228881836,701000,0.0,0
2020-10-28,6.489999771118164,6.5,6.210000038146973,6.320000171661377,544000,0.0,0
2020-10-29,6.199999809265137,6.309999942779541,6.090000152587891,6.199999809265137,443500,0.0,0
2020-10-30,6.210000038146973,6.449999809265137,5.940000057220459,5.940000057220459,555500,0.0,0
2020-11-02,6.010000228881836,6.079999923706055,5.980000019073486,6.079999923706055,159500,0.0,0
2020-11-03,6.400000095367432,6.400000095367432,6.0,6.03000020980835,120500,0.0,0
2020-11-04,6.039999961853027,6.139999866485596,6.0,6.039999961853027,126000,0.0,0
2020-11-05,6.03000020980835,6.190000057220459,5.940000057220459,6.190000057220459,569000,0.0,0
2020-11-06,6.460000038146973,6.460000038146973,6.159999847412109,6.25,195500,0.0,0
2020-11-09,6.25,6.449999809265137,6.25,6.380000114440918,479000,0.0,0
2020-11-10,6.449999809265137,6.480000019073486,6.25,6.300000190734863,189500,0.0,0
2020-11-11,6.300000190734863,6.53000020980835,6.300000190734863,6.320000171661377,478000,0.0,0
2020-11-12,6.389999866485596,6.440000057220459,6.320000171661377,6.380000114440918,143000,0.0,0
2020-11-13,6.429999828338623,6.579999923706055,6.360000133514404,6.510000228881836,291500,0.0,0
2020-11-16,6.619999885559082,7.059999942779541,6.619999885559082,6.940000057220459,1100000,0.0,0
2020-11-17,7.090000152587891,7.090000152587891,6.78000020980835,6.840000152587891,285000,0.0,0
2020-11-18,6.809999942779541,7.039999961853027,6.760000228881836,6.96999979019165,312500,0.0,0
2020-11-19,6.96999979019165,6.989999771118164,6.809999942779541,6.840000152587891,217000,0.0,0
2020-11-20,6.909999847412109,7.230000019073486,6.900000095367432,7.130000114440918,680000,0.0,0
2020-11-23,7.21999979019165,7.320000171661377,6.71999979019165,6.860000133514404,1630000,0.0,0
2020-11-24,6.880000114440918,7.230000019073486,6.880000114440918,7.070000171661377,480000,0.0,0
2020-11-25,7.260000228881836,7.489999771118164,7.090000152587891,7.190000057220459,555000,0.0,0
2020-11-26,7.03000020980835,7.53000020980835,7.03000020980835,7.5,1174000,0.0,0
2020-11-27,7.5,7.579999923706055,7.340000152587891,7.389999866485596,440500,0.0,0
2020-11-30,7.5,7.53000020980835,7.139999866485596,7.150000095367432,4344438,0.0,0
2020-12-01,7.480000019073486,7.480000019073486,7.210000038146973,7.340000152587891,2880500,0.0,0
2020-12-02,7.179999828338623,7.480000019073486,6.699999809265137,6.920000076293945,1210000,0.0,0
2020-12-03,6.880000114440918,7.039999961853027,6.829999923706055,6.829999923706055,439500,0.0,0
2020-12-04,7.0,7.0,6.71999979019165,6.760000228881836,196000,0.0,0
2020-12-07,6.800000190734863,6.800000190734863,6.519999980926514,6.639999866485596,323000,0.0,0
