Date,Open,High,Low,Close,Volume,Dividends,Stock Splits
2020-01-02,15.633786552935026,15.71042268987492,15.595469398039896,15.691263198852539,2641450,0.0,0
2020-01-03,15.844537192889689,15.844537192889689,15.346401392569302,15.4230375289917,4971643,0.0,0
2020-01-06,15.557150135772732,15.557150135772732,15.34640121977154,15.4421968460083,4235829,0.0,0
2020-01-07,15.38471794128418,15.442196411699422,15.30808180788007,15.38471794128418,4278817,0.0,0
2020-01-08,15.537990995440731,15.557150486550004,15.269764514934646,15.403878211975098,5790079,0.0,0
2020-01-09,15.480513820042754,15.499673310497037,15.346401041161927,15.365560531616211,3803111,0.0,0
2020-01-10,15.346400788156899,15.442196411699422,15.30808180788007,15.38471794128418,2892240,0.0,0
2020-01-13,15.346401145669553,15.537990570068361,15.231446029310598,15.53799057006836,4204046,0.0,0
2020-01-14,15.691263029533618,15.844537128909106,15.614626893420679,15.806218147277832,10954760,0.0,0
2020-01-15,15.729581666088713,15.902013425347413,15.652945531657021,15.844536781311035,6103979,0.0,0
2020-01-16,15.84453713778349,16.055286055424705,15.84453713778349,15.997809410095215,7715482,0.0,0
2020-01-17,16.03612674240968,16.13192237045411,15.90201395943726,16.074445724487305,4130142,0.0,0
2020-01-20,15.978650096442877,16.26603515342653,15.978650096442877,16.074445724487305,6238271,0.0,0
2020-01-21,16.15108089412657,16.15108089412657,15.940330159621782,15.978649139404297,5873246,0.0,0
2020-01-22,16.13192159508715,16.208557728409318,15.997808818560745,16.151081085205078,3947502,0.0,0
2020-01-23,16.28519304798908,16.28519304798908,15.825376271032313,15.940329551696777,3965342,0.0,0
2020-01-24,15.748741678754316,16.036126735616225,15.748741678754316,15.882854461669922,2405255,0.0,0
2020-01-29,15.767899407303089,15.767899407303089,15.250605937400193,15.403878211975098,8324707,0.0,0
2020-01-30,15.327241139214152,15.44219625170405,15.059014675078839,15.116491317749023,6633792,0.0,0
2020-01-31,15.537990451380681,15.537990451380681,15.116491711058396,15.173969268798828,6508878,0.0,0
2020-02-03,15.135650839168871,15.15480941557386,14.963219083650156,15.020696640014648,6114462,0.0,0
2020-02-04,14.886582950880673,15.078173282804377,14.848264884495933,15.020696640014648,7799554,0.0,0
2020-02-05,14.886583155021185,14.98237877908407,14.77162895429059,14.905742645263672,7506567,0.0,0
2020-02-06,14.982378932288698,15.231445912964473,14.905742797684647,15.173969268798828,5010871,0.0,0
2020-02-07,15.097333336783292,15.173969472415711,14.867424929886036,14.96321964263916,5280094,0.0,0
2020-02-10,14.790787703069471,14.944060886068588,14.790787703069471,14.88658332824707,6169733,0.0,0
2020-02-11,14.94406065496568,15.250605189073768,14.924901164796538,15.193127632141113,7174531,0.0,0
2020-02-12,15.269764170637254,15.461354509535973,15.135651390195552,15.4421968460083,6903232,0.0,0
2020-02-13,15.327242109020707,15.403878246479826,15.135651765372913,15.212287902832031,3986902,0.0,0
2020-02-14,15.116491531042207,15.212287154943875,15.059014887561029,15.097332954406738,4485739,0.0,0
2020-02-17,15.001537680820176,15.288923645661422,14.944061035996805,15.154809951782227,5846754,0.0,0
2020-02-18,15.001537502818442,15.116491704675985,15.001537502818442,15.078173637390137,5104091,0.0,0
2020-02-19,15.020697383595058,15.135651588439941,14.944061247031803,15.135651588439941,3631257,0.0,0
2020-02-20,15.19312841167984,15.269764549138959,15.078174205491164,15.212287902832031,5440992,0.0,0
2020-02-21,15.116492097511722,15.193128234074978,15.001537892666839,15.135651588439941,8002672,0.0,0
2020-02-24,15.039855603926394,15.193127873414468,14.92490140181034,14.982378959655762,5762933,0.0,0
2020-02-25,14.82910543214728,14.905742478686005,14.465084257355866,14.541720390319824,9298712,0.0,0
2020-02-26,14.46508387049325,14.46508387049325,14.120220367803904,14.196856498718262,5810948,0.0,0
2020-02-27,14.101062003312439,14.235174777636253,13.928630249382099,14.177698135375977,5515198,0.0,0
2020-02-28,14.120221172581477,14.120221172581477,13.851994699093746,14.024426460266113,10239170,0.0,0
2020-03-02,13.947789760143564,14.139380090590297,13.813676072043473,13.98610782623291,9728990,0.0,0
2020-03-03,14.350129845701188,14.905743207207767,14.139380926537285,14.848265647888184,21474920,0.0,0
2020-03-04,15.001537456372983,15.614626531048389,14.982378879576768,15.557149887084961,20019440,0.0,0
2020-03-05,15.576309551237875,15.806217956806197,15.38471829968948,15.53799057006836,9734888,0.0,0
2020-03-06,15.499672894374235,15.499672894374235,15.097332741383884,15.116491317749023,10595240,0.0,0
2020-03-09,14.84826565159857,15.059015484389949,14.675833887171551,14.944061279296875,14339760,0.0,0
2020-03-10,15.020696640014648,15.231445548343341,14.867424374475686,15.020696640014648,8144643,0.0,0
2020-03-11,14.944060521568343,15.059014720832744,14.599197010200374,14.73331069946289,11994590,0.0,0
2020-03-12,14.445925355974772,14.656675187000742,13.832835353705955,14.29265308380127,15376950,0.0,0
2020-03-13,13.411336459120069,14.024426454709626,13.085632427512328,13.928630828857422,17835570,0.0,0
2020-03-16,13.583768119503773,13.698722321529184,13.123950397827343,13.181427955627441,17751140,0.0,0
2020-03-17,12.989837618918425,13.219746022969245,12.683292166609208,13.181427955627441,17928840,0.0,0
2020-03-18,12.970678720095737,13.296382764144902,12.855724512826885,13.028156280517578,14576110,0.0,0
2020-03-19,12.702451201218592,13.028155218722878,11.47627126313484,11.706180572509766,30297860,0.0,0
2020-03-20,11.916930610009347,13.526291360563121,11.916930610009347,13.104792594909668,35747180,0.0,0
2020-03-23,12.70245151059767,12.951519402234828,12.319269928023251,12.434224128723145,18729550,0.0,0
2020-03-24,12.261793981525832,12.989838207588187,12.261793981525832,12.836565017700195,18089340,0.0,0
2020-03-25,13.04731475380855,13.698722836691225,13.04731475380855,13.602927207946777,11051730,0.0,0
2020-03-26,13.545450564194399,13.947790743279617,13.18142845389945,13.698722839355469,13671010,0.0,0
2020-03-27,13.947790324983906,14.44592520431826,13.832835208485797,14.024426460266113,10968400,0.0,0
2020-03-30,15.595468405700954,15.595468405700954,13.89031218335033,14.177698135375977,15602940,0.0,0
2020-03-31,14.541720765542589,14.541720765542589,14.13938060031277,14.311811447143555,8618551,0.0,0
2020-04-01,14.254334257780785,14.46508407760009,13.96694830594987,14.081902503967285,13479150,0.0,0
2020-04-02,13.890312003746798,14.273492659109916,13.832834448654959,14.101061820983887,8136766,0.0,0
2020-04-03,14.08190249291371,14.369288444519041,13.928630229010802,14.369288444519043,8595294,0.0,0
2020-04-06,14.560879320283048,14.599197387695314,14.196857223079123,14.599197387695312,8395607,0.0,0
2020-04-07,14.848265073285464,14.848265073285464,14.407606847470776,14.714151382446289,7914278,0.0,0
2020-04-08,14.714151805473122,14.714151805473122,14.388448684485175,14.580039024353027,7533827,0.0,0
2020-04-09,14.694993374469052,14.848265647888185,14.541721101049918,14.848265647888184,6083348,0.0,0
2020-04-14,15.039855576454345,15.288923470704907,14.963219441850292,15.173969268798828,9618454,0.0,0
2020-04-15,15.231445706588156,15.327241330332644,15.05901486285276,15.288923263549805,7486019,0.0,0
2020-04-16,15.05901488002524,15.193127657130729,14.771628922038829,15.001537322998047,7117248,0.0,0
2020-04-17,15.135650988783235,15.288923255837279,15.020696788492703,15.193127632141113,6651650,0.0,0
2020-04-20,15.193127639805315,15.308081840153836,14.98237872928708,15.288923263549805,5866000,0.0,0
2020-04-21,15.039855783345883,15.212287545364402,14.905743002731302,15.059015274047852,3569553,0.0,0
2020-04-22,14.944060687023894,15.154809597887919,14.944060687023894,15.097332954406738,8273475,0.0,0
2020-04-23,15.193128054662434,15.23144612249157,14.92490157985847,15.059015274047852,5364798,0.0,0
2020-04-24,14.982379311411185,15.078174025302898,14.71415191993484,15.03985595703125,7903051,0.0,0
2020-04-27,14.905743319606657,15.4038782119751,14.86742525096293,15.403878211975098,7921763,0.0,0
2020-04-28,15.135650979795466,15.57630920410156,15.039855356156187,15.576309204101562,9408333,0.0,0
2020-04-29,15.576309626450003,15.63378627133222,15.32724172909427,15.4421968460083,9351784,0.0,0
2020-05-04,14.982379311411185,15.116492093574546,14.694993342586422,15.03985595703125,9894563,0.0,0
2020-05-05,15.020696820715317,15.116491531042207,14.886583129967939,15.097332954406738,4810863,0.0,0
2020-05-06,15.059015244422147,15.42303734487021,15.001537686004117,15.250605583190918,6933182,0.0,0
2020-05-07,15.116491523477656,15.34640083801165,14.94406067954563,15.001537322998047,6539300,0.0,0
2020-05-08,15.039855185138935,15.154809384054069,15.00153711883389,15.116491317749023,7172450,0.0,0
2020-05-11,15.17396965672157,15.308082438919861,15.078174029230095,15.135651588439941,4065117,0.0,0
2020-05-12,15.059014675078839,15.154809384054069,14.924900986223799,15.116491317749023,4859076,0.0,0
2020-05-13,14.905743207207767,15.039855989662103,14.771629511178618,14.848265647888184,9815274,0.0,0
2020-05-14,14.752469837849622,15.001537735864241,14.618357057053135,14.675833702087402,7157049,0.0,0
2020-05-15,14.6566743850708,14.905742270512567,14.560878763416351,14.6566743850708,6259960,0.0,0
2020-05-18,14.82910598342352,14.867424964904787,14.675833711797665,14.867424964904785,4781557,0.0,0
2020-05-19,15.135650839168871,15.173968905553613,14.963219083650156,15.020696640014648,6490412,0.0,0
2020-05-20,14.944061243139537,15.154810161846195,14.867425106596242,15.03985595703125,4755005,0.0,0
2020-05-21,15.039855597671398,15.039855597671398,14.694992991466659,14.88658332824707,6123953,0.0,0
2020-05-22,14.733311296247308,14.771629364220878,14.369289193710987,14.580039024353027,6591050,0.0,0
2020-05-25,14.522561080530666,14.656674771669458,14.273493188519243,14.618356704711914,2965733,0.0,0
2020-05-26,14.848264714804946,15.020696468353053,14.6566743850708,14.6566743850708,5247251,0.0,0
2020-05-27,14.656674375252384,14.752469083267908,14.407606489977468,14.56087875366211,8975859,0.0,0
2020-05-28,14.522561460905505,14.560879528866675,14.311811630331668,14.484243392944336,12151830,0.0,0
2020-05-29,14.177698477912774,14.809947039499631,14.177698477912774,14.618356704711914,18363090,0.0,0
2020-06-01,14.809947579533402,15.11649212637167,14.790788088568604,14.848265647888184,8020642,0.0,0
2020-06-02,14.982378556131987,15.039855198854589,14.771628734474664,14.829105377197266,9503809,0.0,0
2020-06-03,14.963219852952536,15.078174058016886,14.790788088568604,14.848265647888184,8220768,0.0,0
2020-06-04,15.039855989662103,15.0590154806269,14.714151951859037,14.848265647888184,6702680,0.0,0
2020-06-05,14.790788088568604,14.905743207207767,14.618357237759485,14.848265647888184,9462455,0.0,0
2020-06-08,14.924901417486973,14.924901417486973,14.560879320283048,14.599197387695312,5552521,0.0,0
2020-06-09,14.618356850596046,14.92490138931556,14.484243158118863,14.790787696838379,5647756,0.0,0
2020-06-10,14.809946823637254,14.848264890036294,14.618356491642063,14.6375150680542,5678972,0.0,0
2020-06-11,14.54172039692806,14.599197039889765,14.101062175397672,14.158538818359375,6313924,0.0,0
2020-06-12,13.947789729734346,14.101061993757565,13.79451655213637,14.081902503967285,7702464,0.0,0
2020-06-15,13.794517189139915,13.928630883140716,13.449654579162596,13.449654579162598,14765300,0.0,0
2020-06-16,13.679562194192345,13.928630077105623,13.679562194192345,13.813675880432129,6953570,0.0,0
2020-06-17,13.83831808662985,13.976307352185513,13.62147808074951,13.621478080749512,4458674,0.405,0
2020-06-18,13.601765199408096,13.976306667591825,13.58205204530504,13.95659351348877,5891710,0.0,0
2020-06-19,13.95659372163747,14.094582982492055,13.739753723144531,13.739753723144531,12104427,0.0,0
2020-06-22,13.858031241698502,13.95659419711686,13.601765865655826,13.621478080749512,5033513,0.0,0
2020-06-23,13.621477854535312,13.759467117799366,13.424351006997346,13.68061637878418,4094265,0.0,0
2020-06-24,13.700328593550498,13.818605642048231,13.522914900753806,13.68061637878418,5782119,0.0,0
2020-06-26,13.700328593550498,13.877743226322144,13.641191009276586,13.68061637878418,7305155,0.0,0
2020-06-29,13.660902712623452,13.660902712623452,13.306074400338723,13.404638290405273,7193976,0.0,0
2020-06-30,13.542626808663217,13.542626808663217,13.089234599611649,13.10894775390625,8342615,0.0,0
2020-07-02,13.562339990171662,13.562339990171662,13.227223886290469,13.345499992370605,13803450,0.0,0
2020-07-03,13.3849251262657,13.483489016257609,13.227223654258578,13.325787544250488,12515246,0.0,0
2020-07-06,13.325787812223135,13.700328345784346,13.325787812223135,13.660902976989746,10328900,0.0,0
2020-07-07,13.798892237758308,13.798892237758308,13.60176539378532,13.660902976989746,14572360,0.0,0
2020-07-08,13.79889228511122,14.114295236550353,13.66090302386913,13.976306915283203,14487690,0.0,0
2020-07-09,13.9960194106649,14.449411632445837,13.9960194106649,14.390274047851562,14560970,0.0,0
2020-07-10,14.370560865616273,14.370560865616273,13.996019383991472,14.232571601867676,9296861,0.0,0
2020-07-13,14.252284783839986,14.469124787293904,14.173434044397647,14.390274047851562,9662347,0.0,0
2020-07-14,14.291709623310695,14.46912425046101,14.015732045501812,14.035444259643555,7342444,0.0,0
2020-07-15,14.055157887772857,14.232571580931557,13.996019363403322,13.99601936340332,7054332,0.0,0
2020-07-16,14.390273493956366,14.390273493956366,13.85803055321962,13.877742767333984,8643040,0.0,0
2020-07-17,13.956594208927216,14.074870319514314,13.700328832667683,13.779179573059082,8152169,0.0,0
2020-07-20,13.779178644163128,13.91716790053329,13.660902541549378,13.858030319213867,6406681,0.0,0
2020-07-21,13.68061661755732,13.996019579122915,13.621478092276284,13.779179573059082,6903438,0.0,0
2020-07-22,13.77917881671836,13.858030492756553,13.286361246335446,13.404638290405273,8165166,0.0,0
2020-07-23,13.404638979181692,13.404638979181692,13.089235078747146,13.1483736038208,11474880,0.0,0
2020-07-24,12.990671370840154,13.207510423603786,12.69498064255576,12.852682113647461,13031610,0.0,0
2020-07-27,12.990671856667893,13.286361656035641,12.754118701208768,12.892107963562012,10449850,0.0,0
2020-07-28,13.089234539562769,13.187798430633732,12.497854013061774,12.714693069458008,8729322,0.0,0
2020-07-29,12.675268166827468,12.75411890659195,12.556992057180747,12.596417427062988,8014219,0.0,0
2020-07-30,12.65555595187383,12.75411890659195,12.517566687298505,12.596417427062988,8997460,0.0,0
2020-07-31,12.59641716948538,12.675267907637483,12.340152740478514,12.340152740478516,10718940,0.0,0
2020-08-03,12.340152233074635,12.497853702894453,12.162737609539885,12.221875190734863,7693395,0.0,0
2020-08-04,12.221875904540676,12.379578323545845,12.123312950134277,12.123312950134277,7040178,0.0,0
2020-08-05,12.16273831989183,12.261301274298228,12.083887580376725,12.123312950134277,7639934,0.0,0
2020-08-06,12.182450050709697,12.28101394117459,11.906472473372887,12.083887100219727,8310649,0.0,0
2020-08-07,12.083887580376725,12.202163689649382,12.00503684086162,12.123312950134277,9380210,0.0,0
2020-08-10,12.123312468410699,12.123312468410699,11.965610995646808,12.083887100219727,7935826,0.0,0
2020-08-11,12.162738079992138,12.497854186308931,12.123312711012218,12.182450294494629,19878370,0.0,0
2020-08-12,12.379578417713091,13.187798973878248,12.320439892639435,13.1483736038208,33321920,0.0,0
2020-08-13,13.128660448804593,13.16808581886204,12.813257488345013,13.1483736038208,12016540,0.0,0
2020-08-14,13.44406360290583,13.44406360290583,13.03009677029609,13.089234352111816,8758434,0.0,0
2020-08-17,13.187798949050682,13.187798949050682,12.77383209423934,12.83297061920166,7467721,0.0,0
2020-08-18,13.108947771546529,13.444063875206242,13.108947771546529,13.26664924621582,25420520,0.0,0
2020-08-19,13.266648956134492,13.266648956134492,12.754118234691077,12.931532859802246,14672990,0.0,0
2020-08-20,12.813257444242664,12.951246708956264,12.675268179529063,12.754118919372559,8835127,0.0,0
2020-08-21,12.87239574123039,12.931533325078608,12.675267955136475,12.813257217407227,16193430,0.0,0
2020-08-24,12.970958424728256,13.010383793132675,12.576704740684056,12.635842323303223,20077500,0.0,0
2020-08-25,12.714693060112062,12.773831582706155,12.616130109088475,12.635842323303223,11485180,0.0,0
2020-08-26,12.73440618550612,12.754118399676292,12.320439348208327,12.399290084838867,41660690,0.0,0
2020-08-27,12.359864962993642,12.438715701196557,12.202163486587812,12.4190034866333,10328410,0.0,0
2020-08-28,12.419003713317748,12.517566667882992,12.320439818777544,12.359865188598633,7565597,0.0,0
2020-08-31,12.399290025426467,12.556991497931904,11.926185607910156,11.926185607910156,13604110,0.0,0
2020-09-01,11.886760933968736,11.985323890053234,11.729058512278582,11.748771667480469,14114060,0.0,0
2020-09-02,11.827622159673295,11.90647289887312,11.65020752648621,11.729058265686035,12541650,0.0,0
2020-09-03,11.788196339627799,11.90647244390802,11.729057817500228,11.847334861755371,13155580,0.0,0
2020-09-04,11.72905782730344,12.005036344162875,11.669920245101363,11.926185607910156,17963180,0.0,0
2020-09-07,12.02474856815692,12.143024672633555,11.847334881429429,12.005036354064941,11682730,0.0,0
2020-09-08,12.103599601547721,12.497854232788086,12.083887386971922,12.497854232788086,10771460,0.0,0
2020-09-09,12.4387157091108,12.497854232788086,12.221875708927346,12.497854232788086,10565610,0.0,0
2020-09-10,12.616130099698516,12.714693050648744,12.340152521072982,12.556991577148438,12067810,0.0,0
2020-09-11,12.813256724458983,12.852682092166015,12.576704518216795,12.69498062133789,11656240,0.0,0
2020-09-14,12.754118913022008,12.852682807764783,12.61613058835208,12.675268173217773,6282078,0.0,0
2020-09-15,12.714693324360269,12.951246479677978,12.714693324360269,12.813257217407227,9920000,0.0,0
2020-09-16,12.813257411528646,12.83297056642667,12.300726663879518,12.359865188598633,10452550,0.0,0
2020-09-17,12.399290577651783,12.596417427062987,12.28101446800506,12.596417427062988,8213241,0.0,0
2020-09-18,12.655555709294253,12.714693292996593,12.340152756281917,12.497854232788086,12422380,0.0,0
2020-09-21,12.340152492813939,12.458428597668316,12.202163233829705,12.320439338684082,4872121,0.0,0
2020-09-22,12.51756645522843,12.616130348094183,12.419003502337622,12.576704978942871,10355780,0.0,0
2020-09-23,12.51756643939947,12.576704963039129,12.320439593892186,12.4190034866333,4416465,0.0,0
2020-09-24,12.517566680908203,12.556992050770317,12.26130130681698,12.517566680908203,6123165,0.0,0
2020-09-25,12.556991824379741,12.635842562682367,12.497854240640248,12.576704978942871,10854210,0.0,0
2020-09-28,12.576704963039129,12.616130332140585,12.359864962993642,12.4190034866333,5931200,0.0,0
2020-09-29,12.359864916523287,12.399290285476514,11.985323441480165,12.103599548339844,6887302,0.0,0
2020-09-30,12.34000015258789,12.539999961853027,12.260000228881836,12.260000228881836,5906194,0.1764,0
2020-10-05,12.699999809265137,12.699999809265137,12.260000228881836,12.380000114440918,8241088,0.0,0
2020-10-06,12.380000114440918,12.479999542236328,12.260000228881836,12.319999694824219,3818580,0.0,0
2020-10-07,12.380000114440918,12.460000038146973,12.260000228881836,12.359999656677246,32051500,0.0,0
2020-10-08,12.319999694824219,12.380000114440918,12.180000305175781,12.300000190734863,23969040,0.0,0
2020-10-09,12.260000228881836,12.380000114440918,12.220000267028809,12.260000228881836,4745022,0.0,0
2020-10-12,12.359999656677246,12.4399995803833,12.260000228881836,12.420000076293945,12240060,0.0,0
2020-10-14,12.5,12.720000267028809,12.380000114440918,12.699999809265137,18826030,0.0,0
2020-10-15,12.699999809265137,12.880000114440918,12.5,12.539999961853027,16485530,0.0,0
2020-10-16,12.5600004196167,12.5600004196167,12.260000228881836,12.319999694824219,11616550,0.0,0
2020-10-19,12.319999694824219,12.420000076293945,12.220000267028809,12.399999618530273,8556476,0.0,0
2020-10-20,12.239999771118164,12.399999618530273,12.239999771118164,12.319999694824219,5842357,0.0,0
2020-10-21,12.34000015258789,12.380000114440918,12.0,12.0600004196167,14974780,0.0,0
2020-10-22,11.979999542236328,12.020000457763672,11.819999694824219,11.880000114440918,12517880,0.0,0
2020-10-23,11.800000190734863,11.9399995803833,11.800000190734863,11.880000114440918,10573640,0.0,0
2020-10-27,11.880000114440918,11.979999542236328,11.319999694824219,11.539999961853027,11082290,0.0,0
2020-10-28,11.479999542236328,11.520000457763672,11.180000305175781,11.220000267028809,14762710,0.0,0
2020-10-29,11.119999885559082,11.300000190734863,11.0,11.100000381469727,12507960,0.0,0
2020-10-30,11.020000457763672,11.479999542236328,11.020000457763672,11.479999542236328,11958250,0.0,0
2020-11-02,11.479999542236328,12.0600004196167,11.460000038146973,12.0,10018300,0.0,0
2020-11-03,12.140000343322754,12.239999771118164,12.0,12.079999923706055,7695342,0.0,0
2020-11-04,12.079999923706055,12.199999809265137,12.020000457763672,12.0600004196167,6684644,0.0,0
2020-11-05,12.300000190734863,12.600000381469727,12.180000305175781,12.460000038146973,20714110,0.0,0
2020-11-06,12.479999542236328,12.579999923706055,12.420000076293945,12.579999923706055,13880020,0.0,0
2020-11-09,12.720000267028809,12.720000267028809,12.4399995803833,12.640000343322754,10506440,0.0,0
2020-11-10,12.720000267028809,12.920000076293945,12.699999809265137,12.899999618530273,15915970,0.0,0
2020-11-11,13.0,13.479999542236328,12.880000114440918,13.380000114440918,23236250,0.0,0
2020-11-12,13.5600004196167,13.600000381469727,13.0,13.0600004196167,15341410,0.0,0
2020-11-13,13.100000381469727,13.220000267028809,12.960000038146973,13.220000267028809,15593740,0.0,0
2020-11-16,13.600000381469727,13.899999618530273,13.420000076293945,13.800000190734863,24422020,0.0,0
2020-11-17,14.0600004196167,14.079999923706055,13.600000381469727,13.739999771118164,13609210,0.0,0
2020-11-18,13.739999771118164,13.800000190734863,13.319999694824219,13.420000076293945,8439030,0.0,0
2020-11-19,13.199999809265137,13.399999618530273,13.199999809265137,13.359999656677246,7566690,0.0,0
2020-11-20,13.359999656677246,13.399999618530273,13.100000381469727,13.140000343322754,6685229,0.0,0
2020-11-23,13.399999618530273,13.399999618530273,13.220000267028809,13.300000190734863,6160020,0.0,0
2020-11-24,13.100000381469727,13.180000305175781,12.819999694824219,12.9399995803833,26349840,0.0,0
2020-11-25,13.0,13.260000228881836,12.819999694824219,12.880000114440918,6587326,0.0,0
2020-11-26,13.0,13.100000381469727,12.779999732971191,13.039999961853027,9364288,0.0,0
2020-11-27,12.84000015258789,12.960000038146973,12.699999809265137,12.9399995803833,8281319,0.0,0
2020-11-30,12.760000228881836,13.039999961853027,12.760000228881836,12.880000114440918,20307560,0.0,0
2020-12-01,13.199999809265137,13.300000190734863,12.819999694824219,12.880000114440918,11022820,0.0,0
2020-12-02,12.979999542236328,12.979999542236328,12.600000381469727,12.699999809265137,14464390,0.0,0
2020-12-03,12.739999771118164,12.760000228881836,12.479999542236328,12.65999984741211,24671010,0.0,0
2020-12-04,12.760000228881836,12.760000228881836,12.479999542236328,12.5,12995860,0.0,0
2020-12-07,12.399999618530273,12.579999923706055,12.260000228881836,12.319999694824219,6321572,0.0,0
