Date,Open,High,Low,Close,Volume,Dividends,Stock Splits
2020-01-02,2.9331627250593173,3.000702592664862,2.9331627250593173,2.971756935119629,1786000,0.0,0
2020-01-03,2.9814054786137354,3.000702583585503,2.9524598211560837,2.9621083736419678,1887249,0.0,0
2020-01-06,2.9621085617869807,2.9621085617869807,2.884920136997113,2.90421724319458,3494000,0.0,0
2020-01-07,2.9138658129958626,2.9235143661499023,2.875271600379703,2.9235143661499023,1483593,0.0,0
2020-01-08,2.9138657793673195,2.9138657793673195,2.8463259080685095,2.884920120239258,2012080,0.0,0
2020-01-09,2.9138657793673195,2.9138657793673195,2.8559744611111966,2.884920120239258,3481974,0.0,0
2020-01-10,2.8752715838983796,2.9138657962933134,2.8752715838983796,2.90421724319458,1212799,0.0,0
2020-01-13,2.90421724319458,2.93316290249078,2.8945686900958463,2.90421724319458,723841,0.0,0
2020-01-14,2.9042172347877226,2.92351434092933,2.8752715755753115,2.894568681716919,989657,0.0,0
2020-01-15,2.894568681716919,2.9042172347877226,2.8077317040796856,2.894568681716919,1518127,0.0,0
2020-01-16,2.8849201286461152,2.9042172347877226,2.865623022504508,2.894568681716919,844000,0.0,0
2020-01-17,2.8945687066877825,2.9235143661499023,2.8849201535337428,2.9235143661499023,1890965,0.0,0
2020-01-20,2.923514349392047,2.93316290249078,2.8945686900958463,2.90421724319458,494000,0.0,0
2020-01-21,2.894568681716919,2.9042172347877226,2.855974469433704,2.894568681716919,1010127,0.0,0
2020-01-22,2.8849201286461152,2.894568681716919,2.8752715755753115,2.894568681716919,362000,0.0,0
2020-01-23,2.8945686732819453,2.9042172263246324,2.8366773550258224,2.884920120239258,1460317,0.0,0
2020-01-24,2.884920136997113,2.90421724319458,2.8463259246021795,2.90421724319458,982191,0.0,0
2020-01-29,2.884920077347129,2.8945686302463645,2.836677312850952,2.836677312850952,2405724,0.0,0
2020-01-30,2.8463257492983662,2.8752714068118173,2.6437059166645693,2.7208943367004395,1622063,0.0,0
2020-01-31,2.749840218623116,2.7787861085384233,2.663003238996161,2.7015974521636963,818063,0.0,0
2020-02-03,2.7015974521636963,2.7015974521636963,2.58581481266109,2.7015974521636963,4002578,0.0,0
2020-02-04,2.7015974521636963,2.7594887719149996,2.6919488988718125,2.7015974521636963,1457612,0.0,0
2020-02-05,2.7305429334455016,2.7884344794500073,2.71124582812388,2.769137144088745,1753593,0.0,0
2020-02-06,2.788434565105891,2.8849200946778675,2.788434565105891,2.8559744358062744,2271593,0.0,0
2020-02-07,2.933162868185138,2.933162868185138,2.8173802323545054,2.8656229972839355,2507098,0.0,0
2020-02-10,2.87527154172067,2.894568647635065,2.836677329891879,2.8559744358062744,3076000,0.0,0
2020-02-11,2.8752715755753115,2.9138657878585263,2.8752715755753115,2.894568681716919,2962291,0.0,0
2020-02-12,2.8945687066877825,2.942811472457982,2.8945687066877825,2.9235143661499023,2671147,0.0,0
2020-02-13,2.9235141725442393,2.9814054876347065,2.9235141725442393,2.971756935119629,3115063,0.0,0
2020-02-14,2.9717569351196285,2.9910540401497845,2.962108382604551,2.971756935119629,2436510,0.0,0
2020-02-17,2.9717569529291494,3.019999945833293,2.9621084003562483,2.991054058074951,2526484,0.0,0
2020-02-18,3.019999945833293,3.029648498406194,2.9717569529291494,2.991054058074951,1684003,0.0,0
2020-02-19,2.9814055143495453,3.010351172154146,2.9717569617480115,3.0007026195526123,1346373,0.0,0
2020-02-20,2.991054058074951,3.0103511632207534,2.9717569529291494,2.991054058074951,1134000,0.0,0
2020-02-21,2.9910540401497845,3.000702592664862,2.952459830089473,2.971756935119629,1740000,0.0,0
2020-02-24,2.9717571570541734,2.9814057102898173,2.9235143908759538,2.9524600505828857,2250637,0.0,0
2020-02-25,2.9428114808089836,2.9524600339904037,2.894568714901883,2.9331629276275635,1555526,0.0,0
2020-02-26,2.942811489105225,2.9621085955224666,2.923514382687983,2.9428114891052246,1713274,0.0,0
2020-02-27,2.952459830089473,2.9814054876347065,2.9428112775743953,2.971756935119629,1808382,0.0,0
2020-02-28,2.9717569351196285,2.9910540401497845,2.9428112775743953,2.971756935119629,2598063,0.0,0
2020-03-02,2.9717569529291494,3.0007026106478523,2.9717569529291494,2.991054058074951,1605720,0.0,0
2020-03-03,2.9910541272257394,3.0682427796331257,2.9910541272257394,3.058594226837158,2376318,0.0,0
2020-03-04,3.0585942354915505,3.077891341138088,3.048945682668282,3.0682427883148193,1682191,0.0,0
2020-03-05,3.087539936831413,3.1261341486603627,3.0392971720452255,3.116485595703125,2388797,0.0,0
2020-03-06,3.126134165648776,3.1454312716681176,3.097188506619764,3.1357827186584473,2290892,0.0,0
2020-03-09,3.1164855347389557,3.1164855347389557,3.0200000070540147,3.048945665359497,2174955,0.0,0
2020-03-10,3.0296485073968524,3.0296485073968524,2.9331627513418774,3.0007026195526123,4159966,0.0,0
2020-03-11,3.0007026969496478,3.1261341140444725,3.0007026969496478,3.0778913497924805,1730838,0.0,0
2020-03-12,3.07789131484522,3.0875398675860657,3.0103512156196555,3.039297103881836,1695593,0.0,0
2020-03-13,3.000702592664862,3.000702592664862,2.884919962483928,2.971756935119629,3502063,0.0,0
2020-03-16,2.9717571062833485,2.991054212424956,2.8752715755753115,2.894568681716919,1974000,0.0,0
2020-03-17,2.9235143577987195,2.9235143577987195,2.827028826533937,2.913865804672241,2242510,0.0,0
2020-03-18,2.9428114211710237,2.981405633114568,2.8463258913121634,2.8656229972839355,7451997,0.0,0
2020-03-19,2.8656229184696502,2.8656229184696502,2.7498400557837877,2.7787859439849854,4149377,0.0,0
2020-03-20,2.7787859785337137,2.81738018989563,2.740191537132152,2.81738018989563,3900000,0.0,0
2020-03-23,2.8270286719645683,2.8270286719645683,2.7208943633366083,2.749840021133423,2282117,0.0,0
2020-03-24,2.778785952711827,2.8173801637151064,2.749840064419724,2.7884345054626465,1824184,0.0,0
2020-03-25,2.7980829813819432,2.9621083736419678,2.7980829813819432,2.9621083736419678,2528063,0.0,0
2020-03-26,2.9621083736419678,2.9621083736419678,2.9138656112125485,2.9621083736419678,1357400,0.0,0
2020-03-27,2.9814055231403254,3.0392970689598613,2.9814055231403254,3.0103511810302734,1402101,0.0,0
2020-03-30,3.010351181030273,3.019999963699896,2.991054075770308,3.0103511810302734,932000,0.0,0
2020-03-31,3.039297103881836,3.106836973067758,3.019999998400144,3.039297103881836,1346063,0.0,0
2020-04-01,3.0392970951171963,3.05859420054324,3.000702654225467,3.029648542404175,3650000,0.0,0
2020-04-02,3.0296485598225087,3.048945665359497,3.0200000070540147,3.048945665359497,488000,0.0,0
2020-04-03,3.0489456912412853,3.0875399026428787,3.0489456912412853,3.0778913497924805,1393288,0.0,0
2020-04-06,3.0778913583927827,3.0971884641475,3.0489456997607074,3.0875399112701416,1546000,0.0,0
2020-04-07,3.0875399026428787,3.1068370083436756,3.0682427969420822,3.0778913497924805,2130000,0.0,0
2020-04-08,3.0778913583927827,3.1068370170248585,3.0682428055154243,3.0875399112701416,1167209,0.0,0
2020-04-09,3.0971884554932774,3.1068370083436756,3.0585942440916836,3.0778913497924805,1150000,0.0,0
2020-04-14,3.0971884467846253,3.1164855524311625,3.0585942354915505,3.0682427883148193,2178000,0.0,0
2020-04-15,3.0682427443516125,3.0682427443516125,3.019999980926514,3.0199999809265137,1776508,0.0,0
2020-04-16,3.019999945833293,3.019999945833293,2.9717569529291494,2.991054058074951,1302128,0.0,0
2020-04-17,3.0007026284002905,3.058594174219827,2.9042171021004637,3.0103511810302734,1068000,0.0,0
2020-04-20,3.019999980926514,3.0296485336115335,3.0103511982018527,3.0199999809265137,662000,0.0,0
2020-04-21,3.029648498406194,3.029648498406194,2.9717569529291494,2.991054058074951,2200000,0.0,0
2020-04-22,3.0007026106478523,3.019999945833293,2.9621084003562483,2.991054058074951,480100,0.0,0
2020-04-23,2.991054066951079,3.010351172154146,2.991054066951079,3.0007026195526123,1628191,0.0,0
2020-04-24,3.0007026106478523,3.0103511632207534,2.9621084003562483,2.991054058074951,1506000,0.0,0
2020-04-27,2.991054049141373,3.010351154229539,2.98140549659729,2.98140549659729,2498000,0.0,0
2020-04-28,3.0007027053342683,3.0875399112701416,3.0007027053342683,3.0875399112701416,1738000,0.0,0
2020-04-29,3.0778913838741753,3.1357827016176003,3.0778913838741753,3.116485595703125,1126000,0.0,0
2020-05-04,3.1164855699022174,3.1164855699022174,3.02964859400599,3.0875399112701416,1460000,0.0,0
2020-05-05,3.0875399112701416,3.1164855699022174,3.0778913583927827,3.0875399112701416,394637,0.0,0
2020-05-06,3.1164855611940743,3.1164855611940743,3.0489456912412853,3.0778913497924805,1100063,0.0,0
2020-05-07,3.0778913497924805,3.1068370083436756,3.0585942440916836,3.0778913497924805,1606446,0.0,0
2020-05-08,3.1068370170248585,3.1068370170248585,3.0682428055154243,3.0875399112701416,1536318,0.0,0
2020-05-11,3.077891341138088,3.0971884467846253,3.0585942354915505,3.0682427883148193,784445,0.0,0
2020-05-12,3.068242770896485,3.068242770896485,3.0200000070540147,3.048945665359497,830000,0.0,0
2020-05-13,3.048945665359497,3.058594218127991,3.039297112591003,3.048945665359497,462000,0.0,0
2020-05-14,3.07789131484522,3.07789131484522,3.019999998400144,3.039297103881836,690000,0.0,0
2020-05-15,3.0392971212452227,3.0682427796331257,3.0392971212452227,3.058594226837158,664191,0.0,0
2020-05-18,3.048945665359497,3.068242770896485,3.039297112591003,3.048945665359497,1068000,0.0,0
2020-05-19,3.04894567404119,3.0971884380210293,3.0392971212452227,3.058594226837158,975593,0.0,0
2020-05-20,3.058594218127991,3.0875398764334734,2.9717570131719007,3.048945665359497,1146000,0.0,0
2020-05-21,3.048945656622682,3.048945656622682,2.9814055573971174,3.039297103881836,670000,0.0,0
2020-05-22,3.029648480249733,3.029648480249733,2.962108382604551,2.971756935119629,792000,0.0,0
2020-05-25,2.9717571570541734,2.9814057102898173,2.933162944111598,2.9524600505828857,494000,0.0,0
2020-05-26,2.952459838965041,2.98140549659729,2.952459838965041,2.98140549659729,388000,0.0,0
2020-05-27,2.9814055055020505,3.0103511632207534,2.9621084003562483,2.991054058074951,562764,0.0,0
2020-05-28,2.9814054876347065,2.9910540401497845,2.884919962483928,2.971756935119629,852637,0.0,0
2020-05-29,2.9717569440532072,3.0778912520777575,2.9717569440532072,2.98140549659729,1570329,0.0,0
2020-06-01,2.9814055055020505,3.0489456035519957,2.9621084003562483,2.991054058074951,507505,0.0,0
2020-06-02,3.0007026284002905,3.0296485163298787,2.9331627599904118,3.0103511810302734,3200000,0.0,0
2020-06-03,3.010351154229539,3.039297041901426,2.98140549659729,2.98140549659729,616000,0.0,0
2020-06-04,2.9814055055020505,3.029648498406194,2.9717569529291494,2.991054058074951,884000,0.0,0
2020-06-05,2.991054058074951,3.019999945833293,2.9717569529291494,2.991054058074951,512954,0.0,0
2020-06-08,3.0007026106478523,3.0103511632207534,2.9814055055020505,2.991054058074951,396000,0.0,0
2020-06-09,2.991054092831813,3.0392970862965534,2.991054092831813,3.0199999809265137,550000,0.0,0
2020-06-10,3.019999963699896,3.0392970689598613,3.0007026284002905,3.0103511810302734,346892,0.0,0
2020-06-11,3.000702645516833,3.0296485336115335,3.000702645516833,3.0199999809265137,505465,0.0,0
2020-06-12,3.0299999713897705,3.130000114440918,3.0,3.119999885559082,744166,0.11,0
2020-06-15,3.0999999046325684,3.1500000953674316,3.0799999237060547,3.109999895095825,719274,0.0,0
2020-06-16,3.130000114440918,3.130000114440918,3.0899999141693115,3.0899999141693115,818000,0.0,0
2020-06-17,3.0899999141693115,3.109999895095825,3.069999933242798,3.0999999046325684,478000,0.0,0
2020-06-18,3.0999999046325684,3.109999895095825,3.0899999141693115,3.109999895095825,520000,0.0,0
2020-06-19,3.109999895095825,3.130000114440918,3.059999942779541,3.059999942779541,958127,0.0,0
2020-06-22,3.069999933242798,3.109999895095825,3.0299999713897705,3.109999895095825,1073975,0.0,0
2020-06-23,3.109999895095825,3.109999895095825,3.0899999141693115,3.109999895095825,221660,0.0,0
2020-06-24,3.109999895095825,3.109999895095825,3.049999952316284,3.069999933242798,348135,0.0,0
2020-06-26,3.130000114440918,3.130000114440918,3.059999942779541,3.069999933242798,246318,0.0,0
2020-06-29,3.2699999809265137,3.309999942779541,3.1700000762939453,3.2300000190734863,4065191,0.0,0
2020-06-30,3.2300000190734863,3.25,3.1700000762939453,3.200000047683716,648000,0.0,0
2020-07-02,3.180000066757202,3.25,3.109999895095825,3.1700000762939453,1906086,0.0,0
2020-07-03,3.180000066757202,3.25,3.180000066757202,3.200000047683716,956102,0.0,0
2020-07-06,3.200000047683716,3.25,3.190000057220459,3.240000009536743,2720700,0.0,0
2020-07-07,3.240000009536743,3.309999942779541,3.190000057220459,3.2100000381469727,1716872,0.0,0
2020-07-08,3.25,3.25,3.190000057220459,3.200000047683716,616254,0.0,0
2020-07-09,3.200000047683716,3.25,3.1600000858306885,3.180000066757202,1391000,0.0,0
2020-07-10,3.200000047683716,3.200000047683716,3.140000104904175,3.1600000858306885,762000,0.0,0
2020-07-13,3.1700000762939453,3.2100000381469727,3.140000104904175,3.180000066757202,1088000,0.0,0
2020-07-14,3.180000066757202,3.180000066757202,3.130000114440918,3.1700000762939453,838000,0.0,0
2020-07-15,3.1700000762939453,3.180000066757202,3.130000114440918,3.1500000953674316,756013,0.0,0
2020-07-16,3.1600000858306885,3.1600000858306885,3.0999999046325684,3.109999895095825,764382,0.0,0
2020-07-17,3.0999999046325684,3.1500000953674316,3.0999999046325684,3.1500000953674316,1642000,0.0,0
2020-07-20,3.180000066757202,3.240000009536743,3.1700000762939453,3.200000047683716,1624353,0.0,0
2020-07-21,3.2200000286102295,3.240000009536743,3.180000066757202,3.2100000381469727,2032000,0.0,0
2020-07-22,3.2100000381469727,3.240000009536743,3.109999895095825,3.200000047683716,1920000,0.0,0
2020-07-23,3.190000057220459,3.240000009536743,3.180000066757202,3.2200000286102295,2316509,0.0,0
2020-07-24,3.240000009536743,3.390000104904175,3.240000009536743,3.299999952316284,3348488,0.0,0
2020-07-27,3.2799999713897705,3.4000000953674316,3.2799999713897705,3.319999933242798,1830098,0.0,0
2020-07-28,3.309999942779541,3.4200000762939453,3.309999942779541,3.380000114440918,2066469,0.0,0
2020-07-29,3.440000057220459,3.440000057220459,3.380000114440918,3.4200000762939453,2344000,0.0,0
2020-07-30,3.4000000953674316,3.5399999618530273,3.4000000953674316,3.5299999713897705,2811034,0.0,0
2020-07-31,3.490000009536743,3.6500000953674316,3.490000009536743,3.6500000953674316,3404026,0.0,0
2020-08-03,3.609999895095825,3.759999990463257,3.609999895095825,3.740000009536743,2865035,0.0,0
2020-08-04,3.75,3.7899999618530273,3.6600000858306885,3.740000009536743,3308447,0.0,0
2020-08-05,3.700000047683716,3.7799999713897705,3.700000047683716,3.75,2740134,0.0,0
2020-08-06,3.7300000190734863,3.75,3.7100000381469727,3.75,2860545,0.0,0
2020-08-07,3.75,3.7799999713897705,3.690000057220459,3.7100000381469727,2152580,0.0,0
2020-08-10,3.7300000190734863,3.75,3.7100000381469727,3.75,2455319,0.0,0
2020-08-11,3.7799999713897705,3.930000066757202,3.740000009536743,3.759999990463257,2450522,0.0,0
2020-08-12,3.759999990463257,3.759999990463257,3.7200000286102295,3.75,2720000,0.0,0
2020-08-13,3.7699999809265137,3.859999895095825,3.740000009536743,3.8499999046325684,3752545,0.0,0
2020-08-14,3.8499999046325684,3.8499999046325684,3.809999942779541,3.8399999141693115,2438409,0.0,0
2020-08-17,3.859999895095825,3.9200000762939453,3.809999942779541,3.8399999141693115,2446915,0.0,0
2020-08-18,3.859999895095825,3.869999885559082,3.7799999713897705,3.799999952316284,2444000,0.0,0
2020-08-19,3.8499999046325684,3.869999885559082,3.759999990463257,3.799999952316284,1360682,0.0,0
2020-08-20,3.7699999809265137,3.799999952316284,3.6700000762939453,3.75,2314000,0.0,0
2020-08-21,3.7799999713897705,3.8499999046325684,3.7699999809265137,3.819999933242798,2460000,0.0,0
2020-08-24,3.8399999141693115,3.880000114440918,3.75,3.7799999713897705,2419436,0.0,0
2020-08-25,3.759999990463257,3.809999942779541,3.7100000381469727,3.7699999809265137,2614065,0.0,0
2020-08-26,3.7899999618530273,3.7899999618530273,3.640000104904175,3.75,2363389,0.0,0
2020-08-27,3.7699999809265137,3.7699999809265137,3.6600000858306885,3.7100000381469727,2445174,0.0,0
2020-08-28,3.7300000190734863,3.740000009536743,3.6600000858306885,3.680000066757202,2675977,0.0,0
2020-08-31,3.7100000381469727,3.740000009536743,3.640000104904175,3.680000066757202,2620204,0.0,0
2020-09-01,3.6600000858306885,3.700000047683716,3.5799999237060547,3.619999885559082,2780000,0.0,0
2020-09-02,3.619999885559082,3.6700000762939453,3.559999942779541,3.5899999141693115,2608000,0.0,0
2020-09-03,3.5799999237060547,3.619999885559082,3.5,3.5199999809265137,2126016,0.0,0
2020-09-04,3.5299999713897705,3.5299999713897705,3.4200000762939453,3.4800000190734863,2750409,0.0,0
2020-09-07,3.4700000286102295,3.4800000190734863,3.3399999141693115,3.440000057220459,2704636,0.0,0
2020-09-08,3.450000047683716,3.490000009536743,3.369999885559082,3.390000104904175,2112348,0.0,0
2020-09-09,3.380000114440918,3.4800000190734863,3.309999942779541,3.390000104904175,2672000,0.0,0
2020-09-10,3.380000114440918,3.4700000286102295,3.3399999141693115,3.380000114440918,1804000,0.0,0
2020-09-11,3.380000114440918,3.4100000858306885,3.309999942779541,3.3499999046325684,2642000,0.0,0
2020-09-14,3.3499999046325684,3.4000000953674316,3.309999942779541,3.359999895095825,2012000,0.0,0
2020-09-15,3.3399999141693115,3.359999895095825,3.309999942779541,3.3299999237060547,1828000,0.0,0
2020-09-16,3.3299999237060547,3.369999885559082,3.259999990463257,3.309999942779541,2403064,0.0,0
2020-09-17,3.3299999237060547,3.3499999046325684,3.2799999713897705,3.309999942779541,2016070,0.0,0
2020-09-18,3.309999942779541,3.3399999141693115,3.259999990463257,3.299999952316284,2134353,0.0,0
2020-09-21,3.299999952316284,3.380000114440918,3.2100000381469727,3.240000009536743,1227044,0.0,0
2020-09-22,3.240000009536743,3.240000009536743,3.130000114440918,3.130000114440918,1187201,0.0,0
2020-09-23,3.1600000858306885,3.2799999713897705,3.109999895095825,3.140000104904175,1500001,0.0,0
2020-09-24,3.140000104904175,3.200000047683716,3.0,3.0999999046325684,2491638,0.0,0
2020-09-25,3.109999895095825,3.1700000762939453,3.059999942779541,3.0899999141693115,2000409,0.0,0
2020-09-28,3.0899999141693115,3.1500000953674316,3.0399999618530273,3.109999895095825,2324004,0.0,0
2020-09-29,3.109999895095825,3.140000104904175,3.069999933242798,3.140000104904175,824000,0.0,0
2020-09-30,3.140000104904175,3.25,3.140000104904175,3.2300000190734863,568000,0.0,0
2020-10-05,3.2300000190734863,3.3499999046325684,3.180000066757202,3.25,826036,0.0,0
2020-10-06,3.25,3.309999942779541,3.1700000762939453,3.2300000190734863,874000,0.0,0
2020-10-07,3.2300000190734863,3.2799999713897705,3.2100000381469727,3.2699999809265137,644000,0.0,0
2020-10-08,3.25,3.3499999046325684,3.25,3.309999942779541,821978,0.0,0
2020-10-09,3.309999942779541,3.309999942779541,3.25,3.2699999809265137,1298000,0.0,0
2020-10-12,3.2699999809265137,3.319999933242798,3.259999990463257,3.2699999809265137,1278187,0.0,0
2020-10-14,3.2699999809265137,3.3299999237060547,3.259999990463257,3.2899999618530273,1418000,0.0,0
2020-10-15,3.2899999618530273,3.3499999046325684,3.2699999809265137,3.299999952316284,1084805,0.0,0
2020-10-16,3.299999952316284,3.3499999046325684,3.299999952316284,3.3299999237060547,1109365,0.0,0
2020-10-19,3.319999933242798,3.430000066757202,3.319999933242798,3.380000114440918,1332000,0.0,0
2020-10-20,3.369999885559082,3.430000066757202,3.369999885559082,3.4000000953674316,1494480,0.0,0
2020-10-21,3.390000104904175,3.509999990463257,3.390000104904175,3.509999990463257,1608000,0.0,0
2020-10-22,3.5199999809265137,3.5899999141693115,3.359999895095825,3.450000047683716,7609648,0.0,0
2020-10-23,3.4600000381469727,3.4700000286102295,3.380000114440918,3.450000047683716,768000,0.0,0
2020-10-27,3.450000047683716,3.4800000190734863,3.359999895095825,3.4000000953674316,1146000,0.0,0
2020-10-28,3.390000104904175,3.4000000953674316,3.319999933242798,3.3499999046325684,932000,0.0,0
2020-10-29,3.3299999237060547,3.380000114440918,3.319999933242798,3.3399999141693115,2628000,0.0,0
2020-10-30,3.380000114440918,3.380000114440918,3.25,3.309999942779541,1083327,0.0,0
2020-11-02,3.319999933242798,3.369999885559082,3.299999952316284,3.3299999237060547,1048000,0.0,0
2020-11-03,3.3499999046325684,3.390000104904175,3.2699999809265137,3.2699999809265137,545018,0.0,0
2020-11-04,3.2699999809265137,3.309999942779541,3.1700000762939453,3.180000066757202,654000,0.0,0
2020-11-05,3.190000057220459,3.240000009536743,3.180000066757202,3.180000066757202,544000,0.0,0
2020-11-06,3.190000057220459,3.2200000286102295,3.0999999046325684,3.0999999046325684,658000,0.0,0
2020-11-09,3.0999999046325684,3.119999885559082,3.0199999809265137,3.0299999713897705,1010000,0.0,0
2020-11-10,3.059999942779541,3.0799999237060547,3.0299999713897705,3.0299999713897705,590154,0.0,0
2020-11-11,3.0399999618530273,3.049999952316284,3.0,3.0199999809265137,1078000,0.0,0
2020-11-12,3.0299999713897705,3.0799999237060547,3.009999990463257,3.0399999618530273,473092,0.0,0
2020-11-13,3.0399999618530273,3.0799999237060547,3.0,3.0199999809265137,624000,0.0,0
2020-11-16,3.0199999809265137,3.049999952316284,3.0199999809265137,3.0299999713897705,566272,0.0,0
2020-11-17,3.0299999713897705,3.049999952316284,3.009999990463257,3.009999990463257,686000,0.0,0
2020-11-18,3.0199999809265137,3.0299999713897705,3.0,3.009999990463257,938080,0.0,0
2020-11-19,3.009999990463257,3.0299999713897705,3.009999990463257,3.0199999809265137,514923,0.0,0
2020-11-20,3.009999990463257,3.1700000762939453,3.009999990463257,3.0299999713897705,942131,0.0,0
2020-11-23,3.0299999713897705,3.0899999141693115,2.990000009536743,3.0,1394000,0.0,0
2020-11-24,3.0,3.0199999809265137,2.9800000190734863,3.0,718000,0.0,0
2020-11-25,3.009999990463257,3.0399999618530273,3.0,3.0199999809265137,853978,0.0,0
2020-11-26,3.009999990463257,3.069999933242798,3.009999990463257,3.0299999713897705,404000,0.0,0
2020-11-27,3.0299999713897705,3.069999933242798,3.0199999809265137,3.059999942779541,602000,0.0,0
2020-11-30,3.059999942779541,3.0799999237060547,3.0299999713897705,3.069999933242798,1028000,0.0,0
2020-12-01,3.069999933242798,3.069999933242798,3.0399999618530273,3.0399999618530273,443169,0.0,0
2020-12-02,3.0399999618530273,3.059999942779541,3.0199999809265137,3.0299999713897705,1564000,0.0,0
2020-12-03,3.0299999713897705,3.0299999713897705,2.990000009536743,3.009999990463257,670394,0.0,0
2020-12-04,3.009999990463257,3.0299999713897705,3.009999990463257,3.0299999713897705,2468392,0.0,0
2020-12-07,3.0299999713897705,3.0899999141693115,3.0199999809265137,3.0299999713897705,2072000,0.0,0
