Date,Open,High,Low,Close,Volume,Dividends,Stock Splits
2020-01-02,15.054660192447898,15.848053896403073,14.836476450960275,15.471192359924316,19097000,0.0,0
2020-01-03,16.56211132075435,17.81170602206162,16.443101310744165,17.11748695373535,43171090,0.0,0
2020-01-06,16.998474982375793,17.21665966028615,16.224916627165516,16.74062156677246,18393790,0.0,0
2020-01-07,17.038146630662805,17.05798194649543,16.284421653421393,16.621614456176758,13334930,0.0,0
2020-01-08,16.264587301826797,16.44310137170391,15.867890419655401,16.125743865966797,11570800,0.0,0
2020-01-09,16.443101878423775,17.077816909457745,16.205083741786037,16.819963455200195,14195290,0.0,0
2020-01-10,16.919136395073107,17.772036048172858,16.681118283147555,17.335668563842773,20142250,0.0,0
2020-01-13,17.335669291524006,17.712532736591854,17.216661176365655,17.55385398864746,10993980,0.0,0
2020-01-14,17.772035609239833,18.267907136404336,16.97864192241653,17.157154083251953,21975150,0.0,0
2020-01-15,17.216660099855577,17.216660099855577,16.443099833295328,16.91913604736328,16963650,0.0,0
2020-01-16,17.01831005069481,17.335667514043948,16.760456638823715,17.07781410217285,11364680,0.0,0
2020-01-17,17.15715360235476,17.31583233527182,16.81996082200608,17.216659545898438,9241027,0.0,0
2020-01-20,16.95880648754237,17.91087890500452,16.780292436368278,17.63319206237793,15987020,0.0,0
2020-01-21,17.633192532079526,17.633192532079526,16.54227477264517,16.58194351196289,17334100,0.0,0
2020-01-22,16.760457906891542,17.990219116210938,16.502604475511692,17.990219116210938,17319050,0.0,0
2020-01-23,17.653026643011092,18.029890084996197,16.85963290977908,17.03814697265625,12343770,0.0,0
2020-01-24,17.038147790936783,17.4943487365549,16.681119648035676,17.39517593383789,6070826,0.0,0
2020-01-29,16.54227489840215,17.25632923594764,16.423264896344666,16.720788955688477,12544750,0.0,0
2020-01-30,16.76045784792395,16.93897190683577,15.074494783556437,15.253008842468262,15466000,0.0,0
2020-01-31,15.887724637850864,16.006732748471574,14.975320926159558,15.114164352416992,9389150,0.0,0
2020-02-03,14.697632037354362,15.451356999731482,14.102586761109185,15.094329833984375,16191070,0.0,0
2020-02-04,15.411687623183745,15.867889483671291,15.23317356383647,15.629871368408203,18937820,0.0,0
2020-02-05,15.867889718181875,16.0464037801674,15.233173788966626,15.411687850952148,18003710,0.0,0
2020-02-06,15.828219600602978,15.947228656751884,15.35218243020745,15.729044914245605,14288650,0.0,0
2020-02-07,15.689375110229552,15.709210425671007,14.757137037878827,15.094329833984375,20724660,0.0,0
2020-02-10,14.975320888334567,15.590201484521296,14.85631088641464,15.233173370361328,25483710,0.0,0
2020-02-11,15.25300868594795,15.471192428401274,15.074494628867965,15.233173370361328,12695700,0.0,0
2020-02-12,15.352183048852508,16.36376148558152,15.193504300926376,16.18524742126465,24355840,0.0,0
2020-02-13,16.244751372699486,16.780293562151055,15.927393878920721,16.046403884887695,16060780,0.0,0
2020-02-14,16.026568304745965,16.324090477364827,15.629871444054203,15.887724876403809,10210000,0.0,0
2020-02-17,15.88772415146954,16.3637603625788,15.610035415855927,16.1654109954834,9470500,0.0,0
2020-02-18,15.86788987856772,16.006733309693228,14.876146761157239,15.431523323059082,23310000,0.0,0
2020-02-19,15.649705819150975,15.649705819150975,15.272843328474346,15.391853332519531,9822000,0.0,0
2020-02-20,15.570367381353465,16.363762096399498,15.173670496730438,16.26458740234375,22469650,0.0,0
2020-02-21,16.165412708288006,17.077816488720945,15.887725834851864,16.26458740234375,32594270,0.0,0
2020-02-24,15.887724950160775,16.4034318172541,15.64970588684082,15.64970588684082,14972660,0.0,0
2020-02-25,15.253008581602042,15.788549803378451,14.955485470437393,15.590201377868652,22549660,0.0,0
2020-02-26,15.173668974972564,15.669540503920688,15.173668974972564,15.312512397766113,11256960,0.0,0
2020-02-27,15.471193009923503,15.570366754184588,15.094330511811528,15.431523323059082,8081000,0.0,0
2020-02-28,15.014991483727904,15.292679298171231,14.380275533486051,14.479450225830078,21992000,0.0,0
2020-03-02,14.281100011672764,15.173669353527254,14.281100011672764,15.114164352416992,12782000,0.0,0
2020-03-03,15.372018055551464,15.570366486463111,14.677798074460737,14.776971817016602,13234970,0.0,0
2020-03-04,14.697632789611816,14.816641850952,14.459614666931449,14.697632789611816,8960500,0.0,0
2020-03-05,14.975321227631872,15.332348404081136,14.717467793962996,15.153834342956543,13448100,0.0,0
2020-03-06,15.272843212458511,15.590201644501747,14.915816040434777,15.253008842468262,17174940,0.0,0
2020-03-09,14.499284070175044,14.856311247205644,13.487706595688374,13.666219711303711,31901350,0.0,0
2020-03-10,13.646385960666915,14.320770659012686,13.388532514870018,14.122422218322754,25695160,0.0,0
2020-03-11,14.281100664213964,14.43978035915852,13.943908795181647,14.082752227783203,11317170,0.0,0
2020-03-12,13.805064052266804,13.884403424744205,12.952165325234775,13.28935718536377,16757980,0.0,0
2020-03-13,12.892660873282352,13.547211197059463,11.781908665387869,13.487707138061523,21130420,0.0,0
2020-03-16,13.051339216926142,13.26952296662975,11.702568923612779,11.940587043762207,23906460,0.0,0
2020-03-17,11.801741976533464,12.19843976602527,11.008348289149609,11.6033935546875,21037800,0.0,0
2020-03-18,11.504220983111402,11.8810825499299,10.314128439768862,10.631486892700195,26119470,0.0,0
2020-03-19,13.38853132574627,13.38853132574627,10.512476826683692,11.365375518798828,41970720,0.0,0
2020-03-20,11.504221014497974,12.198441036141821,11.48438569734816,11.762073516845703,29841000,0.0,0
2020-03-23,11.107522618917196,11.563724486366649,10.909174186504375,11.186861991882324,16228500,0.0,0
2020-03-24,11.504220157410579,11.801742326091961,11.266201098345602,11.524054527282715,15012910,0.0,0
2020-03-25,11.960422171143613,12.357119031795175,11.603394050757286,12.039761543273926,15739880,0.0,0
2020-03-26,11.801742327743524,12.376953241114558,11.781907957868613,12.019926071166992,17707150,0.0,0
2020-03-27,12.317449146415875,12.63480662980182,12.000091663029927,12.138935089111328,12449740,0.0,0
2020-03-30,11.623229438219125,12.11910098998513,11.583559751909842,11.801742553710938,12989760,0.0,0
2020-03-31,12.178605320302761,13.051339384524452,12.039761887999276,12.833155632019043,18840560,0.0,0
2020-04-01,12.83315497744198,12.991834663952153,12.099265328757024,12.376953125,12775410,0.0,0
2020-04-02,12.218274652959316,12.69431183135769,12.01992622270996,12.535633087158203,10269670,0.0,0
2020-04-03,12.456293441155035,12.674476236731708,12.218274384289728,12.376953125,11103460,0.0,0
2020-04-06,12.515797617921452,13.646385075193562,12.476127932357514,13.507540702819824,16378230,0.0,0
2020-04-07,13.864568371624474,14.062917752378999,13.408367444128908,13.94390869140625,23411640,0.0,0
2020-04-08,13.864567450468561,14.023247133689559,13.527375606348626,13.824897766113281,10577900,0.0,0
2020-04-09,13.963742480980033,14.04308185166061,13.586879997347344,13.745558738708496,9483609,0.0,0
2020-04-14,13.824898339009945,14.737302062790793,13.40836710891861,14.519119262695312,24722960,0.0,0
2020-04-15,14.856310442094047,15.272842598956485,14.677797336152913,15.17366886138916,22810260,0.0,0
2020-04-16,14.975321867713083,16.06623970552528,14.935652179745365,15.986900329589844,24884250,0.0,0
2020-04-17,16.363762096399498,16.85963367507827,16.165412708288006,16.26458740234375,27400270,0.0,0
2020-04-20,16.165412138635187,16.661283699839945,16.02656870680982,16.562110900878906,13641780,0.0,0
2020-04-21,16.383595245623177,16.72078802583477,15.96706309898531,16.601778030395508,20382210,0.0,0
2020-04-22,16.44310110846776,16.482771741849792,15.669541727717398,15.96706485748291,17553160,0.0,0
2020-04-23,16.24475024336454,16.91913581656107,16.105906822388693,16.641448974609375,18834830,0.0,0
2020-04-24,16.562111796990965,16.91913805408778,16.264587709210293,16.681119918823242,17019540,0.0,0
2020-04-27,16.7207892522309,17.236494226026515,16.46293581953317,16.76045799255371,15210800,0.0,0
2020-04-28,16.859633993171645,17.018312750014672,16.383597722642563,16.681119918823242,8952629,0.0,0
2020-04-29,18.129062891690694,18.684438447272562,17.434842028513607,17.7918701171875,36777130,0.0,0
2020-05-04,17.176989527260822,17.692696373366978,17.157154212041405,17.29599952697754,18221010,0.0,0
2020-05-05,17.494348333480733,17.75220177612386,17.315834266143188,17.593523025512695,13184510,0.0,0
2020-05-06,17.712532312260468,17.85137574048563,17.176990132077975,17.37533950805664,18742500,0.0,0
2020-05-07,17.37534002725535,18.347247837073084,17.37534002725535,17.692697525024414,22532520,0.0,0
2020-05-08,17.75220279192801,17.8315421717735,16.800130233782163,17.097652435302734,34423640,0.0,0
2020-05-11,17.157156189352325,17.296001520289966,16.462937101064075,16.681119918823242,19384800,0.0,0
2020-05-12,16.621615379959472,17.13732227067037,16.56211132075435,17.11748695373535,13682340,0.0,0
2020-05-13,16.85963215946042,17.613357118287098,16.780292789668128,17.434843063354492,14946000,0.0,0
2020-05-14,17.335668957476486,17.335668957476486,16.85963272281623,17.13732147216797,16071270,0.0,0
2020-05-15,16.859632930961688,17.63319324053471,16.859632930961688,17.415008544921875,8479000,0.0,0
2020-05-18,16.85963240762295,17.137321151783258,15.372017783420924,15.61003589630127,32059350,0.0,0
2020-05-19,16.046404180100716,16.264586988187656,15.629871988952987,16.08607292175293,12561540,0.0,0
2020-05-20,16.026568759766906,16.542275639107892,15.867890010985047,15.947229385375977,12352690,0.0,0
2020-05-21,16.24475129923602,16.26458661540746,15.550532257634403,15.78855037689209,12264500,0.0,0
2020-05-22,15.372018090353277,15.570366521713979,14.876146539051557,15.153834342956543,11967080,0.0,0
2020-05-25,14.757136920101079,14.995155028699509,14.538953180985905,14.955485343933105,11503750,0.0,0
2020-05-26,15.074495195479347,15.431523323059082,14.955486134886081,15.431523323059082,14062550,0.0,0
2020-05-27,15.391853607743409,15.491027351821174,14.895982049954766,15.05466079711914,8928450,0.0,0
2020-05-28,15.05466045539118,15.193503883108411,14.221596105888121,14.638128280639648,10507090,0.0,0
2020-05-29,14.677798574185813,14.836477324317558,14.459614819854684,14.71746826171875,6604542,0.0,0
2020-06-01,15.173669248041175,15.62987110071535,14.97532082205238,15.471192359924316,7453387,0.0,0
2020-06-02,15.590202070516769,15.768715188506697,15.233173942937034,15.431523323059082,5377500,0.0,0
2020-06-03,15.57036666942659,15.907560424638556,15.372018236184202,15.669541358947754,13797050,0.0,0
2020-06-04,15.867889173582371,16.026567913990213,15.530696377315763,15.590201377868652,6885971,0.0,0
2020-06-05,15.610036723444312,16.10590829112018,15.530697348280171,15.96706485748291,11369570,0.0,0
2020-06-08,16.165412822020958,16.60178034397636,16.00673406705535,16.403432846069336,14192120,0.0,0
2020-06-09,16.601778030395508,16.819960815167835,16.324089302103694,16.601778030395508,11168780,0.0,0
2020-06-10,16.661282654590362,16.661282654590362,16.205081754869802,16.304256439208984,6641273,0.0,0
2020-06-11,16.2844219315789,16.720789429351257,15.709211003806193,15.78855037689209,10323420,0.0,0
2020-06-12,15.372018043278581,15.768714904785156,15.173669612525295,15.768714904785156,5603888,0.0,0
2020-06-15,15.76871487739624,16.2249176860363,15.17366958616992,15.391853332519531,10860210,0.0,0
2020-06-16,15.768714144234727,16.978641877972827,15.768714144234727,16.780292510986328,23577130,0.0,0
2020-06-17,16.66128322510293,17.29600009164769,16.66128322510293,16.998476028442383,13593570,0.0,0
2020-06-18,17.15715481616014,17.434843564210304,16.899303275627652,17.37533950805664,12470970,0.0,0
2020-06-19,17.45467845329262,17.65302593282107,17.038146287203144,17.19682502746582,9694931,0.0,0
2020-06-22,16.93897270634164,17.75220177612386,16.93897270634164,17.593523025512695,10503530,0.0,0
2020-06-23,17.633191251043833,17.950548708929045,17.236492537087663,17.653024673461914,8631100,0.0,0
2020-06-24,17.73236441094538,18.406749968937433,17.6926956736751,18.069557189941406,8723486,0.0,0
2020-06-26,18.000861734006403,18.458849249837293,17.841562223891298,18.040687561035156,4908453,0.071,0
2020-06-29,17.801736588294915,18.160161439408228,17.38357489499604,18.020774841308594,12325230,0.0,0
2020-06-30,18.020774546170895,18.120337214182875,17.24418801447736,17.662349700927734,12228380,0.0,0
2020-07-02,17.399999618530273,18.020000457763672,17.399999618530273,17.799999237060547,12517510,0.07765,0
2020-07-03,18.0,19.5,17.799999237060547,19.260000228881836,31038054,0.0,0
2020-07-06,19.979999542236328,21.200000762939453,19.6200008392334,21.149999618530273,35455280,0.0,0
2020-07-07,21.5,22.299999237060547,19.860000610351562,20.100000381469727,24114980,0.0,0
2020-07-08,20.200000762939453,21.299999237060547,20.200000762939453,20.950000762939453,18331820,0.0,0
2020-07-09,21.149999618530273,22.75,21.100000381469727,22.200000762939453,20625150,0.0,0
2020-07-10,22.0,22.899999618530273,21.25,22.100000381469727,15639710,0.0,0
2020-07-13,21.950000762939453,23.600000381469727,21.950000762939453,23.5,16226820,0.0,0
2020-07-14,22.850000381469727,23.0,21.600000381469727,22.25,14996000,0.0,0
2020-07-15,22.549999237060547,23.450000762939453,21.5,22.0,13635030,0.0,0
2020-07-16,21.799999237060547,22.200000762939453,19.8799991607666,20.25,19161900,0.0,0
2020-07-17,20.049999237060547,21.049999237060547,19.959999084472656,20.600000381469727,9563700,0.0,0
2020-07-20,20.899999618530273,21.850000381469727,20.399999618530273,21.649999618530273,11406210,0.0,0
2020-07-21,22.700000762939453,23.350000381469727,22.299999237060547,23.299999237060547,14580710,0.0,0
2020-07-22,22.850000381469727,24.75,22.350000381469727,22.799999237060547,24849570,0.0,0
2020-07-23,23.299999237060547,24.450000762939453,22.649999618530273,24.399999618530273,17701740,0.0,0
2020-07-24,23.850000381469727,24.5,21.75,22.200000762939453,20789120,0.0,0
2020-07-27,22.5,23.5,22.200000762939453,23.100000381469727,14837470,0.0,0
2020-07-28,24.0,25.850000381469727,23.700000762939453,25.850000381469727,26331560,0.0,0
2020-07-29,25.5,26.799999237060547,25.399999618530273,26.0,18217230,0.0,0
2020-07-30,26.25,27.0,25.350000381469727,26.299999237060547,18037990,0.0,0
2020-07-31,26.5,28.049999237060547,26.5,27.149999618530273,14471030,0.0,0
2020-08-03,27.450000762939453,29.799999237060547,27.0,29.450000762939453,24502180,0.0,0
2020-08-04,29.399999618530273,29.799999237060547,28.450000762939453,29.200000762939453,18765320,0.0,0
2020-08-05,29.299999237060547,31.950000762939453,28.850000381469727,31.600000381469727,21292150,0.0,0
2020-08-06,31.799999237060547,32.04999923706055,30.299999237060547,31.899999618530273,12747950,0.0,0
2020-08-07,31.799999237060547,34.04999923706055,31.0,33.5,22546700,0.0,0
2020-08-10,33.70000076293945,33.70000076293945,30.0,31.0,37750510,0.0,0
2020-08-11,31.5,32.150001525878906,30.399999618530273,30.75,14508480,0.0,0
2020-08-12,29.899999618530273,30.299999237060547,27.899999618530273,29.350000381469727,20617880,0.0,0
2020-08-13,29.399999618530273,31.200000762939453,29.399999618530273,29.799999237060547,14201880,0.0,0
2020-08-14,29.649999618530273,31.0,29.399999618530273,30.299999237060547,8977087,0.0,0
2020-08-17,30.549999237060547,33.150001525878906,30.549999237060547,32.45000076293945,16603100,0.0,0
2020-08-18,32.5,32.900001525878906,28.0,28.700000762939453,50547540,0.0,0
2020-08-19,29.049999237060547,30.0,28.25,29.5,16818840,0.0,0
2020-08-20,29.5,29.75,28.899999618530273,29.200000762939453,13802420,0.0,0
2020-08-21,29.700000762939453,30.149999618530273,29.200000762939453,29.75,12078530,0.0,0
2020-08-24,29.5,30.200000762939453,27.149999618530273,27.5,32849000,0.0,0
2020-08-25,27.5,28.100000381469727,26.649999618530273,27.549999237060547,22170600,0.0,0
2020-08-26,27.549999237060547,27.799999237060547,25.600000381469727,26.0,29115910,0.0,0
2020-08-27,26.0,27.700000762939453,25.25,26.950000762939453,23576340,0.0,0
2020-08-28,27.149999618530273,30.0,27.049999237060547,29.450000762939453,27717040,0.0,0
2020-08-31,31.0,33.29999923706055,30.899999618530273,32.849998474121094,51599350,0.0,0
2020-09-01,33.45000076293945,34.400001525878906,32.400001525878906,33.54999923706055,30270850,0.0,0
2020-09-02,34.70000076293945,38.400001525878906,34.20000076293945,38.25,37978020,0.0,0
2020-09-03,38.0,39.70000076293945,37.150001525878906,39.0,35192380,0.0,0
2020-09-04,35.0,41.849998474121094,34.95000076293945,41.349998474121094,36909000,0.0,0
2020-09-07,41.95000076293945,42.0,37.54999923706055,38.29999923706055,28364560,0.0,0
2020-09-08,38.650001525878906,39.400001525878906,35.54999923706055,36.849998474121094,21158190,0.0,0
2020-09-09,35.5,38.70000076293945,35.400001525878906,37.29999923706055,19196380,0.0,0
2020-09-10,38.45000076293945,38.95000076293945,37.099998474121094,37.20000076293945,14519870,0.0,0
2020-09-11,37.20000076293945,38.0,36.599998474121094,37.900001525878906,7912866,0.0,0
2020-09-14,38.29999923706055,41.099998474121094,38.29999923706055,40.0,21695850,0.0,0
2020-09-15,40.5,41.25,39.04999923706055,40.400001525878906,11973240,0.0,0
2020-09-16,40.70000076293945,43.70000076293945,38.650001525878906,39.099998474121094,35107010,0.0,0
2020-09-17,39.29999923706055,39.95000076293945,37.5,38.0,15038390,0.0,0
2020-09-18,38.29999923706055,40.349998474121094,37.45000076293945,39.95000076293945,11803750,0.0,0
2020-09-21,40.400001525878906,40.900001525878906,37.25,38.099998474121094,15137610,0.0,0
2020-09-22,38.5,39.599998474121094,37.650001525878906,39.0,10486390,0.0,0
2020-09-23,39.29999923706055,39.5,38.349998474121094,39.150001525878906,8879349,0.0,0
2020-09-24,38.75,38.95000076293945,36.5,36.599998474121094,13430180,0.0,0
2020-09-25,36.400001525878906,37.400001525878906,35.04999923706055,35.45000076293945,13512220,0.0,0
2020-09-28,35.5,36.900001525878906,34.599998474121094,36.75,7619697,0.0,0
2020-09-29,37.349998474121094,37.650001525878906,35.150001525878906,35.5,7612210,0.0,0
2020-09-30,35.70000076293945,39.20000076293945,35.599998474121094,38.95000076293945,17283000,0.0,0
2020-10-05,38.79999923706055,39.0,37.099998474121094,37.54999923706055,6627788,0.0,0
2020-10-06,38.0,40.70000076293945,37.79999923706055,40.54999923706055,14197930,0.0,0
2020-10-07,40.599998474121094,41.54999923706055,39.54999923706055,41.5,6470851,0.0,0
2020-10-08,41.54999923706055,42.29999923706055,40.70000076293945,41.25,7655233,0.0,0
2020-10-09,41.650001525878906,43.0,41.099998474121094,41.75,17689600,0.0,0
2020-10-12,42.0,43.400001525878906,41.349998474121094,43.20000076293945,17375740,0.0,0
2020-10-14,45.5,45.599998474121094,41.29999923706055,41.849998474121094,19956980,0.0,0
2020-10-15,42.099998474121094,43.20000076293945,39.599998474121094,40.45000076293945,15680490,0.0,0
2020-10-16,41.29999923706055,41.29999923706055,38.70000076293945,39.900001525878906,12109270,0.0,0
2020-10-19,40.400001525878906,40.75,38.5,40.04999923706055,11101080,0.0,0
2020-10-20,39.75,41.29999923706055,39.29999923706055,41.29999923706055,7961944,0.0,0
2020-10-21,41.25,41.5,40.0,40.25,6565062,0.0,0
2020-10-22,40.29999923706055,40.400001525878906,38.29999923706055,39.25,11759370,0.0,0
2020-10-23,39.20000076293945,39.29999923706055,36.79999923706055,37.5,15859640,0.0,0
2020-10-27,36.900001525878906,38.29999923706055,36.45000076293945,38.099998474121094,10925360,0.0,0
2020-10-28,38.20000076293945,38.70000076293945,37.0,37.54999923706055,10256970,0.0,0
2020-10-29,36.650001525878906,38.849998474121094,35.849998474121094,36.54999923706055,24397040,0.0,0
2020-10-30,36.900001525878906,36.900001525878906,31.950000762939453,33.29999923706055,61944860,0.0,0
2020-11-02,33.400001525878906,34.599998474121094,32.79999923706055,34.5,17290970,0.0,0
2020-11-03,34.5,34.599998474121094,32.849998474121094,33.95000076293945,18133690,0.0,0
2020-11-04,33.650001525878906,34.0,32.54999923706055,33.29999923706055,10445460,0.0,0
2020-11-05,34.29999923706055,37.849998474121094,34.29999923706055,37.5,33261640,0.0,0
2020-11-06,38.29999923706055,38.79999923706055,35.599998474121094,36.20000076293945,21580990,0.0,0
2020-11-09,36.900001525878906,40.04999923706055,36.849998474121094,38.79999923706055,31976850,0.0,0
2020-11-10,37.54999923706055,37.599998474121094,35.0,35.150001525878906,32555240,0.0,0
2020-11-11,34.650001525878906,36.04999923706055,33.79999923706055,34.04999923706055,16650050,0.0,0
2020-11-12,35.0,35.95000076293945,34.599998474121094,34.900001525878906,8956710,0.0,0
2020-11-13,35.20000076293945,35.650001525878906,34.29999923706055,35.25,8091179,0.0,0
2020-11-16,35.70000076293945,37.150001525878906,34.70000076293945,36.599998474121094,15468200,0.0,0
2020-11-17,36.70000076293945,36.75,34.349998474121094,35.349998474121094,11419260,0.0,0
2020-11-18,35.0,36.20000076293945,34.900001525878906,35.400001525878906,6428024,0.0,0
2020-11-19,35.400001525878906,35.900001525878906,34.599998474121094,35.25,6156100,0.0,0
2020-11-20,35.70000076293945,36.400001525878906,35.45000076293945,35.75,8211450,0.0,0
2020-11-23,36.099998474121094,38.29999923706055,35.79999923706055,37.599998474121094,21609880,0.0,0
2020-11-24,38.29999923706055,38.5,37.099998474121094,38.150001525878906,11386790,0.0,0
2020-11-25,38.20000076293945,38.349998474121094,36.20000076293945,37.150001525878906,12874610,0.0,0
2020-11-26,37.5,38.20000076293945,36.75,37.95000076293945,6311665,0.0,0
2020-11-27,38.099998474121094,38.79999923706055,37.29999923706055,37.70000076293945,6222469,0.0,0
2020-11-30,37.79999923706055,40.0,37.0,38.349998474121094,23565690,0.0,0
2020-12-01,38.599998474121094,39.95000076293945,38.599998474121094,39.349998474121094,9561333,0.0,0
2020-12-02,39.349998474121094,39.400001525878906,37.5,38.0,7532500,0.0,0
2020-12-03,38.0,39.599998474121094,37.900001525878906,38.0,7957815,0.0,0
2020-12-04,38.150001525878906,38.70000076293945,36.95000076293945,37.29999923706055,7100800,0.0,0
2020-12-07,37.5,38.0,36.349998474121094,37.29999923706055,4990486,0.0,0
