Date,Open,High,Low,Close,Volume,Dividends,Stock Splits
2017-11-16,10.0,10.180000305175781,8.100000381469727,8.119999885559082,832696583,0,0
2017-11-17,8.149999618530273,8.380000114440918,7.800000190734863,7.869999885559082,167212502,0,0
2017-11-20,7.789999961853027,7.849999904632568,7.690000057220459,7.699999809265137,109125000,0,0
2017-11-21,7.730000019073486,7.730000019073486,6.980000019073486,7.119999885559082,151973100,0,0
2017-11-22,7.079999923706055,7.449999809265137,6.429999828338623,7.380000114440918,179669905,0,0
2017-11-23,7.400000095367432,7.46999979019165,7.059999942779541,7.239999771118164,50534550,0,0
2017-11-24,7.260000228881836,7.300000190734863,7.130000114440918,7.239999771118164,20231500,0,0
2017-11-27,7.25,7.269999980926514,6.920000076293945,7.070000171661377,32417500,0,0
2017-11-28,7.070000171661377,7.090000152587891,6.909999847412109,7.059999942779541,19418500,0,0
2017-11-29,7.110000133514404,7.429999828338623,7.099999904632568,7.349999904632568,37047000,0,0
2017-11-30,7.239999771118164,7.28000020980835,7.130000114440918,7.170000076293945,9080800,0,0
2017-12-01,7.199999809265137,7.239999771118164,7.0,7.019999980926514,12276500,0,0
2017-12-04,6.989999771118164,7.050000190734863,6.820000171661377,6.869999885559082,15657500,0,0
2017-12-05,6.800000190734863,6.840000152587891,6.539999961853027,6.630000114440918,21171000,0,0
2017-12-06,6.639999866485596,6.699999809265137,6.28000020980835,6.369999885559082,19761060,0,0
2017-12-07,6.400000095367432,6.429999828338623,5.849999904632568,6.0,23909200,0,0
2017-12-08,6.0,6.139999866485596,5.909999847412109,6.03000020980835,15676000,0,0
2017-12-11,6.070000171661377,6.539999961853027,6.050000190734863,6.46999979019165,24447000,0,0
2017-12-12,6.5,6.5,6.269999980926514,6.349999904632568,8983500,0,0
2017-12-13,6.329999923706055,6.369999885559082,6.260000228881836,6.300000190734863,5847500,0,0
2017-12-14,6.329999923706055,6.440000057220459,6.260000228881836,6.289999961853027,3750000,0,0
2017-12-15,6.25,6.260000228881836,6.099999904632568,6.159999847412109,4710310,0,0
2017-12-18,6.190000057220459,6.210000038146973,5.960000038146973,6.019999980926514,9198500,0,0
2017-12-19,6.059999942779541,6.119999885559082,6.0,6.019999980926514,3943000,0,0
2017-12-20,6.099999904632568,6.349999904632568,6.099999904632568,6.21999979019165,17411400,0,0
2017-12-21,6.28000020980835,6.480000019073486,6.269999980926514,6.369999885559082,13630423,0,0
2017-12-22,6.389999866485596,6.420000076293945,6.289999961853027,6.320000171661377,6554500,0,0
2017-12-27,6.329999923706055,6.340000152587891,6.170000076293945,6.199999809265137,4537000,0,0
2017-12-28,6.230000019073486,6.260000228881836,6.150000095367432,6.210000038146973,3572000,0,0
2017-12-29,6.260000228881836,6.320000171661377,6.230000019073486,6.269999980926514,4916400,0,0
2018-01-02,6.25,6.380000114440918,6.25,6.360000133514404,9420000,0,0
2018-01-03,6.420000076293945,6.960000038146973,6.409999847412109,6.909999847412109,42333250,0,0
2018-01-04,6.920000076293945,7.159999847412109,6.900000095367432,7.130000114440918,31578000,0,0
2018-01-05,7.130000114440918,7.21999979019165,6.889999866485596,6.989999771118164,16167105,0,0
2018-01-08,7.079999923706055,7.079999923706055,6.909999847412109,7.010000228881836,9524700,0,0
2018-01-09,7.010000228881836,7.179999828338623,7.010000228881836,7.079999923706055,9227500,0,0
2018-01-10,7.119999885559082,7.28000020980835,7.039999961853027,7.090000152587891,14925500,0,0
2018-01-11,7.090000152587891,7.130000114440918,6.980000019073486,7.010000228881836,5728300,0,0
2018-01-12,7.03000020980835,7.099999904632568,6.809999942779541,6.820000171661377,13815100,0,0
2018-01-15,6.849999904632568,6.909999847412109,6.599999904632568,6.610000133514404,12762893,0,0
2018-01-16,6.599999904632568,6.71999979019165,6.599999904632568,6.639999866485596,5900500,0,0
2018-01-17,6.630000114440918,6.670000076293945,6.510000228881836,6.570000171661377,7475500,0,0
2018-01-18,6.599999904632568,6.769999980926514,6.590000152587891,6.75,10408000,0,0
2018-01-19,6.75,6.75,6.630000114440918,6.659999847412109,5735200,0,0
2018-01-22,6.659999847412109,6.880000114440918,6.610000133514404,6.820000171661377,8840005,0,0
2018-01-23,6.800000190734863,6.869999885559082,6.679999828338623,6.699999809265137,8150500,0,0
2018-01-24,6.699999809265137,6.699999809265137,6.519999980926514,6.570000171661377,7601000,0,0
2018-01-25,6.550000190734863,6.550000190734863,6.349999904632568,6.460000038146973,11591500,0,0
2018-01-26,6.460000038146973,6.539999961853027,6.400000095367432,6.480000019073486,5188000,0,0
2018-01-29,6.480000019073486,6.570000171661377,6.400000095367432,6.510000228881836,6169000,0,0
2018-01-30,6.46999979019165,6.5,6.349999904632568,6.380000114440918,6262500,0,0
2018-01-31,6.369999885559082,6.409999847412109,6.28000020980835,6.400000095367432,6788500,0,0
2018-02-01,6.400000095367432,6.409999847412109,6.289999961853027,6.329999923706055,4177000,0,0
2018-02-02,6.309999942779541,6.360000133514404,6.199999809265137,6.28000020980835,5617500,0,0
2018-02-05,6.150000095367432,6.210000038146973,6.099999904632568,6.179999828338623,9363500,0,0
2018-02-06,6.059999942779541,6.059999942779541,5.849999904632568,5.929999828338623,26034000,0,0
2018-02-07,6.099999904632568,6.239999771118164,5.949999809265137,5.960000038146973,12201000,0,0
2018-02-08,6.0,6.079999923706055,5.929999828338623,5.989999771118164,3401000,0,0
2018-02-09,5.800000190734863,5.820000171661377,5.550000190734863,5.619999885559082,12422100,0,0
2018-02-12,5.619999885559082,5.650000095367432,5.539999961853027,5.550000190734863,6295000,0,0
2018-02-13,5.650000095367432,5.71999979019165,5.630000114440918,5.670000076293945,4541500,0,0
2018-02-14,5.679999828338623,5.739999771118164,5.679999828338623,5.690000057220459,1775985,0,0
2018-02-15,5.769999980926514,5.960000038146973,5.739999771118164,5.949999809265137,4280000,0,0
2018-02-20,5.949999809265137,5.980000019073486,5.889999866485596,5.960000038146973,3522500,0,0
2018-02-21,5.920000076293945,6.369999885559082,5.920000076293945,6.309999942779541,15334502,0,0
2018-02-22,6.25,6.46999979019165,6.150000095367432,6.150000095367432,11176502,0,0
2018-02-23,6.190000057220459,6.269999980926514,6.139999866485596,6.199999809265137,2984500,0,0
2018-02-26,6.25,6.260000228881836,6.159999847412109,6.199999809265137,2753500,0,0
2018-02-27,6.25,6.25,6.099999904632568,6.110000133514404,2621000,0,0
2018-02-28,6.099999904632568,6.110000133514404,5.980000019073486,6.010000228881836,4601400,0,0
2018-03-01,5.96999979019165,6.050000190734863,5.900000095367432,6.03000020980835,2963000,0,0
2018-03-02,5.960000038146973,5.989999771118164,5.920000076293945,5.940000057220459,4634000,0,0
2018-03-05,5.96999979019165,6.260000228881836,5.949999809265137,5.949999809265137,7516000,0,0
2018-03-06,6.050000190734863,6.110000133514404,5.960000038146973,5.96999979019165,4023000,0,0
2018-03-07,5.960000038146973,5.96999979019165,5.800000190734863,5.820000171661377,5365000,0,0
2018-03-08,5.820000171661377,5.849999904632568,5.769999980926514,5.78000020980835,6559000,0,0
2018-03-09,5.829999923706055,5.96999979019165,5.820000171661377,5.869999885559082,5182500,0,0
2018-03-12,5.909999847412109,6.150000095367432,5.909999847412109,6.150000095367432,10075500,0,0
2018-03-13,6.159999847412109,6.159999847412109,6.070000171661377,6.079999923706055,5248000,0,0
2018-03-14,6.070000171661377,6.070000171661377,5.940000057220459,6.019999980926514,3636500,0,0
2018-03-15,5.960000038146973,6.199999809265137,5.940000057220459,6.159999847412109,8282400,0,0
2018-03-16,5.909999847412109,5.920000076293945,5.599999904632568,5.75,25491780,0,0
2018-03-19,5.800000190734863,5.800000190734863,5.53000020980835,5.579999923706055,17637329,0,0
2018-03-20,5.559999942779541,5.639999866485596,5.5,5.550000190734863,12537500,0,0
2018-03-21,5.590000152587891,5.590000152587891,5.340000152587891,5.369999885559082,15810400,0,0
2018-03-22,5.329999923706055,5.329999923706055,4.929999828338623,4.960000038146973,28519070,0,0
2018-03-23,4.639999866485596,4.789999961853027,4.599999904632568,4.769999980926514,12880020,0,0
2018-03-26,4.699999809265137,4.769999980926514,4.559999942779541,4.670000076293945,7483250,0,0
2018-03-27,4.730000019073486,4.880000114440918,4.730000019073486,4.829999923706055,6492200,0,0
2018-03-28,4.769999980926514,4.78000020980835,4.570000171661377,4.599999904632568,8622500,0,0
2018-03-29,4.619999885559082,4.639999866485596,4.46999979019165,4.539999961853027,6134345,0,0
2018-04-03,4.539999961853027,4.539999961853027,4.340000152587891,4.429999828338623,3963300,0,0
2018-04-04,4.420000076293945,4.46999979019165,4.340000152587891,4.349999904632568,2852000,0,0
2018-04-06,4.389999866485596,4.440000057220459,4.239999771118164,4.25,9303500,0,0
2018-04-09,4.230000019073486,4.340000152587891,4.179999828338623,4.269999980926514,3455000,0,0
2018-04-10,4.269999980926514,4.559999942779541,4.25,4.550000190734863,6499000,0,0
2018-04-11,4.550000190734863,4.820000171661377,4.53000020980835,4.630000114440918,9635863,0,0
2018-04-12,4.630000114440918,4.659999847412109,4.480000019073486,4.5,3670000,0,0
2018-04-13,4.480000019073486,4.570000171661377,4.389999866485596,4.460000038146973,3137500,0,0
2018-04-16,4.420000076293945,4.460000038146973,4.360000133514404,4.369999885559082,2996000,0,0
2018-04-17,4.369999885559082,4.409999847412109,4.269999980926514,4.28000020980835,1928000,0,0
2018-04-18,4.349999904632568,4.360000133514404,4.170000076293945,4.260000228881836,3947150,0,0
2018-04-19,4.260000228881836,4.360000133514404,4.260000228881836,4.309999942779541,1987000,0,0
2018-04-20,4.309999942779541,4.320000171661377,4.21999979019165,4.239999771118164,1271200,0,0
2018-04-23,4.230000019073486,4.28000020980835,4.190000057220459,4.21999979019165,1684000,0,0
2018-04-24,4.21999979019165,4.340000152587891,4.210000038146973,4.320000171661377,2138000,0,0
2018-04-25,4.300000190734863,4.300000190734863,4.210000038146973,4.28000020980835,1509500,0,0
2018-04-26,4.289999961853027,4.289999961853027,4.150000095367432,4.260000228881836,2397500,0,0
2018-04-27,4.25,4.269999980926514,4.159999847412109,4.230000019073486,1608010,0,0
2018-04-30,4.21999979019165,4.300000190734863,4.190000057220459,4.239999771118164,1250500,0,0
2018-05-02,4.289999961853027,4.289999961853027,4.199999809265137,4.210000038146973,1346000,0,0
2018-05-03,4.210000038146973,4.21999979019165,4.119999885559082,4.170000076293945,3083040,0,0
2018-05-04,4.110000133514404,4.170000076293945,4.079999923706055,4.079999923706055,4359460,0,0
2018-05-07,4.090000152587891,4.119999885559082,3.930000066757202,3.9700000286102295,3971500,0,0
2018-05-08,3.9700000286102295,4.050000190734863,3.930000066757202,3.990000009536743,6332500,0,0
2018-05-09,3.990000009536743,4.139999866485596,3.9700000286102295,4.110000133514404,5577000,0,0
2018-05-10,4.079999923706055,4.46999979019165,4.079999923706055,4.409999847412109,14651100,0,0
2018-05-11,4.440000057220459,4.559999942779541,4.380000114440918,4.380000114440918,9598100,0,0
2018-05-14,4.400000095367432,4.46999979019165,4.360000133514404,4.380000114440918,2873400,0,0
2018-05-15,4.380000114440918,4.380000114440918,4.179999828338623,4.21999979019165,6041500,0,0
2018-05-16,4.199999809265137,4.199999809265137,4.019999980926514,4.099999904632568,11041775,0,0
2018-05-17,4.119999885559082,4.119999885559082,3.9800000190734863,4.0,12011000,0,0
2018-05-18,4.0,4.070000171661377,3.9200000762939453,4.010000228881836,7558500,0,0
2018-05-21,4.010000228881836,4.059999942779541,3.9800000190734863,3.9800000190734863,4600500,0,0
2018-05-23,3.990000009536743,4.0,3.930000066757202,3.9700000286102295,6431800,0,0
2018-05-24,3.9700000286102295,3.9700000286102295,3.930000066757202,3.9600000381469727,5889649,0,0
2018-05-25,3.950000047683716,4.019999980926514,3.930000066757202,4.0,5355500,0,0
2018-05-28,4.039999961853027,4.099999904632568,4.019999980926514,4.050000190734863,12486000,0,0
2018-05-29,4.03000020980835,4.079999923706055,3.940000057220459,3.9700000286102295,6532500,0,0
2018-05-30,3.940000057220459,3.950000047683716,3.8299999237060547,3.859999895095825,10033500,0,0
2018-05-31,3.9100000858306885,3.930000066757202,3.869999885559082,3.880000114440918,5687808,0,0
2018-06-01,3.9000000953674316,3.9000000953674316,3.869999885559082,3.880000114440918,7570000,0,0
2018-06-04,3.930000066757202,3.940000057220459,3.890000104904175,3.890000104904175,8901700,0,0
2018-06-05,3.890000104904175,3.9100000858306885,3.6600000858306885,3.740000009536743,20478800,0,0
2018-06-06,3.7200000286102295,4.300000190734863,3.7200000286102295,4.269999980926514,62014000,0,0
2018-06-07,4.309999942779541,4.380000114440918,4.179999828338623,4.349999904632568,34596500,0,0
2018-06-08,4.340000152587891,4.480000019073486,4.210000038146973,4.449999809265137,34410126,0,0
2018-06-11,4.449999809265137,4.53000020980835,4.309999942779541,4.349999904632568,21413300,0,0
2018-06-12,4.369999885559082,4.480000019073486,4.320000171661377,4.440000057220459,15975000,0,0
2018-06-13,4.449999809265137,4.789999961853027,4.440000057220459,4.460000038146973,41999500,0,0
2018-06-14,4.289999961853027,4.300000190734863,3.869999885559082,3.950000047683716,45294024,0,0
2018-06-15,3.9000000953674316,3.9100000858306885,3.7300000190734863,3.7300000190734863,30645100,0,0
2018-06-19,3.7200000286102295,3.7300000190734863,3.380000114440918,3.5,25940529,0,0
2018-06-20,3.549999952316284,3.630000114440918,3.509999990463257,3.5399999618530273,11134398,0,0
2018-06-21,3.5399999618530273,3.619999885559082,3.4000000953674316,3.4000000953674316,19913951,0,0
2018-06-22,3.4100000858306885,3.4600000381469727,3.309999942779541,3.309999942779541,14444500,0,0
2018-06-25,3.3299999237060547,3.390000104904175,3.299999952316284,3.3299999237060547,8511500,0,0
2018-06-26,3.3299999237060547,3.3399999141693115,3.2100000381469727,3.259999990463257,5443916,0,0
2018-06-27,3.319999933242798,3.319999933242798,3.0199999809265137,3.0999999046325684,6894500,0,0
2018-06-28,3.0999999046325684,3.140000104904175,3.0299999713897705,3.0899999141693115,4164283,0,0
2018-06-29,3.109999895095825,3.319999933242798,3.109999895095825,3.2899999618530273,6090000,0,0
2018-07-03,3.240000009536743,3.299999952316284,3.049999952316284,3.2799999713897705,9484000,0,0
2018-07-04,3.2899999618530273,3.299999952316284,3.1500000953674316,3.190000057220459,3645500,0,0
2018-07-05,3.190000057220459,3.200000047683716,3.069999933242798,3.130000114440918,3031000,0,0
2018-07-06,3.140000104904175,3.190000057220459,3.0799999237060547,3.1600000858306885,4424381,0,0
2018-07-09,3.200000047683716,3.25,3.1600000858306885,3.2100000381469727,2575500,0,0
2018-07-10,3.240000009536743,3.2899999618530273,3.1700000762939453,3.2200000286102295,3052300,0,0
2018-07-11,3.180000066757202,3.180000066757202,3.059999942779541,3.1500000953674316,3205500,0,0
2018-07-12,3.180000066757202,3.240000009536743,3.1500000953674316,3.2100000381469727,2375000,0,0
2018-07-13,3.25,3.2899999618530273,3.180000066757202,3.25,6660499,0,0
2018-07-16,3.25,3.299999952316284,3.130000114440918,3.1700000762939453,3648500,0,0
2018-07-17,3.1700000762939453,3.1700000762939453,3.0999999046325684,3.140000104904175,2556000,0,0
2018-07-18,3.140000104904175,3.1700000762939453,3.049999952316284,3.059999942779541,5145500,0,0
2018-07-19,3.0799999237060547,3.109999895095825,2.9800000190734863,2.9800000190734863,5911270,0,0
2018-07-20,2.950000047683716,2.990000009536743,2.9000000953674316,2.9700000286102295,4831000,0,0
2018-07-23,2.940000057220459,3.0199999809265137,2.940000057220459,3.009999990463257,1680500,0,0
2018-07-24,3.009999990463257,3.130000114440918,2.9800000190734863,3.059999942779541,7543000,0,0
2018-07-25,3.069999933242798,3.109999895095825,3.049999952316284,3.0899999141693115,5219500,0,0
2018-07-26,3.0899999141693115,3.140000104904175,3.0299999713897705,3.049999952316284,4100500,0,0
2018-07-27,3.0799999237060547,3.0899999141693115,3.049999952316284,3.0799999237060547,2977000,0,0
2018-07-30,3.049999952316284,3.049999952316284,2.9800000190734863,3.0,1997500,0,0
2018-07-31,2.990000009536743,3.0,2.9100000858306885,2.9100000858306885,3348263,0,0
2018-08-01,2.9700000286102295,3.009999990463257,2.9100000858306885,2.950000047683716,3644500,0,0
2018-08-02,2.9600000381469727,2.9700000286102295,2.7699999809265137,2.8499999046325684,7835000,0,0
2018-08-03,2.8499999046325684,2.890000104904175,2.75,2.759999990463257,3245150,0,0
2018-08-06,2.7899999618530273,2.8499999046325684,2.7100000381469727,2.7200000286102295,5880500,0,0
2018-08-07,2.7300000190734863,2.75,2.640000104904175,2.680000066757202,5576355,0,0
2018-08-08,2.690000057220459,2.7799999713897705,2.680000066757202,2.7100000381469727,3045500,0,0
2018-08-09,2.7200000286102295,2.869999885559082,2.680000066757202,2.819999933242798,8830500,0,0
2018-08-10,2.8299999237060547,2.8299999237060547,2.7300000190734863,2.7699999809265137,3203580,0,0
2018-08-13,2.7300000190734863,2.7300000190734863,2.6600000858306885,2.6700000762939453,3395000,0,0
2018-08-14,2.6600000858306885,2.6700000762939453,2.559999942779541,2.609999895095825,6286500,0,0
2018-08-15,2.640000104904175,2.6500000953674316,2.5399999618530273,2.549999952316284,6014000,0,0
2018-08-16,2.5,2.5999999046325684,2.430000066757202,2.490000009536743,8142500,0,0
2018-08-17,2.5,2.5899999141693115,2.4800000190734863,2.4800000190734863,3285500,0,0
2018-08-20,2.4800000190734863,2.569999933242798,2.4200000762939453,2.4600000381469727,4652000,0,0
2018-08-21,2.4700000286102295,2.5999999046325684,2.4700000286102295,2.5799999237060547,6182000,0,0
2018-08-22,2.549999952316284,2.680000066757202,2.549999952316284,2.680000066757202,5797336,0,0
2018-08-23,2.7799999713897705,3.119999885559082,2.7100000381469727,2.9000000953674316,30662500,0,0
2018-08-24,2.890000104904175,2.890000104904175,2.7200000286102295,2.7300000190734863,9177130,0,0
2018-08-27,2.7799999713897705,2.7899999618530273,2.630000114440918,2.630000114440918,6933500,0,0
2018-08-28,2.6700000762939453,2.680000066757202,2.549999952316284,2.5799999237060547,7926500,0,0
2018-08-29,2.5899999141693115,2.6700000762939453,2.5199999809265137,2.549999952316284,6052324,0,0
2018-08-30,2.569999933242798,2.5999999046325684,2.549999952316284,2.5999999046325684,2280500,0,0
2018-08-31,2.559999942779541,2.5999999046325684,2.5299999713897705,2.5799999237060547,2094000,0,0
2018-09-03,2.5799999237060547,2.5799999237060547,2.5,2.5399999618530273,1795000,0,0
2018-09-04,2.569999933242798,2.609999895095825,2.5199999809265137,2.5999999046325684,2174500,0,0
2018-09-05,2.5899999141693115,2.5899999141693115,2.5,2.5399999618530273,2419500,0,0
2018-09-06,2.5399999618530273,2.5399999618530273,2.430000066757202,2.4600000381469727,2784500,0,0
2018-09-07,2.4700000286102295,2.509999990463257,2.390000104904175,2.4100000858306885,4819500,0,0
2018-09-10,2.440000057220459,2.440000057220459,2.2899999618530273,2.309999942779541,3526500,0,0
2018-09-11,2.309999942779541,2.309999942779541,2.180000066757202,2.2200000286102295,6161001,0,0
2018-09-12,2.2300000190734863,2.2300000190734863,2.1600000858306885,2.1700000762939453,3173500,0,0
2018-09-13,2.200000047683716,2.3499999046325684,2.200000047683716,2.3399999141693115,5638600,0,0
2018-09-14,2.359999895095825,2.4000000953674316,2.2799999713897705,2.359999895095825,3874500,0,0
2018-09-17,2.2899999618530273,2.319999933242798,2.259999990463257,2.2799999713897705,975170,0,0
2018-09-18,2.2699999809265137,2.3399999141693115,2.2300000190734863,2.3399999141693115,2370000,0,0
2018-09-19,2.359999895095825,2.4100000858306885,2.309999942779541,2.380000114440918,3336000,0,0
2018-09-20,2.4200000762939453,2.430000066757202,2.3299999237060547,2.3399999141693115,1456000,0,0
2018-09-21,2.369999885559082,2.680000066757202,2.359999895095825,2.680000066757202,18761189,0,0
2018-09-24,2.6600000858306885,2.6600000858306885,2.5399999618530273,2.640000104904175,5538500,0,0
2018-09-26,2.5999999046325684,2.5999999046325684,2.490000009536743,2.509999990463257,5575850,0,0
2018-09-27,2.509999990463257,2.619999885559082,2.509999990463257,2.5799999237060547,4459751,0,0
2018-09-28,2.5899999141693115,2.609999895095825,2.549999952316284,2.569999933242798,2119500,0,0
2018-10-02,2.559999942779541,2.559999942779541,2.4600000381469727,2.490000009536743,1601000,0,0
2018-10-03,2.5,2.5299999713897705,2.450000047683716,2.4700000286102295,873500,0,0
2018-10-04,2.5,2.5,2.390000104904175,2.4100000858306885,2164500,0,0
2018-10-05,2.440000057220459,2.440000057220459,2.3299999237060547,2.390000104904175,3453000,0,0
2018-10-08,2.390000104904175,2.390000104904175,2.25,2.2699999809265137,3101000,0,0
2018-10-09,2.2899999618530273,2.2899999618530273,2.200000047683716,2.2200000286102295,2659500,0,0
2018-10-10,2.2200000286102295,2.259999990463257,2.1600000858306885,2.1600000858306885,2520500,0,0
2018-10-11,2.0299999713897705,2.0799999237060547,1.9600000381469727,1.9800000190734863,10488500,0,0
2018-10-12,1.9800000190734863,2.059999942779541,1.9500000476837158,2.049999952316284,5257000,0,0
2018-10-15,2.049999952316284,2.0799999237060547,1.8899999856948853,1.9800000190734863,4099000,0,0
2018-10-16,1.9800000190734863,2.0199999809265137,1.899999976158142,1.9500000476837158,3523500,0,0
2018-10-18,1.9600000381469727,1.9600000381469727,1.8899999856948853,1.909999966621399,4041000,0,0
2018-10-19,1.899999976158142,1.9600000381469727,1.840000033378601,1.9199999570846558,4046500,0,0
2018-10-22,1.9500000476837158,2.0199999809265137,1.9199999570846558,2.0,3901500,0,0
2018-10-23,1.9800000190734863,1.9900000095367432,1.909999966621399,1.9800000190734863,3434500,0,0
2018-10-24,1.9600000381469727,1.9900000095367432,1.940000057220459,1.9600000381469727,1516500,0,0
2018-10-25,1.9199999570846558,1.9700000286102295,1.850000023841858,1.9500000476837158,5478500,0,0
2018-10-26,1.9600000381469727,1.9700000286102295,1.8799999952316284,1.8899999856948853,2717500,0,0
2018-10-29,1.9199999570846558,1.9199999570846558,1.8600000143051147,1.899999976158142,1918000,0,0
2018-10-30,1.899999976158142,2.049999952316284,1.840000033378601,2.009999990463257,5539451,0,0
2018-10-31,2.0299999713897705,2.0799999237060547,1.9600000381469727,2.0399999618530273,8789500,0,0
2018-11-01,2.0799999237060547,2.1500000953674316,2.009999990463257,2.130000114440918,6953500,0,0
2018-11-02,2.1500000953674316,2.25,2.0999999046325684,2.25,12503750,0,0
2018-11-05,2.2100000381469727,2.319999933242798,2.140000104904175,2.299999952316284,8920500,0,0
2018-11-06,2.299999952316284,2.390000104904175,2.259999990463257,2.369999885559082,8418500,0,0
2018-11-07,2.3299999237060547,2.490000009536743,2.3299999237060547,2.4100000858306885,7458000,0,0
2018-11-08,2.430000066757202,2.4800000190734863,2.319999933242798,2.3399999141693115,4807000,0,0
2018-11-09,2.319999933242798,2.319999933242798,2.200000047683716,2.2100000381469727,5642500,0,0
2018-11-12,2.25,2.25,2.1500000953674316,2.1700000762939453,3135000,0,0
2018-11-13,2.0799999237060547,2.200000047683716,2.0799999237060547,2.190000057220459,2920500,0,0
2018-11-14,2.2200000286102295,2.2300000190734863,2.1600000858306885,2.190000057220459,1668500,0,0
2018-11-15,2.2300000190734863,2.309999942779541,2.200000047683716,2.2799999713897705,3615500,0,0
2018-11-16,2.299999952316284,2.4000000953674316,2.259999990463257,2.2899999618530273,3878000,0,0
2018-11-19,2.3399999141693115,2.380000114440918,2.2899999618530273,2.3399999141693115,3839237,0,0
2018-11-20,2.3399999141693115,2.369999885559082,2.2699999809265137,2.299999952316284,4073940,0,0
2018-11-21,2.2799999713897705,2.3299999237060547,2.2300000190734863,2.309999942779541,2499000,0,0
2018-11-22,2.3499999046325684,2.3499999046325684,2.2699999809265137,2.319999933242798,14414639,0,0
2018-11-23,2.319999933242798,2.3299999237060547,2.2200000286102295,2.25,1790000,0,0
2018-11-26,2.2699999809265137,2.2799999713897705,2.240000009536743,2.240000009536743,1607000,0,0
2018-11-27,2.259999990463257,2.2799999713897705,2.2200000286102295,2.2300000190734863,2026000,0,0
2018-11-28,2.2300000190734863,2.309999942779541,2.180000066757202,2.299999952316284,4074306,0,0
2018-11-29,2.309999942779541,2.3299999237060547,2.1500000953674316,2.1700000762939453,10075118,0,0
2018-11-30,2.1700000762939453,2.1700000762939453,2.009999990463257,2.0199999809265137,9115500,0,0
2018-12-03,2.049999952316284,2.0899999141693115,2.0199999809265137,2.0299999713897705,7085000,0,0
2018-12-04,2.0299999713897705,2.130000114440918,2.009999990463257,2.130000114440918,5990000,0,0
2018-12-05,2.0999999046325684,2.0999999046325684,2.0399999618530273,2.069999933242798,2099000,0,0
2018-12-06,2.069999933242798,2.0899999141693115,2.0,2.0199999809265137,3171500,0,0
2018-12-07,2.0199999809265137,2.0399999618530273,1.940000057220459,1.9500000476837158,3362000,0,0
2018-12-10,1.940000057220459,1.9500000476837158,1.899999976158142,1.9299999475479126,1189500,0,0
2018-12-11,1.9299999475479126,1.9700000286102295,1.899999976158142,1.9500000476837158,2029500,0,0
2018-12-12,1.9299999475479126,1.9600000381469727,1.8899999856948853,1.909999966621399,6125570,0,0
2018-12-13,1.9299999475479126,1.9800000190734863,1.9199999570846558,1.940000057220459,2930500,0,0
2018-12-14,1.940000057220459,1.9600000381469727,1.8600000143051147,1.909999966621399,6998000,0,0
2018-12-17,1.899999976158142,1.9199999570846558,1.8700000047683716,1.8899999856948853,1563500,0,0
2018-12-18,1.8899999856948853,1.9199999570846558,1.8600000143051147,1.8600000143051147,1975000,0,0
2018-12-19,1.8799999952316284,1.8799999952316284,1.8600000143051147,1.8600000143051147,1099000,0,0
2018-12-20,1.8300000429153442,1.8600000143051147,1.7999999523162842,1.8300000429153442,3153500,0,0
2018-12-21,1.7999999523162842,1.899999976158142,1.7999999523162842,1.8600000143051147,2886843,0,0
2018-12-24,1.8700000047683716,1.8700000047683716,1.7899999618530273,1.8300000429153442,810000,0,0
2018-12-27,1.8300000429153442,1.8799999952316284,1.7799999713897705,1.7799999713897705,3303000,0,0
2018-12-28,1.7799999713897705,1.7999999523162842,1.7100000381469727,1.7100000381469727,6212000,0,0
2018-12-31,1.7300000190734863,1.7799999713897705,1.7000000476837158,1.75,1343000,0,0
2019-01-02,1.7400000095367432,1.7799999713897705,1.7100000381469727,1.7400000095367432,1821000,0,0
2019-01-03,1.7400000095367432,1.7699999809265137,1.7200000286102295,1.7400000095367432,1708500,0,0
2019-01-04,1.7400000095367432,1.809999942779541,1.7000000476837158,1.7999999523162842,4068500,0,0
2019-01-07,1.7999999523162842,1.850000023841858,1.7899999618530273,1.840000033378601,3351386,0,0
2019-01-08,1.809999942779541,1.940000057220459,1.809999942779541,1.940000057220459,24970288,0,0
2019-01-09,1.9299999475479126,1.9800000190734863,1.9299999475479126,1.940000057220459,5621000,0,0
2019-01-10,1.9500000476837158,1.9600000381469727,1.899999976158142,1.9500000476837158,2013500,0,0
2019-01-11,1.9500000476837158,1.9500000476837158,1.8899999856948853,1.8899999856948853,1837500,0,0
2019-01-14,1.8799999952316284,1.8899999856948853,1.7999999523162842,1.8200000524520874,2399000,0,0
2019-01-15,1.8200000524520874,1.850000023841858,1.8200000524520874,1.840000033378601,2100500,0,0
2019-01-16,1.840000033378601,1.909999966621399,1.840000033378601,1.909999966621399,3214000,0,0
2019-01-17,1.8799999952316284,1.9800000190734863,1.8799999952316284,1.9299999475479126,2666500,0,0
2019-01-18,1.909999966621399,2.0199999809265137,1.909999966621399,1.9900000095367432,5059000,0,0
2019-01-21,2.0,2.0899999141693115,1.9700000286102295,2.049999952316284,4956000,0,0
2019-01-22,2.0299999713897705,2.0399999618530273,1.9700000286102295,1.9800000190734863,1775500,0,0
2019-01-23,1.9600000381469727,2.0,1.9500000476837158,1.9800000190734863,1286500,0,0
2019-01-24,1.9700000286102295,2.009999990463257,1.9600000381469727,2.0,1830500,0,0
2019-01-25,1.9800000190734863,2.0399999618530273,1.9800000190734863,2.0199999809265137,2301500,0,0
2019-01-28,2.0199999809265137,2.130000114440918,2.0199999809265137,2.059999942779541,5121000,0,0
2019-01-29,2.059999942779541,2.059999942779541,1.9800000190734863,2.009999990463257,2019000,0,0
2019-01-30,2.0,2.0299999713897705,1.9700000286102295,1.9900000095367432,1680000,0,0
2019-01-31,2.0,2.049999952316284,1.9900000095367432,1.9900000095367432,2208500,0,0
2019-02-01,2.0,2.0299999713897705,1.9900000095367432,2.0,1777500,0,0
2019-02-04,2.0,2.049999952316284,1.9800000190734863,2.0299999713897705,1193500,0,0
2019-02-08,2.0199999809265137,2.069999933242798,1.9700000286102295,2.059999942779541,2350500,0,0
2019-02-11,2.049999952316284,2.1600000858306885,2.0299999713897705,2.119999885559082,5493000,0,0
2019-02-12,2.119999885559082,2.1600000858306885,2.0799999237060547,2.0999999046325684,3905000,0,0
2019-02-13,2.0999999046325684,2.2200000286102295,2.0999999046325684,2.190000057220459,7094500,0,0
2019-02-14,2.180000066757202,2.25,2.130000114440918,2.2200000286102295,5061000,0,0
2019-02-15,2.2200000286102295,2.2200000286102295,2.0999999046325684,2.0999999046325684,5920000,0,0
2019-02-18,2.119999885559082,2.1500000953674316,2.119999885559082,2.1500000953674316,2955500,0,0
2019-02-19,2.130000114440918,2.1600000858306885,2.0899999141693115,2.0899999141693115,2652000,0,0
2019-02-20,2.0899999141693115,2.1500000953674316,2.0899999141693115,2.140000104904175,2019000,0,0
2019-02-21,2.140000104904175,2.2300000190734863,2.119999885559082,2.180000066757202,6484000,0,0
2019-02-22,2.180000066757202,2.2899999618530273,2.140000104904175,2.259999990463257,7226000,0,0
2019-02-25,2.2699999809265137,2.319999933242798,2.240000009536743,2.2899999618530273,8520500,0,0
2019-02-26,2.2799999713897705,2.3299999237060547,2.2300000190734863,2.240000009536743,6745000,0,0
2019-02-27,2.25,2.259999990463257,2.180000066757202,2.190000057220459,3852500,0,0
2019-02-28,2.190000057220459,2.2300000190734863,2.1600000858306885,2.1700000762939453,3282000,0,0
2019-03-01,2.1600000858306885,2.190000057220459,2.140000104904175,2.180000066757202,5086000,0,0
2019-03-04,2.180000066757202,2.2699999809265137,2.180000066757202,2.240000009536743,4595500,0,0
2019-03-05,2.2200000286102295,2.259999990463257,2.2100000381469727,2.25,3174500,0,0
2019-03-06,2.25,2.299999952316284,2.2300000190734863,2.2300000190734863,4225500,0,0
2019-03-07,2.2300000190734863,2.2300000190734863,2.1500000953674316,2.1600000858306885,3768500,0,0
2019-03-08,2.140000104904175,2.140000104904175,2.0299999713897705,2.0299999713897705,7809500,0,0
2019-03-11,2.0,2.049999952316284,1.9600000381469727,2.0399999618530273,3076000,0,0
2019-03-12,2.0299999713897705,2.109999895095825,2.0299999713897705,2.0799999237060547,3418000,0,0
2019-03-13,2.0799999237060547,2.0799999237060547,2.0399999618530273,2.0399999618530273,1381000,0,0
2019-03-14,2.0999999046325684,2.119999885559082,2.0,2.0299999713897705,2729000,0,0
2019-03-15,2.0299999713897705,2.0399999618530273,2.0,2.0,2646500,0,0
2019-03-18,2.009999990463257,2.0299999713897705,1.9800000190734863,2.0,4687500,0,0
2019-03-19,2.0,2.049999952316284,2.0,2.0199999809265137,2982000,0,0
2019-03-20,2.059999942779541,2.069999933242798,2.009999990463257,2.0399999618530273,5219500,0,0
2019-03-21,2.0399999618530273,2.049999952316284,2.0,2.009999990463257,2028213,0,0
2019-03-22,2.009999990463257,2.0299999713897705,1.9500000476837158,1.9900000095367432,4851500,0,0
2019-03-25,1.940000057220459,1.940000057220459,1.899999976158142,1.909999966621399,2947000,0,0
2019-03-26,1.899999976158142,1.9199999570846558,1.8899999856948853,1.8899999856948853,2367500,0,0
2019-03-27,1.8799999952316284,1.9199999570846558,1.8799999952316284,1.899999976158142,2904000,0,0
2019-03-28,1.8899999856948853,1.909999966621399,1.8799999952316284,1.8899999856948853,1717594,0,0
2019-03-29,1.8899999856948853,1.9500000476837158,1.8899999856948853,1.909999966621399,4320000,0,0
2019-04-01,1.909999966621399,2.009999990463257,1.909999966621399,2.0,7527600,0,0
2019-04-02,2.0,2.0999999046325684,1.9900000095367432,2.059999942779541,5960000,0,0
2019-04-03,2.049999952316284,2.0999999046325684,2.049999952316284,2.0799999237060547,3583500,0,0
2019-04-04,2.0999999046325684,2.0999999046325684,2.009999990463257,2.0299999713897705,4221500,0,0
2019-04-08,2.0299999713897705,2.049999952316284,2.0199999809265137,2.0399999618530273,3062000,0,0
2019-04-09,2.0399999618530273,2.049999952316284,2.0199999809265137,2.0299999713897705,2220500,0,0
2019-04-10,2.009999990463257,2.0399999618530273,1.9700000286102295,2.0299999713897705,4099716,0,0
2019-04-11,2.009999990463257,2.0199999809265137,1.9700000286102295,1.9800000190734863,3565500,0,0
2019-04-12,1.9800000190734863,1.9900000095367432,1.9299999475479126,1.9700000286102295,2613990,0,0
2019-04-15,1.9700000286102295,2.190000057220459,1.9700000286102295,2.0999999046325684,22382774,0,0
2019-04-16,2.109999895095825,2.180000066757202,2.069999933242798,2.109999895095825,10645416,0,0
2019-04-17,2.130000114440918,2.130000114440918,2.0299999713897705,2.049999952316284,6739000,0,0
2019-04-18,2.049999952316284,2.0899999141693115,2.0399999618530273,2.0799999237060547,5679500,0,0
2019-04-23,2.0799999237060547,2.0799999237060547,1.9900000095367432,2.009999990463257,4620090,0,0
2019-04-24,2.0,2.0199999809265137,1.9600000381469727,1.9700000286102295,4030712,0,0
2019-04-25,1.9600000381469727,2.009999990463257,1.9199999570846558,1.9299999475479126,5951712,0,0
2019-04-26,1.9199999570846558,1.940000057220459,1.899999976158142,1.9299999475479126,3702712,0,0
2019-04-29,1.9299999475479126,1.9800000190734863,1.909999966621399,1.9600000381469727,3304947,0,0
2019-04-30,1.9199999570846558,1.9299999475479126,1.899999976158142,1.9199999570846558,2387100,0,0
2019-05-02,1.899999976158142,1.9299999475479126,1.899999976158142,1.9199999570846558,1945996,0,0
2019-05-03,1.940000057220459,1.9700000286102295,1.899999976158142,1.9500000476837158,1921000,0,0
2019-05-06,1.9199999570846558,1.9199999570846558,1.840000033378601,1.8600000143051147,4993000,0,0
2019-05-07,1.8600000143051147,1.899999976158142,1.850000023841858,1.8899999856948853,2840000,0,0
2019-05-08,1.8300000429153442,1.8700000047683716,1.8300000429153442,1.8700000047683716,2418500,0,0
2019-05-09,1.850000023841858,1.8600000143051147,1.7999999523162842,1.809999942779541,3395500,0,0
2019-05-10,1.809999942779541,1.899999976158142,1.809999942779541,1.850000023841858,3326500,0,0
2019-05-14,1.7899999618530273,1.7899999618530273,1.7300000190734863,1.7699999809265137,6889500,0,0
2019-05-15,1.7699999809265137,1.7999999523162842,1.75,1.7699999809265137,4079500,0,0
2019-05-16,1.7699999809265137,1.7899999618530273,1.75,1.7599999904632568,2986000,0,0
2019-05-17,1.7599999904632568,1.7999999523162842,1.7300000190734863,1.7400000095367432,3484500,0,0
2019-05-20,1.7400000095367432,1.7400000095367432,1.6799999475479126,1.7100000381469727,5603587,0,0
2019-05-21,1.690000057220459,1.7400000095367432,1.6799999475479126,1.6799999475479126,3441000,0,0
2019-05-22,1.690000057220459,1.7200000286102295,1.690000057220459,1.7000000476837158,2544090,0,0
2019-05-23,1.7100000381469727,1.7200000286102295,1.6799999475479126,1.690000057220459,2523874,0,0
2019-05-24,1.7000000476837158,1.7300000190734863,1.6799999475479126,1.7100000381469727,2515000,0,0
2019-05-27,1.7000000476837158,1.75,1.690000057220459,1.7200000286102295,3389024,0,0
2019-05-28,1.7200000286102295,1.7899999618530273,1.7200000286102295,1.7599999904632568,16863500,0,0
2019-05-29,1.7599999904632568,1.7699999809265137,1.7300000190734863,1.7599999904632568,976360,0,0
2019-05-30,1.7599999904632568,1.7599999904632568,1.7400000095367432,1.75,570091,0,0
2019-05-31,1.809999942779541,1.9600000381469727,1.809999942779541,1.8799999952316284,18441748,0,0
2019-06-03,1.899999976158142,1.8700000047683716,1.7899999618530273,1.8300000429153442,3395052,0,0
2019-06-04,1.840000033378601,1.850000023841858,1.7200000286102295,1.7699999809265137,4178834,0,0
2019-06-05,1.7899999618530273,1.7999999523162842,1.7300000190734863,1.75,2490970,0,0
2019-06-06,1.7400000095367432,1.75,1.7200000286102295,1.7400000095367432,1511000,0,0
2019-06-10,1.7400000095367432,1.7699999809265137,1.7400000095367432,1.7599999904632568,1681320,0,0
2019-06-11,1.7799999713897705,1.8200000524520874,1.7699999809265137,1.7799999713897705,3817000,0,0
2019-06-12,1.7799999713897705,1.7799999713897705,1.7200000286102295,1.7200000286102295,1787125,0,0
2019-06-13,1.7200000286102295,1.75,1.7000000476837158,1.7200000286102295,1263000,0,0
2019-06-14,1.7200000286102295,1.7300000190734863,1.6799999475479126,1.6799999475479126,4649500,0,0
2019-06-17,1.6799999475479126,1.7100000381469727,1.6799999475479126,1.6799999475479126,1958034,0,0
2019-06-18,1.6799999475479126,1.7000000476837158,1.6699999570846558,1.7000000476837158,1016500,0,0
2019-06-19,1.7300000190734863,1.7699999809265137,1.7200000286102295,1.75,2314500,0,0
2019-06-20,1.7300000190734863,1.7899999618530273,1.7300000190734863,1.75,3024000,0,0
2019-06-21,1.75,1.809999942779541,1.75,1.7999999523162842,4790590,0,0
2019-06-24,1.7999999523162842,1.850000023841858,1.7899999618530273,1.7999999523162842,2269000,0,0
2019-06-25,1.7799999713897705,1.7999999523162842,1.7699999809265137,1.7899999618530273,1999500,0,0
2019-06-26,1.7599999904632568,1.840000033378601,1.7599999904632568,1.8300000429153442,2536250,0,0
2019-06-27,1.809999942779541,1.8899999856948853,1.809999942779541,1.850000023841858,2187560,0,0
2019-06-28,1.8600000143051147,1.899999976158142,1.850000023841858,1.8700000047683716,2497936,0,0
2019-07-02,1.8799999952316284,1.9299999475479126,1.8700000047683716,1.8799999952316284,2687789,0,0
2019-07-03,1.8799999952316284,1.8799999952316284,1.7999999523162842,1.840000033378601,1456000,0,0
2019-07-04,1.840000033378601,1.8600000143051147,1.809999942779541,1.8300000429153442,1194700,0,0
2019-07-05,1.8200000524520874,1.850000023841858,1.7999999523162842,1.8200000524520874,895000,0,0
2019-07-08,1.7999999523162842,1.809999942779541,1.7599999904632568,1.7799999713897705,2426500,0,0
2019-07-09,1.7899999618530273,1.809999942779541,1.75,1.7699999809265137,1300500,0,0
2019-07-10,1.7699999809265137,1.7799999713897705,1.7599999904632568,1.7699999809265137,841000,0,0
2019-07-11,1.7999999523162842,1.8300000429153442,1.7799999713897705,1.809999942779541,1090500,0,0
2019-07-12,1.7999999523162842,1.8300000429153442,1.7599999904632568,1.7899999618530273,910000,0,0
2019-07-15,1.7799999713897705,1.8300000429153442,1.7799999713897705,1.7999999523162842,1083500,0,0
2019-07-16,1.7999999523162842,1.809999942779541,1.7699999809265137,1.7999999523162842,581000,0,0
2019-07-17,1.7899999618530273,1.809999942779541,1.7799999713897705,1.809999942779541,680000,0,0
2019-07-18,1.809999942779541,1.8200000524520874,1.7799999713897705,1.7899999618530273,1182500,0,0
2019-07-19,1.7999999523162842,1.840000033378601,1.7799999713897705,1.8200000524520874,3292000,0,0
2019-07-22,1.8200000524520874,1.8300000429153442,1.7899999618530273,1.7899999618530273,829000,0,0
2019-07-23,1.7899999618530273,1.809999942779541,1.7799999713897705,1.7999999523162842,1363500,0,0
2019-07-24,1.7999999523162842,1.850000023841858,1.7999999523162842,1.8200000524520874,2114500,0,0
2019-07-25,1.809999942779541,1.8300000429153442,1.7999999523162842,1.8300000429153442,824500,0,0
2019-07-26,1.809999942779541,1.8200000524520874,1.7799999713897705,1.7899999618530273,2290500,0,0
2019-07-29,1.7799999713897705,1.8200000524520874,1.7699999809265137,1.7799999713897705,1064823,0,0
2019-07-30,1.7799999713897705,1.7999999523162842,1.7699999809265137,1.7699999809265137,660000,0,0
2019-07-31,1.7799999713897705,1.7899999618530273,1.7699999809265137,1.7799999713897705,774000,0,0
2019-08-01,1.7799999713897705,1.7999999523162842,1.7400000095367432,1.75,1885500,0,0
2019-08-02,1.7300000190734863,1.7300000190734863,1.7000000476837158,1.7200000286102295,2877500,0,0
2019-08-05,1.7200000286102295,1.7300000190734863,1.559999942779541,1.5800000429153442,5786500,0,0
2019-08-06,1.559999942779541,1.559999942779541,1.4800000190734863,1.5099999904632568,6982500,0,0
2019-08-07,1.5099999904632568,1.7200000286102295,1.5,1.7200000286102295,11359500,0,0
2019-08-08,1.7200000286102295,1.7200000286102295,1.6200000047683716,1.659999966621399,4351000,0,0
2019-08-09,1.659999966621399,1.659999966621399,1.6100000143051147,1.6299999952316284,1800500,0,0
2019-08-12,1.600000023841858,1.6799999475479126,1.600000023841858,1.6699999570846558,2085021,0,0
2019-08-13,1.659999966621399,1.659999966621399,1.5499999523162842,1.5700000524520874,3146000,0,0
2019-08-14,1.600000023841858,1.6200000047683716,1.559999942779541,1.5700000524520874,2921000,0,0
2019-08-15,1.5299999713897705,1.590000033378601,1.5099999904632568,1.5700000524520874,2290000,0,0
2019-08-16,1.5700000524520874,1.5700000524520874,1.5299999713897705,1.5299999713897705,2168000,0,0
2019-08-19,1.5499999523162842,1.6100000143051147,1.5499999523162842,1.5700000524520874,2834000,0,0
2019-08-20,1.559999942779541,1.6299999952316284,1.559999942779541,1.5800000429153442,3469000,0,0
2019-08-21,1.600000023841858,1.6299999952316284,1.5700000524520874,1.6299999952316284,1103500,0,0
2019-08-22,1.6299999952316284,1.6299999952316284,1.590000033378601,1.6200000047683716,480000,0,0
2019-08-23,1.600000023841858,1.7000000476837158,1.600000023841858,1.6799999475479126,4453000,0,0
2019-08-26,1.5800000429153442,1.6200000047683716,1.559999942779541,1.6100000143051147,2625000,0,0
2019-08-27,1.6100000143051147,1.6200000047683716,1.5800000429153442,1.6200000047683716,1939378,0,0
2019-08-28,1.6200000047683716,1.6399999856948853,1.590000033378601,1.6100000143051147,1568500,0,0
2019-08-29,1.6299999952316284,1.6299999952316284,1.5700000524520874,1.590000033378601,1426500,0,0
2019-08-30,1.5800000429153442,1.600000023841858,1.5700000524520874,1.5800000429153442,1514500,0,0
2019-09-02,1.5700000524520874,1.600000023841858,1.5700000524520874,1.5700000524520874,1014000,0,0
2019-09-03,1.559999942779541,1.590000033378601,1.5499999523162842,1.5700000524520874,1195000,0,0
2019-09-04,1.559999942779541,1.6200000047683716,1.559999942779541,1.590000033378601,1686000,0,0
2019-09-05,1.6299999952316284,1.6399999856948853,1.590000033378601,1.6200000047683716,2603500,0,0
2019-09-06,1.6299999952316284,1.690000057220459,1.6200000047683716,1.6699999570846558,5713000,0,0
2019-09-09,1.6799999475479126,1.7300000190734863,1.6699999570846558,1.7100000381469727,3935500,0,0
2019-09-10,1.7100000381469727,1.7699999809265137,1.7000000476837158,1.7200000286102295,3148000,0,0
2019-09-11,1.7100000381469727,1.7400000095367432,1.7100000381469727,1.7300000190734863,1903500,0,0
2019-09-12,1.7300000190734863,1.7300000190734863,1.690000057220459,1.7100000381469727,1340500,0,0
2019-09-13,1.7100000381469727,1.7100000381469727,1.7100000381469727,1.7100000381469727,0,0,0
2019-09-16,1.9800000190734863,2.390000104904175,1.9600000381469727,2.119999885559082,150688539,0,0
2019-09-17,2.130000114440918,2.130000114440918,1.9600000381469727,1.9800000190734863,24591500,0,0
2019-09-18,1.9700000286102295,2.119999885559082,1.9700000286102295,2.0299999713897705,24643162,0,0
2019-09-19,2.0299999713897705,2.0399999618530273,1.9700000286102295,1.9800000190734863,8998500,0,0
2019-09-20,1.9800000190734863,2.0399999618530273,1.9600000381469727,2.0299999713897705,12591000,0,0
2019-09-23,2.0299999713897705,2.049999952316284,1.9800000190734863,1.9800000190734863,3767000,0,0
2019-09-24,2.0,2.0,1.9500000476837158,1.9500000476837158,3993000,0,0
2019-09-25,1.9500000476837158,1.9500000476837158,1.8700000047683716,1.8700000047683716,10406500,0,0
2019-09-26,1.8899999856948853,1.9299999475479126,1.8899999856948853,1.909999966621399,4047500,0,0
2019-09-27,1.899999976158142,1.909999966621399,1.8799999952316284,1.8799999952316284,2257000,0,0
2019-09-30,1.8700000047683716,1.8799999952316284,1.8300000429153442,1.8300000429153442,3499500,0,0
2019-10-02,1.8300000429153442,1.8899999856948853,1.7999999523162842,1.8799999952316284,2267000,0,0
2019-10-03,1.840000033378601,1.8799999952316284,1.840000033378601,1.8600000143051147,1702500,0,0
2019-10-04,1.850000023841858,1.8700000047683716,1.8200000524520874,1.850000023841858,2035000,0,0
2019-10-08,1.850000023841858,1.9500000476837158,1.840000033378601,1.909999966621399,5865000,0,0
2019-10-09,1.909999966621399,1.909999966621399,1.8700000047683716,1.8700000047683716,2158873,0,0
2019-10-10,1.8700000047683716,1.8899999856948853,1.850000023841858,1.8600000143051147,1150000,0,0
2019-10-11,1.850000023841858,1.899999976158142,1.840000033378601,1.8700000047683716,2437500,0,0
2019-10-14,1.8700000047683716,1.909999966621399,1.850000023841858,1.899999976158142,2663500,0,0
2019-10-15,1.8799999952316284,1.8899999856948853,1.850000023841858,1.8700000047683716,1519000,0,0
2019-10-16,1.8600000143051147,1.8899999856948853,1.850000023841858,1.850000023841858,1913000,0,0
2019-10-17,1.850000023841858,1.9299999475479126,1.850000023841858,1.899999976158142,8265000,0,0
2019-10-18,1.899999976158142,1.9199999570846558,1.8700000047683716,1.8899999856948853,1579394,0,0
2019-10-21,1.8899999856948853,1.9900000095367432,1.8700000047683716,1.9700000286102295,13835500,0,0
2019-10-22,1.9500000476837158,2.049999952316284,1.9500000476837158,1.9900000095367432,11884160,0,0
2019-10-23,1.9800000190734863,1.9900000095367432,1.8899999856948853,1.899999976158142,5956000,0,0
2019-10-24,1.909999966621399,1.9299999475479126,1.8899999856948853,1.8899999856948853,2518500,0,0
2019-10-25,1.899999976158142,1.9199999570846558,1.8899999856948853,1.899999976158142,2173000,0,0
2019-10-28,1.899999976158142,1.9299999475479126,1.8899999856948853,1.909999966621399,2547000,0,0
2019-10-29,1.909999966621399,1.9199999570846558,1.899999976158142,1.899999976158142,1223500,0,0
2019-10-30,1.909999966621399,1.9199999570846558,1.8600000143051147,1.8899999856948853,2992000,0,0
2019-10-31,1.8700000047683716,1.8899999856948853,1.840000033378601,1.8700000047683716,3200500,0,0
2019-11-01,1.8700000047683716,1.8700000047683716,1.850000023841858,1.8600000143051147,1054000,0,0
2019-11-04,1.8700000047683716,2.0299999713897705,1.8600000143051147,2.0,31993000,0,0
2019-11-05,2.0,2.0299999713897705,1.9600000381469727,1.9700000286102295,6847000,0,0
2019-11-06,1.9900000095367432,1.9900000095367432,1.940000057220459,1.9500000476837158,3616500,0,0
2019-11-07,1.9500000476837158,2.0,1.9299999475479126,1.9700000286102295,4499500,0,0
2019-11-08,1.9700000286102295,1.9800000190734863,1.940000057220459,1.940000057220459,2238560,0,0
2019-11-11,1.9199999570846558,1.9199999570846558,1.840000033378601,1.850000023841858,5866000,0,0
2019-11-12,1.8700000047683716,1.899999976158142,1.850000023841858,1.8600000143051147,4278500,0,0
2019-11-13,1.840000033378601,1.8700000047683716,1.840000033378601,1.850000023841858,3082500,0,0
2019-11-14,1.8600000143051147,1.8700000047683716,1.8300000429153442,1.840000033378601,2564000,0,0
2019-11-15,1.850000023841858,1.8600000143051147,1.840000033378601,1.850000023841858,2176000,0,0
2019-11-18,1.850000023841858,1.8600000143051147,1.8300000429153442,1.840000033378601,2520000,0,0
2019-11-19,1.850000023841858,1.8899999856948853,1.8300000429153442,1.8899999856948853,5256000,0,0
2019-11-20,1.8799999952316284,1.8799999952316284,1.8200000524520874,1.8300000429153442,3179000,0,0
2019-11-21,1.8300000429153442,1.8300000429153442,1.7999999523162842,1.8200000524520874,2053000,0,0
2019-11-22,1.8200000524520874,1.8300000429153442,1.7999999523162842,1.8300000429153442,1303000,0,0
2019-11-25,1.8300000429153442,1.850000023841858,1.8200000524520874,1.8300000429153442,2333000,0,0
2019-11-26,1.840000033378601,1.899999976158142,1.840000033378601,1.899999976158142,7711372,0,0
2019-11-27,1.899999976158142,1.899999976158142,1.8200000524520874,1.8200000524520874,3686618,0,0
2019-11-28,1.8200000524520874,1.8200000524520874,1.809999942779541,1.8200000524520874,2366000,0,0
2019-11-29,1.7999999523162842,1.809999942779541,1.7799999713897705,1.7999999523162842,2060500,0,0
2019-12-02,1.7899999618530273,1.809999942779541,1.7300000190734863,1.75,3436000,0,0
2019-12-03,1.75,1.75,1.7000000476837158,1.7200000286102295,3127000,0,0
2019-12-04,1.7100000381469727,1.7400000095367432,1.7000000476837158,1.7200000286102295,2795500,0,0
2019-12-05,1.7400000095367432,1.75,1.7200000286102295,1.7300000190734863,1259000,0,0
2019-12-06,1.7200000286102295,1.7699999809265137,1.7200000286102295,1.7300000190734863,1274494,0,0
2019-12-09,1.7300000190734863,1.7599999904632568,1.7000000476837158,1.7300000190734863,1438000,0,0
2019-12-10,1.7100000381469727,1.7300000190734863,1.7000000476837158,1.7300000190734863,1762000,0,0
2019-12-11,1.7400000095367432,1.7599999904632568,1.7200000286102295,1.7200000286102295,1109000,0,0
2019-12-12,1.7200000286102295,1.7799999713897705,1.7200000286102295,1.7799999713897705,3484500,0,0
2019-12-13,1.7899999618530273,1.8200000524520874,1.7699999809265137,1.7799999713897705,3142000,0,0
2019-12-16,1.7799999713897705,1.7799999713897705,1.7200000286102295,1.7699999809265137,4360500,0,0
2019-12-17,1.7699999809265137,1.7899999618530273,1.75,1.7699999809265137,3462500,0,0
2019-12-18,1.7699999809265137,1.7899999618530273,1.7400000095367432,1.75,3742500,0,0
2019-12-19,1.75,1.7599999904632568,1.75,1.7599999904632568,1437000,0,0
2019-12-20,1.75,1.7699999809265137,1.7200000286102295,1.7300000190734863,4311990,0,0
2019-12-23,1.7300000190734863,1.7699999809265137,1.7300000190734863,1.75,1461533,0,0
2019-12-24,1.75,1.75,1.7200000286102295,1.7300000190734863,2355000,0,0
2019-12-27,1.7300000190734863,1.7699999809265137,1.7200000286102295,1.7400000095367432,2974582,0,0
2019-12-30,1.7200000286102295,1.7300000190734863,1.690000057220459,1.7100000381469727,4397500,0,0
2019-12-31,1.7200000286102295,1.75,1.7200000286102295,1.7300000190734863,1401000,0,0
2020-01-02,1.7300000190734863,1.7799999713897705,1.7300000190734863,1.7400000095367432,4803000,0,0
2020-01-03,1.75,1.7599999904632568,1.7200000286102295,1.75,2485500,0,0
2020-01-06,1.7200000286102295,1.7400000095367432,1.7100000381469727,1.7400000095367432,2749500,0,0
2020-01-07,1.7400000095367432,1.75,1.7200000286102295,1.7400000095367432,2525500,0,0
2020-01-08,1.7200000286102295,1.7400000095367432,1.7100000381469727,1.7100000381469727,2023500,0,0
2020-01-09,1.7200000286102295,1.7400000095367432,1.7000000476837158,1.7300000190734863,3789000,0,0
2020-01-10,1.7200000286102295,1.75,1.7200000286102295,1.75,1637500,0,0
2020-01-13,1.7400000095367432,1.840000033378601,1.7400000095367432,1.840000033378601,9624000,0,0
2020-01-14,1.8300000429153442,1.850000023841858,1.7899999618530273,1.7999999523162842,4499000,0,0
2020-01-15,1.7999999523162842,1.8200000524520874,1.7799999713897705,1.809999942779541,2559000,0,0
2020-01-16,1.7999999523162842,1.840000033378601,1.7999999523162842,1.8300000429153442,2599603,0,0
2020-01-17,1.8300000429153442,1.850000023841858,1.8200000524520874,1.850000023841858,3471000,0,0
2020-01-20,1.850000023841858,1.8700000047683716,1.809999942779541,1.8200000524520874,2730000,0,0
2020-01-21,1.7799999713897705,1.7899999618530273,1.75,1.7599999904632568,2359000,0,0
2020-01-22,1.75,1.8600000143051147,1.75,1.8200000524520874,6662699,0,0
2020-01-23,1.7999999523162842,1.809999942779541,1.75,1.7899999618530273,4030000,0,0
2020-01-24,1.7699999809265137,1.7899999618530273,1.7100000381469727,1.7599999904632568,2943000,0,0
2020-01-29,1.7100000381469727,1.7100000381469727,1.6699999570846558,1.6799999475479126,4321500,0,0
2020-01-30,1.6799999475479126,1.690000057220459,1.6100000143051147,1.6299999952316284,2869500,0,0
2020-01-31,1.649999976158142,1.6699999570846558,1.6200000047683716,1.6399999856948853,2200500,0,0
2020-02-03,1.6200000047683716,1.6299999952316284,1.600000023841858,1.6200000047683716,4753674,0,0
2020-02-04,1.6200000047683716,1.6799999475479126,1.6200000047683716,1.659999966621399,2148000,0,0
2020-02-05,1.6799999475479126,1.6799999475479126,1.6399999856948853,1.6699999570846558,1559000,0,0
2020-02-06,1.6799999475479126,1.7200000286102295,1.659999966621399,1.7000000476837158,2108500,0,0
2020-02-07,1.6699999570846558,1.7100000381469727,1.659999966621399,1.7000000476837158,1110500,0,0
2020-02-10,1.659999966621399,1.690000057220459,1.649999976158142,1.649999976158142,2323500,0,0
2020-02-11,1.649999976158142,1.6699999570846558,1.649999976158142,1.6699999570846558,1620500,0,0
2020-02-12,1.659999966621399,1.7200000286102295,1.649999976158142,1.6799999475479126,2168304,0,0
2020-02-13,1.690000057220459,1.7100000381469727,1.6799999475479126,1.6799999475479126,1184500,0,0
2020-02-14,1.6799999475479126,1.7100000381469727,1.6799999475479126,1.690000057220459,1123500,0,0
2020-02-17,1.690000057220459,1.7300000190734863,1.690000057220459,1.7100000381469727,2649000,0,0
2020-02-18,1.7200000286102295,1.75,1.690000057220459,1.7100000381469727,2177500,0,0
2020-02-19,1.7100000381469727,1.7300000190734863,1.7000000476837158,1.7000000476837158,1710000,0,0
2020-02-20,1.7100000381469727,1.850000023841858,1.7100000381469727,1.840000033378601,8671000,0,0
2020-02-21,1.7999999523162842,1.850000023841858,1.7899999618530273,1.7899999618530273,7137000,0,0
2020-02-24,1.7799999713897705,1.7799999713897705,1.7200000286102295,1.7400000095367432,3402500,0,0
2020-02-25,1.7300000190734863,1.75,1.7100000381469727,1.7200000286102295,2871500,0,0
2020-02-26,1.7100000381469727,1.7400000095367432,1.7000000476837158,1.7200000286102295,3186500,0,0
2020-02-27,1.7300000190734863,1.7799999713897705,1.7200000286102295,1.75,4073500,0,0
2020-02-28,1.7200000286102295,1.7400000095367432,1.6699999570846558,1.6799999475479126,4711000,0,0
2020-03-02,1.7000000476837158,1.7200000286102295,1.6699999570846558,1.7200000286102295,2783000,0,0
2020-03-03,1.7300000190734863,1.75,1.7000000476837158,1.7200000286102295,1332171,0,0
2020-03-04,1.7100000381469727,1.7200000286102295,1.690000057220459,1.7000000476837158,2325500,0,0
2020-03-05,1.7000000476837158,1.7300000190734863,1.690000057220459,1.7200000286102295,1775000,0,0
2020-03-06,1.7200000286102295,1.7200000286102295,1.6799999475479126,1.690000057220459,1516500,0,0
2020-03-09,1.649999976158142,1.659999966621399,1.5499999523162842,1.5499999523162842,5592500,0,0
2020-03-10,1.5499999523162842,1.590000033378601,1.5199999809265137,1.5800000429153442,4331000,0,0
2020-03-11,1.5800000429153442,1.590000033378601,1.5499999523162842,1.5700000524520874,1785000,0,0
2020-03-12,1.5499999523162842,1.5499999523162842,1.4600000381469727,1.4700000286102295,3172500,0,0
2020-03-13,1.340000033378601,1.4199999570846558,1.309999942779541,1.3899999856948853,6696228,0,0
2020-03-16,1.3899999856948853,1.3899999856948853,1.2799999713897705,1.2999999523162842,3237000,0,0
2020-03-17,1.25,1.3200000524520874,1.2400000095367432,1.309999942779541,3456000,0,0
2020-03-18,1.2899999618530273,1.4299999475479126,1.2200000286102295,1.25,3484500,0,0
2020-03-19,1.2400000095367432,1.2699999809265137,1.1200000047683716,1.2599999904632568,8733500,0,0
2020-03-20,1.2999999523162842,1.2999999523162842,1.2100000381469727,1.2599999904632568,2283000,0,0
2020-03-23,1.2300000190734863,1.2300000190734863,1.1699999570846558,1.2000000476837158,3345000,0,0
2020-03-24,1.190000057220459,1.25,1.190000057220459,1.2400000095367432,2678000,0,0
2020-03-25,1.2699999809265137,1.3300000429153442,1.2699999809265137,1.3300000429153442,4127000,0,0
2020-03-26,1.3200000524520874,1.340000033378601,1.2999999523162842,1.3200000524520874,1916000,0,0
2020-03-27,1.350000023841858,1.5299999713897705,1.3300000429153442,1.440000057220459,13424000,0,0
2020-03-30,1.3700000047683716,1.399999976158142,1.350000023841858,1.350000023841858,3529500,0,0
2020-03-31,1.350000023841858,1.399999976158142,1.2699999809265137,1.2699999809265137,10391000,0,0
2020-04-01,1.2799999713897705,1.2999999523162842,1.2400000095367432,1.2400000095367432,2379500,0,0
2020-04-02,1.2300000190734863,1.2400000095367432,1.2000000476837158,1.2200000286102295,2553500,0,0
2020-04-03,1.2400000095367432,1.2400000095367432,1.159999966621399,1.190000057220459,3344500,0,0
2020-04-06,1.2000000476837158,1.2200000286102295,1.159999966621399,1.2000000476837158,2826500,0,0
2020-04-07,1.2200000286102295,1.25,1.2000000476837158,1.25,5809000,0,0
2020-04-08,1.2400000095367432,1.25,1.190000057220459,1.2100000381469727,5689864,0,0
2020-04-09,1.2200000286102295,1.2899999618530273,1.2200000286102295,1.2799999713897705,7807596,0,0
2020-04-14,1.2699999809265137,1.2899999618530273,1.25,1.2699999809265137,4495000,0,0
2020-04-15,1.2699999809265137,1.309999942779541,1.2599999904632568,1.2799999713897705,1591500,0,0
2020-04-16,1.2699999809265137,1.3200000524520874,1.2599999904632568,1.309999942779541,3292130,0,0
2020-04-17,1.309999942779541,1.3300000429153442,1.2699999809265137,1.2999999523162842,2004500,0,0
2020-04-20,1.2799999713897705,1.309999942779541,1.2699999809265137,1.309999942779541,2480500,0,0
2020-04-21,1.309999942779541,1.309999942779541,1.2699999809265137,1.2899999618530273,4271000,0,0
2020-04-22,1.2599999904632568,1.3200000524520874,1.2599999904632568,1.3200000524520874,3215000,0,0
2020-04-23,1.3200000524520874,1.3600000143051147,1.2899999618530273,1.3300000429153442,2389000,0,0
2020-04-24,1.3200000524520874,1.3300000429153442,1.2899999618530273,1.2899999618530273,2335500,0,0
2020-04-27,1.2899999618530273,1.309999942779541,1.25,1.2599999904632568,3167000,0,0
2020-04-28,1.2599999904632568,1.2999999523162842,1.2599999904632568,1.2799999713897705,1407000,0,0
2020-04-29,1.2699999809265137,1.3200000524520874,1.2699999809265137,1.3200000524520874,1791500,0,0
2020-05-04,1.2999999523162842,1.2999999523162842,1.2100000381469727,1.2100000381469727,4844413,0,0
2020-05-05,1.2100000381469727,1.2400000095367432,1.2000000476837158,1.2100000381469727,3663500,0,0
2020-05-06,1.2200000286102295,1.2799999713897705,1.2200000286102295,1.2599999904632568,5126506,0,0
2020-05-07,1.2599999904632568,1.2799999713897705,1.25,1.2699999809265137,2813500,0,0
2020-05-08,1.2699999809265137,1.2899999618530273,1.2599999904632568,1.2699999809265137,1759000,0,0
2020-05-11,1.2799999713897705,1.3200000524520874,1.2799999713897705,1.2899999618530273,5951000,0,0
2020-05-12,1.2899999618530273,1.340000033378601,1.2899999618530273,1.3200000524520874,5713500,0,0
2020-05-13,1.3200000524520874,1.3200000524520874,1.2899999618530273,1.2999999523162842,4302264,0,0
2020-05-14,1.2999999523162842,1.309999942779541,1.2799999713897705,1.309999942779541,3865500,0,0
2020-05-15,1.2999999523162842,1.3200000524520874,1.2899999618530273,1.309999942779541,2703000,0,0
2020-05-18,1.2999999523162842,1.4199999570846558,1.2899999618530273,1.399999976158142,10306500,0,0
2020-05-19,1.4600000381469727,1.4600000381469727,1.409999966621399,1.4299999475479126,4647500,0,0
2020-05-20,1.4299999475479126,1.440000057220459,1.3799999952316284,1.409999966621399,3699000,0,0
2020-05-21,1.4199999570846558,1.6200000047683716,1.4199999570846558,1.5299999713897705,28958500,0,0
2020-05-22,1.5099999904632568,1.5099999904632568,1.3300000429153442,1.3600000143051147,13325500,0,0
2020-05-25,1.340000033378601,1.4700000286102295,1.340000033378601,1.4600000381469727,9159624,0,0
2020-05-26,1.4800000190734863,1.559999942779541,1.4800000190734863,1.5499999523162842,11760000,0,0
2020-05-27,1.5800000429153442,1.5800000429153442,1.4800000190734863,1.5099999904632568,4645000,0,0
2020-05-28,1.4900000095367432,1.5199999809265137,1.4500000476837158,1.5,5317876,0,0
2020-05-29,1.5,1.7000000476837158,1.4600000381469727,1.649999976158142,24755000,0,0
2020-06-01,1.6399999856948853,1.7200000286102295,1.600000023841858,1.649999976158142,10268610,0,0
2020-06-02,1.649999976158142,1.7000000476837158,1.649999976158142,1.6799999475479126,6157500,0,0
2020-06-03,1.690000057220459,1.7200000286102295,1.6299999952316284,1.6399999856948853,4818792,0,0
2020-06-04,1.659999966621399,1.6799999475479126,1.6200000047683716,1.6299999952316284,5074000,0,0
2020-06-05,1.600000023841858,1.659999966621399,1.600000023841858,1.6399999856948853,4632500,0,0
2020-06-08,1.6399999856948853,1.6699999570846558,1.6200000047683716,1.6699999570846558,5810500,0,0
2020-06-09,1.6699999570846558,1.8600000143051147,1.6699999570846558,1.7699999809265137,33999810,0,0
2020-06-10,1.7799999713897705,1.9299999475479126,1.7300000190734863,1.899999976158142,42977500,0,0
2020-06-11,1.899999976158142,1.9199999570846558,1.8300000429153442,1.850000023841858,45935500,0,0
2020-06-12,1.7999999523162842,1.940000057220459,1.7599999904632568,1.899999976158142,67396930,0,0
2020-06-15,1.899999976158142,1.899999976158142,1.899999976158142,1.899999976158142,0,0,0
2020-06-16,1.9900000095367432,2.109999895095825,1.9199999570846558,1.9700000286102295,179504200,0,0
2020-06-17,1.9800000190734863,2.0399999618530273,1.940000057220459,1.9900000095367432,38324990,0,0
2020-06-18,1.9900000095367432,2.0,1.909999966621399,1.9199999570846558,30224500,0,0
2020-06-19,1.9299999475479126,1.9500000476837158,1.909999966621399,1.9299999475479126,12875000,0,0
2020-06-22,1.940000057220459,1.940000057220459,1.899999976158142,1.899999976158142,19852000,0,0
2020-06-23,1.909999966621399,2.2200000286102295,1.899999976158142,2.1700000762939453,66446170,0,0
2020-06-24,2.1700000762939453,2.180000066757202,2.0899999141693115,2.0999999046325684,23565500,0,0
2020-06-26,2.0999999046325684,2.180000066757202,2.0799999237060547,2.0899999141693115,7496000,0,0
2020-06-29,2.069999933242798,2.0799999237060547,1.8799999952316284,1.899999976158142,93973000,0,0
2020-06-30,1.909999966621399,1.9500000476837158,1.8899999856948853,1.899999976158142,33020500,0,0
2020-07-02,1.899999976158142,1.9500000476837158,1.899999976158142,1.940000057220459,14831500,0,0
2020-07-03,1.9500000476837158,1.9500000476837158,1.909999966621399,1.940000057220459,6694000,0,0
2020-07-06,1.940000057220459,2.0199999809265137,1.899999976158142,1.909999966621399,45471500,0,0
2020-07-07,1.9199999570846558,1.940000057220459,1.909999966621399,1.9199999570846558,12074500,0,0
2020-07-08,1.9299999475479126,1.940000057220459,1.899999976158142,1.9299999475479126,13136000,0,0
2020-07-09,1.9299999475479126,2.0799999237060547,1.9199999570846558,2.0399999618530273,46986500,0,0
2020-07-10,2.0299999713897705,2.0299999713897705,1.940000057220459,1.9700000286102295,16601000,0,0
2020-07-13,1.9900000095367432,2.069999933242798,1.9700000286102295,2.0,18413000,0,0
2020-07-14,1.9800000190734863,2.0299999713897705,1.9600000381469727,1.9900000095367432,11341000,0,0
2020-07-15,1.9900000095367432,2.0199999809265137,1.940000057220459,2.0,12589000,0,0
2020-07-16,2.0,2.0399999618530273,1.9299999475479126,1.940000057220459,19347000,0,0
2020-07-17,1.940000057220459,1.9800000190734863,1.940000057220459,1.9800000190734863,9369500,0,0
2020-07-20,2.0,2.009999990463257,1.9500000476837158,1.9700000286102295,4365500,0,0
2020-07-21,2.0799999237060547,2.109999895095825,2.009999990463257,2.049999952316284,34813000,0,0
2020-07-22,2.049999952316284,2.069999933242798,1.940000057220459,1.9700000286102295,15149000,0,0
2020-07-23,1.9900000095367432,2.0199999809265137,1.9500000476837158,2.0,6878500,0,0
2020-07-24,1.9800000190734863,2.0,1.9500000476837158,1.9800000190734863,12424700,0,0
2020-07-27,1.9900000095367432,1.9900000095367432,1.9299999475479126,1.9700000286102295,10819500,0,0
2020-07-28,1.9800000190734863,2.009999990463257,1.9600000381469727,1.9900000095367432,3972500,0,0
2020-07-29,1.9700000286102295,1.9900000095367432,1.9600000381469727,1.9600000381469727,3709500,0,0
2020-07-30,1.9600000381469727,1.9800000190734863,1.9600000381469727,1.9700000286102295,4136000,0,0
2020-07-31,1.9600000381469727,1.9800000190734863,1.9500000476837158,1.9700000286102295,7455500,0,0
2020-08-03,1.9700000286102295,1.9800000190734863,1.9500000476837158,1.9800000190734863,3774000,0,0
2020-08-04,1.9800000190734863,2.0399999618530273,1.9600000381469727,2.0199999809265137,14691500,0,0
2020-08-05,2.0199999809265137,2.0299999713897705,1.9700000286102295,2.0,5028478,0,0
2020-08-06,2.0,2.0199999809265137,1.9600000381469727,2.0199999809265137,5021500,0,0
2020-08-07,2.0,2.009999990463257,1.9600000381469727,1.9800000190734863,10006000,0,0
2020-08-10,1.9800000190734863,1.9800000190734863,1.9500000476837158,1.9700000286102295,7818000,0,0
2020-08-11,1.9700000286102295,1.9800000190734863,1.9500000476837158,1.9700000286102295,6123000,0,0
2020-08-12,1.9600000381469727,1.9700000286102295,1.9299999475479126,1.9700000286102295,15932000,0,0
2020-08-13,1.9700000286102295,1.9900000095367432,1.9600000381469727,1.9900000095367432,3199000,0,0
2020-08-14,1.9900000095367432,1.9900000095367432,1.9500000476837158,1.9600000381469727,2255500,0,0
2020-08-17,1.9600000381469727,1.9600000381469727,1.940000057220459,1.940000057220459,4777500,0,0
2020-08-18,1.9500000476837158,1.9500000476837158,1.940000057220459,1.940000057220459,1869000,0,0
2020-08-19,1.9299999475479126,1.9600000381469727,1.9299999475479126,1.9500000476837158,1218500,0,0
2020-08-20,1.9500000476837158,1.9600000381469727,1.940000057220459,1.9600000381469727,3391500,0,0
2020-08-21,1.9500000476837158,1.9600000381469727,1.9299999475479126,1.9600000381469727,5303000,0,0
2020-08-24,1.9500000476837158,1.9700000286102295,1.9299999475479126,1.9500000476837158,3772500,0,0
2020-08-25,1.940000057220459,1.9700000286102295,1.9299999475479126,1.9600000381469727,5252500,0,0
2020-08-26,1.9500000476837158,1.9700000286102295,1.940000057220459,1.9500000476837158,4615000,0,0
2020-08-27,1.940000057220459,2.0,1.940000057220459,1.9500000476837158,10709500,0,0
2020-08-28,1.9500000476837158,2.0399999618530273,1.9500000476837158,2.0,32147500,0,0
2020-08-31,2.0,2.0299999713897705,1.9700000286102295,1.9900000095367432,7560500,0,0
2020-09-01,2.0,2.0,1.9500000476837158,1.9800000190734863,4854708,0,0
2020-09-02,1.9800000190734863,2.0,1.9500000476837158,2.0,7734000,0,0
2020-09-03,1.9900000095367432,2.0399999618530273,1.9800000190734863,1.9900000095367432,9388600,0,0
2020-09-04,1.9600000381469727,1.9800000190734863,1.9500000476837158,1.9500000476837158,9373000,0,0
2020-09-07,1.9500000476837158,1.9700000286102295,1.9500000476837158,1.9600000381469727,7812518,0,0
2020-09-08,1.9800000190734863,1.9800000190734863,1.9500000476837158,1.9600000381469727,3150500,0,0
2020-09-09,1.9600000381469727,1.9700000286102295,1.9500000476837158,1.9700000286102295,3017500,0,0
2020-09-10,1.9600000381469727,1.9700000286102295,1.9500000476837158,1.9600000381469727,2664000,0,0
2020-09-11,1.9600000381469727,1.9700000286102295,1.9500000476837158,1.9600000381469727,1530000,0,0
2020-09-14,1.9500000476837158,1.9700000286102295,1.9500000476837158,1.9600000381469727,3266164,0,0
2020-09-15,1.9700000286102295,1.9700000286102295,1.9500000476837158,1.9600000381469727,3237310,0,0
2020-09-16,1.9600000381469727,1.9700000286102295,1.9500000476837158,1.9600000381469727,1340000,0,0
2020-09-17,1.9600000381469727,1.9700000286102295,1.9500000476837158,1.9600000381469727,1609500,0,0
2020-09-18,1.9500000476837158,1.9600000381469727,1.9500000476837158,1.9600000381469727,4016000,0,0
2020-09-21,1.9600000381469727,1.9600000381469727,1.9199999570846558,1.9299999475479126,12780850,0,0
2020-09-22,1.9500000476837158,1.9500000476837158,1.909999966621399,1.9199999570846558,11287000,0,0
2020-09-23,1.9199999570846558,1.9299999475479126,1.909999966621399,1.909999966621399,1715500,0,0
2020-09-24,1.909999966621399,1.9199999570846558,1.899999976158142,1.9199999570846558,12292500,0,0
2020-09-25,1.899999976158142,1.909999966621399,1.899999976158142,1.909999966621399,3947000,0,0
2020-09-28,1.909999966621399,1.9199999570846558,1.899999976158142,1.9199999570846558,2197000,0,0
2020-09-29,1.9199999570846558,1.9199999570846558,1.909999966621399,1.9199999570846558,787000,0,0
2020-09-30,1.9199999570846558,1.9500000476837158,1.909999966621399,1.9299999475479126,3464454,0,0
2020-10-05,1.9299999475479126,1.9500000476837158,1.9199999570846558,1.940000057220459,2515615,0,0
2020-10-06,1.9299999475479126,1.9500000476837158,1.9299999475479126,1.940000057220459,1216500,0,0
2020-10-07,1.9299999475479126,1.9500000476837158,1.9299999475479126,1.9500000476837158,1196500,0,0
2020-10-08,1.940000057220459,1.9500000476837158,1.9199999570846558,1.940000057220459,876500,0,0
2020-10-09,1.9299999475479126,1.940000057220459,1.9199999570846558,1.940000057220459,1631500,0,0
2020-10-12,1.9299999475479126,1.940000057220459,1.899999976158142,1.9199999570846558,2492000,0,0
2020-10-14,1.9199999570846558,1.9199999570846558,1.899999976158142,1.9199999570846558,2873940,0,0
2020-10-15,1.9199999570846558,1.9299999475479126,1.899999976158142,1.899999976158142,1547500,0,0
2020-10-16,1.909999966621399,1.9199999570846558,1.899999976158142,1.899999976158142,1964330,0,0
2020-10-19,1.909999966621399,1.9199999570846558,1.899999976158142,1.899999976158142,2702300,0,0
2020-10-20,1.899999976158142,1.909999966621399,1.899999976158142,1.899999976158142,3816828,0,0
2020-10-21,1.909999966621399,1.9299999475479126,1.909999966621399,1.909999966621399,3348000,0,0
2020-10-22,1.909999966621399,1.909999966621399,1.899999976158142,1.909999966621399,2800000,0,0
2020-10-23,1.909999966621399,1.9199999570846558,1.909999966621399,1.909999966621399,2766500,0,0
2020-10-27,1.9199999570846558,1.9500000476837158,1.909999966621399,1.9299999475479126,7068660,0,0
2020-10-28,1.9299999475479126,1.9600000381469727,1.9199999570846558,1.9299999475479126,5563000,0,0
2020-10-29,1.9199999570846558,1.940000057220459,1.9199999570846558,1.9299999475479126,1723000,0,0
2020-10-30,1.9199999570846558,1.9299999475479126,1.9199999570846558,1.9299999475479126,2317500,0,0
2020-11-02,1.9299999475479126,1.9299999475479126,1.9199999570846558,1.9199999570846558,2125500,0,0
2020-11-03,1.9199999570846558,1.940000057220459,1.9199999570846558,1.9299999475479126,6889500,0,0
2020-11-04,1.9299999475479126,1.940000057220459,1.9199999570846558,1.9199999570846558,4585286,0,0
2020-11-05,1.9299999475479126,1.9500000476837158,1.9299999475479126,1.9299999475479126,3335500,0,0
2020-11-06,1.9500000476837158,1.9600000381469727,1.9299999475479126,1.9299999475479126,6231132,0,0
2020-11-09,1.9600000381469727,1.9700000286102295,1.9299999475479126,1.940000057220459,8968000,0,0
2020-11-10,1.940000057220459,1.9700000286102295,1.940000057220459,1.9500000476837158,4305000,0,0
2020-11-11,1.9500000476837158,1.9600000381469727,1.9199999570846558,1.9199999570846558,4115500,0,0
2020-11-12,1.9199999570846558,1.9299999475479126,1.909999966621399,1.909999966621399,8224500,0,0
2020-11-13,1.909999966621399,1.9199999570846558,1.909999966621399,1.909999966621399,17492500,0,0
2020-11-16,1.909999966621399,1.9199999570846558,1.899999976158142,1.899999976158142,13288610,0,0
2020-11-17,1.909999966621399,1.909999966621399,1.899999976158142,1.909999966621399,4849000,0,0
2020-11-18,1.909999966621399,1.909999966621399,1.899999976158142,1.899999976158142,3219000,0,0
2020-11-19,1.899999976158142,1.909999966621399,1.899999976158142,1.909999966621399,3650000,0,0
2020-11-20,1.899999976158142,1.909999966621399,1.899999976158142,1.899999976158142,6930000,0,0
2020-11-23,1.899999976158142,1.909999966621399,1.899999976158142,1.899999976158142,3212496,0,0
2020-11-24,1.899999976158142,1.909999966621399,1.899999976158142,1.909999966621399,3353496,0,0
2020-11-25,1.909999966621399,1.909999966621399,1.899999976158142,1.899999976158142,3820328,0,0
2020-11-26,1.899999976158142,1.9199999570846558,1.899999976158142,1.909999966621399,33390500,0,0
2020-11-27,1.909999966621399,1.9199999570846558,1.899999976158142,1.9199999570846558,10459500,0,0
2020-11-30,1.909999966621399,1.9199999570846558,1.899999976158142,1.899999976158142,10089500,0,0
2020-12-01,1.899999976158142,1.899999976158142,1.840000033378601,1.8600000143051147,3557757,0,0
2020-12-02,1.8600000143051147,1.8899999856948853,1.75,1.7999999523162842,5228500,0,0
2020-12-03,1.7999999523162842,1.909999966621399,1.7699999809265137,1.909999966621399,5137500,0,0
2020-12-04,1.9199999570846558,2.5299999713897705,1.9199999570846558,2.359999895095825,108694900,0,0
2020-12-07,2.4000000953674316,2.4000000953674316,2.25,2.2799999713897705,14202000,0,0
