Date,Open,High,Low,Close,Volume,Dividends,Stock Splits
2020-01-02,1.3799999952316284,1.440000057220459,1.3700000047683716,1.4299999475479126,22848000,0,0
2020-01-03,1.4500000476837158,1.4500000476837158,1.399999976158142,1.409999966621399,15906000,0,0
2020-01-06,1.409999966621399,1.409999966621399,1.3600000143051147,1.3700000047683716,16628000,0,0
2020-01-07,1.3799999952316284,1.3799999952316284,1.3600000143051147,1.3700000047683716,6952000,0,0
2020-01-08,1.3600000143051147,1.3600000143051147,1.3200000524520874,1.3300000429153442,8066000,0,0
2020-01-09,1.350000023841858,1.3700000047683716,1.340000033378601,1.3600000143051147,4038000,0,0
2020-01-10,1.3600000143051147,1.3700000047683716,1.3600000143051147,1.3700000047683716,4580000,0,0
2020-01-13,1.3700000047683716,1.3899999856948853,1.3600000143051147,1.3899999856948853,6350000,0,0
2020-01-14,1.3799999952316284,1.4199999570846558,1.3799999952316284,1.409999966621399,10118000,0,0
2020-01-15,1.409999966621399,1.4199999570846558,1.3899999856948853,1.4199999570846558,8949360,0,0
2020-01-16,1.4299999475479126,1.4299999475479126,1.3799999952316284,1.3799999952316284,12476000,0,0
2020-01-17,1.3899999856948853,1.4600000381469727,1.3899999856948853,1.4600000381469727,12760380,0,0
2020-01-20,1.440000057220459,1.4500000476837158,1.3899999856948853,1.4199999570846558,19818000,0,0
2020-01-21,1.3899999856948853,1.3899999856948853,1.3300000429153442,1.340000033378601,16048000,0,0
2020-01-22,1.3300000429153442,1.3700000047683716,1.2999999523162842,1.350000023841858,8049228,0,0
2020-01-23,1.3200000524520874,1.3300000429153442,1.2699999809265137,1.2799999713897705,10653140,0,0
2020-01-24,1.2799999713897705,1.309999942779541,1.2799999713897705,1.2999999523162842,3246000,0,0
2020-01-29,1.2400000095367432,1.2400000095367432,1.1799999475479126,1.190000057220459,25492000,0,0
2020-01-30,1.190000057220459,1.2200000286102295,1.190000057220459,1.2200000286102295,14786000,0,0
2020-01-31,1.2200000286102295,1.25,1.2100000381469727,1.25,12644000,0,0
2020-02-03,1.2300000190734863,1.2400000095367432,1.2000000476837158,1.2200000286102295,19395160,0,0
2020-02-04,1.2200000286102295,1.2400000095367432,1.2200000286102295,1.2400000095367432,6656000,0,0
2020-02-05,1.2400000095367432,1.25,1.2100000381469727,1.2400000095367432,5948000,0,0
2020-02-06,1.2699999809265137,1.2699999809265137,1.2200000286102295,1.2599999904632568,7838000,0,0
2020-02-07,1.2599999904632568,1.2599999904632568,1.2300000190734863,1.25,5974500,0,0
2020-02-10,1.2400000095367432,1.25,1.2200000286102295,1.25,6994000,0,0
2020-02-11,1.25,1.2599999904632568,1.2400000095367432,1.2599999904632568,2526000,0,0
2020-02-12,1.25,1.2599999904632568,1.2400000095367432,1.25,3779100,0,0
2020-02-13,1.25,1.2599999904632568,1.2400000095367432,1.2400000095367432,2597842,0,0
2020-02-14,1.25,1.3200000524520874,1.2400000095367432,1.2899999618530273,15266000,0,0
2020-02-17,1.2799999713897705,1.3300000429153442,1.2799999713897705,1.3200000524520874,5612236,0,0
2020-02-18,1.2999999523162842,1.309999942779541,1.2899999618530273,1.309999942779541,3819800,0,0
2020-02-19,1.2999999523162842,1.3200000524520874,1.2899999618530273,1.2999999523162842,4894710,0,0
2020-02-20,1.2999999523162842,1.309999942779541,1.2799999713897705,1.2999999523162842,5078000,0,0
2020-02-21,1.2899999618530273,1.2899999618530273,1.2699999809265137,1.2799999713897705,2490000,0,0
2020-02-24,1.2699999809265137,1.2699999809265137,1.2200000286102295,1.25,9472000,0,0
2020-02-25,1.2200000286102295,1.2699999809265137,1.2100000381469727,1.25,5658000,0,0
2020-02-26,1.2400000095367432,1.2699999809265137,1.2200000286102295,1.25,3662000,0,0
2020-02-27,1.25,1.2599999904632568,1.2300000190734863,1.2400000095367432,2992000,0,0
2020-02-28,1.2200000286102295,1.2400000095367432,1.2100000381469727,1.2300000190734863,7341279,0,0
2020-03-02,1.2200000286102295,1.2400000095367432,1.2100000381469727,1.2100000381469727,6886105,0,0
2020-03-03,1.2300000190734863,1.2300000190734863,1.2100000381469727,1.2200000286102295,2922921,0,0
2020-03-04,1.2200000286102295,1.2200000286102295,1.2000000476837158,1.2200000286102295,2506000,0,0
2020-03-05,1.2200000286102295,1.2400000095367432,1.2200000286102295,1.2300000190734863,5597461,0,0
2020-03-06,1.2200000286102295,1.2300000190734863,1.2000000476837158,1.2200000286102295,4342149,0,0
2020-03-09,1.2000000476837158,1.2000000476837158,1.159999966621399,1.1699999570846558,12270610,0,0
2020-03-10,1.1699999570846558,1.1799999475479126,1.1399999856948853,1.159999966621399,7838000,0,0
2020-03-11,1.1699999570846558,1.190000057220459,1.1699999570846558,1.1799999475479126,3432000,0,0
2020-03-12,1.1699999570846558,1.1699999570846558,1.1299999952316284,1.149999976158142,9468000,0,0
2020-03-13,1.100000023841858,1.1399999856948853,1.0800000429153442,1.1200000047683716,12840810,0,0
2020-03-16,1.1299999952316284,1.1299999952316284,1.0499999523162842,1.0499999523162842,10468420,0,0
2020-03-17,1.0499999523162842,1.059999942779541,0.9900000095367432,1.0299999713897705,11252140,0,0
2020-03-18,1.0399999618530273,1.0399999618530273,0.9800000190734863,1.0,7932094,0,0
2020-03-19,1.0,1.0,0.8999999761581421,0.9399999976158142,15587600,0,0
2020-03-20,0.9599999785423279,1.0199999809265137,0.9399999976158142,1.0199999809265137,9396000,0,0
2020-03-23,0.949999988079071,0.9599999785423279,0.8899999856948853,0.8999999761581421,20956330,0,0
2020-03-24,0.9200000166893005,0.9399999976158142,0.8999999761581421,0.9300000071525574,12731530,0,0
2020-03-25,0.9399999976158142,0.9700000286102295,0.9399999976158142,0.9700000286102295,6760000,0,0
2020-03-26,0.9700000286102295,0.9800000190734863,0.9399999976158142,0.9700000286102295,5604000,0,0
2020-03-27,0.9800000190734863,0.9800000190734863,0.9599999785423279,0.9599999785423279,4380000,0,0
2020-03-30,0.949999988079071,0.949999988079071,0.9200000166893005,0.9300000071525574,3642700,0,0
2020-03-31,0.9399999976158142,0.9700000286102295,0.9399999976158142,0.9700000286102295,8054610,0,0
2020-04-01,0.949999988079071,0.9599999785423279,0.9200000166893005,0.949999988079071,20526000,0,0
2020-04-02,0.9399999976158142,0.9399999976158142,0.9200000166893005,0.9200000166893005,4362000,0,0
2020-04-03,0.9399999976158142,0.9399999976158142,0.9200000166893005,0.9200000166893005,2136000,0,0
2020-04-06,0.9300000071525574,0.9300000071525574,0.8999999761581421,0.9200000166893005,7479126,0,0
2020-04-07,0.9300000071525574,0.9599999785423279,0.9300000071525574,0.9599999785423279,7195000,0,0
2020-04-08,0.9399999976158142,1.0299999713897705,0.9399999976158142,1.0299999713897705,15112000,0,0
2020-04-09,1.0399999618530273,1.0399999618530273,1.0,1.0199999809265137,12568000,0,0
2020-04-14,1.0199999809265137,1.0199999809265137,0.9900000095367432,1.0,7489595,0,0
2020-04-15,1.0099999904632568,1.0299999713897705,0.9900000095367432,0.9900000095367432,16050640,0,0
2020-04-16,1.0,1.0099999904632568,0.9900000095367432,0.9900000095367432,7483700,0,0
2020-04-17,1.0,1.0399999618530273,1.0,1.0199999809265137,10480300,0,0
2020-04-20,1.0299999713897705,1.0700000524520874,1.0199999809265137,1.0499999523162842,9114000,0,0
2020-04-21,1.0499999523162842,1.0499999523162842,1.0199999809265137,1.0199999809265137,7450000,0,0
2020-04-22,1.0299999713897705,1.090000033378601,1.0299999713897705,1.0700000524520874,11238000,0,0
2020-04-23,1.090000033378601,1.090000033378601,1.0499999523162842,1.0499999523162842,11066000,0,0
2020-04-24,1.0499999523162842,1.059999942779541,1.0499999523162842,1.0499999523162842,3196000,0,0
2020-04-27,1.059999942779541,1.1100000143051147,1.0499999523162842,1.090000033378601,12708400,0,0
2020-04-28,1.1100000143051147,1.1299999952316284,1.0800000429153442,1.090000033378601,9142530,0,0
2020-04-29,1.0800000429153442,1.100000023841858,1.0800000429153442,1.090000033378601,5104000,0,0
2020-05-04,1.0800000429153442,1.0800000429153442,1.0199999809265137,1.0199999809265137,8960132,0,0
2020-05-05,1.0299999713897705,1.0800000429153442,1.0299999713897705,1.0700000524520874,3758430,0,0
2020-05-06,1.0700000524520874,1.100000023841858,1.059999942779541,1.059999942779541,4604473,0,0
2020-05-07,1.0700000524520874,1.0800000429153442,1.0499999523162842,1.059999942779541,2402009,0,0
2020-05-08,1.059999942779541,1.100000023841858,1.059999942779541,1.0700000524520874,6090000,0,0
2020-05-11,1.090000033378601,1.100000023841858,1.0700000524520874,1.090000033378601,5934000,0,0
2020-05-12,1.0800000429153442,1.0800000429153442,1.0499999523162842,1.0499999523162842,4056000,0,0
2020-05-13,1.0499999523162842,1.059999942779541,1.0399999618530273,1.0399999618530273,4950000,0,0
2020-05-14,1.0399999618530273,1.0399999618530273,1.0199999809265137,1.0199999809265137,4536000,0,0
2020-05-15,1.0199999809265137,1.0499999523162842,1.0199999809265137,1.0499999523162842,3120410,0,0
2020-05-18,1.059999942779541,1.0700000524520874,1.0499999523162842,1.059999942779541,3780000,0,0
2020-05-19,1.0800000429153442,1.0800000429153442,1.0499999523162842,1.0499999523162842,7234000,0,0
2020-05-20,1.0499999523162842,1.0700000524520874,1.0499999523162842,1.0499999523162842,5080000,0,0
2020-05-21,1.0499999523162842,1.059999942779541,1.0399999618530273,1.0499999523162842,3996000,0,0
2020-05-22,1.0299999713897705,1.0299999713897705,0.9800000190734863,1.0,11558250,0,0
2020-05-25,1.0,1.0,0.949999988079071,0.9599999785423279,12978000,0,0
2020-05-26,0.9700000286102295,1.0099999904632568,0.9700000286102295,0.9900000095367432,4946473,0,0
2020-05-27,1.0,1.0099999904632568,0.9700000286102295,0.9800000190734863,6690000,0,0
2020-05-28,0.9700000286102295,0.9800000190734863,0.9599999785423279,0.9700000286102295,4002047,0,0
2020-05-29,0.9700000286102295,0.9800000190734863,0.949999988079071,0.9700000286102295,4640000,0,0
2020-06-01,0.9700000286102295,1.0,0.9700000286102295,0.9900000095367432,2406000,0,0
2020-06-02,0.9900000095367432,1.0099999904632568,0.9800000190734863,1.0,4892000,0,0
2020-06-03,1.0,1.0099999904632568,0.9900000095367432,1.0,18038000,0,0
2020-06-04,1.0099999904632568,1.0099999904632568,0.9900000095367432,1.0,3746000,0,0
2020-06-05,1.0,1.0399999618530273,0.9900000095367432,1.0399999618530273,18817170,0,0
2020-06-08,1.0499999523162842,1.0800000429153442,1.0399999618530273,1.0700000524520874,15732150,0,0
2020-06-09,1.0800000429153442,1.1299999952316284,1.0700000524520874,1.1200000047683716,15150140,0,0
2020-06-10,1.1299999952316284,1.149999976158142,1.100000023841858,1.1200000047683716,9358000,0,0
2020-06-11,1.1100000143051147,1.1200000047683716,1.0499999523162842,1.059999942779541,9780000,0,0
2020-06-12,1.0499999523162842,1.0800000429153442,1.0399999618530273,1.0800000429153442,7310000,0,0
2020-06-15,1.059999942779541,1.090000033378601,1.0299999713897705,1.0399999618530273,8796600,0,0
2020-06-16,1.059999942779541,1.2300000190734863,1.0499999523162842,1.2100000381469727,50250000,0,0
2020-06-17,1.2100000381469727,1.2400000095367432,1.1399999856948853,1.2100000381469727,33310350,0,0
2020-06-18,1.2100000381469727,1.2100000381469727,1.1699999570846558,1.1799999475479126,8238000,0,0
2020-06-19,1.190000057220459,1.2000000476837158,1.1200000047683716,1.1299999952316284,19616000,0,0
2020-06-22,1.1299999952316284,1.1299999952316284,1.0700000524520874,1.0800000429153442,17872000,0,0
2020-06-23,1.090000033378601,1.1399999856948853,1.059999942779541,1.100000023841858,11584290,0,0
2020-06-24,1.1200000047683716,1.1200000047683716,1.0700000524520874,1.0800000429153442,9896000,0,0
2020-06-26,1.0800000429153442,1.1100000143051147,1.0800000429153442,1.090000033378601,5603308,0,0
2020-06-29,1.0800000429153442,1.090000033378601,1.0499999523162842,1.0700000524520874,6852000,0,0
2020-06-30,1.0800000429153442,1.1200000047683716,1.0700000524520874,1.100000023841858,11140000,0,0
2020-07-02,1.1200000047683716,1.149999976158142,1.1100000143051147,1.1399999856948853,12452400,0,0
2020-07-03,1.149999976158142,1.1699999570846558,1.1200000047683716,1.149999976158142,14846000,0,0
2020-07-06,1.1200000047683716,1.2200000286102295,1.1100000143051147,1.2000000476837158,36267000,0,0
2020-07-07,1.2000000476837158,1.2000000476837158,1.1299999952316284,1.1299999952316284,17302710,0,0
2020-07-08,1.1299999952316284,1.2000000476837158,1.1299999952316284,1.190000057220459,15290000,0,0
2020-07-09,1.2000000476837158,1.2100000381469727,1.149999976158142,1.149999976158142,11387600,0,0
2020-07-10,1.149999976158142,1.149999976158142,1.1200000047683716,1.1399999856948853,13456000,0,0
2020-07-13,1.1399999856948853,1.1699999570846558,1.1200000047683716,1.159999966621399,10108000,0,0
2020-07-14,1.159999966621399,1.2000000476837158,1.1399999856948853,1.1799999475479126,14439280,0,0
2020-07-15,1.2000000476837158,1.2200000286102295,1.1799999475479126,1.2000000476837158,15872000,0,0
2020-07-16,1.2000000476837158,1.2200000286102295,1.149999976158142,1.1799999475479126,16175000,0,0
2020-07-17,1.190000057220459,1.3200000524520874,1.1799999475479126,1.2899999618530273,56963180,0,0
2020-07-20,1.2799999713897705,1.2799999713897705,1.2200000286102295,1.25,15746000,0,0
2020-07-21,1.2599999904632568,1.2799999713897705,1.2100000381469727,1.2400000095367432,12403360,0,0
2020-07-22,1.2300000190734863,1.2699999809265137,1.190000057220459,1.190000057220459,10112000,0,0
2020-07-23,1.2000000476837158,1.2100000381469727,1.1799999475479126,1.2000000476837158,7716800,0,0
2020-07-24,1.1799999475479126,1.190000057220459,1.149999976158142,1.149999976158142,11898000,0,0
2020-07-27,1.159999966621399,1.1699999570846558,1.1299999952316284,1.1299999952316284,5422000,0,0
2020-07-28,1.149999976158142,1.149999976158142,1.1399999856948853,1.1399999856948853,2816000,0,0
2020-07-29,1.1399999856948853,1.159999966621399,1.1299999952316284,1.1399999856948853,2810000,0,0
2020-07-30,1.1399999856948853,1.159999966621399,1.1299999952316284,1.149999976158142,5866000,0,0
2020-07-31,1.159999966621399,1.1799999475479126,1.149999976158142,1.149999976158142,4883334,0,0
2020-08-03,1.149999976158142,1.1699999570846558,1.1299999952316284,1.159999966621399,9412426,0,0
2020-08-04,1.159999966621399,1.190000057220459,1.159999966621399,1.190000057220459,6547553,0,0
2020-08-05,1.190000057220459,1.190000057220459,1.159999966621399,1.1799999475479126,3554000,0,0
2020-08-06,1.1799999475479126,1.1799999475479126,1.149999976158142,1.159999966621399,2664000,0,0
2020-08-07,1.1699999570846558,1.1699999570846558,1.1399999856948853,1.149999976158142,4547666,0,0
2020-08-10,1.149999976158142,1.1799999475479126,1.149999976158142,1.159999966621399,2514000,0,0
2020-08-11,1.1699999570846558,1.190000057220459,1.1699999570846558,1.1799999475479126,3386000,0,0
2020-08-12,1.2000000476837158,1.2799999713897705,1.2000000476837158,1.2400000095367432,22479540,0,0
2020-08-13,1.2599999904632568,1.2599999904632568,1.190000057220459,1.190000057220459,10801950,0,0
2020-08-14,1.190000057220459,1.2300000190734863,1.190000057220459,1.2000000476837158,8278000,0,0
2020-08-17,1.2100000381469727,1.2300000190734863,1.190000057220459,1.2000000476837158,7759104,0,0
2020-08-18,1.2000000476837158,1.2200000286102295,1.1799999475479126,1.190000057220459,6276400,0,0
2020-08-19,1.190000057220459,1.190000057220459,1.1699999570846558,1.190000057220459,5300000,0,0
2020-08-20,1.1799999475479126,1.1799999475479126,1.159999966621399,1.1799999475479126,4550000,0,0
2020-08-21,1.1799999475479126,1.2000000476837158,1.1699999570846558,1.190000057220459,3890000,0,0
2020-08-24,1.2000000476837158,1.25,1.190000057220459,1.2400000095367432,17976400,0,0
2020-08-25,1.25,1.2599999904632568,1.2200000286102295,1.2400000095367432,10384000,0,0
2020-08-26,1.2400000095367432,1.25,1.2300000190734863,1.2400000095367432,5970000,0,0
2020-08-27,1.2400000095367432,1.25,1.190000057220459,1.2100000381469727,12212340,0,0
2020-08-28,1.2100000381469727,1.2200000286102295,1.2000000476837158,1.2000000476837158,3780094,0,0
2020-08-31,1.2200000286102295,1.2200000286102295,1.1699999570846558,1.1699999570846558,9976000,0,0
2020-09-01,1.1699999570846558,1.1699999570846558,1.149999976158142,1.1699999570846558,9711506,0,0
2020-09-02,1.159999966621399,1.159999966621399,1.1399999856948853,1.1399999856948853,11518000,0,0
2020-09-03,1.159999966621399,1.1699999570846558,1.1399999856948853,1.1699999570846558,5287932,0,0
2020-09-04,1.149999976158142,1.159999966621399,1.1399999856948853,1.149999976158142,4142000,0,0
2020-09-07,1.159999966621399,1.1799999475479126,1.149999976158142,1.1699999570846558,4838000,0,0
2020-09-08,1.1699999570846558,1.1799999475479126,1.159999966621399,1.1799999475479126,3286000,0,0
2020-09-09,1.1699999570846558,1.2000000476837158,1.159999966621399,1.2000000476837158,7842568,0,0
2020-09-10,1.2000000476837158,1.2300000190734863,1.190000057220459,1.190000057220459,15162710,0,0
2020-09-11,1.190000057220459,1.2100000381469727,1.1799999475479126,1.190000057220459,3046000,0,0
2020-09-14,1.190000057220459,1.190000057220459,1.159999966621399,1.159999966621399,5326000,0,0
2020-09-15,1.159999966621399,1.190000057220459,1.159999966621399,1.1699999570846558,7178000,0,0
2020-09-16,1.1799999475479126,1.2000000476837158,1.1799999475479126,1.1799999475479126,5554000,0,0
2020-09-17,1.2000000476837158,1.2000000476837158,1.1699999570846558,1.2000000476837158,3776000,0,0
2020-09-18,1.190000057220459,1.2200000286102295,1.1799999475479126,1.2200000286102295,8364000,0,0
2020-09-21,1.2200000286102295,1.2200000286102295,1.1799999475479126,1.1799999475479126,5158000,0,0
2020-09-22,1.1799999475479126,1.1799999475479126,1.149999976158142,1.159999966621399,9540000,0,0
2020-09-23,1.149999976158142,1.159999966621399,1.1399999856948853,1.159999966621399,4062000,0,0
2020-09-24,1.159999966621399,1.159999966621399,1.1100000143051147,1.1200000047683716,9602000,0,0
2020-09-25,1.1299999952316284,1.1299999952316284,1.059999942779541,1.059999942779541,14687740,0,0
2020-09-28,1.0700000524520874,1.090000033378601,1.0700000524520874,1.0700000524520874,4876400,0,0
2020-09-29,1.090000033378601,1.090000033378601,1.0700000524520874,1.090000033378601,2350047,0,0
2020-09-30,1.090000033378601,1.100000023841858,1.0800000429153442,1.090000033378601,2604000,0,0
2020-10-05,1.100000023841858,1.100000023841858,1.0800000429153442,1.090000033378601,1902000,0,0
2020-10-06,1.090000033378601,1.1200000047683716,1.090000033378601,1.1200000047683716,3354400,0,0
2020-10-07,1.100000023841858,1.1100000143051147,1.0700000524520874,1.0700000524520874,4626820,0,0
2020-10-08,1.0700000524520874,1.100000023841858,1.059999942779541,1.090000033378601,5060000,0,0
2020-10-09,1.100000023841858,1.100000023841858,1.0800000429153442,1.090000033378601,1974000,0,0
2020-10-12,1.100000023841858,1.100000023841858,1.0700000524520874,1.0800000429153442,6573999,0,0
2020-10-14,1.090000033378601,1.100000023841858,1.0800000429153442,1.0800000429153442,3536000,0,0
2020-10-15,1.0800000429153442,1.0800000429153442,1.0499999523162842,1.059999942779541,6102000,0,0
2020-10-16,1.059999942779541,1.0800000429153442,1.059999942779541,1.0800000429153442,3634000,0,0
2020-10-19,1.0800000429153442,1.090000033378601,1.0700000524520874,1.0700000524520874,2372345,0,0
2020-10-20,1.0800000429153442,1.0800000429153442,1.0399999618530273,1.0499999523162842,5514000,0,0
2020-10-21,1.059999942779541,1.059999942779541,1.0399999618530273,1.059999942779541,2670000,0,0
2020-10-22,1.0499999523162842,1.0499999523162842,1.0,1.0199999809265137,21192000,0,0
2020-10-23,1.0199999809265137,1.0499999523162842,1.0099999904632568,1.0499999523162842,7306000,0,0
2020-10-27,1.0299999713897705,1.0499999523162842,1.0199999809265137,1.0299999713897705,5476000,0,0
2020-10-28,1.0299999713897705,1.0299999713897705,1.0099999904632568,1.0199999809265137,2248000,0,0
2020-10-29,1.0099999904632568,1.0199999809265137,1.0,1.0199999809265137,3392000,0,0
2020-10-30,1.0199999809265137,1.0199999809265137,0.9900000095367432,0.9900000095367432,9975979,0,0
2020-11-02,1.0,1.0099999904632568,0.9900000095367432,1.0,2134000,0,0
2020-11-03,1.0099999904632568,1.0199999809265137,1.0,1.0199999809265137,3176000,0,0
2020-11-04,1.0099999904632568,1.0199999809265137,1.0099999904632568,1.0199999809265137,1720142,0,0
2020-11-05,1.0099999904632568,1.0499999523162842,1.0099999904632568,1.0399999618530273,7178000,0,0
2020-11-06,1.0499999523162842,1.0499999523162842,1.0299999713897705,1.0399999618530273,3198000,0,0
2020-11-09,1.0499999523162842,1.0700000524520874,1.0399999618530273,1.059999942779541,4624000,0,0
2020-11-10,1.149999976158142,1.149999976158142,1.090000033378601,1.100000023841858,19702000,0,0
2020-11-11,1.100000023841858,1.1200000047683716,1.090000033378601,1.1100000143051147,8947320,0,0
2020-11-12,1.1200000047683716,1.1299999952316284,1.090000033378601,1.1100000143051147,3650000,0,0
2020-11-13,1.100000023841858,1.100000023841858,1.0700000524520874,1.0800000429153442,5658000,0,0
2020-11-16,1.090000033378601,1.100000023841858,1.0700000524520874,1.0800000429153442,6508000,0,0
2020-11-17,1.090000033378601,1.1299999952316284,1.0800000429153442,1.1299999952316284,11585340,0,0
2020-11-18,1.1299999952316284,1.1399999856948853,1.1100000143051147,1.1299999952316284,7246000,0,0
2020-11-19,1.1399999856948853,1.1399999856948853,1.1200000047683716,1.1299999952316284,2518000,0,0
2020-11-20,1.1299999952316284,1.1399999856948853,1.1100000143051147,1.1200000047683716,3864000,0,0
2020-11-23,1.1200000047683716,1.1200000047683716,1.090000033378601,1.100000023841858,5380000,0,0
2020-11-24,1.100000023841858,1.1299999952316284,1.100000023841858,1.1200000047683716,3626000,0,0
2020-11-25,1.1299999952316284,1.1699999570846558,1.1299999952316284,1.1399999856948853,11540000,0,0
2020-11-26,1.149999976158142,1.149999976158142,1.1299999952316284,1.149999976158142,2210000,0,0
2020-11-27,1.149999976158142,1.149999976158142,1.1299999952316284,1.1299999952316284,3151333,0,0
2020-11-30,1.1299999952316284,1.149999976158142,1.090000033378601,1.090000033378601,8442000,0,0
2020-12-01,1.100000023841858,1.1299999952316284,1.090000033378601,1.1299999952316284,3482000,0,0
2020-12-02,1.1299999952316284,1.1299999952316284,1.090000033378601,1.100000023841858,4392010,0,0
2020-12-03,1.1100000143051147,1.1299999952316284,1.100000023841858,1.1200000047683716,3124000,0,0
2020-12-04,1.1200000047683716,1.1299999952316284,1.1100000143051147,1.1200000047683716,1992000,0,0
2020-12-07,1.1200000047683716,1.1299999952316284,1.100000023841858,1.1100000143051147,1710000,0,0
