Date,Open,High,Low,Close,Volume,Dividends,Stock Splits
2020-01-02,3.0269199338640087,3.07481418963857,3.0077622315541843,3.036498785018921,5856600,0.0,0
2020-01-03,3.074814282605066,3.074814282605066,3.02692002538243,3.0460777282714844,4882704,0.0,0
2020-01-06,3.046077597816983,3.046077597816983,2.9790254121991064,3.0077621936798096,2350442,0.0,0
2020-01-07,3.0173410827090965,3.036498785018921,3.0077622315541843,3.036498785018921,4866000,0.0,0
2020-01-08,3.0077622379027704,3.0077622379027704,2.9598677536492906,2.9886043071746826,4739165,0.0,0
2020-01-09,3.0077622856053234,3.026919988259422,2.9886043545733947,3.017341136932373,2183983,0.0,0
2020-01-10,3.0364989318028894,3.0364989318028894,3.007762376949031,3.0269200801849365,3750000,0.0,0
2020-01-13,3.0269200801849365,3.046077783420842,2.9981835253310782,3.0269200801849365,2864321,0.0,0
2020-01-14,3.026919988259422,3.0460776909135214,2.998183434278274,3.017341136932373,2920361,0.0,0
2020-01-15,3.0269200433499845,3.0269200433499845,2.9790255574652176,2.998183488845825,2279502,0.0,0
2020-01-16,2.9886042300643543,2.9886042300643543,2.9215522735684774,2.93113112449646,5084120,0.0,0
2020-01-17,3.0077623403472113,3.017341191848598,2.969446705963831,2.998183488845825,3434370,0.0,0
2020-01-20,2.998183534009897,3.0269200889469383,2.9502890474036563,2.9790256023406982,2197827,0.0,0
2020-01-21,2.959867900297176,2.9694467519468946,2.835342828850831,2.8545005321502686,5332000,0.0,0
2020-01-22,2.854500317072601,2.93113112449646,2.8257637642886535,2.93113112449646,3182400,0.0,0
2020-01-23,2.8353427923375203,2.8449216438638834,2.777869683179341,2.8257639408111572,6262000,0.0,0
2020-01-24,2.7874484277146787,2.864079236984253,2.777869576555982,2.864079236984253,4759155,0.0,0
2020-01-29,2.777869701385498,2.825763959331213,2.729975215061947,2.777869701385498,6690000,0.0,0
2020-01-30,2.768290765147733,2.7778696164439745,2.6629231725112477,2.7203962802886963,3244000,0.0,0
2020-01-31,2.6820808544133143,2.7299751105250505,2.643765449523926,2.643765449523926,2774270,0.0,0
2020-02-03,2.5862923588143474,2.6437654665178636,2.538398102394751,2.5958712100982666,2601485,0.0,0
2020-02-04,2.6054500446345368,2.66292315196862,2.5958711934121896,2.643765449523926,3627119,0.0,0
2020-02-05,2.6820807996641025,2.6820807996641025,2.6437653955568443,2.6629230976104736,1224774,0.0,0
2020-02-06,2.682080965446785,2.7299752235412598,2.67250211382789,2.7299752235412598,2795992,0.0,0
2020-02-07,2.7108173912755174,2.7108173912755174,2.643765433134754,2.691659688949585,1785527,0.0,0
2020-02-10,2.653344338148292,2.6820808922204096,2.653344338148292,2.672502040863037,660000,0.0,0
2020-02-11,2.6629232262440494,2.7587119695171305,2.6629232262440494,2.7012386322021484,6341558,0.0,0
2020-02-12,2.7012385776962136,2.749132834177421,2.691659726399972,2.7203962802886963,2653254,0.0,0
2020-02-13,2.710817483691673,2.739554038160247,2.6916597807126235,2.7012386322021484,3393373,0.0,0
2020-02-14,2.720396363472804,2.777869701385498,2.720396363472804,2.777869701385498,4631676,0.0,0
2020-02-17,2.7970272951298543,2.8545004024160723,2.7874484439154847,2.8161849975585938,3946000,0.0,0
2020-02-18,2.825763959331213,2.835342810920356,2.7587119982072124,2.777869701385498,2927500,0.0,0
2020-02-19,2.7682907414867457,2.8449215512017023,2.7682907414867457,2.8161849975585938,3736247,0.0,0
2020-02-20,2.8257637946143603,2.844921496675923,2.816184943583579,2.8353426456451416,5177900,0.0,0
2020-02-21,2.797027332191245,2.844921588897705,2.797027332191245,2.844921588897705,2044000,0.0,0
2020-02-24,2.8545004953902464,2.8545004953902464,2.8066062377584307,2.8257639408111572,3768857,0.0,0
2020-02-25,2.8161850892847937,2.8257639408111572,2.7299751971696904,2.8257639408111572,6626875,0.0,0
2020-02-26,2.7778695551346524,2.8353426616436335,2.729975071332677,2.7874484062194824,7446000,0.0,0
2020-02-27,2.8257637946143603,2.854500347706704,2.816184943583579,2.8353426456451416,4937010,0.0,0
2020-02-28,2.816185116489151,2.816185116489151,2.7299752235412598,2.7299752235412598,11186230,0.0,0
2020-03-02,2.7203963456433273,2.9119736045484257,2.7203963456433273,2.8257639408111572,8279891,0.0,0
2020-03-03,2.892815901495699,2.892815901495699,2.7970273862320676,2.8257639408111572,8911407,0.0,0
2020-03-04,2.8257639036734643,2.864079309275356,2.7682907952706275,2.797027349472046,9035544,0.0,0
2020-03-05,2.7778696094049034,2.816185014492779,2.758711906860966,2.7682907581329346,12919160,0.0,0
2020-03-06,2.768290710070053,2.768290710070053,2.691659672846937,2.739553928375244,9040451,0.0,0
2020-03-09,2.6820808922204096,2.6820808922204096,2.6246077840761752,2.672502040863037,4065886,0.0,0
2020-03-10,2.643765504278847,2.643765504278847,2.624607801437378,2.624607801437378,3326000,0.0,0
2020-03-11,2.6341866896673176,2.7491329083223484,2.624607838112732,2.6533443927764893,10426350,0.0,0
2020-03-12,2.6629232443310755,2.8353428006914574,2.624607838112732,2.6533443927764893,13625720,0.0,0
2020-03-13,2.5958712100982666,2.6629231690857025,2.471345915029486,2.5958712100982666,7345139,0.0,0
2020-03-16,2.643765541241963,2.643765541241963,2.509661391098907,2.5288193225860596,3104700,0.0,0
2020-03-17,2.5479770342267782,2.5479770342267782,2.3659786257010436,2.4809248447418213,6630000,0.0,0
2020-03-18,2.4905035495758057,2.586292288176612,2.4042938903751203,2.4905035495758057,6173991,0.0,0
2020-03-19,2.4713458475312087,2.4905035495758057,2.3180842311744345,2.4905035495758057,8176000,0.0,0
2020-03-20,2.4905035973376757,2.5288192305394936,2.4042939364836964,2.519240379333496,7032192,0.0,0
2020-03-23,2.3563996661333477,2.471345879906767,2.3563996661333477,2.3947150707244873,4099774,0.0,0
2020-03-24,2.4809248260949377,2.4809248260949377,2.3468209048886353,2.404294013977051,5235715,0.0,0
2020-03-25,2.452188145486612,2.509661251620402,2.4042938903751203,2.4905035495758057,4240713,0.0,0
2020-03-26,2.4426094569757595,2.4713460119545525,2.4042940503373695,2.433030605316162,4348073,0.0,0
2020-03-27,2.442609420035994,2.45218827155073,2.404294013977051,2.404294013977051,2917000,0.0,0
2020-03-30,2.3851363293169165,2.3947151809054246,2.3180843681973586,2.3563997745513916,2582000,0.0,0
2020-03-31,2.3755574404022792,2.3755574404022792,2.3180843317742803,2.3276631832122803,3187528,0.0,0
2020-04-01,2.3180842459092323,2.356399650241976,2.2701897621154785,2.2701897621154785,4638390,0.0,0
2020-04-02,2.2414531707763676,2.2606108726171876,2.1839800652539063,2.241453170776367,2922000,0.0,0
2020-04-03,2.1935589161743163,2.2414531707763676,2.1935589161743163,2.241453170776367,1934800,0.0,0
2020-04-06,2.2797688415764887,2.2797688415764887,2.2127166556163633,2.2701897621154785,3198956,0.0,0
2020-04-07,2.318084386791074,2.3276632384564158,2.2701899000865273,2.3085055351257324,5207200,0.0,0
2020-04-08,2.298926598973323,2.308505450286636,2.2510321140289307,2.2510321140289307,3550600,0.0,0
2020-04-09,2.2893476486206055,2.2989264995195278,2.270189718444941,2.2893476486206055,1998000,0.0,0
2020-04-14,2.279768989065104,2.30850554417376,2.260611057281494,2.260611057281494,4312795,0.0,0
2020-04-15,2.260610927298257,2.260610927298257,2.2031378203856007,2.2222955226898193,6586588,0.0,0
2020-04-16,2.2222955393845063,2.2222955393845063,2.1648224320400913,2.17440128326416,4902000,0.0,0
2020-04-17,2.2222956143949926,2.251032169037163,2.203137911300213,2.231874465942383,4330562,0.0,0
2020-04-20,2.2222955773789477,2.231874428766786,2.193559023215433,2.2031378746032715,6028027,0.0,0
2020-04-21,2.17440128326416,2.1839801344882295,2.1648224320400913,2.17440128326416,4586000,0.0,0
2020-04-22,2.1552435429809624,2.1552435429809624,2.116928138757308,2.145664691925049,4723006,0.0,0
2020-04-23,2.1265069898132216,2.145664691925049,2.1265069898132216,2.145664691925049,1846111,0.0,0
2020-04-24,2.126507135379448,2.145664838802681,2.116928283667831,2.1360859870910645,2996874,0.0,0
2020-04-27,2.126507043838501,2.136085895137771,2.10734934123996,2.126507043838501,3540000,0.0,0
2020-04-28,2.116928085927277,2.1648223400115967,2.0690338318429577,2.1648223400115967,4606356,0.0,0
2020-04-29,2.260611012878178,2.4809248260949377,2.260611012878178,2.404294013977051,17871990,0.0,0
2020-05-04,2.3372419031152165,2.3372419031152165,2.260610867546019,2.2893476486206055,7153480,0.0,0
2020-05-05,2.3085054983245406,2.3180843498371804,2.270189863896147,2.279768943786621,2254600,0.0,0
2020-05-06,2.2989266834603908,2.3372420901217574,2.279768980129707,2.3085055351257324,5217792,0.0,0
2020-05-07,2.308505450286636,2.3276631529132614,2.2510321140289307,2.2510321140289307,4521186,0.0,0
2020-05-08,2.251032160870867,2.289347795299261,2.2222956063329478,2.279768943786621,7248858,0.0,0
2020-05-11,2.2989265046766487,2.308505355597059,2.2414531707763676,2.241453170776367,4775109,0.0,0
2020-05-12,2.251032169037163,2.251032169037163,2.183980208205433,2.231874465942383,6475629,0.0,0
2020-05-13,2.2031377823373903,2.2222954843107554,2.1839800803640252,2.193558931350708,8269723,0.0,0
2020-05-14,2.203137854232664,2.203137854232664,2.10734934123996,2.126507043838501,9391406,0.0,0
2020-05-15,2.1456646283123826,2.1456646283123826,2.0019816383556353,2.040297269821167,17950000,0.0,0
2020-05-18,2.0115605487644355,2.164822394036876,1.9924028466526083,2.145664691925049,12004000,0.0,0
2020-05-19,2.20313779826053,2.2127166493164436,2.1265069898132216,2.145664691925049,6803280,0.0,0
2020-05-20,2.1456647464370415,2.174401300334853,2.1169281925392305,2.126507043838501,6410000,0.0,0
2020-05-21,2.1744012450927896,2.1744012450927896,2.1265069898132216,2.145664691925049,3902000,0.0,0
2020-05-22,2.0881917112229327,2.0881917112229327,2.030718373051818,2.059455156326294,3362000,0.0,0
2020-05-25,2.0115606697873925,2.059455156326294,1.9828241148907542,2.059455156326294,4395034,0.0,0
2020-05-26,2.0594550479861664,2.126507005884307,2.0498761968578605,2.0977704524993896,5776000,0.0,0
2020-05-27,2.0881915855895676,2.2414532024841844,2.0881915855895676,2.145664691925049,17868000,0.0,0
2020-05-28,2.1073494512641653,2.155243710261065,2.0690340440666453,2.0881917476654053,7676000,0.0,0
2020-05-29,2.0786127873421485,2.155243597736312,2.069033936042878,2.126507043838501,54398520,0.0,0
2020-06-01,2.155243597736312,2.1648224490355825,2.10734934123996,2.126507043838501,5571795,0.0,0
2020-06-02,2.145664801940161,2.145664801940161,2.097770544204901,2.107349395751953,8638500,0.0,0
2020-06-03,2.136085895137771,2.155243597736312,2.0977704899406895,2.126507043838501,5298000,0.0,0
2020-06-04,2.1552436154363392,2.1552436154363392,2.078612804412842,2.078612804412842,8868307,0.0,0
2020-06-05,2.0881916013710837,2.126507005884307,2.0594550479861664,2.0977704524993896,9587061,0.0,0
2020-06-08,2.136085840869135,2.1744012450927896,2.1265069898132216,2.145664691925049,7946000,0.0,0
2020-06-09,2.1839801344882295,2.203137836936368,2.155243580816022,2.17440128326416,5394442,0.0,0
2020-06-10,2.183980208128369,2.183980208128369,2.078612841110797,2.107349395751953,12003500,0.0,0
2020-06-11,2.116928266119571,2.116928266119571,2.059455156326294,2.059455156326294,4053689,0.0,0
2020-06-12,2.0594550642778113,2.0594550642778113,2.021139431083661,2.0498762130737305,4671253,0.0,0
2020-06-15,2.0498762577723406,2.0498762577723406,2.011560623742698,2.0307183265686035,4195366,0.0,0
2020-06-16,2.0594550642778113,2.0786127666859726,2.021139431083661,2.0498762130737305,5831324,0.0,0
2020-06-17,2.0690339154818917,2.0977704690941343,2.0498762130737305,2.0498762130737305,4722550,0.0,0
2020-06-18,2.0498762019518497,2.2510320761461475,2.0498762019518497,2.2222955226898193,22650000,0.0,0
2020-06-19,2.2222955226898193,2.2797688579803017,2.174401266929272,2.2222955226898193,12337378,0.0,0
2020-06-22,2.2127167439716686,2.2127167439716686,2.13608593224626,2.1552436351776123,3062000,0.0,0
2020-06-23,2.155243710261065,2.155243710261065,2.0881917476654053,2.0881917476654053,4651022,0.0,0
2020-06-24,2.1073494144873584,2.126507117751784,2.059455156326294,2.059455156326294,3805000,0.0,0
2020-06-26,2.0402973136492504,2.0690338665823327,2.02113938331604,2.02113938331604,5542000,0.0,0
2020-06-29,2.0211394652847314,2.030718316650902,1.9828240598200473,1.9924029111862183,5714000,0.0,0
2020-06-30,2.0115606139185602,2.0402973963949043,1.9924029111862183,1.9924029111862183,4266000,0.0,0
2020-07-02,2.0,2.0799999237060547,2.0,2.0799999237060547,8092109,0.087597,0
2020-07-03,2.0799999237060547,2.130000114440918,2.0799999237060547,2.109999895095825,3868000,0.0,0
2020-07-06,2.119999885559082,2.25,2.119999885559082,2.240000009536743,10230700,0.0,0
2020-07-07,2.2899999618530273,2.319999933242798,2.180000066757202,2.180000066757202,16593090,0.0,0
2020-07-08,2.2200000286102295,2.4000000953674316,2.180000066757202,2.3499999046325684,20722150,0.0,0
2020-07-09,2.4100000858306885,2.4600000381469727,2.3299999237060547,2.3299999237060547,13251560,0.0,0
2020-07-10,2.309999942779541,2.3299999237060547,2.2200000286102295,2.2699999809265137,6170000,0.0,0
2020-07-13,2.259999990463257,2.359999895095825,2.240000009536743,2.319999933242798,6671802,0.0,0
2020-07-14,2.299999952316284,2.3299999237060547,2.2300000190734863,2.240000009536743,3890000,0.0,0
2020-07-15,2.25,2.2799999713897705,2.1700000762939453,2.1700000762939453,5796000,0.0,0
2020-07-16,2.1700000762939453,2.200000047683716,2.0899999141693115,2.0999999046325684,9912000,0.0,0
2020-07-17,2.0999999046325684,2.109999895095825,2.049999952316284,2.0899999141693115,4346000,0.0,0
2020-07-20,2.0999999046325684,2.299999952316284,2.069999933242798,2.180000066757202,17959400,0.0,0
2020-07-21,2.2300000190734863,2.240000009536743,2.1500000953674316,2.1600000858306885,3912000,0.0,0
2020-07-22,2.1600000858306885,2.200000047683716,2.130000114440918,2.130000114440918,3650000,0.0,0
2020-07-23,2.1500000953674316,2.1600000858306885,2.0999999046325684,2.119999885559082,3244046,0.0,0
2020-07-24,2.0999999046325684,2.119999885559082,2.049999952316284,2.049999952316284,7100000,0.0,0
2020-07-27,2.059999942779541,2.0899999141693115,2.059999942779541,2.0799999237060547,1908000,0.0,0
2020-07-28,2.0899999141693115,2.119999885559082,2.0799999237060547,2.0999999046325684,2306000,0.0,0
2020-07-29,2.0999999046325684,2.119999885559082,2.0799999237060547,2.0899999141693115,1368000,0.0,0
2020-07-30,2.0999999046325684,2.140000104904175,2.069999933242798,2.0999999046325684,3480000,0.0,0
2020-07-31,2.0999999046325684,2.109999895095825,2.0899999141693115,2.0899999141693115,2160000,0.0,0
2020-08-03,2.0799999237060547,2.140000104904175,2.0799999237060547,2.109999895095825,3864000,0.0,0
2020-08-04,2.130000114440918,2.1700000762939453,2.130000114440918,2.1500000953674316,6030523,0.0,0
2020-08-05,2.1500000953674316,2.1600000858306885,2.109999895095825,2.1500000953674316,3272706,0.0,0
2020-08-06,2.1600000858306885,2.1700000762939453,2.130000114440918,2.1600000858306885,2334000,0.0,0
2020-08-07,2.1500000953674316,2.1600000858306885,2.0999999046325684,2.109999895095825,2836000,0.0,0
2020-08-10,2.109999895095825,2.130000114440918,2.0899999141693115,2.109999895095825,2019900,0.0,0
2020-08-11,2.119999885559082,2.1600000858306885,2.119999885559082,2.140000104904175,2784913,0.0,0
2020-08-12,2.130000114440918,2.1700000762939453,2.109999895095825,2.1500000953674316,4103121,0.0,0
2020-08-13,2.1600000858306885,2.180000066757202,2.119999885559082,2.119999885559082,4303236,0.0,0
2020-08-14,2.140000104904175,2.1700000762939453,2.119999885559082,2.1500000953674316,3324500,0.0,0
2020-08-17,2.1500000953674316,2.2200000286102295,2.1500000953674316,2.200000047683716,6535718,0.0,0
2020-08-18,2.2200000286102295,2.25,2.200000047683716,2.200000047683716,2762000,0.0,0
2020-08-19,2.200000047683716,2.2200000286102295,2.1700000762939453,2.190000057220459,4150000,0.0,0
2020-08-20,2.2100000381469727,2.259999990463257,2.130000114440918,2.2300000190734863,21488160,0.0,0
2020-08-21,2.259999990463257,2.2799999713897705,2.190000057220459,2.200000047683716,5206000,0.0,0
2020-08-24,2.200000047683716,2.2200000286102295,2.1700000762939453,2.200000047683716,2802000,0.0,0
2020-08-25,2.200000047683716,2.200000047683716,2.130000114440918,2.1700000762939453,3831000,0.0,0
2020-08-26,2.180000066757202,2.190000057220459,2.119999885559082,2.1500000953674316,6248000,0.0,0
2020-08-27,2.130000114440918,2.130000114440918,2.0399999618530273,2.069999933242798,12318960,0.0,0
2020-08-28,2.0899999141693115,2.140000104904175,2.059999942779541,2.119999885559082,4320000,0.0,0
2020-08-31,2.130000114440918,2.1600000858306885,2.0799999237060547,2.0899999141693115,4684000,0.0,0
2020-09-01,2.0899999141693115,2.109999895095825,2.069999933242798,2.0899999141693115,2269000,0.0,0
2020-09-02,2.069999933242798,2.0999999046325684,2.059999942779541,2.0899999141693115,1433124,0.0,0
2020-09-03,2.069999933242798,2.0899999141693115,2.059999942779541,2.059999942779541,2579225,0.0,0
2020-09-04,2.049999952316284,2.049999952316284,2.0199999809265137,2.0299999713897705,4280000,0.0,0
2020-09-07,2.0299999713897705,2.059999942779541,2.0199999809265137,2.0399999618530273,1219100,0.0,0
2020-09-08,2.0399999618530273,2.059999942779541,2.0199999809265137,2.0399999618530273,2250600,0.0,0
2020-09-09,2.0299999713897705,2.049999952316284,2.009999990463257,2.0299999713897705,3422000,0.0,0
2020-09-10,2.0399999618530273,2.049999952316284,2.0199999809265137,2.0299999713897705,1106000,0.0,0
2020-09-11,2.0199999809265137,2.0399999618530273,2.009999990463257,2.0199999809265137,1353893,0.0,0
2020-09-14,2.0199999809265137,2.0299999713897705,2.009999990463257,2.009999990463257,2432000,0.0,0
2020-09-15,2.009999990463257,2.0199999809265137,1.9900000095367432,1.9900000095367432,3013925,0.0,0
2020-09-16,1.9900000095367432,2.0,1.9500000476837158,2.0,3738200,0.0,0
2020-09-17,2.0,2.009999990463257,1.9800000190734863,1.9900000095367432,1904000,0.0,0
2020-09-18,1.9900000095367432,2.0199999809265137,1.9700000286102295,1.9700000286102295,6029193,0.0,0
2020-09-21,1.9800000190734863,1.9900000095367432,1.9199999570846558,1.9299999475479126,3766119,0.0,0
2020-09-22,1.940000057220459,1.9600000381469727,1.899999976158142,1.9199999570846558,2970000,0.0,0
2020-09-23,1.909999966621399,1.9199999570846558,1.8899999856948853,1.899999976158142,2200000,0.0,0
2020-09-24,1.8899999856948853,1.8899999856948853,1.7899999618530273,1.8200000524520874,5709800,0.0,0
2020-09-25,1.8300000429153442,1.840000033378601,1.809999942779541,1.809999942779541,1252000,0.0,0
2020-09-28,1.809999942779541,1.8200000524520874,1.7699999809265137,1.7899999618530273,2394000,0.0,0
2020-09-29,1.7999999523162842,1.809999942779541,1.7899999618530273,1.809999942779541,814000,0.0,0
2020-09-30,1.809999942779541,1.8200000524520874,1.7799999713897705,1.7899999618530273,480001,0.0,0
2020-10-05,1.7999999523162842,1.809999942779541,1.7200000286102295,1.7400000095367432,3491000,0.0,0
2020-10-06,1.7400000095367432,1.8200000524520874,1.7300000190734863,1.8200000524520874,2362000,0.0,0
2020-10-07,1.8200000524520874,1.8300000429153442,1.7799999713897705,1.7999999523162842,820000,0.0,0
2020-10-08,1.7999999523162842,1.7999999523162842,1.75,1.7899999618530273,1614000,0.0,0
2020-10-09,1.7799999713897705,1.7899999618530273,1.75,1.7699999809265137,2714000,0.0,0
2020-10-12,1.7599999904632568,1.7899999618530273,1.7599999904632568,1.7699999809265137,2555483,0.0,0
2020-10-14,1.7699999809265137,1.7799999713897705,1.7300000190734863,1.7400000095367432,3978869,0.0,0
2020-10-15,1.75,1.850000023841858,1.75,1.7699999809265137,10232000,0.0,0
2020-10-16,1.7999999523162842,1.8300000429153442,1.7799999713897705,1.7799999713897705,5382901,0.0,0
2020-10-19,1.7899999618530273,1.809999942779541,1.7899999618530273,1.7999999523162842,1908000,0.0,0
2020-10-20,1.7999999523162842,1.7999999523162842,1.7699999809265137,1.7699999809265137,1238000,0.0,0
2020-10-21,1.7899999618530273,1.7899999618530273,1.7599999904632568,1.7599999904632568,2914000,0.0,0
2020-10-22,1.7599999904632568,1.7999999523162842,1.7400000095367432,1.7699999809265137,6117931,0.0,0
2020-10-23,1.7899999618530273,1.8300000429153442,1.7799999713897705,1.8200000524520874,3720000,0.0,0
2020-10-27,1.7999999523162842,1.8300000429153442,1.7799999713897705,1.8200000524520874,2466859,0.0,0
2020-10-28,1.8200000524520874,1.8300000429153442,1.7799999713897705,1.7899999618530273,2091212,0.0,0
2020-10-29,1.7899999618530273,1.8200000524520874,1.7799999713897705,1.7999999523162842,1990000,0.0,0
2020-10-30,1.7899999618530273,1.809999942779541,1.7699999809265137,1.7899999618530273,2912000,0.0,0
2020-11-02,1.809999942779541,1.940000057220459,1.809999942779541,1.8899999856948853,6586000,0.0,0
2020-11-03,1.909999966621399,1.9199999570846558,1.8799999952316284,1.8899999856948853,3010000,0.0,0
2020-11-04,1.909999966621399,1.909999966621399,1.8600000143051147,1.8600000143051147,2310000,0.0,0
2020-11-05,1.8799999952316284,1.9500000476837158,1.8799999952316284,1.9500000476837158,4641329,0.0,0
2020-11-06,1.9500000476837158,2.0,1.9500000476837158,1.9700000286102295,6686000,0.0,0
2020-11-09,1.9900000095367432,2.069999933242798,1.9900000095367432,2.0299999713897705,6363380,0.0,0
2020-11-10,2.0799999237060547,2.109999895095825,2.049999952316284,2.069999933242798,7250000,0.0,0
2020-11-11,2.069999933242798,2.180000066757202,2.049999952316284,2.1500000953674316,14557140,0.0,0
2020-11-12,2.1500000953674316,2.1600000858306885,2.059999942779541,2.059999942779541,4158000,0.0,0
2020-11-13,2.069999933242798,2.069999933242798,2.009999990463257,2.049999952316284,2275255,0.0,0
2020-11-16,2.049999952316284,2.180000066757202,2.049999952316284,2.140000104904175,9592000,0.0,0
2020-11-17,2.180000066757202,2.200000047683716,2.1500000953674316,2.180000066757202,7934000,0.0,0
2020-11-18,2.1500000953674316,2.200000047683716,2.130000114440918,2.1500000953674316,5164000,0.0,0
2020-11-19,2.1500000953674316,2.1700000762939453,2.119999885559082,2.1700000762939453,2318000,0.0,0
2020-11-20,2.1700000762939453,2.1700000762939453,2.119999885559082,2.1500000953674316,3188000,0.0,0
2020-11-23,2.1600000858306885,2.2699999809265137,2.1500000953674316,2.240000009536743,12840000,0.0,0
2020-11-24,2.2699999809265137,2.2899999618530273,2.2300000190734863,2.259999990463257,8398000,0.0,0
2020-11-25,2.299999952316284,2.369999885559082,2.2799999713897705,2.319999933242798,14592000,0.0,0
2020-11-26,2.299999952316284,2.309999942779541,2.2799999713897705,2.309999942779541,5808000,0.0,0
2020-11-27,2.299999952316284,2.4800000190734863,2.299999952316284,2.4000000953674316,20305220,0.0,0
2020-11-30,2.390000104904175,2.5,2.3499999046325684,2.369999885559082,16227000,0.0,0
2020-12-01,2.440000057220459,2.450000047683716,2.369999885559082,2.390000104904175,6920150,0.0,0
2020-12-02,2.440000057220459,2.440000057220459,2.380000114440918,2.4000000953674316,4470000,0.0,0
2020-12-03,2.4200000762939453,2.4200000762939453,2.2899999618530273,2.319999933242798,8542000,0.0,0
2020-12-04,2.309999942779541,2.309999942779541,2.240000009536743,2.2899999618530273,9430000,0.0,0
2020-12-07,2.319999933242798,2.3299999237060547,2.25,2.2699999809265137,5146000,0.0,0
