Date,Open,High,Low,Close,Volume,Dividends,Stock Splits
2016-10-31,4.8617008684327505,5.106641459111493,4.79489876045502,5.099218845367432,8761500,0.0,0
2016-11-01,5.114064212223169,5.581678305313447,5.010150087290797,5.381272315979004,4199000,0.0,0
2016-11-02,5.388694599615754,5.455496356006309,5.27735786705854,5.359004497528076,1248500,0.0,0
2016-11-03,5.388695141877726,5.388695141877726,4.950770781585088,5.0324177742004395,2631500,0.0,0
2016-11-04,5.0546842246921795,5.166020953345162,4.780053886896602,5.099218845367432,775500,0.0,0
2016-11-07,5.15859846398977,5.373849312741994,5.1214864561637,5.18828821182251,143500,0.0,0
2016-11-08,5.158599227158548,5.195711594404774,5.121487213842087,5.180866718292236,391500,0.0,0
2016-11-09,5.1734439344845695,5.269935803032843,4.898813558397717,5.047262668609619,478000,0.0,0
2016-11-10,5.19571059557579,5.321892195239953,5.084373869170369,5.1511759757995605,171000,0.0,0
2016-11-11,5.12148633266991,5.188288086717937,4.973037243156031,5.099218845367432,86500,0.0,0
2016-11-14,4.9804605140336715,5.054684891619097,4.9730378993102535,5.01757287979126,132500,0.0,0
2016-11-15,4.95819273722785,5.047262339112216,4.846856354249421,5.024994850158691,172500,0.0,0
2016-11-16,5.032417960309008,5.099219725892254,4.869123969039375,5.039840221405029,213500,0.0,0
2016-11-17,4.89881326734361,5.002727390567245,4.89881326734361,4.913658142089844,45500,0.0,0
2016-11-18,4.91365815164862,5.054684638977051,4.91365815164862,5.054684638977051,82000,0.0,0
2016-11-21,5.076951567572806,5.180865679525729,5.076951567572806,5.121486186981201,179000,0.0,0
2016-11-22,5.188288867523398,5.188288867523398,5.08437473697604,5.091797351837158,82500,0.0,0
2016-11-23,4.869122514794989,5.158597689678518,4.869122514794989,5.106640815734863,37000,0.0,0
2016-11-24,5.084373484023795,5.084373484023795,4.913657277515332,4.973036766052246,5000,0.0,0
2016-11-25,4.898812405381104,4.973036766052246,4.883967533246875,4.973036766052246,165500,0.0,0
2016-11-28,4.8839683729940155,4.906235861988854,4.861701237928907,4.898813247680664,105000,0.0,0
2016-11-29,4.898813247680664,4.921080736675503,4.869123498307366,4.898813247680664,99500,0.0,0
2016-11-30,4.876546033120445,4.97303754004584,4.6241828136315855,4.839433670043945,200000,0.0,0
2016-12-01,4.898813147550894,4.854278524401217,4.824588775634766,4.824588775634766,257000,0.0,0
2016-12-02,4.824588775634766,4.861701138557692,4.78747641271184,4.824588775634766,278500,0.0,0
2016-12-05,4.824588903518467,4.824588903518467,4.772631664835103,4.787476539611816,142000,0.0,0
2016-12-06,4.787476695874623,5.032417668579848,4.661295433118878,4.676140308380127,427500,0.0,0
2016-12-07,4.735518989863391,4.750363862555483,4.601914781704876,4.653872013092041,675500,0.0,0
2016-12-08,4.66129569464047,4.67614057073459,4.52769145586363,4.6019158363342285,1266000,0.0,0
2016-12-09,4.676139852139282,4.7132518597065935,4.668717238267993,4.690984725952148,647000,0.0,0
2016-12-12,4.690985183641375,4.698407444307128,4.527691201837892,4.676140308380127,1426500,0.0,0
2016-12-13,4.824589122900661,4.943348126514542,4.757787006402978,4.861701488494873,175000,0.0,0
2016-12-14,4.898813516531677,4.898813516531677,4.639028018293207,4.735519886016846,156500,0.0,0
2016-12-15,4.616760564713912,4.824589177311821,4.616760564713912,4.765209674835205,34000,0.0,0
2016-12-16,4.765209115872685,4.765209115872685,4.66129499872781,4.705829620361328,94000,0.0,0
2016-12-19,5.641058045995867,5.641058045995867,4.906236171722412,4.906236171722412,1500,0.0,0
2016-12-20,4.824589178826555,5.024995176712929,4.757787061554512,4.906236171722412,58500,0.0,0
2016-12-21,4.824589141656123,4.906236133922941,4.757787024898748,4.876546382904053,74000,0.0,0
2016-12-22,4.883968363932321,5.166021336385062,4.757786752365056,5.024994850158691,141000,0.0,0
2016-12-23,5.024994850158691,5.024994850158691,5.024994850158691,5.024994850158691,0,0.0,0
2016-12-28,4.995305426945991,5.047262668609619,4.93592592443313,5.047262668609619,58500,0.0,0
2016-12-29,4.9804609013741015,5.344160556793213,4.9804609013741015,5.344160556793213,80500,0.0,0
2016-12-30,5.314469205543708,5.462918281555177,4.921079915062112,5.462918281555176,1140000,0.0,0
2017-01-03,5.4183845122427545,5.433229386772335,5.4183845122427545,5.388694763183594,16500,0.0,0
2017-01-04,5.344160556793213,5.344160556793213,5.344160556793213,5.344160556793213,0,0.0,0
2017-01-05,5.269935131072998,5.269935131072998,5.269935131072998,5.269935131072998,0,0.0,0
2017-01-06,4.8171657767471245,5.136331081390381,4.8171657767471245,5.136331081390381,7500,0.0,0
2017-01-09,4.973037560498793,5.0027273095102105,4.846856304165134,4.854278564453125,42000,0.0,0
2017-01-10,4.824588132834669,5.121485934871968,4.809743260429288,4.832010746002197,5000,0.0,0
2017-01-11,4.809743960596745,4.869123458862305,4.809743960596745,4.869123458862305,3500,0.0,0
2017-01-12,4.906236171722412,4.906236171722412,4.906236171722412,4.906236171722412,7000,0.0,0
2017-01-13,4.906235802187968,4.906235802187968,4.824588815441708,4.854278564453125,28500,0.0,0
2017-01-16,5.106642227629638,5.106642227629638,4.824589233642765,5.091797351837158,139000,0.0,0
2017-01-17,5.084373950958252,5.084373950958252,5.084373950958252,5.084373950958252,0,0.0,0
2017-01-18,5.076951670232075,5.076951670232075,5.047261923359465,5.069529056549072,24500,0.0,0
2017-01-19,5.08437468071528,5.08437468071528,5.032417792981404,5.047262668609619,27500,0.0,0
2017-01-20,5.047261944179254,5.255090173144807,5.010149583470555,5.084373950958252,49500,0.0,0
2017-01-23,5.195711424891768,5.195711424891768,5.195711424891768,5.047262668609619,500,0.0,0
2017-01-24,5.039839371932316,5.062106859326688,4.980459877453597,4.987882137298584,106500,0.0,0
2017-01-25,5.010149624692956,5.010149624692956,4.973037263678904,4.987882137298584,8500,0.0,0
2017-01-26,4.943348148276084,5.1957113859962805,4.943348148276084,5.01757287979126,211000,0.0,0
2017-01-27,5.1957106590271,5.1957106590271,5.1957106590271,5.1957106590271,6500,0.0,0
2017-02-01,5.195711245299834,5.195711245299834,5.047262494148878,5.143754005432129,6500,0.0,0
2017-02-02,5.336737132332261,5.336737132332261,5.069529056549072,5.069529056549072,3000,0.0,0
2017-02-03,5.047261943381078,5.06210681687627,4.958192348480225,4.958192348480225,51500,0.0,0
2017-02-06,5.166021673635338,5.388695161988315,5.047262668609619,5.047262668609619,3500,0.0,0
2017-02-07,5.1957106590271,5.1957106590271,5.188288045342233,5.1957106590271,2500,0.0,0
2017-02-08,5.121486186981201,5.121486186981201,5.121486186981201,5.121486186981201,0,0.0,0
2017-02-09,5.0472628332794,5.195711594404774,4.943348346561875,5.180866718292236,34500,0.0,0
2017-02-10,5.158597798205174,5.158597798205174,4.943346977233887,4.943346977233887,7000,0.0,0
2017-02-13,4.943346977233887,4.943346977233887,4.943346977233887,4.943346977233887,1000,0.0,0
2017-02-14,5.08437473697604,5.091797351837158,5.08437473697604,5.091797351837158,8000,0.0,0
2017-02-15,4.950770398099041,4.950770398099041,4.943347783922714,4.965615272521973,17500,0.0,0
2017-02-16,5.010149975499585,5.047262339112216,5.010149975499585,5.024994850158691,32000,0.0,0
2017-02-17,5.12148669221878,5.151176441419954,4.96561533194775,5.010149955749512,22500,0.0,0
2017-02-20,5.017572781344229,5.195711284054092,5.017572781344229,5.173443794250488,100500,0.0,0
2017-02-21,5.188288560433187,5.329315049079391,5.121486800285844,5.225400924682617,56000,0.0,0
2017-02-22,5.084373931262007,5.1957106590271,5.017572177746713,5.1957106590271,119000,0.0,0
2017-02-23,5.1957106590271,5.210555532467132,5.047261924626777,5.1957106590271,83000,0.0,0
2017-02-24,5.359004157159311,5.492608369314191,5.091796440708937,5.121486186981201,709000,0.0,0
2017-02-27,5.1437528179903795,5.1437528179903795,5.04726132898231,5.106640815734863,13500,0.0,0
2017-02-28,5.106642171122479,5.106642171122479,5.039840053830635,5.047262668609619,80000,0.0,0
2017-03-01,5.047261944179254,5.084373950958252,5.047261944179254,5.084373950958252,8500,0.0,0
2017-03-02,5.151175954587996,5.188287960617185,5.0843738482338825,5.136331081390381,29000,0.0,0
2017-03-03,5.1363310601173335,5.1363310601173335,5.10664131384507,5.121486186981201,11000,0.0,0
2017-03-06,5.121486311666952,5.121486311666952,5.084373950958252,5.084373950958252,33500,0.0,0
2017-03-07,5.106641657504709,5.3961168801048265,5.106641657504709,5.373849391937256,33500,0.0,0
2017-03-08,5.33673702441996,5.33673702441996,5.10664131384507,5.121486186981201,336000,0.0,0
2017-03-09,5.121486850458194,5.128909111022949,5.121486850458194,5.128909111022949,1000,0.0,0
2017-03-10,5.10664131384507,5.121486186981201,5.10664131384507,5.121486186981201,11000,0.0,0
2017-03-13,5.106641438169412,5.121486311666952,4.980459836475475,5.084373950958252,2009000,0.0,0
2017-03-14,5.084373950958252,5.084373950958252,5.084373950958252,5.084373950958252,0,0.0,0
2017-03-15,5.084374849770447,5.084374849770447,5.032417960309008,5.039840221405029,26000,0.0,0
2017-03-16,5.084374661740413,5.114064412886041,5.0324177742004395,5.0324177742004395,44500,0.0,0
2017-03-17,5.047262836430814,5.084374849770447,5.017573084187202,5.039840221405029,53500,0.0,0
2017-03-20,5.039840016102012,5.047262630825429,4.995305389550757,5.01757287979126,442000,0.0,0
2017-03-21,5.0324177553083445,5.0324177553083445,5.01757287979126,5.01757287979126,72000,0.0,0
2017-03-22,4.9656152524757955,5.047262238437174,4.94334776396643,4.950770378112793,75500,0.0,0
2017-03-23,4.99530559303961,5.047262836430814,4.99530559303961,5.039840221405029,7000,0.0,0
2017-03-24,5.047262667113528,5.099219554832002,4.906236171722412,4.906236171722412,105500,0.0,0
2017-03-27,4.935925483703613,4.935925483703613,4.935925483703613,4.935925483703613,500,0.0,0
2017-03-28,4.898813556945628,4.906236171722412,4.898813556945628,4.906236171722412,2000,0.0,0
2017-03-29,4.898813147550894,4.906235761707369,4.824588775634766,4.824588775634766,57000,0.0,0
2017-03-30,4.8023212528342505,4.8023212528342505,4.661295124164579,4.668717384338379,275000,0.0,0
2017-03-31,4.713251861664454,4.720674475538826,4.490578754378954,4.564803123474121,1058500,0.0,0
2017-04-03,4.564803823063811,4.60933845134617,4.468311951487152,4.6019158363342285,417000,0.0,0
2017-04-05,4.601915724274981,4.639028090571455,4.3940874640180425,4.51284646987915,998500,0.0,0
2017-04-06,4.535113568835093,4.690984927533154,4.3643973356862515,4.446043968200684,1672000,0.0,0
2017-04-07,4.483156099796079,5.03983939384953,4.4163539912521586,4.535113334655762,554000,0.0,0
2017-04-10,4.564803769343436,4.564803769343436,4.394087519305233,4.416354656219482,287000,0.0,0
2017-04-11,4.527691402580007,4.527691402580007,4.416354656219482,4.416354656219482,136500,0.0,0
2017-04-12,4.535113714078058,4.535113714078058,4.4608893394470215,4.4608893394470215,10000,0.0,0
2017-04-13,4.423777197114973,4.453466948456972,4.416354582314596,4.498001575469971,34500,0.0,0
2017-04-18,4.498000973480316,4.535113334655762,4.4608889662345765,4.535113334655762,388500,0.0,0
2017-04-19,4.52026851992348,4.809743737506204,4.52026851992348,4.705829620361328,301000,0.0,0
2017-04-20,4.750364286837249,4.7874762949173215,4.594492932683688,4.60933780670166,129500,0.0,0
2017-04-21,4.6612946264029285,4.6612946264029285,4.6612946264029285,4.653872013092041,12000,0.0,0
2017-04-24,4.6538716560800095,4.6538716560800095,4.601914428678634,4.616759300231934,34500,0.0,0
2017-04-25,4.6241830490054046,4.661295413970947,4.6241830490054046,4.661295413970947,2500,0.0,0
2017-04-26,4.609338173805136,4.661295413970947,4.609338173805136,4.661295413970947,3000,0.0,0
2017-04-27,4.6612946264029285,4.6612946264029285,4.653872013092041,4.653872013092041,6500,0.0,0
2017-04-28,4.646450168711446,4.6835621767915185,4.601915192727817,4.60933780670166,13000,0.0,0
2017-05-02,4.594493298604868,4.676140289171215,4.594493298604868,4.661295413970947,168500,0.0,0
2017-05-04,4.646450557857628,4.846856550849363,4.639027943262132,4.676140308380127,243500,0.0,0
2017-05-05,4.690984725952148,4.742941607332328,4.68356211208086,4.690984725952148,7000,0.0,0
2017-05-08,4.676140494623348,4.690985370475844,4.6241832521747295,4.683562755584717,2500,0.0,0
2017-05-09,4.661295433118878,4.683562569045879,4.661295433118878,4.676140308380127,11000,0.0,0
2017-05-10,4.661295508510104,4.772631897805342,4.661295508510104,4.735519886016846,62000,0.0,0
2017-05-11,4.683562197444572,4.683562197444572,4.616760087104265,4.62418270111084,139500,0.0,0
2017-05-12,4.661295083707591,4.661295083707591,4.6390275955200195,4.6390275955200195,6500,0.0,0
2017-05-15,4.6390275955200195,4.6390275955200195,4.6390275955200195,4.6390275955200195,0,0.0,0
2017-05-16,4.624182840264032,4.787476460095707,4.624182840264032,4.728096961975098,22500,0.0,0
2017-05-17,4.750364369828494,4.750364369828494,4.668717384338379,4.668717384338379,11000,0.0,0
2017-05-18,4.609337681721111,4.646450042724609,4.609337681721111,4.646450042724609,14500,0.0,0
2017-05-19,4.750364442913165,4.883968313464542,4.676140070384623,4.854278564453125,328500,0.0,0
2017-05-22,4.8245880012303255,5.047261435166669,4.8245880012303255,4.943346977233887,363000,0.0,0
2017-05-23,4.965614962192671,5.010149582678247,4.787476126320667,4.958192348480225,636000,0.0,0
2017-05-24,4.987881488300096,5.106640815734863,4.95819174492382,5.106640815734863,811000,0.0,0
2017-05-25,5.1437529725607085,5.1437529725607085,4.898812405381104,4.973036766052246,15000,0.0,0
2017-05-26,4.869123358112537,4.87654597220701,4.794898986816406,4.794898986816406,78000,0.0,0
2017-05-29,4.780054415573095,4.780054415573095,4.609338173805136,4.661295413970947,66500,0.0,0
2017-05-31,4.683562049798402,4.683562049798402,4.639027428952027,4.646450042724609,101000,0.0,0
2017-06-01,4.6464507436102185,4.6464507436102185,4.401509761112912,4.54253625869751,665500,0.0,0
2017-06-02,4.557380509599749,4.60191513105685,4.453466392866516,4.564803123474121,907500,0.0,0
2017-06-05,4.653872469668495,4.690984832004542,4.564803224777643,4.6390275955200195,40000,0.0,0
2017-06-06,4.527690636986671,4.601915004033069,4.460888883609764,4.475733757019043,138500,0.0,0
2017-06-07,4.527691230920279,4.594493346989857,4.230793369858512,4.423777103424072,1280000,0.0,0
2017-06-08,4.416353580841512,4.468310810872822,4.23079250006784,4.453465938568115,1313500,0.0,0
2017-06-09,4.468311599945257,4.483156474871464,4.423776975166635,4.4608893394470215,682500,0.0,0
2017-06-12,4.453465938568115,4.542535172396356,4.342129219317978,4.453465938568115,464000,0.0,0
2017-06-13,4.490578651428223,4.5276906581601235,4.45346629076662,4.490578651428223,259500,0.0,0
2017-06-14,4.505423524906923,4.564803018821726,4.490578651428223,4.490578651428223,255000,0.0,0
2017-06-15,4.498001936752639,4.549959182739258,4.490579675285855,4.549959182739258,356500,0.0,0
2017-06-16,4.549958892113997,4.639028147604868,4.549958892113997,4.5573811531066895,218000,0.0,0
2017-06-19,4.668717384338379,4.742941755724974,4.609337887229102,4.668717384338379,538000,0.0,0
2017-06-20,4.683562644797251,4.735519886016846,4.579648516287814,4.735519886016846,329500,0.0,0
2017-06-21,4.676139998441898,4.690984872719218,4.661295124164579,4.668717384338379,352000,0.0,0
2017-06-22,4.661295655475095,4.661295655475095,4.646450779505706,4.713252544403076,10000,0.0,0
2017-06-23,4.609338376322233,4.683562755584717,4.609338376322233,4.683562755584717,26000,0.0,0
2017-06-26,4.646450557857628,4.676140308380127,4.646450557857628,4.676140308380127,37500,0.0,0
2017-06-27,4.676139627562304,4.824588358561552,4.676139627562304,4.742941379547119,285000,0.0,0
2017-06-28,4.817166562537367,4.817166562537367,4.765209674835205,4.765209674835205,80000,0.0,0
2017-06-29,4.683562755584717,4.728097383142207,4.676140494623348,4.683562755584717,94000,0.0,0
2017-06-30,4.683561527126536,4.817165374755859,4.705829012029589,4.817165374755859,26000,0.0,0
2017-07-03,4.772631585565555,4.772631585565555,4.720674701674885,4.728096961975098,133500,0.0,0
2017-07-04,4.720674760662733,4.824588883672272,4.720674760662733,4.772631645202637,22500,0.0,0
2017-07-05,4.750364529634899,4.824588903518467,4.750364529634899,4.787476539611816,112000,0.0,0
2017-07-06,4.898813147550894,4.898813147550894,4.794899026868314,4.824588775634766,68000,0.0,0
2017-07-07,4.824588775634766,4.824588775634766,4.824588775634766,4.824588775634766,0,0.0,0
2017-07-10,4.8245890411739,4.854278791574437,4.579648423404599,4.661295413970947,14000,0.0,0
2017-07-11,4.609337763190517,4.77263137584675,4.609337763190517,4.705829620361328,39000,0.0,0
2017-07-12,4.705830058902625,4.705830058902625,4.512846326576643,4.676140308380127,9000,0.0,0
2017-07-13,4.683562792464298,4.713252544403076,4.683562792464298,4.713252544403076,5000,0.0,0
2017-07-14,4.7132521849965885,4.824588923241965,4.7132521849965885,4.802321434020996,12500,0.0,0
2017-07-17,4.802321434020996,4.802321434020996,4.802321434020996,4.802321434020996,0,0.0,0
2017-07-18,4.765209278101863,4.891390887324143,4.765209278101863,4.824588775634766,42000,0.0,0
2017-07-19,4.639027714794183,4.713252087444945,4.639027714794183,4.728096961975098,36500,0.0,0
2017-07-20,4.735519429518547,4.80974379987015,4.661295059166944,4.750364303588867,43000,0.0,0
2017-07-21,4.668717319237246,4.75778656365917,4.668717319237246,4.750364303588867,8000,0.0,0
2017-07-24,4.750364364038728,4.898813106630989,4.750364364038728,4.794898986816406,69000,0.0,0
2017-07-25,4.861701237928907,4.898813247680664,4.82458887424742,4.898813247680664,45500,0.0,0
2017-07-26,4.898813227898186,4.898813227898186,4.7503644816311645,4.883968353271484,21000,0.0,0
2017-07-27,4.883967768636923,4.883967768636923,4.661294675891438,4.809743404388428,422000,0.0,0
2017-07-28,4.809743404388428,4.809743404388428,4.809743404388428,4.809743404388428,0,0.0,0
2017-07-31,4.817166524309386,4.817166524309386,4.683562644797251,4.735519886016846,4500,0.0,0
2017-08-01,4.668717276120143,5.039839478380438,4.668717276120143,4.846856117248535,7500,0.0,0
2017-08-02,4.846856284231135,4.846856284231135,4.846856284231135,4.839433670043945,1000,0.0,0
2017-08-03,4.78747681129906,4.78747681129906,4.49057929891598,4.765209674835205,57000,0.0,0
2017-08-04,4.676140308380127,4.676140308380127,4.609338192739634,4.676140308380127,54500,0.0,0
2017-08-07,4.616760002958104,4.690984725952148,4.601915129145238,4.690984725952148,10000,0.0,0
2017-08-08,4.690985407413873,4.787476924250022,4.690985407413873,4.713252544403076,11000,0.0,0
2017-08-09,4.683562549806478,4.683562549806478,4.56480354820433,4.661295413970947,19000,0.0,0
2017-08-10,4.646450168711446,4.646450168711446,4.549958310629773,4.60933780670166,63000,0.0,0
2017-08-11,4.624182746914112,4.65387249537506,4.460889130378899,4.527690887451172,78000,0.0,0
2017-08-14,4.6241832521747295,4.683562755584717,4.6241832521747295,4.683562755584717,29000,0.0,0
2017-08-15,4.676139933237265,4.75778656365917,4.676139933237265,4.750364303588867,270000,0.0,0
2017-08-16,4.750364303588867,4.7726314377294905,4.676139933237265,4.750364303588867,142500,0.0,0
2017-08-17,4.750364259717728,4.8988129990499605,4.728096771853036,4.846856117248535,168000,0.0,0
2017-08-18,4.765209177659188,4.7726314377294905,4.750364303588867,4.750364303588867,152500,0.0,0
2017-08-21,4.824588714997173,4.832011329060356,4.780054092407227,4.780054092407227,27500,0.0,0
2017-08-22,4.78747681129906,4.817166562537367,4.765209674835205,4.765209674835205,4500,0.0,0
2017-08-23,4.765209674835205,4.765209674835205,4.765209674835205,4.765209674835205,0,0.0,0
2017-08-24,4.82458879559929,5.143753773124234,4.82458879559929,4.839433670043945,488000,0.0,0
2017-08-25,4.928503251062807,5.02499511846396,4.854278873804131,4.861701488494873,1013000,0.0,0
2017-08-28,4.898812347494167,4.898812347494167,4.75036362790603,4.817165374755859,98000,0.0,0
2017-08-29,4.817166269349582,4.817166269349582,4.661295261800138,4.772631645202637,129000,0.0,0
2017-08-30,4.81716623201215,5.195711065221716,4.676140100271436,5.010149955749512,3489000,0.0,0
2017-08-31,5.010149562803853,5.1214862905409895,5.00272694912085,5.069529056549072,4455000,0.0,0
2017-09-01,5.091797295494263,5.158599058856354,4.928503309654147,5.047262668609619,1005000,0.0,0
2017-09-04,5.091796507928727,5.529720448190754,5.047261887932404,5.418384075164795,4502000,0.0,0
2017-09-05,5.529721023339367,5.759817114813976,5.492609013113911,5.618790626525879,3626000,0.0,0
2017-09-06,5.596522808074952,5.641057430083937,5.455496328081639,5.596522808074951,2354000,0.0,0
2017-09-07,5.641057871922385,5.641057871922385,5.529721131214561,5.56683349609375,1622000,0.0,0
2017-09-08,5.500030981702683,5.937955298202637,5.492608721623382,5.878575801849365,3954000,0.0,0
2017-09-11,5.960222164605258,6.524328062478124,5.960222164605258,6.279387474060059,2809000,0.0,0
2017-09-12,6.309077347850171,6.309077347850171,6.027024393238445,6.116093635559082,3130500,0.0,0
2017-09-13,6.1457835859679335,6.353612532772527,6.1457835859679335,6.264542579650879,1481000,0.0,0
2017-09-14,6.264542501825336,6.3090774778328935,6.034447131388005,6.078981399536133,491500,0.0,0
2017-09-15,6.160628652127204,6.190318399767311,6.012179913926671,6.145783424377441,1688000,0.0,0
2017-09-18,6.145783702029911,6.145783702029911,5.804351588743561,5.997334957122803,1505000,0.0,0
2017-09-19,6.06413675562502,6.06413675562502,5.923110278293076,5.989912033081055,376000,0.0,0
2017-09-20,5.989912446029317,5.989912446029317,5.923110686635984,5.982490539550781,1025000,0.0,0
2017-09-21,5.982490229462298,6.012179977415932,5.8266185218111515,5.975067615509033,515000,0.0,0
2017-09-22,6.012180393952747,6.20516341509193,5.937955664996499,6.197741508483887,1421000,0.0,0
2017-09-25,6.197741210482377,6.234852865316611,5.9008430167924075,5.937955379486084,1391000,0.0,0
2017-09-26,5.885998485992973,6.294232729798334,5.848886475063254,6.205163478851318,2027838,0.0,0
2017-09-27,6.220008251212203,6.220008251212203,6.064136896535475,6.13093900680542,789500,0.0,0
2017-09-28,6.130938471969936,6.2348522274498315,6.041869235333151,6.175472736358643,1599500,0.0,0
2017-09-29,6.1754728378737545,6.220007810853916,6.056713853739163,6.160628318786621,2905000,0.0,0
2017-10-03,6.294232242505924,6.3313446044921875,6.086404006386049,6.3313446044921875,4092000,0.0,0
2017-10-04,6.383302349377216,6.665354608457264,6.383302349377216,6.576285362243652,3093500,0.0,0
2017-10-06,6.61339718054896,6.732156165721204,6.539173168746001,6.5688629150390625,3480500,0.0,0
2017-10-09,6.5762849708744,6.977096908912173,6.5688630650262105,6.888027667999268,1672000,0.0,0
2017-10-10,6.88802750925646,7.25172778609317,6.813803497469323,7.147813320159912,2767000,0.0,0
2017-10-11,7.377908684483541,7.496668377611651,7.23688256644178,7.400176525115967,2723000,0.0,0
2017-10-12,7.422445044999211,7.4372902748617795,7.259151055808563,7.318530559539795,1169000,0.0,0
2017-10-13,7.34821916678997,7.793566083263051,7.34821916678997,7.778720855712891,3971000,0.0,0
2017-10-16,7.927170445936402,8.001394461477503,7.674807235805929,7.7935662269592285,2133500,0.0,0
2017-10-17,7.793567117796479,8.164689361501072,7.659962883547783,8.12015438079834,1534838,0.0,0
2017-10-18,8.164688443794534,8.669414865016847,7.942014981028252,8.149843215942383,2037000,0.0,0
2017-10-19,8.016241326926036,8.238914834757786,7.556049788265522,7.630273818969727,1447500,0.0,0
2017-10-20,7.719341462764026,8.01623964693767,7.615427699983758,7.763876438140869,1072000,0.0,0
2017-10-23,7.793565418247813,7.912324397077903,7.511512489596676,7.80841064453125,549000,0.0,0
2017-10-24,7.839376371396428,7.949127909739607,7.596355374929815,7.635552406311035,805500,0.5595,0
2017-10-25,7.682589070117501,8.121593732626389,7.682589070117501,7.839376449584961,972000,0.0,0
2017-10-26,7.760983358834999,8.090237270797335,7.737465435872343,7.784502029418945,437130,0.0,0
2017-10-27,7.839376696769271,8.027521558062642,7.768822186878952,7.855055809020996,670500,0.0,0
2017-10-30,7.776660858717088,7.855054915819045,7.753142940634956,7.815857887268066,232500,0.0,0
2017-10-31,7.745305056408805,7.996164897062921,7.706108019401275,7.902092456817627,901500,0.0,0
2017-11-01,7.839377051411674,8.62331475655284,7.839377051411674,8.403812408447266,2338000,0.0,0
2017-11-02,8.325419159607984,8.968247901955268,8.325419159607984,8.811460494995117,2423000,0.0,0
2017-11-03,8.795780847186792,9.172070569092366,8.591956874010664,8.764423370361328,2131500,0.0,0
2017-11-06,8.74874502157458,8.74874502157458,8.341097787271263,8.638994216918945,1088000,0.0,0
2017-11-07,8.46652682467199,8.623314206169002,8.105915473418255,8.356775283813477,1108500,0.0,0
2017-11-08,8.435169597702066,8.623314461059728,8.309739688796958,8.372454643249512,1258500,0.0,0
2017-11-09,8.388132554347717,8.591956519104532,8.168630225636402,8.231345176696777,1587000,0.0,0
2017-11-10,8.152951814486796,8.309739953228707,8.121594336262664,8.215666770935059,897000,0.0,0
2017-11-13,8.215665940074096,8.466526488118552,8.215665940074096,8.309739112854004,893000,0.0,0
2017-11-14,8.152951114060714,8.309739239332842,8.07455779904584,8.231345176696777,943500,0.0,0
2017-11-15,8.05887892967587,8.309739489078055,7.949128135832301,8.247024536132812,850500,0.0,0
2017-11-16,8.247024926704734,9.313179924887255,8.215666701125803,8.497884750366211,3775500,0.0,0
2017-11-17,8.560599123258994,8.795780565735136,8.231345253316633,8.435169219970703,1690300,0.0,0
2017-11-20,8.435168971794997,8.497883921593973,8.074557636640307,8.419489860534668,1522500,0.0,0
2017-11-21,8.435169013065643,8.544919801940237,8.152950989968279,8.309739112854004,1068500,0.0,0
2017-11-22,8.32541791909186,8.999604042375108,8.32541791909186,8.576277732849121,3814500,0.0,0
2017-11-23,8.576277212616935,8.76442280914329,7.8236970693750285,7.964806079864502,2298000,0.0,0
2017-11-24,7.996164474951274,8.2313459369601,7.917771152695837,8.105916023254395,1119500,0.0,0
2017-11-27,8.105916351483815,8.1843096769136,7.886413993610616,7.996164798736572,200000,0.0,0
2017-11-28,7.964806384439685,8.184308716556195,7.964806384439685,8.15295124053955,443000,0.0,0
2017-11-29,8.152952439525185,8.262703995534272,8.058879997640815,8.168631553649902,123000,0.0,0
2017-11-30,8.074558150184929,8.701708435682818,8.074558150184929,8.466526985168457,944500,0.0,0
2017-12-01,8.466527993427729,8.70170947194931,8.090237478268937,8.168631553649902,509500,0.0,0
2017-12-04,8.152950950241914,8.152950950241914,7.949127737201746,8.121593475341797,1233500,0.0,0
2017-12-05,8.152950657693907,8.199987242166879,7.996163288819245,8.090235710144043,515080,0.0,0
2017-12-06,8.043200448291897,8.231345304391763,7.886413068208674,8.15295124053955,1104500,0.0,0
2017-12-07,8.30973905047851,8.30973905047851,7.855055291813731,7.964806079864502,1246000,0.0,0
2017-12-08,7.839376804400383,8.21566653215341,7.839376804400383,8.07455825805664,1830892,0.0,0
2017-12-11,8.07455734706715,8.090235710144043,7.996163288819245,8.090235710144043,147000,0.0,0
2017-12-12,8.152951643444224,8.309739778896843,8.137273278471705,8.278382301330566,381500,0.0,0
2017-12-13,8.199988233604257,8.623314554559608,8.199988233604257,8.278382301330566,1365781,0.0,0
2017-12-14,8.278382475004577,8.419490753202542,8.152951814486796,8.215666770935059,147500,0.0,0
2017-12-15,8.152951327675959,8.215666280379526,7.698267546764484,8.058878898620605,2892163,0.0,0
2017-12-18,8.074557677779636,8.231345053075893,7.949127777542629,8.011842727661133,70000,0.0,0
2017-12-19,8.011843486333193,8.199988354504859,7.8393769833652085,7.88641357421875,777000,0.0,0
2017-12-20,7.8864128274241265,8.011842727661133,7.83937624102466,8.011842727661133,1164500,0.0,0
2017-12-21,7.855055030642623,8.137272294617015,7.855055030642623,8.090235710144043,602284,0.0,0
2017-12-22,7.949129050750923,8.058879857226449,7.823698382802568,7.902092456817627,2203500,0.0,0
2017-12-27,7.6982681828605415,7.886413804138638,7.572838267089324,7.713947296142578,718500,0.0,0
2017-12-28,7.690428613379765,7.839376436724198,7.525801678303709,7.596355438232422,1406490,0.0,0
2017-12-29,7.643392136222438,7.917770614519932,7.290620340997951,7.4474077224731445,1632500,0.0,0
2018-01-02,7.494444764318346,7.682589633475814,7.447408173218353,7.502283573150635,841500,0.0,0
2018-01-03,7.408210566981643,7.682589040715524,7.290620219736377,7.439568042755127,1362000,0.0,0
2018-01-04,7.439567713679169,7.604194641113282,7.2827803417469585,7.604194641113281,664300,0.0,0
2018-01-05,7.596356190835662,8.074558679330954,7.4709262750405925,8.027522087097168,821500,0.0,0
2018-01-08,8.027521477798354,8.842816616205667,7.9177706836185235,8.560599327087402,989000,0.0,0
2018-01-09,8.466527053184432,8.827138414171104,8.466527053184432,8.670351028442383,1376000,0.0,0
2018-01-10,8.654672336150725,8.670351449295264,8.466527464143837,8.62331485748291,429500,0.0,0
2018-01-11,8.62331485748291,8.827138842634337,8.529242421479466,8.62331485748291,1022002,0.0,0
2018-01-12,8.764423298594533,8.780101663068274,8.35677535558027,8.560599327087402,652487,0.0,0
2018-01-15,8.560599799951248,8.780102148056823,8.309739973544877,8.403812408447266,225000,0.0,0
2018-01-16,8.403812252924617,8.607635484297171,8.262703229371796,8.294060707092285,202500,0.0,0
2018-01-17,8.294059960936718,8.607634709931592,8.262702486037231,8.419489860534668,708500,0.0,0
2018-01-18,8.388133099001916,8.497884644294501,8.152951643444224,8.278382301330566,1434500,0.0,0
2018-01-19,8.497884790884955,8.70170877239238,8.403812356563355,8.51356315612793,554500,0.0,0
2018-01-22,8.513562207563377,9.234784871293,8.513562207563377,9.109354972839355,1086500,0.0,0
2018-01-23,9.313179614511585,9.720826814376029,9.046640686943451,9.689469337463379,1932733,0.0,0
2018-01-24,9.595396578931167,9.846257133283784,9.375894248041174,9.642433166503906,426508,0.0,0
2018-01-25,9.642432574772757,9.689468411837833,9.266142140146401,9.281821250915527,783000,0.0,0
2018-01-26,9.23478627955812,9.454289382946444,9.125035475485241,9.250465393066406,606032,0.0,0
2018-01-29,9.266142845153809,9.579718355804117,9.156392051904227,9.266142845153809,679500,0.0,0
2018-01-30,9.125035381479613,9.705149118126847,9.093677902407364,9.344537734985352,1172500,0.0,0
2018-01-31,9.532682609418844,9.532682609418844,9.015283830916106,9.344537734985352,782750,0.0,0
2018-02-01,9.203428514846436,9.43860997683088,9.203428514846436,9.219107627868652,685661,0.0,0
2018-02-02,9.219107627868652,9.485646568276273,9.0309627573296,9.219107627868652,727338,0.0,0
2018-02-05,8.968246637957824,9.093677293468899,8.764423411447428,8.780101776123047,695500,0.0,0
2018-02-06,8.544920417747925,8.686029439465926,7.91777087149288,8.07455825805664,1369500,0.0,0
2018-02-07,8.231345304391763,8.63899324022934,8.074557924308541,8.15295124053955,666830,0.0,0
2018-02-08,8.074558041722787,8.3724544420233,8.011843088777544,8.247024536132812,461000,0.0,0
2018-02-09,8.058879250377998,8.356775662533263,7.996164294937022,8.294060707092285,786169,0.0,0
2018-02-12,8.247024646911623,8.607635257380098,8.231345534654096,8.466526985168457,306000,0.0,0
2018-02-13,8.764423459879614,8.842816778933361,8.607635326529667,8.670351028442383,236000,0.0,0
2018-02-14,8.654672022190324,9.077998342659695,8.560599589599489,8.889853477478027,435500,0.0,0
2018-02-15,9.172071130255025,9.23478608774296,8.780102272144799,9.125035285949707,164500,0.0,0
2018-02-20,9.25046529753086,9.25046529753086,8.889853914398634,9.030962944030762,312000,0.0,0
2018-02-21,9.062319904582733,9.328858087628822,8.936889247852465,9.297500610351562,402500,0.0,0
2018-02-22,9.28182165886343,10.034401813571849,9.125034282386922,9.830577850341797,1564000,0.0,0
2018-02-23,10.034403463317432,10.395014862311726,10.00304598286668,10.300942420959473,2049000,0.0,0
2018-02-26,10.316619754702968,11.367096366084672,9.783541892778823,11.320059776306152,5452500,0.0,0
2018-02-27,11.523882865604088,12.543001921228106,11.523882865604088,12.119675636291504,6352400,0.0,0
2018-02-28,12.119677257535281,12.323501245449764,11.900174903884988,12.088319778442383,7507440,0.0,0
2018-03-01,12.088319595347729,13.326941122188487,12.056962116729784,12.590039253234863,6037500,0.0,0
2018-03-02,12.4175714677743,12.637074529892542,11.915851144159785,12.072638511657715,2105500,0.0,0
2018-03-05,12.0726397828118,12.59003852384356,11.617955995382603,12.292142868041992,1744000,0.0,0
2018-03-06,12.401893814106336,12.856577607074145,12.151033996640297,12.527323722839355,1168500,0.0,0
2018-03-07,12.590039068131258,13.154475170198252,12.574361450484677,12.778183937072754,1466500,0.0,0
2018-03-08,12.856577496125873,13.013365628310343,12.637075905358548,12.919292449951172,1903000,0.0,0
2018-03-09,12.91929315731486,12.966330496691079,12.778184129671253,12.903614044189453,1056000,0.0,0
2018-03-12,12.715469167706647,13.170152981477495,12.480288451882684,12.590039253234863,1739710,0.0,0
2018-03-13,12.637074156157658,12.934969771783047,12.433249463006648,12.840896606445312,1650000,0.0,0
2018-03-14,12.919293130182567,13.013366313494913,12.574361613603182,12.762506484985352,1133300,0.0,0
2018-03-15,12.495966685009716,12.746827258917149,12.480288319677458,12.66843318939209,754500,0.0,0
2018-03-16,12.652754215153053,12.966330496691079,12.652754215153053,12.903614044189453,847500,0.0,0
2018-03-19,12.934971231212122,13.436690848975507,12.715468150819438,12.8722562789917,2276000,0.0,0
2018-03-20,12.527324111817425,12.966330301256756,12.480288268392677,12.778183937072754,613000,0.0,0
2018-03-21,12.856578308940664,12.934972379989107,12.590039364521486,12.684112548828125,379000,0.0,0
2018-03-22,12.731147815775758,12.903613568063903,12.558682063487613,12.621397018432617,519000,0.0,0
2018-03-23,12.276463218837858,12.46460807141578,11.994245939970973,12.245105743408203,1368500,0.0,0
2018-03-26,12.119677257535281,12.245107173906879,11.962889862070787,12.088319778442383,787734,0.0,0
2018-03-27,12.088318366259935,12.433250595986127,12.009924303875207,12.245105743408203,681100,0.0,0
2018-03-28,12.151033030653279,12.825219857928364,12.151033030653279,12.51164436340332,922500,0.0,0
2018-03-29,12.511645069682462,12.54300254614297,11.94720974577209,12.495965957641602,596000,0.0,0
2018-04-03,12.464608658334601,12.652753519771668,12.088318935460467,12.307821273803711,402500,0.0,0
2018-04-04,12.307821561362653,12.840898681222447,12.213749128446219,12.339179039001465,749790,0.0,0
2018-04-06,12.417573489816775,12.762506502101274,12.182392026463026,12.276464462280273,515000,0.0,0
2018-04-09,12.401893994279087,12.46460894955671,12.213749128446219,12.339179039001465,394000,0.0,0
2018-04-10,12.276463755830742,12.543002682452247,12.182391325426895,12.292142868041992,810000,0.0,0
2018-04-11,12.292141573775956,12.292141573775956,11.915851144159785,12.072638511657715,817000,0.0,0
2018-04-12,12.009924557980435,12.229427638253432,11.821779701421756,11.962888717651367,441000,0.0,0
2018-04-13,11.97856679164299,12.041281742309614,11.680670402165932,11.931530952453613,781000,0.0,0
2018-04-16,12.04128221070412,12.119676275897447,11.759064921726326,11.774744033813477,254524,0.0,0
2018-04-17,11.837459159075715,11.931531590103107,11.602277707696626,11.712028503417969,596000,0.0,0
2018-04-18,11.931532133263802,11.931532133263802,11.445490843685548,11.759065628051758,511800,0.0,0
2018-04-19,11.759064547833965,11.86881608609071,11.147593400680533,11.837458610534668,1021500,0.0,0
2018-04-20,11.617956051125523,11.790422548170676,11.351417123225165,11.398453712463379,314000,0.0,0
2018-04-23,11.225987303737726,11.492526233735056,11.022164075758498,11.304381370544434,678500,0.0,0
2018-04-24,11.382776163658834,11.88449583084736,11.30438209184999,11.790423393249512,812500,0.0,0
2018-04-25,11.680670519157324,12.339178255373554,11.680670519157324,12.151033401489258,607500,0.0,0
2018-04-26,12.15103386709383,12.307821251338538,11.75906503267145,11.994246482849121,388500,0.0,0
2018-04-27,12.041281742309614,12.056960853786862,11.774743575787053,11.931530952453613,313500,0.0,0
2018-04-30,11.931531219702435,12.715468120594275,11.853137155802651,12.55868148803711,582000,0.0,0
2018-05-02,12.47108221155944,13.920467016177861,12.47108221155944,13.235593795776367,3550500,0.25,0
2018-05-03,13.331156948921487,14.350505233372434,13.331156948921487,14.334577560424805,3205900,0.0,0
2018-05-04,14.318649173411142,14.430141359537986,13.808975816076149,14.095667839050293,2060000,0.0,0
2018-05-07,14.191230233076451,14.41421307694036,14.016030403648895,14.079739570617676,862500,0.0,0
2018-05-08,14.334577389298122,15.099087454299713,14.223086717888677,14.907959938049316,2413500,0.0,0
2018-05-09,15.035377065339198,15.322069075984828,14.844249564557561,15.258359909057617,3095165,0.0,0
2018-05-10,15.274289656930454,15.417635681739892,14.828325427815082,15.385780334472656,3981359,0.0,0
2018-05-11,15.43356183642695,15.927309086443175,15.162798979388251,15.385780334472656,1431000,0.0,0
2018-05-14,15.640614149279198,15.640614149279198,14.509775352157515,14.63719367980957,2082500,0.0,0
2018-05-15,14.68497842245529,15.162797966932768,14.65312307731511,14.78054141998291,1116000,0.0,0
2018-05-16,14.780541929794216,15.019452469746701,14.557560581907712,14.732760429382324,1038500,0.0,0
2018-05-17,14.89203206731553,15.290214726666788,14.89203206731553,15.03537654876709,1120000,0.0,0
2018-05-18,15.369850022558511,15.656542022965851,15.115013363950341,15.146868705749512,1114000,0.0,0
2018-05-21,15.146869606395617,15.831742787391656,15.146869606395617,15.51319694519043,1015000,0.0,0
2018-05-23,15.226506797531957,16.64403620772675,15.226506797531957,15.497269630432129,3535000,0.0,0
2018-05-24,15.815815872528795,16.564398185900437,15.720251364999267,16.365306854248047,2736000,0.0,0
2018-05-25,16.604219149621937,16.64403681265685,16.20603644348686,16.325490951538086,1787500,0.0,0
2018-05-28,16.325490973871826,16.484764664122338,14.589414129716458,15.78396224975586,6297500,0.0,0
2018-05-29,15.67247157794839,15.967125930281412,15.592834732823134,15.78396224975586,661000,0.0,0
2018-05-30,15.608760550861835,15.96712403292174,15.226505562419415,15.417633056640625,1947500,0.0,0
2018-05-31,15.322069673660865,15.768033859547309,14.955742329276461,15.003523826599121,3552000,0.0,0
2018-06-01,15.290215700343484,15.736179881910804,15.162797362752823,15.30614185333252,1060000,0.0,0
2018-06-04,15.210577846123364,16.40512582065222,15.210577846123364,15.967123985290527,1888500,0.0,0
2018-06-05,16.325489807128907,16.325489807128907,15.815816465066746,15.92730712890625,1719378,0.0,0
2018-06-06,15.879525405277818,16.444944071157526,15.768033224089574,16.166215896606445,1966400,0.0,0
2018-06-07,16.365308636961213,16.44494548208647,15.768034576941512,15.78396224975586,1325000,0.0,0
2018-06-08,15.799889472522802,16.046762318327282,15.76803412780148,16.00694465637207,3571000,0.0,0
2018-06-11,15.92730703726425,16.00694387623984,15.76803335931306,15.863597869873047,385000,0.0,0
2018-06-12,16.04676162858377,16.206035307451383,15.768033450038637,15.92730712890625,1256000,0.0,0
2018-06-13,15.927307813515208,16.126399161184146,15.81581714488346,16.00694465637207,456500,0.0,0
2018-06-14,15.927306327051419,16.285671326988595,15.8476694916269,15.967123985290527,861000,0.0,0
2018-06-15,16.046761098614258,16.285671609025282,15.927306602881908,16.086580276489258,713500,0.0,0
2018-06-19,15.847671867292581,16.32549143252154,15.76803501993,15.831744194030762,1395500,0.0,0
2018-06-20,15.831742248984314,15.895451415257932,15.449487251342607,15.672470092773438,996500,0.0,0
2018-06-21,15.672469927947835,15.720251422413952,15.369850252121013,15.43355941772461,555000,0.0,0
2018-06-22,15.24243176773086,15.24243176773086,14.493849459148269,14.939813613891602,2009500,0.0,0
2018-06-25,14.98759643108474,15.306142284024807,14.270867882232979,14.38235855102539,1643000,0.0,0
2018-06-26,14.398286015081997,14.493850529054527,13.474502295448694,13.554139137268066,3261000,0.0,0
2018-06-27,13.554139427092892,14.302721806941047,13.45857491107693,13.904539108276367,1596000,0.0,0
2018-06-28,13.856756581260573,14.430140596905535,13.745265919972427,14.111593246459961,791000,0.0,0
2018-06-29,14.031957851010532,14.398285175493484,14.031957851010532,14.318648338317871,1352500,0.0,0
2018-07-03,14.318649442107882,14.382358612970291,13.77712073030418,14.286795616149902,2745500,0.0,0
2018-07-04,14.270867059600905,14.286794731066381,13.713410709880057,13.808975219726562,598500,0.0,0
2018-07-05,13.729338462452489,14.079739642031221,13.442646450165675,13.601920127868652,690500,0.0,0
2018-07-06,13.570065760222626,13.697484089703433,13.299301430339337,13.490428924560547,1185500,0.0,0
2018-07-09,13.538211284896786,14.095667651265213,13.378937603378265,13.42672061920166,1255000,0.0,0
2018-07-10,13.617847682002955,13.617847682002955,12.94890067173289,12.996682167053223,908175,0.0,0
2018-07-11,12.901120209621917,13.219666068846038,12.773701865932267,13.060392379760742,503000,0.0,0
2018-07-12,13.060391702420276,13.856757068652565,13.044464030548495,13.522283554077148,1243500,0.0,0
2018-07-13,13.55413904931772,14.01603090613724,13.394865366712475,13.761194229125977,952270,0.0,0
2018-07-16,13.761194436866141,13.856757432714788,13.506356237061407,13.777120590209961,710500,0.0,0
2018-07-17,13.649700813531053,13.84082830406395,13.522282486509123,13.57006549835205,505000,0.0,0
2018-07-18,13.506356237061407,14.031958790014693,13.506356237061407,13.777120590209961,604500,0.0,0
2018-07-19,13.665629567841943,14.191230588224602,13.665629567841943,13.793047904968262,601000,0.0,0
2018-07-20,13.76119344501455,13.76119344501455,13.171883283268233,13.617847442626953,474500,0.0,0
2018-07-23,13.617847519955065,13.665629014706814,13.347083184784601,13.410792350769043,253000,0.0,0
2018-07-24,13.378937074538552,14.223085426694448,13.331155579550252,14.111593246459961,570000,0.0,0
2018-07-25,14.207156342295471,15.672468540393835,14.11159184287767,15.656540870666504,1172000,0.0,0
2018-07-26,15.704325725337236,15.927308592452315,15.513198204501391,15.87952709197998,998000,0.0,0
2018-07-27,15.879525484498902,15.879525484498902,14.93981412963956,15.162796974182129,1351000,0.0,0
2018-07-30,15.06723362773122,15.226507317413121,14.557560251063492,14.907959938049316,454000,0.0,0
2018-07-31,14.907958707752769,14.907958707752769,14.509776035354975,14.71683120727539,581500,0.0,0
2018-08-01,14.716830236780893,15.226505056723322,14.573484241139155,14.828322410583496,851500,0.0,0
2018-08-02,14.509775759036065,15.210578099720315,14.430140441230133,14.525703430175781,610500,0.0,0
2018-08-03,14.525703629915148,14.764614143457111,13.713410617975894,13.74526596069336,385000,0.0,0
2018-08-06,14.079740166329119,14.079740166329119,12.152535885300876,12.2003173828125,1521500,0.0,0
2018-08-07,12.264025866364296,12.885191375049896,11.738424866301992,12.773700714111328,1753500,0.0,0
2018-08-08,12.869265132651954,13.219666344580352,12.58257385337047,12.980755805969238,1761000,0.0,0
2018-08-09,13.251519442070814,13.777120471550786,13.092247277379366,13.283374786376953,799000,0.0,0
2018-08-10,13.14002919142722,13.53821189419774,13.060392347083821,13.171884536743164,991500,0.0,0
2018-08-13,13.219664742853947,13.347083073762962,12.741845242471983,13.076318740844727,1229000,0.0,0
2018-08-14,13.092246029725361,13.490428681927929,12.773700211752562,12.821481704711914,2038500,0.0,0
2018-08-15,12.901119589351474,13.697484958596716,12.773701251787948,12.885191917419434,2953500,0.0,0
2018-08-16,12.773701833972643,13.267447534798068,12.423300630229573,13.171884536743164,1698000,0.0,0
2018-08-17,13.522283966257646,13.522283966257646,11.308388393301353,11.626935005187988,2038000,0.0,0
2018-08-20,11.833989000667312,11.849916672447389,11.34024256758282,11.467660903930664,1349000,0.0,0
2018-08-21,11.595079939210803,12.518863632382553,11.403951676213776,12.487009048461914,2215500,0.0,0
2018-08-22,12.487009566177433,12.709991662866823,11.595080419946648,11.626935005187988,1315000,0.0,0
2018-08-23,11.865843651795815,12.646282105545595,11.738425314728063,12.582572937011719,1481500,0.0,0
2018-08-24,12.646282154751221,13.012610254982961,12.21624488573772,12.885191917419434,1412000,0.0,0
2018-08-27,13.474502116078657,13.617848125656048,12.678136746378847,13.42672061920166,2219500,0.0,0
2018-08-28,13.952321615603127,13.952321615603127,10.862423895807824,11.80213451385498,5864000,0.0,0
2018-08-29,11.945480281547637,12.200316951189235,11.276533264265261,11.37209701538086,3397234,0.0,0
2018-08-30,11.34024203840122,11.419878874639041,10.400531471949972,10.846495628356934,6476580,0.0,0
2018-08-31,10.75093296395296,10.846496721384643,10.416459433205453,10.671296119689941,3980665,0.0,0
2018-09-03,11.149116031721428,11.59508100715852,11.05355227115775,11.499516487121582,2724090,0.0,0
2018-09-04,11.738424253016628,11.833987997173939,11.021695792100237,11.70656967163086,1553000,0.0,0
2018-09-05,11.78620814200604,11.78620814200604,10.480168604826575,10.671296119689941,3770000,0.0,0
2018-09-06,10.910204325621027,10.910204325621027,10.145693616525678,10.289039611816406,3298000,0.0,0
2018-09-07,10.464240188341396,10.73500374909604,10.209402778994196,10.289039611816406,1388500,0.0,0
2018-09-10,10.241257714721225,10.35274913263688,9.922711891352428,10.273112297058105,2504500,0.0,0
2018-09-11,10.177548773281423,10.448313108820411,9.715656939528975,10.03420352935791,2993500,0.0,0
2018-09-12,9.89085782593775,10.703150097717288,9.540456642446037,9.715657234191895,5456000,0.0,0
2018-09-13,9.7952935722514,10.034203319764487,9.428965495257504,9.63602066040039,4399500,0.0,0
2018-09-14,9.76343929581061,10.496095472755583,9.651947874284835,10.368677139282227,2490000,0.0,0
2018-09-17,10.273112983622923,10.448313577921208,9.89085797003379,10.352749824523926,1571500,0.0,0
2018-09-18,10.034203634178079,10.5916592228606,10.034203634178079,10.368677139282227,1332500,0.0,0
2018-09-19,10.14569473509984,11.244679048055723,10.14569473509984,10.957987785339355,1983000,0.0,0
2018-09-20,10.957988196204886,11.053551954026801,10.623514664091566,10.703150749206543,1704000,0.0,0
2018-09-21,10.719077660359986,11.101332664489746,10.368677239907704,11.101332664489746,10170352,0.0,0
2018-09-24,10.575731828747038,10.68722325319624,10.448313491932636,10.559804916381836,316500,0.0,0
2018-09-26,10.623512982256074,11.547296587761277,10.607585312070686,11.340241432189941,1271500,0.0,0
2018-09-27,11.292461256604748,11.292461256604748,10.65536880493164,10.65536880493164,1104216,0.0,0
2018-09-28,11.133187756985865,11.133187756985865,10.591659809719324,11.05355167388916,1339500,0.0,0
2018-10-02,11.021697368086162,11.021697368086162,10.687223835972842,10.703150749206543,720000,0.0,0
2018-10-03,10.623514620710717,10.878351307195203,10.527950863279033,10.671296119689941,1080505,0.0,0
2018-10-04,10.591659768435623,10.830569535740963,10.575732096194432,10.750932693481445,520000,0.0,0
2018-10-05,10.512021995894191,10.591658831106093,10.034203263042224,10.241257667541504,624500,0.0,0
2018-10-08,10.241257775376782,10.352749193952762,9.667875289916992,9.667875289916992,1533500,0.0,0
2018-10-09,9.715657016258394,9.986421353935743,9.667875521064257,9.8271484375,1182000,0.0,0
2018-10-10,9.827149208227866,10.320895667639014,9.827149208227866,9.970495223999023,786500,0.0,0
2018-10-11,9.81122111927408,9.81122111927408,9.301547768334045,9.540456771850586,1620500,0.0,0
2018-10-12,9.556384953515577,9.747512470312312,9.158202247119096,9.49267578125,1263500,0.0,0
2018-10-15,9.556384054720747,9.859002974257017,9.492674888447128,9.795293807983398,1153000,0.0,0
2018-10-16,9.843075271671282,10.050130441139116,9.588238607386666,10.03420352935791,895500,0.0,0
2018-10-18,10.05013062502329,10.35274954913478,9.938639202622262,10.161622047424316,1344500,0.0,0
2018-10-19,10.161621678626489,10.830568669808061,9.827148183035703,10.814640998840332,2410500,0.0,0
2018-10-22,10.814642135574081,10.814642135574081,10.320895675773771,10.671296119689941,972500,0.0,0
2018-10-23,10.671295669181534,10.671295669181534,10.2094038146914,10.352749824523926,435500,0.0,0
2018-10-24,10.352750903391991,10.639442193460159,10.209404878621267,10.448314666748047,604000,0.0,0
2018-10-25,10.448313648307296,10.448313648307296,9.903614951884618,10.019157409667969,605500,0.46,0
2018-10-26,10.002651100929485,10.151205578465367,9.656024511391502,9.78807258605957,789000,0.0,0
2018-10-29,9.804578066446703,10.151204623371727,9.490963525082702,9.573493957519531,1233500,0.0,0
2018-10-30,9.639518324151096,9.821084022521973,9.408433420112333,9.821084022521973,967500,0.0,0
2018-10-31,9.90361499786377,10.365784044074266,9.82108455805413,9.90361499786377,1324700,0.0,0
2018-11-01,10.019157407209873,10.36578399340628,9.93662696780364,10.06867504119873,1214840,0.0,0
2018-11-02,10.283253650341052,11.521205530620945,10.283253650341052,11.48819351196289,2633500,0.0,0
2018-11-05,11.191085025337431,11.323133096209139,10.794940025653721,11.290121078491211,1259500,0.0,0
2018-11-06,11.290120705106455,11.438674386389893,10.926987735150139,11.306626319885254,383500,0.0,0
2018-11-07,11.207591170123564,12.01638682302423,11.04253107373627,11.96686840057373,1248000,0.0,0
2018-11-08,12.115422504354942,12.957229363304261,11.884337589525359,11.933856010437012,1945500,0.0,0
2018-11-09,11.669759911944066,11.884337637918733,11.290121306970818,11.76879596710205,684500,0.0,0
2018-11-12,11.653253555297852,11.933856106222715,11.521205481231707,11.653253555297852,487000,0.0,0
2018-11-13,11.455181035119734,11.818313225833728,11.141566476877905,11.785301208496094,292000,0.0,0
2018-11-14,11.851325407436734,11.917349443027131,11.554217247279942,11.884337425231934,941000,0.0,0
2018-11-15,11.950361740501684,12.296988328997818,11.636747957641951,12.14843463897705,1546500,0.0,0
2018-11-16,12.049397842423481,12.313493974728033,11.966867407544031,12.131927490234375,174500,0.0,0
2018-11-19,12.197951897922996,12.511566458200377,11.950361372749425,12.164939880371094,289500,0.0,0
2018-11-20,12.049397874576687,12.049397874576687,10.943494136997499,11.306626319885254,1492500,0.0,0
2018-11-21,11.471686899887702,11.68626541078603,11.306626809607678,11.554217338562012,284500,0.0,0
2018-11-22,11.554217338562012,11.76879584946034,11.108554701271649,11.554217338562012,281000,0.0,0
2018-11-23,11.719277428842036,11.719277428842036,11.389157248281986,11.554217338562012,207000,0.0,0
2018-11-26,11.57072385678608,11.867832022260037,11.257109288584823,11.76879596710205,563500,0.0,0
2018-11-27,11.653253618634988,12.247470742230908,11.636748002821312,12.032892227172852,1004000,0.0,0
2018-11-28,11.653253555297852,11.785301629363998,11.4716870599226,11.653253555297852,889000,0.0,0
2018-11-29,11.488194149435019,11.587230210904622,11.141567540757084,11.339639663696289,323000,0.0,0
2018-11-30,11.339638167688136,11.339638167688136,10.94349397407197,11.207590103149414,667500,0.0,0
2018-12-03,11.389157873895043,11.636748416449668,11.257109794417545,11.40566349029541,371000,0.0,0
2018-12-04,11.455180834068667,11.933855470597408,11.257108733519235,11.801807403564453,713560,0.0,0
2018-12-05,11.570723367444385,11.603735384434257,11.240602410477097,11.521204948425293,443500,0.0,0
2018-12-06,11.686264730636555,11.686264730636555,11.059035637009078,11.207590103149414,611470,0.0,0
2018-12-07,11.059036401111653,11.191085261842582,10.481325685304675,10.56385612487793,1825500,0.0,0
2018-12-10,10.481326503479051,10.481326503479051,9.80457967959834,9.920122146606445,1436500,0.0,0
2018-12-11,9.920122860551245,9.986146907287967,9.01229103731826,9.656025886535645,5781900,0.0,0
2018-12-12,9.705543361706924,9.755060998360783,9.490964837357158,9.606507301330566,839500,0.0,0
2018-12-13,9.507471484539906,10.316266391869517,9.27638655067259,9.969639778137207,1413000,0.0,0
2018-12-14,10.101687141991317,10.101687141991317,9.24337387084961,9.24337387084961,1329500,0.0,0
2018-12-17,9.11132575072361,9.556988393370524,9.11132575072361,9.358916282653809,602500,0.0,0
2018-12-18,9.29289113006395,9.490963217000564,9.243372714795543,9.309396743774414,303500,0.0,0
2018-12-19,9.39192768043703,9.540482147191582,9.30939724622482,9.50747013092041,617000,0.0,0
2018-12-20,9.540482147191582,9.705542228547447,9.29289163162351,9.50747013092041,907500,0.0,0
2018-12-21,9.507471192630003,9.590000848989837,9.078314146111774,9.226868629455566,1485000,0.0,0
2018-12-24,8.995782975665021,9.358915952920366,8.84722929139563,9.160843849182129,684500,0.0,0
2018-12-27,9.160844252438801,9.210361887018818,8.434579053026784,8.58313274383545,935500,0.0,0
2018-12-28,8.451084532355845,9.06180726276863,8.451084532355845,8.979277610778809,911500,0.0,0
2018-12-31,9.078314991170261,9.160845442281111,8.715182737833684,9.061808586120605,167000,0.0,0
2019-01-02,9.160844079128495,9.292892151601858,8.162229547212933,8.48409652709961,1376500,0.0,0
2019-01-03,8.550120829478784,8.550120829478784,8.145723398174141,8.253012657165527,389800,0.0,0
2019-01-04,8.22000043122645,8.31903648617272,8.170482010219015,8.269518852233887,285500,0.0,0
2019-01-07,8.385060426930794,8.665662972937852,8.352048408992822,8.64915657043457,1446500,0.0,0
2019-01-08,8.715180976931812,8.913253075094941,8.583132124421171,8.682168960571289,2395000,0.0,0
2019-01-09,8.731687706583061,9.160844761140217,8.599639624278907,8.781206130981445,1038500,0.0,0
2019-01-10,8.896747483987218,8.896747483987218,8.550120887085374,8.632651329040527,271500,0.0,0
2019-01-11,8.698674233957467,8.698674233957467,8.434578113434114,8.533614158630371,486000,0.0,0
2019-01-14,8.533615482255584,8.632651542813049,8.186988876770139,8.566627502441406,1369000,0.0,0
2019-01-15,8.500601698446454,9.078312325374789,8.500601698446454,8.995781898498535,1147500,0.0,0
2019-01-16,9.07831345482181,9.193855909409686,8.946265385046285,9.04530143737793,552500,0.0,0
2019-01-17,9.078313529698937,9.556988180117576,8.913253441118128,9.42494010925293,881000,0.0,0
2019-01-18,9.523976391462915,9.90361499786377,9.40843393314314,9.90361499786377,1422600,0.0,0
2019-01-21,9.837590634046093,9.870602651459594,9.59000010991055,9.70554256439209,602500,0.0,0
2019-01-22,9.738554581805591,10.052169140768136,9.507470459911088,9.70554256439209,1057000,0.0,0
2019-01-23,9.523976969268968,9.523976969268968,9.309398442400616,9.325904846191406,394500,0.0,0
2019-01-24,9.37542248342647,9.54048337305976,9.111326319323053,9.325904846191406,751000,0.0,0
2019-01-25,9.226868779038707,9.540483367255028,9.160844738053024,9.375422477722168,965000,0.0,0
2019-01-28,9.375421959187552,9.78807258605957,9.375421959187552,9.78807258605957,613000,0.0,0
2019-01-29,9.804578573192575,9.903614624994288,9.639518486856385,9.87060260772705,766500,0.0,0
2019-01-30,9.920120578092504,10.184216704275155,9.854095759478303,10.118192672729492,617500,0.0,0
2019-01-31,10.068675962272232,10.21723045196564,9.672531705848042,9.689037322998047,339500,0.0,0
2019-02-01,9.920120514444555,9.95313253000558,9.325903447277579,9.573493957519531,593970,0.0,0
2019-02-04,9.54048299358808,9.573495012787957,9.24337403372056,9.292892456054688,1734500,0.0,0
2019-02-08,9.408433578917144,10.052169096231149,9.325903929283337,9.87060260772705,950500,0.0,0
2019-02-11,9.72204822412937,9.903614714270192,9.424940066045954,9.540482521057129,1732000,0.0,0
2019-02-12,9.507470459911088,9.821084231805052,9.507470459911088,9.70554256439209,3645000,0.0,0
2019-02-13,9.738554581805591,9.903614668873093,9.60650651215159,9.70554256439209,1269500,0.0,0
2019-02-14,9.771566261089793,9.771566261089793,9.50747013092041,9.50747013092041,497500,0.0,0
2019-02-15,9.573494327617924,9.573494327617924,8.797710751340297,8.94626522064209,1970000,0.0,0
2019-02-18,9.210361852231413,9.3589163295476,9.078313777758629,9.24337387084961,1453500,0.0,0
2019-02-19,9.408434503939397,9.408434503939397,9.210362380861834,9.325904846191406,841000,0.0,0
2019-02-20,9.325904981672666,9.969639784560872,9.325904981672666,9.920122146606445,1924500,0.0,0
2019-02-21,9.98614509792158,10.530843778341199,9.920121063147601,10.36578369140625,1762000,0.0,0
2019-02-22,10.398795784654851,10.77843438090907,10.233734909447167,10.74542236328125,1080000,0.0,0
2019-02-25,10.926988020658252,11.026024073124415,10.646385478469831,10.960000038146973,1272000,0.0,0
2019-02-26,10.96000105118654,11.026025092266625,10.712410503601896,10.794940948486328,1364000,0.0,0
2019-02-27,11.0755438280652,12.363013452400299,10.745423613381503,11.917350769042969,2553500,0.0,0
2019-02-28,12.049398749374133,12.792169570922852,11.570724080008315,12.792169570922852,4822960,0.0,0
2019-03-01,12.676625758834874,13.155300377149608,12.610601727830671,12.874698638916016,3058000,0.0,0
2019-03-04,12.808676026492485,12.825181642537292,12.396025393480258,12.62710952758789,2109000,0.0,0
2019-03-05,12.511567063375303,12.775663216564663,12.396025389889267,12.676627159118652,2428000,0.0,0
2019-03-06,12.693132902537227,12.775662552585345,12.329999923706055,12.329999923706055,2303500,0.0,0
2019-03-07,12.296988392613427,12.577590945425607,12.247470758039873,12.52807331085205,1954500,0.0,0
2019-03-08,12.445543713488146,12.660122243357964,12.263977204593019,12.36301326751709,1636345,0.0,0
2019-03-11,12.214458945989692,12.544579138961593,12.214458945989692,12.46204948425293,784022,0.0,0
2019-03-12,12.280483501077837,13.072772784601202,12.280483501077837,12.594098091125488,1422000,0.0,0
2019-03-13,12.693134208242904,12.693134208242904,12.396026020783586,12.478555679321289,1036615,0.0,0
2019-03-14,12.610602422108153,12.80867531309421,12.396024703065173,12.445542335510254,785000,0.0,0
2019-03-15,12.462048737704333,12.577590404788573,12.230963829398696,12.445542335510254,903500,0.0,0
2019-03-18,12.62710942854863,12.973736020525665,12.06590432019179,12.90771198272705,3423000,0.0,0
2019-03-19,13.023254340574164,13.369881737858023,12.957230299301617,13.13879680633545,1120500,0.0,0
2019-03-20,13.13879564382944,13.287350117083065,12.973735555252404,13.204819679260254,1212978,0.0,0
2019-03-21,13.122288952911266,13.336867456877663,12.74265036399709,12.891204833984375,462000,0.0,0
2019-03-22,12.957228747002441,13.270843299009785,12.874699098833284,13.237832069396973,1815500,0.0,0
2019-03-25,13.039760004221236,13.204820098032924,12.874699910409547,13.122289657592773,582500,0.0,0
2019-03-26,13.20482010114246,13.20482010114246,12.80867587590112,13.072772026062012,611000,0.0,0
2019-03-27,12.973735600265405,13.171807707245069,12.957229197816138,13.039759635925293,1344500,0.0,0
2019-03-28,13.006747618095348,13.155301304795803,12.874699546775572,13.039759635925293,386200,0.0,0
2019-03-29,12.957229404145684,13.105783880280294,12.775662909655454,13.023253440856934,1029150,0.0,0
2019-04-01,13.023253923460583,13.23783323132672,12.808676189731706,13.22132682800293,789000,0.0,0
2019-04-02,13.237832069396973,13.270843299009785,12.924216730321065,13.237832069396973,856300,0.0,0
2019-04-03,13.237833282089536,13.303857321500622,13.0067483570821,13.10578441619873,498900,0.0,0
2019-04-04,12.957228990248517,13.270843548143347,12.957228990248517,13.155301094055176,290000,0.0,0
2019-04-08,13.386384963903618,13.435904169528683,13.072771198963821,13.287349700927734,1150500,0.0,0
2019-04-09,13.28735138073116,13.633977993241967,13.122290489387987,13.452410697937012,838600,0.0,0
2019-04-10,13.386386137489966,13.766025543212889,13.254338059187365,13.76602554321289,1426500,0.0,0
2019-04-11,13.799036235970627,14.294217297305005,13.518433687019053,13.733012199401855,760500,0.0,0
2019-04-12,13.931084191407697,13.931084191407697,13.287350233835243,13.468915939331055,680500,0.0,0
2019-04-15,13.799036607069276,13.799036607069276,13.05626578216091,13.171808242797852,657000,0.0,0
2019-04-16,13.17180791699154,13.17180791699154,12.775662909655454,13.023253440856934,653000,0.0,0
2019-04-17,13.18831369511745,13.402892210606952,12.940723947934222,13.122289657592773,329500,0.0,0
2019-04-18,12.874699754240456,13.369880816737629,12.792169314801395,12.973735809326172,229500,0.0,0
2019-04-23,13.122289084095929,13.122289084095929,12.296987864037856,12.445542335510254,818730,0.0,0
2019-04-24,12.346506401593846,12.858193068473751,12.346506401593846,12.709638595581055,801000,0.0,0
2019-04-25,12.742651036035747,12.858193495127107,12.49506128909065,12.577590942382812,644020,0.0,0
2019-04-26,12.495062029068649,12.709639769990805,12.462050008383036,12.594098091125488,187000,0.0,0
2019-04-29,12.577591101672642,12.825181638821979,12.346506967631951,12.676627159118652,272500,0.0,0
2019-04-30,12.660121494831401,12.874700012014317,12.627109475808538,12.792169570922852,163000,0.0,0
2019-05-02,12.792169570922852,12.858193608968577,12.709639129831386,12.792169570922852,97000,0.0,0
2019-05-03,12.910147118560097,13.651723063740823,12.89329355816616,13.618014335632324,517000,0.32,0
2019-05-06,13.23037262256961,13.23037262256961,12.640483550925161,12.67419147491455,857000,0.0,0
2019-05-07,12.674191173708229,13.028124769015609,12.674191173708229,12.927000999450684,246500,0.0,0
2019-05-08,12.94385525944993,12.94385525944993,12.573068084319733,12.623629570007324,320880,0.0,0
2019-05-09,12.809023053311432,12.825877416981587,12.21913398708096,12.370820045471191,893200,0.0,0
2019-05-10,12.370819524444231,12.825876876788788,12.353965161483938,12.640482902526855,570500,0.0,0
2019-05-14,12.471943855285646,12.640483474209717,12.33711216014639,12.471943855285645,1252100,0.0,0
2019-05-15,12.70789969866349,12.859585762023926,12.42138193616503,12.859585762023926,815820,0.0,0
2019-05-16,12.724753469506188,13.735991165885405,12.724753469506188,13.584306716918945,780200,0.0,0
2019-05-17,13.584306751738591,13.584306751738591,13.179810868489808,13.24722671508789,759500,0.0,0
2019-05-20,12.977562080592808,13.179810417120944,12.43823532627846,12.539359092712402,2190500,0.0,0
2019-05-21,12.455089187725106,12.539359396961544,12.387673341800067,12.505651473999023,1388500,0.0,0
2019-05-22,12.505651170567754,12.724753066338087,12.42138096337601,12.539359092712402,1248000,0.0,0
2019-05-23,12.539359474391313,12.893293069513428,12.387673418293183,12.488797187805176,476500,0.0,0
2019-05-24,12.47194310292026,12.47194310292026,11.882054070440706,12.016885757446289,1144500,0.0,0
2019-05-27,12.202279860508142,12.202279860508142,11.426997600803535,11.696660995483398,508500,0.0,0
2019-05-28,11.679805665265148,11.764075870961443,11.376434371346917,11.477558135986328,1949500,0.0,0
2019-05-29,11.477558823921138,12.016886404650784,11.443850900354304,11.612390518188477,734500,0.0,0
2019-05-30,11.410142292893386,11.528120420136153,11.15733247946474,11.477558135986328,1091500,0.0,0
2019-05-31,11.393289261645721,11.629244723399605,11.376434898261731,11.426997184753418,78500,0.0,0
2019-06-03,11.426997218659809,11.426997218659809,10.904523203449783,11.089917182922363,235500,0.0,0
2019-06-04,11.089916879350735,11.376434620603426,10.988793112495713,11.123624801635742,212246,0.0,0
2019-06-05,11.191040952545512,11.241603239187228,11.089917182922363,11.089917182922363,367400,0.0,0
2019-06-06,11.275310862834159,11.443850474395004,10.98879312135059,11.342726707458496,196670,0.0,0
2019-06-10,11.376434402627726,11.780929462297571,11.14047895115365,11.359580039978027,646000,0.0,0
2019-06-11,11.376435601080614,11.949471132973017,11.376435601080614,11.882055282592773,664000,0.0,0
2019-06-12,11.78093071320384,11.78093071320384,11.123625769617187,11.66295337677002,383500,0.0,0
2019-06-13,11.780930792355178,11.797785156907722,11.410143612462912,11.646099090576172,118000,0.0,0
2019-06-14,11.662952960257531,11.662952960257531,10.988793676307441,11.174187660217285,527500,0.0,0
2019-06-17,11.089917450478353,11.123625374499309,10.280926470315114,10.955085754394531,967730,0.0,0
2019-06-18,11.325873397020866,11.76407723146297,11.207896059794402,11.646099090576172,339500,0.0,0
2019-06-19,11.797784461110298,12.050594288866149,11.662952767283256,11.730368614196777,287500,0.0,0
2019-06-20,12.050594602830873,12.050594602830873,11.595537222478448,11.696660995483398,419500,0.0,0
2019-06-21,11.477558569810952,12.000031775359613,11.477558569810952,11.966323852539062,411000,0.0,0
2019-06-24,11.62924488180204,11.78093013602265,11.56182903466837,11.612390518188477,303500,0.0,0
2019-06-25,11.780929741657614,11.780929741657614,11.44385051727295,11.44385051727295,226225,0.0,0
2019-06-26,11.544974327087402,11.679806017337608,11.477558481962301,11.544974327087402,222180,0.0,0
2019-06-27,11.460705226542691,12.067447848764385,11.42699730308593,11.730368614196777,1152000,0.0,0
2019-06-28,11.73036843299291,12.118009948587744,11.646098223822621,12.067447662353516,1267500,0.0,0
2019-07-02,12.11801025371495,12.471943855285646,11.966324194853138,12.471943855285645,475150,0.0,0
2019-07-03,12.303403895630654,12.758461255953417,12.303403895630654,12.40452766418457,348500,0.0,0
2019-07-04,12.657336993500163,12.657336993500163,12.387672817551953,12.556212425231934,458000,0.0,0
2019-07-05,12.471944167290186,12.522505652402131,12.134864117349181,12.219134330749512,151000,0.0,0
2019-07-08,12.6404830685555,12.6404830685555,11.797784197318467,11.86520004272461,541090,0.0,0
2019-07-09,11.814638467756344,11.848346390194811,11.275310905080616,11.44385051727295,335000,0.0,0
2019-07-10,11.460704500857782,11.578681823656046,11.342726374399279,11.494412422180176,801500,0.0,0
2019-07-11,11.67980632563552,11.898908229905608,11.393289378121121,11.511266708374023,207000,0.0,0
2019-07-12,12.033738918197143,12.033738918197143,11.764075553111338,11.848345756530762,570500,0.0,0
2019-07-15,11.814638214311344,11.966323460200393,11.64609780207424,11.797783851623535,345500,0.0,0
2019-07-16,12.05059467738837,12.05059467738837,11.898908615112305,11.898908615112305,109500,0.0,0
2019-07-17,11.966323076925692,12.050593280345117,11.848345756530762,11.848345756530762,200000,0.0,0
2019-07-18,11.797783473747064,12.033738918197143,11.797783473747064,11.848345756530762,277800,0.0,0
2019-07-19,12.016886782981098,12.33711246877791,11.814639235212686,12.219134330749512,288370,0.0,0
2019-07-22,11.932616645808457,12.219134408807525,11.932616645808457,12.202280044555664,315460,0.0,0
2019-07-23,12.067446934781424,12.370819026575294,11.983177534352192,12.050593376159668,232280,0.0,0
2019-07-24,11.983178597757108,12.623629151762659,11.983178597757108,12.13486385345459,363000,0.0,0
2019-07-25,12.303403184767818,12.404526947479033,12.016885455255931,12.050593376159668,191500,0.0,0
2019-07-26,12.370819461436305,12.438235305613594,12.050593799764057,12.101155281066895,172000,0.0,0
2019-07-29,12.050595010138913,12.455090115830574,12.050595010138913,12.185426712036133,455500,0.0,0
2019-07-30,12.35396610818113,12.471944246963194,12.134864194868863,12.202280044555664,241000,0.0,0
2019-07-31,12.202279623338017,12.303404198037763,12.084302292288802,12.151718139648438,68500,0.0,0
2019-08-01,11.966322872830112,12.471942477402456,11.814637634386575,12.084300994873047,282990,0.0,0
2019-08-02,11.915762199663552,12.151717656031666,11.443850483267063,11.56182861328125,1098500,0.0,0
2019-08-05,11.54497486601189,11.54497486601189,10.95508579180083,11.056209564208984,572500,0.0,0
2019-08-06,10.971939086914062,11.17418661202929,10.55058967442723,10.971939086914062,426310,0.0,0
2019-08-07,10.971939595175218,11.494412794422573,10.820253542482023,11.224748611450195,386500,0.0,0
2019-08-08,11.544974630238894,11.544974630238894,10.93823120452065,11.29216480255127,216460,0.0,0
2019-08-09,11.544973964783916,11.544973964783916,11.123624544144645,11.258456230163574,96000,0.0,0
2019-08-12,11.376434371346917,11.713513586811617,11.342726449800447,11.477558135986328,271500,0.0,0
2019-08-13,11.258457341263226,11.59553739323729,11.039356231689453,11.039356231689453,217000,0.0,0
2019-08-14,11.14047946956408,11.528120988282959,11.02250133650693,11.089917182922363,204420,0.0,0
2019-08-15,10.955086017780856,11.073064156520827,10.853962243286732,11.039356231689453,454000,0.0,0
2019-08-16,11.4438510523332,11.4438510523332,10.971940116130348,11.174187660217285,379500,0.0,0
2019-08-19,11.325872310956855,11.662952336741325,11.292164388744434,11.460704803466797,182500,0.0,0
2019-08-20,11.460705103982988,11.460705103982988,11.039355663449207,11.207895278930664,775000,0.0,0
2019-08-21,11.544974822247111,11.544974822247111,11.140479734147851,11.393289566040039,390110,0.0,0
2019-08-22,11.460704915087787,11.646098087231602,10.98879319585747,11.325872421264648,883000,0.0,0
2019-08-23,11.309019088745117,11.460705145052131,11.174187395876785,11.309019088745117,63500,0.0,0
2019-08-26,11.292164994604088,11.932616354662548,10.820254058310708,10.955085754394531,274810,0.0,0
2019-08-27,10.786546444161823,11.056209844076264,10.466320754933264,10.702276229858398,1049246,0.0,0
2019-08-28,10.601151614600676,10.702275381553115,9.556205219098539,9.606766700744629,3469720,0.0,0
2019-08-29,9.60676752772292,9.657329817381818,8.898901098120655,8.983170509338379,2135026,0.0,0
2019-08-30,9.016878123313793,9.573059272061814,8.797776215122056,9.455081939697266,2164885,0.0,0
2019-09-02,9.455081939697266,9.606767196117442,9.286542319419123,9.455081939697266,1147000,0.0,0
2019-09-03,9.421373665628678,9.438227225200215,8.966316305953354,9.168563842773438,1382450,0.0,0
2019-09-04,9.168564523747877,9.52249814130078,9.168564523747877,9.303396224975586,882525,0.0,0
2019-09-05,9.37081138535402,9.522497439892465,9.337103462529951,9.387665748596191,401000,0.0,0
2019-09-06,9.404519613932607,9.573059233532414,9.337103766092682,9.353958129882812,396500,0.0,0
2019-09-09,9.26968761118348,9.303395533986826,9.01687778832824,9.168563842773438,1034880,0.0,0
2019-09-10,9.16856384840961,9.387665748596191,9.16856384840961,9.387665748596191,1099096,0.0,0
2019-09-11,9.353957945484897,9.792160947805947,9.353957945484897,9.69103717803955,1092500,0.0,0
2019-09-12,9.809015353277701,10.112386663876286,9.691037219548107,10.011262893676758,844000,0.0,0
2019-09-13,10.011262932895534,10.179802550554996,9.910139162299856,10.112386703491211,444000,0.0,0
2019-09-16,10.028116531143583,10.179802589446759,9.943847123822048,9.99440860748291,358860,0.0,0
2019-09-17,9.775307769359069,9.977555316781867,9.623621706961812,9.859577178955078,667831,0.0,0
2019-09-18,9.994408877236944,10.011263241352333,9.859577178955078,9.859577178955078,262000,0.0,0
2019-09-19,9.792160675320899,9.910138805262209,9.52249729678106,9.606766700744629,1042875,0.0,0
2019-09-20,9.505643569135021,9.859577178955078,9.505643569135021,9.859577178955078,309000,0.0,0
2019-09-23,9.876430804132323,9.876430804132323,9.556205142841485,9.623620986938477,359040,0.0,0
2019-09-24,9.589912975989654,9.657328819461688,9.404519004611437,9.42137336730957,277500,0.0,0
2019-09-25,9.488789517068396,9.657329131188739,9.387665748596191,9.387665748596191,229500,0.0,0
2019-09-26,9.404519613932607,9.758453216922353,9.269687918252759,9.353958129882812,1041500,0.0,0
2019-09-27,9.353958504449587,9.674183392682052,9.337104139984547,9.52249813079834,1300860,0.0,0
2019-09-30,9.455081635439711,9.539351041036904,9.33710350321131,9.488789558410645,449000,0.0,0
2019-10-02,9.657329210592858,9.657329210592858,9.269687693098684,9.370811462402344,2143500,0.0,0
2019-10-03,9.438227616289243,9.522497828619626,9.303395919488873,9.337103843688965,475210,0.0,0
2019-10-04,9.387666093993898,9.387666093993898,9.168564185745963,9.235980033874512,306500,0.0,0
2019-10-08,9.438228318798323,9.455082683983031,9.219126393359309,9.25283432006836,550500,0.0,0
2019-10-09,9.421374018058172,9.421374018058172,9.185417745947948,9.235980033874512,407660,0.0,0
2019-10-10,9.438227267357433,9.455081630664525,9.26968765258789,9.26968765258789,778914,0.0,0
2019-10-11,9.370811244522269,9.724744830685939,9.370811244522269,9.606766700744629,956500,0.0,0
2019-10-14,9.69103717803955,9.724745101295015,9.50564319830435,9.69103717803955,1091090,0.0,0
2019-10-15,9.758452946884042,9.758452946884042,9.556205408960915,9.707891464233398,373670,0.0,0
2019-10-16,9.657328576719419,9.825868181163168,9.657328576719419,9.775306701660156,542480,0.0,0
2019-10-17,9.809014970676168,9.893284374058695,9.707891204420982,9.84272289276123,320830,0.0,0
2019-10-18,9.842722543437656,9.859576102051918,9.691036497608168,9.775306701660156,743820,0.0,0
2019-10-21,9.741599544640394,10.112386703491211,9.741599544640394,10.112386703491211,688080,0.0,0
2019-10-22,10.112386700842507,10.182611538725071,9.971936187931277,10.007048606872559,472500,0.48,0
2019-10-23,10.007049122089995,10.165055434033842,9.884156068041353,10.024605751037598,271720,0.0,0
2019-10-24,9.91926801585175,10.024605273076581,9.901711387741226,9.971936225891113,164000,0.0,0
2019-10-25,9.919267940597107,10.094830034639886,9.866598893811226,10.042160987854004,932590,0.0,0
2019-10-28,10.147499875843147,10.533736512974569,10.042161774024777,10.287949562072754,830430,0.0,0
2019-10-29,10.393285939230777,10.410841729937253,10.112386590758408,10.217723846435547,494740,0.0,0
2019-10-30,10.270393329649057,10.393287228422624,10.235280906734635,10.305505752563477,965000,0.0,0
2019-10-31,10.340618208076876,10.340618208076876,9.72615038656431,9.831487655639648,871000,0.0,0
2019-11-01,9.761261786547783,10.042161141308663,9.655924528512454,9.901711463928223,673500,0.0,0
2019-11-04,10.024605089046634,10.35817348270806,9.919267833755566,10.252836227416992,436000,0.0,0
2019-11-05,10.340616930979863,10.340616930979863,10.04216095355351,10.182611465454102,363000,0.0,0
2019-11-06,10.51617972554844,10.51617972554844,9.86659951792761,9.954380989074707,726100,0.0,0
2019-11-07,10.094830111226468,10.094830111226468,9.83148654959134,9.971936225891113,254000,0.0,0
2019-11-08,10.165054949376355,10.165054949376355,9.91926801585175,9.971936225891113,103000,0.0,0
2019-11-11,9.989494151179716,10.059718998448597,9.673482338469753,9.691038131713867,749480,0.0,0
2019-11-12,9.67348229604773,9.778819566489105,9.67348229604773,9.726150512695312,1164240,0.0,0
2019-11-13,9.691038131713867,9.796375402617189,9.480363589907226,9.691038131713867,718500,0.0,0
2019-11-14,9.866599802827185,10.024606120595955,9.515475582392336,9.70859432220459,274500,0.0,0
2019-11-15,9.638368409191484,9.655925038364119,9.304800826372976,9.445250511169434,411000,0.0,0
2019-11-18,9.603256178457809,9.743706703186035,9.480363120396596,9.743706703186035,183160,0.0,0
2019-11-19,9.83148701834469,10.042161542839056,9.726149756097506,10.024605751037598,608672,0.0,0
2019-11-20,9.919267978092403,10.14749911978379,9.901711350048712,10.007048606872559,699750,0.0,0
2019-11-21,9.726150428306589,10.05971886704985,9.673482212115982,9.796375274658203,352403,0.0,0
2019-11-22,9.726150428306589,9.919269174346626,9.726150428306589,9.796375274658203,348500,0.0,0
2019-11-25,9.93682380681617,10.042161064041,9.708593501402088,9.971936225891113,388500,0.0,0
2019-11-26,9.97193694378821,10.007049365390957,9.761262414171721,9.813931465148926,446500,0.0,0
2019-11-27,9.761262215705608,10.0070491619275,9.761262215705608,9.989493370056152,296800,0.0,0
2019-11-28,9.98949365645463,9.98949365645463,9.691037651769678,9.743706703186035,363000,0.0,0
2019-11-29,9.743705821670698,9.743705821670698,9.462805634773522,9.568142890930176,6359000,0.0,0
2019-12-02,9.568143485912708,9.638368327717318,9.427693802303487,9.515475273132324,205000,0.0,0
2019-12-03,9.427693290971476,9.585699595035098,9.427693290971476,9.497918128967285,227000,0.0,0
2019-12-04,9.48036253134542,9.515474951059266,9.217018964918525,9.322356224060059,521000,0.0,0
2019-12-05,9.322356827150811,9.357469249136182,9.146794717223957,9.164350509643555,359300,0.0,0
2019-12-06,9.25213206661277,9.392581755820784,8.971232688196745,9.094125747680664,734400,0.0,0
2019-12-09,9.41013781054954,9.41013781054954,9.164350032307906,9.217019081115723,383500,0.0,0
2019-12-10,9.217019602592893,9.339913498666757,9.041457491877503,9.12923812866211,1495500,0.0,0
2019-12-11,9.129237605637824,9.129237605637824,8.646442038116945,8.743000984191895,1488100,0.0,0
2019-12-12,8.830782297422019,8.953675347142628,8.778113249580247,8.883450508117676,877690,0.0,0
2019-12-13,8.971232334374134,9.111682018042856,8.936119913456954,9.041457176208496,1406000,0.0,0
2019-12-16,9.059013284375952,9.304801076523677,8.883451173660562,9.12923812866211,434600,0.0,0
2019-12-17,9.164350462872791,9.392581623186,9.164350462872791,9.304800987243652,412000,0.0,0
2019-12-18,9.304800589779427,9.77881868248767,9.129237651101747,9.181906700134277,499778,0.0,0
2019-12-19,9.181906739610099,9.39258126235371,8.901007375951954,9.146794319152832,472840,0.0,0
2019-12-20,9.023900507472833,9.146794398715322,8.953675665947452,9.076569557189941,407500,0.0,0
2019-12-23,9.217019686352034,9.217019686352034,9.023900944237058,9.059013366699219,613920,0.0,0
2019-12-24,9.129237535134289,9.427693522519737,9.129237535134289,9.287243843078613,427440,0.0,0
2019-12-27,9.427693268113389,9.427693268113389,9.006344241160122,9.023900032043457,593276,0.0,0
2019-12-30,9.023900855434825,9.32235686199924,8.918563589084945,9.234576225280762,476170,0.0,0
2019-12-31,8.988787969876508,9.252131540746895,8.988787969876508,9.181906700134277,182913,0.0,0
2020-01-02,9.181906660959221,9.269688129923539,9.023900351681904,9.217019081115723,282270,0.0,0
2020-01-03,9.181906819478012,9.3048007107205,8.988788086710143,9.076569557189941,374500,0.0,0
2020-01-06,9.164349864217487,9.164349864217487,8.865894716934495,8.883450508117676,424500,0.0,0
2020-01-07,8.936119634096082,8.936119634096082,8.734222592274387,8.813225746154785,433900,0.0,0
2020-01-08,8.795669993733828,9.006344513582917,8.743000945198492,8.77811336517334,524500,0.0,0
2020-01-09,8.813225669092724,8.988787766655106,8.672775991042817,8.883450508117676,810000,0.0,0
2020-01-10,8.830782146596261,9.041456660072894,8.760556471624616,9.023900032043457,836000,0.0,0
2020-01-13,9.059012566542238,9.129237405263797,8.760556583402556,8.918562889099121,1050000,0.0,0
2020-01-14,9.006344434203486,9.023900225463116,8.760556659399727,8.84833812713623,982720,0.0,0
2020-01-15,8.883451213868645,9.35746933351878,8.883451213868645,9.094125747680664,1375000,0.0,0
2020-01-16,9.059012733481048,9.304800510681975,9.041456942050196,9.252131462097168,704050,0.0,0
2020-01-17,9.269688927021107,9.813931904819206,9.217019873684297,9.796375274658203,1118500,0.0,0
2020-01-20,9.726149798546155,9.796374640350766,9.392581381401182,9.515475273132324,646500,0.0,0
2020-01-21,9.51547551808069,9.51547551808069,9.217019514155137,9.304800987243652,801500,0.0,0
2020-01-22,9.199462126607319,9.199462126607319,8.988787613130686,9.023900032043457,355500,0.0,0
2020-01-23,9.146794004412962,9.146794004412962,8.663997611878875,8.69911003112793,991000,0.0,0
2020-01-24,8.86589460292177,8.988787651062012,8.64644177450436,8.988787651062012,743070,0.0,0
2020-01-29,8.93611907583363,8.953674866073563,8.383097870365637,8.42698860168457,887500,0.0,0
2020-01-30,8.462102504741779,8.462102504741779,7.830078039383808,7.900302886962891,1829000,0.0,0
2020-01-31,8.084642789197884,8.216314160458507,7.9354147886245565,7.988083839416504,878000,0.0,0
2020-02-03,7.917858600616456,8.023195859788007,7.856411238240127,7.917858600616455,1052619,0.0,0
2020-02-04,7.917858821149567,8.084642610196692,7.8564114570617685,7.856411457061768,1837120,0.0,0
2020-02-05,8.09342110638629,8.09342110638629,7.794965105146263,7.935414791107178,1294500,0.0,0
2020-02-06,7.93541453261438,7.988083581707132,7.891523797894775,7.979305267333984,760000,0.0,0
2020-02-07,7.979306049775915,8.023196788799396,7.86519046317335,7.900302886962891,1179500,0.0,0
2020-02-10,7.900302172261867,7.900302172261867,7.619402807357099,7.636958599090576,1160500,0.0,0
2020-02-11,7.6896278641803795,7.838855865256536,7.6369588132109625,7.733518600463867,1614500,0.0,0
2020-02-12,7.9003023965018135,7.9003023965018135,7.654515445233794,7.680849552154541,1261830,0.0,0
2020-02-13,7.733518562421483,7.7861867759856525,7.6369587756435715,7.715961933135986,1163000,0.0,0
2020-02-14,7.724740326532984,7.742296118851303,7.6369588535028825,7.698406219482422,1724500,0.0,0
2020-02-17,7.698405768055859,7.944192706122814,7.654515034114516,7.917858600616455,819000,0.0,0
2020-02-18,7.9178587197115275,7.9178587197115275,7.68084925515101,7.707183361053467,865500,0.0,0
2020-02-19,7.707183700030077,7.742296121826375,7.5930681199055625,7.645737171173096,1090000,0.0,0
2020-02-20,7.6106247523418435,7.645737174151822,7.557955701053791,7.5930681228637695,924240,0.0,0
2020-02-21,7.619403064112414,7.733518644236928,7.5579556981092635,7.645737171173096,1329407,0.0,0
2020-02-24,7.645736891999804,7.645736891999804,7.461396475013622,7.470174789428711,759000,0.0,0
2020-02-25,7.461396319924627,7.689627467096214,7.461396319924627,7.557955265045166,1246500,0.0,0
2020-02-26,7.40872724640321,7.40872724640321,7.1014937836243375,7.338502407073975,3573500,0.0,0
2020-02-27,7.268277925641946,7.364837712333932,7.022490975886831,7.075160026550293,4513500,0.0,0
2020-02-28,7.057603012731713,7.505286988966551,6.759147028575154,7.37361478805542,4495000,0.0,0
2020-03-02,7.373615189822709,7.461396661879758,6.96982234379645,7.075160026550293,1489500,0.0,0
2020-03-03,7.04882484256281,7.198052837689399,6.803037901179189,6.811816215515137,1893900,0.0,0
2020-03-04,6.855706847003912,6.952266216278076,6.671366423195548,6.952266216278076,1506700,0.0,0
2020-03-05,6.996156410791551,7.145384828725761,6.952266093585563,7.110272407531738,1890500,0.0,0
2020-03-06,7.022490990302934,7.329725305987152,7.022490990302934,7.294612884521484,2163500,0.0,0
2020-03-09,7.277056120255688,7.277056120255688,6.855706651908913,6.890819072723389,1345220,0.0,0
2020-03-10,6.8908190134270635,7.0576032201471595,6.750369331377749,6.943487644195557,1679000,0.0,0
2020-03-11,6.864484907329352,7.048824905732542,6.864484907329352,6.943487644195557,624000,0.0,0
2020-03-12,6.917153436752926,6.917153436752926,6.530916398203096,6.794259548187256,2545500,0.0,0
2020-03-13,6.5484724618273695,6.57480656695062,6.267572689550013,6.4958038330078125,2995663,0.0,0
2020-03-16,6.408022846872782,6.434356952250404,5.916448135995834,5.951560974121094,3049660,0.0,0
2020-03-17,5.837445382429942,6.144679261805611,5.714551914394286,5.969117164611816,3350755,0.0,0
2020-03-18,6.232460753411706,6.232460753411706,5.635549161950707,5.7847771644592285,2621000,0.0,0
2020-03-19,5.74088605011402,5.74088605011402,5.4160959592975555,5.644326686859131,3120520,0.0,0
2020-03-20,5.66188289667156,5.890114042806195,5.5828801618021595,5.644326686859131,957000,0.0,0
2020-03-23,5.451208391680335,5.530211545307692,5.266867978931874,5.389761447906494,2244960,0.0,0
2020-03-24,5.503877423837377,5.600436794381356,5.3809839458733695,5.459986686706543,852500,0.0,0
2020-03-25,5.530211687727545,5.819889367057194,5.530211687727545,5.740886211395264,2087930,0.0,0
2020-03-26,5.547768150077371,5.828667527729381,5.547768150077371,5.696995735168457,1075940,0.0,0
2020-03-27,5.872558073817767,6.3026854411476245,5.749664600091104,6.144679546356201,2382000,0.0,0
2020-03-30,6.144679633912401,6.188570370155293,5.749664682018693,5.8374457359313965,874450,0.0,0
2020-03-31,5.977895299721459,6.039342245488018,5.872558037184279,5.942782878875732,1089500,0.0,0
2020-04-01,5.951561112801656,6.01300763916328,5.6355489108952055,5.775998592376709,1423360,0.0,0
2020-04-02,5.784777220613912,5.784777220613912,5.389761842155682,5.459986686706543,728890,0.0,0
2020-04-03,5.95156145408849,5.95156145408849,5.4073180699923915,5.4950995445251465,1051240,0.0,0
2020-04-06,5.574101653886186,5.574101653886186,5.310758515852022,5.380983352661133,447500,0.0,0
2020-04-07,5.521433485115471,5.872558116912842,5.521433485115471,5.872558116912842,2107000,0.0,0
2020-04-08,5.696995311134303,6.329019700955176,5.696995311134303,6.188570022583008,2104500,0.0,0
2020-04-09,6.1885701456324265,6.601141293340491,6.065676256040181,6.504581928253174,2223000,0.0,0
2020-04-14,6.5045823560393865,6.724035206578616,6.285129505500156,6.320241928100586,1635000,0.0,0
2020-04-15,6.258794881163403,6.451913189523554,6.100788573932036,6.118344783782959,774700,0.0,0
2020-04-16,6.135901374753657,6.17101421520953,5.925226843456937,6.021786212921143,1087990,0.0,0
2020-04-17,6.109566850206709,6.381688310492808,6.056898220980986,6.2061262130737305,780000,0.0,0
2020-04-20,6.206126512806145,6.232460619404316,6.065676409514618,6.1271233558654785,605000,0.0,0
2020-04-21,6.144679764426386,6.144679764426386,5.670661644656484,5.7321085929870605,1809760,0.0,0
2020-04-22,5.802332981336418,6.004229603034147,5.661882884564265,5.898891925811768,880500,0.0,0
2020-04-23,5.916448107982265,5.934004736248296,5.6267704387616515,5.679439067840576,878500,0.0,0
2020-04-24,5.714552085559441,5.863779663357378,5.70577377115029,5.758442401885986,591500,0.0,0
2020-04-27,5.609214483435543,5.7935549028577835,5.442430274502417,5.688217639923096,649610,0.0,0
2020-04-28,5.811110848046207,6.241238613252056,5.758442218983399,6.223682403564453,951000,0.0,0
2020-04-29,6.293907539440038,6.618697643280029,6.153457855308815,6.618697643280029,1264500,0.0,0
2020-05-04,6.583584923363155,6.583584923363155,5.951560954892437,5.969117164611816,841220,0.0,0
2020-05-05,6.030563728426213,6.030563728426213,5.890114049760945,5.934004783630371,691490,0.0,0
2020-05-06,5.969117539788393,6.513360493869483,5.969117539788393,6.056898593902588,966500,0.0,0
2020-05-07,6.021785793769955,6.188569995390588,5.969117164611816,5.969117164611816,990630,0.0,0
2020-05-08,6.021785793769955,6.092010632647472,5.9603388504655985,5.969117164611816,1132000,0.0,0
2020-05-11,6.056898553472731,6.478248028981437,5.977895396010761,6.092010974884033,2522360,0.0,0
2020-05-12,6.092010632647472,6.092010632647472,5.837445382429942,5.969117164611816,1263000,0.0,0
2020-05-13,5.942783014267594,6.074454804725427,5.890114381799077,6.056898593902588,1993600,0.0,0
2020-05-14,5.934005104521912,5.934005104521912,5.8374457359313965,5.8374457359313965,561500,0.0,0
2020-05-15,5.8374454392813115,5.951561012855188,5.758442285488157,5.863779544830322,2034000,0.0,0
2020-05-18,5.881336161039133,5.934005212921975,5.644327101858704,5.696995735168457,964450,0.0,0
2020-05-19,5.916448528699696,6.214904533276471,5.793555052109943,6.021786212921143,1011500,0.0,0
2020-05-20,6.153457622057864,6.3026851965041795,6.0920106782931045,6.118344783782959,945500,0.0,0
2020-05-21,6.118344698751788,6.206126165359499,6.004229545593262,6.004229545593262,457000,0.0,0
2020-05-22,5.802332962991183,5.969117164611816,5.6443266569437105,5.969117164611816,1665500,0.0,0
2020-05-25,5.775998572741924,5.846223413243955,5.749664466840195,5.793554782867432,381000,0.0,0
2020-05-26,5.775998802164082,6.0656764900274664,5.775998802164082,6.056898593902588,261920,0.0,0
2020-05-27,6.021786055322115,6.250016791587095,5.837445635975403,5.92522668838501,478000,0.0,0
2020-05-28,5.881335754720683,5.951561012855188,5.8023330195005896,5.863779544830322,215500,0.0,0
2020-05-29,5.837445478139022,6.021785892501428,5.819889268131796,5.828667163848877,238500,0.0,0
2020-06-01,5.855001979864913,6.074454825175754,5.855001979864913,6.039342403411865,635500,0.0,0
2020-06-02,6.004229784648038,6.293907463982273,6.004229784648038,6.214904308319092,754500,0.0,0
2020-06-03,6.258795043370431,6.460691671175059,6.214904308319093,6.214904308319092,466000,0.0,0
2020-06-04,6.250016829994123,6.425579354465262,6.118345041284036,6.1271233558654785,370500,0.0,0
2020-06-05,6.127123583680461,6.364132644741711,6.09201116119532,6.337798118591309,553915,0.0,0
2020-06-08,6.337797621157004,7.285834209566613,6.337797621157004,7.136606216430664,3282000,0.0,0
2020-06-09,7.777408171552471,7.794964800183799,6.934709670182798,7.013712406158447,2098000,0.0,0
2020-06-10,7.022490914906834,7.408727546882402,6.934709862185113,7.312168598175049,1454500,0.0,0
2020-06-11,7.373615220101439,7.373615220101439,6.74159121384846,6.76792573928833,1055000,0.0,0
2020-06-12,6.609919842368356,6.899597529341516,6.4519135268753,6.76792573928833,673090,0.0,0
2020-06-15,6.767925599872725,7.031269174554362,6.592363495800349,6.890819072723389,1102000,0.0,0
2020-06-16,7.040047468748399,7.092715681245198,6.767925580361121,6.908375263214111,785700,0.0,0
2020-06-17,6.908375122466922,6.952265856750814,6.785481652474315,6.794259548187256,379000,0.0,0
2020-06-18,6.6274758588758855,6.803037961418755,6.6274758588758855,6.706478595733643,318000,0.0,0
2020-06-19,6.706478289554935,6.706478289554935,6.539694090467069,6.5484724044799805,754500,0.0,0
2020-06-22,6.750369247895351,6.750369247895351,6.495803993042665,6.592363357543945,755060,0.0,0
2020-06-23,6.7240349063784475,6.7240349063784475,6.504582065636873,6.618697643280029,311140,0.0,0
2020-06-24,6.6274759166148245,6.952266018435256,6.618697602124668,6.890819072723389,448000,0.0,0
2020-06-26,6.84692897099472,7.00493486962146,6.794259919546055,6.9347100257873535,350000,0.0,0
2020-06-29,6.715256564885263,6.934709391067311,6.5309161574065,6.583584785461426,472000,0.0,0
2020-06-30,6.583585258207935,6.820594310760498,6.372910730860359,6.820594310760498,1707000,0.0,0
2020-07-02,6.803037810292781,7.250721789691633,6.662588131378503,7.083937168121338,2442500,0.0,0
2020-07-03,7.083937544703155,7.119049966298299,6.9347099622103325,7.040047645568848,1151000,0.0,0
2020-07-06,7.154162108735447,7.329725047006804,6.855706536822564,7.285834312438965,1526500,0.0,0
2020-07-07,7.329725208030911,7.399950050023746,7.048825002913423,7.145384788513184,714270,0.0,0
2020-07-08,7.145384929358879,7.356059459490076,7.040047664293279,7.154162406921387,830000,0.0,0
2020-07-09,7.031269171804925,7.294612746383587,7.031269171804925,7.180497169494629,561410,0.0,0
2020-07-10,6.987378338812587,7.154162125997444,6.987378338812587,7.031269073486328,693500,0.0,0
2020-07-13,7.040047605156705,7.1366065547025315,6.838150554283955,7.075160026550293,1443670,0.0,0
2020-07-14,6.917153781777138,7.0049348361503325,6.715257147432246,6.732813358306885,442500,0.0,0
2020-07-15,6.767925560907175,7.075159869124576,6.671366194936761,6.68892240524292,503200,0.0,0
2020-07-16,6.680144613328939,6.820594297963814,6.346576193748033,6.364132404327393,627020,0.0,0
2020-07-17,6.36413262016786,6.478248202090481,6.232460827070459,6.408023357391357,339500,0.0,0
2020-07-20,6.425578919754126,6.680144165370696,6.2851288259645,6.566028594970703,447000,0.0,0
2020-07-21,6.566028814005738,6.688922283919824,6.557250499725343,6.557250499725342,603500,0.0,0
2020-07-22,6.6011414688202334,6.908375363821988,6.6011414688202334,6.820594310760498,594000,0.0,0
2020-07-23,6.820594425190232,7.004934848998596,6.820594425190232,6.952266216278076,936500,0.0,0
2020-07-24,6.732813061341916,6.846928636280302,6.697700641141345,6.7591471672058105,1134506,0.0,0
2020-07-27,6.785481691080358,6.873262741574509,6.7591471666455805,6.811816215515137,177370,0.0,0
2020-07-28,6.759147208027128,7.022490779694915,6.759147208027128,6.961043834686279,213000,0.0,0
2020-07-29,6.97860002304487,6.97860002304487,6.732813080925945,6.741590976715088,78000,0.0,0
2020-07-30,6.601141567460551,6.785481990930802,6.601141567460551,6.732813358306885,304000,0.0,0
2020-07-31,6.451913488412203,7.066381698806224,6.451913488412203,6.803038120269775,452130,0.0,0
2020-08-03,6.803037981560966,6.9347097681445025,6.759147246508764,6.925931453704834,178000,0.0,0
2020-08-04,6.785481713453131,6.996156235333718,6.785481713453131,6.978600025177002,767500,0.0,0
2020-08-05,6.99615621226632,6.99615621226632,6.732813060783868,6.811816215515137,368830,0.0,0
2020-08-06,6.908375594540494,6.908375594540494,6.592363792965306,6.627476215362549,551000,0.0,0
2020-08-07,7.022490734245168,7.022490734245168,6.364132227909684,6.5221381187438965,373808,0.0,0
2020-08-10,6.645032417537444,6.645032417537444,6.408023357391358,6.408023357391357,502500,0.0,0
2020-08-11,6.408022943220645,6.609919567967954,6.258794948593538,6.539694309234619,261308,0.0,0
2020-08-12,6.513360572712318,6.732813419940776,6.460691939606258,6.680144786834717,462500,0.0,0
2020-08-13,6.776703574943214,6.864485046577783,6.732813257699008,6.820594310760498,209000,0.0,0
2020-08-14,6.820593796328485,6.917153156699833,6.811815900970934,6.855706214904785,248500,0.0,0
2020-08-17,6.908375102571735,6.908375102571735,6.759147108723936,6.864484786987305,147640,0.0,0
2020-08-18,6.750369621410573,6.969822468328056,6.750369621410573,6.917153835296631,299000,0.0,0
2020-08-19,6.846928775832039,6.917153617664479,6.741591094510305,6.873262882232666,254500,0.0,0
2020-08-20,6.873262725265803,7.145384609011585,6.803037885037111,7.066381454467773,524500,0.0,0
2020-08-21,7.127828161208979,7.127828161208979,6.925931531142989,7.092715740203857,492500,0.0,0
2020-08-24,7.092715738445483,7.189274686899092,7.040047525523932,7.145384788513184,652000,0.0,0
2020-08-25,7.1453848717328015,7.1453848717328015,6.987378556835608,7.022490978240967,561500,0.0,0
2020-08-26,7.013712663603087,7.215609714543518,6.855706767278974,7.022490978240967,1821500,0.0,0
2020-08-27,7.04882506956892,7.057603384187573,6.671366331001551,6.803038120269775,870000,0.0,0
2020-08-28,6.838150262778197,7.215609404528055,6.803037842881428,6.864484786987305,2762167,0.0,0
2020-08-31,6.846928830003497,7.285834513501848,6.846928830003497,7.110272407531738,1565500,0.0,0
2020-09-01,7.0312693953457925,7.0312693953457925,6.7240350757119485,6.9347100257873535,755000,0.0,0
2020-09-02,6.8293724060058585,6.890818931888809,6.697700621356149,6.829372406005859,776030,0.0,0
2020-09-03,6.680144450471889,6.767925501228649,6.522138140536657,6.741590976715088,1594680,0.0,0
2020-09-04,6.671365832219635,6.671365832219635,6.469469215389229,6.583584785461426,1826000,0.0,0
2020-09-07,6.504582309566106,6.592363784013102,6.408023357391358,6.408023357391357,410500,0.0,0
2020-09-08,6.416800756850675,6.49580391030666,6.346575917588937,6.425579071044922,363000,0.0,0
2020-09-09,6.355354130095619,6.416801076799987,6.285129287332387,6.329020023345947,341000,0.0,0
2020-09-10,6.320241923970591,6.460692032853625,6.320241923970591,6.372910976409912,327360,0.0,0
2020-09-11,6.311463578713741,6.539694309234619,6.302685264407175,6.539694309234619,437000,0.0,0
2020-09-14,6.364132127404371,6.609919483393513,6.364132127404371,6.425579071044922,404500,0.0,0
2020-09-15,6.4519134536606355,6.601141452789307,6.4519134536606355,6.601141452789307,183000,0.0,0
2020-09-16,6.583585143405962,6.715256929988695,6.539694408354027,6.68892240524292,168070,0.0,0
2020-09-17,6.583585481944232,6.715257275297736,6.548473059526377,6.574807167053223,183000,0.0,0
2020-09-18,6.5572508910141565,6.6977009978700695,6.5572508910141565,6.680144786834717,93840,0.0,0
2020-09-21,6.671366194936761,6.794259667079879,6.671366194936761,6.68892240524292,281000,0.0,0
2020-09-22,6.688922581541802,6.803038160826103,6.636253949235145,6.76792573928833,233000,0.0,0
2020-09-23,6.680144529217886,6.7152569499344965,6.645032108501274,6.671366214752197,175500,0.0,0
2020-09-24,6.636253490383492,6.636253490383492,6.469469290324524,6.513360023498535,570500,0.0,0
2020-09-25,6.425578994581737,6.5484724618273695,6.425578994581737,6.4958038330078125,242400,0.0,0
2020-09-28,6.6362536936329155,6.6362536936329155,6.399244648095064,6.5221381187438965,109500,0.0,0
2020-09-29,6.539694388280817,6.539694388280817,6.39046681042304,6.4694695472717285,168000,0.0,0
2020-09-30,6.4782475479603425,6.583584804372775,6.469469233972782,6.566028594970703,205500,0.0,0
2020-10-05,6.566028570413178,6.846928338368792,6.408022686385485,6.8381500244140625,328500,0.0,0
2020-10-06,6.636253793399906,6.934709788035583,6.583585162330034,6.908375263214111,642913,0.0,0
2020-10-07,6.794259879641572,7.1629407261783555,6.794259879641572,6.969822406768799,510610,0.0,0
2020-10-08,6.987378299923962,7.101493874582119,6.987378299923962,7.066381454467773,166000,0.0,0
2020-10-09,6.987378554493243,7.11027244794388,6.943487818464718,7.075160026550293,450500,0.0,0
2020-10-12,6.952266191498864,7.268277986695661,6.952266191498864,7.154162406921387,1673000,0.0,0
2020-10-14,7.215609740884518,7.575512270889827,7.110272476283903,7.514065742492676,1554000,0.0,0
2020-10-15,7.776402169848745,7.973154545124275,7.729556196018831,7.954415798187256,557000,0.54,0
2020-10-16,7.9825238576882045,8.020000457763672,7.8419859372707315,8.020000457763672,1039500,0.0,0
2020-10-19,8.520000457763672,8.520000457763672,8.140000343322754,8.270000457763672,630500,0.54,0
2020-10-20,8.289999961853027,8.449999809265137,8.119999885559082,8.350000381469727,2072000,0.0,0
2020-10-21,8.34000015258789,8.5,8.329999923706055,8.430000305175781,1544000,0.0,0
2020-10-22,8.520000457763672,9.329999923706055,8.390000343322754,9.029999732971191,3491794,0.0,0
2020-10-23,9.029999732971191,9.100000381469727,8.710000038146973,8.8100004196167,1152500,0.0,0
2020-10-27,8.630000114440918,8.720000267028809,8.420000076293945,8.579999923706055,453000,0.0,0
2020-10-28,8.579999923706055,8.6899995803833,8.300000190734863,8.5,641500,0.0,0
2020-10-29,8.5,8.619999885559082,8.279999732971191,8.40999984741211,590500,0.0,0
2020-10-30,8.3100004196167,8.420000076293945,8.3100004196167,8.40999984741211,360500,0.0,0
2020-11-02,8.289999961853027,8.399999618530273,8.109999656677246,8.239999771118164,574000,0.0,0
2020-11-03,8.25,8.579999923706055,8.25,8.470000267028809,553500,0.0,0
2020-11-04,8.449999809265137,8.65999984741211,8.34000015258789,8.600000381469727,455000,0.0,0
2020-11-05,8.670000076293945,8.979999542236328,8.470000267028809,8.890000343322754,854500,0.0,0
2020-11-06,8.920000076293945,9.5,8.800000190734863,9.5,1943000,0.0,0
2020-11-09,9.59000015258789,10.260000228881836,9.59000015258789,9.729999542236328,1724500,0.0,0
2020-11-10,9.800000190734863,10.399999618530273,9.5600004196167,10.100000381469727,1364500,0.0,0
2020-11-11,10.100000381469727,10.119999885559082,9.649999618530273,9.760000228881836,590200,0.0,0
2020-11-12,9.760000228881836,9.800000190734863,9.579999923706055,9.649999618530273,488800,0.0,0
2020-11-13,9.59000015258789,9.699999809265137,9.510000228881836,9.510000228881836,138000,0.0,0
2020-11-16,9.630000114440918,9.710000038146973,9.430000305175781,9.430000305175781,362290,0.0,0
2020-11-17,9.600000381469727,9.600000381469727,9.220000267028809,9.260000228881836,247000,0.0,0
2020-11-18,9.350000381469727,9.609999656677246,9.119999885559082,9.300000190734863,917000,0.0,0
2020-11-19,9.420000076293945,9.640000343322754,9.199999809265137,9.600000381469727,539500,0.0,0
2020-11-20,9.600000381469727,9.600000381469727,9.319999694824219,9.470000267028809,410500,0.0,0
2020-11-23,9.5,9.5,9.100000381469727,9.300000190734863,777000,0.0,0
2020-11-24,9.300000190734863,9.420000076293945,9.010000228881836,9.020000457763672,998794,0.0,0
2020-11-25,9.100000381469727,9.229999542236328,9.020000457763672,9.020000457763672,1409040,0.0,0
2020-11-26,9.100000381469727,9.109999656677246,9.050000190734863,9.100000381469727,536000,0.0,0
2020-11-27,9.100000381469727,9.100000381469727,8.75,8.960000038146973,473500,0.0,0
2020-11-30,9.0,9.149999618530273,8.630000114440918,8.789999961853027,721000,0.0,0
2020-12-01,8.880000114440918,9.149999618530273,8.859999656677246,8.880000114440918,371500,0.0,0
2020-12-02,8.899999618530273,9.149999618530273,8.899999618530273,8.90999984741211,260600,0.0,0
2020-12-03,8.90999984741211,8.90999984741211,8.680000305175781,8.800000190734863,236500,0.0,0
2020-12-04,9.119999885559082,9.130000114440918,8.649999618530273,8.680000305175781,292500,0.0,0
2020-12-07,9.09000015258789,9.09000015258789,8.640000343322754,8.710000038146973,170000,0.0,0
