Date,Open,High,Low,Close,Volume,Dividends,Stock Splits
2020-01-02,5.009799693174084,5.019759286143396,4.940080642700195,4.940080642700195,850000,0.0,0
2020-01-03,4.940080430421097,5.019759070440444,4.900241110411423,4.92016077041626,908000,0.0,0
2020-01-06,4.860402052808932,4.940080697130033,4.860402052808932,4.900241374969482,671000,0.0,0
2020-01-07,4.900241110411423,4.940080430421097,4.86040179040175,4.92016077041626,460000,0.0,0
2020-01-08,4.8803213954763915,4.910200647686264,4.840482075915127,4.870361328125,688000,0.0,0
2020-01-09,4.890281095333576,4.920160823121987,4.870361435115356,4.880321502685547,870000,0.0,0
2020-01-10,4.910200755551796,4.910200755551796,4.8604018424673265,4.880321502685547,712000,0.0,0
2020-01-13,4.89028114728002,4.950040128569463,4.89028114728002,4.930120468139648,1117500,0.0,0
2020-01-14,4.950039919445933,5.059598284642501,4.930120259857661,4.9998393058776855,2476000,0.0,0
2020-01-15,5.049638906271156,5.059598499026223,4.979919857297018,5.019759178161621,1136000,0.0,0
2020-01-16,5.039678788664593,5.338474167111041,5.01975912842964,5.238875865936279,8494730,0.0,0
2020-01-17,5.2388759171499375,5.338474219298342,5.14923720775529,5.199036121368408,2896000,0.0,0
2020-01-20,5.199036174907317,5.218955835542127,5.109397939511754,5.159196853637695,1662000,0.0,0
2020-01-21,5.199036067454125,5.2289157952498755,4.979919804999882,5.059598445892334,2680000,0.0,0
2020-01-22,5.079518107651251,5.159196748567794,5.009799534310356,5.149237155914307,1142000,0.0,0
2020-01-23,5.079518322350278,5.109398051418007,4.979920016994819,4.989880084991455,1532000,0.0,0
2020-01-24,4.99983925483854,5.059598232993327,4.969959528300077,5.039678573608398,636000,0.0,0
2020-01-29,4.96995962702816,4.979919694379552,4.830522008563736,4.870361328125,1090000,0.0,0
2020-01-30,4.860402006859023,4.860402006859023,4.521767296773595,4.581526279449463,2040000,0.0,0
2020-01-31,4.581525961243748,4.730923645018225,4.551646709442139,4.551646709442139,1132005,0.0,0
2020-02-03,4.481927978350114,4.501847639257005,4.282731369281202,4.491888046264648,2194000,0.0,0
2020-02-04,4.481927613639031,4.67116461431667,4.481927613639031,4.591485977172852,1768000,0.0,0
2020-02-05,4.591486399504336,4.711004366213497,4.581526331484148,4.631325721740723,1356000,0.0,0
2020-02-06,4.730923704435477,4.730923704435477,4.65124506540095,4.691084384918213,1164000,0.0,0
2020-02-07,4.691084490280913,4.691084490280913,4.58152612168666,4.611405849456787,1320000,0.0,0
2020-02-10,4.581526228207184,4.581526228207184,4.5018475855305295,4.531727313995361,1602000,0.0,0
2020-02-11,4.581526279449463,4.59148634735653,4.511807703788706,4.581526279449463,1846000,0.0,0
2020-02-12,4.531727208361545,4.711004150205102,4.531727208361545,4.701044082641602,1936000,0.0,0
2020-02-13,4.71100420344688,4.730923863876843,4.5914862408671,4.661204814910889,1078000,0.0,0
2020-02-14,4.730923917859406,4.760803646306379,4.681124528755175,4.711004257202148,582000,0.0,0
2020-02-17,4.691084437148331,4.8006428045016944,4.581526069794968,4.6512451171875,3666000,0.0,0
2020-02-18,4.64128493976911,4.671164666492864,4.481927663701477,4.551646709442139,3107000,0.0,0
2020-02-19,4.561606461480629,4.631325509662819,4.561606461480629,4.611405849456787,746000,0.0,0
2020-02-20,4.621365442098723,4.631325509662819,4.571566529044725,4.611405849456787,631000,0.0,0
2020-02-21,4.571566581726074,4.58152617448278,4.551646921290494,4.571566581726074,468000,0.0,0
2020-02-24,4.5616066219776785,4.5616066219776785,4.481927978350114,4.491888046264648,1035270,0.0,0
2020-02-25,4.481927714648027,4.561606353587559,4.452047987584627,4.511807441711426,774000,0.0,0
2020-02-26,4.45204788724903,4.621365228640713,4.45204788724903,4.591485977172852,1036000,0.0,0
2020-02-27,4.611405794548724,4.611405794548724,4.54168674719668,4.561606407165527,304000,0.0,0
2020-02-28,4.491887832022527,4.531727151936159,4.462008104626225,4.471967697143555,1036000,0.0,0
2020-03-02,4.462008054913143,4.521767034117793,4.432128327849744,4.511807441711426,624800,0.0,0
2020-03-03,4.511807703788706,4.581526279449463,4.511807703788706,4.581526279449463,836000,0.0,0
2020-03-04,4.561606672847781,4.561606672847781,4.511807757486295,4.54168701171875,520000,0.0,0
2020-03-05,4.531727364680662,4.621365601233375,4.511807703788706,4.581526279449463,472000,0.0,0
2020-03-06,4.571566632223502,4.969959845335734,4.55164697156789,4.800642967224121,5672000,0.0,0
2020-03-09,4.701043918294472,4.75084330452668,4.531727049933685,4.551646709442139,2230000,0.0,0
2020-03-10,4.481928021729289,4.730924022936472,4.442088699529914,4.720963954925537,2568000,0.0,0
2020-03-11,4.720963796822896,4.810602506230626,4.6711648832025086,4.750843524932861,1950000,0.0,0
2020-03-12,4.701044189816049,4.701044189816049,4.491887990357968,4.621365547180176,1906000,0.0,0
2020-03-13,4.432128585298704,4.581526279449463,4.292690959055013,4.581526279449463,3172000,0.0,0
2020-03-16,4.551646975606447,4.58152622915529,4.282731319056002,4.352449893951416,2590000,0.0,0
2020-03-17,4.35244973082626,4.372369390752978,4.003855444647613,4.203052043914795,1920000,0.0,0
2020-03-18,4.203052094825296,4.332530123378376,3.9341366825572948,3.983935832977295,1978000,0.0,0
2020-03-19,3.9739761140786274,3.9938960122650338,3.4759841210234668,3.6353416442871094,4954000,0.0,0
2020-03-20,3.8345380576260113,3.8345380576260113,3.5855420736902683,3.685140609741211,4402000,0.0,0
2020-03-23,3.5457028281898393,3.6453013663176246,3.4959036778564863,3.535742998123169,1882000,0.0,0
2020-03-24,3.715020073396058,3.734939732975039,3.635341435080134,3.7050602436065674,1448000,0.0,0
2020-03-25,3.7847390187025245,3.8843375576579824,3.7847390187025245,3.874377727508545,2228000,0.0,0
2020-03-26,3.8444980249678196,4.332530180432802,3.8444980249678196,4.123373508453369,4590000,0.0,0
2020-03-27,4.2229719161987305,4.342490356691322,4.173173001338814,4.2229719161987305,1600000,0.0,0
2020-03-30,4.193092611975933,4.193092611975933,4.063614580033168,4.083534240722656,1524000,0.0,0
2020-03-31,4.163212729553618,4.38232946395874,4.163212729553618,4.38232946395874,2770000,0.0,0
2020-04-01,4.033735062369961,4.163212610913614,3.944096357674851,4.013815402984619,5502000,0.0,0
2020-04-02,3.993895953709355,4.252851539341885,3.924176904731821,4.213012218475342,1784000,0.0,0
2020-04-03,4.163212936970962,4.203052258861809,4.093494361123069,4.133333683013916,692000,0.0,0
2020-04-06,4.133333362733361,4.1532530221352655,4.063614317365626,4.103453636169434,832000,0.0,0
2020-04-07,4.183132279016907,4.203051938443763,4.103453641309483,4.193092346191406,2538000,0.0,0
2020-04-08,4.163212829314007,4.163212829314007,4.083534187592731,4.123373508453369,574000,0.0,0
2020-04-09,4.1731727381327435,4.1731727381327435,4.123373351491544,4.153253078460693,880000,0.0,0
2020-04-14,4.183132543626995,4.193092611431532,4.133333629370823,4.173172950744629,622000,0.0,0
2020-04-15,4.1532533439593395,4.173173004904763,4.093494361123069,4.133333683013916,1346890,0.0,0
2020-04-16,4.133333629907466,4.133333629907466,4.013815665770531,4.083534240722656,1456000,0.0,0
2020-04-17,4.083534293189268,4.183132597916385,4.083534293189268,4.133333683013916,1642000,0.0,0
2020-04-20,4.143293330844552,4.153253398910133,4.093494415283203,4.093494415283203,789000,0.0,0
2020-04-21,4.063614473649295,4.083534133817295,3.944096512641295,3.983935832977295,2442000,0.0,0
2020-04-22,3.9440964590532914,3.9640161189506453,3.874377649412553,3.9341366291046143,1100000,0.0,0
2020-04-23,3.9640161991119385,4.073574568223977,3.9341367086616774,3.9640161991119385,1136000,0.0,0
2020-04-24,3.9540562629699707,3.9938958199634667,3.93413660320376,3.9540562629699707,478000,0.0,0
2020-04-27,3.934136890979673,4.0337354345572765,3.9241770603680215,4.0038557052612305,986000,0.0,0
2020-04-28,4.043695027707835,4.043695027707835,3.954056552202975,4.0038557052612305,394000,0.0,0
2020-04-29,4.013815453569165,4.043694705562663,3.954056237198946,3.973975896835327,508000,0.0,0
2020-05-04,3.9341366817012324,3.9341366817012324,3.8345381434218244,3.8942973613739014,868700,0.0,0
2020-05-05,3.8942974405284043,3.9241769313812256,3.874377779959857,3.9241769313812256,402000,0.0,0
2020-05-06,3.894297388061329,4.023775180012461,3.894297388061329,3.9640161991119385,806000,0.0,0
2020-05-07,3.9640161991119385,4.023775180012461,3.9640161991119385,3.9640161991119385,360000,0.0,0
2020-05-08,3.993896007537842,4.023775261129369,3.993896007537842,3.993896007537842,462000,0.0,0
2020-05-11,4.033735379976149,4.103453955853241,4.023775312038177,4.043694972991943,958000,0.0,0
2020-05-12,4.063614423463919,4.133333470651974,4.033735171042006,4.1134138107299805,1242000,0.0,0
2020-05-13,4.103454001056697,4.382329732403683,4.073574746757989,4.27277135848999,4258000,0.0,0
2020-05-14,4.1930922892521165,4.232931607564838,4.123373244743785,4.1432929039001465,1614000,0.0,0
2020-05-15,4.282731212162897,4.282731212162897,4.123373455831864,4.163212776184082,868000,0.0,0
2020-05-18,4.173172744064567,4.40224906807983,4.173172744064567,4.3325300216674805,2578000,0.0,0
2020-05-19,4.38232946395874,4.452048036333153,4.322570484099749,4.38232946395874,1973000,0.0,0
2020-05-20,4.3823293208220235,4.7508432553770525,4.3823293208220235,4.681124210357666,4859000,0.0,0
2020-05-21,4.76080344019816,5.26875500242871,4.730923713044762,4.960000038146973,14028000,0.0,0
2020-05-22,4.860000133514404,5.28000020980835,4.860000133514404,4.949999809265137,14486000,0.02,0
2020-05-25,4.929999828338623,5.699999809265137,4.860000133514404,5.690000057220459,22012000,0.0,0
2020-05-26,5.679999828338623,5.889999866485596,5.440000057220459,5.760000228881836,16612000,0.0,0
2020-05-27,5.78000020980835,6.650000095367432,5.679999828338623,6.25,33229830,0.0,0
2020-05-28,6.199999809265137,6.599999904632568,6.050000190734863,6.150000095367432,15130000,0.0,0
2020-05-29,6.099999904632568,6.46999979019165,6.099999904632568,6.400000095367432,10236000,0.0,0
2020-06-01,6.599999904632568,7.800000190734863,6.599999904632568,7.400000095367432,23027970,0.0,0
2020-06-02,7.400000095367432,7.639999866485596,7.059999942779541,7.5,14097000,0.0,0
2020-06-03,7.599999904632568,8.0,7.300000190734863,7.429999828338623,18396100,0.0,0
2020-06-04,7.5,7.900000095367432,7.239999771118164,7.699999809265137,15815000,0.0,0
2020-06-05,7.699999809265137,7.849999904632568,7.460000038146973,7.510000228881836,7170522,0.0,0
2020-06-08,7.53000020980835,7.670000076293945,6.920000076293945,7.0,11453000,0.0,0
2020-06-09,7.019999980926514,7.340000152587891,6.960000038146973,7.110000133514404,4401000,0.0,0
2020-06-10,7.119999885559082,7.25,7.019999980926514,7.199999809265137,3518000,0.0,0
2020-06-11,7.260000228881836,7.340000152587891,7.010000228881836,7.019999980926514,4276000,0.0,0
2020-06-12,6.96999979019165,7.139999866485596,6.699999809265137,7.070000171661377,3149000,0.0,0
2020-06-15,7.050000190734863,7.25,6.769999980926514,6.800000190734863,3740000,0.0,0
2020-06-16,6.949999809265137,7.099999904632568,6.789999961853027,6.840000152587891,5083000,0.0,0
2020-06-17,6.860000133514404,6.960000038146973,6.460000038146973,6.630000114440918,9520000,0.0,0
2020-06-18,6.699999809265137,6.75,6.480000019073486,6.559999942779541,5594000,0.0,0
2020-06-19,6.0,6.369999885559082,5.949999809265137,6.28000020980835,110812000,0.0,0
2020-06-22,6.300000190734863,6.449999809265137,5.949999809265137,6.159999847412109,18302000,0.0,0
2020-06-23,6.170000076293945,6.28000020980835,6.099999904632568,6.130000114440918,5992000,0.0,0
2020-06-24,6.150000095367432,6.550000190734863,6.039999961853027,6.449999809265137,21317000,0.0,0
2020-06-26,6.449999809265137,6.579999923706055,6.139999866485596,6.190000057220459,7916000,0.0,0
2020-06-29,6.190000057220459,6.860000133514404,6.190000057220459,6.699999809265137,33650000,0.0,0
2020-06-30,6.820000171661377,6.860000133514404,6.550000190734863,6.639999866485596,15104000,0.0,0
2020-07-02,6.760000228881836,7.480000019073486,6.699999809265137,7.440000057220459,21450000,0.0,0
2020-07-03,7.460000038146973,7.679999828338623,7.210000038146973,7.329999923706055,13108000,0.0,0
2020-07-06,7.349999904632568,7.5,6.900000095367432,7.199999809265137,23815000,0.0,0
2020-07-07,7.170000076293945,7.940000057220459,7.039999961853027,7.590000152587891,28104000,0.0,0
2020-07-08,7.699999809265137,7.78000020980835,7.210000038146973,7.489999771118164,18181000,0.0,0
2020-07-09,7.610000133514404,8.420000076293945,7.460000038146973,8.1899995803833,30611860,0.0,0
2020-07-10,8.220000267028809,8.350000381469727,7.599999904632568,7.710000038146973,18245000,0.0,0
2020-07-13,7.710000038146973,7.949999809265137,7.420000076293945,7.71999979019165,10197000,0.0,0
2020-07-14,7.690000057220459,7.699999809265137,7.179999828338623,7.369999885559082,11573000,0.0,0
2020-07-15,7.369999885559082,7.550000190734863,7.130000114440918,7.300000190734863,6139000,0.0,0
2020-07-16,7.559999942779541,7.559999942779541,6.480000019073486,6.570000171661377,20328500,0.0,0
2020-07-17,6.5,6.829999923706055,6.5,6.699999809265137,7266000,0.0,0
2020-07-20,6.78000020980835,6.960000038146973,6.559999942779541,6.699999809265137,7429000,0.0,0
2020-07-21,6.75,7.400000095367432,6.75,7.269999980926514,17500000,0.0,0
2020-07-22,7.300000190734863,7.380000114440918,6.869999885559082,6.900000095367432,11652000,0.0,0
2020-07-23,7.099999904632568,7.190000057220459,6.869999885559082,7.110000133514404,6213000,0.0,0
2020-07-24,7.039999961853027,7.150000095367432,6.699999809265137,6.78000020980835,6868000,0.0,0
2020-07-27,6.78000020980835,6.920000076293945,6.610000133514404,6.699999809265137,3758000,0.0,0
2020-07-28,6.809999942779541,6.920000076293945,6.679999828338623,6.820000171661377,3421000,0.0,0
2020-07-29,6.880000114440918,7.079999923706055,6.730000019073486,6.730000019073486,9060000,0.0,0
2020-07-30,6.800000190734863,6.860000133514404,6.440000057220459,6.5,14349420,0.0,0
2020-07-31,6.539999961853027,6.570000171661377,6.360000133514404,6.480000019073486,6910560,0.0,0
2020-08-03,6.460000038146973,6.539999961853027,6.369999885559082,6.400000095367432,4346000,0.0,0
2020-08-04,6.449999809265137,6.760000228881836,6.449999809265137,6.630000114440918,8467200,0.0,0
2020-08-05,6.630000114440918,6.980000019073486,6.630000114440918,6.940000057220459,8948000,0.0,0
2020-08-06,7.050000190734863,7.050000190734863,6.659999847412109,6.849999904632568,7195000,0.0,0
2020-08-07,6.789999961853027,6.869999885559082,6.570000171661377,6.650000095367432,5876000,0.0,0
2020-08-10,6.599999904632568,6.599999904632568,6.28000020980835,6.320000171661377,8082000,0.0,0
2020-08-11,6.329999923706055,6.449999809265137,6.150000095367432,6.210000038146973,4551000,0.0,0
2020-08-12,6.210000038146973,6.210000038146973,5.909999847412109,6.119999885559082,6808200,0.0,0
2020-08-13,6.130000114440918,6.260000228881836,6.099999904632568,6.179999828338623,2954000,0.0,0
2020-08-14,6.159999847412109,6.300000190734863,6.130000114440918,6.179999828338623,2086000,0.0,0
2020-08-17,6.179999828338623,6.21999979019165,6.059999942779541,6.110000133514404,3348000,0.0,0
2020-08-18,6.110000133514404,6.340000152587891,6.110000133514404,6.210000038146973,3310000,0.0,0
2020-08-19,6.0,6.179999828338623,6.0,6.119999885559082,2086000,0.0,0
2020-08-20,6.170000076293945,6.170000076293945,6.050000190734863,6.099999904632568,2260000,0.0,0
2020-08-21,6.039999961853027,6.110000133514404,5.989999771118164,6.03000020980835,3167000,0.0,0
2020-08-24,6.03000020980835,6.309999942779541,6.03000020980835,6.300000190734863,4326000,0.0,0
2020-08-25,6.25,6.25,6.010000228881836,6.070000171661377,6106000,0.0,0
2020-08-26,6.070000171661377,6.269999980926514,6.070000171661377,6.099999904632568,3730000,0.0,0
2020-08-27,6.099999904632568,6.170000076293945,6.03000020980835,6.130000114440918,1937000,0.0,0
2020-08-28,6.130000114440918,6.409999847412109,6.059999942779541,6.28000020980835,6830900,0.0,0
2020-08-31,6.460000038146973,6.800000190734863,6.360000133514404,6.639999866485596,13428000,0.0,0
2020-09-01,6.659999847412109,6.869999885559082,6.559999942779541,6.739999771118164,7314000,0.0,0
2020-09-02,6.739999771118164,6.980000019073486,6.630000114440918,6.929999828338623,7159000,0.0,0
2020-09-03,6.96999979019165,7.130000114440918,6.860000133514404,7.070000171661377,8404000,0.0,0
2020-09-04,6.849999904632568,6.929999828338623,6.710000038146973,6.809999942779541,4865500,0.0,0
2020-09-07,6.809999942779541,6.900000095367432,6.380000114440918,6.460000038146973,7436000,0.0,0
2020-09-08,6.460000038146973,6.550000190734863,6.130000114440918,6.190000057220459,6806000,0.0,0
2020-09-09,6.179999828338623,6.25,6.059999942779541,6.199999809265137,3654000,0.0,0
2020-09-10,6.320000171661377,6.360000133514404,6.050000190734863,6.099999904632568,3994000,0.0,0
2020-09-11,6.119999885559082,6.230000019073486,6.059999942779541,6.199999809265137,1738000,0.0,0
2020-09-14,6.199999809265137,6.400000095367432,6.199999809265137,6.340000152587891,2752000,0.0,0
2020-09-15,6.340000152587891,6.420000076293945,6.25,6.400000095367432,2090000,0.0,0
2020-09-16,6.400000095367432,6.599999904632568,6.400000095367432,6.5,2884000,0.0,0
2020-09-17,6.5,6.710000038146973,6.360000133514404,6.610000133514404,4578000,0.0,0
2020-09-18,6.489999771118164,6.610000133514404,6.409999847412109,6.53000020980835,10808990,0.0,0
2020-09-21,6.489999771118164,6.53000020980835,6.369999885559082,6.420000076293945,2082000,0.0,0
2020-09-22,6.460000038146973,6.460000038146973,6.210000038146973,6.28000020980835,2114000,0.0,0
2020-09-23,6.28000020980835,6.420000076293945,6.210000038146973,6.28000020980835,2618000,0.0,0
2020-09-24,6.28000020980835,6.28000020980835,6.059999942779541,6.079999923706055,4160500,0.0,0
2020-09-25,6.119999885559082,6.170000076293945,5.769999980926514,5.860000133514404,5735000,0.0,0
2020-09-28,5.920000076293945,5.929999828338623,5.579999923706055,5.659999847412109,4076000,0.0,0
2020-09-29,5.75,5.75,5.539999961853027,5.639999866485596,1244000,0.0,0
2020-09-30,5.769999980926514,5.769999980926514,5.650000095367432,5.659999847412109,1466000,0.0,0
2020-10-05,5.730000019073486,5.739999771118164,5.599999904632568,5.679999828338623,712000,0.0,0
2020-10-06,5.800000190734863,6.079999923706055,5.78000020980835,6.010000228881836,2767900,0.0,0
2020-10-07,6.0,6.0,5.869999885559082,5.909999847412109,1206000,0.0,0
2020-10-08,5.909999847412109,5.909999847412109,5.789999961853027,5.880000114440918,944000,0.0,0
2020-10-09,5.880000114440918,6.079999923706055,5.869999885559082,5.889999866485596,3766000,0.0,0
2020-10-12,5.96999979019165,6.170000076293945,5.96999979019165,6.079999923706055,3141000,0.0,0
2020-10-14,6.079999923706055,6.079999923706055,5.960000038146973,6.010000228881836,2002000,0.0,0
2020-10-15,6.0,6.0,5.760000228881836,5.889999866485596,3154000,0.0,0
2020-10-16,5.889999866485596,5.920000076293945,5.769999980926514,5.889999866485596,1550000,0.0,0
2020-10-19,5.920000076293945,5.920000076293945,5.679999828338623,5.699999809265137,2650000,0.0,0
2020-10-20,5.679999828338623,5.880000114440918,5.659999847412109,5.809999942779541,2656000,0.0,0
2020-10-21,5.880000114440918,5.880000114440918,5.659999847412109,5.739999771118164,1259000,0.0,0
2020-10-22,5.75,5.75,5.599999904632568,5.710000038146973,2038000,0.0,0
2020-10-23,5.699999809265137,5.699999809265137,5.550000190734863,5.639999866485596,2388200,0.0,0
2020-10-27,5.5,5.670000076293945,5.5,5.579999923706055,1666000,0.0,0
2020-10-28,5.670000076293945,5.670000076293945,5.550000190734863,5.619999885559082,1240000,0.0,0
2020-10-29,5.599999904632568,5.599999904632568,5.239999771118164,5.309999942779541,4026000,0.0,0
2020-10-30,5.320000171661377,5.369999885559082,5.099999904632568,5.21999979019165,3782200,0.0,0
2020-11-02,5.159999847412109,5.309999942779541,5.0,5.210000038146973,1608000,0.0,0
2020-11-03,5.210000038146973,5.389999866485596,5.210000038146973,5.260000228881836,1382000,0.0,0
2020-11-04,5.289999961853027,5.409999847412109,5.289999961853027,5.340000152587891,2556000,0.0,0
2020-11-05,5.400000095367432,5.539999961853027,5.380000114440918,5.46999979019165,3596000,0.0,0
2020-11-06,5.5,5.5,5.239999771118164,5.340000152587891,2438000,0.0,0
2020-11-09,5.409999847412109,5.75,5.409999847412109,5.510000228881836,5582000,0.0,0
2020-11-10,5.650000095367432,5.650000095367432,5.400000095367432,5.480000019073486,2602000,0.0,0
2020-11-11,5.480000019073486,5.489999771118164,5.260000228881836,5.28000020980835,3090000,0.0,0
2020-11-12,5.400000095367432,5.429999828338623,5.230000019073486,5.320000171661377,2474000,0.0,0
2020-11-13,5.300000190734863,5.510000228881836,5.28000020980835,5.420000076293945,2388001,0.0,0
2020-11-16,5.489999771118164,5.489999771118164,5.300000190734863,5.400000095367432,2660000,0.0,0
2020-11-17,5.46999979019165,5.46999979019165,5.170000076293945,5.210000038146973,3962200,0.0,0
2020-11-18,5.25,5.820000171661377,5.170000076293945,5.78000020980835,14920860,0.0,0
2020-11-19,5.849999904632568,6.139999866485596,5.699999809265137,6.090000152587891,19550000,0.0,0
2020-11-20,6.090000152587891,6.25,5.949999809265137,6.039999961853027,8200000,0.0,0
2020-11-23,6.050000190734863,6.110000133514404,5.809999942779541,5.840000152587891,7534000,0.0,0
2020-11-24,5.880000114440918,5.880000114440918,5.670000076293945,5.679999828338623,5534000,0.0,0
2020-11-25,5.78000020980835,5.78000020980835,5.599999904632568,5.679999828338623,5380000,0.0,0
2020-11-26,5.639999866485596,5.849999904632568,5.630000114440918,5.840000152587891,2586000,0.0,0
2020-11-27,5.880000114440918,6.230000019073486,5.800000190734863,6.130000114440918,9024000,0.0,0
2020-11-30,6.179999828338623,6.199999809265137,5.920000076293945,6.03000020980835,4768000,0.0,0
2020-12-01,6.03000020980835,6.340000152587891,5.96999979019165,6.260000228881836,9802000,0.0,0
2020-12-02,6.309999942779541,6.449999809265137,6.179999828338623,6.28000020980835,5180000,0.0,0
2020-12-03,6.300000190734863,6.300000190734863,6.119999885559082,6.199999809265137,2024000,0.0,0
2020-12-04,6.199999809265137,6.28000020980835,6.150000095367432,6.25,2012000,0.0,0
2020-12-07,6.25,6.420000076293945,6.070000171661377,6.070000171661377,3438000,0.0,0
