Date,Open,High,Low,Close,Volume,Dividends,Stock Splits
2020-01-02,3.109897676373628,3.183071667510425,3.100750927481528,3.1373379230499268,3037000,0.0,0
2020-01-03,3.1373379853532373,3.1830717307219465,3.0916042399845285,3.164778232574463,2599000,0.0,0
2020-01-06,3.164778105768903,3.164778105768903,3.064163651913439,3.1098976135253906,2976511,0.0,0
2020-01-07,3.128191120893628,3.2288053569935506,3.128191120893628,3.1830716133117676,2241025,0.0,0
2020-01-08,3.1556313621405527,3.192218357028447,3.0916041210867378,3.146484613418579,2074000,0.0,0
2020-01-09,3.1830716133117676,3.2013651107844807,3.128191120893628,3.1830716133117676,1327000,0.0,0
2020-01-10,3.1830717956900303,3.2288055419921875,3.128191300127441,3.2288055419921875,2612000,0.0,0
2020-01-13,3.2013651157041307,3.219658613204956,3.1647781207024797,3.219658613204956,2621000,0.0,0
2020-01-14,3.201365294210893,3.2562457897734824,3.146484798648304,3.2288055419921875,975000,0.0,0
2020-01-15,3.1922185391814155,3.201365288425317,3.1098977959863037,3.1556315422058105,1333050,0.0,0
2020-01-16,3.1556313766924617,3.2562456130981445,3.100750884107544,3.2562456130981445,2210000,0.0,0
2020-01-17,3.2196586800406735,3.3019794205032538,3.210511931100387,3.2836859226226807,1775000,0.0,0
2020-01-20,3.2928326032082573,3.3111261007090826,3.192218366953718,3.219658613204956,1876000,0.0,0
2020-01-21,3.164778105768903,3.173924854476155,3.1007508648181386,3.1098976135253906,3228000,0.0,0
2020-01-22,3.0184299083771786,3.1281911109398948,3.0184299083771786,3.1098976135253906,872250,0.0,0
2020-01-23,3.036723611149016,3.0641638591264093,2.890375621936253,3.000136613845825,1557000,0.0,0
2020-01-24,2.963549496777635,2.981842994689941,2.899522254084564,2.9818429946899414,198000,0.0,0
2020-01-29,2.881228718964468,2.8903754678025013,2.7989077613464755,2.8354947566986084,1169000,0.0,0
2020-01-30,2.7989079315664234,2.8629353954022796,2.7257339364119675,2.7348806858062744,2032000,0.0,0
2020-01-31,2.734880564628451,2.7714675605845724,2.70744031766136,2.7165870666503906,1004000,0.0,0
2020-02-03,2.588532307058582,2.7623207521883146,2.588532307058582,2.725733757019043,4149404,0.0,0
2020-02-04,2.6982935152565117,2.7897610033361113,2.670853268832632,2.7623207569122314,3616000,0.0,0
2020-02-05,2.8080544417412483,2.8080544417412483,2.725733704205428,2.771467447280884,3247050,0.0,0
2020-02-06,2.7714674526429217,2.835494693072435,2.7531739553773464,2.8080544471740723,1403000,0.0,0
2020-02-07,2.817201372899164,2.817201372899164,2.753174128444829,2.7806143760681152,1192000,0.0,0
2020-02-10,2.689146823528807,2.7897610625520204,2.670853325524586,2.753174066543579,1957025,0.0,0
2020-02-11,2.7714675721664306,2.8354948153572104,2.753174074111922,2.826348066329956,1553000,0.0,0
2020-02-12,2.7989078154516145,2.817201313481309,2.7531740703773786,2.7897610664367676,2552025,0.0,0
2020-02-13,2.7989076985412846,2.844641441705223,2.789760949908497,2.8080544471740723,2601000,0.0,0
2020-02-14,2.808054568275448,2.853788313411719,2.7714675721664306,2.826348066329956,2332000,0.0,0
2020-02-17,2.8537882791001175,2.8903754928449388,2.8263480323482737,2.872081995010376,1844000,0.0,0
2020-02-18,2.8720820893432317,2.8903755877786397,2.7989078775258953,2.8172013759613037,1733000,0.0,0
2020-02-19,2.826348128172319,2.8812288416123693,2.798907880490145,2.853788375854492,1784000,0.0,0
2020-02-20,2.853788313411719,2.853788313411719,2.7989078192481935,2.826348066329956,1337000,0.0,0
2020-02-21,2.7989076985412846,2.81720119580686,2.7531739553773464,2.8080544471740723,2468000,0.0,0
2020-02-24,2.8080546205578116,2.8080546205578116,2.7348806269773718,2.7440273761749268,3244000,0.0,0
2020-02-25,2.744027379237067,2.7989078744836395,2.6982936331982565,2.7806143760681152,1531000,0.0,0
2020-02-26,2.744027382219671,2.8629353401255275,2.744027382219671,2.8172013759613037,3669000,0.0,0
2020-02-27,2.899522336996344,2.899522336996344,2.8080546267435995,2.8172013759613037,1651400,0.0,0
2020-02-28,2.780614195895975,2.8080544417412483,2.7440272014356104,2.771467447280884,2685000,0.0,0
2020-03-02,2.77146759884498,2.9178158027655163,2.77146759884498,2.899522304534912,2319000,0.0,0
2020-03-03,2.9361091777675052,2.981842921424569,2.8812286853790283,2.8812286853790283,1171000,0.0,0
2020-03-04,2.899522192592376,2.9726961826897482,2.881228695068033,2.9544026851654053,1338000,0.0,0
2020-03-05,2.963549438727634,3.0367234289435263,2.945255941173661,2.9909896850585938,1387025,0.0,0
2020-03-06,2.990989735278645,2.990989735278645,2.8903754970424353,2.9086689949035645,1292000,0.0,0
2020-03-09,2.8263479985679516,2.8263479985679516,2.7257337616803916,2.7623207569122314,2541000,0.0,0
2020-03-10,2.753174128444829,2.826348122106926,2.6982936331982565,2.7806143760681152,1831955,0.0,0
2020-03-11,2.8446415643844647,2.881228778569181,2.789761070220939,2.826348066329956,1542025,0.0,0
2020-03-12,2.744027254603679,2.789760998565268,2.7074402594344074,2.725733757019043,2564000,0.0,0
2020-03-13,2.6342662644683537,2.7440272497833558,2.5245050610776594,2.6891467571258545,3974131,0.0,0
2020-03-16,2.707440403755569,2.725733902315347,2.5153584508021973,2.551945447921753,2507000,0.0,0
2020-03-17,2.478771267942647,2.5336517595096595,2.433037524970136,2.4696245193481445,3307000,0.0,0
2020-03-18,2.4604779195909336,2.561092160216734,2.350716711741631,2.3690102100372314,3556000,0.0,0
2020-03-19,2.3232763893608426,2.341569887066385,2.167781440788037,2.23180890083313,5838674,0.0,0
2020-03-20,2.3049829627394893,2.3781569558182984,2.2318089696606807,2.332423210144043,3773869,0.0,0
2020-03-23,2.25010240298463,2.295836147338851,2.213515407501253,2.2683959007263184,1882100,0.0,0
2020-03-24,2.314129775099011,2.4421844845612286,2.314129775099011,2.3964505195617676,4326451,0.0,0
2020-03-25,2.524505075356637,2.5336518241846226,2.4147440894208105,2.4970648288726807,2532000,0.0,0
2020-03-26,2.515358442231984,2.515358442231984,2.4330376989934632,2.4421844482421875,1551000,0.0,0
2020-03-27,2.4696247016795496,2.5153584480285645,2.4513312031399437,2.5153584480285645,2405000,0.0,0
2020-03-30,2.497064954918044,2.606825946394321,2.442184459179906,2.5885324478149414,2239000,0.0,0
2020-03-31,2.744027254603679,2.753174003395997,2.661706515472818,2.725733757019043,8486400,0.0,0
2020-04-01,2.680000003511884,2.753173993589797,2.643413008472927,2.652559757232666,5130000,0.0,0
2020-04-02,2.6159726600891946,2.6525598748258266,2.5885324125934974,2.6342663764953613,977000,0.0,0
2020-04-03,2.606825770249261,2.625119267592536,2.588532272905986,2.6159725189208984,867000,0.0,0
2020-04-06,2.6434131895943485,2.7074404352995423,2.5519454776540784,2.698293685913086,1050000,0.0,0
2020-04-07,2.707440254678355,2.7531739985596055,2.6708532595733545,2.6891467571258545,5424000,0.0,0
2020-04-08,2.670853382594487,2.7440273761749268,2.661706633396932,2.7440273761749268,2712000,0.0,0
2020-04-09,2.7623207569122314,2.7989077521440713,2.7348805104883516,2.7623207569122314,2471000,0.0,0
2020-04-14,2.7714675605845724,2.7989078075516636,2.6982935686723297,2.7165870666503906,2375000,0.0,0
2020-04-15,2.753173993589797,2.753173993589797,2.643413008472927,2.652559757232666,3079000,0.0,0
2020-04-16,2.625119350864748,2.6800000627111507,2.6159726019029637,2.6434130668640137,830100,0.0,0
2020-04-17,2.6617065727162084,2.7440273136174813,2.6617065727162084,2.7165870666503906,1271000,0.0,0
2020-04-20,2.7897610585626333,2.7897610585626333,2.680000070694269,2.7165870666503906,1543000,0.0,0
2020-04-21,2.6800001615791387,2.6800001615791387,2.579385701212043,2.62511944770813,1985000,0.0,0
2020-04-22,2.5976791381835938,2.625119385430258,2.5885323891013723,2.5976791381835938,768139,0.0,0
2020-04-23,2.6251193263046644,2.6434130421327775,2.5702388330474095,2.606825828552246,977000,0.0,0
2020-04-24,2.597679197104631,2.597679197104631,2.5519454506561825,2.5885324478149414,1284000,0.0,0
2020-04-27,2.5976790215776235,2.6617064803547756,2.5976790215776235,2.6159725189208984,817000,0.0,0
2020-04-28,2.6159725189208984,2.652559731683138,2.5976790215776235,2.6159725189208984,170000,0.0,0
2020-04-29,2.6159726984089122,2.6434131643822694,2.5885324505112606,2.62511944770813,911000,0.0,0
2020-05-04,2.5519453218405936,2.5519453218405936,2.487918080044695,2.4970648288726807,1043000,0.0,0
2020-05-05,2.469624524782811,2.542798513699855,2.469624524782811,2.506211519241333,578000,0.0,0
2020-05-06,2.5245050218661618,2.5793855136712396,2.5245050218661618,2.5427985191345215,3061000,0.0,0
2020-05-07,2.5610921382904053,2.5976791345683727,2.5427986401514215,2.5610921382904053,884325,0.0,0
2020-05-08,2.62511944770813,2.62511944770813,2.5885324505112606,2.62511944770813,1230000,0.0,0
2020-05-11,2.652559910918474,2.652559910918474,2.5610921999458722,2.5885324478149414,2239250,0.0,0
2020-05-12,2.5885322623054194,2.5885322623054194,2.5336517705003416,2.5427985191345215,1633000,0.0,0
2020-05-13,2.5427986986418643,2.551945447921753,2.5153584508021973,2.551945447921753,1949000,0.0,0
2020-05-14,2.579385508158377,2.579385508158377,2.4970647706267024,2.506211519241333,1082000,0.0,0
2020-05-15,2.5702387595437464,2.5702387595437464,2.478771273397441,2.506211519241333,1427000,0.0,0
2020-05-18,2.4696246404182096,2.5610921308473027,2.433037644246572,2.4879181385040283,1378000,0.0,0
2020-05-19,2.5519453218405936,2.5519453218405936,2.4787713312167092,2.4970648288726807,1333000,0.0,0
2020-05-20,2.487918075412357,2.533651819467131,2.4513310801685373,2.460477828979492,929000,0.0,0
2020-05-21,2.478771445237086,2.478771445237086,2.4147442004960142,2.4421844482421875,1554000,0.0,0
2020-05-22,2.414744173851933,2.4421844212953334,2.3598634608894313,2.3690102100372314,1954000,0.0,0
2020-05-25,2.378157018419831,2.378157018419831,2.323276522166075,2.359863519668579,977000,0.0,0
2020-05-26,2.3324231230765093,2.4238908290863037,2.3324231230765093,2.4238908290863037,823000,0.0,0
2020-05-27,2.405597306244998,2.44218430103454,2.350716595984994,2.387303590774536,951000,0.0,0
2020-05-28,2.3873036450391747,2.414744109830758,2.3415699005126953,2.3415699005126953,1118000,0.0,0
2020-05-29,2.31412964950785,2.387303640614598,2.304982900619507,2.304982900619507,1420000,0.0,0
2020-06-01,2.3598634373064398,2.606825879904756,2.3598634373064398,2.524505138397217,2006000,0.0,0
2020-06-02,2.5610921382904053,2.579385636429389,2.5062116438734545,2.5610921382904053,1135050,0.0,0
2020-06-03,2.5702389464815307,2.6159726928809754,2.5153584508021973,2.551945447921753,1309000,0.0,0
2020-06-04,2.5793855136712396,2.597679010939599,2.5153582732319824,2.5427985191345215,735000,0.0,0
2020-06-05,2.5427987013664928,2.6159726956840106,2.5245052027871133,2.5885324478149414,1424000,0.0,0
2020-06-08,2.606825828552246,2.6251193263046644,2.5793855819236184,2.606825828552246,1457000,0.0,0
2020-06-09,2.5610921650978002,2.643413125660594,2.551945415932568,2.6342663764953613,2086000,0.0,0
2020-06-10,2.6342664123390946,2.652559910918474,2.5793856985252517,2.5885324478149414,1207000,0.0,0
2020-06-11,2.5427986365100033,2.5885323817919694,2.5153583893408236,2.524505138397217,2052000,0.0,0
2020-06-12,2.4970647706267024,2.5245050164705938,2.478771273397441,2.506211519241333,2292000,0.0,0
2020-06-15,2.5153584480285645,2.5519454451077763,2.4970649494889585,2.5153584480285645,1810000,0.0,0
2020-06-16,2.515358392942946,2.579385636429389,2.515358392942946,2.5610921382904053,1922000,0.0,0
2020-06-17,2.5885322623054194,2.5885322623054194,2.5062115245978025,2.5427985191345215,2316000,0.0,0
2020-06-18,2.5245052000820865,2.561092197201642,2.4970649522424195,2.551945447921753,2120000,0.0,0
2020-06-19,2.5336517705003416,2.5793855136712396,2.5336517705003416,2.5427985191345215,2193000,0.0,0
2020-06-22,2.5153583265286517,2.5519453218405936,2.487918080044695,2.4970648288726807,4824000,0.0,0
2020-06-23,2.4970648875469377,2.4970648875469377,2.405597397117844,2.4879181385040283,2591000,0.0,0
2020-06-24,2.460477828979492,2.487918075412357,2.4513310801685373,2.460477828979492,2179000,0.0,0
2020-06-26,2.4604778950024646,2.524505138397217,2.4238908987768917,2.524505138397217,1134000,0.0,0
2020-06-29,2.478771448135376,2.515358445173053,2.4696246988759567,2.478771448135376,2636000,0.0,0
2020-06-30,2.487918022012072,2.5245050164705938,2.487918022012072,2.506211519241333,5207000,0.0,0
2020-07-02,2.5519453630231985,2.6982935647083885,2.5519453630231985,2.680000066757202,15798000,0.0,0
2020-07-03,2.690000057220459,2.75,2.6500000953674316,2.7200000286102295,7381000,0.25,0
2020-07-06,2.7699999809265137,2.890000104904175,2.7300000190734863,2.8499999046325684,12917000,0.0,0
2020-07-07,2.859999895095825,2.950000047683716,2.809999942779541,2.8299999237060547,7303000,0.0,0
2020-07-08,2.859999895095825,2.890000104904175,2.740000009536743,2.809999942779541,5851439,0.0,0
2020-07-09,2.8399999141693115,2.8499999046325684,2.7799999713897705,2.8299999237060547,3144000,0.0,0
2020-07-10,2.7899999618530273,2.8399999141693115,2.700000047683716,2.7200000286102295,4486000,0.0,0
2020-07-13,2.75,2.7799999713897705,2.609999895095825,2.6600000858306885,5666000,0.0,0
2020-07-14,2.6600000858306885,2.6600000858306885,2.5999999046325684,2.5999999046325684,5617000,0.0,0
2020-07-15,2.619999885559082,2.640000104904175,2.549999952316284,2.569999933242798,2964944,0.0,0
2020-07-16,2.569999933242798,2.5899999141693115,2.509999990463257,2.5399999618530273,6085000,0.0,0
2020-07-17,2.5299999713897705,2.5899999141693115,2.5199999809265137,2.5299999713897705,2745400,0.0,0
2020-07-20,2.559999942779541,2.619999885559082,2.549999952316284,2.609999895095825,2527000,0.0,0
2020-07-21,2.640000104904175,2.6600000858306885,2.5899999141693115,2.5999999046325684,1664000,0.0,0
2020-07-22,2.630000114440918,2.630000114440918,2.5199999809265137,2.5399999618530273,2891000,0.0,0
2020-07-23,2.5399999618530273,2.5999999046325684,2.5199999809265137,2.5799999237060547,2031000,0.0,0
2020-07-24,2.559999942779541,2.5799999237060547,2.5,2.5,4262000,0.0,0
2020-07-27,2.4800000190734863,2.5199999809265137,2.440000057220459,2.4600000381469727,2026000,0.0,0
2020-07-28,2.4700000286102295,2.5199999809265137,2.4700000286102295,2.4800000190734863,1229000,0.0,0
2020-07-29,2.4600000381469727,2.5199999809265137,2.4600000381469727,2.509999990463257,1113000,0.0,0
2020-07-30,2.5,2.5199999809265137,2.490000009536743,2.509999990463257,1638000,0.0,0
2020-07-31,2.5399999618530273,2.5799999237060547,2.5,2.5,2298000,0.0,0
2020-08-03,2.5399999618530273,2.5399999618530273,2.4700000286102295,2.5,2253900,0.0,0
2020-08-04,2.5299999713897705,2.549999952316284,2.4700000286102295,2.549999952316284,2440250,0.0,0
2020-08-05,2.5199999809265137,2.5799999237060547,2.509999990463257,2.549999952316284,1343000,0.0,0
2020-08-06,2.549999952316284,2.5799999237060547,2.5,2.569999933242798,2175000,0.0,0
2020-08-07,2.559999942779541,2.5999999046325684,2.5299999713897705,2.569999933242798,1261000,0.0,0
2020-08-10,2.569999933242798,2.5899999141693115,2.5399999618530273,2.549999952316284,884000,0.0,0
2020-08-11,2.569999933242798,2.5999999046325684,2.5299999713897705,2.5299999713897705,2608000,0.0,0
2020-08-12,2.5299999713897705,2.569999933242798,2.5199999809265137,2.549999952316284,1160000,0.0,0
2020-08-13,2.549999952316284,2.619999885559082,2.549999952316284,2.5799999237060547,1325000,0.0,0
2020-08-14,2.569999933242798,2.609999895095825,2.559999942779541,2.609999895095825,1106000,0.0,0
2020-08-17,2.609999895095825,2.640000104904175,2.5799999237060547,2.619999885559082,1666000,0.0,0
2020-08-18,2.619999885559082,2.619999885559082,2.5399999618530273,2.5399999618530273,2519000,0.0,0
2020-08-19,2.549999952316284,2.5899999141693115,2.5199999809265137,2.549999952316284,972534,0.0,0
2020-08-20,2.549999952316284,2.559999942779541,2.5199999809265137,2.5399999618530273,1048000,0.0,0
2020-08-21,2.549999952316284,2.680000066757202,2.549999952316284,2.619999885559082,2714800,0.0,0
2020-08-24,2.619999885559082,2.690000057220459,2.619999885559082,2.6600000858306885,1283000,0.0,0
2020-08-25,2.640000104904175,2.640000104904175,2.619999885559082,2.619999885559082,509000,0.0,0
2020-08-26,2.619999885559082,2.630000114440918,2.549999952316284,2.569999933242798,1631000,0.0,0
2020-08-27,2.549999952316284,2.569999933242798,2.509999990463257,2.509999990463257,1856500,0.0,0
2020-08-28,2.4800000190734863,2.5999999046325684,2.4800000190734863,2.569999933242798,2582150,0.0,0
2020-08-31,2.549999952316284,2.640000104904175,2.549999952316284,2.5799999237060547,2340000,0.0,0
2020-09-01,2.5799999237060547,2.5799999237060547,2.5199999809265137,2.549999952316284,1067000,0.0,0
2020-09-02,2.559999942779541,2.559999942779541,2.5199999809265137,2.5199999809265137,2594000,0.0,0
2020-09-03,2.509999990463257,2.549999952316284,2.509999990463257,2.509999990463257,699000,0.0,0
2020-09-04,2.4700000286102295,2.5199999809265137,2.4600000381469727,2.5199999809265137,737000,0.0,0
2020-09-07,2.5199999809265137,2.549999952316284,2.5,2.5199999809265137,734000,0.0,0
2020-09-08,2.509999990463257,2.5299999713897705,2.5,2.5,623000,0.0,0
2020-09-09,2.4700000286102295,2.5,2.4700000286102295,2.490000009536743,885000,0.0,0
2020-09-10,2.5199999809265137,2.5199999809265137,2.4700000286102295,2.5,915000,0.0,0
2020-09-11,2.5199999809265137,2.5199999809265137,2.4700000286102295,2.490000009536743,1597000,0.0,0
2020-09-14,2.4800000190734863,2.5,2.4700000286102295,2.490000009536743,560000,0.0,0
2020-09-15,2.490000009536743,2.5,2.4800000190734863,2.490000009536743,2818000,0.0,0
2020-09-16,2.5,2.509999990463257,2.4800000190734863,2.4800000190734863,1338000,0.0,0
2020-09-17,2.490000009536743,2.509999990463257,2.4700000286102295,2.490000009536743,739000,0.0,0
2020-09-18,2.4800000190734863,2.5,2.4700000286102295,2.4700000286102295,1212000,0.0,0
2020-09-21,2.4700000286102295,2.4800000190734863,2.4600000381469727,2.4700000286102295,603000,0.0,0
2020-09-22,2.440000057220459,2.4700000286102295,2.440000057220459,2.440000057220459,1123000,0.0,0
2020-09-23,2.440000057220459,2.440000057220459,2.380000114440918,2.380000114440918,2878000,0.0,0
2020-09-24,2.380000114440918,2.380000114440918,2.3299999237060547,2.3499999046325684,2174025,0.0,0
2020-09-25,2.369999885559082,2.4100000858306885,2.299999952316284,2.3299999237060547,2731000,0.0,0
2020-09-28,2.309999942779541,2.380000114440918,2.299999952316284,2.3499999046325684,553000,0.0,0
2020-09-29,2.4000000953674316,2.4100000858306885,2.369999885559082,2.390000104904175,157200,0.0,0
2020-09-30,2.359999895095825,2.4600000381469727,2.359999895095825,2.380000114440918,621000,0.0,0
2020-10-05,2.3499999046325684,2.390000104904175,2.3499999046325684,2.3499999046325684,289000,0.0,0
2020-10-06,2.359999895095825,2.390000104904175,2.359999895095825,2.369999885559082,347000,0.0,0
2020-10-07,2.369999885559082,2.4000000953674316,2.319999933242798,2.369999885559082,339000,0.0,0
2020-10-08,2.380000114440918,2.4200000762939453,2.3299999237060547,2.4100000858306885,421000,0.0,0
2020-10-09,2.4100000858306885,2.5899999141693115,2.4000000953674316,2.549999952316284,6224000,0.0,0
2020-10-12,2.5299999713897705,2.6600000858306885,2.4800000190734863,2.5299999713897705,5634000,0.0,0
2020-10-14,2.509999990463257,2.630000114440918,2.509999990463257,2.5299999713897705,4220050,0.0,0
2020-10-15,2.5199999809265137,2.5399999618530273,2.4600000381469727,2.4800000190734863,1724175,0.0,0
2020-10-16,2.5299999713897705,2.619999885559082,2.5299999713897705,2.5999999046325684,1850000,0.0,0
2020-10-19,2.569999933242798,2.740000009536743,2.569999933242798,2.7100000381469727,3983356,0.0,0
2020-10-20,2.6600000858306885,2.700000047683716,2.5999999046325684,2.6700000762939453,1656000,0.0,0
2020-10-21,2.6700000762939453,2.7100000381469727,2.609999895095825,2.619999885559082,921000,0.0,0
2020-10-22,2.5999999046325684,2.740000009536743,2.5999999046325684,2.690000057220459,8242000,0.0,0
2020-10-23,2.6700000762939453,2.7300000190734863,2.6500000953674316,2.680000066757202,2012000,0.0,0
2020-10-27,2.6700000762939453,2.700000047683716,2.6500000953674316,2.680000066757202,3547000,0.0,0
2020-10-28,2.6700000762939453,2.680000066757202,2.6500000953674316,2.6500000953674316,2102000,0.0,0
2020-10-29,2.6500000953674316,2.6500000953674316,2.5199999809265137,2.549999952316284,1142000,0.0,0
2020-10-30,2.559999942779541,2.5999999046325684,2.4800000190734863,2.509999990463257,1476000,0.0,0
2020-11-02,2.4800000190734863,2.559999942779541,2.430000066757202,2.4600000381469727,1370000,0.0,0
2020-11-03,2.450000047683716,2.509999990463257,2.440000057220459,2.4700000286102295,2384000,0.0,0
2020-11-04,2.4700000286102295,2.490000009536743,2.4100000858306885,2.4200000762939453,1765000,0.0,0
2020-11-05,2.4800000190734863,2.490000009536743,2.440000057220459,2.490000009536743,2469200,0.0,0
2020-11-06,2.5,2.5199999809265137,2.4600000381469727,2.4800000190734863,1851025,0.0,0
2020-11-09,2.490000009536743,2.509999990463257,2.450000047683716,2.5,1706000,0.0,0
2020-11-10,2.5299999713897705,2.549999952316284,2.5199999809265137,2.5399999618530273,1414000,0.0,0
2020-11-11,2.5299999713897705,2.640000104904175,2.5299999713897705,2.5999999046325684,1214100,0.0,0
2020-11-12,2.609999895095825,2.619999885559082,2.559999942779541,2.569999933242798,657000,0.0,0
2020-11-13,2.559999942779541,2.559999942779541,2.4700000286102295,2.490000009536743,883000,0.0,0
2020-11-16,2.5,2.5399999618530273,2.4600000381469727,2.5,920000,0.0,0
2020-11-17,2.5,2.549999952316284,2.490000009536743,2.5199999809265137,1147000,0.0,0
2020-11-18,2.5199999809265137,2.5199999809265137,2.4700000286102295,2.490000009536743,1823000,0.0,0
2020-11-19,2.4800000190734863,2.4800000190734863,2.450000047683716,2.4700000286102295,630000,0.0,0
2020-11-20,2.4600000381469727,2.4600000381469727,2.390000104904175,2.4100000858306885,1758000,0.0,0
2020-11-23,2.4000000953674316,2.430000066757202,2.390000104904175,2.390000104904175,1619000,0.0,0
2020-11-24,2.390000104904175,2.390000104904175,2.3499999046325684,2.359999895095825,3055000,0.0,0
2020-11-25,2.369999885559082,2.4000000953674316,2.3399999141693115,2.369999885559082,1659000,0.0,0
2020-11-26,2.380000114440918,2.4000000953674316,2.3399999141693115,2.380000114440918,529000,0.0,0
2020-11-27,2.3499999046325684,2.4100000858306885,2.3399999141693115,2.369999885559082,4456000,0.0,0
2020-11-30,2.380000114440918,2.430000066757202,2.3499999046325684,2.390000104904175,4019000,0.0,0
2020-12-01,2.369999885559082,2.4000000953674316,2.369999885559082,2.369999885559082,1706000,0.0,0
2020-12-02,2.369999885559082,2.4000000953674316,2.3499999046325684,2.3499999046325684,2070000,0.0,0
2020-12-03,2.390000104904175,2.4100000858306885,2.3399999141693115,2.4000000953674316,1549200,0.0,0
2020-12-04,2.380000114440918,2.4000000953674316,2.359999895095825,2.369999885559082,1653978,0.0,0
2020-12-07,2.390000104904175,2.390000104904175,2.299999952316284,2.309999942779541,1403050,0.0,0
