Date,Open,High,Low,Close,Volume,Dividends,Stock Splits
2020-01-02,0.7588937843466808,0.7685000253592935,0.7396812450637422,0.749287486076355,2540000,0.0,0
2020-01-03,0.749287486076355,0.7588937843466808,0.749287486076355,0.749287486076355,1864000,0.0,0
2020-01-06,0.7396812438964844,0.749287484893938,0.7396812438964844,0.7396812438964844,818000,0.0,0
2020-01-07,0.749287484893938,0.749287484893938,0.7396812438964844,0.7396812438964844,1032000,0.0,0
2020-01-08,0.7396812438964844,0.7588937831491045,0.7300750028990307,0.7396812438964844,2508000,0.0,0
2020-01-09,0.7492874895460611,0.7588937878608704,0.7396812484889649,0.7588937878608704,2662000,0.0,0
2020-01-10,0.7492874895460611,0.7588937878608704,0.7492874895460611,0.7588937878608704,900505,0.0,0
2020-01-13,0.7492874895460611,0.7588937878608704,0.7396812484889649,0.7588937878608704,2368000,0.0,0
2020-01-14,0.7588937889696101,0.7781062711118718,0.749287490640766,0.768500030040741,4402000,0.0,0
2020-01-15,0.7685000289179665,0.7781062699750628,0.7588937878608704,0.7588937878608704,472952,0.0,0
2020-01-16,0.7588937843466808,0.7685000253592935,0.7300750040511294,0.749287486076355,2886000,0.0,0
2020-01-17,0.7492874895460611,0.7588937878608704,0.7492874895460611,0.7588937878608704,1896000,0.0,0
2020-01-20,0.7588937878608704,0.7685000289179665,0.7492874895460611,0.7588937878608704,1646000,0.0,0
2020-01-21,0.749287484893938,0.749287484893938,0.7300750028990307,0.7396812438964844,1966000,0.0,0
2020-01-22,0.7300750028990307,0.7396812438964844,0.720468761901577,0.7396812438964844,654000,0.0,0
2020-01-23,0.7204687607347182,0.7396812426985093,0.7108625197528227,0.7300750017166138,2622000,0.0,0
2020-01-24,0.7108625185708206,0.7204687595367432,0.7108625185708206,0.7204687595367432,132000,0.0,0
2020-01-29,0.7108625161096657,0.7108625161096657,0.6820437360539621,0.701256275177002,1214000,0.0,0
2020-01-30,0.7012562688275107,0.7012562688275107,0.6724374890327454,0.6724374890327454,1444000,0.0,0
2020-01-31,0.6820437298784298,0.6916500279818262,0.6724374890327454,0.6724374890327454,852000,0.0,0
2020-02-03,0.6724374890327454,0.6820437298784298,0.6628312481870609,0.6724374890327454,2618000,0.0,0
2020-02-04,0.6820437285055717,0.6820437285055717,0.6628312468528748,0.6628312468528748,4306000,0.0,0
2020-02-05,0.6724374890327454,0.6820437298784298,0.6628312481870609,0.6724374890327454,3176000,0.0,0
2020-02-06,0.6724374903481402,0.7012562701992797,0.6724374903481402,0.682043731212616,2354000,0.0,0
2020-02-07,0.6820437298784298,0.6916500279818262,0.6628312481870609,0.6724374890327454,3102000,0.0,0
2020-02-10,0.6724374903481402,0.682043731212616,0.6724374903481402,0.682043731212616,876000,0.0,0
2020-02-11,0.6820437348240775,0.6916500329971313,0.6724374939087361,0.6916500329971313,1030000,0.0,0
2020-02-12,0.6916500279818262,0.6916500279818262,0.6724374890327454,0.6724374890327454,4978000,0.0,0
2020-02-13,0.6724374890327454,0.6820437298784298,0.6724374890327454,0.6724374890327454,1846000,0.0,0
2020-02-14,0.6724374890327454,0.6820437298784298,0.6628312481870609,0.6724374890327454,2350000,0.0,0
2020-02-17,0.6724374890327454,0.6820437298784298,0.6724374890327454,0.6724374890327454,2022000,0.0,0
2020-02-18,0.6724374903481402,0.6916500293348039,0.6724374903481402,0.682043731212616,1924000,0.0,0
2020-02-19,0.6820437298784298,0.6820437298784298,0.6628312481870609,0.6724374890327454,3614000,0.0,0
2020-02-20,0.6724374903481402,0.682043731212616,0.6724374903481402,0.682043731212616,1954000,0.0,0
2020-02-21,0.6820437298784298,0.6820437298784298,0.6724374890327454,0.6724374890327454,1724000,0.0,0
2020-02-24,0.6724374876792233,0.6820437285055717,0.6628312468528748,0.6628312468528748,3196000,0.0,0
2020-02-25,0.6628312454794478,0.6628312454794478,0.653225004673004,0.6532250046730042,1518000,0.0,0
2020-02-26,0.6532250060265263,0.6628312468528748,0.6532250060265263,0.6628312468528748,928000,0.0,0
2020-02-27,0.6628312468528748,0.6724374876792233,0.6532250060265263,0.6628312468528748,2084000,0.0,0
2020-02-28,0.6532250060265263,0.6724374876792233,0.6436187652001778,0.6628312468528748,5110000,0.0,0
2020-03-02,0.6532250060265263,0.6724374876792233,0.6532250060265263,0.6628312468528748,1904000,0.0,0
2020-03-03,0.6724374876792233,0.6820437285055717,0.6628312468528748,0.6628312468528748,2198000,0.0,0
2020-03-04,0.6724374876792233,0.6724374876792233,0.6532250060265263,0.6628312468528748,4504000,0.0,0
2020-03-05,0.6628312468528748,0.6724374876792233,0.6628312468528748,0.6628312468528748,1184000,0.0,0
2020-03-06,0.6628312468528748,0.6628312468528748,0.6532250060265263,0.6628312468528748,952000,0.0,0
2020-03-09,0.6532249979073035,0.6532249979073035,0.6147999778217993,0.6244062185287476,1724000,0.0,0
2020-03-10,0.6244062185287476,0.6244062185287476,0.6051937371148511,0.6244062185287476,2168000,0.0,0
2020-03-11,0.6147999778217993,0.634012516493407,0.6051937371148511,0.6244062185287476,684000,0.0,0
2020-03-12,0.6147999732604915,0.6147999732604915,0.5571624721887135,0.5955874919891357,5108000,0.0,0
2020-03-13,0.5571624692032744,0.5859812482135993,0.5379499880348647,0.5763750076293945,1632011,0.0,0
2020-03-16,0.5475562214851379,0.5571624619441863,0.5283437405670415,0.5475562214851379,4150000,0.0,0
2020-03-17,0.537949971273399,0.537949971273399,0.4995249528761175,0.5091311931610107,3044000,0.0,0
2020-03-18,0.4995249807834626,0.5187375196843192,0.4995249807834626,0.4995249807834625,1306000,0.0,0
2020-03-19,0.5091312164098951,0.5091312164098951,0.45149374343973325,0.4659031331539154,4500500,0.0,0
2020-03-20,0.4755093760401011,0.48031249642372137,0.4659031352728604,0.4803124964237213,1226000,0.0,0
2020-03-23,0.4610999807338926,0.4755093703409061,0.4514937400817871,0.4514937400817871,358000,0.0,0
2020-03-24,0.4610999848765836,0.47070625424385065,0.4610999848765836,0.4707062542438507,1008000,0.0,0
2020-03-25,0.48031249914031765,0.4995249807834626,0.4755093787295314,0.4995249807834625,674000,0.0,0
2020-03-26,0.4995249528761175,0.5187374907036125,0.4899187125912242,0.5091311931610107,996000,0.0,0
2020-03-27,0.49952495696092286,0.5283437353089733,0.49952495696092286,0.5187374949455261,894000,0.0,0
2020-03-30,0.4995249793985311,0.5091312201934703,0.4899187386035919,0.4899187386035919,260000,0.0,0
2020-03-31,0.4995249793985311,0.5091312201934703,0.4899187386035919,0.4899187386035919,222000,0.0,0
2020-04-01,0.4899187386035919,0.4995249793985311,0.4899187386035919,0.4899187386035919,602000,0.0,0
2020-04-02,0.4899187386035919,0.5091312201934703,0.4803124978086527,0.4899187386035919,456000,0.0,0
2020-04-03,0.4803124978086527,0.4899187386035919,0.4803124978086527,0.4899187386035919,910631,0.0,0
2020-04-06,0.4899187125912242,0.5091311931610107,0.48031247230633095,0.5091311931610107,726000,0.0,0
2020-04-07,0.5091312007625999,0.5475562197335867,0.4995249603342806,0.5379499793052673,2750000,0.0,0
2020-04-08,0.5187374949455261,0.5379499756724204,0.50913119732437,0.5187374949455261,278000,0.0,0
2020-04-09,0.5187374967289238,0.5283437371253967,0.5091311990747415,0.5283437371253967,350000,0.0,0
2020-04-14,0.5283437353089733,0.5379499756724204,0.5187374949455261,0.5187374949455261,446000,0.0,0
2020-04-15,0.5187375182461211,0.5283437590410603,0.4899187386035919,0.4899187386035919,946000,0.0,0
2020-04-16,0.4899187399618901,0.509131221605035,0.48031249914031765,0.4995249807834625,1038000,0.0,0
2020-04-17,0.4995249793985311,0.5091312201934703,0.4899187386035919,0.4899187386035919,556000,0.0,0
2020-04-20,0.4899187386035919,0.5091312201934703,0.4899187386035919,0.4899187386035919,344000,0.0,0
2020-04-21,0.48991873646324346,0.4995249772162151,0.47550937533378607,0.475509375333786,1998000,0.0,0
2020-04-22,0.4755093760401011,0.48991873719096196,0.4659031352728604,0.4803124964237213,416000,0.0,0
2020-04-23,0.48031249914031765,0.4995249807834626,0.4755093787295314,0.4995249807834625,1120000,0.0,0
2020-04-24,0.4899187399618901,0.4995249807834626,0.48031249914031765,0.4995249807834625,60000,0.0,0
2020-04-27,0.4995249807834626,0.4995249807834626,0.4899187399618901,0.4995249807834625,304000,0.0,0
2020-04-28,0.4995249793985311,0.5091312201934703,0.4899187386035919,0.4899187386035919,702000,0.0,0
2020-04-29,0.4995249807834626,0.509131221605035,0.4899187399618901,0.4995249807834625,236000,0.0,0
2020-05-04,0.49952497795820255,0.49952497795820255,0.48031249642372137,0.4803124964237213,410000,0.0,0
2020-05-05,0.48031249642372137,0.48991873719096196,0.4707062556564807,0.4803124964237213,720000,0.0,0
2020-05-06,0.4803124978086527,0.4995249793985311,0.4803124978086527,0.4899187386035919,494000,0.0,0
2020-05-07,0.48031249642372137,0.49952497795820255,0.48031249642372137,0.4803124964237213,220000,0.0,0
2020-05-08,0.4899187125912242,0.5091311931610107,0.48031247230633095,0.5091311931610107,793136,0.0,0
2020-05-11,0.4995249807834626,0.509131221605035,0.4995249807834626,0.4995249807834625,1048000,0.0,0
2020-05-12,0.48991873719096196,0.48991873719096196,0.4755093760401011,0.4803124964237213,4060000,0.0,0
2020-05-13,0.48031249571027185,0.48031249571027185,0.47070625495730023,0.475509375333786,1446000,0.0,0
2020-05-14,0.47550937461305637,0.47550937461305637,0.46590313387464494,0.4707062542438507,522000,0.0,0
2020-05-15,0.48031249571027185,0.48031249571027185,0.47070625495730023,0.475509375333786,788000,0.0,0
2020-05-18,0.4659031352728604,0.48031249642372137,0.4659031352728604,0.4803124964237213,144000,0.0,0
2020-05-19,0.4755093760401011,0.48991873719096196,0.4755093760401011,0.4803124964237213,904000,0.0,0
2020-05-20,0.48031249642372137,0.48991873719096196,0.48031249642372137,0.4803124964237213,634000,0.0,0
2020-05-21,0.48031249642372137,0.48991873719096196,0.4755093760401011,0.4803124964237213,1652000,0.0,0
2020-05-22,0.47070625157444707,0.475509371916414,0.4610999822616577,0.4610999822616577,210000,0.0,0
2020-05-25,0.4610999822616577,0.4610999822616577,0.4562968619196908,0.4610999822616577,227000,0.0,0
2020-05-26,0.4610999848765836,0.47550937461305637,0.4610999848765836,0.4707062542438507,324000,0.0,0
2020-05-27,0.4659031331539154,0.47070625351569095,0.4659031331539154,0.4659031331539154,444000,0.0,0
2020-05-28,0.4610999841632843,0.47070625351569095,0.4610999841632843,0.4659031331539154,464000,0.0,0
2020-05-29,0.4514937408376288,0.48031249147104577,0.4514937408376288,0.4562968611717224,2370000,0.0,0
2020-06-01,0.47070625157444707,0.475509371916414,0.4562968619196908,0.4610999822616577,2440000,0.0,0
2020-06-02,0.46109998557547294,0.48991873646324346,0.46109998557547294,0.475509375333786,1360000,0.0,0
2020-06-03,0.48031249914031765,0.4995249807834626,0.48031249914031765,0.4995249807834625,540000,0.0,0
2020-06-04,0.509131221605035,0.509131221605035,0.4899187399618901,0.4995249807834625,806000,0.0,0
2020-06-05,0.4899187399618901,0.4995249807834626,0.4899187399618901,0.4995249807834625,515573,0.0,0
2020-06-08,0.50913119732437,0.5187374949455261,0.49952495696092286,0.5187374949455261,1414000,0.0,0
2020-06-09,0.5187374949455261,0.5283437353089733,0.50913119732437,0.5187374949455261,822000,0.0,0
2020-06-10,0.5187374907036125,0.5187374907036125,0.4995249528761175,0.5091311931610107,462000,0.0,0
2020-06-11,0.4995249807834626,0.509131221605035,0.4899187399618901,0.4995249807834625,788000,0.0,0
2020-06-12,0.4995249528761175,0.5091311931610107,0.4899187125912242,0.5091311931610107,650000,0.0,0
2020-06-15,0.509131221605035,0.5187375196843192,0.4995249807834626,0.4995249807834625,488000,0.0,0
2020-06-16,0.49952495696092286,0.5187374949455261,0.49952495696092286,0.5187374949455261,384000,0.0,0
2020-06-17,0.5187374984486287,0.5475562197335867,0.4995249603342806,0.5379499793052673,2840000,0.0,0
2020-06-18,0.5283437371253967,0.5379499775218697,0.5187374967289238,0.5283437371253967,736000,0.0,0
2020-06-19,0.5187375001079931,0.5475562214851379,0.5187375001079931,0.5475562214851379,1590000,0.0,0
2020-06-22,0.5283437388769481,0.5379499793052673,0.5187374984486287,0.5379499793052673,734000,0.0,0
2020-06-23,0.5283437371253967,0.5379499775218697,0.5187374967289238,0.5283437371253967,898000,0.0,0
2020-06-24,0.5283437353089733,0.5283437353089733,0.5187374949455261,0.5187374949455261,88000,0.0,0
2020-06-26,0.5187374949455261,0.5283437353089733,0.49952495696092286,0.5187374949455261,980000,0.0,0
2020-06-29,0.5283437353089733,0.5283437353089733,0.5187374949455261,0.5187374949455261,248000,0.0,0
2020-06-30,0.5187374949455261,0.5283437353089733,0.50913119732437,0.5187374949455261,978000,0.0,0
2020-07-02,0.50913119732437,0.5187374949455261,0.50913119732437,0.5187374949455261,1766000,0.0,0
2020-07-03,0.5187375001079931,0.5475562214851379,0.5091312023912352,0.5475562214851379,1612000,0.0,0
2020-07-06,0.5379499880348647,0.5955874887978042,0.5283437474506598,0.5763750076293945,3046000,0.0,0
2020-07-07,0.5859812441373514,0.5859812441373514,0.5667687058448792,0.5667687058448792,1056000,0.0,0
2020-07-08,0.5667687097874793,0.5859812482135993,0.5571624692032744,0.5763750076293945,2004819,0.0,0
2020-07-09,0.5859812542970754,0.6340125149744557,0.5859812542970754,0.614799976348877,2556000,0.0,0
2020-07-10,0.614799976348877,0.6340125149744557,0.5955874949810093,0.614799976348877,1956000,0.0,0
2020-07-13,0.6100000143051147,0.6100000143051147,0.5799999833106995,0.6100000143051147,1568000,0.0252,0
2020-07-14,0.6200000047683716,0.6200000047683716,0.5899999737739563,0.5899999737739563,774000,0.0,0
2020-07-15,0.5799999833106995,0.5799999833106995,0.5699999928474426,0.5799999833106995,278000,0.0,0
2020-07-16,0.5699999928474426,0.5799999833106995,0.5600000023841858,0.5600000023841858,858311,0.0,0
2020-07-17,0.550000011920929,0.5600000023841858,0.5400000214576721,0.550000011920929,854000,0.0,0
2020-07-20,0.550000011920929,0.5699999928474426,0.550000011920929,0.5600000023841858,332000,0.0,0
2020-07-21,0.5699999928474426,0.5799999833106995,0.5600000023841858,0.5600000023841858,252000,0.0,0
2020-07-22,0.5600000023841858,0.5699999928474426,0.550000011920929,0.550000011920929,320100,0.0,0
2020-07-23,0.5400000214576721,0.6000000238418579,0.5400000214576721,0.5899999737739563,2574000,0.0,0
2020-07-24,0.5799999833106995,0.5899999737739563,0.5699999928474426,0.5799999833106995,638000,0.0,0
2020-07-27,0.5799999833106995,0.6000000238418579,0.5699999928474426,0.5699999928474426,1504000,0.0,0
2020-07-28,0.5699999928474426,0.5899999737739563,0.5699999928474426,0.5699999928474426,164000,0.0,0
2020-07-29,0.5699999928474426,0.6000000238418579,0.5699999928474426,0.5899999737739563,310000,0.0,0
2020-07-30,0.5799999833106995,0.6000000238418579,0.5699999928474426,0.5699999928474426,552000,0.0,0
2020-07-31,0.5600000023841858,0.5899999737739563,0.5600000023841858,0.5799999833106995,596000,0.0,0
2020-08-03,0.5799999833106995,0.5899999737739563,0.5799999833106995,0.5799999833106995,550631,0.0,0
2020-08-04,0.5799999833106995,0.5899999737739563,0.5799999833106995,0.5899999737739563,758000,0.0,0
2020-08-05,0.5899999737739563,0.6399999856948853,0.5899999737739563,0.6299999952316284,4262000,0.0,0
2020-08-06,0.6299999952316284,0.6299999952316284,0.5899999737739563,0.6200000047683716,1592000,0.0,0
2020-08-07,0.6100000143051147,0.6100000143051147,0.5899999737739563,0.5899999737739563,560000,0.0,0
2020-08-10,0.5899999737739563,0.6000000238418579,0.5799999833106995,0.6000000238418579,793156,0.0,0
2020-08-11,0.6000000238418579,0.6000000238418579,0.5799999833106995,0.5899999737739563,618000,0.0,0
2020-08-12,0.5799999833106995,0.5799999833106995,0.5699999928474426,0.5799999833106995,1176000,0.0,0
2020-08-13,0.5799999833106995,0.6000000238418579,0.5799999833106995,0.5899999737739563,634000,0.0,0
2020-08-14,0.6000000238418579,0.6200000047683716,0.6000000238418579,0.6000000238418579,1099000,0.0,0
2020-08-17,0.6100000143051147,0.6100000143051147,0.5899999737739563,0.6000000238418579,994000,0.0,0
2020-08-18,0.6000000238418579,0.6100000143051147,0.5899999737739563,0.6100000143051147,900000,0.0,0
2020-08-19,0.6100000143051147,0.6100000143051147,0.6000000238418579,0.6100000143051147,150000,0.0,0
2020-08-20,0.6000000238418579,0.6000000238418579,0.5899999737739563,0.6000000238418579,540000,0.0,0
2020-08-21,0.6000000238418579,0.6000000238418579,0.5899999737739563,0.5899999737739563,484000,0.0,0
2020-08-24,0.6000000238418579,0.6000000238418579,0.5899999737739563,0.5899999737739563,420000,0.0,0
2020-08-25,0.5899999737739563,0.6100000143051147,0.5899999737739563,0.5899999737739563,564000,0.0,0
2020-08-26,0.6000000238418579,0.6000000238418579,0.5899999737739563,0.5899999737739563,556000,0.0,0
2020-08-27,0.5799999833106995,0.5799999833106995,0.5699999928474426,0.5799999833106995,438000,0.0,0
2020-08-28,0.5699999928474426,0.5899999737739563,0.5699999928474426,0.5799999833106995,412000,0.0,0
2020-08-31,0.5699999928474426,0.5799999833106995,0.5699999928474426,0.5699999928474426,1116000,0.0,0
2020-09-01,0.5699999928474426,0.5699999928474426,0.5600000023841858,0.5699999928474426,688000,0.0,0
2020-09-02,0.5699999928474426,0.5699999928474426,0.5600000023841858,0.5600000023841858,450000,0.0,0
2020-09-03,0.5600000023841858,0.5699999928474426,0.5600000023841858,0.5600000023841858,196000,0.0,0
2020-09-04,0.5600000023841858,0.5600000023841858,0.550000011920929,0.5600000023841858,384000,0.0,0
2020-09-07,0.550000011920929,0.5600000023841858,0.550000011920929,0.550000011920929,520427,0.0,0
2020-09-08,0.5400000214576721,0.550000011920929,0.5400000214576721,0.5400000214576721,232000,0.0,0
2020-09-09,0.5400000214576721,0.5600000023841858,0.5400000214576721,0.5600000023841858,914000,0.0,0
2020-09-10,0.5600000023841858,0.5600000023841858,0.5400000214576721,0.550000011920929,620311,0.0,0
2020-09-11,0.550000011920929,0.550000011920929,0.5400000214576721,0.5400000214576721,634000,0.0,0
2020-09-14,0.5400000214576721,0.550000011920929,0.5400000214576721,0.5400000214576721,1726000,0.0,0
2020-09-15,0.5299999713897705,0.550000011920929,0.5299999713897705,0.5400000214576721,674000,0.0,0
2020-09-16,0.550000011920929,0.550000011920929,0.5400000214576721,0.550000011920929,1074000,0.0,0
2020-09-17,0.5400000214576721,0.550000011920929,0.5400000214576721,0.5400000214576721,242000,0.0,0
2020-09-18,0.5400000214576721,0.5400000214576721,0.5199999809265137,0.5199999809265137,3438000,0.0,0
2020-09-21,0.5199999809265137,0.5400000214576721,0.5199999809265137,0.5299999713897705,1126000,0.0,0
2020-09-22,0.5199999809265137,0.5299999713897705,0.5099999904632568,0.5199999809265137,428000,0.0,0
2020-09-23,0.5199999809265137,0.5199999809265137,0.5099999904632568,0.5099999904632568,280000,0.0,0
2020-09-24,0.5099999904632568,0.5199999809265137,0.5,0.5099999904632568,890000,0.0,0
2020-09-25,0.5099999904632568,0.5199999809265137,0.5,0.5099999904632568,578000,0.0,0
2020-09-28,0.5099999904632568,0.5099999904632568,0.5,0.5099999904632568,250000,0.0,0
2020-09-29,0.5099999904632568,0.5099999904632568,0.5,0.5099999904632568,386000,0.0,0
2020-09-30,0.5,0.5099999904632568,0.5,0.5,230000,0.0,0
2020-10-05,0.5,0.5099999904632568,0.4950000047683716,0.5099999904632568,1028000,0.0,0
2020-10-06,0.5099999904632568,0.5199999809265137,0.5099999904632568,0.5199999809265137,184000,0.0,0
2020-10-07,0.5099999904632568,0.5199999809265137,0.5099999904632568,0.5099999904632568,166000,0.0,0
2020-10-08,0.5199999809265137,0.5199999809265137,0.5099999904632568,0.5099999904632568,304000,0.0,0
2020-10-09,0.5199999809265137,0.5299999713897705,0.5199999809265137,0.5199999809265137,454000,0.0,0
2020-10-12,0.5199999809265137,0.5299999713897705,0.5199999809265137,0.5199999809265137,84000,0.0,0
2020-10-14,0.5199999809265137,0.5299999713897705,0.5199999809265137,0.5199999809265137,662757,0.0,0
2020-10-15,0.5199999809265137,0.5199999809265137,0.5199999809265137,0.5199999809265137,340000,0.0,0
2020-10-16,0.5199999809265137,0.5400000214576721,0.5199999809265137,0.5400000214576721,646000,0.0,0
2020-10-19,0.5400000214576721,0.5400000214576721,0.5299999713897705,0.5299999713897705,310000,0.0,0
2020-10-20,0.5299999713897705,0.5299999713897705,0.5199999809265137,0.5299999713897705,1102000,0.0,0
2020-10-21,0.5299999713897705,0.5400000214576721,0.5199999809265137,0.5199999809265137,782000,0.0,0
2020-10-22,0.5299999713897705,0.5299999713897705,0.5199999809265137,0.5299999713897705,468000,0.0,0
2020-10-23,0.5299999713897705,0.5299999713897705,0.5199999809265137,0.5299999713897705,714000,0.0,0
2020-10-27,0.5199999809265137,0.5299999713897705,0.5199999809265137,0.5299999713897705,780000,0.0,0
2020-10-28,0.5299999713897705,0.5299999713897705,0.5199999809265137,0.5299999713897705,614000,0.0,0
2020-10-29,0.5199999809265137,0.5299999713897705,0.5199999809265137,0.5199999809265137,676000,0.0,0
2020-10-30,0.5199999809265137,0.5299999713897705,0.5199999809265137,0.5199999809265137,488000,0.0,0
2020-11-02,0.5199999809265137,0.5199999809265137,0.5099999904632568,0.5099999904632568,678000,0.0,0
2020-11-03,0.5199999809265137,0.5299999713897705,0.5099999904632568,0.5099999904632568,750000,0.0,0
2020-11-04,0.5099999904632568,0.5199999809265137,0.5099999904632568,0.5199999809265137,424000,0.0,0
2020-11-05,0.5299999713897705,0.550000011920929,0.5299999713897705,0.550000011920929,1126000,0.0,0
2020-11-06,0.5400000214576721,0.550000011920929,0.5299999713897705,0.550000011920929,398000,0.0,0
2020-11-09,0.550000011920929,0.6299999952316284,0.550000011920929,0.6100000143051147,11583670,0.0,0
2020-11-10,0.6100000143051147,0.6200000047683716,0.6000000238418579,0.6000000238418579,2472000,0.0,0
2020-11-11,0.6000000238418579,0.6000000238418579,0.5799999833106995,0.5899999737739563,630000,0.0,0
2020-11-12,0.5699999928474426,0.5799999833106995,0.5699999928474426,0.5699999928474426,580000,0.0,0
2020-11-13,0.5799999833106995,0.5899999737739563,0.5699999928474426,0.5699999928474426,790000,0.0,0
2020-11-16,0.5799999833106995,0.6000000238418579,0.5699999928474426,0.5799999833106995,1636000,0.0,0
2020-11-17,0.5899999737739563,0.6399999856948853,0.5899999737739563,0.6299999952316284,5618000,0.0,0
2020-11-18,0.6399999856948853,0.6600000262260437,0.6299999952316284,0.6499999761581421,5964000,0.0,0
2020-11-19,0.6299999952316284,0.6399999856948853,0.6000000238418579,0.6399999856948853,1564000,0.0,0
2020-11-20,0.6299999952316284,0.6499999761581421,0.6299999952316284,0.6399999856948853,1624000,0.0,0
2020-11-23,0.6399999856948853,0.6399999856948853,0.6299999952316284,0.6399999856948853,1474000,0.0,0
2020-11-24,0.6399999856948853,0.6399999856948853,0.6200000047683716,0.6299999952316284,694000,0.0,0
2020-11-25,0.6299999952316284,0.6399999856948853,0.6200000047683716,0.6399999856948853,650253,0.0,0
2020-11-26,0.6200000047683716,0.6299999952316284,0.6200000047683716,0.6299999952316284,134000,0.0,0
2020-11-27,0.6299999952316284,0.6299999952316284,0.6200000047683716,0.6299999952316284,150000,0.0,0
2020-11-30,0.6299999952316284,0.6299999952316284,0.6000000238418579,0.6000000238418579,1197300,0.0,0
2020-12-01,0.6000000238418579,0.6200000047683716,0.5899999737739563,0.6200000047683716,1036000,0.0,0
2020-12-02,0.6200000047683716,0.6299999952316284,0.6100000143051147,0.6299999952316284,1022000,0.0,0
2020-12-03,0.6299999952316284,0.6299999952316284,0.6100000143051147,0.6200000047683716,1024000,0.0,0
2020-12-04,0.6100000143051147,0.6499999761581421,0.6000000238418579,0.6399999856948853,2897000,0.0,0
2020-12-07,0.6299999952316284,0.6800000071525574,0.6299999952316284,0.6600000262260437,3594000,0.0,0
