Date,Open,High,Low,Close,Volume,Dividends,Stock Splits
2020-01-02,17.094470566053726,17.171299577272578,16.844777653403543,17.05605697631836,379487,0.0,0
2020-01-03,17.19050566076407,17.24812695578676,16.88318964497914,16.99843406677246,318300,0.0,0
2020-01-06,16.99843508786127,17.036848676267905,16.364595309293378,16.518253326416016,5187800,0.0,0
2020-01-07,16.441423436212002,16.441423436212002,16.09569200035129,16.287763595581055,1014760,0.0,0
2020-01-08,16.1341052664926,16.28776327232602,15.884412380824228,16.095691680908203,1194923,0.0,0
2020-01-09,16.038070800062656,16.249350105592665,16.038070800062656,16.134105682373047,666290,0.0,0
2020-01-10,15.999655575895558,16.287763889818848,15.999655575895558,16.23014259338379,531500,0.0,0
2020-01-13,16.36459430854765,16.575873611233877,16.15331317411348,16.191728591918945,1563032,0.0,0
2020-01-14,16.249350302778137,16.499045029660717,16.191729006343078,16.23014259338379,1785100,0.0,0
2020-01-15,16.268558012172488,16.326179308607546,16.07648458172497,16.23014259338379,596700,0.0,0
2020-01-16,16.36459590424912,16.69111782869481,16.230143760567596,16.6527042388916,1400512,0.0,0
2020-01-17,16.499045513501503,16.787153835873678,16.499045513501503,16.671911239624023,1004856,0.0,0
2020-01-20,16.72953305939352,16.74874076995006,16.460630606846262,16.55666732788086,771340,0.0,0
2020-01-21,16.42221632261197,16.42221632261197,16.057277164471692,16.172521591186523,1391300,0.0,0
2020-01-22,16.172521591186523,16.32617960564095,15.730753425819032,16.172521591186523,714649,0.0,0
2020-01-23,16.038071147689646,16.038071147689646,15.423437263442688,15.59630298614502,1028800,0.0,0
2020-01-24,15.519474172306747,15.692339897155763,15.42343745497418,15.692339897155762,307600,0.0,0
2020-01-29,14.90484255161918,15.173744085854853,14.482282081946222,14.597525596618652,923500,0.0,0
2020-01-30,14.73197637585129,14.73197637585129,14.136551110125591,14.155757904052734,756600,0.0,0
2020-01-31,14.174966017581957,14.386245336168223,13.944478988647463,13.944478988647461,849000,0.0,0
2020-02-03,14.00209984742941,14.155757861884897,13.733198322132306,13.82923412322998,2571464,0.0,0
2020-02-04,13.829233962115653,14.13655090332031,13.829233962115653,14.136550903320312,1267750,0.0,0
2020-02-05,14.501489250411092,14.501489250411092,14.136551009649034,14.309415817260742,1121895,0.0,0
2020-02-06,14.309416352000554,14.635940101509464,14.271001847109742,14.597525596618652,1665750,0.0,0
2020-02-07,14.597524691357425,14.597524691357425,14.328623173797599,14.520695686340332,933973,0.0,0
2020-02-10,14.693561605760449,14.693561605760449,14.136550853860456,14.213379859924316,1364359,0.0,0
2020-02-11,14.463074696380627,14.463074696380627,14.213379966857522,14.386244773864746,1156540,0.0,0
2020-02-12,14.309416267735307,14.463075202267722,14.25179496867543,14.347830772399902,1716108,0.0,0
2020-02-13,14.347830063811609,14.46307448798792,14.290208767597445,14.367037773132324,1289386,0.0,0
2020-02-14,14.347830565786175,14.463074993994438,14.290209267556065,14.32862377166748,1138093,0.0,0
2020-02-17,14.38624461583876,14.4630745375107,14.232586604242861,14.29020881652832,1050000,0.0,0
2020-02-18,14.424660542127953,14.424660542127953,14.194172600750642,14.251794815063477,1092300,0.0,0
2020-02-19,14.251794412819308,14.290208915985641,14.078928690633813,14.136550903320312,1164500,0.0,0
2020-02-20,14.194172357065689,14.386244875020932,13.886856328337297,14.232586860656738,2325065,0.0,0
2020-02-21,14.232586555069332,14.328623269921957,13.944478242259434,13.963685035705566,1149669,0.0,0
2020-02-24,13.906062972252338,13.982892894480019,13.637161450014451,13.733198165893555,1851570,0.0,0
2020-02-25,13.637162002253909,13.790820021183682,13.502711693627376,13.617955207824707,2030322,0.0,0
2020-02-26,13.349051918128863,13.637161143414705,13.349051918128863,13.464296340942383,1039889,0.0,0
2020-02-27,13.810027228117441,13.810027228117441,13.253016471862793,13.253016471862793,2118446,0.0,0
2020-02-28,13.253016690708332,13.176187682775161,12.638383711368943,12.868870735168457,3251162,0.0,0
2020-03-02,12.90728548398583,13.060944418641098,12.811249680184579,12.888078689575195,1546700,0.0,0
2020-03-03,13.23380861696029,13.23380861696029,12.657591073303045,12.676797866821289,1920269,0.0,0
2020-03-04,12.77283482853168,12.907285133376071,12.696005821228027,12.696005821228027,1709827,0.0,0
2020-03-05,12.94569979504736,13.022529719162838,12.7728349844411,12.792041778564453,1888200,0.0,0
2020-03-06,12.696005923869585,12.830456229800946,12.54234790802002,12.54234790802002,1591232,0.0,0
2020-03-09,12.388689308027825,12.542348243865927,12.004544258117676,12.004544258117676,2662200,0.0,0
2020-03-10,12.138994767020911,12.292652777915329,12.023751258850098,12.023751258850098,2054356,0.0,0
2020-03-11,12.177409582129354,12.215824085838397,11.850885842665466,11.889300346374512,1438500,0.0,0
2020-03-12,11.870092602647604,11.870092602647604,11.140217034262394,11.159423828125,3083216,0.0,0
2020-03-13,10.448754621485183,10.909728645611866,10.371925617464068,10.717656135559082,2766400,0.0,0
2020-03-16,10.717656903466226,10.794485912992045,10.064609406622722,10.295097351074219,3081900,0.0,0
2020-03-17,10.295097458521541,10.371926468849205,9.987780501336836,10.141439437866211,2452300,0.0,0
2020-03-18,10.333511786387964,10.333511786387964,9.574824635513933,9.642049789428711,2373533,0.0,0
2020-03-19,9.718878960788167,9.757293465934602,9.008210157642123,9.4115629196167,2990476,0.0,0
2020-03-20,9.603634833719235,9.622842543006188,9.229092745489549,9.401958465576172,4971975,0.0,0
2020-03-23,9.373148124446026,9.373148124446026,8.931380870994191,8.940984725952148,2775852,0.0,0
2020-03-24,9.286715203809056,9.305921997731485,9.017813677776948,9.219490051269531,2493850,0.0,0
2020-03-25,9.459581256359153,9.853330162093814,9.34433682533404,9.814915657043457,3046029,0.0,0
2020-03-26,9.622842738340902,9.968573269658165,9.469183808548111,9.699671745300293,3161393,0.0,0
2020-03-27,9.968572962693397,9.968572962693397,9.34433615552811,9.3539400100708,3496100,0.0,0
2020-03-30,9.469183396501908,9.469183396501908,8.873758160539213,8.979398727416992,5188217,0.0,0
2020-03-31,9.027416724770237,9.25790466571415,9.027416724770237,9.190678596496582,3818070,0.0,0
2020-04-01,9.027416425064363,9.517202023982751,9.027416425064363,9.123453140258789,3556491,0.0,0
2020-04-02,9.574824024375788,9.574824024375788,8.662478913715626,8.825739860534668,3356452,0.0,0
2020-04-03,8.672082406885727,8.768119126096142,8.28793736179213,8.508820533752441,4176152,0.0,0
2020-04-06,8.374370117505434,8.53763198852539,8.115071528518198,8.53763198852539,2601150,0.0,0
2020-04-07,8.662479010330026,8.960191175591401,8.662479010330026,8.873758316040039,4398381,0.0,0
2020-04-08,8.912173529241462,8.912173529241462,8.681686495973146,8.729704856872559,2836700,0.0,0
2020-04-09,8.758515245256907,9.181075709491887,8.758515245256907,9.113849639892578,8007409,0.0,0
2020-04-14,9.10424593336853,9.478788044250416,9.027416923322098,9.085039138793945,5139000,0.0,0
2020-04-15,9.133056945519076,9.296318810941528,8.979398934738883,8.998605728149414,5094703,0.0,0
2020-04-16,9.10424532912386,9.10424532912386,8.604856796966248,8.67208194732666,7247627,0.0,0
2020-04-17,8.729704021596422,9.123452894723606,8.691289519727281,9.10424518585205,7542500,0.0,0
2020-04-20,9.123453601239838,9.200282610927722,8.921777221840626,8.96019172668457,2504616,0.0,0
2020-04-21,9.123452874769733,9.123452874769733,8.720100148088942,8.777722358703613,3237300,0.0,0
2020-04-22,8.729704502274181,8.73930835723877,8.460802974383856,8.73930835723877,5029558,0.0,0
2020-04-23,8.681686097780805,8.768118960260628,8.576046441346586,8.614460945129395,2741166,0.0,0
2020-04-24,8.643271447934753,8.643271447934753,8.3935767196291,8.441595077514648,3841000,0.0,0
2020-04-27,8.643271704705722,8.700893919054998,8.518424336843978,8.585649490356445,3333484,0.0,0
2020-04-28,8.768118565392411,8.85455142397977,8.48000934205921,8.825739860534668,2981783,0.0,0
2020-04-29,8.873758203128787,8.96019106158036,8.614460543648034,8.70089340209961,3645140,0.0,0
2020-05-04,8.700893991343692,8.720100785703673,8.02863878713769,8.105467796325684,3599120,0.0,0
2020-05-05,8.0670526332463,8.14388163616301,7.980620691870469,8.047845840454102,2872726,0.0,0
2020-05-06,8.15348629294507,8.431991684896552,8.095864993023548,8.27833366394043,3798437,0.0,0
2020-05-07,8.422388598359134,8.422388598359134,7.884584618533719,7.980621337890625,7844750,0.0,0
2020-05-08,7.98062127820472,8.268729602372652,7.98062127820472,8.259126663208008,8210134,0.0,0
2020-05-11,8.268729357188967,8.537631795054136,8.23991870880127,8.23991870880127,5616156,0.0,0
2020-05-12,8.29754071241654,8.29754071241654,8.11507114018529,8.220711708068848,2641943,0.0,0
2020-05-13,8.393576988042179,9.363544368027055,8.335955689436084,9.315526008605957,32184720,0.0,0
2020-05-14,9.363543765336663,9.440372769115662,8.969794892000802,9.30592155456543,15599540,0.0,0
2020-05-15,9.488391984482195,9.680464511319071,9.26750789171425,9.334733963012695,11462400,0.0,0
2020-05-18,9.334733263456595,9.430769061740968,8.979398886469045,9.075434684753418,6246419,0.0,0
2020-05-19,9.209886497557083,9.449977382620096,9.12345363239455,9.286715507507324,6290365,0.0,0
2020-05-20,9.286715006071237,9.584427174584945,9.248300503170308,9.325129508972168,5020800,0.0,0
2020-05-21,9.45958098107682,9.45958098107682,9.04662437689737,9.142661094665527,3441656,0.0,0
2020-05-22,9.104245110870725,9.104245110870725,8.4896130860265,8.652874946594238,4872695,0.0,0
2020-05-25,8.652875251712686,8.739308112222698,8.307143809672636,8.720100402832031,2274823,0.0,0
2020-05-26,8.758515357971191,8.960191737616459,8.720100853080382,8.758515357971191,1951000,0.0,0
2020-05-27,8.78732535848184,8.931380428085427,8.700893415768455,8.825739860534668,2235750,0.0,0
2020-05-28,8.739307965270799,8.960191124305341,8.614460603952761,8.748910903930664,2924683,0.0,0
2020-05-29,8.748911584839378,9.056228542722348,8.68168642961844,9.008210182189941,18615660,0.0,0
2020-06-01,9.075434783165836,9.21948985596548,8.816137117524866,8.92177677154541,5896834,0.0,0
2020-06-02,8.931381171687711,9.14266140850587,8.8353444506229,9.008210182189941,2779800,0.0,0
2020-06-03,9.056228341234918,9.219490213888339,9.037020631099677,9.113849639892578,3424748,0.0,0
2020-06-04,9.133057580865463,9.334733963012695,9.094643075498087,9.334733963012695,4306904,0.0,0
2020-06-05,9.325129702797442,9.546012870100405,9.315525847904091,9.42116641998291,4770911,0.0,0
2020-06-08,9.56522023332957,9.71887824255993,9.39235451500843,9.55561637878418,5280500,0.0,0
2020-06-09,9.642049484983076,9.642049484983076,9.4403731137326,9.574824333190918,4099624,0.0,0
2020-06-10,9.661257661005541,9.680464455641735,9.382752269725385,9.4115629196167,2815085,0.0,0
2020-06-11,9.411562987590955,9.430769782365866,9.094643088875436,9.133057594299316,2910280,0.0,0
2020-06-12,8.8929664251976,9.00820993782474,8.777722912570457,8.989002227783203,5501497,0.0,0
2020-06-15,8.940984943108074,8.989002387316056,8.710496997889168,8.758515357971191,3155616,0.0,0
2020-06-16,9.039999961853027,9.039999961853027,8.890000343322754,8.949999809265137,4684200,0.361485,0
2020-06-17,8.949999809265137,9.0600004196167,8.819999694824219,8.880000114440918,2997150,0.0,0
2020-06-18,8.84000015258789,8.9399995803833,8.789999961853027,8.869999885559082,2184986,0.0,0
2020-06-19,8.829999923706055,8.960000038146973,8.829999923706055,8.960000038146973,3454184,0.0,0
2020-06-22,8.970000267028809,9.039999961853027,8.819999694824219,8.890000343322754,2252808,0.0,0
2020-06-23,8.880000114440918,8.899999618530273,8.619999885559082,8.630000114440918,2001849,0.0,0
2020-06-24,8.84000015258789,8.859999656677246,8.649999618530273,8.819999694824219,1216874,0.0,0
2020-06-26,8.850000381469727,8.930000305175781,8.800000190734863,8.84000015258789,813500,0.0,0
2020-06-29,8.670000076293945,8.789999961853027,8.569999694824219,8.670000076293945,2804060,0.0,0
2020-06-30,8.630000114440918,9.09000015258789,8.630000114440918,9.050000190734863,5334366,0.0,0
2020-07-02,9.170000076293945,9.4399995803833,9.069999694824219,9.40999984741211,4687800,0.0,0
2020-07-03,9.470000267028809,9.59000015258789,9.220000267028809,9.569999694824219,4263000,0.0,0
2020-07-06,9.510000228881836,10.279999732971191,9.510000228881836,10.260000228881836,8341900,0.0,0
2020-07-07,10.4399995803833,10.779999732971191,9.880000114440918,9.949999809265137,7261196,0.0,0
2020-07-08,10.0600004196167,10.600000381469727,9.930000305175781,10.5,5637379,0.0,0
2020-07-09,10.739999771118164,12.539999961853027,10.720000267028809,12.300000190734863,21962360,0.0,0
2020-07-10,12.300000190734863,13.34000015258789,11.680000305175781,12.039999961853027,18167900,0.0,0
2020-07-13,12.119999885559082,12.819999694824219,12.020000457763672,12.680000305175781,9178047,0.0,0
2020-07-14,12.579999923706055,12.579999923706055,11.539999961853027,12.0,9697582,0.0,0
2020-07-15,12.0,12.15999984741211,11.399999618530273,11.420000076293945,6999855,0.0,0
2020-07-16,11.420000076293945,11.479999542236328,10.699999809265137,10.739999771118164,8694100,0.0,0
2020-07-17,10.739999771118164,11.079999923706055,10.520000457763672,10.65999984741211,5761900,0.0,0
2020-07-20,10.65999984741211,10.960000038146973,10.539999961853027,10.9399995803833,4618834,0.0,0
2020-07-21,11.199999809265137,11.279999732971191,10.779999732971191,10.920000076293945,5424900,0.0,0
2020-07-22,11.0,11.180000305175781,10.479999542236328,10.579999923706055,4218894,0.0,0
2020-07-23,10.779999732971191,10.779999732971191,10.300000190734863,10.600000381469727,3800787,0.0,0
2020-07-24,10.539999961853027,10.600000381469727,9.949999809265137,10.0,5453800,0.0,0
2020-07-27,10.079999923706055,10.239999771118164,9.8100004196167,9.84000015258789,3361930,0.0,0
2020-07-28,10.020000457763672,10.220000267028809,9.869999885559082,9.979999542236328,3410141,0.0,0
2020-07-29,9.979999542236328,10.300000190734863,9.760000228881836,10.199999809265137,3736164,0.0,0
2020-07-30,10.239999771118164,10.420000076293945,10.020000457763672,10.15999984741211,2107300,0.0,0
2020-07-31,10.140000343322754,10.380000114440918,10.0600004196167,10.0600004196167,3082374,0.0,0
2020-08-03,10.0600004196167,10.199999809265137,9.850000381469727,10.079999923706055,6102729,0.0,0
2020-08-04,10.199999809265137,11.0,10.079999923706055,10.960000038146973,6249354,0.0,0
2020-08-05,10.880000114440918,11.199999809265137,10.520000457763672,10.880000114440918,4798171,0.0,0
2020-08-06,10.880000114440918,11.039999961853027,10.619999885559082,10.859999656677246,2593414,0.0,0
2020-08-07,10.859999656677246,10.899999618530273,10.399999618530273,10.4399995803833,2892254,0.0,0
2020-08-10,10.460000038146973,10.600000381469727,10.15999984741211,10.199999809265137,2985200,0.0,0
2020-08-11,10.220000267028809,10.4399995803833,10.119999885559082,10.180000305175781,2042027,0.0,0
2020-08-12,10.180000305175781,10.479999542236328,10.0,10.4399995803833,2517700,0.0,0
2020-08-13,10.579999923706055,10.699999809265137,10.220000267028809,10.220000267028809,2018997,0.0,0
2020-08-14,10.220000267028809,10.380000114440918,10.079999923706055,10.300000190734863,1782200,0.0,0
2020-08-17,10.180000305175781,10.739999771118164,10.180000305175781,10.5,2504130,0.0,0
2020-08-18,10.5,10.699999809265137,10.5,10.65999984741211,2709450,0.0,0
2020-08-19,10.680000305175781,10.739999771118164,10.420000076293945,10.460000038146973,2299892,0.0,0
2020-08-20,10.399999618530273,10.65999984741211,10.319999694824219,10.600000381469727,2675868,0.0,0
2020-08-21,10.699999809265137,10.960000038146973,10.65999984741211,10.779999732971191,2566295,0.0,0
2020-08-24,10.899999618530273,10.899999618530273,10.5600004196167,10.619999885559082,1582300,0.0,0
2020-08-25,10.699999809265137,10.899999618530273,10.579999923706055,10.640000343322754,1599600,0.0,0
2020-08-26,10.699999809265137,10.699999809265137,10.34000015258789,10.5,2233353,0.0,0
2020-08-27,10.699999809265137,10.699999809265137,10.15999984741211,10.359999656677246,1937100,0.0,0
2020-08-28,10.4399995803833,10.779999732971191,10.34000015258789,10.600000381469727,2681400,0.0,0
2020-08-31,10.680000305175781,11.640000343322754,10.640000343322754,11.420000076293945,10437500,0.0,0
2020-09-01,11.619999885559082,11.619999885559082,10.899999618530273,11.039999961853027,5006300,0.0,0
2020-09-02,11.039999961853027,11.319999694824219,10.739999771118164,10.739999771118164,2936200,0.0,0
2020-09-03,10.739999771118164,11.039999961853027,10.5,10.5600004196167,3226776,0.0,0
2020-09-04,10.539999961853027,10.779999732971191,10.199999809265137,10.699999809265137,3821477,0.0,0
2020-09-07,10.779999732971191,10.84000015258789,10.319999694824219,10.380000114440918,2735161,0.0,0
2020-09-08,10.65999984741211,10.65999984741211,10.199999809265137,10.319999694824219,1631900,0.0,0
2020-09-09,10.359999656677246,10.359999656677246,10.039999961853027,10.140000343322754,2054694,0.0,0
2020-09-10,10.180000305175781,10.520000457763672,10.100000381469727,10.100000381469727,1464700,0.0,0
2020-09-11,10.100000381469727,10.239999771118164,10.020000457763672,10.239999771118164,1089800,0.0,0
2020-09-14,10.399999618530273,10.579999923706055,10.300000190734863,10.539999961853027,1713521,0.0,0
2020-09-15,10.680000305175781,10.680000305175781,10.319999694824219,10.520000457763672,2333500,0.0,0
2020-09-16,10.5,10.65999984741211,10.279999732971191,10.399999618530273,1987694,0.0,0
2020-09-17,10.4399995803833,10.699999809265137,10.180000305175781,10.319999694824219,2489009,0.0,0
2020-09-18,10.380000114440918,10.699999809265137,10.380000114440918,10.699999809265137,3398500,0.0,0
2020-09-21,10.600000381469727,10.680000305175781,10.300000190734863,10.319999694824219,1500600,0.0,0
2020-09-22,10.479999542236328,10.479999542236328,10.180000305175781,10.199999809265137,1392358,0.0,0
2020-09-23,10.119999885559082,10.4399995803833,10.100000381469727,10.140000343322754,2154619,0.0,0
2020-09-24,10.140000343322754,10.279999732971191,9.770000457763672,9.770000457763672,2821000,0.0,0
2020-09-25,9.850000381469727,9.869999885559082,9.359999656677246,9.40999984741211,2341300,0.0,0
2020-09-28,9.649999618530273,9.649999618530273,9.300000190734863,9.369999885559082,2023296,0.0,0
2020-09-29,9.649999618530273,9.649999618530273,9.34000015258789,9.510000228881836,1427800,0.0,0
2020-09-30,9.390000343322754,9.529999732971191,9.210000038146973,9.420000076293945,3065000,0.0,0
2020-10-05,9.300000190734863,9.569999694824219,9.300000190734863,9.40999984741211,1770100,0.0,0
2020-10-06,9.890000343322754,9.890000343322754,9.550000190734863,9.819999694824219,1958603,0.0,0
2020-10-07,9.789999961853027,10.199999809265137,9.789999961853027,10.15999984741211,1228725,0.0,0
2020-10-08,10.039999961853027,10.899999618530273,9.949999809265137,10.859999656677246,3031271,0.0,0
2020-10-09,10.579999923706055,10.720000267028809,10.260000228881836,10.520000457763672,3529000,0.0,0
2020-10-12,10.579999923706055,10.760000228881836,10.319999694824219,10.760000228881836,2657300,0.0,0
2020-10-14,10.760000228881836,11.100000381469727,10.760000228881836,10.859999656677246,4211075,0.0,0
2020-10-15,10.9399995803833,10.9399995803833,10.539999961853027,10.5600004196167,2518434,0.0,0
2020-10-16,10.520000457763672,10.65999984741211,10.34000015258789,10.380000114440918,3897858,0.0,0
2020-10-19,10.380000114440918,10.619999885559082,10.380000114440918,10.539999961853027,2440012,0.0,0
2020-10-20,10.600000381469727,10.899999618530273,10.460000038146973,10.880000114440918,3606168,0.0,0
2020-10-21,10.880000114440918,11.100000381469727,10.640000343322754,10.819999694824219,2231675,0.0,0
2020-10-22,10.819999694824219,10.859999656677246,10.579999923706055,10.819999694824219,2696200,0.0,0
2020-10-23,10.699999809265137,10.960000038146973,10.680000305175781,10.960000038146973,3314100,0.0,0
2020-10-27,10.779999732971191,11.34000015258789,10.739999771118164,11.079999923706055,5414162,0.0,0
2020-10-28,11.079999923706055,11.079999923706055,10.680000305175781,11.039999961853027,3867188,0.0,0
2020-10-29,10.800000190734863,11.020000457763672,10.800000190734863,11.020000457763672,2445091,0.0,0
2020-10-30,10.960000038146973,11.020000457763672,10.34000015258789,10.4399995803833,4064812,0.0,0
2020-11-02,10.399999618530273,10.5600004196167,10.100000381469727,10.4399995803833,3572509,0.0,0
2020-11-03,10.4399995803833,10.720000267028809,10.359999656677246,10.640000343322754,2569087,0.0,0
2020-11-04,10.640000343322754,10.84000015258789,10.600000381469727,10.720000267028809,2184870,0.0,0
2020-11-05,10.819999694824219,10.920000076293945,10.680000305175781,10.84000015258789,2981864,0.0,0
2020-11-06,10.880000114440918,11.119999885559082,10.640000343322754,10.899999618530273,3547775,0.0,0
2020-11-09,10.920000076293945,11.180000305175781,10.859999656677246,11.100000381469727,5150844,0.0,0
2020-11-10,11.119999885559082,11.359999656677246,10.680000305175781,10.920000076293945,7745833,0.0,0
2020-11-11,10.960000038146973,10.960000038146973,10.65999984741211,10.880000114440918,7297946,0.0,0
2020-11-12,11.100000381469727,11.100000381469727,10.720000267028809,11.039999961853027,3748372,0.0,0
2020-11-13,11.0,11.0,10.5,10.640000343322754,3972991,0.0,0
2020-11-16,10.84000015258789,11.119999885559082,10.739999771118164,10.859999656677246,4663748,0.0,0
2020-11-17,10.819999694824219,10.9399995803833,10.739999771118164,10.859999656677246,3798600,0.0,0
2020-11-18,10.720000267028809,10.819999694824219,10.5600004196167,10.699999809265137,5346792,0.0,0
2020-11-19,10.779999732971191,10.779999732971191,10.460000038146973,10.5,3464842,0.0,0
2020-11-20,10.5,10.579999923706055,10.100000381469727,10.319999694824219,7629240,0.0,0
2020-11-23,10.319999694824219,10.9399995803833,10.319999694824219,10.819999694824219,8041494,0.0,0
2020-11-24,10.880000114440918,10.880000114440918,10.5,10.600000381469727,6328736,0.0,0
2020-11-25,10.619999885559082,11.0,10.5600004196167,10.579999923706055,7170767,0.0,0
2020-11-26,10.800000190734863,10.800000190734863,10.520000457763672,10.579999923706055,4903668,0.0,0
2020-11-27,10.619999885559082,10.640000343322754,10.260000228881836,10.579999923706055,8521392,0.0,0
2020-11-30,10.579999923706055,10.699999809265137,10.279999732971191,10.539999961853027,52689490,0.0,0
2020-12-01,10.539999961853027,10.84000015258789,10.420000076293945,10.800000190734863,9300065,0.0,0
2020-12-02,10.760000228881836,10.760000228881836,10.420000076293945,10.5600004196167,4281567,0.0,0
2020-12-03,10.520000457763672,10.800000190734863,10.520000457763672,10.619999885559082,4430400,0.0,0
2020-12-04,10.579999923706055,10.699999809265137,10.34000015258789,10.34000015258789,2887100,0.0,0
2020-12-07,10.399999618530273,10.399999618530273,10.140000343322754,10.239999771118164,3163537,0.0,0
