Date,Open,High,Low,Close,Volume,Dividends,Stock Splits
2020-01-02,16.492393595581177,16.74763325655694,16.217521554857544,16.374591827392578,3761000,0.0,0
2020-01-03,16.512027745704213,16.55129624980795,16.119352066793507,16.492393493652344,2389624,0.0,0
2020-01-06,16.237155976992728,16.72800105190895,15.471436986050294,16.138986587524414,5810423,0.0,0
2020-01-07,16.119352450395365,16.138986702914483,15.648140688276143,15.981916427612305,3565000,0.0,0
2020-01-08,15.707042682274263,15.981916603287207,15.569605721767791,15.74631118774414,3073364,0.0,0
2020-01-09,16.02118307740929,16.17825335287994,15.648140705060152,15.923013687133789,4549250,0.0,0
2020-01-10,16.080083784639108,16.23715593079675,15.687408100308396,16.178253173828125,2389243,0.0,0
2020-01-13,16.119352567932886,16.35495798260412,15.628507485928141,15.824846267700195,4640500,0.0,0
2020-01-14,15.805212271348175,15.962282550342843,14.941324800664791,15.451803207397461,13305500,0.0,0
2020-01-15,15.471437490262565,15.667775339385143,15.000225716155663,15.412535667419434,3027870,0.0,0
2020-01-16,15.471437490262565,15.648141086366527,15.216197818296855,15.412535667419434,2350680,0.0,0
2020-01-17,15.589239636764548,16.237155919790034,15.491070247642076,16.21752166748047,3773085,0.0,0
2020-01-20,16.27642274315544,16.29605699569562,15.746311031548345,15.923013687133789,1222715,0.0,0
2020-01-21,16.021183561598082,16.080084448573324,15.118028514134199,15.294733047485352,3274573,0.0,0
2020-01-22,15.294732697355931,15.805212032589857,15.23583181172906,15.76594352722168,1626700,0.0,0
2020-01-23,15.628507087800227,15.628507087800227,14.744986337183983,15.019859313964844,2713290,0.0,0
2020-01-24,14.980592399349762,15.412535667419434,14.921690576506633,15.412535667419434,628245,0.0,0
2020-01-29,15.07876078202914,15.07876078202914,13.900732756844672,14.214873313903809,2959020,0.0,0
2020-01-30,14.018534913301584,14.13633761755641,13.547324096282285,13.66512680053711,1971061,0.0,0
2020-01-31,13.743662233705875,14.136337923040966,13.174282016063646,13.252817153930664,3606000,0.0,0
2020-02-03,13.017211622493132,13.704394540715262,13.017211622493132,13.429521560668945,5167687,0.0,0
2020-02-04,13.645493372455205,14.097070900809651,13.60622580199885,13.841832160949707,4091554,0.0,0
2020-02-05,13.920366917568634,14.470112888780998,13.743662387286882,14.352310180664062,4198725,0.0,0
2020-02-06,14.941324596593274,15.078760620730124,14.273774983770746,14.430845260620117,4585800,0.0,0
2020-02-07,14.332677019146159,14.529014868131851,13.82219767557065,14.136338233947754,4145355,0.0,0
2020-02-10,13.586592082047504,14.430845289934197,13.5669578292951,14.39157772064209,6008214,0.0,0
2020-02-11,14.50938010216025,14.960957606968561,14.489746786062156,14.862789154052734,5286216,0.0,0
2020-02-12,14.921690101569233,15.118027944442641,14.725352258695827,14.764619827270508,4957556,0.0,0
2020-02-13,14.862789097489932,15.019859370527644,14.725352140475596,14.941324234008789,2985000,0.0,0
2020-02-14,15.019859313964844,15.176929586411049,14.764619653133423,15.019859313964844,1456000,0.0,0
2020-02-17,14.803887867033085,15.687408656191044,14.784254550227184,15.412535667419434,3645000,0.0,0
2020-02-18,15.235831925649583,15.765943645105924,15.216197672818685,15.60887336730957,4399000,0.0,0
2020-02-19,15.765943881644759,15.765943881644759,15.137662761033146,15.314367294311523,3492000,0.0,0
2020-02-20,15.1965635298796,15.62850773315582,15.1965635298796,15.471437454223633,1862256,0.0,0
2020-02-21,15.76594360940786,16.197887808582507,15.314367029872178,15.66777515411377,4494079,0.0,0
2020-02-24,15.51070450090538,15.707042342949716,14.764619764924225,14.862789154052734,5787267,0.0,0
2020-02-25,14.823521557362861,15.118027851761152,14.666450347814381,14.902056694030762,3845651,0.0,0
2020-02-26,14.803887660227874,14.980592190076049,14.35231014544797,14.411211967468262,4276000,0.0,0
2020-02-27,14.273775289858273,15.392902440727708,14.273775289858273,15.294733047485352,3115000,0.0,0
2020-02-28,14.725352350666437,15.039492901225927,14.627182960510252,14.627182960510254,4538013,0.0,0
2020-03-02,14.568281812575666,15.255464722634152,14.568281812575666,15.019859313964844,3955500,0.0,0
2020-03-03,15.078760370189542,15.549972129120954,14.744986505536785,14.78425407409668,4193386,0.0,0
2020-03-04,14.686084690121143,15.019859491112278,14.587915300578098,14.764619827270508,3278585,0.0,0
2020-03-05,14.882422620164514,15.137662285501285,14.568282069727063,14.646817207336426,4814766,0.0,0
2020-03-06,14.332677228290667,14.509380826849917,13.841832130557599,13.881099700927734,8239265,0.0,0
2020-03-09,13.743662797050717,14.21487364356749,13.527690690957499,13.80256462097168,7768634,0.0,0
2020-03-10,14.03816971265211,14.509380548039003,13.547324624351075,14.23450756072998,6836627,0.0,0
2020-03-11,14.11670488746033,14.62718329374931,14.11670488746033,14.175605773925781,4016100,0.0,0
2020-03-12,14.077437646035797,14.077437646035797,13.449155579738772,13.763297080993652,4636885,0.0,0
2020-03-13,12.8012400338574,14.155972607736834,12.761972463725215,13.979268074035645,13861590,0.0,0
2020-03-16,14.038169957410739,14.3326772027687,12.506732843276973,12.644169807434082,8528813,0.0,0
2020-03-17,12.369296935477102,12.683437500930093,11.878451833850434,12.487099647521973,6494500,0.0,0
2020-03-18,12.114056827612332,12.86014158027274,11.603577490672253,11.780282020568848,6423254,0.0,0
2020-03-19,11.387606128630164,12.565634122850913,11.034197075015062,12.074789047241211,11106280,0.0,0
2020-03-20,12.467464951192825,12.467464951192825,11.682112629245696,11.780282020568848,11014000,0.0,0
2020-03-23,11.093099346018255,11.623212011732479,11.093099346018255,11.426874160766602,8403588,0.0,0
2020-03-24,11.407239450104342,12.11405662144905,11.407239450104342,12.055154800415039,6686647,0.0,0
2020-03-25,12.310394968550769,13.056479739059961,12.310394968550769,12.663803100585938,7468331,0.0,0
2020-03-26,12.585268044616525,12.86014197425734,12.428197762657618,12.565634727478027,2914020,0.0,0
2020-03-27,12.840507447970152,13.115380435555577,12.644169599694846,12.919042587280273,4111540,0.0,0
2020-03-30,12.467465302968328,12.781606802338453,12.447831985877356,12.604902267456055,4005148,0.0,0
2020-03-31,12.781606747477051,12.879775204936013,12.428197679229159,12.663803100585938,5846029,0.0,0
2020-04-01,12.742337849505248,13.625859556764343,12.388929728329225,13.213549613952637,11538480,0.0,0
2020-04-02,13.193915862175684,13.193915862175684,12.369296881462546,12.546000480651855,5573271,0.0,0
2020-04-03,12.585267930166081,12.938676997572449,12.5263670430735,12.703070640563965,2987590,0.0,0
2020-04-06,13.036845448294452,13.036845448294452,12.192592222757744,12.722704887390137,2955770,0.0,0
2020-04-07,12.801239366455722,13.920366461195567,12.801239366455722,13.66512680053711,9727155,0.0,0
2020-04-08,13.665127602159304,14.214873587597626,13.566958208081813,13.861465454101562,5813900,0.0,0
2020-04-09,14.214872931012282,14.921690101569233,14.155972046256602,14.764619827270508,8228268,0.0,0
2020-04-14,14.941324800664791,15.549972599875485,14.5682824199461,15.451803207397461,9509101,0.0,0
2020-04-15,15.54997281998275,15.608873707333128,14.960958329202635,15.157296180725098,10979820,0.0,0
2020-04-16,14.823521585643865,15.373267543368005,14.72535219651536,14.862789154052734,7080355,0.0,0
2020-04-17,15.0394935303066,15.667775593918417,14.764620537069499,15.078761100769043,9031126,0.0,0
2020-04-20,15.412535578559154,15.608873426549755,14.82352203458735,15.530338287353516,7156500,0.0,0
2020-04-21,15.137662827110036,15.373268248367824,14.823522265432986,15.216197967529297,5814122,0.0,0
2020-04-22,15.019860116481142,15.432170071788631,14.784254695223355,15.216197967529297,3633883,0.0,0
2020-04-23,15.608873546845915,15.608873546845915,14.960958175377154,15.373268127441406,4026215,0.0,0
2020-04-24,15.628507916287221,15.628507916287221,15.059127680379822,15.235832214355469,2678073,0.0,0
2020-04-27,15.235832065201812,15.608873510278665,15.19656355918034,15.432169914245605,3072681,0.0,0
2020-04-28,15.510705274161115,15.589240414894064,15.118028634283643,15.137662887573242,1939433,0.0,0
2020-04-29,15.334000587463377,15.353634840558426,15.098395167599108,15.334000587463379,2013625,0.0,0
2020-05-04,15.01985929119702,15.118027743220754,14.823521450936882,15.0394926071167,1747616,0.0,0
2020-05-05,15.019859998334638,15.510705090200394,14.941324858533136,15.373268127441406,1165000,0.0,0
2020-05-06,15.451802162534223,17.218845490373482,15.35363371290714,17.002872467041016,10433590,0.0,0
2020-05-07,17.042140970347027,17.179576987067474,16.688731930294118,17.002872467041016,3081000,0.0,0
2020-05-08,17.395549706262006,17.866762426289608,17.120677648040157,17.49371910095215,3236553,0.0,0
2020-05-11,17.670423374787074,18.51467753520304,17.35628281437893,17.866762161254883,4086594,0.0,0
2020-05-12,17.866762308714165,17.866762308714165,17.474084732537673,17.631155014038086,2597057,0.0,0
2020-05-13,17.415183701349097,17.96492968206335,16.98323949457518,17.866762161254883,2156156,0.0,0
2020-05-14,17.650788945718435,18.220169173889175,17.572253806399207,18.102367401123047,4963262,0.0,0
2020-05-15,18.220169676006414,18.220169676006414,17.31701461273317,17.454452514648438,4133973,0.0,0
2020-05-18,17.159944144468955,17.964929804089,17.101043257098706,17.709692001342773,4086522,0.0,0
2020-05-19,18.00419814682665,18.200536932841892,17.847127866984632,17.886394500732422,2321256,0.0,0
2020-05-20,17.709691583579147,18.436142085427072,17.709691583579147,18.279071807861328,2502354,0.0,0
2020-05-21,18.220169361938826,18.220169361938826,17.591888240900552,17.84712791442871,2804146,0.0,0
2020-05-22,17.5918888038559,17.72932483537473,17.002874297820835,17.120677947998047,5119273,0.0,0
2020-05-25,16.747634258053758,17.611522681081706,16.629832482820692,17.591888427734375,3462000,0.0,0
2020-05-26,17.827493850625963,17.827493850625963,17.21884697626239,17.591888427734375,3933000,0.0,0
2020-05-27,17.729323800510368,18.73064821507991,17.591887777013707,18.49504280090332,4492449,0.0,0
2020-05-28,18.51467712373818,18.966253701182822,17.90602839715476,18.377239227294922,3261620,0.0,0
2020-05-29,18.49504280670437,18.84845186429279,18.279071645081103,18.47540855407715,7148662,0.0,0
2020-06-01,18.553943219927906,19.358928832901682,18.553943219927906,19.182226181030273,4422075,0.0,0
2020-06-02,19.319662088928858,19.59453412741686,19.14295756565781,19.339296340942383,2241706,0.0,0
2020-06-03,19.63380413290895,20.222818631381315,17.69005797313308,19.879226684570312,6229750,0.0,0
2020-06-04,19.92830899587517,19.977394626091076,19.04478824866759,19.201858520507812,4108125,0.0,0
2020-06-05,19.084056519212464,19.633802463923228,18.86808349375711,19.574901580810547,4226677,0.0,0
2020-06-08,19.535633203324846,19.879225123148277,18.90735211959651,19.358928680419922,3360000,0.0,0
2020-06-09,19.24112837487145,20.271902340207674,19.044789585080995,19.92831039428711,4083156,0.0,0
2020-06-10,19.97739456810388,20.124647713473497,19.201858464771718,19.280393600463867,5789841,0.0,0
2020-06-11,19.064422602057356,19.2411271269229,18.730647804516956,19.084056854248047,6900398,0.0,0
2020-06-12,18.90735211959651,19.515998951352003,18.848451236103312,19.358928680419922,3166739,0.0,0
2020-06-15,19.221493111424678,19.260761616289617,18.67174715029315,18.750282287597656,2601000,0.0,0
2020-06-16,18.75028195194227,19.417831543293197,18.75028195194227,19.221492767333984,2608960,0.0,0
2020-06-17,19.12332495955343,19.633804321289062,18.868085278685612,19.633804321289062,3452736,0.0,0
2020-06-18,19.63380413290895,20.026479841082036,19.49636810315474,19.879226684570312,2117086,0.0,0
2020-06-19,19.87922638215121,20.615494025934588,19.781056988495003,20.271902084350586,4182029,0.0,0
2020-06-22,19.879226736343433,20.41915560243442,19.457099646798433,19.830142974853516,2953439,0.0,0
2020-06-23,19.731973343354184,20.2719022029849,19.14295885039539,20.124649047851562,2078350,0.0,0
2020-06-24,20.271902340207674,20.320987973868025,19.928310394287113,19.92831039428711,2179440,0.0,0
2020-06-26,19.97739601135254,20.026479772546644,19.221494105440307,19.97739601135254,1984500,0.0,0
2020-06-29,19.535633082133334,20.271900674719458,19.142957407239134,19.555267333984375,3728000,0.0,0
2020-06-30,19.437465477639574,19.977396218500694,19.437465477639574,19.68288803100586,3558964,0.0,0
2020-07-02,19.731972768254266,20.90999984741211,19.457098846904735,20.90999984741211,4164000,0.0,0
2020-07-03,21.549999237060547,22.450000762939453,21.549999237060547,22.299999237060547,4748647,0.39,0
2020-07-06,22.600000381469727,23.0,22.25,22.899999618530273,2769609,0.0,0
2020-07-07,23.0,23.0,21.5,21.649999618530273,5433593,0.0,0
2020-07-08,21.25,22.700000762939453,21.25,22.549999237060547,3244536,0.0,0
2020-07-09,22.200000762939453,22.75,22.200000762939453,22.399999618530273,2058500,0.0,0
2020-07-10,22.350000381469727,22.950000762939453,21.700000762939453,22.049999237060547,2543285,0.0,0
2020-07-13,22.0,22.799999237060547,22.0,22.799999237060547,1642588,0.0,0
2020-07-14,22.850000381469727,22.850000381469727,21.549999237060547,22.200000762939453,2538797,0.0,0
2020-07-15,22.5,22.799999237060547,22.0,22.100000381469727,1713500,0.0,0
2020-07-16,22.0,22.899999618530273,21.75,21.75,2415831,0.0,0
2020-07-17,21.899999618530273,22.799999237060547,21.899999618530273,22.299999237060547,1472000,0.0,0
2020-07-20,23.0,24.549999237060547,22.899999618530273,24.049999237060547,5331500,0.0,0
2020-07-21,24.899999618530273,25.149999618530273,23.799999237060547,23.899999618530273,3612500,0.0,0
2020-07-22,24.299999237060547,25.0,24.0,24.149999618530273,3323192,0.0,0
2020-07-23,24.149999618530273,25.0,23.549999237060547,24.700000762939453,1717800,0.0,0
2020-07-24,24.700000762939453,24.799999237060547,23.399999618530273,23.850000381469727,1749000,0.0,0
2020-07-27,23.850000381469727,24.600000381469727,23.549999237060547,24.200000762939453,1992035,0.0,0
2020-07-28,24.700000762939453,25.299999237060547,24.200000762939453,24.75,2063433,0.0,0
2020-07-29,25.0,25.0,23.799999237060547,24.100000381469727,2288487,0.0,0
2020-07-30,24.049999237060547,24.799999237060547,24.049999237060547,24.299999237060547,2413728,0.0,0
2020-07-31,24.200000762939453,24.700000762939453,23.850000381469727,24.149999618530273,3472231,0.0,0
2020-08-03,24.200000762939453,24.950000762939453,23.899999618530273,24.100000381469727,3049656,0.0,0
2020-08-04,24.299999237060547,24.75,23.5,24.100000381469727,3274500,0.0,0
2020-08-05,24.0,24.600000381469727,23.649999618530273,24.5,2185186,0.0,0
2020-08-06,24.399999618530273,25.549999237060547,23.799999237060547,24.350000381469727,3476759,0.0,0
2020-08-07,24.5,24.5,23.100000381469727,24.100000381469727,2701000,0.0,0
2020-08-10,24.100000381469727,24.5,23.649999618530273,24.149999618530273,1864568,0.0,0
2020-08-11,24.299999237060547,24.5,23.350000381469727,23.700000762939453,2629544,0.0,0
2020-08-12,23.75,24.100000381469727,22.450000762939453,23.5,3464500,0.0,0
2020-08-13,23.700000762939453,23.899999618530273,22.950000762939453,23.350000381469727,3401739,0.0,0
2020-08-14,23.399999618530273,23.399999618530273,22.450000762939453,23.200000762939453,2796197,0.0,0
2020-08-17,23.350000381469727,23.5,22.549999237060547,23.200000762939453,2739157,0.0,0
2020-08-18,23.25,24.049999237060547,22.899999618530273,24.049999237060547,2252500,0.0,0
2020-08-19,23.899999618530273,23.899999618530273,22.700000762939453,23.549999237060547,2062750,0.0,0
2020-08-20,23.450000762939453,23.5,22.5,22.899999618530273,2207427,0.0,0
2020-08-21,22.799999237060547,23.399999618530273,22.700000762939453,22.950000762939453,1174163,0.0,0
2020-08-24,22.899999618530273,23.100000381469727,22.299999237060547,23.049999237060547,1494500,0.0,0
2020-08-25,22.649999618530273,23.149999618530273,22.450000762939453,23.049999237060547,2267424,0.0,0
2020-08-26,22.75,23.0,22.149999618530273,22.399999618530273,1910826,0.0,0
2020-08-27,22.299999237060547,22.399999618530273,21.75,22.100000381469727,2392230,0.0,0
2020-08-28,21.700000762939453,22.450000762939453,21.549999237060547,21.950000762939453,2946322,0.0,0
2020-08-31,21.899999618530273,21.899999618530273,20.100000381469727,20.149999618530273,7589800,0.0,0
2020-09-01,20.049999237060547,20.350000381469727,19.760000228881836,20.350000381469727,6154000,0.0,0
2020-09-02,20.399999618530273,20.399999618530273,19.579999923706055,19.739999771118164,7373000,0.0,0
2020-09-03,20.0,21.5,19.84000015258789,21.0,7366123,0.0,0
2020-09-04,20.100000381469727,21.399999618530273,20.100000381469727,21.049999237060547,3565961,0.0,0
2020-09-07,21.100000381469727,22.5,20.950000762939453,21.049999237060547,5164939,0.0,0
2020-09-08,21.649999618530273,21.649999618530273,20.399999618530273,20.899999618530273,2661560,0.0,0
2020-09-09,20.299999237060547,21.399999618530273,20.299999237060547,21.200000762939453,3629920,0.0,0
2020-09-10,21.350000381469727,21.350000381469727,20.350000381469727,20.600000381469727,3277474,0.0,0
2020-09-11,20.850000381469727,20.850000381469727,19.899999618530273,20.149999618530273,3354716,0.0,0
2020-09-14,20.200000762939453,20.950000762939453,19.920000076293945,20.149999618530273,4746000,0.0,0
2020-09-15,19.979999542236328,20.350000381469727,19.8799991607666,19.979999542236328,5076500,0.0,0
2020-09-16,19.979999542236328,20.299999237060547,19.799999237060547,20.200000762939453,3047046,0.0,0
2020-09-17,20.200000762939453,20.450000762939453,19.760000228881836,19.979999542236328,3901571,0.0,0
2020-09-18,19.8799991607666,19.959999084472656,18.899999618530273,19.940000534057617,3159926,0.0,0
2020-09-21,19.920000076293945,20.100000381469727,19.600000381469727,19.760000228881836,1585500,0.0,0
2020-09-22,19.700000762939453,19.959999084472656,19.559999465942383,19.600000381469727,3674644,0.0,0
2020-09-23,19.899999618530273,19.920000076293945,19.739999771118164,19.81999969482422,1467274,0.0,0
2020-09-24,19.700000762939453,20.700000762939453,19.700000762939453,19.739999771118164,3432024,0.0,0
2020-09-25,19.920000076293945,19.979999542236328,19.139999389648438,19.420000076293945,2404600,0.0,0
2020-09-28,19.700000762939453,19.700000762939453,18.8799991607666,19.15999984741211,2719200,0.0,0
2020-09-29,19.280000686645508,19.940000534057617,19.020000457763672,19.239999771118164,1502900,0.0,0
2020-09-30,19.079999923706055,19.8799991607666,19.079999923706055,19.860000610351562,3133414,0.0,0
2020-10-05,19.8799991607666,19.940000534057617,19.219999313354492,19.68000030517578,2228997,0.0,0
2020-10-06,19.68000030517578,20.549999237060547,19.68000030517578,20.450000762939453,1964228,0.0,0
2020-10-07,20.600000381469727,20.75,20.149999618530273,20.450000762939453,2290639,0.0,0
2020-10-08,20.450000762939453,20.75,20.149999618530273,20.700000762939453,1825279,0.0,0
2020-10-09,20.600000381469727,20.799999237060547,19.799999237060547,20.0,3536000,0.0,0
2020-10-12,19.979999542236328,20.450000762939453,19.739999771118164,20.049999237060547,4507500,0.0,0
2020-10-14,20.600000381469727,20.600000381469727,19.940000534057617,20.100000381469727,4710251,0.0,0
2020-10-15,20.299999237060547,20.299999237060547,19.780000686645508,19.979999542236328,2941112,0.0,0
2020-10-16,20.0,20.350000381469727,19.739999771118164,20.100000381469727,2861500,0.0,0
2020-10-19,20.149999618530273,20.25,19.3799991607666,19.799999237060547,1634119,0.0,0
2020-10-20,19.780000686645508,19.799999237060547,19.219999313354492,19.600000381469727,2719731,0.0,0
2020-10-21,19.579999923706055,19.65999984741211,19.079999923706055,19.6200008392334,3460228,0.0,0
2020-10-22,19.600000381469727,19.600000381469727,19.15999984741211,19.200000762939453,2602207,0.0,0
2020-10-23,19.239999771118164,19.239999771118164,18.920000076293945,19.139999389648438,2543000,0.0,0
2020-10-27,18.899999618530273,19.5,18.799999237060547,19.219999313354492,4061354,0.0,0
2020-10-28,19.219999313354492,19.280000686645508,18.440000534057617,18.979999542236328,3651839,0.0,0
2020-10-29,18.899999618530273,19.280000686645508,18.239999771118164,19.139999389648438,3210456,0.0,0
2020-10-30,19.600000381469727,20.149999618530273,19.200000762939453,19.760000228881836,3901866,0.0,0
2020-11-02,20.299999237060547,20.350000381469727,19.81999969482422,20.25,3568223,0.0,0
2020-11-03,20.049999237060547,20.549999237060547,18.899999618530273,19.760000228881836,4401374,0.0,0
2020-11-04,19.579999923706055,20.149999618530273,19.299999237060547,19.399999618530273,3426133,0.0,0
2020-11-05,19.700000762939453,19.700000762939453,18.959999084472656,19.520000457763672,4565900,0.0,0
2020-11-06,19.520000457763672,19.799999237060547,18.899999618530273,19.420000076293945,3857863,0.0,0
2020-11-09,19.420000076293945,19.760000228881836,19.059999465942383,19.559999465942383,3227363,0.0,0
2020-11-10,19.600000381469727,19.600000381469727,19.0,19.440000534057617,3521146,0.0,0
2020-11-11,19.200000762939453,19.899999618530273,19.1200008392334,19.600000381469727,2880320,0.0,0
2020-11-12,19.559999465942383,19.559999465942383,18.700000762939453,19.280000686645508,5855056,0.0,0
2020-11-13,19.219999313354492,19.31999969482422,18.719999313354492,19.31999969482422,5360062,0.0,0
2020-11-16,19.459999084472656,19.65999984741211,18.8799991607666,19.420000076293945,3844231,0.0,0
2020-11-17,19.420000076293945,20.399999618530273,19.31999969482422,20.0,5300379,0.0,0
2020-11-18,20.200000762939453,20.700000762939453,19.81999969482422,20.0,5931274,0.0,0
2020-11-19,20.149999618530273,20.200000762939453,19.559999465942383,19.719999313354492,2075000,0.0,0
2020-11-20,19.719999313354492,20.149999618530273,19.239999771118164,20.049999237060547,3091753,0.0,0
2020-11-23,20.100000381469727,21.149999618530273,19.65999984741211,20.75,6480614,0.0,0
2020-11-24,21.100000381469727,22.950000762939453,21.100000381469727,22.0,12678100,0.0,0
2020-11-25,22.0,22.25,20.450000762939453,20.450000762939453,6959600,0.0,0
2020-11-26,20.399999618530273,20.850000381469727,19.8799991607666,20.299999237060547,2471500,0.0,0
2020-11-27,20.299999237060547,20.850000381469727,19.81999969482422,20.649999618530273,3943343,0.0,0
2020-11-30,20.700000762939453,21.0,18.899999618530273,19.239999771118164,9700500,0.0,0
2020-12-01,19.1200008392334,19.68000030517578,18.739999771118164,19.600000381469727,5948217,0.0,0
2020-12-02,19.739999771118164,19.81999969482422,19.059999465942383,19.399999618530273,4029500,0.0,0
2020-12-03,19.399999618530273,19.399999618530273,18.920000076293945,19.100000381469727,3133423,0.0,0
2020-12-04,19.040000915527344,19.420000076293945,19.020000457763672,19.299999237060547,2194500,0.0,0
2020-12-07,19.139999389648438,19.139999389648438,18.520000457763672,18.760000228881836,5174635,0.0,0
