Date,Open,High,Low,Close,Volume,Dividends,Stock Splits
2020-01-02,3.832759725922493,3.8620920422193454,3.7838722989818776,3.8425371646881104,1151000,0.0,0
2020-01-03,3.832759642425052,3.90120171229335,3.774094777996845,3.813204765319824,1533000,0.0,0
2020-01-06,3.8132049909258963,3.8229824300569866,3.656765731715911,3.725207805633545,3247000,0.0,0
2020-01-07,3.774094868290057,3.774094868290057,3.666543041638183,3.734985113143921,2647504,0.0,0
2020-01-08,3.715430235570853,3.7936499789756537,3.6958753579977848,3.734985113143921,2908005,0.0,0
2020-01-09,3.813204812476593,4.0674182179883385,3.783872263343481,3.9696438312530518,4215000,0.0,0
2020-01-10,3.9696438312530513,4.018531257733221,3.901201760538351,3.9696438312530518,2562500,0.0,0
2020-01-13,3.9891988754350987,4.243412757803547,3.9696439972702238,4.223857879638672,5188000,0.0,0
2020-01-14,4.448738940939511,4.448738940939511,4.09675068916533,4.135860443115234,3986105,0.0,0
2020-01-15,4.15541536174085,4.253189747595626,4.15541536174085,4.204302787780762,1451500,0.0,0
2020-01-16,4.321632002468347,4.409629181865905,4.184747863802732,4.243412494659424,5745995,0.0,0
2020-01-17,4.292299797624473,4.292299797624473,4.174970526516192,4.253190040588379,5375000,0.0,0
2020-01-20,4.214080283552286,4.272744919106426,4.204303077405802,4.253190040588379,2124000,0.0,0
2020-01-21,4.3998514657829135,4.3998514657829135,4.13586039648494,4.1749701499938965,3246500,0.0,0
2020-01-22,4.214080071197825,4.3118544588610455,4.096750806001959,4.233634948730469,4096090,0.0,0
2020-01-23,4.204302793947092,4.214079999434386,4.067418187324595,4.096750736236572,6360505,0.0,0
2020-01-24,4.106528106895198,4.1554155349731445,4.0869732289090335,4.1554155349731445,361050,0.0,0
2020-01-29,4.008753888061603,4.145638039807097,3.9207571664806142,4.106528282165527,6242000,0.0,0
2020-01-30,4.096750908308105,4.106528114206061,3.901201894985785,3.959866762161255,3758000,0.0,0
2020-01-31,3.9207569429004256,4.008753659463423,3.862092076670877,3.9109792709350586,3190000,0.0,0
2020-02-03,3.8132048724215455,3.842537188903246,3.754540006345615,3.8229823112487793,4015656,0.0,0
2020-02-04,3.813204801057038,3.930534064788011,3.813204801057038,3.8816468715667725,1265000,0.0,0
2020-02-05,3.832759832541855,3.9403118950680485,3.793650076391433,3.8523147106170654,1543500,0.0,0
2020-02-06,3.8718694329225247,3.9109791874995157,3.8229822397012856,3.8816468715667725,1323500,0.0,0
2020-02-07,3.8229823548187327,3.842537232696064,3.676320537626218,3.783872365951538,2322500,0.0,0
2020-02-10,3.6665430986875522,3.813204915880067,3.6665430986875522,3.783872365951538,833000,0.0,0
2020-02-11,3.910979150845964,3.910979150845964,3.754539900891617,3.813204765319824,1056100,0.0,0
2020-02-12,3.8132048246043144,3.910979211650568,3.774094836673286,3.8620920181274414,1356956,0.0,0
2020-02-13,3.901201856409535,3.910979295323342,3.8034274672714643,3.8914244174957275,876000,0.0,0
2020-02-14,3.891424286421628,3.9012017250061035,3.8034273391613485,3.9012017250061035,981000,0.0,0
2020-02-17,3.8718695155237133,3.9403118206060985,3.842537198965204,3.9109792709350586,1161000,0.0,0
2020-02-18,3.910979383036965,3.930534261303147,3.8816470656376922,3.9207570552825928,1160000,0.0,0
2020-02-19,3.901201748855268,3.9109791874995157,3.813204801057038,3.8816468715667725,803000,0.0,0
2020-02-20,3.910979270935059,3.910979270935059,3.8523146378180404,3.9109792709350586,582100,0.0,0
2020-02-21,3.862092018127441,3.871869456832066,3.7838722753779117,3.8620920181274414,1070100,0.0,0
2020-02-24,3.8132048966989314,3.8229823355884145,3.7643174691389847,3.8034274578094482,593500,0.0,0
2020-02-25,3.715430251036681,3.842537188903246,3.666543056900513,3.8229823112487793,1480750,0.0,0
2020-02-26,3.8229823355884145,3.8229823355884145,3.7545400302495016,3.8034274578094482,497500,0.0,0
2020-02-27,3.754539924313535,3.803427350494102,3.7154301698591006,3.793649911880493,535000,0.0,0
2020-02-28,3.725207756503644,3.764317512512207,3.6958754394972217,3.764317512512207,2165043,0.0,0
2020-03-02,3.539436074649751,3.9207568834677198,3.480771442421999,3.8620920181274414,2448376,0.0,0
2020-03-03,3.871869456832066,3.910979211650568,3.832759702013565,3.8620920181274414,2208500,0.0,0
2020-03-04,3.8425371364995344,3.8425371364995344,3.5883234973458453,3.6665430068969727,3668367,0.0,0
2020-03-05,3.451439168091909,3.6372107388413037,3.451439168091909,3.6274333000183105,2995768,0.0,0
2020-03-06,3.676320543733831,3.676320543733831,3.500326409432933,3.5883235931396484,2943435,0.0,0
2020-03-09,3.4807714828791867,3.519881238152263,3.3732196558782275,3.431884288787842,1845500,0.0,0
2020-03-10,3.3243325333264515,3.4123294845845655,3.197225592841086,3.3732197284698486,5099810,0.0,0
2020-03-11,3.4123293519259317,3.500326299763053,3.3145549654402418,3.3829970359802246,1388258,0.0,0
2020-03-12,3.4416618131409744,3.4416618131409744,3.1581158472517377,3.265667676925659,2350000,0.0,0
2020-03-13,2.903902242976059,3.226557970046997,2.8452376077108954,3.226557970046997,2294295,0.0,0
2020-03-16,3.4221068368452072,3.4221068368452072,3.089673685186469,3.1483383178710938,2042000,0.0,0
2020-03-17,3.0407863613375286,3.2070030593625423,3.0407863613375286,3.158115863800049,1457500,0.0,0
2020-03-18,3.1483384626954956,3.197225658848174,2.972344323433314,3.0310089588165283,2783412,0.0,0
2020-03-19,2.9918990135192867,3.070118755551262,2.8941246273699734,2.991899013519287,2163782,0.0,0
2020-03-20,2.9723441362894243,3.0310087679790123,2.9039020659849046,2.991899013519287,2269500,0.0,0
2020-03-23,2.9332343565132475,2.9332343565132475,2.718130475728773,2.8159050941467285,1942271,0.0,0
2020-03-24,2.89412477868663,2.972344291695716,2.7963501543127354,2.96256685256958,2581000,0.0,0
2020-03-25,2.9625667030832448,3.246112656546448,2.952789264450463,3.187448024749756,1266000,0.0,0
2020-03-26,3.2461128234863277,3.3243325696837647,3.167893310401428,3.246112823486328,929500,0.0,0
2020-03-27,3.28522255504819,3.3243325444057876,3.1972256034968,3.265667676925659,1243000,0.0,0
2020-03-30,3.2265577676917228,3.373219579769197,3.207002890496396,3.294999837875366,2598571,0.0,0
2020-03-31,3.3634421655657514,3.412329358908635,3.2363352297617283,3.275444984436035,1829830,0.0,0
2020-04-01,3.3047776914125397,3.334110008819377,3.2461128234863277,3.246112823486328,1169500,0.0,0
2020-04-02,3.2265579206805968,3.28522255504819,3.1972256034968,3.265667676925659,855553,0.0,0
2020-04-03,3.2167803167492277,3.2656675095499335,3.1092284925876754,3.207002878189087,1461500,0.0,0
2020-04-06,3.2754450823659473,3.2754450823659473,3.089673742108761,3.197225570678711,621993,0.0,0
2020-04-07,3.3243325824181205,3.3732197782834525,3.2656677142671837,3.3341100215911865,1903500,0.0,0
2020-04-08,3.373219573679519,3.4025518894195557,3.3438872579394827,3.4025518894195557,740948,0.0,0
2020-04-09,3.4612166636290542,3.5101038585450652,3.3829971517634365,3.480771541595459,961500,0.0,0
2020-04-14,3.5687686758213557,3.5687686758213557,3.4514391765455352,3.519881248474121,854500,0.0,0
2020-04-15,3.5589912015866396,3.5589912015866396,3.3634421934796768,3.451439142227173,1019500,0.0,0
2020-04-16,3.382997108816705,3.4514391808302567,3.314555036803153,3.3243324756622314,1098000,0.0,0
2020-04-17,3.4123293872282856,3.5101037747255033,3.343887315980233,3.451439142227173,1358500,0.0,0
2020-04-20,3.5101037503942916,3.5101037503942916,3.4318842409387167,3.470993995666504,252500,0.0,0
2020-04-21,3.392774557573307,3.4123294353485107,3.3145550464724916,3.4123294353485107,844000,0.0,0
2020-04-22,3.3829971674985275,3.3829971674985275,3.304777655269093,3.3732197284698486,602200,0.0,0
2020-04-23,3.4221067428588867,3.431884181371126,3.3829969888099316,3.4221067428588867,466700,0.0,0
2020-04-24,3.4514391808302567,3.4514391808302567,3.275445048254307,3.3243324756622314,1935500,0.0,0
2020-04-27,3.3536648260782433,3.3927745819091797,3.3243325092050413,3.3927745819091797,3720200,0.0,0
2020-04-28,3.422106828908911,3.6469881534576416,3.343887318844145,3.6469881534576416,3166200,0.0,0
2020-04-29,3.6665430109224073,3.862092018127441,3.5589911851715286,3.8620920181274414,4673000,0.0,0
2020-05-04,3.891424273740736,3.891424273740736,3.6763203924707053,3.813204765319824,2460000,0.0,0
2020-05-05,3.842537148208951,3.842537148208951,3.744762527859566,3.754539966583252,1654000,0.0,0
2020-05-06,3.8523145887314265,3.8523145887314265,3.500326328289327,3.5589911937713623,3029000,0.0,0
2020-05-07,3.558991329252544,3.558991329252544,3.31455511862871,3.3536648750305176,2985090,0.0,0
2020-05-08,3.373219597331656,3.392774474628794,3.255890100436303,3.3829970359802246,2964500,0.0,0
2020-05-11,3.4416616922842778,3.4416616922842778,3.2461126848132906,3.3634421825408936,2351000,0.0,0
2020-05-12,3.3536648999373195,3.3536648999373195,3.177670761709586,3.3341100215911865,2113174,0.0,0
2020-05-13,3.3341098903134743,3.3634422066777385,3.2754450244724165,3.3438873291015625,1845000,0.0,0
2020-05-14,3.3438874607642535,3.363442339110386,3.2754451534402502,3.3341100215911865,1393000,0.0,0
2020-05-15,3.3634422066777385,3.3732196454658268,3.25589014689624,3.3438873291015625,2432908,0.0,0
2020-05-18,3.324332451525386,3.3438873291015625,3.3047775739492096,3.3438873291015625,1528500,0.0,0
2020-05-19,3.3732197039937115,3.5296587273174564,3.25589020338837,3.3927745819091797,4063500,0.0,0
2020-05-20,3.461216639376026,3.5101038339494806,3.373219689143808,3.50032639503479,2906000,0.0,0
2020-05-21,3.5492137658766842,3.715430224764312,3.4416617064251027,3.6469881534576416,2812500,0.0,0
2020-05-22,3.6469881178491077,3.6469881178491077,3.490548866134492,3.5785460472106934,2292945,0.0,0
2020-05-25,3.5785460472106934,3.588323485873324,3.490548866134492,3.5785460472106934,2230000,0.0,0
2020-05-26,3.6665430553102825,3.676320494133275,3.5296586786758524,3.6274333000183105,1976500,0.0,0
2020-05-27,3.6372106614423294,3.6372106614423294,3.4416616560311777,3.490548849105835,2686500,0.0,0
2020-05-28,3.470993935420081,3.5394360050057525,3.4025518658344094,3.4221067428588867,1960500,0.0,0
2020-05-29,3.461216504440551,3.6372106311563908,3.4025518732394455,3.6176557540893555,7015000,0.0,0
2020-06-01,3.68609798268874,3.68609798268874,3.5296587262976606,3.5883235931396484,1230000,0.0,0
2020-06-02,3.568768632499613,3.637210703597372,3.51988120574583,3.5589911937713623,2369035,0.0,0
2020-06-03,3.6274333243561663,3.6274333243561663,3.5101038245805127,3.6078784465789795,3513000,0.0,0
2020-06-04,3.6665430799105403,3.6665430799105403,3.5589912521360114,3.6078784465789795,1142500,0.0,0
2020-06-05,3.578545999955285,3.6958752623574966,3.578545999955285,3.6176557540893555,2046133,0.0,0
2020-06-08,3.627433192622873,3.6958752623574966,3.578545999955285,3.6176557540893555,1690375,0.0,0
2020-06-09,3.637210703597372,3.676320458510377,3.5101037670175783,3.5589911937713623,2251000,0.0,0
2020-06-10,3.5785461299131986,3.6078784465789795,3.5198812634691063,3.6078784465789795,2591000,0.0,0
2020-06-11,3.607878520799382,3.607878520799382,3.3732197495332628,3.5492138862609863,2964000,0.0,0
2020-06-12,3.5296587273174564,3.5296587273174564,3.314555070247307,3.3927745819091797,3034000,0.0,0
2020-06-15,3.314555021173697,3.3438873376126197,3.1874480834925016,3.236335277557373,2639000,0.0,0
2020-06-16,3.304777631289573,3.4025520208669136,3.2754450813038383,3.3927745819091797,1458000,0.0,0
2020-06-17,3.3927744569645237,3.402551895562187,3.187448013301069,3.294999837875366,4932172,0.0,0
2020-06-18,3.2200000286102295,3.369999885559082,3.2200000286102295,3.3499999046325684,994000,0.075,0
2020-06-19,3.369999885559082,3.440000057220459,3.319999933242798,3.390000104904175,5583500,0.0,0
2020-06-22,3.359999895095825,3.4100000858306885,3.259999990463257,3.3399999141693115,2477000,0.0,0
2020-06-23,3.319999933242798,3.430000066757202,3.299999952316284,3.4200000762939453,1592000,0.0,0
2020-06-24,3.390000104904175,3.5399999618530273,3.390000104904175,3.5299999713897705,1915000,0.0,0
2020-06-26,3.5,3.630000114440918,3.4800000190734863,3.630000114440918,1642794,0.0,0
2020-06-29,3.5899999141693115,3.75,3.5799999237060547,3.7100000381469727,2999000,0.0,0
2020-06-30,3.690000057220459,3.8499999046325684,3.680000066757202,3.8499999046325684,5557000,0.0,0
2020-07-02,3.809999942779541,3.8499999046325684,3.6700000762939453,3.700000047683716,14143000,0.0,0
2020-07-03,3.690000057220459,3.7300000190734863,3.630000114440918,3.6700000762939453,2509500,0.0,0
2020-07-06,3.7100000381469727,3.7100000381469727,3.5399999618530273,3.6500000953674316,3874000,0.0,0
2020-07-07,3.549999952316284,3.690000057220459,3.549999952316284,3.6500000953674316,12340000,0.0,0
2020-07-08,3.5799999237060547,3.740000009536743,3.5799999237060547,3.740000009536743,1796747,0.0,0
2020-07-09,3.6600000858306885,3.819999933242798,3.6500000953674316,3.740000009536743,1833732,0.0,0
2020-07-10,3.7200000286102295,3.7899999618530273,3.569999933242798,3.6500000953674316,2558500,0.0,0
2020-07-13,3.640000104904175,3.690000057220459,3.5899999141693115,3.690000057220459,2374500,0.0,0
2020-07-14,3.700000047683716,3.7100000381469727,3.5299999713897705,3.5999999046325684,1991000,0.0,0
2020-07-15,3.5799999237060547,3.640000104904175,3.5399999618530273,3.5999999046325684,2080500,0.0,0
2020-07-16,3.549999952316284,3.569999933242798,3.3399999141693115,3.450000047683716,3192752,0.0,0
2020-07-17,3.4200000762939453,3.509999990463257,3.2899999618530273,3.5,2363248,0.0,0
2020-07-20,3.509999990463257,3.509999990463257,3.4200000762939453,3.509999990463257,2169000,0.0,0
2020-07-21,3.4600000381469727,3.549999952316284,3.4200000762939453,3.549999952316284,2305068,0.0,0
2020-07-22,3.490000009536743,3.5399999618530273,3.450000047683716,3.5,1546500,0.0,0
2020-07-23,3.4600000381469727,3.509999990463257,3.4100000858306885,3.5,1416000,0.0,0
2020-07-24,3.430000066757202,3.450000047683716,3.3299999237060547,3.390000104904175,1710000,0.0,0
2020-07-27,3.369999885559082,3.380000114440918,3.3299999237060547,3.359999895095825,1069500,0.0,0
2020-07-28,3.4100000858306885,3.5999999046325684,3.4000000953674316,3.5199999809265137,1992500,0.0,0
2020-07-29,3.5299999713897705,3.5299999713897705,3.440000057220459,3.5,959500,0.0,0
2020-07-30,3.450000047683716,3.569999933242798,3.440000057220459,3.4700000286102295,1191500,0.0,0
2020-07-31,3.450000047683716,3.509999990463257,3.4100000858306885,3.4800000190734863,593000,0.0,0
2020-08-03,3.490000009536743,3.490000009536743,3.4200000762939453,3.4600000381469727,388300,0.0,0
2020-08-04,3.4200000762939453,3.490000009536743,3.380000114440918,3.4800000190734863,1481000,0.0,0
2020-08-05,3.4600000381469727,3.5199999809265137,3.4200000762939453,3.509999990463257,291500,0.0,0
2020-08-06,3.440000057220459,3.5199999809265137,3.4100000858306885,3.4800000190734863,649500,0.0,0
2020-08-07,3.4600000381469727,3.4600000381469727,3.359999895095825,3.430000066757202,644500,0.0,0
2020-08-10,3.369999885559082,3.390000104904175,3.259999990463257,3.380000114440918,1045500,0.0,0
2020-08-11,3.390000104904175,3.4600000381469727,3.369999885559082,3.4600000381469727,766500,0.0,0
2020-08-12,3.440000057220459,3.450000047683716,3.3499999046325684,3.4100000858306885,736500,0.0,0
2020-08-13,3.4000000953674316,3.5399999618530273,3.4000000953674316,3.5,444500,0.0,0
2020-08-14,3.5,3.5199999809265137,3.450000047683716,3.5199999809265137,427000,0.0,0
2020-08-17,3.5,3.619999885559082,3.5,3.5799999237060547,1700000,0.0,0
2020-08-18,3.680000066757202,3.680000066757202,3.5,3.5299999713897705,1769500,0.0,0
2020-08-19,3.509999990463257,3.5799999237060547,3.490000009536743,3.5199999809265137,1648500,0.0,0
2020-08-20,3.5199999809265137,3.5299999713897705,3.4800000190734863,3.5,1643918,0.0,0
2020-08-21,3.5,3.6500000953674316,3.5,3.619999885559082,2785500,0.0,0
2020-08-24,3.609999895095825,3.6500000953674316,3.5799999237060547,3.5999999046325684,1528500,0.0,0
2020-08-25,3.609999895095825,3.640000104904175,3.559999942779541,3.630000114440918,2683000,0.0,0
2020-08-26,3.5999999046325684,3.7799999713897705,3.5899999141693115,3.5999999046325684,2362000,0.0,0
2020-08-27,3.559999942779541,3.5999999046325684,3.490000009536743,3.549999952316284,1951500,0.0,0
2020-08-28,3.5899999141693115,3.640000104904175,3.5299999713897705,3.559999942779541,1717000,0.0,0
2020-08-31,3.559999942779541,3.6700000762939453,3.5399999618530273,3.559999942779541,1594000,0.0,0
2020-09-01,3.549999952316284,3.6500000953674316,3.490000009536743,3.5199999809265137,1737000,0.0,0
2020-09-02,3.5199999809265137,3.5899999141693115,3.4000000953674316,3.440000057220459,2151000,0.0,0
2020-09-03,3.450000047683716,3.4700000286102295,3.359999895095825,3.430000066757202,1624064,0.0,0
2020-09-04,3.359999895095825,3.450000047683716,3.25,3.359999895095825,2357000,0.0,0
2020-09-07,3.390000104904175,3.4600000381469727,3.2899999618530273,3.450000047683716,4366500,0.0,0
2020-09-08,3.549999952316284,3.549999952316284,3.359999895095825,3.380000114440918,1662000,0.0,0
2020-09-09,3.490000009536743,3.490000009536743,3.25,3.259999990463257,1951500,0.0,0
2020-09-10,3.2699999809265137,3.2799999713897705,3.2100000381469727,3.25,1631626,0.0,0
2020-09-11,3.3299999237060547,3.3299999237060547,3.180000066757202,3.309999942779541,2014000,0.0,0
2020-09-14,3.309999942779541,3.380000114440918,3.25,3.309999942779541,1967096,0.0,0
2020-09-15,3.3499999046325684,3.3499999046325684,3.240000009536743,3.2699999809265137,1741500,0.0,0
2020-09-16,3.2699999809265137,3.3299999237060547,3.2300000190734863,3.2899999618530273,2001586,0.0,0
2020-09-17,3.2899999618530273,3.299999952316284,3.180000066757202,3.299999952316284,1469000,0.0,0
2020-09-18,3.259999990463257,3.309999942779541,3.049999952316284,3.049999952316284,5871500,0.0,0
2020-09-21,3.0,3.190000057220459,3.0,3.069999933242798,6196500,0.0,0
2020-09-22,3.130000114440918,3.25,3.059999942779541,3.2200000286102295,1589500,0.0,0
2020-09-23,3.130000114440918,3.240000009536743,3.119999885559082,3.2300000190734863,727500,0.0,0
2020-09-24,3.299999952316284,3.299999952316284,3.049999952316284,3.0999999046325684,2259500,0.0,0
2020-09-25,3.0899999141693115,3.0999999046325684,2.9700000286102295,3.009999990463257,1993500,0.0,0
2020-09-28,3.0199999809265137,3.0799999237060547,2.9600000381469727,3.059999942779541,1871500,0.0,0
2020-09-29,3.0299999713897705,3.0899999141693115,2.9800000190734863,3.009999990463257,1758500,0.0,0
2020-09-30,2.9700000286102295,3.130000114440918,2.9200000762939453,3.069999933242798,1993000,0.0,0
2020-10-05,3.0199999809265137,3.0799999237060547,2.9800000190734863,3.0399999618530273,1633000,0.0,0
2020-10-06,3.069999933242798,3.069999933242798,2.9600000381469727,2.9800000190734863,2042500,0.0,0
2020-10-07,3.009999990463257,3.0199999809265137,2.9000000953674316,3.0199999809265137,1882500,0.0,0
2020-10-08,3.049999952316284,3.049999952316284,2.930000066757202,2.990000009536743,2437500,0.0,0
2020-10-09,3.009999990463257,3.0199999809265137,2.930000066757202,3.0,2447933,0.0,0
2020-10-12,3.0199999809265137,3.0299999713897705,2.9600000381469727,3.0199999809265137,2444500,0.0,0
2020-10-14,3.0299999713897705,3.119999885559082,2.9700000286102295,3.0999999046325684,2097300,0.0,0
2020-10-15,3.059999942779541,3.1600000858306885,3.0399999618530273,3.109999895095825,2595000,0.0,0
2020-10-16,3.0799999237060547,3.190000057220459,2.9800000190734863,3.109999895095825,60613000,0.0,0
2020-10-19,3.1600000858306885,3.2100000381469727,3.0199999809265137,3.059999942779541,4311500,0.0,0
2020-10-20,3.0899999141693115,3.180000066757202,3.009999990463257,3.0399999618530273,4695000,0.0,0
2020-10-21,3.0899999141693115,3.1500000953674316,3.009999990463257,3.0399999618530273,4430000,0.0,0
2020-10-22,3.0899999141693115,3.0899999141693115,3.0299999713897705,3.0299999713897705,4916000,0.0,0
2020-10-23,3.059999942779541,3.380000114440918,3.049999952316284,3.25,13047000,0.0,0
2020-10-27,3.2699999809265137,3.440000057220459,3.1500000953674316,3.2100000381469727,6549000,0.0,0
2020-10-28,3.2799999713897705,3.2799999713897705,3.0399999618530273,3.180000066757202,3817000,0.0,0
2020-10-29,3.0999999046325684,3.0999999046325684,3.0199999809265137,3.0799999237060547,1968500,0.0,0
2020-10-30,3.0799999237060547,3.0799999237060547,2.940000057220459,3.0399999618530273,4412500,0.0,0
2020-11-02,3.049999952316284,3.109999895095825,3.049999952316284,3.109999895095825,2438500,0.0,0
2020-11-03,3.119999885559082,3.180000066757202,3.0999999046325684,3.180000066757202,5038000,0.0,0
2020-11-04,3.1700000762939453,3.240000009536743,3.140000104904175,3.2200000286102295,3433000,0.0,0
2020-11-05,3.25,3.4100000858306885,3.2100000381469727,3.4000000953674316,6682000,0.0,0
2020-11-06,3.4200000762939453,3.4700000286102295,3.309999942779541,3.4600000381469727,8372000,0.0,0
2020-11-09,3.5,3.7100000381469727,3.4800000190734863,3.549999952316284,7872500,0.0,0
2020-11-10,3.5999999046325684,3.5999999046325684,3.319999933242798,3.4700000286102295,7761500,0.0,0
2020-11-11,3.4200000762939453,3.5399999618530273,3.369999885559082,3.390000104904175,2973000,0.0,0
2020-11-12,3.430000066757202,3.440000057220459,2.8399999141693115,3.390000104904175,49915500,0.0,0
2020-11-13,3.450000047683716,3.549999952316284,3.25,3.440000057220459,15805000,0.0,0
2020-11-16,3.430000066757202,3.700000047683716,3.319999933242798,3.700000047683716,15755790,0.0,0
2020-11-17,3.700000047683716,3.869999885559082,3.700000047683716,3.8499999046325684,12534000,0.0,0
2020-11-18,3.8299999237060547,4.070000171661377,3.8299999237060547,4.03000020980835,12883000,0.0,0
2020-11-19,4.010000228881836,4.010000228881836,3.8299999237060547,4.0,11978320,0.0,0
2020-11-20,4.0,4.0,3.819999933242798,4.0,11420500,0.0,0
2020-11-23,4.0,4.0,3.890000104904175,3.9700000286102295,7882000,0.0,0
2020-11-24,3.990000009536743,4.150000095367432,3.9100000858306885,3.9800000190734863,8962000,0.0,0
2020-11-25,3.9700000286102295,3.9700000286102295,3.819999933242798,3.9000000953674316,6543500,0.0,0
2020-11-26,3.8299999237060547,4.03000020980835,3.8299999237060547,3.940000057220459,11360500,0.0,0
2020-11-27,3.950000047683716,4.050000190734863,3.9100000858306885,4.039999961853027,14066090,0.0,0
2020-11-30,3.950000047683716,4.139999866485596,3.950000047683716,4.130000114440918,11222000,0.0,0
2020-12-01,4.150000095367432,4.199999809265137,3.950000047683716,4.150000095367432,11967500,0.0,0
2020-12-02,4.090000152587891,4.179999828338623,4.010000228881836,4.070000171661377,3162500,0.0,0
2020-12-03,4.119999885559082,4.119999885559082,3.990000009536743,4.099999904632568,8003000,0.0,0
2020-12-04,4.099999904632568,4.159999847412109,4.03000020980835,4.099999904632568,4381000,0.0,0
2020-12-07,4.050000190734863,4.090000152587891,3.9700000286102295,4.03000020980835,4032000,0.0,0
