Date,Open,High,Low,Close,Volume,Dividends,Stock Splits
2020-10-30,6.480000019073486,7.0,6.079999923706055,6.079999923706055,203370026,0,0
2020-11-02,6.099999904632568,6.179999828338623,5.630000114440918,5.96999979019165,97696688,0,0
2020-11-03,5.809999942779541,5.900000095367432,5.599999904632568,5.610000133514404,38525262,0,0
2020-11-04,5.420000076293945,6.070000171661377,5.320000171661377,5.889999866485596,39094772,0,0
2020-11-05,6.010000228881836,6.449999809265137,5.96999979019165,6.329999923706055,33589399,0,0
2020-11-06,6.360000133514404,6.489999771118164,6.170000076293945,6.210000038146973,24653631,0,0
2020-11-09,6.230000019073486,6.440000057220459,6.130000114440918,6.21999979019165,19058355,0,0
2020-11-10,6.039999961853027,6.150000095367432,5.699999809265137,5.789999961853027,31577671,0,0
2020-11-11,5.690000057220459,5.71999979019165,5.349999904632568,5.349999904632568,22117347,0,0
2020-11-12,5.380000114440918,5.550000190734863,5.329999923706055,5.400000095367432,17128764,0,0
2020-11-13,5.46999979019165,5.550000190734863,5.329999923706055,5.340000152587891,10965522,0,0
2020-11-16,5.389999866485596,5.429999828338623,5.159999847412109,5.170000076293945,10345516,0,0
2020-11-17,5.179999828338623,5.400000095367432,5.179999828338623,5.380000114440918,11329126,0,0
2020-11-18,5.400000095367432,5.760000228881836,5.380000114440918,5.679999828338623,14894050,0,0
2020-11-19,5.610000133514404,5.980000019073486,5.599999904632568,5.96999979019165,15018240,0,0
2020-11-20,5.900000095367432,6.119999885559082,5.820000171661377,5.909999847412109,16228893,0,0
2020-11-23,5.849999904632568,6.019999980926514,5.599999904632568,5.809999942779541,7408185,0,0
2020-11-24,5.820000171661377,5.840000152587891,5.630000114440918,5.690000057220459,8448256,0,0
2020-11-25,5.659999847412109,5.699999809265137,5.449999809265137,5.579999923706055,9577503,0,0
2020-11-26,5.510000228881836,5.659999847412109,5.510000228881836,5.579999923706055,3449008,0,0
2020-11-27,5.579999923706055,5.800000190734863,5.539999961853027,5.71999979019165,5639982,0,0
2020-11-30,5.71999979019165,6.0,5.639999866485596,6.0,12221188,0,0
2020-12-01,5.940000057220459,5.96999979019165,5.800000190734863,5.809999942779541,4325337,0,0
2020-12-02,5.769999980926514,5.769999980926514,5.590000152587891,5.650000095367432,4442653,0,0
2020-12-03,5.599999904632568,5.730000019073486,5.519999980926514,5.579999923706055,2892920,0,0
2020-12-04,5.550000190734863,5.71999979019165,5.429999828338623,5.659999847412109,5577749,0,0
2020-12-07,5.559999942779541,5.619999885559082,5.489999771118164,5.5,2479209,0,0
