Date,Open,High,Low,Close,Volume,Dividends,Stock Splits
2020-01-02,2.7592498895960773,2.778749870744889,2.5837500592567726,2.7397499084472656,112492400,0.0,0
2020-01-03,2.7787499737526677,2.788499964688504,2.661750082522632,2.7300000190734863,43640000,0.0,0
2020-01-06,2.6812501645002764,2.769000086198995,2.6812501645002764,2.720250129699707,34007350,0.0,0
2020-01-07,2.905500086694478,3.06150017403566,2.8470001411133294,3.0517501831054688,137106400,0.0,0
2020-01-08,2.993249922793433,3.0322498854422415,2.876250034847007,2.944499969482422,96411250,0.0,0
2020-01-09,2.983499973533238,3.1200000771563934,2.9152500379507194,3.032249927520752,92754140,0.0,0
2020-01-10,3.041999944396639,3.041999944396639,2.8957500811803305,2.915250062942505,66161700,0.0,0
2020-01-13,2.905500171192729,2.934750144833956,2.7885000441696945,2.837250232696533,76877770,0.0,0
2020-01-14,2.886000025509209,2.954249960144624,2.8665000441848045,2.944499969482422,75918000,0.0,0
2020-01-15,2.9250001891888,2.9542501631857125,2.8275002758657584,2.856750249862671,42310670,0.0,0
2020-01-16,2.856750217460148,2.944500138455587,2.8275002437950016,2.9055001735687256,36625460,0.0,0
2020-01-17,2.9445001061600036,2.9542500972747803,2.876250168356568,2.9542500972747803,32771760,0.0,0
2020-01-20,2.9639999443797747,2.9639999443797747,2.847000056687048,2.8762500286102295,46032160,0.0,0
2020-01-21,2.8372501977174744,2.8567501799045534,2.7592500365110344,2.8177502155303955,45649000,0.0,0
2020-01-22,2.83725016627993,2.86650013923645,2.768999996923261,2.86650013923645,16608000,0.0,0
2020-01-23,2.8470002490559856,2.8470002490559856,2.6520001906007034,2.720250129699707,33977000,0.0,0
2020-01-24,2.720249927298454,2.7397499084472656,2.651999993277613,2.7397499084472656,8713099,0.0,0
2020-01-29,2.632500204387698,2.6812501608200736,2.564250265382372,2.5837502479553223,26616270,0.0,0
2020-01-30,2.5837501676063876,2.642250113506019,2.4472500613824595,2.4765000343322754,37202320,0.0,0
2020-01-31,2.515500068664551,2.5545000336890973,2.3497502173102265,2.515500068664551,25404450,0.0,0
2020-02-03,2.4472499472471707,2.495999899889921,2.242499913689509,2.34975004196167,108987400,0.0,0
2020-02-04,2.3692500300465085,2.4764999261786866,2.340000058374096,2.4179999828338623,57451900,0.0,0
2020-02-05,2.4765000037244853,2.5544999306266365,2.418000058547872,2.52524995803833,40940000,0.0,0
2020-02-06,2.574000144810293,2.574000144810293,2.4667500128617164,2.52524995803833,22558510,0.0,0
2020-02-07,2.534999876630073,2.55449985779968,2.3887500178580177,2.4862499237060547,31431510,0.0,0
2020-02-10,2.5155000272861137,2.5155000272861137,2.2815000085298616,2.3595001697540283,64751250,0.0,0
2020-02-11,2.3692502311095955,2.466750144958496,2.3302502655700352,2.466750144958496,34255070,0.0,0
2020-02-12,2.525249993207355,2.613000144652485,2.496000020211685,2.5447499752044678,84097860,0.0,0
2020-02-13,2.5544998944965314,2.5837500991292504,2.4667499779727207,2.5057499408721924,37666000,0.0,0
2020-02-14,2.5252500248607235,2.5350000159814936,2.437500104773792,2.496000051498413,30764000,0.0,0
2020-02-17,2.505749957521902,2.661750042614462,2.457000003573639,2.6422500610351562,55679000,0.0,0
2020-02-18,2.652000046318227,2.652000046318227,2.534999924627216,2.574000120162964,39172200,0.0,0
2020-02-19,2.603250128232447,2.642250091845827,2.554499941257602,2.5935001373291016,34198610,0.0,0
2020-02-20,2.5935000594790636,2.632500021921768,2.5349998833568947,2.554499864578247,30488000,0.0,0
2020-02-21,2.5544999662030246,2.5935001626553724,2.525249993207355,2.5447499752044678,27988930,0.0,0
2020-02-24,2.51549988840857,2.51549988840857,2.38875001116145,2.4179999828338623,36556000,0.0,0
2020-02-25,2.3497501435379187,2.4082500892380856,2.320500170687835,2.3400001525878906,43988790,0.0,0
2020-02-26,2.2912498892111293,2.340000074798777,2.2814998985852224,2.300999879837036,19503410,0.0,0
2020-02-27,2.2717498721984715,2.3205000570187155,2.2717498721984715,2.2814998626708984,19551140,0.0,0
2020-02-28,2.193749940920506,2.291249845311507,2.1742499600423058,2.213249921798706,42676720,0.0,0
2020-03-02,2.213249993117857,2.271749937637544,2.125500076338327,2.2522499561309814,55565910,0.0,0
2020-03-03,2.2912500227275077,2.330250219961879,2.242500066757202,2.242500066757202,15069500,0.0,0
2020-03-04,2.28149999940649,2.3009999815200235,2.1840000888388245,2.291249990463257,21498000,0.0,0
2020-03-05,2.3497501078273064,2.3595000986291574,2.222999994945124,2.320500135421753,26953200,0.0,0
2020-03-06,2.300999879837036,2.310749870462943,2.242499936081595,2.300999879837036,18576000,0.0,0
2020-03-09,2.242499953508377,2.242499953508377,2.0474999070167543,2.1157500743865967,66274380,0.0,0
2020-03-10,2.096250092983246,2.145000046491623,2.0279999256134036,2.1157500743865967,36403200,0.0,0
2020-03-11,2.115750144617591,2.1742500907695126,2.115750144617591,2.154750108718872,34189490,0.0,0
2020-03-12,2.1255000650882723,2.1255000650882723,1.9792499721050265,1.9889999628067017,35896320,0.0,0
2020-03-13,1.7549999964237202,1.9500000476837158,1.6575000870227825,1.9500000476837158,71479760,0.0,0
2020-03-16,1.8817499457332103,1.911000034018703,1.7549999505929326,1.7940000295639038,64619960,0.0,0
2020-03-17,1.8232500479949856,1.8427500298619277,1.657500085896918,1.7549999952316284,47535400,0.0,0
2020-03-18,1.7159999965951687,1.7940000387055155,1.6965000151248464,1.7354999780654907,69058050,0.0,0
2020-03-19,1.716000090457179,1.716000090457179,1.5015000500927655,1.589250087738037,101163600,0.0,0
2020-03-20,1.618500018633644,1.70625005395248,1.608750027623669,1.6965000629425049,44554650,0.0,0
2020-03-23,1.677000125383309,1.677000125383309,1.5210000326297006,1.589250087738037,50631000,0.0,0
2020-03-24,1.5892500560730713,1.6867500830441742,1.5795000649988673,1.6380000114440918,52312690,0.0,0
2020-03-25,1.706250040564273,1.7940000751945726,1.686750058697331,1.7549999952316284,44718830,0.0,0
2020-03-26,1.774500111074741,1.8330000572606362,1.7160000486597844,1.7647500038146973,25158780,0.0,0
2020-03-27,1.8329999923058178,1.8524999736767749,1.7842500388784253,1.7940000295639038,26999150,0.0,0
2020-03-30,1.7549999774834297,1.7549999774834297,1.6867500416393395,1.7452499866485596,19471050,0.0,0
2020-03-31,1.7550000330903983,1.8330000784698397,1.745250041946601,1.7745001316070557,29953720,0.0,0
2020-04-01,1.7940000751945726,1.8037500661280437,1.706250040564273,1.7549999952316284,25859730,0.0,0
2020-04-02,1.6770000508044696,1.7452499866485598,1.6672500599695996,1.7452499866485596,8006000,0.0,0
2020-04-03,1.745249950751073,1.7745000388831065,1.696499997579445,1.7257499694824219,8018000,0.0,0
2020-04-06,1.7647499442100527,1.7647499442100527,1.637999948859215,1.6672500371932983,14914000,0.0,0
2020-04-07,1.6965000151248464,1.7549999595358132,1.6867500243896851,1.7354999780654907,39801010,0.0,0
2020-04-08,1.696500062942505,1.74525001799238,1.66725008991258,1.6965000629425049,13620000,0.0,0
2020-04-09,1.7160000012980567,1.9305000305175783,1.7062500105361746,1.9305000305175781,54130000,0.0,0
2020-04-14,1.901250153544706,1.930500127296701,1.7842501423076615,1.852500081062317,58515000,0.0,0
2020-04-15,1.8525000282309265,1.8915001083504086,1.8037500733678997,1.8232500553131104,43946000,0.0,0
2020-04-16,1.8232501073103218,1.8915001622940408,1.8232501073103218,1.852500081062317,20040000,0.0,0
2020-04-17,1.9012501239776611,1.959750070571897,1.8817500255505204,1.9012501239776611,30467400,0.0,0
2020-04-20,1.901250058231932,1.9402500212794604,1.8719999697172278,1.9305000305175781,11500280,0.0,0
2020-04-21,1.9207500492998715,1.9207500492998715,1.8427500065881761,1.871999979019165,20514560,0.0,0
2020-04-22,1.8524999710055174,1.949999993948767,1.8232499989912594,1.9207500219345093,28593070,0.0,0
2020-04-23,1.930500127296701,1.9402501185473662,1.8232501073103218,1.852500081062317,39615660,0.0,0
2020-04-24,1.871999947258404,2.174250005937757,1.8524999659685857,2.047499895095825,140403500,0.0,0
2020-04-27,2.1450001523366438,2.2132500906161643,2.0182500345022647,2.1742501258850098,101402000,0.0,0
2020-04-28,2.1742501232083167,2.2035000967206733,2.0669999878715495,2.1060001850128174,31263400,0.0,0
2020-04-29,2.106000211820795,2.125500194410588,2.018250057708598,2.0572500228881836,21192170,0.0,0
2020-05-04,1.9987500558345765,2.07675021789932,1.9500000998304408,1.9792500734329224,27764170,0.0,0
2020-05-05,2.018250057708598,2.0865002292310018,2.0085000664137014,2.0572500228881836,24612000,0.0,0
2020-05-06,2.0865001750096988,2.2814999958402216,2.0767501839681723,2.2230000495910645,58492000,0.0,0
2020-05-07,2.213249981403351,2.232749962806702,2.1157500743865967,2.1157500743865967,33708000,0.0,0
2020-05-08,2.115750017407705,2.2619998739942067,2.115750017407705,2.213249921798706,37598890,0.0,0
2020-05-11,2.28149999940649,2.3400001782052127,2.242500035179424,2.291249990463257,29517000,0.0,0
2020-05-12,2.3009999779232735,2.3009999779232735,2.2230000495910645,2.2230000495910645,25120330,0.0,0
2020-05-13,2.193750110786896,2.2717500403393855,2.174250128398774,2.242500066757202,18128500,0.0,0
2020-05-14,2.242499929562406,2.252249920159969,2.2132499577697184,2.2327499389648438,29507000,0.0,0
2020-05-15,2.2814999225416353,2.2814999225416353,2.1255000708890814,2.184000015258789,30291070,0.0,0
2020-05-18,2.1742500907695126,2.1937500728201527,2.1060001535922708,2.154750108718872,31750780,0.0,0
2020-05-19,2.16450003380222,2.1937500059870736,2.115750080160797,2.184000015258789,32880000,0.0,0
2020-05-20,2.184000150162142,2.184000150162142,2.125500202178955,2.125500202178955,17910000,0.0,0
2020-05-21,2.1645001949037233,2.1645001949037233,1.9695001333662636,2.008500099182129,40732000,0.0,0
2020-05-22,1.9889999750888707,2.018249947374517,1.901250058231932,1.9305000305175781,42875000,0.0,0
2020-05-25,1.9305000185966494,1.9889999628067019,1.8719999581575395,1.9889999628067017,11974000,0.0,0
2020-05-26,1.9890001162741964,2.028000082090062,1.9402501590043646,2.008500099182129,13528000,0.0,0
2020-05-27,2.027999975204466,2.027999975204466,1.9305000658035283,1.9500000476837158,13128000,0.0,0
2020-05-28,1.9402500704391699,1.9500000614480855,1.8330000531120378,1.8915001153945923,24100590,0.0,0
2020-05-29,1.871999986911538,1.940250039100647,1.8622499960601024,1.940250039100647,35024690,0.0,0
2020-06-01,1.9987499713897705,2.0182499529675737,1.959750008234164,1.9987499713897705,9820462,0.0,0
2020-06-02,2.018250020423736,2.037750002653289,1.9500000826203006,1.9695000648498535,15879410,0.0,0
2020-06-03,1.97925005596463,1.9987500381941832,1.9500000826203006,1.9695000648498535,12186000,0.0,0
2020-06-04,1.9694999990230657,1.9987499713897705,1.959750008234164,1.9987499713897705,16482000,0.0,0
2020-06-05,1.9792500589452886,2.037750005722046,1.9597500766863694,2.037750005722046,10166000,0.0,0
2020-06-08,2.0475000390765765,2.1645001675010795,2.028000056415514,2.125500202178955,32299000,0.0,0
2020-06-09,2.135250227384159,2.135250227384159,2.067000054529557,2.0767502784729004,13092000,0.0,0
2020-06-10,2.0962501280928314,2.174250055012637,2.066999923039786,2.1352500915527344,18616000,0.0,0
2020-06-11,2.1255001318788964,2.1645000959111127,2.0474999713563413,2.0865001678466797,15626600,0.0,0
2020-06-12,2.0280000885887177,2.1157502444137397,1.9695001396774583,2.0767502784729004,12711820,0.0,0
2020-06-15,2.0474999755176118,2.086500172087213,1.950000065238915,1.9597500562667847,17822000,0.0,0
2020-06-16,1.9890000470794067,2.037750002653289,1.9500000826203006,1.9695000648498535,15798000,0.0,0
2020-06-17,1.9890000646337493,2.0085000470354037,1.9500000998304408,1.9792500734329224,9242000,0.0,0
2020-06-18,1.9987499713897705,2.0182499529675737,1.959750008234164,1.9987499713897705,16759000,0.0,0
2020-06-19,2.0084999165556465,2.193749969794944,1.9889999354207848,2.1644999980926514,39781772,0.0,0
2020-06-22,2.174250130764046,2.3497502049061922,2.1255001747407074,2.3107500076293945,76165970,0.0,0
2020-06-23,2.3302501964667623,2.369250160849784,2.2522500352425956,2.3595001697540283,20505110,0.0,0
2020-06-24,2.4862501277282765,2.5642502912655276,2.3887502138793755,2.466750144958496,70748840,0.0,0
2020-06-26,2.496000007788336,2.496000007788336,2.3107499472796866,2.3400001525878906,52731960,0.0,0
2020-06-29,2.3302501511931966,2.3302501511931966,2.1742500642338554,2.271749973297119,68514000,0.0,0
2020-06-30,2.2522500015795193,2.398500098288058,2.2522500015795193,2.3400001525878906,71168200,0.0,0
2020-07-02,2.3302502024453196,2.5350000159814936,2.310749987745655,2.496000051498413,76942600,0.0,0
2020-07-03,2.5252499530712758,2.5252499530712758,2.4082500629481824,2.4570000171661377,34182796,0.0,0
2020-07-06,2.457000083952064,2.486250057277907,2.379000155083149,2.4277501106262207,46690000,0.0,0
2020-07-07,2.4375000354789558,2.554499925602049,2.4277500446353644,2.4570000171661377,50510540,0.0,0
2020-07-08,2.4862499945872543,2.544749939763868,2.388750085959565,2.52524995803833,38721350,0.0,0
2020-07-09,2.55449985779968,2.5935000525970064,2.476499933121251,2.4862499237060547,41021940,0.0,0
2020-07-10,2.4667500392628083,2.5057500031312925,2.3595001386244783,2.408250093460083,23855000,0.0,0
2020-07-13,2.369250160849784,2.4472500896158262,2.3009999907213725,2.3595001697540283,55525770,0.0,0
2020-07-14,2.3009999779232735,2.3400001745475008,2.18400008542496,2.2230000495910645,53576000,0.0,0
2020-07-15,2.261999977742675,2.3009999412878406,2.164500068879761,2.2035000324249268,23094000,0.0,0
2020-07-16,2.2229999721050264,2.242499953508377,2.076750111579895,2.1157500743865967,36250000,0.0,0
2020-07-17,2.125500139175803,2.242500031674117,2.125500139175803,2.2230000495910645,23074000,0.0,0
2020-07-20,2.2132500233112182,2.2327500050838007,2.115750114448304,2.2035000324249268,23488000,0.0,0
2020-07-21,2.213250125726063,2.232750108400978,2.1547501777013167,2.1937501430511475,17335000,0.0,0
2020-07-22,2.2132500184725394,2.223000009337515,2.0962501280928314,2.1352500915527344,20099680,0.0,0
2020-07-23,2.1742501232083167,2.1742501232083167,2.0669999878715495,2.1060001850128174,20749000,0.0,0
2020-07-24,2.106000211820795,2.1840001421799666,2.0475000315932874,2.0572500228881836,33204390,0.0,0
2020-07-27,2.0572499623643954,2.1352501228869505,2.0572499623643954,2.0865001678466797,23017690,0.0,0
2020-07-28,2.135249998285905,2.2229999122378064,2.0962500365295047,2.213249921798706,24938000,0.0,0
2020-07-29,2.2424998849630384,2.2424998849630384,2.125500000119209,2.1449999809265137,16998000,0.0,0
2020-07-30,2.1352500915527344,2.174250055012637,2.0962501280928314,2.1352500915527344,20761060,0.0,0
2020-07-31,2.2229999781719276,2.2424999596284967,2.1742500245305045,2.184000015258789,30316940,0.0,0
2020-08-03,2.2132500184725394,2.2132500184725394,2.1255001006877587,2.1352500915527344,23428120,0.0,0
2020-08-04,2.1547501761705488,2.1742501588316108,2.0865002368568306,2.125500202178955,20771000,0.0,0
2020-08-05,2.1450001523366438,2.193750108250587,2.1157501787882778,2.1742501258850098,25543760,0.0,0
2020-08-06,2.1937500059870736,2.1937500059870736,2.1450000523456505,2.184000015258789,22295750,0.0,0
2020-08-07,2.1937501414926732,2.1937501414926732,2.096250228187362,2.125500202178955,15771300,0.0,0
2020-08-10,2.1255001006877587,2.1547500732826856,2.066999923039786,2.1352500915527344,20721410,0.0,0
2020-08-11,2.154750146010652,2.301000013921569,2.1352501636225294,2.242500066757202,86281300,0.0,0
2020-08-12,2.291250020078474,2.291250020078474,2.1547501435194323,2.1742501258850098,25116030,0.0,0
2020-08-13,2.1937501430511475,2.203500134388605,2.1352501950264013,2.1937501430511475,21090460,0.0,0
2020-08-14,2.2035001358595427,2.2815000666112724,2.2035001358595427,2.26200008392334,29558000,0.0,0
2020-08-17,2.2619999468842624,2.3009999098973872,2.1937500116112947,2.2522499561309814,28536800,0.0,0
2020-08-18,2.2619999823907926,2.2814999642034453,2.2230000187654873,2.271749973297119,11746500,0.0,0
2020-08-19,2.26200008392334,2.2815000666112724,2.232750109891441,2.26200008392334,10027370,0.0,0
2020-08-20,2.271749864433307,2.271749864433307,2.193749940920506,2.213249921798706,15443190,0.0,0
2020-08-21,2.2230001185474753,2.2815000666112724,2.213250127203509,2.26200008392334,19693920,0.0,0
2020-08-24,2.281499974429603,2.38875010733803,2.2619999925295473,2.3400001525878906,30798400,0.0,0
2020-08-25,2.369999885559082,2.380000114440918,2.299999952316284,2.3299999237060547,20457300,0.06,0
2020-08-26,2.3399999141693115,2.3399999141693115,2.2100000381469727,2.25,22985660,0.0,0
2020-08-27,2.25,2.259999990463257,2.2100000381469727,2.259999990463257,16134680,0.0,0
2020-08-28,2.25,2.369999885559082,2.2300000190734863,2.359999895095825,20689300,0.0,0
2020-08-31,2.359999895095825,2.4600000381469727,2.2200000286102295,2.2200000286102295,42508290,0.0,0
2020-09-01,2.2300000190734863,2.259999990463257,2.200000047683716,2.200000047683716,17421360,0.0,0
2020-09-02,2.2100000381469727,2.2300000190734863,2.140000104904175,2.200000047683716,19008000,0.0,0
2020-09-03,2.2300000190734863,2.2699999809265137,2.1600000858306885,2.259999990463257,23454800,0.0,0
2020-09-04,2.2100000381469727,2.2200000286102295,2.180000066757202,2.200000047683716,10660000,0.0,0
2020-09-07,2.190000057220459,2.2300000190734863,2.1500000953674316,2.1600000858306885,16604370,0.0,0
2020-09-08,2.1600000858306885,2.190000057220459,2.119999885559082,2.130000114440918,17056570,0.0,0
2020-09-09,2.0899999141693115,2.109999895095825,2.0399999618530273,2.069999933242798,14680000,0.0,0
2020-09-10,2.109999895095825,2.109999895095825,2.0299999713897705,2.059999942779541,8190000,0.0,0
2020-09-11,2.059999942779541,2.0799999237060547,2.009999990463257,2.069999933242798,19600800,0.0,0
2020-09-14,2.0999999046325684,2.0999999046325684,2.0299999713897705,2.049999952316284,13986000,0.0,0
2020-09-15,2.069999933242798,2.130000114440918,2.0199999809265137,2.119999885559082,16048000,0.0,0
2020-09-16,2.140000104904175,2.140000104904175,2.0799999237060547,2.0999999046325684,20479000,0.0,0
2020-09-17,2.0999999046325684,2.140000104904175,2.0899999141693115,2.140000104904175,16325300,0.0,0
2020-09-18,2.1500000953674316,2.1700000762939453,2.109999895095825,2.1700000762939453,19594400,0.0,0
2020-09-21,2.1700000762939453,2.319999933242798,2.1600000858306885,2.2899999618530273,34062000,0.0,0
2020-09-22,2.2799999713897705,2.3499999046325684,2.259999990463257,2.3399999141693115,28546690,0.0,0
2020-09-23,2.3299999237060547,2.450000047683716,2.3299999237060547,2.450000047683716,33422920,0.0,0
2020-09-24,2.4100000858306885,2.430000066757202,2.309999942779541,2.319999933242798,24545400,0.0,0
2020-09-25,2.319999933242798,2.359999895095825,2.240000009536743,2.2799999713897705,19204000,0.0,0
2020-09-28,2.319999933242798,2.369999885559082,2.240000009536743,2.3499999046325684,17571000,0.0,0
2020-09-29,2.380000114440918,2.380000114440918,2.299999952316284,2.3499999046325684,9126090,0.0,0
2020-09-30,2.380000114440918,2.4200000762939453,2.3499999046325684,2.4000000953674316,14473000,0.0,0
2020-10-05,2.4000000953674316,2.7799999713897705,2.4000000953674316,2.690000057220459,90802780,0.0,0
2020-10-06,2.740000009536743,2.950000047683716,2.640000104904175,2.930000066757202,90897800,0.0,0
2020-10-07,2.880000114440918,2.9700000286102295,2.8399999141693115,2.869999885559082,50516290,0.0,0
2020-10-08,2.9100000858306885,3.180000066757202,2.8399999141693115,3.180000066757202,87497040,0.0,0
2020-10-09,3.1500000953674316,3.2300000190734863,3.0299999713897705,3.1700000762939453,106015600,0.0,0
2020-10-12,3.25,3.4000000953674316,3.200000047683716,3.4000000953674316,81954240,0.0,0
2020-10-14,3.430000066757202,3.430000066757202,3.180000066757202,3.299999952316284,88063330,0.0,0
2020-10-15,3.380000114440918,3.450000047683716,3.25,3.369999885559082,63818900,0.0,0
2020-10-16,3.3499999046325684,3.5299999713897705,3.3299999237060547,3.4000000953674316,62747570,0.0,0
2020-10-19,3.450000047683716,3.4800000190734863,3.2100000381469727,3.259999990463257,54643500,0.0,0
2020-10-20,3.240000009536743,3.450000047683716,3.2100000381469727,3.4100000858306885,40089560,0.0,0
2020-10-21,3.450000047683716,3.5,3.359999895095825,3.390000104904175,27707600,0.0,0
2020-10-22,3.390000104904175,3.5299999713897705,3.3299999237060547,3.440000057220459,42660200,0.0,0
2020-10-23,3.440000057220459,3.5199999809265137,3.3499999046325684,3.4100000858306885,26536200,0.0,0
2020-10-27,3.299999952316284,3.430000066757202,3.299999952316284,3.4100000858306885,38495360,0.0,0
2020-10-28,3.4100000858306885,3.6500000953674316,3.390000104904175,3.5399999618530273,77148000,0.0,0
2020-10-29,3.5399999618530273,3.690000057220459,3.4800000190734863,3.6500000953674316,71438060,0.0,0
2020-10-30,3.6500000953674316,3.7200000286102295,3.359999895095825,3.390000104904175,61006980,0.0,0
2020-11-02,3.430000066757202,3.5299999713897705,3.369999885559082,3.4700000286102295,31921040,0.0,0
2020-11-03,3.4700000286102295,3.5399999618530273,3.4000000953674316,3.4000000953674316,34937600,0.0,0
2020-11-04,3.4000000953674316,3.490000009536743,3.380000114440918,3.4600000381469727,31320610,0.0,0
2020-11-05,3.4600000381469727,3.6500000953674316,3.4100000858306885,3.450000047683716,73812000,0.0,0
2020-11-06,3.4700000286102295,3.7200000286102295,3.450000047683716,3.7100000381469727,77428000,0.0,0
2020-11-09,3.7300000190734863,3.859999895095825,3.640000104904175,3.700000047683716,68072000,0.0,0
2020-11-10,3.700000047683716,3.7200000286102295,3.5199999809265137,3.5899999141693115,44144200,0.0,0
2020-11-11,3.5899999141693115,3.619999885559082,3.059999942779541,3.180000066757202,182606100,0.0,0
2020-11-12,3.259999990463257,3.2899999618530273,2.9600000381469727,3.130000114440918,109096400,0.0,0
2020-11-13,3.1700000762939453,3.190000057220459,3.0199999809265137,3.069999933242798,65081170,0.0,0
2020-11-16,3.119999885559082,3.1500000953674316,2.9800000190734863,3.0799999237060547,39272700,0.0,0
2020-11-17,3.140000104904175,3.140000104904175,2.9700000286102295,3.049999952316284,38636200,0.0,0
2020-11-18,3.059999942779541,3.130000114440918,3.0199999809265137,3.0899999141693115,31449390,0.0,0
2020-11-19,3.0999999046325684,3.25,3.0299999713897705,3.200000047683716,47242000,0.0,0
2020-11-20,3.2699999809265137,3.4200000762939453,3.2200000286102295,3.359999895095825,66904880,0.0,0
2020-11-23,3.390000104904175,3.4000000953674316,3.190000057220459,3.200000047683716,41290150,0.0,0
2020-11-24,3.2100000381469727,3.2799999713897705,3.140000104904175,3.180000066757202,23014290,0.0,0
2020-11-25,3.200000047683716,3.25,3.0799999237060547,3.1600000858306885,18922000,0.0,0
2020-11-26,3.1600000858306885,3.2100000381469727,3.140000104904175,3.2100000381469727,16845200,0.0,0
2020-11-27,3.450000047683716,3.5999999046325684,3.240000009536743,3.4100000858306885,163368200,0.0,0
2020-11-30,3.430000066757202,3.440000057220459,3.319999933242798,3.4000000953674316,60944100,0.0,0
2020-12-01,3.430000066757202,3.430000066757202,3.299999952316284,3.4000000953674316,35472120,0.0,0
2020-12-02,3.390000104904175,3.4000000953674316,3.2799999713897705,3.309999942779541,17718700,0.0,0
2020-12-03,3.3399999141693115,3.450000047683716,3.319999933242798,3.4000000953674316,24828360,0.0,0
2020-12-04,3.440000057220459,3.450000047683716,3.359999895095825,3.430000066757202,18586800,0.0,0
2020-12-07,3.430000066757202,3.430000066757202,3.2899999618530273,3.319999933242798,10316600,0.0,0
