Date,Open,High,Low,Close,Volume,Dividends,Stock Splits
2020-01-02,3.1240593640698426,3.1530753674718874,3.104715361801813,3.1337313652038574,322400,0.0,0
2020-01-03,3.1240595138046205,3.1240595138046205,3.095043509011852,3.1143875122070312,296480,0.0,0
2020-01-06,3.1143875122070312,3.1240595138046205,3.0563555026214937,3.1143875122070312,292800,0.0,0
2020-01-07,3.114387362935828,3.143403366337872,3.104715361801813,3.1337313652038574,90034,0.0,0
2020-01-08,3.066027357265754,3.182091370873932,3.066027357265754,3.1337313652038574,708800,0.0,0
2020-01-09,3.133731440070529,3.133731440070529,3.11438743734036,3.1240594387054443,608638,0.0,0
2020-01-10,3.1240595268449254,3.1434035301208496,3.1047155235690016,3.1434035301208496,495520,0.0,0
2020-01-13,3.1337314672876415,3.2014354774312572,3.1337314672876415,3.182091474533081,272126,0.0,0
2020-01-14,3.1530756434988345,3.2207796573638916,3.1530756434988345,3.2207796573638916,549560,0.0,0
2020-01-15,3.191763305337835,3.3078275471203393,3.191763305337835,3.2981555461883545,380000,0.0,0
2020-01-16,3.317499712516819,3.317499712516819,3.2788117068709304,3.3078277111053467,258649,0.0,0
2020-01-17,3.298155649345096,3.3561876567520748,3.298155649345096,3.346515655517578,350400,0.0,0
2020-01-20,3.3465156555175786,3.3561876567520748,3.3271716530485853,3.346515655517578,166800,0.0,0
2020-01-21,3.3271717139282915,3.3271717139282915,3.240123470626338,3.3078277111053467,1848800,0.0,0
2020-01-22,3.2497954853603574,3.336843729019165,3.2401234839092345,3.336843729019165,1033040,0.0,0
2020-01-23,3.3078275471203393,3.3271715489843077,3.2594673118617257,3.2981555461883545,589920,0.0,0
2020-01-24,3.259467473449283,3.317499712516819,3.259467473449283,3.3078277111053467,82400,0.0,0
2020-01-29,3.1820915011802247,3.259467513420882,3.1820915011802247,3.2401235103607178,479816,0.0,0
2020-01-30,3.1820915625154638,3.240123572814532,3.1724195607989527,3.2014355659484863,920504,0.0,0
2020-01-31,3.2014354774312572,3.211107478880345,3.1530754701858177,3.182091474533081,67200,0.0,0
2020-02-03,3.162747546357072,3.2014355530674554,3.162747546357072,3.172419548034668,533600,0.0,0
2020-02-04,3.2111074034754234,3.2111074034754234,3.1917634010314937,3.191763401031494,33349,0.0,0
2020-02-05,3.2014355530674554,3.2207795564226473,3.1530755446794765,3.172419548034668,126400,0.0,0
2020-02-06,3.1724194996501427,3.2691397455496705,3.1724194996501427,3.2401235103607178,652800,0.0,0
2020-02-07,3.278811899846943,3.278811899846943,3.211107655383169,3.2207796573638916,46889,0.0,0
2020-02-10,3.1917634894669975,3.2207794939368504,3.1820914879770466,3.2111074924468994,113200,0.0,0
2020-02-11,3.2014354636566265,3.2014354636566265,3.1240594523968443,3.1530754566192627,442000,0.0,0
2020-02-12,3.1530753819392823,3.172419384296069,3.1337313795824957,3.162747383117676,210100,0.0,0
2020-02-13,3.143403366337872,3.1530753674718874,3.1240593640698426,3.1337313652038574,409600,0.0,0
2020-02-14,3.143403366337872,3.1530753674718874,3.1240593640698426,3.1337313652038574,340014,0.0,0
2020-02-17,3.1337315284828877,3.1917635383106595,3.085371520293078,3.1434035301208496,669041,0.0,0
2020-02-18,3.1240594387054443,3.1240594387054443,3.1240594387054443,3.1240594387054443,0,0.0,0
2020-02-19,3.0756994794084846,3.12405948698121,3.056355476379395,3.0563554763793945,359403,0.0,0
2020-02-20,3.06602747789394,3.0950434824375748,3.037011473350305,3.0563554763793945,191200,0.0,0
2020-02-21,3.037011603435371,3.0466836053641995,3.007995367050171,3.007995367050171,418400,0.0,0
2020-02-24,3.007995114063878,3.037011348008679,2.9789791107177734,2.9789791107177734,316323,0.0,0
2020-02-25,2.9983232021331787,2.9983232021331787,2.959635196520937,2.9983232021331787,285380,0.0,0
2020-02-26,2.9596352577209473,2.9983232641331883,2.9596352577209473,2.9596352577209473,255941,0.0,0
2020-02-27,2.9596351084870367,2.9789791107177734,2.949963107371669,2.9789791107177734,521366,0.0,0
2020-02-28,2.9789789858977667,3.037011220757106,2.9596349844775487,3.027339220046997,18432950,0.0,0
2020-03-02,3.0273393837309293,3.06602738866317,2.9983231494330496,3.0370113849639893,208496,0.0,0
2020-03-03,3.0370114994263147,3.1143875122070312,3.0370114994263147,3.1143875122070312,209020,0.0,0
2020-03-04,3.085371345112425,3.1240593494676525,3.0660273429348113,3.104715347290039,800800,0.0,0
2020-03-05,3.1240593831437216,3.3174996376037598,3.1240593831437216,3.3174996376037598,1890773,0.0,0
2020-03-06,3.240123435552357,3.249795436859131,3.2014354303252612,3.249795436859131,570400,0.0,0
2020-03-09,3.1530755317588115,3.182091536672697,3.0950435219310397,3.1434035301208496,181600,0.0,0
2020-03-10,3.1434035301208496,3.1530755317588115,3.037011512103268,3.1434035301208496,199200,0.0,0
2020-03-11,3.095043346201232,3.1337313505564595,3.075699344023618,3.104715347290039,109034,0.0,0
2020-03-12,3.0273393837309293,3.07569938989623,2.9789791469669296,3.0370113849639893,322400,0.0,0
2020-03-13,2.9016031747104205,2.9789791855777805,2.795211159767801,2.9693071842193604,711040,0.0,0
2020-03-16,2.9693071414498573,2.9693071414498573,2.8629151280396936,2.8822591304779053,486400,0.0,0
2020-03-17,2.8822590254825453,2.8822590254825453,2.795211017681591,2.8338990211486816,319520,0.0,0
2020-03-18,2.824227155558227,2.833899156888274,2.7275069116590522,2.785539150238037,3342400,0.0,0
2020-03-19,2.7178350247321705,2.7178350247321705,2.572754998674536,2.708163022994995,513200,0.0,0
2020-03-20,2.4373468327452743,2.804883373374487,2.4373468327452743,2.7565231323242188,436846,0.0,0
2020-03-23,2.688819019520644,2.737179028206522,2.572754998674536,2.708163022994995,148426,0.0,0
2020-03-24,2.727506964373273,2.7661949704411803,2.64045895072048,2.7468509674072266,244800,0.0,0
2020-03-25,2.8242270353884704,2.882259040899515,2.795211032632948,2.8629150390625,243480,0.0,0
2020-03-26,2.891931131697011,2.891931131697011,2.8725871292587994,2.8822591304779053,19200,0.0,0
2020-03-27,2.901603297161487,2.920947300694667,2.7855392759624094,2.8919312953948975,290800,0.0,0
2020-03-30,2.824227109051751,2.8629151137348656,2.708162864403709,2.853243112564087,104000,0.0,0
2020-03-31,2.901603297161487,2.978979311294206,2.8725872918617177,2.8919312953948975,465920,0.0,0
2020-04-01,2.97897923401888,2.97897923401888,2.8145552082520457,2.9016032218933105,181600,0.0,0
2020-04-02,2.90160332197601,2.949963331222534,2.90160332197601,2.949963331222534,224000,0.0,0
2020-04-03,2.8532433127294863,2.949963331222534,2.8532433127294863,2.949963331222534,8800,0.0,0
2020-04-06,2.9306193516195447,3.075699611150684,2.9306193516195447,3.007995367050171,344000,0.0,0
2020-04-07,2.9112749809270047,3.046683221467215,2.9112749809270047,3.027339220046997,1101210,0.0,0
2020-04-08,3.02733947183576,3.056355476379395,3.007995238207964,3.0563554763793945,74160,0.0,0
2020-04-09,3.066027357265754,3.1337313652038574,3.066027357265754,3.1337313652038574,536800,0.0,0
2020-04-14,3.1434034552117898,3.1530754566192623,3.085371446766953,3.1530754566192627,102080,0.0,0
2020-04-15,3.0853713595337835,3.1337313652038574,3.056355356131739,3.1337313652038574,51200,0.0,0
2020-04-16,3.1143875122070312,3.1143875122070312,3.1143875122070312,3.1143875122070312,0,0.0,0
2020-04-17,3.1434034552117898,3.211107465064099,3.133731453804317,3.1530754566192627,536000,0.0,0
2020-04-20,3.085371446766953,3.1530754566192623,3.0660274439520077,3.1530754566192627,176385,0.0,0
2020-04-21,3.143403413101018,3.143403413101018,3.056355401599906,3.0660274028778076,407597,0.0,0
2020-04-22,3.0466834880673814,3.0950434958496706,3.0466834880673814,3.085371494293213,125688,0.0,0
2020-04-23,3.0950435219310397,3.1917635383106595,3.0950435219310397,3.1434035301208496,254400,0.0,0
2020-04-24,3.1917635642319753,3.2014355659484863,3.1917635642319753,3.2014355659484863,4800,0.0,0
2020-04-27,3.2014353423210244,3.249795347525526,3.2014353423210244,3.2304513454437256,135936,0.0,0
2020-04-28,3.1627474981200603,3.2401235103607178,3.104715488939567,3.2401235103607178,388160,0.0,0
2020-04-29,3.191763463568977,3.307827711105347,3.191763463568977,3.3078277111053467,234000,0.0,0
2020-05-04,3.2014354022534586,3.240123407141318,3.153075396143634,3.191763401031494,421600,0.0,0
2020-05-05,3.124059512204857,3.3078277730636625,3.124059512204857,3.2691397666931152,164000,0.0,0
2020-05-06,3.2207793810349,3.288483619689942,3.2207793810349,3.2884836196899414,12748,0.0,0
2020-05-07,3.162747518575404,3.278811768285752,3.153075516982767,3.2691397666931152,67040,0.0,0
2020-05-08,3.2691397666931152,3.2691397666931152,3.2691397666931152,3.2691397666931152,800,0.0,0
2020-05-11,3.3078276973048886,3.3271717000471286,3.2111074529949857,3.2788116931915283,138100,0.0,0
2020-05-12,3.2691396918204085,3.2788116931915283,3.220779454366106,3.2788116931915283,127200,0.0,0
2020-05-13,3.2207795281312244,3.2691397666931152,3.2207795281312244,3.2691397666931152,4862,0.0,0
2020-05-14,3.259467409585248,3.2691396414059115,3.1917634010314937,3.191763401031494,558448,0.0,0
2020-05-15,3.2401235103607178,3.2401235103607178,3.201435504240389,3.2401235103607178,60448,0.0,0
2020-05-18,3.2207795073005534,3.2401235103607178,3.1820915011802247,3.2401235103607178,37600,0.0,0
2020-05-19,3.2691398978662205,3.2691398978662205,3.191763651421724,3.2207796573638916,137937,0.0,0
2020-05-20,3.2207795946070683,3.2594676017761235,3.1917635892302774,3.259467601776123,16000,0.0,0
2020-05-21,3.1434035169997996,3.240123532975695,2.949963254449301,3.1143875122070312,188726,0.0,0
2020-05-22,2.978979199327058,3.085371445359426,2.920947190908695,2.9983232021331787,164680,0.0,0
2020-05-25,2.9596351689313387,2.9596351689313387,2.8725871571152526,2.940291166305542,33600,0.0,0
2020-05-26,2.9983231494330496,3.1240593960615315,2.9886511481999896,3.0370113849639893,763826,0.0,0
2020-05-27,3.0756993293762207,3.0756993293762207,3.0756993293762207,3.0756993293762207,2374,0.0,0
2020-05-28,3.0079952918615196,3.017667293548584,2.9499632817391337,3.017667293548584,62381,0.0,0
2020-05-29,2.9499632817391337,3.0466835292084866,2.9306192783650054,3.017667293548584,241180,0.0,0
2020-06-01,3.007995367050171,3.027339601506543,2.969307359334858,3.007995367050171,189040,0.0,0
2020-06-02,3.0466835292084866,3.0466835292084866,2.998323290174455,3.017667293548584,686400,0.0,0
2020-06-03,3.066027222887433,3.066027222887433,2.9693069851876577,3.027339220046997,67136,0.0,0
2020-06-04,3.037011473350305,3.056355476379395,3.037011473350305,3.0563554763793945,4000,0.0,0
2020-06-05,3.0466834548867823,3.346515730470288,3.0466834548867823,3.336843729019165,2768000,0.0,0
2020-06-08,3.3465156511816305,3.3465156511816305,3.1917634010314937,3.191763401031494,227800,0.0,0
2020-06-09,3.1434035301208496,3.1917635383106595,3.1047155235690016,3.1434035301208496,1002986,0.0,0
2020-06-10,3.1434035301208496,3.1434035301208496,3.1434035301208496,3.1434035301208496,68800,0.0,0
2020-06-11,3.143403336675442,3.143403336675442,2.9789790883500675,3.0756993293762207,1174108,0.0,0
2020-06-12,3.046683311462403,3.046683311462403,3.0176670778762866,3.0466833114624023,177141,0.0,0
2020-06-15,3.0950434824375748,3.0950434824375748,3.007995238207964,3.0563554763793945,573280,0.0,0
2020-06-16,3.1337315284828877,3.230451544862507,3.1143875252069635,3.1434035301208496,476720,0.0,0
2020-06-17,3.143403413101018,3.143403413101018,3.046683400322005,3.0660274028778076,140342,0.0,0
2020-06-18,3.0660274168259214,3.133731426079233,3.046683414182118,3.095043420791626,289371,0.0,0
2020-06-19,3.046683400322005,3.075699404155709,3.017667165889601,3.0660274028778076,218510,0.0,0
2020-06-22,3.0660276092218557,3.0660276092218557,2.9596353574060297,3.007995367050171,738732,0.0,0
2020-06-23,2.9596351582221936,3.0660274028778076,2.949963156944292,3.0660274028778076,157720,0.0,0
2020-06-24,3.007995383189281,3.2884839018276653,2.978979377247114,3.2207796573638916,3346292,0.0,0
2020-06-26,3.1530754566192623,3.172419459434208,3.095043448174426,3.1530754566192627,274427,0.0,0
2020-06-29,3.1917634622491535,3.1917634622491535,3.085371446766953,3.1530754566192627,165680,0.0,0
2020-06-30,3.056355387883984,3.3465156555175786,3.056355387883984,3.346515655517578,1745240,0.0,0
2020-07-02,3.2401233833367127,3.288483619689942,3.153075372978555,3.2884836196899414,76800,0.0,0
2020-07-03,3.288483798764528,3.288483798764528,3.1434035430018805,3.172419548034668,303148,0.0,0
2020-07-06,3.2401235103607178,3.3078277516699996,3.191763502710307,3.2401235103607178,720095,0.0,0
2020-07-07,3.2014355265853367,3.220779529780516,3.1047155106094415,3.1143875122070312,439662,0.0,0
2020-07-08,3.104715361801813,3.143403366337872,3.0370113538637096,3.1337313652038574,361600,0.0,0
2020-07-09,3.095043346201232,3.1047153472900386,3.0176671068920817,3.104715347290039,200543,0.0,0
2020-07-10,3.0950435219310397,3.1627475333967734,3.085371520293078,3.1434035301208496,313600,0.0,0
2020-07-13,3.1724195350347353,3.230451544862507,3.1240595268449254,3.1434035301208496,228359,0.0,0
2020-07-14,3.1627475333967734,3.240123546500469,3.1143875252069635,3.1434035301208496,274186,0.0,0
2020-07-15,3.1434035169997996,3.1434035169997996,3.0370114994263147,3.1143875122070312,182400,0.0,0
2020-07-16,3.0950434207916264,3.0950434207916264,3.017667179617712,3.095043420791626,617516,0.0,0
2020-07-17,3.1240595268449254,3.1530755317588115,3.0950435219310397,3.1434035301208496,43200,0.0,0
2020-07-20,3.114387377225709,3.172419384296069,3.075699372512136,3.162747383117676,242504,0.0,0
2020-07-21,3.201435435332544,3.201435435332544,3.075699418147823,3.095043420791626,114400,0.0,0
2020-07-22,3.104715591410125,3.104715591410125,2.949963331222534,2.949963331222534,654218,0.0,0
2020-07-23,3.007995203536239,3.0176672049392996,2.978979199327058,2.9983232021331787,65600,0.0,0
2020-07-24,2.9789791715571354,2.9789791715571354,2.901603161053948,2.940291166305542,514341,0.0,0
2020-07-27,2.9209470748901367,2.978979081003497,2.90160307285235,2.9209470748901367,551200,0.0,0
2020-07-28,2.930619164992643,2.9499631676184404,2.901603161053948,2.940291166305542,222400,0.0,0
2020-07-29,2.9983231129485097,3.007995114063878,2.969307109602405,2.9789791107177734,292800,0.0,0
2020-07-30,2.988651111833142,2.988651111833142,2.969307109602405,2.9789791107177734,76000,0.0,0
2020-07-31,3.027339512815355,3.0563555177517654,2.9886512756347656,2.9886512756347656,14400,0.0,0
2020-08-03,3.007995367050171,3.0176673689789992,2.969307359334858,3.007995367050171,214400,0.0,0
2020-08-04,3.00799515066611,3.0370113849639897,2.959635144500809,3.0370113849639893,448500,0.0,0
2020-08-05,3.046683414182118,3.0950434207916264,3.046683414182118,3.095043420791626,847120,0.0,0
2020-08-06,3.0950433314617123,3.0950433314617123,2.9693070873073215,3.0756993293762207,484800,0.0,0
2020-08-07,3.075699418147823,3.0950434207916264,3.037011412860217,3.095043420791626,20400,0.0,0
2020-08-10,3.04668347486485,3.056355476379395,3.037011473350305,3.0563554763793945,45100,0.0,0
2020-08-11,3.056355476379395,3.056355476379395,3.02733947183576,3.0563554763793945,34720,0.0,0
2020-08-12,3.037011412860217,3.0950434207916264,2.998323176973909,3.095043420791626,196296,0.0,0
2020-08-13,3.1047153472900386,3.1047153472900386,3.0660273429348113,3.104715347290039,17600,0.0,0
2020-08-14,3.0660274168259214,3.0950434207916264,3.037011412860217,3.095043420791626,67930,0.0,0
2020-08-17,3.1047153472900386,3.1047153472900386,3.0563553418460048,3.104715347290039,156000,0.0,0
2020-08-18,3.1240593494676525,3.1240593494676525,3.0660273429348113,3.104715347290039,17600,0.0,0
2020-08-19,3.0660275042190834,3.1143875122070312,3.0466835010239044,3.1143875122070312,36000,0.0,0
2020-08-20,3.0563553418460048,3.1047153472900386,3.0176671068920817,3.104715347290039,232000,0.0,0
2020-08-21,3.017667165889601,3.08537140543361,3.017667165889601,3.0660274028778076,71853,0.0,0
2020-08-24,3.0858080296476036,3.115479469299317,3.0660272270836395,3.1154794692993164,240409,0.07,0
2020-08-25,3.0956986877445427,3.0956986877445427,3.056136846542358,3.0561368465423584,87932,0.0,0
2020-08-26,3.0462465286254883,3.0462465286254883,3.0462465286254883,3.0462465286254883,19072,0.0,0
2020-08-27,3.0462464941727108,3.1352603435516357,2.9671232821076865,3.1352603435516357,267200,0.0,0
2020-08-28,3.066027392215799,3.095698833465576,3.046246588586467,3.095698833465576,126000,0.0,0
2020-08-31,3.0264655711740103,3.066027175638126,3.0264655711740103,3.036355972290039,23724,0.0,0
2020-09-01,3.0363560557610905,3.1055891012823094,3.026465654373169,3.026465654373169,28692,0.0,0
2020-09-02,3.0264657954815695,3.066027402877807,3.0165753936325097,3.0660274028778076,380480,0.0,0
2020-09-03,3.056136895680839,3.155041146567892,3.056136895680839,3.1352603435516357,789600,0.0,0
2020-09-04,3.115479552929922,3.1352603560248733,3.0759177109342453,3.1055891513824463,170400,0.0,0
2020-09-07,3.105589089093647,3.105589089093647,3.0462464451932543,3.0561368465423584,124800,0.0,0
2020-09-08,3.0660272360894814,3.085808038711548,2.96712322297915,3.085808038711548,333647,0.0,0
2020-09-09,2.996794462203979,2.996794462203979,2.9770136593489647,2.9967944622039795,44800,0.0,0
2020-09-10,3.0363561144779525,3.0759177207946777,2.996794508161227,3.0759177207946777,28800,0.0,0
2020-09-11,3.066027259924854,3.0759176613127757,2.947342443269798,3.026465654373169,390400,0.0,0
2020-09-14,2.9671233538652397,3.016575362601838,2.9473425503706,2.95723295211792,137280,0.0,0
2020-09-15,2.967123257921457,2.996794462203979,2.967123257921457,2.9967944622039795,43760,0.0,0
2020-09-16,2.996794545991142,2.996794545991142,2.98690414428711,2.9869041442871094,24558,0.0,0
2020-09-17,3.0066849917834504,3.066027402877807,2.9869041880853313,3.0660274028778076,187200,0.0,0
2020-09-18,3.0165753936325097,3.066027402877807,3.0066849917834504,3.0660274028778076,209600,0.0,0
2020-09-21,3.0660272105252875,3.0660272105252875,2.9473423957824707,2.9473423957824707,140800,0.0,0
2020-09-22,2.9572329391750123,2.98690414428711,2.917671332358883,2.9869041442871094,152000,0.0,0
2020-09-23,2.9770137556125595,2.986904157359879,2.9473425503706,2.95723295211792,15970,0.0,0
2020-09-24,2.94734246709902,2.96712327003479,2.9176712626953645,2.96712327003479,43416,0.0,0
2020-09-25,2.917671332358883,3.0561369562153367,2.868219323838721,2.9869041442871094,66576,0.0,0
2020-09-28,2.9770137050028644,3.0858081223738587,2.8682192876318697,3.0759177207946777,404175,0.0,0
2020-09-29,3.085808135105439,3.085808135105439,2.9671233156655874,3.0462465286254883,94400,0.0,0
2020-09-30,3.0165753936325097,3.075917804726867,2.996794589934391,3.0660274028778076,121526,0.0,0
2020-10-05,3.056136846542358,3.056136846542358,2.9770136357495263,3.0561368465423584,22400,0.0,0
2020-10-06,3.0561369431026857,3.0561369431026857,3.016575336456299,3.016575336456299,23200,0.0,0
2020-10-07,2.96712327003479,2.977013671502675,2.957232868566905,2.96712327003479,67120,0.0,0
2020-10-08,3.0462465286254883,3.0660273318654636,2.99679452052555,3.0462465286254883,275280,0.0,0
2020-10-09,3.056136930245476,3.085808135105439,2.9671233156655874,3.0462465286254883,196800,0.0,0
2020-10-12,3.036356197330629,3.066027402877807,2.897890571443796,3.0660274028778076,400800,0.0,0
2020-10-14,3.006684803153879,3.006684803153879,2.9275615933253345,2.9473423957824707,170576,0.0,0
2020-10-15,2.9671233671146684,2.986904170697637,2.907780956365762,2.9275617599487305,323200,0.0,0
2020-10-16,2.96712327003479,2.96712327003479,2.888000058291709,2.96712327003479,300000,0.0,0
2020-10-19,2.96712327003479,2.96712327003479,2.96712327003479,2.96712327003479,0,0.0,0
2020-10-20,2.9671232099513163,2.9770136112189234,2.8682191972752458,2.9176712036132812,703438,0.0,0
2020-10-21,2.9176712748474434,2.957232880883758,2.888000070320208,2.9374520778656006,133600,0.0,0
2020-10-22,2.94734253747098,2.98690414428711,2.94734253747098,2.9869041442871094,81500,0.0,0
2020-10-23,2.967123340879045,2.98690414428711,2.8781097255427532,2.9869041442871094,152800,0.0,0
2020-10-27,2.9176712153664366,2.9176712153664366,2.888000011444092,2.888000011444092,70504,0.0,0
2020-10-28,2.9374520656311347,2.96712327003479,2.9077808612274794,2.96712327003479,659200,0.0,0
2020-10-29,2.947342431407951,2.947342431407951,2.848438417926786,2.8583288192749023,286400,0.0,0
2020-10-30,2.838547839032849,2.9374520903497494,2.8286574374817364,2.907780885696411,183200,0.0,0
2020-11-02,2.8880001182895385,2.8880001182895385,2.808876669096907,2.8187670707702637,164800,0.0,0
2020-11-03,2.878109767745677,3.066027402877807,2.8385479245436587,3.0660274028778076,228800,0.0,0
2020-11-04,2.9473425806890936,3.066027402877807,2.9473425806890936,3.0660274028778076,91840,0.0,0
2020-11-05,3.0066848881401986,3.1352603435516357,2.9671232821076865,3.1352603435516357,389562,0.0,0
2020-11-06,3.0363560577592636,3.224273920059204,3.0264656563648336,3.224273920059204,297200,0.0,0
2020-11-09,3.3627396955449047,3.550657317577316,3.1847122388663296,3.4319725036621094,2200110,0.0,0
2020-11-10,3.37263011932373,3.471534131583056,3.352849316871865,3.3726301193237305,267600,0.0,0
2020-11-11,3.3726302126230125,3.3726302126230125,3.3231779693195542,3.333068370819092,141920,0.0,0
2020-11-12,3.3033971070416945,3.3033971070416945,3.2836163043975826,3.283616304397583,120000,0.0,0
2020-11-13,3.263835550891499,3.3825206043487785,3.234164346478622,3.3627398014068604,783336,0.0,0
2020-11-16,3.3627397296745043,3.441862939754358,3.333068290088793,3.342958927154541,190400,0.0,0
2020-11-17,3.2737258914194074,3.3726301400935865,3.2737258914194074,3.3132874965667725,288400,0.0,0
2020-11-18,3.3231778978536135,3.3231778978536135,3.29350669399309,3.3132874965667725,340800,0.0,0
2020-11-19,3.4023013950113126,3.4023013950113126,3.323177947723437,3.39241099357605,66400,0.0,0
2020-11-20,3.412191784345053,3.4616437913459843,3.3033971331372336,3.4220821857452393,527600,0.0,0
2020-11-23,3.461643921106278,3.5308767335027857,3.4121919122516298,3.4913151264190674,1225560,0.0,0
2020-11-24,3.520986199747102,3.520986199747102,3.3825205801444937,3.4220821857452393,165080,0.0,0
2020-11-25,3.5012053847429914,3.530876588840129,3.4023013710858665,3.4517533779144287,447200,0.0,0
2020-11-26,3.451753449027797,3.4814246537362235,3.3825206380414676,3.471534252166748,362400,0.0,0
2020-11-27,3.4319725099858855,4.035287453444723,3.4319725099858855,3.6297807693481445,1629040,0.0,0
2020-11-30,3.6396713384165507,3.659452141684648,3.481424676465996,3.6100001335144043,906300,0.0,0
2020-12-01,3.609999895095825,3.609999895095825,3.450000047683716,3.5799999237060547,114803,0.04,0
2020-12-02,3.5799999237060547,3.640000104904175,3.5199999809265137,3.609999895095825,684000,0.0,0
2020-12-03,3.609999895095825,3.609999895095825,3.5199999809265137,3.5299999713897705,102729,0.0,0
2020-12-04,3.5299999713897705,3.5299999713897705,3.450000047683716,3.4600000381469727,100000,0.0,0
2020-12-07,3.430000066757202,3.549999952316284,3.430000066757202,3.490000009536743,70400,0.0,0
