Date,Open,High,Low,Close,Volume,Dividends,Stock Splits
2020-01-02,10.319999694824219,10.359999656677246,10.119999885559082,10.119999885559082,178600,0,0
2020-01-03,10.119999885559082,10.359999656677246,10.0,10.359999656677246,392300,0,0
2020-01-06,10.180000305175781,10.300000190734863,10.180000305175781,10.300000190734863,132000,0,0
2020-01-07,10.140000343322754,10.180000305175781,10.100000381469727,10.140000343322754,12600,0,0
2020-01-08,10.140000343322754,10.140000343322754,10.140000343322754,10.140000343322754,100,0,0
2020-01-09,10.239999771118164,10.34000015258789,9.970000267028809,10.15999984741211,142800,0,0
2020-01-10,10.239999771118164,10.34000015258789,10.039999961853027,10.319999694824219,507800,0,0
2020-01-13,10.380000114440918,10.579999923706055,10.279999732971191,10.5,365505,0,0
2020-01-14,10.5600004196167,10.579999923706055,10.399999618530273,10.399999618530273,237766,0,0
2020-01-15,10.359999656677246,10.460000038146973,10.319999694824219,10.420000076293945,132401,0,0
2020-01-16,10.420000076293945,10.520000457763672,10.399999618530273,10.4399995803833,198849,0,0
2020-01-17,10.420000076293945,10.479999542236328,10.380000114440918,10.479999542236328,561800,0,0
2020-01-20,10.479999542236328,10.600000381469727,10.380000114440918,10.420000076293945,342462,0,0
2020-01-21,10.15999984741211,10.279999732971191,10.079999923706055,10.180000305175781,35742,0,0
2020-01-22,10.100000381469727,10.220000267028809,10.100000381469727,10.199999809265137,34766,0,0
2020-01-23,10.100000381469727,10.100000381469727,9.960000038146973,10.0600004196167,31500,0,0
2020-01-24,10.0,10.0600004196167,9.859999656677246,10.020000457763672,31500,0,0
2020-01-29,9.899999618530273,9.899999618530273,9.510000228881836,9.619999885559082,54200,0,0
2020-01-30,9.369999885559082,9.369999885559082,9.020000457763672,9.149999618530273,59812,0,0
2020-01-31,9.270000457763672,9.300000190734863,9.130000114440918,9.300000190734863,75777,0,0
2020-02-03,9.15999984741211,9.369999885559082,9.100000381469727,9.350000381469727,224764,0,0
2020-02-04,9.149999618530273,9.479999542236328,9.149999618530273,9.380000114440918,241142,0,0
2020-02-05,9.399999618530273,9.529999732971191,9.399999618530273,9.489999771118164,55200,0,0
2020-02-06,9.489999771118164,10.199999809265137,9.489999771118164,10.079999923706055,178460,0,0
2020-02-07,9.729999542236328,9.859999656677246,9.729999542236328,9.800000190734863,18600,0,0
2020-02-10,9.989999771118164,9.989999771118164,9.979999542236328,9.979999542236328,600,0,0
2020-02-11,10.0,10.199999809265137,9.680000305175781,10.140000343322754,404751,0,0
2020-02-12,10.0,10.260000228881836,9.930000305175781,10.260000228881836,262250,0,0
2020-02-13,9.949999809265137,10.260000228881836,9.949999809265137,10.260000228881836,24700,0,0
2020-02-14,10.180000305175781,10.380000114440918,10.180000305175781,10.34000015258789,230360,0,0
2020-02-17,10.319999694824219,10.399999618530273,10.15999984741211,10.319999694824219,296490,0,0
2020-02-18,10.260000228881836,10.260000228881836,10.199999809265137,10.260000228881836,16600,0,0
2020-02-19,10.4399995803833,10.4399995803833,10.220000267028809,10.319999694824219,24600,0,0
2020-02-20,10.399999618530273,10.399999618530273,10.180000305175781,10.380000114440918,9641,0,0
2020-02-21,10.140000343322754,10.199999809265137,10.079999923706055,10.079999923706055,9300,0,0
2020-02-24,10.119999885559082,10.119999885559082,9.770000457763672,9.770000457763672,58497,0,0
2020-02-25,9.800000190734863,9.920000076293945,9.630000114440918,9.789999961853027,45600,0,0
2020-02-26,9.600000381469727,9.800000190734863,9.600000381469727,9.800000190734863,18900,0,0
2020-02-27,9.800000190734863,9.899999618530273,9.789999961853027,9.899999618530273,33064,0,0
2020-02-28,9.949999809265137,9.949999809265137,9.40999984741211,9.40999984741211,50305,0,0
2020-03-02,9.630000114440918,9.630000114440918,9.449999809265137,9.449999809265137,43700,0,0
2020-03-03,9.550000190734863,9.550000190734863,9.279999732971191,9.550000190734863,720600,0,0
2020-03-04,9.430000305175781,9.880000114440918,9.350000381469727,9.760000228881836,196940,0,0
2020-03-05,9.84000015258789,9.880000114440918,9.75,9.75,1493100,0,0
2020-03-06,9.789999961853027,9.789999961853027,9.630000114440918,9.770000457763672,4200,0,0
2020-03-09,9.229999542236328,9.670000076293945,9.180000305175781,9.180000305175781,93573,0,0
2020-03-10,9.149999618530273,9.4399995803833,8.960000038146973,9.319999694824219,79100,0,0
2020-03-11,9.319999694824219,9.350000381469727,9.25,9.3100004196167,43818,0,0
2020-03-12,9.770000457763672,9.770000457763672,8.850000381469727,9.0,264008,0,0
2020-03-13,8.5,9.460000038146973,8.270000457763672,8.829999923706055,253860,0,0
2020-03-16,8.949999809265137,8.970000267028809,8.369999885559082,8.699999809265137,378900,0,0
2020-03-17,8.550000190734863,8.550000190734863,8.449999809265137,8.539999961853027,46200,0,0
2020-03-18,8.569999694824219,8.640000343322754,7.989999771118164,8.15999984741211,2733900,0,0
2020-03-19,7.550000190734863,7.809999942779541,7.230000019073486,7.349999904632568,252600,0,0
2020-03-20,7.360000133514404,8.0,7.360000133514404,8.0,1456903,0,0
2020-03-23,7.269999980926514,7.809999942779541,7.239999771118164,7.800000190734863,89700,0,0
2020-03-24,8.100000381469727,8.239999771118164,7.869999885559082,8.220000267028809,96278,0,0
2020-03-25,8.3100004196167,8.470000267028809,8.3100004196167,8.420000076293945,375410,0,0
2020-03-26,8.260000228881836,8.399999618530273,8.199999809265137,8.199999809265137,1046400,0,0
2020-03-27,8.420000076293945,8.420000076293945,8.279999732971191,8.300000190734863,92900,0,0
2020-03-30,8.479999542236328,8.479999542236328,8.029999732971191,8.25,51600,0,0
2020-03-31,8.40999984741211,8.40999984741211,8.109999656677246,8.390000343322754,245200,0,0
2020-04-01,8.199999809265137,8.199999809265137,7.909999847412109,8.020000457763672,162400,0,0
2020-04-02,7.860000133514404,7.989999771118164,7.800000190734863,7.96999979019165,40202,0,0
2020-04-03,7.960000038146973,8.0,7.880000114440918,8.0,11400,0,0
2020-04-06,7.820000171661377,8.130000114440918,7.739999771118164,8.100000381469727,356100,0,0
2020-04-07,7.679999828338623,8.1899995803833,7.679999828338623,8.1899995803833,416100,0,0
2020-04-08,8.420000076293945,8.420000076293945,8.029999732971191,8.100000381469727,7300,0,0
2020-04-09,8.140000343322754,8.5,8.140000343322754,8.5,78000,0,0
2020-04-14,8.489999771118164,9.260000228881836,8.4399995803833,8.550000190734863,375300,0,0
2020-04-15,8.40999984741211,8.449999809265137,8.380000114440918,8.449999809265137,398691,0,0
2020-04-16,8.210000038146973,8.510000228881836,8.210000038146973,8.329999923706055,106200,0,0
2020-04-17,8.199999809265137,8.770000457763672,8.199999809265137,8.600000381469727,658275,0,0
2020-04-20,8.5600004196167,8.770000457763672,8.520000457763672,8.760000228881836,944600,0,0
2020-04-21,8.699999809265137,8.739999771118164,8.40999984741211,8.539999961853027,78000,0,0
2020-04-22,8.4399995803833,8.579999923706055,8.369999885559082,8.5,123346,0,0
2020-04-23,8.369999885559082,8.6899995803833,8.369999885559082,8.6899995803833,142800,0,0
2020-04-24,8.699999809265137,8.8100004196167,8.619999885559082,8.75,34860,0,0
2020-04-27,8.899999618530273,9.010000228881836,8.819999694824219,8.84000015258789,175500,0,0
2020-04-28,8.75,8.899999618530273,8.720000267028809,8.869999885559082,585396,0,0
2020-04-29,8.649999618530273,8.949999809265137,8.539999961853027,8.949999809265137,454500,0,0
2020-05-04,8.949999809265137,8.949999809265137,8.3100004196167,8.5,58055,0,0
2020-05-05,8.399999618530273,8.640000343322754,8.399999618530273,8.640000343322754,102300,0,0
2020-05-06,8.979999542236328,8.979999542236328,8.619999885559082,8.739999771118164,65700,0,0
2020-05-07,8.729999542236328,8.739999771118164,8.5600004196167,8.699999809265137,20100,0,0
2020-05-08,8.699999809265137,8.75,8.630000114440918,8.699999809265137,240300,0,0
2020-05-11,8.680000305175781,8.800000190734863,8.489999771118164,8.779999732971191,201600,0,0
2020-05-12,8.979999542236328,8.979999542236328,8.449999809265137,8.5600004196167,62400,0,0
2020-05-13,8.600000381469727,8.600000381469727,8.600000381469727,8.600000381469727,4500,0,0
2020-05-14,8.039999961853027,8.449999809265137,8.039999961853027,8.449999809265137,147000,0,0
2020-05-15,8.520000457763672,8.65999984741211,8.390000343322754,8.65999984741211,142800,0,0
2020-05-18,8.640000343322754,8.729999542236328,8.529999732971191,8.680000305175781,211900,0,0
2020-05-19,8.850000381469727,8.850000381469727,8.699999809265137,8.699999809265137,398802,0,0
2020-05-20,8.619999885559082,8.649999618530273,8.430000305175781,8.619999885559082,35400,0,0
2020-05-21,8.510000228881836,8.600000381469727,8.449999809265137,8.600000381469727,71100,0,0
2020-05-22,8.300000190734863,8.649999618530273,8.0600004196167,8.520000457763672,45300,0,0
2020-05-25,8.34000015258789,8.399999618530273,8.109999656677246,8.380000114440918,64700,0,0
2020-05-26,8.350000381469727,8.569999694824219,8.199999809265137,8.5,90700,0,0
2020-05-27,8.390000343322754,8.489999771118164,8.289999961853027,8.460000038146973,109021,0,0
2020-05-28,8.239999771118164,8.369999885559082,7.940000057220459,8.270000457763672,88800,0,0
2020-05-29,8.229999542236328,8.279999732971191,8.0,8.100000381469727,572500,0,0
2020-06-01,8.119999885559082,8.470000267028809,8.09000015258789,8.119999885559082,108639,0,0
2020-06-02,8.140000343322754,8.149999618530273,8.010000228881836,8.100000381469727,94860,0,0
2020-06-03,8.119999885559082,8.199999809265137,8.050000190734863,8.170000076293945,64450,0,0
2020-06-04,7.96999979019165,8.199999809265137,7.96999979019165,8.100000381469727,78400,0,0
2020-06-05,8.069999694824219,8.289999961853027,8.0,8.270000457763672,220100,0,0
2020-06-08,8.289999961853027,8.430000305175781,8.279999732971191,8.319999694824219,238210,0,0
2020-06-09,8.119999885559082,8.579999923706055,8.119999885559082,8.579999923706055,450900,0,0
2020-06-10,8.510000228881836,8.710000038146973,8.5,8.630000114440918,356813,0,0
2020-06-11,8.630000114440918,8.630000114440918,8.229999542236328,8.229999542236328,37939,0,0
2020-06-12,8.170000076293945,8.199999809265137,7.96999979019165,8.199999809265137,124800,0,0
2020-06-15,8.329999923706055,8.359999656677246,8.130000114440918,8.199999809265137,36380,0,0
2020-06-16,8.430000305175781,8.550000190734863,8.050000190734863,8.130000114440918,67968,0,0
2020-06-17,8.25,8.319999694824219,8.029999732971191,8.25,260700,0,0
2020-06-18,8.0600004196167,8.109999656677246,7.960000038146973,8.029999732971191,523200,0,0
2020-06-19,8.0,8.149999618530273,7.860000133514404,8.149999618530273,493580,0,0
2020-06-22,7.960000038146973,8.039999961853027,7.929999828338623,8.0,114300,0,0
2020-06-23,8.0600004196167,8.079999923706055,7.940000057220459,8.0,66300,0,0
2020-06-24,7.929999828338623,8.069999694824219,7.860000133514404,8.010000228881836,59703,0,0
2020-06-26,7.900000095367432,8.010000228881836,7.849999904632568,8.010000228881836,40900,0,0
2020-06-29,7.900000095367432,8.039999961853027,7.690000057220459,8.010000228881836,30300,0,0
2020-06-30,7.920000076293945,8.069999694824219,7.900000095367432,8.069999694824219,72900,0,0
2020-07-02,7.880000114440918,8.100000381469727,7.880000114440918,8.100000381469727,1182621,0,0
2020-07-03,8.050000190734863,8.119999885559082,8.010000228881836,8.119999885559082,110233,0,0
2020-07-06,8.0600004196167,8.479999542236328,8.010000228881836,8.399999618530273,376178,0,0
2020-07-07,8.300000190734863,8.420000076293945,8.260000228881836,8.40999984741211,172973,0,0
2020-07-08,8.220000267028809,8.350000381469727,8.170000076293945,8.319999694824219,99800,0,0
2020-07-09,8.350000381469727,8.5,8.180000305175781,8.199999809265137,37800,0,0
2020-07-10,8.399999618530273,8.399999618530273,8.229999542236328,8.3100004196167,35300,0,0
2020-07-13,8.350000381469727,8.539999961853027,8.350000381469727,8.449999809265137,156900,0,0
2020-07-14,8.25,8.399999618530273,8.180000305175781,8.399999618530273,20400,0,0
2020-07-15,8.449999809265137,8.449999809265137,8.329999923706055,8.4399995803833,49201,0,0
2020-07-16,8.279999732971191,8.399999618530273,8.119999885559082,8.289999961853027,38833,0,0
2020-07-17,8.350000381469727,8.390000343322754,8.15999984741211,8.329999923706055,48160,0,0
2020-07-20,8.449999809265137,8.449999809265137,8.270000457763672,8.3100004196167,74663,0,0
2020-07-21,8.5,8.5,8.3100004196167,8.449999809265137,63100,0,0
2020-07-22,8.289999961853027,8.399999618530273,8.270000457763672,8.399999618530273,23100,0,0
2020-07-23,8.329999923706055,8.329999923706055,8.180000305175781,8.300000190734863,84800,0,0
2020-07-24,8.289999961853027,8.289999961853027,8.289999961853027,8.289999961853027,300,0,0
2020-07-27,8.289999961853027,8.289999961853027,8.180000305175781,8.270000457763672,17551,0,0
2020-07-28,8.260000228881836,8.279999732971191,8.149999618530273,8.199999809265137,112000,0,0
2020-07-29,8.210000038146973,8.279999732971191,8.170000076293945,8.170000076293945,13040,0,0
2020-07-30,8.1899995803833,8.229999542236328,8.029999732971191,8.029999732971191,99300,0,0
2020-07-31,8.109999656677246,8.279999732971191,8.020000457763672,8.279999732971191,46337,0,0
2020-08-03,8.149999618530273,8.220000267028809,8.149999618530273,8.220000267028809,33760,0,0
2020-08-04,8.25,8.279999732971191,8.199999809265137,8.279999732971191,126300,0,0
2020-08-05,8.1899995803833,8.350000381469727,8.039999961853027,8.350000381469727,964000,0,0
2020-08-06,8.15999984741211,8.300000190734863,8.15999984741211,8.229999542236328,47153,0,0
2020-08-07,7.880000114440918,8.199999809265137,7.880000114440918,8.199999809265137,18400,0,0
2020-08-10,8.100000381469727,8.300000190734863,8.100000381469727,8.289999961853027,72264,0,0
2020-08-11,8.119999885559082,8.260000228881836,8.010000228881836,8.149999618530273,659333,0,0
2020-08-12,8.039999961853027,8.199999809265137,8.029999732971191,8.180000305175781,369583,0,0
2020-08-13,8.180000305175781,8.180000305175781,8.100000381469727,8.130000114440918,66600,0,0
2020-08-14,7.989999771118164,8.119999885559082,7.880000114440918,8.119999885559082,46500,0,0
2020-08-17,8.09000015258789,8.149999618530273,8.079999923706055,8.109999656677246,222900,0,0
2020-08-18,8.109999656677246,8.109999656677246,8.109999656677246,8.109999656677246,0,0,0
2020-08-19,8.109999656677246,8.109999656677246,8.109999656677246,8.109999656677246,0,0,0
2020-08-20,8.109999656677246,8.109999656677246,8.109999656677246,8.109999656677246,0,0,0
2020-08-21,8.199999809265137,8.199999809265137,8.0,8.130000114440918,94200,0,0
2020-08-24,8.119999885559082,8.199999809265137,8.09000015258789,8.180000305175781,194715,0,0
2020-08-25,7.989999771118164,8.100000381469727,7.960000038146973,8.100000381469727,116400,0,0
2020-08-26,8.010000228881836,8.15999984741211,7.949999809265137,8.029999732971191,101100,0,0
2020-08-27,8.0,8.09000015258789,7.96999979019165,7.989999771118164,24997,0,0
2020-08-28,8.0,8.109999656677246,7.920000076293945,8.100000381469727,55120,0,0
2020-08-31,8.050000190734863,8.100000381469727,7.960000038146973,8.100000381469727,152706,0,0
2020-09-01,8.0,8.0,7.940000057220459,7.96999979019165,2676,0,0
2020-09-02,7.96999979019165,8.100000381469727,7.96999979019165,8.0600004196167,71416,0,0
2020-09-03,8.0,8.020000457763672,7.849999904632568,8.020000457763672,99800,0,0
2020-09-04,8.020000457763672,8.020000457763672,8.020000457763672,8.020000457763672,200,0,0
2020-09-07,8.0,8.029999732971191,7.920000076293945,7.920000076293945,12500,0,0
2020-09-08,7.920000076293945,8.079999923706055,7.860000133514404,7.909999847412109,12900,0,0
2020-09-09,7.849999904632568,7.909999847412109,7.809999942779541,7.909999847412109,13120,0,0
2020-09-10,7.809999942779541,7.849999904632568,7.739999771118164,7.75,65140,0,0
2020-09-11,7.699999809265137,7.699999809265137,7.519999980926514,7.690000057220459,55742,0,0
2020-09-14,7.78000020980835,7.78000020980835,7.519999980926514,7.610000133514404,15600,0,0
2020-09-15,7.579999923706055,7.699999809265137,7.480000019073486,7.630000114440918,403500,0,0
2020-09-16,7.630000114440918,7.630000114440918,7.630000114440918,7.630000114440918,100,0,0
2020-09-17,7.630000114440918,7.630000114440918,7.630000114440918,7.630000114440918,0,0,0
2020-09-18,7.599999904632568,7.860000133514404,7.349999904632568,7.860000133514404,91460,0,0
2020-09-21,7.710000038146973,7.710000038146973,7.710000038146973,7.710000038146973,0,0,0
2020-09-22,7.599999904632568,7.599999904632568,7.400000095367432,7.519999980926514,48739,0,0
2020-09-23,7.610000133514404,7.610000133514404,7.389999866485596,7.5,10036,0,0
2020-09-24,7.510000228881836,7.550000190734863,7.28000020980835,7.489999771118164,35873,0,0
2020-09-25,7.579999923706055,7.579999923706055,7.300000190734863,7.389999866485596,39900,0,0
2020-09-28,7.230000019073486,7.5,7.099999904632568,7.239999771118164,54100,0,0
2020-09-29,7.239999771118164,7.239999771118164,7.03000020980835,7.050000190734863,23500,0,0
2020-09-30,7.150000095367432,7.150000095367432,6.960000038146973,6.980000019073486,60560,0,0
2020-10-05,7.0,7.199999809265137,6.860000133514404,7.059999942779541,32100,0,0
2020-10-06,7.409999847412109,7.480000019073486,7.019999980926514,7.139999866485596,28400,0,0
2020-10-07,7.099999904632568,7.099999904632568,6.889999866485596,7.0,155700,0,0
2020-10-08,7.0,7.0,6.849999904632568,6.880000114440918,2400,0,0
2020-10-09,6.71999979019165,7.03000020980835,6.679999828338623,6.849999904632568,49500,0,0
2020-10-12,6.849999904632568,6.849999904632568,6.789999961853027,6.800000190734863,45300,0,0
2020-10-14,6.760000228881836,6.789999961853027,6.579999923706055,6.789999961853027,52800,0,0
2020-10-15,6.579999923706055,6.699999809265137,6.579999923706055,6.630000114440918,6900,0,0
2020-10-16,6.690000057220459,6.699999809265137,6.619999885559082,6.699999809265137,59640,0,0
2020-10-19,6.610000133514404,6.699999809265137,6.610000133514404,6.610000133514404,6000,0,0
2020-10-20,6.599999904632568,6.630000114440918,6.440000057220459,6.630000114440918,67807,0,0
2020-10-21,6.579999923706055,6.789999961853027,6.400000095367432,6.639999866485596,32300,0,0
2020-10-22,6.449999809265137,6.630000114440918,6.28000020980835,6.590000152587891,886800,0,0
2020-10-23,6.590000152587891,6.71999979019165,6.590000152587891,6.699999809265137,166500,0,0
2020-10-27,6.480000019073486,6.789999961853027,6.480000019073486,6.710000038146973,32400,0,0
2020-10-28,6.690000057220459,6.789999961853027,6.659999847412109,6.78000020980835,3300,0,0
2020-10-29,6.78000020980835,6.78000020980835,6.78000020980835,6.78000020980835,0,0,0
2020-10-30,6.800000190734863,6.800000190734863,6.630000114440918,6.699999809265137,6800,0,0
2020-11-02,6.610000133514404,6.71999979019165,6.449999809265137,6.619999885559082,152000,0,0
2020-11-03,6.320000171661377,6.630000114440918,6.320000171661377,6.519999980926514,245024,0,0
2020-11-04,6.519999980926514,6.599999904632568,6.360000133514404,6.599999904632568,23161,0,0
2020-11-05,6.409999847412109,6.420000076293945,6.079999923706055,6.079999923706055,727980,0,0
2020-11-06,6.099999904632568,6.099999904632568,5.889999866485596,6.0,959718,0,0
2020-11-09,5.989999771118164,6.0,5.75,5.75,45625,0,0
2020-11-10,5.71999979019165,5.71999979019165,5.449999809265137,5.460000038146973,583416,0,0
2020-11-11,5.5,5.619999885559082,5.420000076293945,5.5,175200,0,0
2020-11-12,5.409999847412109,5.579999923706055,5.369999885559082,5.389999866485596,1016700,0,0
2020-11-13,5.349999904632568,5.460000038146973,5.300000190734863,5.400000095367432,1266939,0,0
2020-11-16,5.460000038146973,5.590000152587891,5.289999961853027,5.409999847412109,539400,0,0
2020-11-17,5.260000228881836,5.519999980926514,5.21999979019165,5.329999923706055,1355400,0,0
2020-11-18,5.230000019073486,5.329999923706055,5.21999979019165,5.28000020980835,90325,0,0
2020-11-19,5.400000095367432,5.400000095367432,5.329999923706055,5.400000095367432,10500,0,0
2020-11-20,5.389999866485596,5.400000095367432,5.179999828338623,5.260000228881836,159730,0,0
2020-11-23,5.260000228881836,5.369999885559082,5.21999979019165,5.369999885559082,40160,0,0
2020-11-24,5.369999885559082,5.789999961853027,5.320000171661377,5.769999980926514,272500,0,0
2020-11-25,5.800000190734863,6.090000152587891,5.590000152587891,5.949999809265137,275700,0,0
2020-11-26,6.0,6.039999961853027,5.960000038146973,5.989999771118164,103641,0,0
2020-11-27,5.800000190734863,6.050000190734863,5.800000190734863,6.010000228881836,144153,0,0
2020-11-30,6.050000190734863,6.420000076293945,6.050000190734863,6.420000076293945,193500,0,0
2020-12-01,6.300000190734863,6.389999866485596,6.239999771118164,6.340000152587891,68100,0,0
2020-12-02,6.239999771118164,6.340000152587891,6.199999809265137,6.340000152587891,31500,0,0
2020-12-03,6.449999809265137,6.449999809265137,6.320000171661377,6.429999828338623,36600,0,0
2020-12-04,6.5,6.739999771118164,6.320000171661377,6.320000171661377,30510,0,0
2020-12-07,6.199999809265137,6.25,6.139999866485596,6.199999809265137,6600,0,0
