Date,Open,High,Low,Close,Volume,Dividends,Stock Splits
2020-01-02,4.216193579665635,4.461892508404349,4.216193579665635,4.275161266326904,2249760,0.0,0
2020-01-03,4.324301237943054,4.393096638039228,4.255505369213364,4.373440742492676,2076000,0.0,0
2020-01-06,4.363613030635566,4.363613030635566,4.226021761759272,4.275161266326904,1102044,0.0,0
2020-01-07,4.314473252233921,4.353785045116371,4.265333745447628,4.304645538330078,808000,0.0,0
2020-01-08,4.314472868265938,4.36361283931254,4.245677471160889,4.245677471160889,2000000,0.0,0
2020-01-09,4.314473154357054,4.412752634333639,4.3046454406761585,4.363613128662109,1464000,0.0,0
2020-01-10,4.422580899553332,4.717419813643635,4.3144732352357495,4.599483966827393,3922000,0.0,0
2020-01-13,4.619139671491414,5.031913946633803,4.570000166938068,4.864838600158691,8716000,0.0,0
2020-01-14,4.963118642409211,4.963118642409211,4.845182798209178,4.904150485992432,1729333,0.0,0
2020-01-15,4.9336346556127175,5.159677697286814,4.9336346556127175,5.140021800994873,5064840,0.0,0
2020-01-16,5.110537717075377,5.307097148429681,5.0908818208032995,5.2383012771606445,3518000,0.0,0
2020-01-17,5.267784976203631,5.267784976203631,5.169505501926855,5.22847318649292,1913500,0.0,0
2020-01-20,5.189161391726307,5.4053762349245495,5.130193238584196,5.179333209991455,1608000,0.0,0
2020-01-21,5.179333498891524,5.297268874487111,5.04174222736334,5.100709915161133,1612000,0.0,0
2020-01-22,5.0515698440129295,5.2579569816589355,5.012258052902597,5.2579569816589355,1232680,0.0,0
2020-01-23,5.218645006599152,5.366064452383342,5.159677322012175,5.326752662658691,2608000,0.0,0
2020-01-24,5.326752850418775,5.385720537084275,5.228473372642943,5.2579569816589355,376000,0.0,0
2020-01-29,5.238300990661011,5.238300990661011,5.012257961578382,5.022086143493652,1084000,0.0,0
2020-01-30,5.022086039826694,5.081053724200568,4.717419436244927,4.835354804992676,2368000,0.0,0
2020-01-31,4.796043015410093,4.894322489366551,4.619139493654973,4.835354804992676,1796000,0.0,0
2020-02-03,4.737075705638568,4.95329056544079,4.658451651622408,4.746903419494629,3439814,0.0,0
2020-02-04,4.707591351534946,4.923806667327881,4.707591351534946,4.923806667327881,2228100,0.0,0
2020-02-05,4.864838415041372,5.002430147275524,4.864838415041372,4.933634281158447,1276000,0.0,0
2020-02-06,5.031913953354898,5.140021613330283,4.963118553161621,4.963118553161621,3112000,0.0,0
2020-02-07,5.002430342624377,5.061398029327393,4.8943226826854245,5.061398029327393,945300,0.0,0
2020-02-10,5.012257961755178,5.257956886043504,4.982774353275342,5.120365619659424,4872000,0.0,0
2020-02-11,5.169505874525141,5.385720733517989,5.071225924531222,5.2383012771606445,4978922,0.0,0
2020-02-12,5.238300896470035,5.395548055218802,5.208817288521391,5.277612686157227,2024000,0.0,0
2020-02-13,5.336580373880623,5.336580373880623,5.169505501926855,5.22847318649292,516000,0.0,0
2020-02-14,5.316924769260703,5.336580665189016,5.218645289619137,5.248129367828369,2116000,0.0,0
2020-02-17,5.287441159684995,5.3562365611173295,5.198989393690824,5.248129367828369,2548000,0.0,0
2020-02-18,5.208817673793791,5.238301283923203,5.100710009841035,5.189161777496338,1720000,0.0,0
2020-02-19,5.120365714370564,5.198989296615764,5.081053923247964,5.159677505493164,1341334,0.0,0
2020-02-20,5.198989293277513,5.2383010843748705,5.09088163344302,5.110537528991699,2556006,0.0,0
2020-02-21,5.110537632383465,5.169505788856007,4.933634568866411,5.002430438995361,3392000,0.0,0
2020-02-24,5.041742225014709,5.110537626429992,4.835355083501813,5.051569938659668,7138000,0.0,0
2020-02-25,5.031913856775415,5.08105382908475,4.99260206638135,5.022086143493652,3272000,0.0,0
2020-02-26,5.012258150305309,5.012258150305309,4.904150488334291,4.9532904624938965,1812000,0.0,0
2020-02-27,5.002430344310213,5.012258057780603,4.9238067620130295,4.963118553161621,2084000,0.0,0
2020-02-28,4.904150491889832,4.923806856474746,4.766559220230116,4.855010986328125,2492000,0.0,0
2020-03-02,4.855010893186235,4.992602162206307,4.845182711082329,4.963118553161621,2248000,0.0,0
2020-03-03,4.963118637994656,5.198989388917871,4.963118637994656,5.1498494148254395,4656000,0.0,0
2020-03-04,5.130193524743268,5.159677602958927,5.04174222736334,5.100709915161133,1977500,0.0,0
2020-03-05,5.071225833534199,5.22847346952273,5.071225833534199,5.198989391326904,3160000,0.0,0
2020-03-06,5.218645104083683,5.542967609687162,5.208817390785688,5.513484001159668,9252640,0.0,0
2020-03-09,5.503655910415274,5.503655910415274,5.17933339943827,5.2579569816589355,5656634,0.0,0
2020-03-10,5.189161491374548,5.238300995091941,4.904150307826232,5.169505596160889,5432000,0.0,0
2020-03-11,5.248129273141995,5.366064646584092,5.1400216131699805,5.208817481994629,2132000,0.0,0
2020-03-12,5.159677311044818,5.16950549277184,4.894322496650711,4.982774257659912,2921000,0.0,0
2020-03-13,4.717419529391211,4.913978481185217,4.550344186049553,4.874666690826416,2904000,0.0,0
2020-03-16,4.864838802055251,4.864838802055251,4.422580899553332,4.599483966827393,3588000,0.0,0
2020-03-17,4.530688575505302,4.589656264748078,4.226021946767518,4.40292501449585,3868000,0.0,0
2020-03-18,4.334128954651533,4.756731412169756,4.334128954651533,4.422580718994141,4220000,0.0,0
2020-03-19,4.324301049928656,4.452064599743026,4.157225710730403,4.245677471160889,3604000,0.0,0
2020-03-20,4.265333452271072,4.393096536040503,3.9311827671044703,4.088429927825928,11116000,0.0,0
2020-03-23,4.078602213866882,4.078602213866882,3.882043028683522,3.9901504516601562,3920000,0.0,0
2020-03-24,4.019634717617112,4.108086015349468,3.9901506392839767,4.068774223327637,2096000,0.0,0
2020-03-25,4.186709787085063,4.373440552341763,4.127741634375743,4.245677471160889,4404000,0.0,0
2020-03-26,4.452064599699714,4.491376389083215,4.284989260503086,4.393096446990967,3480000,0.0,0
2020-03-27,4.471720502430152,4.59948358383946,4.4029246365686046,4.540515899658203,2888000,0.0,0
2020-03-30,4.511032485048326,4.511032485048326,4.2751612695897165,4.324301242828369,3352000,0.0,0
2020-03-31,4.363613030726581,4.520860195159912,4.324301239618249,4.520860195159912,2044000,0.0,0
2020-04-01,4.4520648949577994,4.461892608638695,4.22602185669489,4.363613128662109,2724000,0.0,0
2020-04-02,4.3734407489834695,4.4815484089667095,4.3636130355123655,4.4717206954956055,1974000,0.0,0
2020-04-03,4.471720874779561,4.599483966827393,4.402925003189548,4.599483966827393,1676000,0.0,0
2020-04-06,4.501204122807917,4.737075328826904,4.501204122807917,4.737075328826904,1460000,0.0,0
2020-04-07,4.746903133319849,4.805870818801855,4.687935447837842,4.72724723815918,1942000,0.0,0
2020-04-08,4.6486239390463115,4.8550110850493,4.6486239390463115,4.796043395996094,1704000,0.0,0
2020-04-09,4.864838605097619,4.864838605097619,4.766559127257635,4.815699100494385,1304000,0.0,0
2020-04-14,4.815699286847383,4.9631187436288045,4.815699286847383,4.894322872161865,2388000,0.0,0
2020-04-15,4.953290267195648,4.982774344255619,4.805870819162806,4.825526714324951,1412000,0.0,0
2020-04-16,4.845182902556998,4.923806956594808,4.796043395996094,4.796043395996094,1728000,0.0,0
2020-04-17,4.835355183176003,5.081054121600528,4.835355183176003,4.894322872161865,3044000,0.0,0
2020-04-20,4.953290562513582,5.002430537665451,4.8648387946936325,4.94346284866333,1389000,0.0,0
2020-04-21,4.963118548255521,5.081053921584715,4.874666783941867,5.012258052825928,3537000,0.0,0
2020-04-22,5.06139792988397,5.100709720246939,5.002430244339519,5.071225643157959,1408700,0.0,0
2020-04-23,5.100709724634837,5.3070968585347185,5.061397934238051,5.218645095825195,5194400,0.0,0
2020-04-24,5.267785162014647,5.267785162014647,5.022086233339401,5.110537528991699,3702000,0.0,0
2020-04-27,5.169505587698886,5.169505587698886,5.031913852794991,5.071225643157959,1368000,0.0,0
2020-04-28,5.130193524743268,5.130193524743268,5.031914045080279,5.100709915161133,1000000,0.0,0
2020-04-29,5.110537626429992,5.140021704631916,4.992602250889344,5.051569938659668,1220000,0.0,0
2020-05-04,4.943462750053875,5.031914047475913,4.766559217942748,4.80587100982666,2060000,0.0,0
2020-05-05,4.874666882279513,4.91397867418229,4.815699194425349,4.855010986328125,912000,0.0,0
2020-05-06,4.855010985081054,5.081054022780719,4.855010985081054,5.002430438995361,4080000,0.0,0
2020-05-07,5.0417423180943635,5.149849513352382,5.0417423180943635,5.090881824493408,1692000,0.0,0
2020-05-08,5.090881728458668,5.415204714015274,5.090881728458668,5.346408843994141,9026160,0.0,0
2020-05-11,5.425032234135551,5.582279395850535,5.366064548492432,5.366064548492432,1636000,0.0,0
2020-05-12,5.415204714015274,5.415204714015274,5.287441156247537,5.346408843994141,2156000,0.0,0
2020-05-13,5.346408562811162,5.6805592444348285,5.287440878165839,5.621591091156006,8027050,0.0,0
2020-05-14,5.611763667847833,5.818150809081947,5.572451876054051,5.739527225494385,4586000,0.0,0
2020-05-15,5.778839017288166,5.8279785227136305,5.631419563744723,5.739527225494385,3460000,0.0,0
2020-05-18,5.7100431457188074,5.94591436504837,5.474172395022768,5.542967796325684,6708000,0.0,0
2020-05-19,5.562623595408673,5.651075359697092,5.228473371071288,5.356236457824707,11950500,0.0,0
2020-05-20,5.48400011292256,5.503656008829204,5.277612971586032,5.297268867492676,5140000,0.0,0
2020-05-21,5.326752855436726,5.405376437731457,5.149849326640064,5.208817481994629,5248000,0.0,0
2020-05-22,5.149849227957611,5.179333305069913,4.9532902759872846,5.022086143493652,5441634,0.0,0
2020-05-25,4.992602160523783,5.110537533929814,4.933634473820768,5.061398029327393,1720000,0.0,0
2020-05-26,5.100710009841035,5.248129466388696,5.100710009841035,5.189161777496338,1700000,0.0,0
2020-05-27,5.189161579819931,5.248129266465968,5.012258051248304,5.110537528991699,4056000,0.0,0
2020-05-28,5.120365523482735,5.189161389699326,5.051569657266145,5.081053733825684,2592000,0.0,0
2020-05-29,5.100709914049259,5.248129367828369,5.09088173176834,5.248129367828369,2012000,0.0,0
2020-06-01,5.336580562275449,5.444688222113125,5.30709695326832,5.356236457824707,2700500,0.0,0
2020-06-02,5.346408749295153,5.375892358329461,5.267785167025647,5.3070969581604,1844000,0.0,0
2020-06-03,5.415204714015274,5.415204714015274,5.307097052163072,5.346408843994141,1280000,0.0,0
2020-06-04,5.356236362213947,5.366064544129897,5.198989200626802,5.218645095825195,1876000,0.0,0
2020-06-05,5.208817386684593,5.297268680830941,5.159677414332782,5.26778507232666,1492000,0.0,0
2020-06-08,5.2677850722291835,5.2677850722291835,5.140021519023647,5.169505596160889,3048000,0.0,0
2020-06-09,5.159677313139787,5.228473179356377,5.081053733825684,5.081053733825684,2964000,0.0,0
2020-06-10,5.071225928207084,5.130193617066057,5.051570031920758,5.090881824493408,1288000,0.0,0
2020-06-11,5.090881640077786,5.090881640077786,4.9336344754834185,4.963118553161621,4028000,0.0,0
2020-06-12,4.904150397805217,4.982774448735917,4.864838606656625,4.963118553161621,1930000,0.0,0
2020-06-15,4.933634472221456,4.972946263344056,4.884494499001448,4.913978576660156,2704000,0.0,0
2020-06-16,4.913978481706087,5.1105374335209275,4.904150299798591,5.071225643157959,1556000,0.0,0
2020-06-17,5.10070963064664,5.20881728656251,5.10070963064664,5.179333209991455,1296000,0.0,0
2020-06-18,5.1891617707972175,5.2874412521576035,5.0908818208032995,5.2383012771606445,2564000,0.0,0
2020-06-19,5.277612688069411,5.464343923467977,5.277612688069411,5.375892162322998,4788927,0.0,0
2020-06-22,5.375892354989934,5.385720537084275,5.208817477087777,5.2579569816589355,1472000,0.0,0
2020-06-23,5.297268685018931,5.749354743932377,5.257956894559807,5.6117634773254395,5144000,0.0,0
2020-06-24,5.6609037407892755,5.6609037407892755,5.405376621032723,5.484000205993652,1712000,0.0,0
2020-06-26,5.5,5.5,5.349999904632568,5.400000095367432,780500,0.096,0
2020-06-29,5.260000228881836,5.409999847412109,5.239999771118164,5.25,1103500,0.0,0
2020-06-30,5.199999809265137,5.480000019073486,5.170000076293945,5.440000057220459,3640000,0.0,0
2020-07-02,5.440000057220459,5.639999866485596,5.440000057220459,5.53000020980835,3068000,0.0,0
2020-07-03,5.599999904632568,5.599999904632568,5.429999828338623,5.539999961853027,2272245,0.0,0
2020-07-06,5.630000114440918,5.630000114440918,5.440000057220459,5.480000019073486,2952000,0.0,0
2020-07-07,5.579999923706055,5.829999923706055,5.429999828338623,5.760000228881836,7697000,0.0,0
2020-07-08,5.880000114440918,5.929999828338623,5.639999866485596,5.760000228881836,2676112,0.0,0
2020-07-09,5.820000171661377,5.860000133514404,5.699999809265137,5.800000190734863,2545920,0.0,0
2020-07-10,5.849999904632568,5.949999809265137,5.670000076293945,5.739999771118164,4266000,0.0,0
2020-07-13,5.78000020980835,5.980000019073486,5.710000038146973,5.980000019073486,4342240,0.0,0
2020-07-14,6.03000020980835,6.03000020980835,5.739999771118164,5.820000171661377,3171760,0.0,0
2020-07-15,5.900000095367432,6.159999847412109,5.900000095367432,6.099999904632568,10345600,0.0,0
2020-07-16,6.099999904632568,6.150000095367432,5.78000020980835,5.829999923706055,6832000,0.0,0
2020-07-17,5.809999942779541,6.0,5.739999771118164,5.989999771118164,5636500,0.0,0
2020-07-20,6.0,6.619999885559082,6.0,6.489999771118164,16539710,0.0,0
2020-07-21,6.510000228881836,6.650000095367432,6.429999828338623,6.599999904632568,7273000,0.0,0
2020-07-22,6.690000057220459,6.909999847412109,6.349999904632568,6.360000133514404,8362800,0.0,0
2020-07-23,6.429999828338623,6.71999979019165,6.340000152587891,6.71999979019165,5198000,0.0,0
2020-07-24,6.690000057220459,6.690000057220459,6.300000190734863,6.420000076293945,8160189,0.0,0
2020-07-27,6.519999980926514,6.519999980926514,5.940000057220459,6.199999809265137,6375000,0.0,0
2020-07-28,6.199999809265137,6.320000171661377,6.150000095367432,6.179999828338623,1136000,0.0,0
2020-07-29,6.239999771118164,6.369999885559082,6.139999866485596,6.349999904632568,2440000,0.0,0
2020-07-30,6.369999885559082,6.800000190734863,6.329999923706055,6.78000020980835,10048500,0.0,0
2020-07-31,6.860000133514404,7.550000190734863,6.860000133514404,7.340000152587891,20821500,0.0,0
2020-08-03,8.5,8.989999771118164,7.550000190734863,8.949999809265137,47723720,0.0,0
2020-08-04,8.770000457763672,8.930000305175781,8.399999618530273,8.569999694824219,17555600,0.0,0
2020-08-05,8.529999732971191,8.859999656677246,8.420000076293945,8.720000267028809,11411000,0.0,0
2020-08-06,8.800000190734863,8.850000381469727,8.300000190734863,8.5,11498220,0.0,0
2020-08-07,8.550000190734863,8.550000190734863,8.109999656677246,8.25,9321500,0.0,0
2020-08-10,8.25,8.40999984741211,8.100000381469727,8.3100004196167,6840000,0.0,0
2020-08-11,8.3100004196167,8.489999771118164,7.909999847412109,8.170000076293945,13024260,0.0,0
2020-08-12,8.149999618530273,8.149999618530273,7.0,7.590000152587891,14076000,0.0,0
2020-08-13,7.579999923706055,7.739999771118164,7.440000057220459,7.630000114440918,3420424,0.0,0
2020-08-14,7.5,7.769999980926514,7.489999771118164,7.670000076293945,2907400,0.0,0
2020-08-17,7.670000076293945,7.679999828338623,7.400000095367432,7.599999904632568,4160000,0.0,0
2020-08-18,7.699999809265137,7.760000228881836,7.489999771118164,7.599999904632568,3380000,0.0,0
2020-08-19,7.699999809265137,7.909999847412109,7.699999809265137,7.840000152587891,4745324,0.0,0
2020-08-20,7.880000114440918,7.880000114440918,7.510000228881836,7.599999904632568,2742025,0.0,0
2020-08-21,7.699999809265137,7.699999809265137,7.449999809265137,7.480000019073486,2294000,0.0,0
2020-08-24,7.300000190734863,7.519999980926514,7.130000114440918,7.440000057220459,2248000,0.0,0
2020-08-25,7.5,7.5,7.329999923706055,7.429999828338623,2638000,0.0,0
2020-08-26,7.360000133514404,7.599999904632568,7.260000228881836,7.420000076293945,2948000,0.0,0
2020-08-27,7.28000020980835,7.360000133514404,6.980000019073486,7.050000190734863,14164000,0.0,0
2020-08-28,7.050000190734863,7.400000095367432,7.050000190734863,7.239999771118164,2488000,0.0,0
2020-08-31,7.380000114440918,7.389999866485596,7.050000190734863,7.070000171661377,3709000,0.0,0
2020-09-01,7.070000171661377,7.260000228881836,7.070000171661377,7.199999809265137,1184000,0.0,0
2020-09-02,7.170000076293945,7.170000076293945,7.0,7.039999961853027,3465753,0.0,0
2020-09-03,7.179999828338623,7.460000038146973,7.099999904632568,7.25,4789333,0.0,0
2020-09-04,7.239999771118164,7.239999771118164,7.019999980926514,7.099999904632568,2072000,0.0,0
2020-09-07,7.119999885559082,7.150000095367432,6.940000057220459,6.980000019073486,2792000,0.0,0
2020-09-08,7.099999904632568,7.099999904632568,6.809999942779541,7.050000190734863,3460000,0.0,0
2020-09-09,7.090000152587891,7.090000152587891,6.880000114440918,6.940000057220459,2088000,0.0,0
2020-09-10,7.010000228881836,7.03000020980835,6.510000228881836,6.53000020980835,10228000,0.0,0
2020-09-11,6.550000190734863,6.639999866485596,6.510000228881836,6.599999904632568,3194300,0.0,0
2020-09-14,6.659999847412109,6.699999809265137,6.599999904632568,6.630000114440918,2140000,0.0,0
2020-09-15,6.659999847412109,7.019999980926514,6.599999904632568,7.0,4266734,0.0,0
2020-09-16,7.0,7.239999771118164,6.980000019073486,7.159999847412109,5678000,0.0,0
2020-09-17,7.179999828338623,7.179999828338623,6.909999847412109,6.980000019073486,1648000,0.0,0
2020-09-18,7.03000020980835,7.260000228881836,6.980000019073486,7.190000057220459,6966288,0.0,0
2020-09-21,7.239999771118164,7.239999771118164,6.96999979019165,7.010000228881836,1972000,0.0,0
2020-09-22,7.0,7.0,6.840000152587891,6.860000133514404,2012000,0.0,0
2020-09-23,6.860000133514404,6.980000019073486,6.860000133514404,6.96999979019165,1216000,0.0,0
2020-09-24,7.050000190734863,7.050000190734863,6.739999771118164,6.800000190734863,2828000,0.0,0
2020-09-25,6.900000095367432,6.900000095367432,6.599999904632568,6.679999828338623,2000000,0.0,0
2020-09-28,6.679999828338623,6.78000020980835,6.679999828338623,6.690000057220459,1620000,0.0,0
2020-09-29,6.699999809265137,6.960000038146973,6.690000057220459,6.840000152587891,2132800,0.0,0
2020-09-30,6.800000190734863,7.099999904632568,6.800000190734863,7.099999904632568,1732000,0.0,0
2020-10-05,7.159999847412109,7.179999828338623,6.940000057220459,6.949999809265137,1124000,0.0,0
2020-10-06,6.929999828338623,7.239999771118164,6.920000076293945,7.170000076293945,2232000,0.0,0
2020-10-07,7.199999809265137,7.389999866485596,7.150000095367432,7.28000020980835,3889600,0.0,0
2020-10-08,7.300000190734863,7.449999809265137,7.179999828338623,7.230000019073486,4204000,0.0,0
2020-10-09,7.179999828338623,7.25,7.019999980926514,7.059999942779541,2548000,0.0,0
2020-10-12,7.050000190734863,7.099999904632568,6.940000057220459,7.019999980926514,2584000,0.0,0
2020-10-14,7.059999942779541,7.059999942779541,6.820000171661377,6.869999885559082,3068000,0.0,0
2020-10-15,7.0,7.0,6.670000076293945,6.679999828338623,2996000,0.0,0
2020-10-16,6.849999904632568,6.849999904632568,6.5,6.599999904632568,3432000,0.0,0
2020-10-19,6.659999847412109,6.699999809265137,6.429999828338623,6.480000019073486,2192000,0.0,0
2020-10-20,6.559999942779541,6.579999923706055,6.420000076293945,6.559999942779541,1800000,0.0,0
2020-10-21,6.590000152587891,6.610000133514404,6.46999979019165,6.480000019073486,1092000,0.0,0
2020-10-22,6.510000228881836,6.519999980926514,6.400000095367432,6.449999809265137,4022387,0.0,0
2020-10-23,6.5,6.539999961853027,6.420000076293945,6.420000076293945,852800,0.0,0
2020-10-27,6.440000057220459,6.489999771118164,6.409999847412109,6.409999847412109,1604000,0.0,0
2020-10-28,6.449999809265137,6.449999809265137,6.320000171661377,6.320000171661377,2534000,0.0,0
2020-10-29,6.329999923706055,6.349999904632568,6.150000095367432,6.25,4388000,0.0,0
2020-10-30,6.28000020980835,6.380000114440918,6.150000095367432,6.300000190734863,2552000,0.0,0
2020-11-02,6.380000114440918,6.480000019073486,6.159999847412109,6.210000038146973,3420000,0.0,0
2020-11-03,6.190000057220459,6.25,6.059999942779541,6.190000057220459,5544000,0.0,0
2020-11-04,6.289999961853027,6.710000038146973,6.230000019073486,6.360000133514404,5636000,0.0,0
2020-11-05,6.420000076293945,6.630000114440918,6.369999885559082,6.570000171661377,2940000,0.0,0
2020-11-06,6.519999980926514,6.559999942779541,6.28000020980835,6.380000114440918,1956000,0.0,0
2020-11-09,6.380000114440918,6.449999809265137,6.190000057220459,6.230000019073486,2180000,0.0,0
2020-11-10,6.349999904632568,6.349999904632568,6.130000114440918,6.139999866485596,1945000,0.0,0
2020-11-11,6.170000076293945,6.25,6.039999961853027,6.099999904632568,2744000,0.0,0
2020-11-12,6.010000228881836,6.449999809265137,6.010000228881836,6.21999979019165,2888592,0.0,0
2020-11-13,6.25,6.480000019073486,6.239999771118164,6.46999979019165,2085000,0.0,0
2020-11-16,6.480000019073486,6.510000228881836,6.320000171661377,6.389999866485596,1517920,0.0,0
2020-11-17,6.389999866485596,6.389999866485596,6.159999847412109,6.260000228881836,1660000,0.0,0
2020-11-18,6.28000020980835,6.380000114440918,6.239999771118164,6.349999904632568,688000,0.0,0
2020-11-19,6.380000114440918,6.380000114440918,6.28000020980835,6.369999885559082,1236000,0.0,0
2020-11-20,6.320000171661377,6.389999866485596,6.199999809265137,6.309999942779541,2460000,0.0,0
2020-11-23,6.349999904632568,6.349999904632568,6.239999771118164,6.349999904632568,1280000,0.0,0
2020-11-24,6.380000114440918,6.400000095367432,6.239999771118164,6.239999771118164,1352000,0.0,0
2020-11-25,6.260000228881836,6.329999923706055,6.019999980926514,6.099999904632568,3763800,0.0,0
2020-11-26,6.28000020980835,6.300000190734863,6.059999942779541,6.150000095367432,2856000,0.0,0
2020-11-27,6.230000019073486,6.25,6.090000152587891,6.230000019073486,825000,0.0,0
2020-11-30,6.199999809265137,6.800000190734863,6.199999809265137,6.75,11244000,0.0,0
2020-12-01,6.75,6.769999980926514,6.550000190734863,6.590000152587891,5028000,0.0,0
2020-12-02,6.650000095367432,6.650000095367432,6.46999979019165,6.590000152587891,1760000,0.0,0
2020-12-03,6.550000190734863,6.730000019073486,6.460000038146973,6.699999809265137,2016000,0.0,0
2020-12-04,6.650000095367432,6.679999828338623,6.630000114440918,6.659999847412109,1528000,0.0,0
2020-12-07,6.820000171661377,7.0,6.619999885559082,6.71999979019165,2168000,0.0,0
