Date,Open,High,Low,Close,Volume,Dividends,Stock Splits
2020-01-02,2.357772322354763,2.394612480581453,2.348562282798091,2.3854024410247803,4702000,0.0,0
2020-01-03,2.3946125507354736,2.403822590561969,2.3761924710824833,2.3946125507354736,1176000,0.0,0
2020-01-06,2.4038224491683606,2.4130324884531182,2.3669822920293293,2.376192331314087,1488342,0.0,0
2020-01-07,2.366982265304507,2.4130324612083585,2.357772226123737,2.403822422027588,1638000,0.0,0
2020-01-08,2.3669824600219727,2.403822619775673,2.339352340206698,2.3669824600219727,3256000,0.0,0
2020-01-09,2.3669822920293293,2.385402370598845,2.3577722527445713,2.376192331314087,1841649,0.0,0
2020-01-10,2.394612579837248,2.385402539898823,2.3485623801451228,2.3669824600219727,1572387,0.0,0
2020-01-13,2.394612579837248,2.394612579837248,2.3485623801451228,2.3669824600219727,1572000,0.0,0
2020-01-14,2.3669824600219727,2.385402539898823,2.3669824600219727,2.3669824600219727,354200,0.0,0
2020-01-15,2.366982248232924,2.385402326461612,2.339352130889892,2.3393521308898926,2030128,0.0,0
2020-01-16,2.3577724200835477,2.3669824600219727,2.339352340206698,2.3669824600219727,755392,0.0,0
2020-01-17,2.3761924710824833,2.3946125507354736,2.3577723914294926,2.3946125507354736,1420000,0.0,0
2020-01-20,2.394612579837248,2.376192499960398,2.3577724200835477,2.3669824600219727,784000,0.0,0
2020-01-21,2.3577724382554575,2.3577724382554575,2.2656720381613673,2.2748820781707764,2764000,0.0,0
2020-01-22,2.2748819799500746,2.311722138397094,2.2380418215030558,2.293302059173584,804000,0.0,0
2020-01-23,2.2564619153510668,2.2564619153510668,2.2012016773223877,2.2012016773223877,872000,0.0,0
2020-01-24,2.1919915676116943,2.201201606988859,2.182781308649871,2.1919915676116943,460000,0.0,0
2020-01-29,2.127520993778703,2.1367310328155726,2.0906808376312256,2.0906808376312256,1792000,0.0,0
2020-01-30,2.0630508451009795,2.0722608846940105,2.044630765914917,2.044630765914917,1418000,0.0,0
2020-01-31,2.0446308357181504,2.0722609554405302,2.0446308357181504,2.0538408756256104,950000,0.0,0
2020-02-03,1.998580574989319,2.0170006542402623,1.9433201176518242,1.9985805749893188,5626616,0.0,0
2020-02-04,1.9985805957590472,2.035420754643785,1.9893705560378627,2.017000675201416,3538000,0.0,0
2020-02-05,2.0446308649907463,2.0446308649907463,2.007790704833473,2.0262107849121094,2618000,0.0,0
2020-02-06,2.0262105902988705,2.0630507469177246,1.9893704336800162,2.0630507469177246,4706000,0.0,0
2020-02-07,2.0446308649907463,2.0446308649907463,1.9985806647941544,2.0262107849121094,3322000,0.0,0
2020-02-10,2.0262106169284664,2.0446306954799804,1.9985804991011953,2.0354206562042236,2328000,0.0,0
2020-02-11,2.044630765914917,2.0630508451009795,2.0354207263218855,2.044630765914917,724000,0.0,0
2020-02-12,2.053840805507948,2.0630508451009795,2.0354207263218855,2.044630765914917,1076019,0.0,0
2020-02-13,2.0630507469177246,2.0814708252271514,2.053840707763011,2.0630507469177246,1634000,0.0,0
2020-02-14,2.072260926560009,2.0906810061182135,2.063050886780907,2.0814709663391113,2201582,0.0,0
2020-02-17,2.0722607595574867,2.0906808376312256,2.0722607595574867,2.0906808376312256,712000,0.0,0
2020-02-18,2.0722607860724382,2.0722607860724382,2.0446306686082973,2.0630507469177246,1012000,0.0,0
2020-02-19,2.0630507469177246,2.0814708252271514,2.053840707763011,2.0630507469177246,1612000,0.0,0
2020-02-20,2.0722607860724382,2.0814708252271514,2.0446306686082973,2.0630507469177246,1940000,0.0,0
2020-02-21,2.0722609554405302,2.0722609554405302,2.0354207958106905,2.0538408756256104,1032000,0.0,0
2020-02-24,2.0354206562042236,2.0538407347557377,2.0262106169284664,2.0354206562042236,1705190,0.0,0
2020-02-25,2.0170007448727914,2.035420824951428,2.007790704833473,2.0262107849121094,1546000,0.0,0
2020-02-26,1.9985806361808507,2.0814709953479897,1.9985806361808507,2.0538408756256104,3240000,0.0,0
2020-02-27,2.0630508738073385,2.0630508738073385,2.0077906354802315,2.017000675201416,1764000,0.0,0
2020-02-28,1.9893705143051996,1.9985805538331776,1.9617403957212658,1.9801604747772217,2432000,0.0,0
2020-03-02,1.9525300884899548,2.0170005831816353,1.9525300884899548,1.9893704652786255,5695190,0.0,0
2020-03-03,2.026210672417111,2.026210672417111,1.9801604747772217,1.9801604747772217,866000,0.0,0
2020-03-04,1.9617404368743092,2.017000675201416,1.9617404368743092,2.017000675201416,1430232,0.0,0
2020-03-05,1.9985805679497608,2.053840805507948,1.9985805679497608,2.044630765914917,1213116,0.0,0
2020-03-06,2.007790543880632,2.0262106224826386,1.9893704652786257,1.9893704652786255,806000,0.0,0
2020-03-09,1.9525301088695493,1.9525301088695493,1.8696397542953491,1.8696397542953491,3744000,0.0,0
2020-03-10,1.869639748380955,1.9248999845889456,1.869639748380955,1.9156899452209473,2168000,0.0,0
2020-03-11,1.9064799270222479,1.9617403834285025,1.9064799270222479,1.9341100454330444,1708000,0.0,0
2020-03-12,1.9156900229732718,1.9156900229732718,1.8788498640060425,1.8788498640060425,2626000,0.0,0
2020-03-13,1.7775392770478575,1.8420096635818481,1.7683292375133348,1.8420096635818481,3492000,0.0,0
2020-03-16,1.8327995994940303,1.8420096389051697,1.7683292138237239,1.7775392532348633,1904000,0.0,0
2020-03-17,1.7775393312820735,1.7867494808899371,1.6946489729423146,1.7406991720199585,2186000,0.0,0
2020-03-18,1.7499091971358174,1.7683292766121415,1.6209685310092132,1.6301785707473755,2572000,0.0,0
2020-03-19,1.6393885969045985,1.6393885969045985,1.519657971508023,1.5657082796096802,5448000,0.0,0
2020-03-20,1.6117584991717036,1.6209685389550121,1.5657083002551602,1.5841283798217773,3652000,0.0,0
2020-03-23,1.5472880904936175,1.6025484382571393,1.5380780508317526,1.5657082796096802,3028000,0.0,0
2020-03-24,1.5657082724369178,1.6209685101549507,1.5564982328172456,1.6117584705352783,3178130,0.0,0
2020-03-25,1.6578085952449138,1.694648861885071,1.639388516820999,1.6946488618850708,2090000,0.0,0
2020-03-26,1.694648861885071,1.7130689403089856,1.6578085952449138,1.6946488618850708,1780000,0.0,0
2020-03-27,1.7130690087321494,1.722279048311973,1.6393885823012295,1.6578086614608765,11126000,0.0,0
2020-03-30,1.630178542721406,1.6578086614608765,1.6025484239819356,1.6578086614608765,1444000,0.0,0
2020-03-31,1.6946489295725025,1.6946489295725025,1.6393885823012295,1.6578086614608765,5288000,0.0,0
2020-04-01,1.6393885340362635,1.694648879680626,1.6393885340362635,1.6670186519622803,2561820,0.0,0
2020-04-02,1.6854388713836672,1.6946489108618021,1.6670186826350661,1.685438871383667,728000,0.0,0
2020-04-03,1.6670187297000238,1.6854389189686823,1.6301785707473755,1.6301785707473755,332000,0.0,0
2020-04-06,1.6393886104855375,1.6485986502236998,1.593338411794727,1.6301785707473755,498000,0.0,0
2020-04-07,1.676228831905532,1.6946489108618021,1.6670186826350661,1.685438871383667,1480000,0.0,0
2020-04-08,1.6670186826350661,1.6946489108618021,1.6670186826350661,1.685438871383667,560000,0.0,0
2020-04-09,1.6946489526914517,1.722279071807861,1.685438912985982,1.7222790718078613,1002000,0.0,0
2020-04-14,1.7406990744244641,1.7591191530227661,1.7130689565270114,1.7591191530227661,3946000,0.0,0
2020-04-15,1.7499091194135599,1.768329198071756,1.7038589227680698,1.713068962097168,3562000,0.0,0
2020-04-16,1.7130690321023914,1.7591192306297405,1.6762288732805122,1.7222790718078613,1194000,0.0,0
2020-04-17,1.7314891322044297,1.7775393312820735,1.7314891322044297,1.7406991720199585,2648000,0.0,0
2020-04-20,1.7406991720199585,1.759119251651016,1.7222790923889009,1.7406991720199585,928000,0.0,0
2020-04-21,1.722278979520943,1.7314890187329004,1.6762287834611562,1.6946488618850708,5422000,0.0,0
2020-04-22,1.722278979520943,1.722278979520943,1.6854388226731136,1.6946488618850708,1777571,0.0,0
2020-04-23,1.7130690111887954,1.7222790507818266,1.694648932002733,1.7038589715957642,1498000,0.0,0
2020-04-24,1.694648883438972,1.713068962097168,1.6762288047807758,1.713068962097168,2816000,0.0,0
2020-04-27,1.7130690321023914,1.731489111513331,1.7130690321023914,1.7222790718078613,2610000,0.0,0
2020-04-28,1.7038589227680698,1.740699080084462,1.7038589227680698,1.713068962097168,684000,0.0,0
2020-04-29,1.7130689834217723,1.7406991017530113,1.7130689834217723,1.7314890623092651,794000,0.0,0
2020-05-04,1.7038589472719698,1.7038589472719698,1.611758442864125,1.6393885612487793,1104000,0.0,0
2020-05-05,1.6578086401718821,1.6578086401718821,1.611758442864125,1.6393885612487793,2184000,0.0,0
2020-05-06,1.6393885612487793,1.6762288288873155,1.6393885612487793,1.6393885612487793,2742000,0.0,0
2020-05-07,1.6485986007103306,1.6578086401718821,1.6301785217872278,1.6393885612487793,3298000,0.0,0
2020-05-08,1.6485985770011526,1.713068962097168,1.6485985770011526,1.713068962097168,3478000,0.0,0
2020-05-11,1.7130690111887954,1.7406991299678891,1.7038589715957642,1.7038589715957642,1744000,0.0,0
2020-05-12,1.703858950339937,1.703858950339937,1.676228831905532,1.685438871383667,1124000,0.0,0
2020-05-13,1.6670187313426912,1.6946489603767385,1.6670187313426912,1.6762288808822632,1434000,0.0,0
2020-05-14,1.6762288504128555,1.6762288504128555,1.6485986218810529,1.6578086614608765,3948000,0.0,0
2020-05-15,1.6578086614608765,1.6762288504128555,1.6485986218810529,1.6578086614608765,1304000,0.0,0
2020-05-18,1.6578087108134771,1.6670187506674814,1.6485986709594729,1.6485986709594727,1246000,0.0,0
2020-05-19,1.6762287834611562,1.694648861885071,1.6762287834611562,1.6946488618850708,938000,0.0,0
2020-05-20,1.6946489108618021,1.6946489108618021,1.6670186826350661,1.685438871383667,1326000,0.0,0
2020-05-21,1.6762288010632815,1.6762288010632815,1.6670186519622803,1.6670186519622803,824000,0.0,0
2020-05-22,1.6485986502236998,1.6485986502236998,1.593338411794727,1.6301785707473755,2210000,0.0,0
2020-05-25,1.6117584912710512,1.6301785707473755,1.602548451532889,1.6301785707473755,1558000,0.0,0
2020-05-26,1.6393886104855375,1.6485986502236998,1.6209685310092132,1.6301785707473755,1284000,0.0,0
2020-05-27,1.6393886242568072,1.8051695605209948,1.6393886242568072,1.7406991720199585,8300000,0.0,0
2020-05-28,1.7406991732522665,1.8512197609091883,1.7406991732522665,1.7867494821548462,7024000,0.0,0
2020-05-29,1.749909211835487,1.795959520705466,1.7130690525733723,1.7406991720199585,3064000,0.0,0
2020-06-01,1.7591191775832424,1.8327996027974907,1.7591191775832424,1.823589563369751,3764000,0.0,0
2020-06-02,1.8051695122253726,1.8420096705018636,1.7867494330871272,1.79595947265625,1248653,0.0,0
2020-06-03,1.8235896105210572,1.8235896105210572,1.7683292627334595,1.7683292627334595,910000,0.0,0
2020-06-04,1.7867493807125479,1.7867493807125479,1.7499091137236151,1.7591191530227661,616000,0.0,0
2020-06-05,1.7591191744125845,1.786749402438333,1.749909135001445,1.7775392532348633,1274000,0.0,0
2020-06-08,1.7591191567714373,1.8327995811139863,1.7591191567714373,1.8051694631576538,2070000,0.0,0
2020-06-09,1.8143795935186042,1.8512197526422842,1.8051695537376842,1.8327996730804443,3004000,0.0,0
2020-06-10,1.8327996448763717,1.9249000412682835,1.8235896052371805,1.8604297637939453,4940000,0.0,0
2020-06-11,1.8880598545074465,1.9156899730122778,1.842009656999394,1.8880598545074463,2866000,0.0,0
2020-06-12,1.8420096774910624,1.9064799547195432,1.8327996378869935,1.9064799547195435,3858000,0.0,0
2020-06-15,1.9156899730122778,1.9341100520154988,1.878849815005836,1.8880598545074463,2512000,0.0,0
2020-06-16,1.9249000269333325,2.0170006422240263,1.8880598686509207,1.9525301456451416,8290000,0.0,0
2020-06-17,1.934110023956944,1.9617403616455986,1.9156899452209473,1.9156899452209473,1588000,0.0,0
2020-06-18,1.899999976158142,1.940000057220459,1.8700000047683716,1.8899999856948853,1418000,0.16431,0
2020-06-19,1.899999976158142,1.899999976158142,1.850000023841858,1.850000023841858,1502403,0.0,0
2020-06-22,1.8799999952316284,1.8799999952316284,1.7799999713897705,1.7999999523162842,1065604,0.0,0
2020-06-23,1.7999999523162842,1.7999999523162842,1.7599999904632568,1.7599999904632568,340970,0.0,0
2020-06-24,1.75,1.75,1.7200000286102295,1.7300000190734863,705313,0.0,0
2020-06-26,1.7100000381469727,1.7100000381469727,1.6699999570846558,1.6799999475479126,959042,0.0,0
2020-06-29,1.6799999475479126,1.7599999904632568,1.6799999475479126,1.6799999475479126,2308000,0.0,0
2020-06-30,1.7000000476837158,1.7100000381469727,1.690000057220459,1.7000000476837158,1823577,0.0,0
2020-07-02,1.7599999904632568,1.7899999618530273,1.7300000190734863,1.7799999713897705,2916000,0.0,0
2020-07-03,1.809999942779541,1.8200000524520874,1.7899999618530273,1.8200000524520874,5920000,0.0,0
2020-07-06,1.8200000524520874,2.0199999809265137,1.8200000524520874,2.009999990463257,14764000,0.0,0
2020-07-07,2.0299999713897705,2.059999942779541,1.899999976158142,1.909999966621399,4677924,0.0,0
2020-07-08,1.8899999856948853,1.940000057220459,1.8799999952316284,1.899999976158142,2674000,0.0,0
2020-07-09,1.8899999856948853,1.9299999475479126,1.8899999856948853,1.8899999856948853,2616000,0.0,0
2020-07-10,1.8899999856948853,1.8899999856948853,1.7899999618530273,1.840000033378601,4996000,0.0,0
2020-07-13,1.8300000429153442,1.850000023841858,1.7999999523162842,1.8200000524520874,4764000,0.0,0
2020-07-14,1.8200000524520874,1.8200000524520874,1.7899999618530273,1.7899999618530273,4342855,0.0,0
2020-07-15,1.809999942779541,1.8200000524520874,1.7599999904632568,1.7899999618530273,2570000,0.0,0
2020-07-16,1.7699999809265137,1.7899999618530273,1.7400000095367432,1.75,4188000,0.0,0
2020-07-17,1.75,1.7699999809265137,1.7300000190734863,1.75,2270486,0.0,0
2020-07-20,1.7400000095367432,1.850000023841858,1.7400000095367432,1.809999942779541,2550000,0.0,0
2020-07-21,1.8200000524520874,1.8300000429153442,1.7799999713897705,1.8300000429153442,1684000,0.0,0
2020-07-22,1.7799999713897705,1.8300000429153442,1.7799999713897705,1.7899999618530273,2470000,0.0,0
2020-07-23,1.7400000095367432,1.7899999618530273,1.7400000095367432,1.7899999618530273,1328000,0.0,0
2020-07-24,1.7400000095367432,1.7799999713897705,1.7100000381469727,1.7300000190734863,2570000,0.0,0
2020-07-27,1.7300000190734863,1.7300000190734863,1.6799999475479126,1.7000000476837158,9704000,0.0,0
2020-07-28,1.6799999475479126,1.7200000286102295,1.6799999475479126,1.7100000381469727,2236000,0.0,0
2020-07-29,1.7200000286102295,1.7400000095367432,1.7100000381469727,1.7100000381469727,3942000,0.0,0
2020-07-30,1.7200000286102295,1.7400000095367432,1.690000057220459,1.7000000476837158,2106649,0.0,0
2020-07-31,1.659999966621399,1.7000000476837158,1.659999966621399,1.6699999570846558,4208000,0.0,0
2020-08-03,1.690000057220459,1.690000057220459,1.659999966621399,1.690000057220459,6678280,0.0,0
2020-08-04,1.6699999570846558,1.7200000286102295,1.6699999570846558,1.7200000286102295,3914000,0.0,0
2020-08-05,1.7200000286102295,1.7200000286102295,1.6799999475479126,1.7000000476837158,1099190,0.0,0
2020-08-06,1.7000000476837158,1.7100000381469727,1.6799999475479126,1.690000057220459,2093920,0.0,0
2020-08-07,1.690000057220459,1.7100000381469727,1.6699999570846558,1.690000057220459,1288000,0.0,0
2020-08-10,1.6799999475479126,1.7000000476837158,1.6799999475479126,1.690000057220459,532000,0.0,0
2020-08-11,1.690000057220459,1.7200000286102295,1.6799999475479126,1.690000057220459,1446000,0.0,0
2020-08-12,1.690000057220459,1.7000000476837158,1.659999966621399,1.7000000476837158,2108000,0.0,0
2020-08-13,1.690000057220459,1.7000000476837158,1.690000057220459,1.7000000476837158,842000,0.0,0
2020-08-14,1.7000000476837158,1.7100000381469727,1.690000057220459,1.7000000476837158,1324000,0.0,0
2020-08-17,1.7000000476837158,1.7300000190734863,1.7000000476837158,1.7200000286102295,1172000,0.0,0
2020-08-18,1.7200000286102295,1.7200000286102295,1.6799999475479126,1.7000000476837158,1520000,0.0,0
2020-08-19,1.690000057220459,1.7000000476837158,1.690000057220459,1.690000057220459,426000,0.0,0
2020-08-20,1.690000057220459,1.7000000476837158,1.6699999570846558,1.7000000476837158,826000,0.0,0
2020-08-21,1.7000000476837158,1.7000000476837158,1.6799999475479126,1.6799999475479126,1470000,0.0,0
2020-08-24,1.690000057220459,1.7100000381469727,1.6799999475479126,1.7000000476837158,692000,0.0,0
2020-08-25,1.7000000476837158,1.7100000381469727,1.6799999475479126,1.690000057220459,5216000,0.0,0
2020-08-26,1.7000000476837158,1.7000000476837158,1.6699999570846558,1.690000057220459,1570000,0.0,0
2020-08-27,1.6699999570846558,1.690000057220459,1.6699999570846558,1.6799999475479126,2308000,0.0,0
2020-08-28,1.6699999570846558,1.690000057220459,1.659999966621399,1.690000057220459,1322000,0.0,0
2020-08-31,1.6799999475479126,1.7100000381469727,1.6799999475479126,1.6799999475479126,1764000,0.0,0
2020-09-01,1.6799999475479126,1.690000057220459,1.659999966621399,1.6699999570846558,2374000,0.0,0
2020-09-02,1.6699999570846558,1.6699999570846558,1.649999976158142,1.6699999570846558,1854000,0.0,0
2020-09-03,1.659999966621399,1.6699999570846558,1.649999976158142,1.659999966621399,516621,0.0,0
2020-09-04,1.649999976158142,1.649999976158142,1.6200000047683716,1.6200000047683716,1906000,0.0,0
2020-09-07,1.6200000047683716,1.6299999952316284,1.590000033378601,1.590000033378601,968000,0.0,0
2020-09-08,1.6399999856948853,1.6399999856948853,1.600000023841858,1.6299999952316284,712000,0.0,0
2020-09-09,1.6100000143051147,1.6299999952316284,1.600000023841858,1.6200000047683716,4628000,0.0,0
2020-09-10,1.6200000047683716,1.6200000047683716,1.590000033378601,1.590000033378601,1154000,0.0,0
2020-09-11,1.590000033378601,1.600000023841858,1.5800000429153442,1.590000033378601,908000,0.0,0
2020-09-14,1.590000033378601,1.600000023841858,1.5499999523162842,1.590000033378601,3038000,0.0,0
2020-09-15,1.5800000429153442,1.600000023841858,1.5700000524520874,1.590000033378601,1188000,0.0,0
2020-09-16,1.5800000429153442,1.6200000047683716,1.5700000524520874,1.5800000429153442,1822000,0.0,0
2020-09-17,1.5800000429153442,1.600000023841858,1.559999942779541,1.5700000524520874,1386000,0.0,0
2020-09-18,1.590000033378601,1.590000033378601,1.5499999523162842,1.5800000429153442,1218000,0.0,0
2020-09-21,1.600000023841858,1.600000023841858,1.5399999618530273,1.559999942779541,1766000,0.0,0
2020-09-22,1.5499999523162842,1.559999942779541,1.5399999618530273,1.5399999618530273,944000,0.0,0
2020-09-23,1.5399999618530273,1.5499999523162842,1.5199999809265137,1.5299999713897705,1260000,0.0,0
2020-09-24,1.5299999713897705,1.5299999713897705,1.5099999904632568,1.5099999904632568,1676000,0.0,0
2020-09-25,1.5199999809265137,1.5199999809265137,1.4700000286102295,1.4700000286102295,2026000,0.0,0
2020-09-28,1.4800000190734863,1.5,1.4700000286102295,1.5,1230000,0.0,0
2020-09-29,1.4900000095367432,1.4900000095367432,1.4600000381469727,1.4600000381469727,454000,0.0,0
2020-09-30,1.4600000381469727,1.4700000286102295,1.4299999475479126,1.4500000476837158,1772000,0.0,0
2020-10-05,1.4500000476837158,1.4600000381469727,1.440000057220459,1.4600000381469727,58000,0.0,0
2020-10-06,1.4800000190734863,1.5099999904632568,1.4700000286102295,1.4700000286102295,178000,0.0,0
2020-10-07,1.5099999904632568,1.5099999904632568,1.4500000476837158,1.4500000476837158,154000,0.0,0
2020-10-08,1.4500000476837158,1.4600000381469727,1.440000057220459,1.4500000476837158,380000,0.0,0
2020-10-09,1.4800000190734863,1.5399999618530273,1.4600000381469727,1.5399999618530273,1602000,0.0,0
2020-10-12,1.5299999713897705,1.600000023841858,1.5299999713897705,1.5700000524520874,3510000,0.0,0
2020-10-14,1.5499999523162842,1.6100000143051147,1.5499999523162842,1.5499999523162842,1200000,0.0,0
2020-10-15,1.5199999809265137,1.600000023841858,1.5199999809265137,1.5199999809265137,682000,0.0,0
2020-10-16,1.5199999809265137,1.590000033378601,1.5199999809265137,1.5700000524520874,1302000,0.0,0
2020-10-19,1.5800000429153442,1.590000033378601,1.5499999523162842,1.559999942779541,444000,0.0,0
2020-10-20,1.559999942779541,1.5700000524520874,1.5399999618530273,1.5499999523162842,428000,0.0,0
2020-10-21,1.559999942779541,1.5700000524520874,1.5399999618530273,1.5399999618530273,472000,0.0,0
2020-10-22,1.5399999618530273,1.590000033378601,1.5399999618530273,1.5399999618530273,1981360,0.0,0
2020-10-23,1.5299999713897705,1.600000023841858,1.5199999809265137,1.5800000429153442,2250000,0.0,0
2020-10-27,1.5800000429153442,1.590000033378601,1.5399999618530273,1.5499999523162842,1720000,0.0,0
2020-10-28,1.5499999523162842,1.5700000524520874,1.5499999523162842,1.5499999523162842,1790000,0.0,0
2020-10-29,1.5299999713897705,1.5399999618530273,1.5,1.5299999713897705,1998000,0.0,0
2020-10-30,1.5299999713897705,1.5800000429153442,1.5099999904632568,1.5499999523162842,1722000,0.0,0
2020-11-02,1.5499999523162842,1.5499999523162842,1.5299999713897705,1.5299999713897705,278000,0.0,0
2020-11-03,1.5299999713897705,1.600000023841858,1.5299999713897705,1.600000023841858,1094000,0.0,0
2020-11-04,1.600000023841858,1.600000023841858,1.5399999618530273,1.5499999523162842,266000,0.0,0
2020-11-05,1.559999942779541,1.590000033378601,1.5499999523162842,1.5700000524520874,456000,0.0,0
2020-11-06,1.600000023841858,1.6200000047683716,1.5800000429153442,1.6100000143051147,764000,0.0,0
2020-11-09,1.6299999952316284,1.7300000190734863,1.600000023841858,1.6699999570846558,4186000,0.0,0
2020-11-10,1.7000000476837158,1.7000000476837158,1.6200000047683716,1.6299999952316284,788000,0.0,0
2020-11-11,1.6399999856948853,1.6699999570846558,1.6399999856948853,1.659999966621399,2926000,0.0,0
2020-11-12,1.649999976158142,1.659999966621399,1.6299999952316284,1.649999976158142,428000,0.0,0
2020-11-13,1.6399999856948853,1.6699999570846558,1.6299999952316284,1.6399999856948853,378000,0.0,0
2020-11-16,1.6699999570846558,1.6699999570846558,1.6100000143051147,1.6299999952316284,800000,0.0,0
2020-11-17,1.649999976158142,1.649999976158142,1.6299999952316284,1.649999976158142,152000,0.0,0
2020-11-18,1.649999976158142,1.6699999570846558,1.6100000143051147,1.659999966621399,608000,0.0,0
2020-11-19,1.649999976158142,1.6699999570846558,1.649999976158142,1.6699999570846558,1424000,0.0,0
2020-11-20,1.6799999475479126,1.6799999475479126,1.6299999952316284,1.6399999856948853,354000,0.0,0
2020-11-23,1.6699999570846558,1.6699999570846558,1.600000023841858,1.6399999856948853,1188000,0.0,0
2020-11-24,1.649999976158142,1.6699999570846558,1.6399999856948853,1.6399999856948853,328000,0.0,0
2020-11-25,1.6799999475479126,1.6799999475479126,1.6399999856948853,1.649999976158142,372000,0.0,0
2020-11-26,1.6299999952316284,1.649999976158142,1.6299999952316284,1.649999976158142,226000,0.0,0
2020-11-27,1.649999976158142,1.659999966621399,1.6399999856948853,1.6399999856948853,790000,0.0,0
2020-11-30,1.649999976158142,1.659999966621399,1.6100000143051147,1.6100000143051147,1120000,0.0,0
2020-12-01,1.6200000047683716,1.649999976158142,1.6200000047683716,1.6200000047683716,654000,0.0,0
2020-12-02,1.6399999856948853,1.6399999856948853,1.6100000143051147,1.6399999856948853,722000,0.0,0
2020-12-03,1.649999976158142,1.659999966621399,1.600000023841858,1.6100000143051147,820000,0.0,0
2020-12-04,1.6200000047683716,1.6200000047683716,1.590000033378601,1.590000033378601,594000,0.0,0
2020-12-07,1.590000033378601,1.600000023841858,1.5299999713897705,1.5700000524520874,387190,0.0,0
