Date,Open,High,Low,Close,Volume,Dividends,Stock Splits
2020-01-02,1.0172189474105835,1.0269998898589137,1.0074380049622536,1.0172189474105835,3510000,0.0,0
2020-01-03,1.0172189474105835,1.0172189474105835,0.9976570625139233,1.0172189474105835,3790000,0.0,0
2020-01-06,1.0172189474105835,1.0172189474105835,0.9976570625139233,1.0172189474105835,4832000,0.0,0
2020-01-07,1.0172189474105835,1.0269998898589137,1.0074380049622536,1.0172189474105835,3246081,0.0,0
2020-01-08,1.017219006639358,1.026999949657195,1.007438063621521,1.007438063621521,3434000,0.0,0
2020-01-09,1.0172190073839391,1.0269999504089355,0.9976571213339461,1.0269999504089355,3388000,0.0,0
2020-01-10,1.0269999504089355,1.0367808934339322,1.0172190073839391,1.0269999504089355,4228000,0.0,0
2020-01-13,1.0269998898589137,1.0367808323072438,1.0172189474105835,1.0172189474105835,3814000,0.0,0
2020-01-14,1.0269998898589137,1.0269998898589137,1.0074380049622536,1.0172189474105835,3236096,0.0,0
2020-01-15,1.017219006639358,1.026999949657195,1.007438063621521,1.007438063621521,3428000,0.0,0
2020-01-16,1.0074380643589427,1.0269999504089355,1.0074380643589427,1.0269999504089355,4568003,0.0,0
2020-01-17,1.0269998917318308,1.046561893262197,1.007438006799496,1.036780834197998,8910000,0.0,0
2020-01-20,1.0367808323072438,1.0465618913536052,1.0172189474105835,1.0172189474105835,3398000,0.0,0
2020-01-21,1.026999949657195,1.026999949657195,1.007438063621521,1.007438063621521,3140000,0.0,0
2020-01-22,1.0172189474105835,1.0269998898589137,1.0172189474105835,1.0172189474105835,3124000,0.0,0
2020-01-23,1.0172189474105835,1.0172189474105835,1.0074380049622536,1.0172189474105835,3410000,0.0,0
2020-01-24,1.0172189474105835,1.0172189474105835,1.0074380049622536,1.0172189474105835,2130000,0.0,0
2020-01-29,1.017219006639358,1.017219006639358,0.9878761775858469,1.007438063621521,3448000,0.0,0
2020-01-30,0.9976571198445006,1.0074380628548947,0.9878761768341064,0.9878761768341064,3582000,0.0,0
2020-01-31,0.9878761768341064,1.0172190058652888,0.9878761768341064,0.9878761768341064,4352000,0.0,0
2020-02-03,0.9976571198445006,0.9976571198445006,0.9878761768341064,0.9878761768341064,3428000,0.0,0
2020-02-04,0.9976571198445006,1.0074380628548947,0.9878761768341064,0.9878761768341064,3528000,0.0,0
2020-02-05,0.9976571202278138,1.007438063241966,0.9878761772136617,0.9976571202278137,3486000,0.0,0
2020-02-06,0.9976571202278138,1.007438063241966,0.9878761772136617,0.9976571202278137,3320000,0.0,0
2020-02-07,0.9976571202278138,1.007438063241966,0.9976571202278138,0.9976571202278137,3746000,0.0,0
2020-02-10,0.9976571198445006,1.0074380628548947,0.9878761768341064,0.9878761768341064,4152000,0.0,0
2020-02-11,0.997657120603684,1.007438063621521,0.9878761775858469,1.007438063621521,5630000,0.0,0
2020-02-12,1.0074380628548947,1.0074380628548947,0.9878761768341064,0.9878761768341064,4507907,0.0,0
2020-02-13,0.98787617644696,0.98787617644696,0.9780952334403991,0.9780952334403992,3524228,0.0,0
2020-02-14,0.9780952338237123,0.9976571198445006,0.9780952338237123,0.9878761768341064,3394000,0.0,0
2020-02-17,0.9976571198445006,0.9976571198445006,0.9878761768341064,0.9878761768341064,3374000,0.0,0
2020-02-18,0.9976571202278138,0.9976571202278138,0.9878761772136617,0.9976571202278137,3340000,0.0,0
2020-02-19,1.0074380628548947,1.0074380628548947,0.9878761768341064,0.9878761768341064,3660000,0.0,0
2020-02-20,0.9976571198445006,0.9976571198445006,0.9878761768341064,0.9878761768341064,4252000,0.0,0
2020-02-21,0.9976571198445006,0.9976571198445006,0.9878761768341064,0.9878761768341064,3414000,0.0,0
2020-02-24,0.9976571198445006,0.9976571198445006,0.9878761768341064,0.9878761768341064,4488000,0.0,0
2020-02-25,0.9976571198445006,1.0074380628548947,0.9878761768341064,0.9878761768341064,5868000,0.0,0
2020-02-26,0.9976571198445006,0.9976571198445006,0.9780952338237123,0.9878761768341064,4224000,0.0,0
2020-02-27,0.98787617644696,0.997657119453521,0.9780952334403991,0.9780952334403992,4308000,0.0,0
2020-02-28,0.9780952341995097,0.9976571202278138,0.9683142911853576,0.9976571202278137,4828000,0.0,0
2020-03-02,0.9976571198445006,0.9976571198445006,0.9683142908133183,0.9878761768341064,4732000,0.0,0
2020-03-03,0.9976571198445006,1.0367808918860768,0.9878761768341064,0.9878761768341064,4844000,0.0,0
2020-03-04,0.997657119453521,0.997657119453521,0.9780952334403991,0.9780952334403992,4422000,0.0,0
2020-03-05,0.9878761768341064,0.9976571198445006,0.9780952338237123,0.9878761768341064,4236000,0.0,0
2020-03-06,0.997657119453521,0.997657119453521,0.9780952334403991,0.9780952334403992,3542000,0.0,0
2020-03-09,0.9780952334403991,0.98787617644696,0.9780952334403991,0.9780952334403992,4308000,0.0,0
2020-03-10,0.9878761772136617,1.007438063241966,0.9780952341995097,0.9976571202278137,5984000,0.0,0
2020-03-11,0.9976571202278138,1.017219006256118,0.9878761772136617,0.9976571202278137,4774000,0.0,0
2020-03-12,0.9976571198445006,1.0074380628548947,0.9878761768341064,0.9878761768341064,3846000,0.0,0
2020-03-13,0.9878761768341064,0.9976571198445006,0.9780952338237123,0.9878761768341064,4140000,0.0,0
2020-03-16,0.9976571202278138,0.9976571202278138,0.9780952341995097,0.9976571202278137,3834206,0.0,0
2020-03-17,0.9976571202278138,1.007438063241966,0.9780952341995097,0.9976571202278137,4860000,0.0,0
2020-03-18,0.997657119453521,0.997657119453521,0.9780952334403991,0.9780952334403992,3930000,0.0,0
2020-03-19,0.98787617644696,0.997657119453521,0.9683142904338381,0.9780952334403992,7338000,0.0,0
2020-03-20,0.9878761772136617,0.9976571202278138,0.9780952341995097,0.9976571202278137,5640000,0.0,0
2020-03-23,0.98787617644696,0.98787617644696,0.9683142904338381,0.9780952334403992,3744000,0.0,0
2020-03-24,0.9878761760519927,0.9878761760519927,0.968314290046692,0.9683142900466919,4670000,0.0,0
2020-03-25,0.9780952338237123,0.9878761768341064,0.9683142908133183,0.9878761768341064,4198000,0.0,0
2020-03-26,0.98787617644696,0.98787617644696,0.9683142904338381,0.9780952334403992,4686000,0.0,0
2020-03-27,0.9780952341995097,0.9976571202278138,0.9780952341995097,0.9976571202278137,5550000,0.0,0
2020-03-30,0.9878761768341064,0.9878761768341064,0.9780952338237123,0.9878761768341064,5146000,0.0,0
2020-03-31,0.9878761772136617,0.9976571202278138,0.9780952341995097,0.9976571202278137,4706000,0.0,0
2020-04-01,0.9878761772136617,0.9976571202278138,0.9780952341995097,0.9976571202278137,4394182,0.0,0
2020-04-02,0.9878761768341064,0.9976571198445006,0.9780952338237123,0.9878761768341064,3182000,0.0,0
2020-04-03,0.9878761768341064,0.9878761768341064,0.9780952338237123,0.9878761768341064,3576000,0.0,0
2020-04-06,0.9878761768341064,0.9878761768341064,0.9683142908133183,0.9878761768341064,5124027,0.0,0
2020-04-07,0.9878761768341064,0.9878761768341064,0.9780952338237123,0.9878761768341064,5158000,0.0,0
2020-04-08,0.9878761768341064,0.9878761768341064,0.9780952338237123,0.9878761768341064,4160000,0.0,0
2020-04-09,0.9878761768341064,0.9976571198445006,0.9780952338237123,0.9878761768341064,11554000,0.0,0
2020-04-14,0.9878761760519927,0.9878761760519927,0.968314290046692,0.9683142900466919,5536000,0.0,0
2020-04-15,0.9780952330493423,0.9878761760519927,0.968314290046692,0.9683142900466919,6090000,0.0,0
2020-04-16,0.9780952330493423,0.9878761760519927,0.968314290046692,0.9683142900466919,4546000,0.0,0
2020-04-17,0.9683142904338381,0.997657119453521,0.9683142904338381,0.9780952334403992,6148000,0.0,0
2020-04-20,0.9878761772136617,0.9976571202278138,0.9878761772136617,0.9976571202278137,4092000,0.0,0
2020-04-21,0.997657120603684,1.017219006639358,0.997657120603684,1.007438063621521,5102864,0.0,0
2020-04-22,1.0172189474105835,1.0465618913536052,1.0172189474105835,1.0172189474105835,4504000,0.0,0
2020-04-23,1.0269998898589137,1.0269998898589137,1.0172189474105835,1.0172189474105835,4496000,0.0,0
2020-04-24,1.017219006639358,1.017219006639358,1.007438063621521,1.007438063621521,4582006,0.0,0
2020-04-27,1.0074380049622536,1.0172189474105835,0.9976570625139233,1.0172189474105835,6328000,0.0,0
2020-04-28,1.017219006256118,1.02699994927027,0.9976571202278138,0.9976571202278137,6802030,0.0,0
2020-04-29,1.007438063241966,1.017219006256118,0.9780952341995097,0.9976571202278137,7100000,0.0,0
2020-05-04,1.007438062460082,1.007438062460082,0.9683142904338381,0.9780952334403992,8352000,0.0,0
2020-05-05,0.9780952334403991,0.98787617644696,0.9780952334403991,0.9780952334403992,4558009,0.0,0
2020-05-06,0.9878761768341064,0.9976571198445006,0.9780952338237123,0.9878761768341064,4990000,0.0,0
2020-05-07,0.9976571198445006,0.9976571198445006,0.9878761768341064,0.9878761768341064,5152000,0.0,0
2020-05-08,0.997657119453521,0.997657119453521,0.9780952334403991,0.9780952334403992,5970000,0.0,0
2020-05-11,0.9878761768341064,0.9976571198445006,0.9780952338237123,0.9878761768341064,6626000,0.0,0
2020-05-12,0.98787617644696,0.997657119453521,0.9780952334403991,0.9780952334403992,6786000,0.0,0
2020-05-13,0.9780952341995097,0.9976571202278138,0.9780952341995097,0.9976571202278137,6304000,0.0,0
2020-05-14,0.997657119453521,0.997657119453521,0.9780952334403991,0.9780952334403992,6383390,0.0,0
2020-05-15,0.98787617644696,0.997657119453521,0.9780952334403991,0.9780952334403992,11194000,0.0,0
2020-05-18,0.9780952338237123,0.9976571198445006,0.9780952338237123,0.9878761768341064,5646009,0.0,0
2020-05-19,0.997657120603684,1.007438063621521,0.9878761775858469,1.007438063621521,4104000,0.0,0
2020-05-20,1.007438063241966,1.007438063241966,0.9976571202278138,0.9976571202278137,5308000,0.0,0
2020-05-21,1.0074380049622536,1.0172189474105835,0.9976570625139233,1.0172189474105835,7764000,0.0,0
2020-05-22,1.017219005466643,1.017219005466643,0.9780952334403991,0.9780952334403992,6462000,0.0,0
2020-05-25,0.9878761768341064,0.9878761768341064,0.9878761768341064,0.9878761768341064,8996000,0.0,0
2020-05-26,0.9780952334403991,0.98787617644696,0.9780952334403991,0.9780952334403992,4582000,0.0,0
2020-05-27,0.98787617644696,0.98787617644696,0.9780952334403991,0.9780952334403992,3960000,0.0,0
2020-05-28,0.98787617644696,0.98787617644696,0.9683142904338381,0.9780952334403992,5078018,0.0,0
2020-05-29,0.9878761772136617,1.056342894910764,0.9780952341995097,0.9976571202278137,16660000,0.0,0
2020-06-01,0.997657120603684,1.007438063621521,0.997657120603684,1.007438063621521,4576000,0.0,0
2020-06-02,1.007438063621521,1.026999949657195,1.007438063621521,1.007438063621521,10362000,0.0,0
2020-06-03,1.017219006639358,1.017219006639358,1.007438063621521,1.007438063621521,6482000,0.0,0
2020-06-04,1.017219006639358,1.017219006639358,1.007438063621521,1.007438063621521,5060000,0.0,0
2020-06-05,1.017219006639358,1.017219006639358,0.997657120603684,1.007438063621521,7090000,0.0,0
2020-06-08,1.007438063241966,1.007438063241966,0.9976571202278138,0.9976571202278137,5930000,0.0,0
2020-06-09,0.9976571202278138,0.9976571202278138,0.9878761772136617,0.9976571202278137,4598000,0.0,0
2020-06-10,0.9976571198445006,0.9976571198445006,0.9878761768341064,0.9878761768341064,4136000,0.0,0
2020-06-11,0.9976571202278138,0.9976571202278138,0.9878761772136617,0.9976571202278137,4218000,0.0,0
2020-06-12,0.9976571202278138,0.9976571202278138,0.9878761772136617,0.9976571202278137,3786000,0.0,0
2020-06-15,0.9976571198445006,0.9976571198445006,0.9878761768341064,0.9878761768341064,3964000,0.0,0
2020-06-16,0.9976571198445006,0.9976571198445006,0.9878761768341064,0.9878761768341064,4015368,0.0,0
2020-06-17,0.9878761772136617,0.9976571202278138,0.9878761772136617,0.9976571202278137,5230000,0.0,0
2020-06-18,0.9976571202278138,0.9976571202278138,0.9878761772136617,0.9976571202278137,4792000,0.0,0
2020-06-19,0.997657119453521,0.997657119453521,0.9780952334403991,0.9780952334403992,6084000,0.0,0
2020-06-22,0.9878761768341064,0.9878761768341064,0.9780952338237123,0.9878761768341064,3940000,0.0,0
2020-06-23,0.9780952334403991,0.98787617644696,0.9780952334403991,0.9780952334403992,3756000,0.0,0
2020-06-24,0.98787617644696,0.98787617644696,0.9780952334403991,0.9780952334403992,4078000,0.0,0
2020-06-26,0.9878761768341064,0.9878761768341064,0.9780952338237123,0.9878761768341064,3222000,0.0,0
2020-06-29,0.9878761768341064,0.9878761768341064,0.9780952338237123,0.9878761768341064,4240000,0.0,0
2020-06-30,0.98787617644696,0.98787617644696,0.9780952334403991,0.9780952334403992,4448045,0.0,0
2020-07-02,0.9780952338237123,0.9878761768341064,0.9780952338237123,0.9878761768341064,4014000,0.0,0
2020-07-03,0.9878761768341064,0.9878761768341064,0.9780952338237123,0.9878761768341064,3310006,0.0,0
2020-07-06,0.98787617644696,0.997657119453521,0.9780952334403991,0.9780952334403992,4762240,0.0,0
2020-07-07,0.9878761772136617,0.9976571202278138,0.9780952341995097,0.9976571202278137,7484000,0.0,0
2020-07-08,0.9976571198445006,0.9976571198445006,0.9780952338237123,0.9878761768341064,8238000,0.0,0
2020-07-09,0.9878761768341064,0.9878761768341064,0.9780952338237123,0.9878761768341064,3530000,0.0,0
2020-07-10,0.98787617644696,0.98787617644696,0.9780952334403991,0.9780952334403992,3290000,0.0,0
2020-07-13,0.9878761768341064,0.9878761768341064,0.9780952338237123,0.9878761768341064,3596000,0.0,0
2020-07-14,0.9878761768341064,0.9878761768341064,0.9780952338237123,0.9878761768341064,3836009,0.0,0
2020-07-15,0.9878761768341064,0.9878761768341064,0.9780952338237123,0.9878761768341064,3998009,0.0,0
2020-07-16,0.98787617644696,0.98787617644696,0.9780952334403991,0.9780952334403992,5344000,0.0,0
2020-07-17,0.9878761760519927,0.9878761760519927,0.968314290046692,0.9683142900466919,6678336,0.0,0
2020-07-20,0.9683142904338381,0.98787617644696,0.9683142904338381,0.9780952334403992,12016000,0.0,0
2020-07-21,0.9878761200655932,1.0172189474105835,0.9878761200655932,1.0172189474105835,4380000,0.0,0
2020-07-22,1.0172190073839391,1.0465619530569668,1.0172190073839391,1.0269999504089355,3604000,0.0,0
2020-07-23,1.0269999504089355,1.0367808934339322,1.0172190073839391,1.0269999504089355,4114000,0.0,0
2020-07-24,1.0269999504089355,1.0661238391069596,1.0172190073839391,1.0269999504089355,4186009,0.0,0
2020-07-27,1.0399999618530273,1.0399999618530273,1.0299999713897705,1.0399999618530273,3355054,0.023,0
2020-07-28,1.0399999618530273,1.0399999618530273,1.0299999713897705,1.0399999618530273,3376000,0.0,0
2020-07-29,1.0399999618530273,1.0399999618530273,1.0299999713897705,1.0399999618530273,3618000,0.0,0
2020-07-30,1.0399999618530273,1.0399999618530273,1.0299999713897705,1.0399999618530273,4006000,0.0,0
2020-07-31,1.0399999618530273,1.0399999618530273,1.0299999713897705,1.0399999618530273,3870000,0.0,0
2020-08-03,1.0399999618530273,1.0399999618530273,1.0299999713897705,1.0399999618530273,4040000,0.0,0
2020-08-04,1.0399999618530273,1.0399999618530273,1.0299999713897705,1.0399999618530273,3682000,0.0,0
2020-08-05,1.0399999618530273,1.0399999618530273,1.0299999713897705,1.0399999618530273,4090000,0.0,0
2020-08-06,1.0399999618530273,1.0399999618530273,1.0299999713897705,1.0399999618530273,3918000,0.0,0
2020-08-07,1.0399999618530273,1.0399999618530273,1.0299999713897705,1.0399999618530273,3476000,0.0,0
2020-08-10,1.0399999618530273,1.0399999618530273,1.0199999809265137,1.0299999713897705,5706000,0.0,0
2020-08-11,1.0299999713897705,1.0299999713897705,1.0199999809265137,1.0299999713897705,4030243,0.0,0
2020-08-12,1.0199999809265137,1.0299999713897705,1.0199999809265137,1.0299999713897705,3523287,0.0,0
2020-08-13,1.0299999713897705,1.0299999713897705,1.0199999809265137,1.0199999809265137,3294000,0.0,0
2020-08-14,1.0299999713897705,1.0299999713897705,1.0199999809265137,1.0299999713897705,4520000,0.0,0
2020-08-17,1.0299999713897705,1.0299999713897705,1.0199999809265137,1.0299999713897705,3680165,0.0,0
2020-08-18,1.0299999713897705,1.0299999713897705,1.0199999809265137,1.0299999713897705,4190000,0.0,0
2020-08-19,1.0299999713897705,1.0299999713897705,1.0199999809265137,1.0299999713897705,2101920,0.0,0
2020-08-20,1.0299999713897705,1.0299999713897705,1.0099999904632568,1.0099999904632568,3422000,0.0,0
2020-08-21,1.0199999809265137,1.0199999809265137,1.0,1.0099999904632568,3668000,0.0,0
2020-08-24,1.0099999904632568,1.0099999904632568,0.9900000095367432,1.0,4233250,0.0,0
2020-08-25,1.0,1.0,0.9800000190734863,0.9900000095367432,4160000,0.0,0
2020-08-26,0.9900000095367432,0.9900000095367432,0.9800000190734863,0.9900000095367432,3142000,0.0,0
2020-08-27,0.9900000095367432,0.9900000095367432,0.9800000190734863,0.9900000095367432,3852015,0.0,0
2020-08-28,0.9900000095367432,0.9900000095367432,0.9800000190734863,0.9900000095367432,5176000,0.0,0
2020-08-31,0.9900000095367432,1.0299999713897705,0.9800000190734863,1.0099999904632568,7924000,0.0,0
2020-09-01,1.0099999904632568,1.0099999904632568,1.0,1.0099999904632568,3940000,0.0,0
2020-09-02,1.0099999904632568,1.0099999904632568,1.0,1.0099999904632568,3494000,0.0,0
2020-09-03,1.0099999904632568,1.0099999904632568,1.0,1.0099999904632568,4206000,0.0,0
2020-09-04,1.0099999904632568,1.0099999904632568,0.9900000095367432,0.9900000095367432,8228000,0.0,0
2020-09-07,1.0,1.0,0.9900000095367432,0.9900000095367432,4583000,0.0,0
2020-09-08,1.0,1.0,0.9900000095367432,1.0,3896000,0.0,0
2020-09-09,1.0,1.0,0.9900000095367432,0.9900000095367432,4328000,0.0,0
2020-09-10,1.0,1.0099999904632568,0.9900000095367432,1.0099999904632568,5488576,0.0,0
2020-09-11,1.0,1.0,0.9900000095367432,1.0,3194000,0.0,0
2020-09-14,1.0,1.0,0.9900000095367432,1.0,4552000,0.0,0
2020-09-15,1.0,1.0,0.9900000095367432,1.0,3728000,0.0,0
2020-09-16,1.0,1.0099999904632568,0.9900000095367432,0.9900000095367432,3636000,0.0,0
2020-09-17,1.0,1.0,0.9900000095367432,0.9900000095367432,3796000,0.0,0
2020-09-18,1.0,1.0,0.9900000095367432,0.9900000095367432,3908006,0.0,0
2020-09-21,1.0,1.0,0.9800000190734863,0.9900000095367432,4202000,0.0,0
2020-09-22,0.9900000095367432,0.9900000095367432,0.9800000190734863,0.9900000095367432,3752000,0.0,0
2020-09-23,0.9900000095367432,0.9900000095367432,0.9800000190734863,0.9900000095367432,3498000,0.0,0
2020-09-24,0.9900000095367432,0.9900000095367432,0.9800000190734863,0.9800000190734863,3454000,0.0,0
2020-09-25,0.9900000095367432,0.9900000095367432,0.9800000190734863,0.9900000095367432,3456000,0.0,0
2020-09-28,0.9900000095367432,0.9900000095367432,0.9700000286102295,0.9700000286102295,3922000,0.0,0
2020-09-29,0.9800000190734863,0.9800000190734863,0.9700000286102295,0.9700000286102295,3292000,0.0,0
2020-09-30,0.9800000190734863,0.9800000190734863,0.9700000286102295,0.9800000190734863,8058000,0.0,0
2020-10-05,0.9800000190734863,0.9800000190734863,0.9700000286102295,0.9800000190734863,3630000,0.0,0
2020-10-06,0.9800000190734863,0.9800000190734863,0.9599999785423279,0.9800000190734863,4900000,0.0,0
2020-10-07,0.9700000286102295,0.9800000190734863,0.9700000286102295,0.9800000190734863,4152000,0.0,0
2020-10-08,0.9800000190734863,1.0099999904632568,0.9700000286102295,1.0,6478000,0.0,0
2020-10-09,1.0,1.0,0.9900000095367432,1.0,3304000,0.0,0
2020-10-12,1.0,1.0,0.9900000095367432,1.0,3618257,0.0,0
2020-10-14,1.0,1.0,0.9900000095367432,1.0,5044000,0.0,0
2020-10-15,1.0,1.0099999904632568,1.0,1.0099999904632568,7286000,0.0,0
2020-10-16,1.0099999904632568,1.0099999904632568,1.0,1.0099999904632568,4284000,0.0,0
2020-10-19,1.0099999904632568,1.0099999904632568,1.0,1.0099999904632568,4774000,0.0,0
2020-10-20,1.0099999904632568,1.0099999904632568,1.0,1.0099999904632568,4664000,0.0,0
2020-10-21,1.0099999904632568,1.0099999904632568,1.0,1.0099999904632568,4724000,0.0,0
2020-10-22,1.0099999904632568,1.0700000524520874,1.0,1.0199999809265137,13598000,0.0,0
2020-10-23,1.0299999713897705,1.0299999713897705,1.0099999904632568,1.0099999904632568,5500000,0.0,0
2020-10-27,1.0199999809265137,1.0199999809265137,1.0099999904632568,1.0199999809265137,3560000,0.0,0
2020-10-28,1.0199999809265137,1.0199999809265137,1.0099999904632568,1.0199999809265137,3406000,0.0,0
2020-10-29,1.0199999809265137,1.0199999809265137,1.0099999904632568,1.0199999809265137,4422000,0.0,0
2020-10-30,1.0199999809265137,1.0199999809265137,1.0099999904632568,1.0199999809265137,3758000,0.0,0
2020-11-02,1.0199999809265137,1.0199999809265137,1.0099999904632568,1.0099999904632568,4878000,0.0,0
2020-11-03,1.0199999809265137,1.0199999809265137,1.0,1.0099999904632568,4078000,0.0,0
2020-11-04,1.0099999904632568,1.0099999904632568,0.9900000095367432,1.0,4210000,0.0,0
2020-11-05,1.0,1.0,0.9900000095367432,1.0,3584000,0.0,0
2020-11-06,1.0,1.0,0.9900000095367432,1.0,4232000,0.0,0
2020-11-09,1.0,1.0,0.9900000095367432,1.0,3750000,0.0,0
2020-11-10,1.0,1.0,0.9900000095367432,1.0,5566003,0.0,0
2020-11-11,1.0,1.0,0.9900000095367432,1.0,3402000,0.0,0
2020-11-12,1.0,1.0,0.9900000095367432,1.0,3150000,0.0,0
2020-11-13,1.0,1.0,0.9900000095367432,1.0,2998000,0.0,0
2020-11-16,1.0,1.0,0.9900000095367432,1.0,3834000,0.0,0
2020-11-17,1.0,1.0,0.9900000095367432,1.0,4362000,0.0,0
2020-11-18,1.0,1.0,0.9800000190734863,0.9900000095367432,7984000,0.0,0
2020-11-19,0.9900000095367432,0.9900000095367432,0.9700000286102295,0.9700000286102295,3556000,0.0,0
2020-11-20,0.9800000190734863,0.9800000190734863,0.9599999785423279,0.9800000190734863,4652000,0.0,0
2020-11-23,0.9800000190734863,0.9800000190734863,0.9700000286102295,0.9800000190734863,4620003,0.0,0
2020-11-24,0.9800000190734863,0.9800000190734863,0.9700000286102295,0.9800000190734863,3588000,0.0,0
2020-11-25,0.9800000190734863,0.9800000190734863,0.9700000286102295,0.9800000190734863,4104000,0.0,0
2020-11-26,0.9800000190734863,0.9800000190734863,0.9599999785423279,0.9700000286102295,6094000,0.0,0
2020-11-27,0.9800000190734863,0.9900000095367432,0.9700000286102295,0.9900000095367432,4222000,0.0,0
2020-11-30,0.9900000095367432,1.0199999809265137,0.9800000190734863,1.0199999809265137,6434000,0.0,0
2020-12-01,1.0099999904632568,1.0199999809265137,0.9900000095367432,1.0,6210000,0.0,0
2020-12-02,1.0,1.0,0.9900000095367432,1.0,3974000,0.0,0
2020-12-03,1.0,1.0,0.9900000095367432,0.9900000095367432,4988000,0.0,0
2020-12-04,0.9900000095367432,0.9900000095367432,0.9700000286102295,0.9800000190734863,4386000,0.0,0
2020-12-07,0.9800000190734863,0.9800000190734863,0.9599999785423279,0.9599999785423279,6184009,0.0,0
