Date,Open,High,Low,Close,Volume,Dividends,Stock Splits
2019-06-12,4.916342592211113,5.826410147716379,4.876774478640373,5.292240142822266,206527950,0.0,0
2019-06-13,5.341700338814889,7.498164341777184,5.341700338814889,7.458596229553223,156710584,0.0,0
2019-06-14,7.616868824918309,9.100674476917131,6.756261659964379,6.795829772949219,129760394,0.0,0
2019-06-17,7.02334663825027,7.498164464391396,6.7760456969619565,7.201403617858887,42089750,0.0,0
2019-06-18,7.122267190529976,8.47747628697899,7.122267190529976,8.437908172607422,80268950,0.0,0
2019-06-19,8.60607286143139,9.189703253701008,7.814710105354564,8.388447761535645,100280000,0.0,0
2019-06-20,8.50715297866022,8.843481475111448,8.160931274511464,8.576396942138672,32721500,0.0,0
2019-06-21,8.606072192346359,8.675317094380482,8.210391080915011,8.259851455688477,14634000,0.0,0
2019-06-24,8.269743388216002,9.328192090572117,8.21039168879611,9.249055862426758,34546834,0.0,0
2019-06-25,9.377651548159708,9.53592494820894,8.803913421038287,9.298515319824219,46216000,0.0,0
2019-06-26,9.169919497284043,10.3668551659451,9.120459119587563,10.248150825500488,51976000,0.0,0
2019-06-27,10.248150650832851,11.751740824260818,10.169014425218561,10.861456871032715,87799583,0.0,0
2019-06-28,11.059298046536334,12.958569291035051,10.881241072558893,12.899216651916504,66859100,0.0,0
2019-07-02,14.244534233438184,21.070040023756846,13.651012524015572,19.645587921142578,133681403,0.0,0
2019-07-03,20.77327959741619,28.19230802506483,14.936977611683893,18.972929000854492,149314237,0.0,0
2019-07-04,17.904588360625585,19.190552488699616,13.255329952807585,13.631227493286133,93548836,0.0,0
2019-07-05,14.046693606762696,16.697759118207376,14.00712549296138,16.480134963989258,73198011,0.0,0
2019-07-08,16.816464645959854,18.5376790362532,16.618623130716543,18.12221336364746,53424166,0.0,0
2019-07-09,18.597029721928806,19.07184895526704,16.420782606717285,17.7858829498291,40141505,0.0,0
2019-07-10,17.92437333265442,18.26070088220511,16.519703888888145,16.856033325195312,20731767,0.0,0
2019-07-11,17.152793373973086,17.311065824859863,15.134817738410268,15.787692070007324,23126343,0.0,0
2019-07-12,15.609635604381424,16.618622983653495,15.609635604381424,16.00531768798828,13731132,0.0,0
2019-07-15,16.183373615590877,17.469337709016532,15.629419112080013,16.71754264831543,20082059,0.0,0
2019-07-16,16.895599765026326,17.31106541034486,16.69775826277697,16.91538429260254,7291000,0.0,0
2019-07-17,16.875815497337012,17.192360396405647,16.3614309797287,16.737327575683594,8124690,0.0,0
2019-07-18,16.73732750577492,16.994520706883044,16.579055056901677,16.63840675354004,4342000,0.0,0
2019-07-19,16.796679907374962,19.071849757241107,16.796679907374962,18.972929000854492,40747998,0.0,0
2019-07-22,20.57543709025931,20.674357841865216,18.794871108378633,19.30925750732422,33111704,0.0,0
2019-07-23,19.665370430359257,21.317340828017073,19.012496082710683,21.267881393432617,29736790,0.0,0
2019-07-24,21.66356160119619,23.147367216165193,21.119500297076783,22.751686096191406,52088377,0.0,0
2019-07-25,23.097907925535267,25.669838051292473,22.356005113495094,22.949527740478516,57698212,0.0,0
2019-07-26,22.900066788570577,24.48279319034843,22.603306413693176,23.543048858642578,22804570,0.0,0
2019-07-29,24.334411962966644,24.87847325590997,23.246287490323628,24.82901382446289,20351630,0.0,0
2019-07-30,25.02685462835883,26.708501792199925,25.02685462835883,26.659042358398438,35325099,0.0,0
2019-07-31,26.362278971430122,26.362278971430122,24.037649833492118,25.026853561401367,24835100,0.0,0
2019-08-01,24.532252467493034,26.510659985412033,24.334412847754997,26.213899612426758,22548632,0.0,0
2019-08-02,25.076316207020916,26.016058666216974,22.40546524560795,24.087112426757812,34307920,0.0,0
2019-08-05,23.345208791516427,24.23549178589178,21.96032392395961,22.85060691833496,23752240,0.0,0
2019-08-06,22.059243012903803,23.24628827528026,20.32813643921272,23.196828842163086,30451132,0.0,0
2019-08-07,23.740889537854674,25.22469513397059,23.740889537854674,25.125774383544922,22638900,0.0,0
2019-08-08,25.224694760900995,26.312819225977407,24.532251404918817,24.58171272277832,18731692,0.0,0
2019-08-09,25.52145636328159,25.570917683548608,23.394668647467533,23.493589401245117,15341440,0.0,0
2019-08-12,23.790350071329094,24.581714224623116,23.147367993922774,23.938732147216797,11968186,0.0,0
2019-08-13,23.34520864691545,23.69143033334925,22.603305841738624,22.65276527404785,14414892,0.0,0
2019-08-14,23.64196928352539,24.13657115927595,22.801145717398157,23.048446655273438,9554050,0.0,0
2019-08-15,22.059243188361258,23.790349775821422,21.6141026264968,23.493589401245117,14462138,0.0,0
2019-08-16,23.54304843421286,24.087111627355092,22.652765438874063,22.900066375732422,10614513,0.0,0
2019-08-19,23.394668177576804,23.64196911367541,22.553844617490263,22.801145553588867,9515552,0.0,0
2019-08-20,23.44412901407891,24.977394031614057,22.99898658356542,24.87847328186035,26500136,0.0,0
2019-08-21,24.87847310946822,25.570916466189598,24.581712749019836,24.63117218017578,10769000,0.0,0
2019-08-22,24.779552506259446,25.076314755211015,24.334411962966644,24.82901382446289,5789020,0.0,0
2019-08-23,24.92793617777151,25.125775803043563,23.938732391141794,24.334413528442383,6848230,0.0,0
2019-08-26,23.345208102557635,24.73009292924403,23.246287353489386,24.63117218017578,7595562,0.0,0
2019-08-27,24.235491911777345,24.235491911777345,22.55384477952288,23.048446655273438,17422295,0.0,0
2019-08-28,23.196829003978984,23.444129944802825,19.586233758545728,20.525978088378906,28576082,0.0,0
2019-08-29,20.52597729553213,20.52597729553213,18.33983796873538,18.814655303955078,18592025,0.0,0
2019-08-30,18.814656030699467,20.624898842059732,18.814656030699467,20.525978088378906,13928175,0.0,0
2019-09-02,20.624897959158954,22.05924222248265,20.575436641057635,22.009782791137695,9772945,0.0,0
2019-09-03,22.30654397530127,23.88927036453753,22.05924303594424,23.246288299560547,16599037,0.0,0
2019-09-04,23.345208983015016,24.13657123189427,22.652765600178352,23.147367477416992,11196706,0.0,0
2019-09-05,23.246288527542074,23.93873191923527,22.99898758575971,23.592510223388672,6288000,0.0,0
2019-09-06,23.839811233676734,23.988191421821245,23.34520934869073,23.691431045532227,5280000,0.0,0
2019-09-09,24.383872829457594,24.77955396459001,23.988191694325174,24.136571884155273,10027000,0.0,0
2019-09-10,24.136571107688937,24.136571107688937,22.108704176148372,22.949527740478516,10497809,0.0,0
2019-09-11,23.147367216165193,23.34520871953029,22.356004976217623,22.751686096191406,4450500,0.0,0
2019-09-12,22.652764933357954,22.751685683245075,21.614101776434097,22.15816307067871,7524105,0.0,0
2019-09-13,22.158163284583203,22.900066085764045,22.158163284583203,22.454925537109375,3270000,0.0,0
2019-09-16,22.454925367281398,22.454925367281398,21.76248200338038,22.207624435424805,3589240,0.0,0
2019-09-17,21.960324298965055,24.08711201261216,21.81194222507164,23.444129943847656,13093601,0.0,0
2019-09-18,23.641969258314774,23.889270195926343,22.94952776505623,22.998987197875977,4381000,0.0,0
2019-09-19,22.998987006759247,23.19682850990705,22.356004951663493,22.702226638793945,4042700,0.0,0
2019-09-20,22.652765177558898,23.444129298430557,22.454925562408278,22.504384994506836,3858538,0.0,0
2019-09-23,22.553844282646804,22.949527283935232,21.762482053582712,22.306543350219727,3964070,0.0,0
2019-09-24,22.35600444429955,22.55384405620103,21.663561085753475,21.960323333740234,4467350,0.0,0
2019-09-25,22.009784256292434,22.059243690929822,20.921659713461512,21.317340850830078,6314860,0.0,0
2019-09-26,21.416261716073624,21.960324933641783,21.168960768112594,21.465723037719727,2996065,0.0,0
2019-09-27,21.267881326905034,21.51518227256672,20.971120946813603,21.168960571289062,1489000,0.0,0
2019-09-30,20.773278522491456,21.16895964080668,19.764290255720333,19.784074783325195,6892000,0.0,0
2019-10-02,19.744506120205095,20.37759780883789,18.893792170622845,20.37759780883789,6068000,0.0,0
2019-10-03,19.981916614762355,20.52597792555646,19.88299586186622,20.278676986694336,2277000,0.0,0
2019-10-04,20.377598059032607,21.465722584434843,20.179756550138944,20.773279190063477,5024285,0.0,0
2019-10-08,20.872199642293435,21.218421334466036,20.328136444091797,20.328136444091797,2541851,0.0,0
2019-10-09,20.17975597357391,20.52597766086754,19.764290326172844,19.88299560546875,2930464,0.0,0
2019-10-10,19.981916285861008,20.229217220652572,19.764290255720333,19.784074783325195,3039507,0.0,0
2019-10-11,19.784074588366103,20.08083495248904,19.388393473950057,19.487314224243164,5238830,0.0,0
2019-10-14,19.764290395927798,20.575437165917364,19.704938699448572,19.981916427612305,4260335,0.0,0
2019-10-15,19.833533687547952,19.981915753877598,19.48731389746237,19.566450119018555,3249000,0.0,0
2019-10-16,19.566450447126375,19.932454770427572,19.36860894654016,19.487314224243164,1755600,0.0,0
2019-10-17,19.388394247747243,19.83353481169736,19.388394247747243,19.52688217163086,1427000,0.0,0
2019-10-18,19.586232685382875,19.685153433643666,19.427960242868146,19.467529296875,1367420,0.0,0
2019-10-21,19.427961702686755,19.586234157094086,18.636599430650087,18.775087356567383,5805170,0.0,0
2019-10-22,18.775086506684563,18.87400725790047,18.26070010976697,18.636598587036133,4591000,0.0,0
2019-10-23,18.597030139259004,18.695950893705838,17.72653165099109,17.805667877197266,5763299,0.0,0
2019-10-24,17.607826527597243,18.676166534423828,16.816464258376246,18.676166534423828,10448960,0.0,0
2019-10-25,18.79487183763147,18.79487183763147,17.90458881214759,18.102428436279297,3118000,0.0,0
2019-10-28,18.16178182512425,18.597030125559346,17.508907487715145,18.379405975341797,4341000,0.0,0
2019-10-29,18.37940583832775,18.636599043080153,18.062860936096005,18.181564331054688,2199598,0.0,0
2019-10-30,18.181563736484645,18.260699959454683,17.80566714906606,17.865018844604492,2256020,0.0,0
2019-10-31,17.785883812173992,18.161782311510603,17.64739588439551,17.924373626708984,2453000,0.0,0
2019-11-01,17.924373406272178,18.280485485716827,17.924373406272178,18.20134925842285,2062500,0.0,0
2019-11-04,18.30026910868638,19.76429018455976,18.30026910868638,19.68515396118164,10658290,0.0,0
2019-11-05,19.784074640142062,20.921658554598952,19.487314275242486,19.586233139038086,10995790,0.0,0
2019-11-06,19.764290060956206,19.932454770427572,18.913576136650804,19.487314224243164,3852299,0.0,0
2019-11-07,19.487313823878427,19.645586266393156,19.150984411845545,19.467529296875,2268000,0.0,0
2019-11-08,19.487313930884834,19.487313930884834,18.695949827209407,19.091630935668945,3432000,0.0,0
2019-11-11,18.992713622451134,19.052065321871027,18.3398392685628,18.498111724853516,2796000,0.0,0
2019-11-12,18.636599762023046,18.972929205307942,18.636599762023046,18.695951461791992,1570000,0.0,0
2019-11-13,18.695949754191247,18.695949754191247,18.22113242589423,18.418973922729492,1967000,0.0,0
2019-11-14,18.320054209503716,18.498111189365464,17.983724777932967,18.280485153198242,2035000,0.0,0
2019-11-15,18.280484046675586,18.59702893093305,18.102427077591678,18.320053100585938,1197000,0.0,0
2019-11-18,18.320054209503716,18.557462887067228,18.06286100378747,18.280485153198242,1497000,0.0,0
2019-11-19,18.260700364920968,18.53767809484439,18.10242791546656,18.458541870117188,1506000,0.0,0
2019-11-20,18.359620483493767,19.289472506994514,18.300268788687102,19.1905517578125,3622720,0.0,0
2019-11-21,18.992712202998128,19.230120869691056,18.63659825958055,18.715734481811523,2024100,0.0,0
2019-11-22,18.69594980783578,18.913575832330277,18.399189448487736,18.517892837524414,1402100,0.0,0
2019-11-25,18.517894507377562,18.597030736123585,17.983725435031054,18.12221336364746,2410000,0.0,0
2019-11-26,18.023290960902536,18.10242718242519,17.805666823404323,17.944154739379883,3351000,0.0,0
2019-11-27,17.944156069838975,18.062861354302466,17.50890776257132,17.62761116027832,3461333,0.0,0
2019-11-28,17.70674587407791,17.80566662154889,17.56825795967233,17.64739418029785,1517000,0.0,0
2019-11-29,17.64739428434655,17.706745978476544,17.073656209739703,17.271495819091797,2305000,0.0,0
2019-12-02,17.27149675521482,17.825452219640535,17.27149675521482,17.508907318115234,1627650,0.0,0
2019-12-03,17.50890659064157,17.56825828552246,17.212144342724375,17.56825828552246,745000,0.0,0
2019-12-04,17.58804326260601,17.785882879521495,17.311065534816635,17.686962127685547,967000,0.0,0
2019-12-05,17.667179953025578,17.825452405437925,17.50890750061323,17.805667877197266,917000,0.0,0
2019-12-06,17.80566827588178,18.023292431132436,17.80566827588178,17.82545280456543,1141800,0.0,0
2019-12-09,17.865018981036307,18.003508787358783,17.449553335581676,17.48912239074707,1072000,0.0,0
2019-12-10,17.508906713914172,17.84523613186779,17.508906713914172,17.766098022460938,1755000,0.0,0
2019-12-11,17.82545126964106,19.427960219897003,17.627609773353402,18.89379119873047,7523299,0.0,0
2019-12-12,19.091632399113234,19.21033768412847,18.597030503936658,18.972929000854492,2948000,0.0,0
2019-12-13,19.012495702959523,19.15098551319152,18.794871553675602,18.854223251342773,1728000,0.0,0
2019-12-16,18.893791598699774,19.09163121241923,18.69595009822394,18.913576126098633,1959390,0.0,0
2019-12-17,19.07184922990122,19.46753035775053,19.07184922990122,19.329042434692383,3119000,0.0,0
2019-12-18,19.4477459455893,19.784075377955052,19.249904437107165,19.52688217163086,3269000,0.0,0
2019-12-19,19.58623400432439,20.22921796794005,19.447746079487278,19.72472381591797,5333600,0.0,0
2019-12-20,19.78407584831873,20.229218309608502,19.230122252857626,19.645587921142578,6288767,0.0,0
2019-12-23,19.48731508407,19.586233951971263,19.032280367347045,19.052064895629883,2092000,0.0,0
2019-12-24,19.05206359090947,19.427960168758982,18.656382486132,19.368608474731445,828000,0.0,0
2019-12-27,19.34882394780349,19.58623261066997,19.170766978964544,19.368608474731445,1229600,0.0,0
2019-12-30,19.368609869382148,19.368609869382148,18.755302697748192,19.150985717773438,1605000,0.0,0
2019-12-31,19.19055315549985,19.23012221275709,18.87400824446788,18.972929000854492,814100,0.0,0
2020-01-02,19.012495040893555,19.170767486998837,18.913576177145043,19.012495040893555,1431000,0.0,0
2020-01-03,19.01249634567579,19.526882774197258,19.01249634567579,19.269689559936523,1969257,0.0,0
2020-01-06,19.289472379705412,19.408177655291777,18.85422221823054,18.992712020874023,1617000,0.0,0
2020-01-07,19.05206529430121,19.249904921000066,18.933360008876694,19.071849822998047,911000,0.0,0
2020-01-08,19.071848092947842,19.071848092947842,18.715734155734697,18.794870376586914,1516000,0.0,0
2020-01-09,18.972927749028308,19.052063971564927,18.794870776631832,18.814655303955078,1448500,0.0,0
2020-01-10,18.99271339644483,19.032280566668422,18.715735657853756,18.775087356567383,949000,0.0,0
2020-01-13,18.874007329352395,18.953143553273428,18.616814129919934,18.735519409179688,1727000,0.0,0
2020-01-14,18.715734334927344,18.794870556537248,18.399189448487736,18.517892837524414,1837000,0.0,0
2020-01-15,18.517892784390778,18.67616522715645,18.399189395694695,18.418973922729492,1569000,0.0,0
2020-01-16,18.41897451042474,18.458541679000458,18.082645087127318,18.161781311035156,2379500,0.0,0
2020-01-17,18.161782021599638,18.399190702611577,17.90458881214759,18.102428436279297,2565400,0.0,0
2020-01-20,18.003509633566157,18.260700957204214,17.963940576540924,18.20134925842285,1859400,0.0,0
2020-01-21,18.023292431132436,18.30027017243405,17.80566827588178,17.82545280456543,1739400,0.0,0
2020-01-22,17.924372426899307,18.003508649869346,17.58804300758755,17.865018844604492,1427400,0.0,0
2020-01-23,17.78588227543006,17.78588227543006,17.31106494685221,17.37041664123535,3089000,0.0,0
2020-01-24,17.370418278811037,17.607826965481387,17.31106657883258,17.54847526550293,678000,0.0,0
2020-01-29,16.89559949554764,17.212144384692717,16.005316523138017,16.519702911376953,5722000,0.0,0
2020-01-30,16.49991936475671,16.49991936475671,15.134818034119162,15.37222671508789,3843000,0.0,0
2020-01-31,15.451362789118017,15.688771467736538,14.719352225021794,14.838056564331055,5521000,0.0,0
2020-02-03,14.838056268268707,15.43157889635074,13.94777326952387,15.253521919250488,7445880,0.0,0
2020-02-04,15.392011234911445,15.945965766906738,15.293090479540709,15.945965766906738,4562000,0.0,0
2020-02-05,16.104237822142128,16.163589519192744,15.312873685522675,15.352442741394043,3335632,0.0,0
2020-02-06,15.609634858852301,16.044884092315904,15.352442601676549,15.728339195251465,1681000,0.0,0
2020-02-07,15.668987731842243,15.926180936222362,15.668987731842243,15.787692070007324,1210050,0.0,0
2020-02-10,15.78769183514015,15.807475419517575,15.530498634586191,15.728339195251465,1280000,0.0,0
2020-02-11,15.847044475028836,15.965747868049792,15.728339195251465,15.728339195251465,1199000,0.0,0
2020-02-12,15.748124267843574,18.221133720163504,15.748124267843574,18.102428436279297,9922000,0.0,0
2020-02-13,18.16178081887554,18.87400681474574,17.311065019852197,17.469337463378906,7693100,0.0,0
2020-02-14,17.667179628594646,17.983724527606473,17.034087943814562,17.311065673828125,3116355,0.0,0
2020-02-17,17.805667691606093,18.2607005158596,17.370417508630585,17.508907318115234,3358000,0.0,0
2020-02-18,17.311066315382437,17.865019909182855,17.192361030475528,17.726531982421875,2772238,0.0,0
2020-02-19,17.726532186831744,17.766099357752644,17.31106651500145,17.449554443359375,1587000,0.0,0
2020-02-20,17.489122782769723,18.37940578962657,17.489122782769723,18.082645416259766,5839000,0.0,0
2020-02-21,18.003508910911865,18.082645135029342,17.62761043128654,17.686962127685547,1748000,0.0,0
2020-02-24,17.588043070110096,17.588043070110096,17.093441203100035,17.390201568603516,1862100,0.0,0
2020-02-25,17.133008104219478,17.231928853430453,16.658190772114434,16.99452018737793,4422281,0.0,0
2020-02-26,16.776895144647842,16.95495212630791,16.677976276398002,16.757112503051758,1782400,0.0,0
2020-02-27,16.776893840208288,17.11322324902553,16.6186213992068,17.07365608215332,1326000,0.0,0
2020-02-28,16.85603352722208,16.85603352722208,16.044884832622753,16.579055786132812,3073000,0.0,0
2020-03-02,16.5592713665538,16.97473703754647,16.42078343847508,16.77689552307129,1886000,0.0,0
2020-03-03,17.07365668309053,18.22113286411691,17.014304987315068,17.963939666748047,7935100,0.0,0
2020-03-04,17.78588328095733,17.86501950686095,17.42977120776927,17.70674705505371,2800000,0.0,0
2020-03-05,17.86501831532895,18.102426977205507,17.607825126606926,17.64739418029785,2412000,0.0,0
2020-03-06,17.627611318202685,17.667180375630505,16.89560073659652,17.2517147064209,4110100,0.0,0
2020-03-09,16.91538387233529,17.09344084258456,16.321861267089844,16.321861267089844,3217000,0.0,0
2020-03-10,16.321862443071804,16.638407352207917,15.570067340495292,16.381214141845703,2880000,0.0,0
2020-03-11,16.400997236860597,16.875814559064338,16.400997236860597,16.49991798400879,1189494,0.0,0
2020-03-12,16.38121325002472,16.38121325002472,15.72833893878595,15.90639591217041,2934600,0.0,0
2020-03-13,15.332657738306759,16.618621826171875,14.620430792123392,16.618621826171875,7976600,0.0,0
2020-03-16,16.124020794526412,16.242726077822418,15.530499094937563,15.847044944763184,4116000,0.0,0
2020-03-17,15.530498669472914,16.025101487314455,15.035896795009585,15.490930557250977,2744600,0.0,0
2020-03-18,15.312873581346057,15.985532432531604,14.838056234658525,14.917192459106445,2728000,0.0,0
2020-03-19,15.09524933766645,15.09524933766645,13.848852395647414,14.481943130493164,6483000,0.0,0
2020-03-20,14.838056164670656,15.293089924789017,14.244533540732547,14.81827163696289,4028500,0.0,0
2020-03-23,13.829067762361511,14.521511131558212,13.829067762361511,14.046692848205566,2907372,0.0,0
2020-03-24,14.442375279650786,14.640215843061435,14.086261322133394,14.303886413574219,2442000,0.0,0
2020-03-25,14.838056564331055,15.213954110499495,14.561079772609446,14.838056564331055,3998000,0.0,0
2020-03-26,14.758920270337288,14.93697725017248,14.462158951738044,14.7391357421875,1641400,0.0,0
2020-03-27,14.936977082866033,15.213953870213121,14.64021576759076,14.778703689575195,2245000,0.0,0
2020-03-30,14.640215638846804,14.818271671743597,14.303886214051008,14.580862998962402,1290000,0.0,0
2020-03-31,14.719352389851005,14.976545599590269,14.719352389851005,14.79848861694336,995000,0.0,0
2020-04-01,14.600647198565532,15.016112838284092,14.541294560015087,14.659998893737793,1168000,0.0,0
2020-04-02,14.521511336866837,14.956760571330408,14.481943224642876,14.917192459106445,1623000,0.0,0
2020-04-03,14.917192161620848,14.917192161620848,14.659998965605062,14.758919715881348,768000,0.0,0
2020-04-06,14.818271672298543,15.154601097106935,14.758919975790125,15.154601097106934,1448000,0.0,0
2020-04-07,15.233737708459028,16.222941480264893,15.233737708459028,15.748124122619629,4782000,0.0,0
2020-04-08,15.649203242365786,15.74812399610296,15.431579093549162,15.550283432006836,1035500,0.0,0
2020-04-09,15.688771247863771,15.945965394496694,15.589851438181496,15.68877124786377,994000,0.0,0
2020-04-14,15.688770858263803,15.827259720433748,15.471146716340138,15.668987274169922,1943000,0.0,0
2020-04-15,15.708555813738705,15.945965432981215,15.451362609863281,15.451362609863281,1404000,0.0,0
2020-04-16,15.471146716340138,15.945964998509812,15.471146716340138,15.668987274169922,1914000,0.0,0
2020-04-17,15.827259555014846,16.20315613927365,15.668987110405208,15.708555221557617,1922000,0.0,0
2020-04-20,15.748123529341091,15.827259752634006,15.332657885364194,15.431578636169434,1875000,0.0,0
2020-04-21,15.629419386065313,15.688771082573732,14.936976952071793,15.154601097106934,1470000,0.0,0
2020-04-22,15.01611366991682,15.0952498967814,14.758920460917814,15.035897254943848,1489000,0.0,0
2020-04-23,15.035896630069912,15.194169077221458,14.917192294706252,14.95676040649414,726000,0.0,0
2020-04-24,14.9963283844906,14.9963283844906,14.48194293583722,14.758919715881348,1297000,0.0,0
2020-04-27,14.956760571330408,14.976545099131492,14.620431145737635,14.917192459106445,724000,0.0,0
2020-04-28,14.97654484139632,15.115032760107805,14.640215421591526,15.09524917602539,786000,0.0,0
2020-04-29,15.095249103956213,15.115032687944177,14.778703269745117,14.996328353881836,970000,0.0,0
2020-05-04,14.857840895580745,14.857840895580745,14.343454488682317,14.541295051574707,1321000,0.0,0
2020-05-05,14.659999747842622,14.936977486044093,14.541295407204094,14.79848861694336,668656,0.0,0
2020-05-06,14.798488087921806,15.332658073388602,14.798488087921806,15.154601097106934,1327000,0.0,0
2020-05-07,15.134817804001857,15.530498932933606,14.857841013749633,15.312873840332031,1218000,0.0,0
2020-05-08,15.29308970256352,15.490930259875313,15.19416895221853,15.332657814025879,918500,0.0,0
2020-05-11,15.3128735212661,15.926180673398504,15.194169185059954,15.392010688781738,2163800,0.0,0
2020-05-12,15.451362075588696,15.451362075588696,15.055680962830007,15.233736991882324,641004,0.0,0
2020-05-13,15.055681588936533,15.134817814779236,14.69956762926615,14.7391357421875,2685000,0.0,0
2020-05-14,14.719352157415937,14.818271968030203,14.521511592809183,14.7391357421875,1011000,0.0,0
2020-05-15,14.739135116219595,14.838055866010942,14.521510976083729,14.659998893737793,1398000,0.0,0
2020-05-18,14.719351469557639,14.719351469557639,14.363238469907197,14.561079025268555,1904000,0.0,0
2020-05-19,14.739135582682879,15.728339338389869,14.640215773139108,15.352442741394043,6135000,0.0,0
2020-05-20,15.31287400626628,15.51071551625424,15.194169666300445,15.273305892944336,1562000,0.0,0
2020-05-21,15.609635199473109,15.609635199473109,14.996328976338587,15.075465202331543,2201000,0.0,0
2020-05-22,14.85784113390524,14.877624718822705,14.244533964033867,14.600647926330566,3242300,0.0,0
2020-05-25,14.778703630214915,15.312873618213569,14.442375147190601,14.679783821105957,1159000,0.0,0
2020-05-26,14.798487920618758,14.956760367356146,14.620430946350098,14.620430946350098,1106000,0.0,0
2020-05-27,14.739135850887518,14.917192832035868,14.541295284821704,14.600647926330566,1566500,0.0,0
2020-05-28,14.600647692131531,14.719352029866965,14.14561392578993,14.541295051574707,1989500,0.0,0
2020-05-29,14.224749670087872,15.23373697841996,14.224749670087872,14.659998893737793,1269000,0.0,0
2020-06-01,14.65999984741211,15.0600004196167,14.619999885559082,14.680000305175781,1629227,0.16,0
2020-06-02,14.680000305175781,14.899999618530273,14.619999885559082,14.859999656677246,1503000,0.0,0
2020-06-03,14.859999656677246,17.079999923706055,14.859999656677246,16.84000015258789,18296170,0.0,0
2020-06-04,17.100000381469727,17.700000762939453,16.299999237060547,16.360000610351562,13642000,0.0,0
2020-06-05,16.5,17.459999084472656,16.5,16.959999084472656,9390584,0.0,0
2020-06-08,17.15999984741211,17.280000686645508,16.559999465942383,16.799999237060547,3144000,0.0,0
2020-06-09,16.739999771118164,16.979999542236328,16.520000457763672,16.600000381469727,2786000,0.0,0
2020-06-10,16.600000381469727,16.739999771118164,16.200000762939453,16.479999542236328,2207000,0.0,0
2020-06-11,16.420000076293945,16.600000381469727,16.020000457763672,16.260000228881836,2941000,0.0,0
2020-06-12,15.800000190734863,16.420000076293945,15.619999885559082,16.260000228881836,2165697,0.0,0
2020-06-15,16.1200008392334,16.219999313354492,15.5600004196167,15.65999984741211,2047000,0.0,0
2020-06-16,15.779999732971191,16.31999969482422,15.739999771118164,16.18000030517578,3405924,0.0,0
2020-06-17,16.18000030517578,16.31999969482422,15.899999618530273,16.079999923706055,1895000,0.0,0
2020-06-18,16.200000762939453,17.479999542236328,16.200000762939453,17.200000762939453,11231040,0.0,0
2020-06-19,17.200000762939453,17.299999237060547,16.600000381469727,16.65999984741211,4492000,0.0,0
2020-06-22,16.200000762939453,16.299999237060547,15.600000381469727,15.979999542236328,6254000,0.0,0
2020-06-23,15.979999542236328,16.1200008392334,15.319999694824219,15.680000305175781,4192500,0.0,0
2020-06-24,15.680000305175781,15.84000015258789,15.220000267028809,15.380000114440918,2601000,0.0,0
2020-06-26,15.380000114440918,15.380000114440918,14.960000038146973,15.119999885559082,2462400,0.0,0
2020-06-29,15.180000305175781,15.619999885559082,15.020000457763672,15.260000228881836,2769000,0.0,0
2020-06-30,15.359999656677246,15.960000038146973,15.359999656677246,15.760000228881836,3365000,0.0,0
2020-07-02,15.760000228881836,16.139999389648438,15.640000343322754,15.960000038146973,3526000,0.0,0
2020-07-03,15.960000038146973,16.1200008392334,15.300000190734863,15.479999542236328,5338000,0.0,0
2020-07-06,15.479999542236328,17.540000915527344,15.479999542236328,16.760000228881836,12655500,0.0,0
2020-07-07,17.200000762939453,19.31999969482422,16.3799991607666,17.899999618530273,28224340,0.0,0
2020-07-08,18.34000015258789,19.899999618530273,18.299999237060547,19.260000228881836,14975700,0.0,0
2020-07-09,19.600000381469727,19.700000762939453,18.5,18.84000015258789,9985381,0.0,0
2020-07-10,19.239999771118164,19.239999771118164,17.520000457763672,17.6200008392334,11436800,0.0,0
2020-07-13,17.299999237060547,17.899999618530273,17.200000762939453,17.719999313354492,6733698,0.0,0
2020-07-14,17.700000762939453,17.899999618530273,16.780000686645508,17.200000762939453,5999290,0.0,0
2020-07-15,17.299999237060547,17.579999923706055,16.799999237060547,16.920000076293945,4556000,0.0,0
2020-07-16,16.920000076293945,17.0,16.139999389648438,16.219999313354492,4282000,0.0,0
2020-07-17,16.559999465942383,17.280000686645508,16.3799991607666,16.860000610351562,3278000,0.0,0
2020-07-20,16.899999618530273,17.799999237060547,16.899999618530273,17.360000610351562,4506000,0.0,0
2020-07-21,17.399999618530273,17.799999237060547,17.260000228881836,17.5,2845000,0.0,0
2020-07-22,17.5,17.760000228881836,16.799999237060547,16.959999084472656,3411000,0.0,0
2020-07-23,16.959999084472656,17.299999237060547,16.540000915527344,16.940000534057617,2480136,0.0,0
2020-07-24,16.899999618530273,16.899999618530273,16.15999984741211,16.299999237060547,3216000,0.0,0
2020-07-27,16.299999237060547,16.6200008392334,15.819999694824219,16.100000381469727,3205700,0.0,0
2020-07-28,16.3799991607666,16.579999923706055,16.079999923706055,16.559999465942383,1797000,0.0,0
2020-07-29,16.559999465942383,16.799999237060547,16.280000686645508,16.799999237060547,1404000,0.0,0
2020-07-30,16.920000076293945,16.979999542236328,16.5,16.600000381469727,1225000,0.0,0
2020-07-31,16.600000381469727,16.780000686645508,16.459999084472656,16.540000915527344,1062000,0.0,0
2020-08-03,16.5,16.860000610351562,16.459999084472656,16.6200008392334,1548000,0.0,0
2020-08-04,16.600000381469727,16.799999237060547,16.3799991607666,16.600000381469727,2554500,0.0,0
2020-08-05,16.559999465942383,16.600000381469727,16.360000610351562,16.600000381469727,1672000,0.0,0
2020-08-06,16.600000381469727,16.760000228881836,16.219999313354492,16.520000457763672,1480000,0.0,0
2020-08-07,16.399999618530273,16.540000915527344,16.18000030517578,16.3799991607666,2648000,0.0,0
2020-08-10,16.3799991607666,16.3799991607666,16.0,16.139999389648438,1268000,0.0,0
2020-08-11,16.139999389648438,16.399999618530273,16.059999465942383,16.079999923706055,1506600,0.0,0
2020-08-12,16.040000915527344,16.18000030517578,15.699999809265137,16.020000457763672,2652000,0.0,0
2020-08-13,16.020000457763672,16.200000762939453,15.899999618530273,16.020000457763672,945000,0.0,0
2020-08-14,16.139999389648438,16.31999969482422,16.100000381469727,16.18000030517578,1035000,0.0,0
2020-08-17,16.280000686645508,16.299999237060547,16.100000381469727,16.1200008392334,890000,0.0,0
2020-08-18,16.1200008392334,16.239999771118164,15.979999542236328,16.040000915527344,1131000,0.0,0
2020-08-19,16.0,16.0,15.800000190734863,15.9399995803833,682000,0.0,0
2020-08-20,15.9399995803833,16.0,15.760000228881836,15.899999618530273,944000,0.0,0
2020-08-21,15.880000114440918,16.260000228881836,15.859999656677246,15.979999542236328,1601000,0.0,0
2020-08-24,15.979999542236328,16.100000381469727,15.800000190734863,15.9399995803833,1808000,0.0,0
2020-08-25,15.920000076293945,16.059999465942383,15.779999732971191,15.880000114440918,1074500,0.0,0
2020-08-26,15.819999694824219,15.880000114440918,15.399999618530273,15.5600004196167,2900000,0.0,0
2020-08-27,15.5600004196167,15.5600004196167,15.119999885559082,15.319999694824219,2247000,0.0,0
2020-08-28,15.5,15.819999694824219,15.319999694824219,15.579999923706055,1458492,0.0,0
2020-08-31,15.640000343322754,15.739999771118164,15.5600004196167,15.640000343322754,1375000,0.0,0
2020-09-01,15.800000190734863,15.800000190734863,15.0,15.140000343322754,3039000,0.0,0
2020-09-02,15.140000343322754,15.260000228881836,14.899999618530273,15.039999961853027,2952000,0.0,0
2020-09-03,15.100000381469727,15.180000305175781,14.920000076293945,14.960000038146973,1550300,0.0,0
2020-09-04,14.84000015258789,14.859999656677246,14.5,14.84000015258789,2029000,0.0,0
2020-09-07,14.800000190734863,14.899999618530273,14.520000457763672,14.619999885559082,1669000,0.0,0
2020-09-08,14.619999885559082,14.880000114440918,14.5,14.600000381469727,1228000,0.0,0
2020-09-09,14.579999923706055,14.579999923706055,14.300000190734863,14.399999618530273,1558200,0.0,0
2020-09-10,14.420000076293945,14.9399995803833,14.300000190734863,14.34000015258789,1253000,0.0,0
2020-09-11,14.380000114440918,14.380000114440918,14.100000381469727,14.239999771118164,1513000,0.0,0
2020-09-14,14.239999771118164,14.640000343322754,14.119999885559082,14.420000076293945,934100,0.0,0
2020-09-15,14.420000076293945,14.84000015258789,14.319999694824219,14.800000190734863,1039000,0.0,0
2020-09-16,15.0,17.18000030517578,14.859999656677246,16.600000381469727,13044100,0.0,0
2020-09-17,16.479999542236328,16.68000030517578,15.880000114440918,15.899999618530273,2721000,0.0,0
2020-09-18,15.899999618530273,15.899999618530273,15.5,15.699999809265137,1746000,0.0,0
2020-09-21,15.779999732971191,15.779999732971191,15.5,15.520000457763672,801000,0.0,0
2020-09-22,15.5,15.5,14.979999542236328,15.15999984741211,2088000,0.0,0
2020-09-23,15.15999984741211,15.460000038146973,15.0600004196167,15.239999771118164,664000,0.0,0
2020-09-24,15.239999771118164,15.239999771118164,14.680000305175781,14.760000228881836,984000,0.0,0
2020-09-25,14.84000015258789,15.0,14.65999984741211,14.760000228881836,917000,0.0,0
2020-09-28,14.899999618530273,14.899999618530273,14.5,14.640000343322754,544000,0.0,0
2020-09-29,14.760000228881836,14.880000114440918,14.65999984741211,14.680000305175781,500000,0.0,0
2020-09-30,14.84000015258789,15.199999809265137,14.699999809265137,14.699999809265137,701000,0.0,0
2020-10-05,15.0,15.0,14.699999809265137,14.720000267028809,318000,0.0,0
2020-10-06,14.9399995803833,15.359999656677246,14.739999771118164,15.079999923706055,655000,0.0,0
2020-10-07,15.079999923706055,15.300000190734863,15.0,15.020000457763672,587000,0.0,0
2020-10-08,15.399999618530273,15.399999618530273,14.920000076293945,15.180000305175781,554000,0.0,0
2020-10-09,15.079999923706055,15.319999694824219,15.039999961853027,15.180000305175781,688000,0.0,0
2020-10-12,15.0,15.34000015258789,15.0,15.180000305175781,1305630,0.0,0
2020-10-14,15.359999656677246,15.399999618530273,15.100000381469727,15.119999885559082,556000,0.0,0
2020-10-15,15.319999694824219,15.319999694824219,14.899999618530273,15.0,557000,0.0,0
2020-10-16,15.020000457763672,15.119999885559082,14.960000038146973,15.039999961853027,411000,0.0,0
2020-10-19,15.039999961853027,15.100000381469727,14.720000267028809,14.979999542236328,450000,0.0,0
2020-10-20,14.979999542236328,15.119999885559082,14.880000114440918,15.0,574000,0.0,0
2020-10-21,15.0,15.079999923706055,14.819999694824219,14.899999618530273,543000,0.0,0
2020-10-22,14.899999618530273,15.880000114440918,14.800000190734863,15.380000114440918,1920000,0.0,0
2020-10-23,15.380000114440918,15.600000381469727,15.0,15.0600004196167,634000,0.0,0
2020-10-27,15.0,15.15999984741211,14.699999809265137,14.800000190734863,1291000,0.0,0
2020-10-28,14.819999694824219,14.819999694824219,14.5,14.680000305175781,1231000,0.0,0
2020-10-29,14.65999984741211,14.819999694824219,14.5,14.65999984741211,693000,0.0,0
2020-10-30,14.65999984741211,15.0,14.600000381469727,14.619999885559082,705000,0.0,0
2020-11-02,14.520000457763672,15.0,14.520000457763672,14.65999984741211,568000,0.0,0
2020-11-03,14.65999984741211,14.880000114440918,14.520000457763672,14.5600004196167,857000,0.0,0
2020-11-04,14.5600004196167,14.9399995803833,14.539999961853027,14.800000190734863,1052000,0.0,0
2020-11-05,14.800000190734863,15.0600004196167,14.800000190734863,15.0600004196167,1690000,0.0,0
2020-11-06,15.079999923706055,15.380000114440918,15.0,15.020000457763672,868232,0.0,0
2020-11-09,15.0,15.539999961853027,15.0,15.359999656677246,1931000,0.0,0
2020-11-10,15.359999656677246,15.539999961853027,14.920000076293945,15.180000305175781,1091000,0.0,0
2020-11-11,15.180000305175781,15.460000038146973,15.119999885559082,15.300000190734863,1307600,0.0,0
2020-11-12,15.4399995803833,15.4399995803833,15.119999885559082,15.279999732971191,637000,0.0,0
2020-11-13,15.279999732971191,15.319999694824219,15.0,15.260000228881836,996000,0.0,0
2020-11-16,15.0,15.479999542236328,15.0,15.460000038146973,952000,0.0,0
2020-11-17,15.260000228881836,15.65999984741211,15.260000228881836,15.380000114440918,777050,0.0,0
2020-11-18,15.5,16.219999313354492,15.359999656677246,16.079999923706055,3331000,0.0,0
2020-11-19,16.079999923706055,16.600000381469727,15.760000228881836,16.020000457763672,3533000,0.0,0
2020-11-20,16.020000457763672,16.139999389648438,15.720000267028809,15.819999694824219,1227000,0.0,0
2020-11-23,15.800000190734863,15.979999542236328,15.220000267028809,15.600000381469727,1950500,0.0,0
2020-11-24,15.5,15.9399995803833,15.420000076293945,15.739999771118164,513000,0.0,0
2020-11-25,15.739999771118164,15.800000190734863,15.380000114440918,15.5,696195,0.0,0
2020-11-26,15.5,15.720000267028809,15.34000015258789,15.520000457763672,391000,0.0,0
2020-11-27,15.600000381469727,15.800000190734863,15.5,15.739999771118164,638000,0.0,0
2020-11-30,15.739999771118164,16.200000762939453,15.600000381469727,16.139999389648438,5372000,0.0,0
2020-12-01,16.040000915527344,16.440000534057617,15.899999618530273,16.280000686645508,1529000,0.0,0
2020-12-02,16.280000686645508,16.459999084472656,16.0,16.299999237060547,943000,0.0,0
2020-12-03,16.399999618530273,16.420000076293945,16.139999389648438,16.239999771118164,823600,0.0,0
2020-12-04,16.15999984741211,16.360000610351562,16.020000457763672,16.31999969482422,1045400,0.0,0
2020-12-07,16.3799991607666,16.3799991607666,15.859999656677246,15.960000038146973,673000,0.0,0
