Date,Open,High,Low,Close,Volume,Dividends,Stock Splits
2018-06-19,9.889025688171387,11.135043151222817,8.702342794209017,9.889025688171387,101546316,0.0,0
2018-06-20,9.394574640130699,9.869247432422041,8.900123343281715,8.919901847839355,126894173,0.0,0
2018-06-21,8.722119815046074,10.50214451730409,8.722119815046074,10.304364204406738,123015128,0.0,0
2018-06-22,10.086805635030919,11.5306033690808,9.889025317303046,11.313044548034668,128322271,0.0,0
2018-06-25,11.510826533707359,11.906387194072146,10.324142666430987,10.601036071777344,95768211,0.0,0
2018-06-26,10.225252719199927,10.699925499861186,9.889025694686044,10.620813369750977,74545005,0.0,0
2018-06-27,10.482368404772913,10.601036608894853,9.31546298293726,9.394575119018555,62741797,0.0,0
2018-06-28,9.315462598523828,9.562688249348577,8.900123429690968,8.949568748474121,65352300,0.0,0
2018-06-29,9.058346680342554,10.34392010920181,8.999013058923875,9.948359489440918,69529723,0.0,0
2018-07-03,9.493465044134995,10.680147938879125,9.434130475006848,10.620813369750977,54860820,0.0,0
2018-07-04,10.521922859639663,10.601034983591841,9.88902492493133,9.948359489440918,30187085,0.0,0
2018-07-05,9.869246833831237,10.225252349548258,9.800023958260017,9.879136085510254,32305515,0.0,0
2018-07-06,10.0076938058118,10.561479655023836,9.849469546920067,9.968137741088867,26548660,0.0,0
2018-07-09,10.284586690992144,10.83837256347219,10.106584863805463,10.739481925964355,31440497,0.0,0
2018-07-10,10.97681848482167,11.233932426448423,10.581256906081146,10.798815727233887,25316748,0.0,0
2018-07-11,10.383477251859208,10.957040681752721,10.26480905358031,10.818593978881836,17793684,0.0,0
2018-07-12,10.917484513206906,11.629494639289597,10.719704184598104,11.411935806274414,30882147,0.0,0
2018-07-13,11.570159547713095,11.74816230698422,11.154820404807772,11.451491355895996,17223775,0.0,0
2018-07-16,11.510826176856673,12.717286625112923,11.352600974524941,12.677730560302734,39598288,0.0,0
2018-07-17,12.756842646734057,13.35018455996907,12.657952956588868,12.974401473999023,28427932,0.0,0
2018-07-18,13.132625468050625,13.84463556096576,12.756842389653498,13.508408546447754,28231302,0.0,0
2018-07-19,13.646855019930094,13.765523209640154,12.934844938578793,13.231515884399414,16441993,0.0,0
2018-07-20,13.251293443242046,14.022638090922236,12.677730054817868,13.745744705200195,35529748,0.0,0
2018-07-23,13.745745944590654,14.200641184331593,13.449075915139147,13.943527221679688,18176927,0.0,0
2018-07-24,14.081972022718576,14.121528086818142,13.389740429430708,13.429296493530273,14183648,0.0,0
2018-07-25,13.429297009528131,13.805080104458304,13.330406373934034,13.389740943908691,6789057,0.0,0
2018-07-26,13.547965080098038,13.844636041023891,13.132625923420044,13.765523910522461,18574399,0.0,0
2018-07-27,13.844636375430257,13.844636375430257,13.46885327492623,13.666633605957031,5827979,0.0,0
2018-07-30,13.46885275399788,13.567743387234039,12.737065085941408,12.974401473999023,18779288,0.0,0
2018-07-31,12.776621193873694,13.03373608668541,12.262391408250263,12.677730560302734,14544798,0.0,0
2018-08-01,12.855733954848306,12.954624593275856,11.728384637756532,11.827275276184082,12135691,0.0,0
2018-08-02,11.68882751518544,11.68882751518544,10.957039874813123,11.174598693847656,21638443,0.0,0
2018-08-03,11.174598872756363,12.025054716284224,10.798815794986112,11.748162269592285,30980860,0.0,0
2018-08-06,11.767940137577776,11.985498965782671,11.392157993075198,11.431714057922363,11286966,0.0,0
2018-08-07,11.570160016538527,12.49972897140857,11.075708725719863,12.440394401550293,18482024,0.0,0
2018-08-08,12.51950597654003,12.677730231679405,12.064610771468848,12.262391090393066,8523446,0.0,0
2018-08-09,12.400838333664067,13.211738148664258,12.183279501679507,13.172182083129883,17412882,0.0,0
2018-08-10,13.152404019774464,13.488631035525644,12.677730308393105,12.697508811950684,17975467,0.0,0
2018-08-13,12.341503923237838,12.539285196555538,11.985499328829786,12.282170295715332,12164978,0.0,0
2018-08-14,12.697508964108568,13.013957480094263,12.420616512621086,12.539284706115723,27504243,0.0,0
2018-08-15,12.440393773719956,12.697508658311662,12.064610698491528,12.341503143310547,11918098,0.0,0
2018-08-16,11.965720909859611,12.816176740434145,11.886608783438302,12.203057289123535,12752748,0.0,0
2018-08-17,12.499729461336385,12.578841595520897,11.649272604216328,11.96572208404541,17509408,0.0,0
2018-08-20,11.847052523537446,12.203058057953715,11.847052523537446,12.143723487854004,6875253,0.0,0
2018-08-21,12.143723419074128,13.172182064613127,12.143723419074128,12.95462417602539,16315017,0.0,0
2018-08-22,12.855732844033271,13.330405604052386,12.59861796081078,12.934844970703125,15345977,0.0,0
2018-08-23,13.053512844803368,13.607298661181256,12.895288595292806,13.547964096069336,17208898,0.0,0
2018-08-24,13.271072021855655,13.62707659297682,13.112847768024025,13.152403831481934,10392595,0.0,0
2018-08-27,13.36996315211355,13.725967736550114,13.112848258474987,13.627077102661133,16539879,0.0,0
2018-08-28,13.646855279729426,13.70618890416854,13.152404008312352,13.211737632751465,15189727,0.0,0
2018-08-29,13.211738177075716,13.903970740052399,13.152404550192054,13.389740943908691,17099156,0.0,0
2018-08-30,13.488630882991401,13.706188761118801,13.31062812534994,13.369962692260742,9363095,0.0,0
2018-08-31,13.093069366837298,13.409518820058883,13.07329180649961,13.290849685668945,60860735,0.0,0
2018-09-03,13.132626017595507,13.271072718511316,12.71728685793907,13.172182083129883,41580347,0.0,0
2018-09-04,13.172182017264845,14.319308855116727,13.09306988659168,13.98308277130127,19737721,0.0,0
2018-09-05,13.903969827253759,14.299530457479511,13.547964316959648,13.824856758117676,16322425,0.0,0
2018-09-06,13.76552409140159,13.983082924684737,12.954624271561217,13.093070030212402,13573060,0.0,0
2018-09-07,13.290849622016024,13.587520570388143,13.053513240554707,13.369962692260742,13916921,0.0,0
2018-09-10,13.211737110692402,13.310627738304555,12.499727987012198,12.737064361572266,10333829,0.0,0
2018-09-11,12.7568430882594,12.7568430882594,12.143723593011142,12.282170295715332,14068026,0.0,0
2018-09-12,12.381059881402457,12.657952320215694,11.708605872622243,11.847051620483398,15649026,0.0,0
2018-09-13,12.242613997403593,12.519506454467773,11.985499101441361,12.519506454467773,12329395,0.0,0
2018-09-14,12.63817420679831,12.816176965923523,12.400837823358659,12.479949951171875,8532278,0.0,0
2018-09-17,12.40083836417751,12.717286889231165,12.26239166292104,12.657953262329102,3454616,0.0,0
2018-09-18,12.618396812076629,13.7655236235216,12.53928468322463,13.567743301391602,14624356,0.0,0
2018-09-19,13.745745329321835,13.903970532529002,13.58752106920565,13.844635963439941,10182229,0.0,0
2018-09-20,13.983083078697323,13.983083078697323,13.528187845780975,13.666633605957031,3806027,0.0,0
2018-09-21,13.90397027939679,14.062194536632385,13.706189014761334,13.86441421508789,10545788,0.0,0
2018-09-24,13.646855922280345,13.646855922280345,13.172182188963037,13.310628890991211,3478604,0.0,0
2018-09-26,13.310628917602505,13.627077445052704,13.093070083434993,13.52818775177002,4210005,0.0,0
2018-09-27,13.58752147354471,13.903970946285003,13.449075713368654,13.666633605957031,2138343,0.0,0
2018-09-28,13.666632656434729,13.805079350082876,13.013957137833785,13.152403831481934,4271471,0.0,0
2018-10-02,13.172181818513417,13.172181818513417,12.163501696104765,12.460172653198242,9781643,0.0,0
2018-10-03,12.460172277038216,12.8359544091757,12.282169519537659,12.341503143310547,6646470,0.0,0
2018-10-04,12.460172828070943,12.578841023955592,12.183279427915776,12.519506454467773,3543337,0.0,0
2018-10-05,12.321725583083234,12.618396531220514,12.163501328900935,12.341503143310547,6055835,0.0,0
2018-10-08,12.341503822281288,12.420616896815806,11.411935806274414,11.411935806274414,12448119,0.0,0
2018-10-09,11.411935698679432,11.688828156121136,11.174599306586543,11.273488998413086,6486461,0.0,0
2018-10-10,11.273489286331971,11.807496653724726,11.273489286331971,11.471270561218262,6021432,0.0,0
2018-10-11,10.739481335869009,11.33282324213201,10.620813143234601,10.858149528503418,18812656,0.0,0
2018-10-12,11.135043346222089,11.431714310680793,10.877928447485147,11.411935806274414,7769034,0.0,0
2018-10-15,11.411934768071337,11.451490830194476,10.957039582109772,10.976818084716797,5427806,0.0,0
2018-10-16,11.253711417708633,11.372379613548658,10.917484391283072,11.055931091308594,5492188,0.0,0
2018-10-18,11.253711839619674,11.253711839619674,10.838372667062686,10.877928733825684,6115930,0.0,0
2018-10-19,10.719703665629451,11.431713757241884,10.66036909837385,11.233932495117188,14349063,0.0,0
2018-10-22,11.293267359411798,11.847052267272106,11.174599164870303,11.431714057922363,10426726,0.0,0
2018-10-23,11.431713874206164,11.550382066840573,10.798815903731693,10.858149528503418,6113707,0.0,0
2018-10-24,11.174599418031706,11.174599418031706,10.62081355453436,10.680148124694824,10218840,0.0,0
2018-10-25,10.34392010193537,10.779036783366687,10.20547341357086,10.759259223937988,5447173,0.0,0
2018-10-26,10.798816913907528,10.798816913907528,10.24503102005207,10.343921661376953,6318199,0.0,0
2018-10-29,10.502144735941222,10.502144735941222,9.434130080970315,9.5527982711792,21441924,0.0,0
2018-10-30,9.552798653627962,9.889025677559543,9.493465027693553,9.78024673461914,11020781,0.0,0
2018-10-31,9.94836061624564,10.18569701498417,9.869247540241783,10.007694244384766,7988224,0.0,0
2018-11-01,10.106584850806774,10.66036977948355,10.106584850806774,10.521924018859863,11276727,0.0,0
2018-11-02,10.996596955955079,11.214155795129173,10.996596955955079,11.095487594604492,12238204,0.0,0
2018-11-05,10.957039582109772,11.075707768479191,10.858148955256466,10.976818084716797,6174330,0.0,0
2018-11-06,11.0954871565886,11.0954871565886,10.818593756537558,11.055931091308594,2610600,0.0,0
2018-11-07,11.075709260967125,11.352601733141269,10.87792892369988,11.154821395874023,8319247,0.0,0
2018-11-08,11.372379009746803,11.372379009746803,11.075708064352613,11.174598693847656,5144588,0.0,0
2018-11-09,11.075709067640673,11.075709067640673,10.719704466773692,10.877928733825684,4373207,0.0,0
2018-11-12,10.81859413977179,10.976819349587725,10.660369873046873,10.660369873046875,3016770,0.0,0
2018-11-13,10.482367966007812,10.818594058734217,10.185696996575324,10.739481925964355,4956690,0.0,0
2018-11-14,10.996595823219351,11.13504251444923,10.620812755387622,11.036151885986328,7189056,0.0,0
2018-11-15,11.154820705182678,11.194376770186869,10.838372185149149,11.135043144226074,4942845,0.0,0
2018-11-16,11.135043067679023,11.352600952160998,10.937262744017694,11.214155197143555,5999371,0.0,0
2018-11-19,11.174599090336077,11.530603671586022,11.036152392748948,11.510826110839844,6023315,0.0,0
2018-11-20,11.233932495117188,11.392157693435136,11.194376431310438,11.233932495117188,6013241,0.0,0
2018-11-21,11.075708989823847,11.906387329101562,11.055931428126813,11.906387329101562,13589410,0.0,0
2018-11-22,11.866831158127702,12.025055422674843,11.688828388966664,11.767940521240234,3434073,0.0,0
2018-11-23,11.728384637756532,11.945943476442528,11.688828571003718,11.827275276184082,5995851,0.0,0
2018-11-26,11.82727453464874,12.381060377558434,11.767939966694108,12.104166984558105,6408902,0.0,0
2018-11-27,12.16350191414378,12.321726175938984,12.005277652348575,12.222835540771484,5678586,0.0,0
2018-11-28,12.321726052028154,12.697509141558278,12.222835417855128,12.598618507385254,11298042,0.0,0
2018-11-29,12.816176889494486,12.934845080506635,12.519505940418638,12.559062004089355,6721385,0.0,0
2018-11-30,12.756842798896434,12.855733433312151,12.479950342859802,12.816177368164062,17256598,0.0,0
2018-12-03,13.053514203941143,13.152404841727241,12.7963993001701,12.855733871459961,9809335,0.0,0
2018-12-04,12.954624271561217,13.231516731954589,12.954624271561217,13.093070030212402,10088545,0.0,0
2018-12-05,12.835955468984086,13.152404946567469,12.796399402172542,12.994180679321289,5061218,0.0,0
2018-12-06,12.776621714706009,13.03373661799888,12.578841382592653,12.638175010681152,6440284,0.0,0
2018-12-07,12.657953154545357,12.75684284623707,12.460172828070943,12.519506454467773,5045970,0.0,0
2018-12-10,12.26239098673723,12.460172247080527,12.104166732935347,12.123945236206055,3367092,0.0,0
2018-12-11,12.242613921926127,12.737065206609293,11.985499027549043,12.598618507385254,5796646,0.0,0
2018-12-12,12.85573355885488,13.330406345267383,12.677730792404695,13.172182083129883,6507306,0.0,0
2018-12-13,13.310628264271264,13.449074959780788,12.9744012488131,13.211737632751465,7477206,0.0,0
2018-12-14,13.15240430233021,13.508408886196127,13.053513668599743,13.40951919555664,6815000,0.0,0
2018-12-17,13.40951893302597,13.528187125324665,13.073291916634188,13.429296493530273,3661516,0.0,0
2018-12-18,13.310629306951292,13.449076013305955,13.073292904421324,13.1326265335083,2083021,0.0,0
2018-12-19,13.191960587442566,13.369963353892752,13.053513886526757,13.172182083129883,2992730,0.0,0
2018-12-20,13.033735748833953,13.112847876403642,11.98549864389916,12.262391090393066,11064262,0.0,0
2018-12-21,12.203057727786858,12.301947417822813,11.728384009104975,12.242613792419434,4665274,0.0,0
2018-12-24,12.123945236206055,12.22283492328676,11.866830352232522,12.123945236206055,2422204,0.0,0
2018-12-27,12.143722606928904,12.36128142405778,11.945942292762165,12.064610481262207,2005888,0.0,0
2018-12-28,12.08439020378826,12.183279899306172,11.807496792919647,12.04483413696289,2197474,0.0,0
2018-12-31,12.163501837041242,12.420616732374135,12.064611202500595,12.301947593688965,3331836,0.0,0
2019-01-02,12.301947162976164,12.301947162976164,11.629494078152883,11.748162269592285,2307169,0.0,0
2019-01-03,11.807496147269113,11.92616528434725,11.649271888619559,11.728384017944336,2986866,0.0,0
2019-01-04,11.688828138122922,11.945943034039813,11.550382381160741,11.787718772888184,4650443,0.0,0
2019-01-07,11.985499225042773,12.203058057953715,11.886609532331251,12.143723487854004,6625377,0.0,0
2019-01-08,12.242613773779656,13.03373600831764,12.044833450917903,12.756842613220215,9050996,0.0,0
2019-01-09,12.994179537250984,13.231515917260541,12.835954340820338,12.934844970703125,7289177,0.0,0
2019-01-10,12.974401439913628,13.05351356905833,12.717286548647865,12.756842613220215,7936892,0.0,0
2019-01-11,11.49104844077386,11.570160575680756,11.075709260967125,11.154821395874023,248399747,0.0,0
2019-01-14,11.21415463998318,11.233932199821204,10.7592594466175,11.036151885986328,30407564,0.0,0
2019-01-15,11.09548685358016,11.411935367178282,11.055930789380396,11.372379302978516,27801850,0.0,0
2019-01-16,11.392157882766895,11.451491507917636,11.253711185596885,11.293267250061035,12305989,0.0,0
2019-01-17,11.37237953425122,11.37237953425122,11.095487079221883,11.135043144226074,12530525,0.0,0
2019-01-18,11.17459941194385,11.491047937717935,11.17459941194385,11.411935806274414,15879777,0.0,0
2019-01-21,11.41193547783604,11.669050369173151,11.332823348669386,11.510826110839844,11278702,0.0,0
2019-01-22,11.471269681276015,11.491047241392932,11.2734884215612,11.392157554626465,7980300,0.0,0
2019-01-23,11.332823490337155,11.431714124577157,11.19437679101935,11.352601051330566,10931624,0.0,0
2019-01-24,11.352601419050082,11.570160255570393,11.293267791057005,11.471270561218262,12419012,0.0,0
2019-01-25,11.530604124419522,11.827275091990916,11.530604124419522,11.767940521240234,13930596,0.0,0
2019-01-28,11.866830903463999,11.96572153822926,11.688828138122922,11.787718772888184,12744561,0.0,0
2019-01-29,11.609716256693094,11.945943290401273,11.609716256693094,11.767940521240234,21331521,0.0,0
2019-01-30,11.807495496537122,12.084388877004729,11.66904974939424,11.926164627075195,12421614,0.0,0
2019-01-31,12.044833512202667,12.044833512202667,11.88660925310821,11.945942878723145,6868091,0.0,0
2019-02-01,12.301947495039476,12.5195063234297,11.965721415097647,12.163501739501953,19240509,0.0,0
2019-02-04,12.163501328900935,12.381060149947068,12.163501328900935,12.341503143310547,3897646,0.0,0
2019-02-08,12.222834890096115,12.479949773371459,12.12394520328394,12.420616149902344,5930302,0.0,0
2019-02-11,12.361281721400653,12.440393848970341,12.025054707684003,12.262391090393066,10815407,0.0,0
2019-02-12,12.262391202199629,12.519506090690925,12.203057577526844,12.400837898254395,8288187,0.0,0
2019-02-13,12.400837785185498,12.400837785185498,12.084389274906746,12.262391090393066,11477128,0.0,0
2019-02-14,12.262391241649171,12.282169745331036,12.044833359694437,12.104166984558105,9957690,0.0,0
2019-02-15,12.064611676700975,12.10416774345379,11.748163142678452,11.827275276184082,8663870,0.0,0
2019-02-18,12.005277013254767,12.460172213245402,11.926164886568651,12.420616149902344,15881815,0.0,0
2019-02-19,12.282169705817864,12.598618218981944,12.262391202199629,12.400837898254395,5190698,0.0,0
2019-02-20,12.341503440533694,12.67773046031398,12.341503440533694,12.539284706115723,14545203,0.0,0
2019-02-21,12.63817428067372,12.91506767272949,12.381060335323305,12.915067672729492,7301635,0.0,0
2019-02-22,12.776621075803966,13.1326256558058,12.737065011359318,13.053513526916504,6315071,0.0,0
2019-02-25,13.053514097623667,13.152404734604326,12.262391831051412,12.717287063598633,18013560,0.0,0
2019-02-26,12.717286889231165,12.717286889231165,12.499728999802276,12.657953262329102,7790061,0.0,0
2019-02-27,12.598618944258481,12.756843209949166,12.420617116901967,12.638175010681152,5168173,0.0,0
2019-02-28,12.638175113392458,12.77662181854248,12.559062979904166,12.77662181854248,6976488,0.0,0
2019-03-01,12.657952413955368,12.855732728858076,12.578840287994286,12.796398162841797,7335450,0.0,0
2019-03-04,12.737065052479524,13.07329207288999,12.657952923334824,12.756842613220215,6174053,0.0,0
2019-03-05,12.65795252735864,13.15240379059069,12.65795252735864,12.934844970703125,5868485,0.0,0
2019-03-06,13.013958219007357,13.053514285751504,12.77662181854248,12.77662181854248,4419783,0.0,0
2019-03-07,12.75684292588512,12.85573356128525,12.341503766150163,12.440394401550293,5532817,0.0,0
2019-03-08,12.36128187387657,12.440394002422103,12.00527729542167,12.104166984558105,7977865,0.0,0
2019-03-11,12.10416670006694,12.420616149902344,11.886608823225595,12.420616149902344,9285644,0.0,0
2019-03-12,12.559061784958548,12.895288791838617,12.519505721978007,12.796398162841797,5917330,0.0,0
2019-03-13,12.677730087480633,13.03373560058591,12.638174024145707,12.934844970703125,4734220,0.0,0
2019-03-14,13.033736357375814,13.033736357375814,12.559062626704337,12.657953262329102,4393602,0.0,0
2019-03-15,12.578840287994286,12.895288791838617,12.578840287994286,12.796398162841797,16742188,0.0,0
2019-03-18,13.15240375792604,13.468852263819533,12.915067378505919,13.231515884399414,16881636,0.0,0
2019-03-19,13.231516269339906,13.409519030629045,11.866830633335416,12.321725845336914,27777080,0.0,0
2019-03-20,12.440394704729764,13.92374861333593,12.440394704729764,13.80508041381836,34684118,0.0,0
2019-03-21,13.903970718383789,14.14130711173055,13.745745513061621,13.903970718383789,15592551,0.0,0
2019-03-22,14.081971870458924,14.180862501184073,13.805079424755835,14.101750373840332,8179262,0.0,0
2019-03-25,13.725967518461264,14.062194536632385,13.60729932553457,13.86441421508789,13741449,0.0,0
2019-03-26,14.06219407934406,14.398421086581417,13.528186756993826,13.824856758117676,9833769,0.0,0
2019-03-27,13.844635588450846,14.35886536299125,13.745744957011244,14.240196228027344,11332374,0.0,0
2019-03-28,14.022639140816434,14.536868001346642,14.022639140816434,14.398422241210938,7213992,0.0,0
2019-03-29,14.35886540020124,14.49731115286631,14.240196264929812,14.457755088806152,7790642,0.0,0
2019-04-01,14.497311416456078,14.83353843862616,14.279752588624088,14.43797779083252,6246342,0.0,0
2019-04-02,14.53686781470085,14.714870581836733,14.14130715783333,14.33908748626709,7170598,0.0,0
2019-04-03,14.437977680183431,14.517089809135863,14.180862789542541,14.299530982971191,4811236,0.0,0
2019-04-04,14.33908748626709,14.497311749014099,14.20064078481796,14.33908748626709,4154185,0.0,0
2019-04-08,14.477534187716222,14.517090253402973,14.20064078481796,14.33908748626709,6170375,0.0,0
2019-04-09,14.358865661273793,14.675314179508705,14.22041896300053,14.43797779083252,8773487,0.0,0
2019-04-10,14.418199617640594,14.517090253402973,14.240196850504711,14.33908748626709,10075890,0.0,0
2019-04-11,14.240196456834246,14.33908708986279,13.88419187549523,14.002860069274902,8919033,0.0,0
2019-04-12,14.022638779233494,14.339087300630712,14.022638779233494,14.279752731323242,5058515,0.0,0
2019-04-15,14.517089809135863,14.517089809135863,14.220418854018758,14.299530982971191,4245833,0.0,0
2019-04-16,14.259975433349611,14.339087565158376,14.062195103827696,14.25997543334961,3255825,0.0,0
2019-04-17,14.339086680614873,14.339086680614873,14.10175029982928,14.180862426757812,2193325,0.0,0
2019-04-18,14.180862942037818,14.220419006939403,14.022638682431474,14.14130687713623,3539428,0.0,0
2019-04-23,14.022638649927652,14.161084405216805,13.844635886737628,13.923748016357422,3536415,0.0,0
2019-04-24,13.923748401616853,14.299531499253995,13.86441477430578,14.25997543334961,4827095,0.0,0
2019-04-25,14.240196009432095,14.259974512652786,13.864413879148373,13.963303565979004,2484542,0.0,0
2019-04-26,14.002859817436466,14.06219438480467,13.884191625791017,14.022638320922852,2583817,0.0,0
2019-04-29,13.98308328847929,14.121529050732388,13.745745944590654,13.943527221679688,3008985,0.0,0
2019-04-30,14.022638960773072,14.418199617640594,13.844636193637191,14.33908748626709,8358662,0.0,0
2019-05-02,14.27975203824595,15.05109668635042,14.27975203824595,14.774203300476074,9429297,0.0,0
2019-05-03,14.774204710976722,15.189543886349938,14.774204710976722,15.031319618225098,8999462,0.0,0
2019-05-06,14.536867481235443,15.011541201678787,14.299531092559258,14.43797779083252,12507439,0.0,0
2019-05-07,14.576424375820674,15.209322391411057,14.457756174727045,15.031319618225098,7541687,0.0,0
2019-05-08,14.833538984148422,15.011541753747327,14.536868015847253,14.61598014831543,6899927,0.0,0
2019-05-09,14.457755982710509,14.615980248733937,13.64685614779493,13.80508041381836,13810099,0.0,0
2019-05-10,14.042416793220529,14.536868095397947,13.943527098639652,14.53686809539795,6688075,0.0,0
2019-05-14,13.884191552099574,14.259974628527813,13.844635488427706,14.101750373840332,6288222,0.0,0
2019-05-15,13.983082210611272,14.47753347903767,13.983082210611272,14.319308280944824,4043890,0.0,0
2019-05-16,14.358866189339357,14.89287355504506,14.27975311378017,14.61598014831543,4701539,0.0,0
2019-05-17,14.833538282851269,14.932428915306664,14.477533703575586,14.59620189666748,5044913,0.0,0
2019-05-20,14.734647392590249,14.754425895971659,13.884191552099574,14.101750373840332,6393458,0.0,0
2019-05-21,14.101750694213925,14.813759856483511,14.062194629643392,14.51708984375,6330941,0.0,0
2019-05-22,14.596202149089038,14.912650669473305,14.437977888896905,14.576423645019531,3946635,0.0,0
2019-05-23,14.732307346522397,14.792032384461502,14.135051271257185,14.254502296447754,3655233,0.0966,0
2019-05-24,14.51331367120067,15.070752751339928,14.493405641184474,14.911483764648438,6484022,0.0,0
2019-05-27,14.89157566053109,15.03093566720054,14.672581635568351,14.931392669677734,3331708,0.0,0
2019-05-28,14.931392741577168,15.409196853637694,14.732307694885284,15.409196853637695,8600766,0.0,0
2019-05-29,15.309654580037527,15.926818690371956,15.24992859225119,15.46892261505127,10921664,0.0,0
2019-05-30,15.548556405895164,15.628190422241149,15.3494713650302,15.528648376464844,4550500,0.0,0
2019-05-31,15.588373497708961,16.16572059397134,15.52864845978519,16.006452560424805,9854114,0.0,0
2019-06-03,16.16572005912342,16.34489706559133,15.727732981361383,16.145811080932617,8441525,0.0,0
2019-06-04,16.324989219872943,16.324989219872943,15.468923033841612,15.608283042907715,5310656,0.0,0
2019-06-05,15.68791645188196,16.105995513493177,15.648099443600529,15.767550468444824,7423542,0.0,0
2019-06-06,15.528649055573338,16.006453174544873,15.528649055573338,15.847185134887695,4527515,0.0,0
2019-06-10,15.926818422751328,15.966636380148067,15.707824403631038,15.787458419799805,8972761,0.0,0
2019-06-11,15.787458769751003,16.444440841674805,15.727733730956714,16.444440841674805,6045273,0.0,0
2019-06-12,16.265264204095114,16.52407524304229,16.006453165147942,16.344898223876953,3973275,0.0,0
2019-06-13,16.285172952948365,16.543983988228387,16.125904915641392,16.40462303161621,4008184,0.0,0
2019-06-14,16.44444160952241,16.48425767103617,16.14581260435745,16.2453556060791,2919947,0.0,0
2019-06-17,16.464350827462344,16.48425790919441,16.185630798339844,16.185630798339844,4652640,0.0,0
2019-06-18,16.18562921377044,16.70325126062649,16.145811256954737,16.603708267211914,3884160,0.0,0
2019-06-19,16.902336587075467,16.922245566941825,16.524075462738747,16.782886505126953,7049737,0.0,0
2019-06-20,16.90233641696443,17.459776455863288,16.882427437298443,17.320415496826172,6970126,0.0,0
2019-06-21,17.220871520985238,17.658859555686362,17.161146483997488,17.579225540161133,6975795,0.0,0
2019-06-24,17.59913483167477,18.25611594609761,17.59913483167477,17.997304916381836,8460125,0.0,0
2019-06-25,18.017214350693326,18.256116407556274,17.63895133669174,17.877853393554688,10283942,0.0,0
2019-06-26,18.076938327645713,18.49501737723635,17.977395335148007,18.156572341918945,7072079,0.0,0
2019-06-27,18.31584221868132,18.395476240990263,17.83803808482764,18.176483154296875,5337471,0.0,0
2019-06-28,18.116756965541136,18.156573024863068,17.698677900224812,17.97739601135254,5528581,0.0,0
2019-07-02,18.216298601091264,18.4552025585767,17.977396542230615,18.335750579833984,5813994,0.0,0
2019-07-03,18.435292519692375,19.012639603419796,18.156572517724946,18.614469528198242,8381316,0.0,0
2019-07-04,18.61446973422577,18.61446973422577,17.917670670907274,18.057029724121094,5819528,0.0,0
2019-07-05,18.19639168103231,18.19639168103231,17.519501558963576,17.798219680786133,9655166,0.0,0
2019-07-08,17.539409276742365,18.236206429789085,17.519500298437542,18.13666343688965,6259529,0.0,0
2019-07-09,18.236207352389776,18.4153843689487,17.758403240649162,17.897762298583984,3729783,0.0,0
2019-07-10,18.017213315864275,18.793644481417896,17.917670323232496,18.654285430908203,8054934,0.0,0
2019-07-11,18.9130973815918,19.49044448887435,18.83346336329851,18.913097381591797,8963307,0.0,0
2019-07-12,19.092273953662502,19.689530026293053,18.913096942010867,19.530261993408203,12039650,0.0,0
2019-07-15,19.41080971884133,19.68952972138599,19.17190767321363,19.609895706176758,7364562,0.0,0
2019-07-16,19.769164890942005,19.769164890942005,19.112183752447688,19.311267852783203,7598954,0.0,0
2019-07-17,19.171908562576437,19.430719598668563,19.171908562576437,19.37099266052246,5868012,0.0,0
2019-07-18,19.311267624902577,19.39090164382203,18.614470434013562,18.873279571533203,10048461,0.0,0
2019-07-19,19.012640687546025,19.092274707131175,18.574652630515313,18.833463668823242,7400878,0.0,0
2019-07-22,18.773738554582163,19.211724711256828,18.714011616160796,18.85337257385254,5319057,0.0,0
2019-07-23,18.97282327558887,19.01264123584213,18.256117078653794,18.69410514831543,7375749,0.0,0
2019-07-24,18.77373877767908,18.972822878908428,18.514927737318597,18.79364585876465,4135538,0.0,0
2019-07-25,18.714012126321226,19.29135925642662,18.654287084896485,19.21172523498535,5960002,0.0,0
2019-07-26,19.072365963567105,19.171908963936414,18.71401192168751,18.773738861083984,5146148,0.0,0
2019-07-29,18.972823096683467,19.82889024780777,18.833464034360844,19.23163414001465,11839888,0.0,0
2019-07-30,19.31126670569746,19.45062765614158,19.092273638749102,19.1121826171875,5836705,0.0,0
2019-07-31,19.132090223975776,19.191817160936097,18.733920137363977,18.972822189331055,4646487,0.0,0
2019-08-01,18.99273187109796,19.49044497243556,18.1565737089608,18.29593276977539,12409788,0.0,0
2019-08-02,17.997304842601217,18.256115871255986,17.718584835136532,18.017213821411133,11123176,0.0,0
2019-08-05,17.79821922686097,17.997305221906576,17.30050613787171,17.419958114624023,9067192,0.0,0
2019-08-06,16.762977356552117,17.41995849653131,16.583800336807826,17.320415496826172,12350449,0.0,0
2019-08-07,17.579225556985183,18.116756586263463,17.41995752578229,18.07693862915039,9530567,0.0,0
2019-08-08,18.13666458147105,18.514927598635666,18.116757500534586,18.335750579833984,5503239,0.0,0
2019-08-09,18.733920047746086,18.773738005529154,17.818127903607476,17.997304916381836,7943516,0.0,0
2019-08-12,17.977396391903778,18.236207428161503,17.65886031608651,17.877853393554688,7107165,0.0,0
2019-08-13,17.71858558617125,17.877853626152017,17.439867465517306,17.81812858581543,5717044,0.0,0
2019-08-14,18.136663592506288,18.41538359529126,17.997304540426146,18.096847534179688,7525749,0.0,0
2019-08-15,17.738495082285244,18.31584221868132,17.619044998134253,18.176483154296875,3902188,0.0,0
2019-08-16,18.15657258938427,18.77373763238198,18.017213537162885,18.594560623168945,6660924,0.0,0
2019-08-19,18.85337279789578,19.231633919268905,18.614470737245675,18.79364585876465,5477421,0.0,0
2019-08-20,18.714012305074665,19.032550292507196,18.554744260670827,18.674196243286133,3745911,0.0,0
2019-08-21,18.714010562579958,19.351084579501073,18.654285526145838,19.132089614868164,5935556,0.0,0
2019-08-22,19.171907801462506,19.4705348858386,18.81355378131143,19.072364807128906,6296622,0.0,0
2019-08-23,19.27145141322399,21.351892277089068,19.171908415701186,20.903949737548828,25204732,0.0,0
2019-08-26,20.008067438419744,21.998919882070965,20.008067438419744,21.65052032470703,15575696,0.0,0
2019-08-27,22.048689462499173,22.695716098460256,21.99891891305015,22.3970890045166,11608322,0.0,0
2019-08-28,22.59617461815705,22.894801707060118,21.99891854172619,22.496631622314453,7705090,0.0,0
2019-08-29,22.69571667115368,22.7454891204834,22.198003569605355,22.7454891204834,5388792,0.0,0
2019-08-30,22.8948013240192,22.994344318196394,21.899375179496623,22.596174240112305,6764135,0.0,0
2019-09-02,22.496632376789808,23.342745021891098,22.496632376789808,22.795259475708008,3712310,0.0,0
2019-09-03,22.845031924610904,23.143659023529104,22.496632376789808,22.795259475708008,3470115,0.0,0
2019-09-04,22.99434489638293,23.243201438771006,22.397088814926608,22.94457244873047,6953384,0.0,0
2019-09-05,23.04411564047769,24.18885536542803,22.894802093505863,23.890228271484375,9033399,0.0,0
2019-09-06,24.089313691392288,24.487483773352345,23.740914157692973,24.039541244506836,8212269,0.0,0
2019-09-09,23.93999960482911,24.238628607175887,23.044116395038436,23.193429946899414,5097373,0.0,0
2019-09-10,23.392514980088293,23.392514980088293,22.198002817399846,22.44685935974121,11268741,0.0,0
2019-09-11,22.496631033363453,22.645944573906032,21.75006143202589,22.148231506347656,7138180,0.0,0
2019-09-12,22.1980022466002,22.54640177664431,21.849604615180784,22.098461151123047,4830364,0.0,0
2019-09-13,21.949146102511655,23.044115259930827,21.949146102511655,22.99434471130371,5301723,0.0,0
2019-09-16,22.79525889874407,22.79525889874407,21.750062180360235,22.44685935974121,8620156,0.0,0
2019-09-17,22.24777489119737,22.89480151068751,22.14823189620857,22.546401977539062,6061107,0.0,0
2019-09-18,22.795258903022575,23.243201438771006,22.596174808286964,22.94457244873047,5105133,0.0,0
2019-09-19,23.093887136928032,23.39251421856624,22.795258156665145,23.143657684326172,5648618,0.0,0
2019-09-20,23.24320124319685,23.24320124319685,22.397088626471856,22.496631622314453,6204828,0.0,0
2019-09-23,22.59617538437278,22.845031933105414,21.79983328925349,22.29754638671875,4402008,0.0,0
2019-09-24,22.39708825175791,22.845030776242947,22.297545257580715,22.596174240112305,3016468,0.0,0
2019-09-25,22.54640350097075,22.74548950440034,22.098462841191434,22.645946502685547,3698856,0.0,0
2019-09-26,22.745489291316485,23.29297294768167,22.54640328975197,23.193429946899414,4144197,0.0,0
2019-09-27,23.193429785794905,23.193429785794905,22.098462480670317,22.24777603149414,3113056,0.0,0
2019-09-30,21.99891854172619,22.695715715374924,21.99891854172619,22.496631622314453,4105914,0.0,0
2019-10-02,22.048689271719976,22.695715902082576,21.9989187227016,22.44685935974121,4449092,0.0,0
2019-10-03,22.347319006894708,23.591601760093194,22.24777600691387,23.243202209472656,5118159,0.0,0
2019-10-04,23.492057607281964,23.989770684136985,22.845030987095377,23.541828155517578,4373160,0.0,0
2019-10-08,23.69114305218588,23.98977205453265,22.994345843959717,23.193429946899414,4882754,0.0,0
2019-10-09,23.39251518249512,24.686568454417287,23.09388808855147,24.387941360473633,10953990,0.0,0
2019-10-10,24.587028127470425,25.084741232086223,24.039542573218153,24.18885612487793,9273762,0.0,0
2019-10-11,24.387942126174178,24.7363416791302,23.790686020910254,24.18885612487793,5458867,0.0,0
2019-10-14,24.437711719574974,25.134510798182404,23.93999863446245,24.9354248046875,8217644,0.0,0
2019-10-15,25.18428095432262,25.38336694471142,24.139084251343213,24.537254333496094,6367999,0.0,0
2019-10-16,24.686569198858297,25.28382530338104,24.537255647383816,25.184282302856445,4244488,0.0,0
2019-10-17,25.333597369475584,25.433138469868585,24.985197822225718,25.283824920654297,3781322,0.0,0
2019-10-18,25.383367919672086,25.532681468886377,25.084740821243507,25.283824920654297,3057476,0.0,0
2019-10-21,25.283824734772168,25.43313828288873,24.885654640253073,25.33359718322754,2299877,0.0,0
2019-10-22,25.33359757681043,25.33359757681043,24.537255476775492,24.73634147644043,3884465,0.0,0
2019-10-23,24.935425380924357,24.985197829760658,24.33817118388708,24.78611183166504,3585306,0.0,0
2019-10-24,24.88565541277028,25.084741415522377,23.989772197635517,24.636798858642578,4443307,0.0,0
2019-10-25,24.78611051148503,25.28382358158965,24.487483428872135,25.134510040283203,4267042,0.0,0
2019-10-28,25.28382473103724,26.229480366677073,25.28382473103724,25.831310272216797,4298974,0.0,0
2019-10-29,26.12993679720747,26.478336334228516,25.681994264091163,26.478336334228516,6165610,0.0,0
2019-10-30,26.627650260925297,26.627650260925297,25.58245353349776,25.881080627441406,4140072,0.0,0
2019-10-31,26.080166058229075,27.12536276304324,26.080166058229075,26.528106689453125,5617328,0.0,0
2019-11-01,26.378793145711775,26.67742023319447,26.229479601970425,26.528106689453125,2279473,0.0,0
2019-11-04,26.87650699646032,27.573306085448092,26.6276504501968,27.32444953918457,5419174,0.0,0
2019-11-05,27.57330646031287,28.02124711050219,27.473763460729202,27.722620010375977,4956702,0.0,0
2019-11-06,27.97147657060962,27.97147657060962,27.025820922144028,27.22490692138672,7679893,0.0,0
2019-11-07,27.17513370690163,27.423990249633786,26.87650661507294,27.42399024963379,3718581,0.0,0
2019-11-08,27.473762121313708,27.7226186588281,26.77696305682353,27.075592041015625,4624509,0.0,0
2019-11-11,26.926277354868947,27.075592800465532,25.980623624964213,26.378793716430664,6952574,0.0,0
2019-11-12,26.7271926908407,27.32444876466879,26.478336151631055,27.025819778442383,3618104,0.0,0
2019-11-13,26.976050185490923,26.976050185490923,26.129937542485486,26.77696418762207,3253883,0.0,0
2019-11-14,26.47833671395347,27.32444934496016,26.47833671395347,26.876506805419922,3785474,0.0,0
2019-11-15,27.07559300019725,27.12536355001342,26.27925091276511,26.329023361206055,3951759,0.0,0
2019-11-18,26.577879900394006,27.42399063879016,26.329023354130484,27.32444953918457,4562356,0.0,0
2019-11-19,27.423990443858205,27.82216243394942,27.175133899363576,27.37421989440918,4002097,0.0,0
2019-11-20,27.0755933712671,27.52353402162596,26.876507372024406,27.22490692138672,3563818,0.0,0
2019-11-21,27.27467651295784,27.27467651295784,26.627649886104546,26.976049423217773,3057238,0.0,0
2019-11-22,27.374220673695483,27.374220673695483,26.428565018245166,26.67742156982422,3227572,0.0,0
2019-11-25,26.976050556828927,27.17513465881348,26.12993790217635,27.175134658813477,4285302,0.0,0
2019-11-26,27.374219700537253,27.672846792365945,27.17513370690163,27.42399024963379,13915380,0.0,0
2019-11-27,27.423990840124198,27.52353383908536,26.030394550542304,26.279251098632812,8547433,0.0,0
2019-11-28,26.179708099671654,26.478337096555137,25.333597355063752,26.279251098632812,5000216,0.0,0
2019-11-29,26.030394959378267,26.17970851085275,24.985198200432077,25.184282302856445,9476935,0.0,0
2019-12-02,25.283824351551218,26.179707525296685,25.03496780892055,25.930850982666016,6012659,0.0,0
2019-12-03,25.980623816618543,26.577879907536452,25.83131026854526,26.329023361206055,4168043,0.0,0
2019-12-04,26.329024146581116,26.378794697881904,25.4829114840939,25.632225036621094,4415873,0.0,0
2019-12-05,25.881081378228405,26.329023930763054,25.532681826104213,26.17970848083496,5813334,0.0,0
2019-12-06,26.37879449648582,26.37879449648582,25.681995391845703,25.681995391845703,3015713,0.0,0
2019-12-09,25.781537823768776,25.9806238203113,25.28382473103724,25.831310272216797,3514925,0.0,0
2019-12-10,25.781538216320502,25.83131066552636,24.935425566068954,25.234054565429688,7018478,0.0,0
2019-12-11,25.43313789740467,26.12993697622045,25.3335967992522,25.930850982666016,4471215,0.0,0
2019-12-12,26.1299381441283,26.279251696655496,25.234054930340296,25.632225036621094,3770923,0.0,0
2019-12-13,25.88108100863248,26.17970810697448,25.632224460472553,25.781538009643555,3796456,0.0,0
2019-12-16,25.881081378228405,26.47833748206633,25.58245427562185,26.17970848083496,3246074,0.0,0
2019-12-17,26.47833595734796,26.627649500053224,26.129936425285873,26.577878952026367,5480605,0.0,0
2019-12-18,26.62764967380691,26.82673566446283,25.831309508432664,26.030393600463867,4500262,0.0,0
2019-12-19,26.08016759282751,26.279251696655496,25.333597931566704,25.632225036621094,5415674,0.0,0
2019-12-20,25.433138279131743,25.831310272216797,25.433138279131743,25.831310272216797,4389639,0.0,0
2019-12-23,25.781537253103433,26.03039379396085,25.482910163524426,25.980623245239258,2398629,0.0,0
2019-12-24,25.681994632395803,26.279250718907864,25.681994632395803,25.881080627441406,1111313,0.0,0
2019-12-27,25.881080429796206,26.378793514984597,25.283824347845194,25.433137893676758,4387730,0.0,0
2019-12-30,25.33359698900313,26.47833671395347,25.134510993957523,26.378793716430664,5952431,0.0,0
2019-12-31,26.229479212151464,26.32902220604121,25.73176614132743,26.12993621826172,3467321,0.0,0
2020-01-02,26.37879333088618,26.528106875675682,25.781537253103433,25.980623245239258,2957091,0.0,0
2020-01-03,25.980623430366993,26.329022969774883,25.731766887736324,25.930850982666016,4569374,0.0,0
2020-01-06,25.930851958853673,25.930851958853673,25.034968751381967,25.184282302856445,6635790,0.0,0
2020-01-07,25.283824913323695,26.17970810697448,25.283824913323695,25.781538009643555,6829769,0.0,0
2020-01-08,25.383366978769203,26.32902258644775,25.383366978769203,26.030393600463867,8639757,0.0,0
2020-01-09,26.378794083682905,27.523533824570602,26.2294805346323,27.274677276611328,12356560,0.0,0
2020-01-10,27.573306632803316,28.369646837204755,27.324450081599768,28.170560836791992,11081170,0.0,0
2020-01-13,28.17055970160028,29.066444768731344,28.021246156620013,28.469188690185547,7005512,0.0,0
2020-01-14,28.767817122504148,29.06644612502398,28.22033346582169,28.61850357055664,8181387,0.0,0
2020-01-15,28.7678165435791,28.966902541252573,28.369646446856944,28.7678165435791,4141286,0.0,0
2020-01-16,29.16598587944423,29.813014405691497,28.867358789349133,29.464614868164062,8267997,0.0,0
2020-01-17,29.813014200205448,29.813014200205448,28.568731502344196,29.016672134399414,4223420,0.0,0
2020-01-20,28.966902354130514,29.315301898496084,28.369646263593072,28.817588806152344,4065875,0.0,0
2020-01-21,28.817589005943624,28.817589005943624,27.672847366716756,27.772390365600586,4150888,0.0,0
2020-01-22,27.921702960936997,28.220331947388697,27.423989882142223,28.0212459564209,6700391,0.0,0
2020-01-23,27.67284601543007,27.822161455777017,26.030393259235876,27.125362396240234,6230503,0.0,0
2020-01-24,27.07559223585709,27.67284641128983,26.677420254068974,27.52353286743164,1373541,0.0,0
2020-01-29,25.980624364577764,26.926278121403268,25.980624364577764,26.67742156982422,4283474,0.0,0
2020-01-30,26.577880700334717,27.075593807841923,25.0847413778131,25.632225036621094,8794575,0.0,0
2020-01-31,26.129937564368323,26.22948056338611,25.034968372422217,25.283824920654297,7051880,0.0,0
2020-02-03,24.935425182856005,26.677421007168792,24.885654633039834,26.329023361206055,8822276,0.0,0
2020-02-04,26.32902280307856,27.722619053262125,26.32902280307856,27.47376251220703,8574999,0.0,0
2020-02-05,27.72261924696426,28.568731872188433,27.72261924696426,28.419416427612305,9473731,0.0,0
2020-02-06,28.668273544742366,29.016673091358548,27.971476350134786,28.7678165435791,7270941,0.0,0
2020-02-07,28.66827259927332,29.16598567841782,28.071018423199696,29.016672134399414,7424103,0.0,0
2020-02-10,28.618502616882328,29.51438579733804,28.3696460723877,29.36507225036621,6762076,0.0,0
2020-02-11,29.663699154853642,30.609354777343416,29.16598606904318,30.410268783569336,16197360,0.0,0
2020-02-12,30.70889758753488,30.858211132645316,30.211184504750282,30.460041046142578,7059373,0.0,0
2020-02-13,30.50981160108602,31.256381225412554,30.36049805594566,30.957754135131836,10362670,0.0,0
2020-02-14,30.70889871889348,32.202036123631814,30.460042168332958,31.15683937072754,10488140,0.0,0
2020-02-17,31.455468553014825,32.052724657549085,30.858212448480558,31.604782104492188,6511399,0.0,0
2020-02-18,31.455466846791893,32.00295237067833,31.25638085653779,31.555009841918945,4843437,0.0,0
2020-02-19,31.754095077514652,32.35135117116888,31.555010978713096,31.75409507751465,5664559,0.0,0
2020-02-20,31.70432490898471,32.25181045918291,31.057298257500285,31.654552459716797,7428011,0.0,0
2020-02-21,31.555010601368853,31.853637695312504,30.90798206678301,31.8536376953125,4318089,0.0,0
2020-02-24,31.40569535376192,31.55501080029983,30.111642073681708,30.808441162109375,6035200,0.0,0
2020-02-25,30.36049880315415,31.15683899591812,30.111642255587313,30.758668899536133,4374941,0.0,0
2020-02-26,30.06187133440108,30.95775451485679,30.06187133440108,30.360498428344727,4277217,0.0,0
2020-02-27,30.360498061838054,31.70432376561157,30.11164152034758,31.455467224121094,5656822,0.0,0
2020-02-28,30.609355356936145,30.808441354479953,29.862785714084044,30.260955810546875,6535822,0.0,0
2020-03-02,30.31072807312012,30.858211715066552,29.763242532548915,30.310728073120117,6064519,0.0,0
2020-03-03,30.808441731033525,31.35592538303339,30.460042180385972,30.65912628173828,5702721,0.0,0
2020-03-04,30.858210750462767,30.90798129867492,30.3604976738424,30.55958366394043,5113307,0.0,0
2020-03-05,30.858211142196474,32.1024938495431,30.858211142196474,31.95317840576172,7732808,0.0,0
2020-03-06,31.654551315448423,32.1024938495431,31.25638122882245,31.95317840576172,6253946,0.0,0
2020-03-09,30.85821054001485,31.455466607611044,30.111640930175778,30.11164093017578,7823946,0.0,0
2020-03-10,30.211185822641713,31.455468583882105,29.315302614273595,30.609355926513672,8460814,0.0,0
2020-03-11,30.46004198608605,32.0527242798691,30.260955987378868,31.20661163330078,13028620,0.0,0
2020-03-12,30.559584423390337,30.808440967884966,29.663699344309865,30.360498428344727,9627524,0.0,0
2020-03-13,29.36507187192412,29.763241958259158,27.871932624199165,29.464614868164062,13880850,0.0,0
2020-03-16,28.56873309062783,29.11621674867434,26.179708659016228,26.62765121459961,17072880,0.0,0
2020-03-17,26.627649864142388,27.17513349442253,24.835883529930364,25.48291015625,20104680,0.0,0
2020-03-18,26.627650260925297,27.32444934496016,24.48748435799644,24.88565444946289,22974440,0.0,0
2020-03-19,25.383367348328434,26.677420610558027,23.840457543468172,25.930850982666016,36328270,0.0,0
2020-03-20,27.324448986765994,29.066444775392704,26.677420460662002,28.966901779174805,23183300,0.0,0
2020-03-23,27.075592067946474,29.26552846107652,27.075592067946474,28.07101821899414,10152710,0.0,0
2020-03-24,29.46461582672721,29.862785926015796,28.668273729525247,29.21575927734375,12267100,0.0,0
2020-03-25,29.76324234183267,30.460041425867534,28.71804561440513,29.36507225036621,9111025,0.0,0
2020-03-26,28.9171289552774,29.96232755402068,28.867358407128783,29.066444396972656,9300612,0.0,0
2020-03-27,29.66369840482246,30.161411478048503,29.016671789353538,30.11164093017578,11150050,0.0,0
2020-03-30,29.663698968369555,30.211184498494084,28.917129344347256,29.96232795715332,7056306,0.0,0
2020-03-31,30.260955430821927,32.10249423980713,30.012098886327298,31.355924606323242,16843880,0.0,0
2020-04-01,31.35592555248831,32.20203631040163,31.107069000484433,31.604782104492188,7484185,0.0,0
2020-04-02,31.803866380424225,32.74952198619416,31.35592385166484,31.555009841918945,10175630,0.0,0
2020-04-03,31.455468201434183,31.65455230163721,29.86278590668597,30.211185455322266,7394734,0.0,0
2020-04-06,30.8084415629849,30.8084415629849,29.464615817031437,29.713472366333008,5484310,0.0,0
2020-04-07,30.31072768530704,30.85821132024865,30.012098694645914,30.410268783569336,10797130,0.0,0
2020-04-08,30.46004086205209,31.256381030244743,30.31072731784406,31.007524490356445,7102235,0.0,0
2020-04-09,31.55501207833595,32.849065410827706,31.405696625750487,32.45089340209961,12578280,0.0,0
2020-04-14,32.55043751408147,34.19288846647,32.500666963509026,33.64540481567383,15620350,0.0,0
2020-04-15,33.89426100274535,34.591060095045094,32.35135116802778,32.7495231628418,12621580,0.0,0
2020-04-16,32.351349119831326,34.14311538855674,32.251808026054654,33.29700469970703,6641865,0.0,0
2020-04-17,33.993806858931656,34.04357741037489,33.247237195534176,33.49609375,4656204,0.0,0
2020-04-20,33.79471781356021,34.441742518573555,33.346775296397546,34.29243087768555,6430454,0.0,0
2020-04-21,34.39197486655942,34.39197486655942,33.2472370010623,33.54586410522461,6959397,0.0,0
2020-04-22,33.54586295732588,34.839916229248054,33.44631806117832,34.83991622924805,10583730,0.0,0
2020-04-23,35.18831235588638,35.835340862582754,34.740373632903584,35.23808670043945,7732559,0.0,0
2020-04-24,35.48694648177714,35.835344142035936,34.889688467726714,35.38740158081055,7285786,0.0,0
2020-04-27,35.437171366808194,35.835343367569926,34.939458264480834,35.58648681640625,6512415,0.0,0
2020-04-28,34.14311676561788,34.939456939697266,33.79471912609861,34.939456939697266,21380230,0.0,0
2020-04-29,34.839916229248054,36.13396950117022,34.839916229248054,35.83534240722656,14410370,0.0,0
2020-05-04,34.93945752320407,35.48694496194835,34.342203331982454,34.79014587402344,9642440,0.0,0
2020-05-05,35.13854293252948,35.735800911026125,34.64082984907368,34.939456939697266,6573015,0.0,0
2020-05-06,35.188312164349114,35.636254682143026,34.54128745842399,35.28785705566406,6544909,0.0,0
2020-05-07,35.33762970235799,36.283285341166774,35.188314255138344,35.735801696777344,13749520,0.0,0
2020-05-08,35.98465615379868,36.68145140768466,35.98465615379868,36.28328323364258,8314321,0.0,0
2020-05-11,36.53214033071363,36.98008285602369,35.188312754783446,36.133968353271484,7368214,0.0,0
2020-05-12,35.93488199974333,36.83076704126853,35.586484370955404,36.23351287841797,5618638,0.0,0
2020-05-13,36.333054184636254,37.47779576688756,36.183738744429775,37.17916488647461,6700260,0.0,0
2020-05-14,37.22893881752271,37.3284799117209,36.034426700897775,36.28328323364258,6088021,0.0,0
2020-05-15,36.63168259015948,37.77642421373458,36.581912040710456,36.83076858520508,6950546,0.0,0
2020-05-18,36.581910909737815,37.52756650903126,36.53214036182751,37.12939453125,3810081,0.0,0
2020-05-19,37.378253172265076,37.82619572317364,36.980084969318284,37.57733917236328,4695221,0.0,0
2020-05-20,37.527569049814055,37.875966706023675,36.084200279196274,36.48237228393555,10747130,0.0,0
2020-05-21,36.63168411735931,37.278712678920215,35.83534390122644,36.43259811401367,7304349,0.0,0
2020-05-22,35.63625793961394,36.581913608675904,34.64083171896969,35.437171936035156,8263699,0.0,0
2020-05-25,34.591058585869625,36.53214033071363,34.49151749013379,36.133968353271484,4268190,0.0,0
2020-05-26,36.532142248647645,37.42802354905205,36.532142248647645,36.631683349609375,8218976,0.0,0
2020-05-27,36.780999021441836,36.83076957222465,34.889687713698024,35.58648681640625,6557570,0.0,0
2020-05-28,35.03900107964672,35.78557068874182,34.39197256619787,35.13854217529297,8406471,0.0,0
2020-05-29,35.03900111117969,36.133968353271484,34.889685670326536,36.133968353271484,14785480,0.0,0
2020-06-01,36.73122654159338,37.57733725221365,36.581911099837136,37.07962417602539,8018574,0.0,0
2020-06-02,36.88054026276142,37.6768804700529,36.581913159683324,37.52756881713867,5667875,0.0,0
2020-06-03,37.87596453582972,37.925735084257994,36.681452387304,37.02985382080078,5261852,0.0,0
2020-06-04,36.83076725565867,37.378250874333446,36.73122616035394,37.17916488647461,4447264,0.0,0
2020-06-05,36.78099879830158,37.07962589843638,36.382826799955446,36.631683349609375,4129896,0.0,0
2020-06-08,36.48236978284571,36.731226319434704,35.735800173078744,36.133968353271484,5182264,0.0,0
2020-06-09,35.934881957190186,36.03442684904698,34.93945582211845,35.23808670043945,10479090,0.0,0
2020-06-10,35.48694382594449,36.233513439697184,35.437169480561444,36.084197998046875,4896201,0.0,0
2020-06-11,35.98465667728372,36.23351321364876,34.939456186751066,35.13854217529297,3668485,0.0,0
2020-06-12,34.839917354638935,35.73580246265808,34.14311824809623,35.53671646118164,5322446,0.0,0
2020-06-15,34.989232837629686,35.53671649426229,34.391974832644394,34.541290283203125,6777082,0.0,0
2020-06-16,35.23808877746992,35.9348840752917,35.138543879745676,35.68602752685547,4995089,0.0,0
2020-06-17,35.88511431385752,36.183741419095306,35.18831520346958,35.48694610595703,2645837,0.0,0
2020-06-18,35.337628384294185,36.33305453596444,35.088771846376616,36.084197998046875,3475273,0.0,0
2020-06-19,35.900001525878906,37.95000076293945,35.79999923706055,37.25,8988037,0.1658,0
2020-06-22,37.20000076293945,37.349998474121094,36.5,36.650001525878906,3241913,0.0,0
2020-06-23,36.400001525878906,37.20000076293945,36.04999923706055,37.04999923706055,4141140,0.0,0
2020-06-24,37.0,37.25,36.349998474121094,36.650001525878906,3564975,0.0,0
2020-06-26,37.20000076293945,37.20000076293945,36.29999923706055,36.400001525878906,1338667,0.0,0
2020-06-29,36.150001525878906,36.75,36.04999923706055,36.400001525878906,2995343,0.0,0
2020-06-30,36.599998474121094,36.70000076293945,35.400001525878906,36.0,5871988,0.0,0
2020-07-02,36.599998474121094,37.099998474121094,36.04999923706055,36.79999923706055,5061153,0.0,0
2020-07-03,37.0,37.0,35.349998474121094,35.849998474121094,8758466,0.0,0
2020-07-06,35.849998474121094,36.099998474121094,34.400001525878906,35.5,11360100,0.0,0
2020-07-07,35.599998474121094,40.400001525878906,35.599998474121094,40.099998474121094,29090940,0.0,0
2020-07-08,39.95000076293945,40.70000076293945,38.79999923706055,40.54999923706055,11309170,0.0,0
2020-07-09,40.79999923706055,40.95000076293945,40.099998474121094,40.849998474121094,6741724,0.0,0
2020-07-10,40.650001525878906,41.349998474121094,40.29999923706055,40.900001525878906,8075442,0.0,0
2020-07-13,41.29999923706055,43.0,41.29999923706055,42.0,11548330,0.0,0
2020-07-14,41.599998474121094,42.79999923706055,41.150001525878906,41.849998474121094,7159732,0.0,0
2020-07-15,42.45000076293945,44.400001525878906,42.45000076293945,43.20000076293945,9770252,0.0,0
2020-07-16,44.099998474121094,44.5,41.0,41.70000076293945,8835994,0.0,0
2020-07-17,41.29999923706055,43.20000076293945,41.04999923706055,42.900001525878906,5103308,0.0,0
2020-07-20,43.54999923706055,43.54999923706055,42.400001525878906,43.04999923706055,5593960,0.0,0
2020-07-21,42.599998474121094,44.25,42.599998474121094,43.95000076293945,8156196,0.0,0
2020-07-22,43.70000076293945,45.650001525878906,43.150001525878906,44.5,10327960,0.0,0
2020-07-23,45.0,45.400001525878906,44.150001525878906,44.29999923706055,6154919,0.0,0
2020-07-24,44.0,44.900001525878906,43.349998474121094,43.849998474121094,6018746,0.0,0
2020-07-27,43.900001525878906,44.70000076293945,43.45000076293945,44.400001525878906,4678658,0.0,0
2020-07-28,45.20000076293945,46.20000076293945,44.54999923706055,45.900001525878906,9426748,0.0,0
2020-07-29,45.900001525878906,46.849998474121094,45.45000076293945,46.5,6865508,0.0,0
2020-07-30,47.75,47.75,45.75,45.900001525878906,4984478,0.0,0
2020-07-31,46.79999923706055,48.099998474121094,46.25,46.75,7688152,0.0,0
2020-08-03,47.099998474121094,48.25,46.349998474121094,47.849998474121094,5386036,0.0,0
2020-08-04,48.75,48.75,47.70000076293945,48.0,4202682,0.0,0
2020-08-05,48.0,49.20000076293945,47.54999923706055,48.349998474121094,5064045,0.0,0
2020-08-06,50.5,50.95000076293945,48.95000076293945,49.95000076293945,9560386,0.0,0
2020-08-07,49.400001525878906,50.0,48.900001525878906,49.150001525878906,4500306,0.0,0
2020-08-10,48.599998474121094,49.75,48.599998474121094,49.599998474121094,5959189,0.0,0
2020-08-11,50.20000076293945,50.20000076293945,48.75,48.95000076293945,4949923,0.0,0
2020-08-12,49.04999923706055,49.349998474121094,48.0,49.099998474121094,10766690,0.0,0
2020-08-13,49.79999923706055,50.0,48.849998474121094,49.29999923706055,3861569,0.0,0
2020-08-14,49.04999923706055,51.25,49.04999923706055,50.20000076293945,3871061,0.0,0
2020-08-17,50.79999923706055,51.20000076293945,49.849998474121094,50.04999923706055,3528461,0.0,0
2020-08-18,49.79999923706055,52.0,49.79999923706055,51.5,7033760,0.0,0
2020-08-19,50.5,51.79999923706055,50.5,51.04999923706055,2431456,0.0,0
2020-08-20,51.04999923706055,51.5,50.400001525878906,51.45000076293945,2712558,0.0,0
2020-08-21,51.79999923706055,51.900001525878906,50.150001525878906,50.95000076293945,2969452,0.0,0
2020-08-24,51.400001525878906,51.95000076293945,50.650001525878906,51.75,2643263,0.0,0
2020-08-25,51.45000076293945,51.650001525878906,49.54999923706055,51.0,7151855,0.0,0
2020-08-26,50.95000076293945,51.79999923706055,50.099998474121094,51.0,5005759,0.0,0
2020-08-27,52.599998474121094,54.79999923706055,52.099998474121094,54.599998474121094,13642530,0.0,0
2020-08-28,54.54999923706055,56.0,53.599998474121094,55.5,7395592,0.0,0
2020-08-31,56.150001525878906,56.5,53.29999923706055,54.04999923706055,6710848,0.0,0
2020-09-01,54.0,54.599998474121094,53.25,53.599998474121094,4475733,0.0,0
2020-09-02,54.5,54.5,53.70000076293945,54.20000076293945,4563430,0.0,0
2020-09-03,54.099998474121094,54.5,53.04999923706055,53.900001525878906,3349693,0.0,0
2020-09-04,52.900001525878906,54.45000076293945,52.599998474121094,54.099998474121094,3343432,0.0,0
2020-09-07,53.599998474121094,53.900001525878906,51.5,52.400001525878906,3420682,0.0,0
2020-09-08,52.400001525878906,52.95000076293945,48.75,50.650001525878906,9129801,0.0,0
2020-09-09,49.79999923706055,50.599998474121094,49.0,50.45000076293945,4210860,0.0,0
2020-09-10,51.29999923706055,52.400001525878906,49.70000076293945,50.20000076293945,5513158,0.0,0
2020-09-11,49.70000076293945,51.75,49.70000076293945,51.54999923706055,3234040,0.0,0
2020-09-14,51.25,52.099998474121094,50.5,51.849998474121094,2779432,0.0,0
2020-09-15,52.25,52.400001525878906,50.70000076293945,52.0,2339535,0.0,0
2020-09-16,52.0,52.900001525878906,51.900001525878906,52.45000076293945,2928977,0.0,0
2020-09-17,52.45000076293945,52.79999923706055,50.04999923706055,50.54999923706055,4083947,0.0,0
2020-09-18,50.75,51.70000076293945,49.79999923706055,51.70000076293945,3302033,0.0,0
2020-09-21,51.150001525878906,51.70000076293945,49.79999923706055,50.20000076293945,2593614,0.0,0
2020-09-22,50.150001525878906,50.75,49.54999923706055,50.25,2330421,0.0,0
2020-09-23,50.70000076293945,51.599998474121094,50.20000076293945,51.04999923706055,2700716,0.0,0
2020-09-24,50.849998474121094,50.849998474121094,49.0,49.5,2977343,0.0,0
2020-09-25,49.95000076293945,50.95000076293945,48.349998474121094,49.349998474121094,3286659,0.0,0
2020-09-28,49.099998474121094,49.70000076293945,48.75,49.0,4471650,0.0,0
2020-09-29,49.04999923706055,50.20000076293945,49.04999923706055,49.599998474121094,3633784,0.0,0
2020-09-30,49.599998474121094,50.79999923706055,49.5,49.849998474121094,2711717,0.0,0
2020-10-05,51.599998474121094,51.650001525878906,49.400001525878906,50.04999923706055,2280344,0.0,0
2020-10-06,50.70000076293945,51.849998474121094,50.20000076293945,51.599998474121094,3480628,0.0,0
2020-10-07,52.0,52.45000076293945,51.099998474121094,51.849998474121094,2525588,0.0,0
2020-10-08,52.79999923706055,52.79999923706055,51.400001525878906,52.04999923706055,1885837,0.0,0
2020-10-09,52.599998474121094,52.599998474121094,51.150001525878906,52.400001525878906,3850854,0.0,0
2020-10-12,52.5,53.900001525878906,52.04999923706055,53.79999923706055,3874846,0.0,0
2020-10-14,53.29999923706055,53.79999923706055,51.599998474121094,51.95000076293945,5078263,0.0,0
2020-10-15,52.5,52.849998474121094,50.849998474121094,51.45000076293945,4020036,0.0,0
2020-10-16,52.349998474121094,52.400001525878906,51.20000076293945,51.650001525878906,2018702,0.0,0
2020-10-19,52.150001525878906,52.349998474121094,47.900001525878906,48.54999923706055,8971970,0.0,0
2020-10-20,48.75,50.29999923706055,48.5,49.25,6153364,0.0,0
2020-10-21,49.25,50.0,47.150001525878906,47.79999923706055,7182313,0.0,0
2020-10-22,48.04999923706055,48.95000076293945,47.650001525878906,48.599998474121094,5148026,0.0,0
2020-10-23,48.5,48.75,46.25,46.650001525878906,6955384,0.0,0
2020-10-27,46.849998474121094,47.150001525878906,45.0,45.20000076293945,17132670,0.0,0
2020-10-28,45.20000076293945,46.150001525878906,44.400001525878906,46.150001525878906,8202116,0.0,0
2020-10-29,45.70000076293945,49.79999923706055,45.45000076293945,49.099998474121094,13141280,0.0,0
2020-10-30,49.0,49.5,48.04999923706055,48.650001525878906,6626976,0.0,0
2020-11-02,48.70000076293945,48.95000076293945,46.70000076293945,46.849998474121094,5741484,0.0,0
2020-11-03,46.849998474121094,48.400001525878906,46.45000076293945,47.29999923706055,5164288,0.0,0
2020-11-04,47.0,50.5,47.0,49.849998474121094,8427260,0.0,0
2020-11-05,50.0,51.79999923706055,49.849998474121094,50.79999923706055,6171009,0.0,0
2020-11-06,50.849998474121094,51.20000076293945,48.0,49.150001525878906,7670215,0.0,0
2020-11-09,49.20000076293945,50.20000076293945,48.650001525878906,49.849998474121094,3761687,0.0,0
2020-11-10,49.400001525878906,49.400001525878906,46.900001525878906,47.5,8685002,0.0,0
2020-11-11,47.400001525878906,47.54999923706055,45.0,45.95000076293945,11115180,0.0,0
2020-11-12,45.900001525878906,47.25,45.900001525878906,46.599998474121094,6115573,0.0,0
2020-11-13,47.0,48.79999923706055,46.29999923706055,48.599998474121094,8366111,0.0,0
2020-11-16,48.79999923706055,48.95000076293945,47.29999923706055,48.150001525878906,4191951,0.0,0
2020-11-17,48.0,48.099998474121094,46.75,47.150001525878906,4459280,0.0,0
2020-11-18,47.29999923706055,47.29999923706055,46.20000076293945,46.45000076293945,6002932,0.0,0
2020-11-19,45.54999923706055,46.099998474121094,44.0,44.25,17520830,0.0,0
2020-11-20,44.54999923706055,46.45000076293945,44.5,46.45000076293945,8975008,0.0,0
2020-11-23,47.29999923706055,47.29999923706055,43.54999923706055,44.54999923706055,13772030,0.0,0
2020-11-24,44.54999923706055,44.70000076293945,43.5,43.849998474121094,9318730,0.0,0
2020-11-25,44.099998474121094,44.29999923706055,41.45000076293945,41.79999923706055,18043200,0.0,0
2020-11-26,41.95000076293945,43.400001525878906,41.95000076293945,43.150001525878906,12053470,0.0,0
2020-11-27,42.79999923706055,44.70000076293945,41.5,44.5,11394550,0.0,0
2020-11-30,44.5,44.900001525878906,43.099998474121094,43.400001525878906,12813770,0.0,0
2020-12-01,43.45000076293945,45.849998474121094,43.400001525878906,45.25,12003890,0.0,0
2020-12-02,45.29999923706055,46.75,45.29999923706055,46.20000076293945,11976510,0.0,0
2020-12-03,46.0,48.04999923706055,46.0,47.400001525878906,9995372,0.0,0
2020-12-04,47.54999923706055,48.70000076293945,47.099998474121094,48.349998474121094,14888660,0.0,0
2020-12-07,48.400001525878906,49.0,48.099998474121094,48.45000076293945,8502671,0.0,0
