Date,Open,High,Low,Close,Volume,Dividends,Stock Splits
2020-01-02,1.5411309003829956,1.5501963673678103,1.5229998583444748,1.5411309003829956,5544882,0.0,0
2020-01-03,1.55019637973358,1.6045891820763551,1.5411309126764507,1.595523715019226,8801180,0.0,0
2020-01-06,1.6045892183294248,1.6045892183294248,1.5592618820196817,1.577392816543579,2137948,0.0,0
2020-01-07,1.586458241744309,1.595523708765908,1.5592618406795118,1.5683273077011108,2170250,0.0,0
2020-01-08,1.5501964092254639,1.568327343684656,1.5320654747662714,1.5501964092254639,2536000,0.0,0
2020-01-09,1.5501963673678103,1.5683273013374401,1.5320654333981807,1.5411309003829956,5266000,0.0,0
2020-01-10,1.5411309250265046,1.5501963921562811,1.5048689484385058,1.522999882698059,7734000,0.0,0
2020-01-13,1.532065457896728,1.532065457896728,1.5139344155682823,1.522999882698059,2970000,0.0,0
2020-01-14,1.532065510749817,1.532065510749817,1.5139344677958877,1.532065510749817,4186000,0.0,0
2020-01-15,1.5229998826980589,1.532065457896728,1.5139344155682823,1.522999882698059,2660000,0.0,0
2020-01-16,1.5320654333981807,1.5411309003829956,1.5139343913596601,1.5411309003829956,4148329,0.0,0
2020-01-17,1.5320654333981807,1.5592618343526252,1.5320654333981807,1.5411309003829956,6230000,0.0,0
2020-01-20,1.5411309066363137,1.57739277472271,1.5411309066363137,1.5683273077011108,6295000,0.0,0
2020-01-21,1.5683273805198823,1.5773928479623986,1.532065510749817,1.532065510749817,3628000,0.0,0
2020-01-22,1.5229998994677814,1.5592618764550599,1.5229998994677814,1.5501964092254639,1874000,0.0,0
2020-01-23,1.532065510749817,1.5411309781923332,1.522999935238404,1.532065510749817,2532000,0.0,0
2020-01-24,1.522999935238404,1.532065510749817,1.5048690003533713,1.532065510749817,1114000,0.0,0
2020-01-29,1.5229998704013188,1.5229998704013188,1.4595416010052469,1.4686070680618286,2398000,0.0,0
2020-01-30,1.477672565734529,1.477672565734529,1.4051487197103514,1.4232797622680664,6026000,0.0,0
2020-01-31,1.423279745216969,1.4414106794885786,1.3960832357406616,1.3960832357406616,3577975,0.0,0
2020-02-03,1.3779523784651253,1.3960833137498403,1.3688869108227677,1.387017846107483,4081512,0.0,0
2020-02-04,1.39608327717825,1.4142142119880097,1.38701780977337,1.4051487445831299,2761112,0.0,0
2020-02-05,1.4142141869547618,1.4323452295124768,1.4051487197103514,1.4232797622680664,4243194,0.0,0
2020-02-06,1.414214151621084,1.4504761277616263,1.414214151621084,1.4414106607437134,2526000,0.0,0
2020-02-07,1.4232797622680662,1.4323452295124768,1.4142141869547618,1.4232797622680664,1071590,0.0,0
2020-02-10,1.4232798291650026,1.4323452968355077,1.4142142534255984,1.4142142534255981,1922000,0.0,0
2020-02-11,1.423279726707888,1.459541594779539,1.423279726707888,1.4414106607437134,2768936,0.0,0
2020-02-12,1.4504761277616263,1.459541594779539,1.4414106607437134,1.4414106607437134,3367913,0.0,0
2020-02-13,1.4504762154821043,1.5139344884452606,1.4504762154821043,1.4867380857467651,6228000,0.0,0
2020-02-14,1.4867380442172335,1.5048689788431067,1.4776725769042969,1.4776725769042969,1412000,0.0,0
2020-02-17,1.4776725769042969,1.4867380442172335,1.4686071095913602,1.4776725769042969,708000,0.0,0
2020-02-18,1.4686070617974516,1.4867379958332771,1.4414106607437134,1.4414106607437134,6556000,0.0,0
2020-02-19,1.4504761695861816,1.4595416368654976,1.4414107023068656,1.4504761695861816,2772000,0.0,0
2020-02-20,1.4504762061259127,1.4595416736336018,1.4323452711105344,1.4323452711105347,2726000,0.0,0
2020-02-21,1.4323452711105344,1.4504762061259127,1.4232798036028456,1.4323452711105347,1962000,0.0,0
2020-02-24,1.4142141869547618,1.4414106967568872,1.4142141869547618,1.4232797622680664,1790000,0.0,0
2020-02-25,1.4232797874617855,1.4323452548666655,1.4051487445831299,1.4051487445831299,3975180,0.0,0
2020-02-26,1.4051487028764664,1.4142141700122715,1.3960832357406616,1.3960832357406616,4086000,0.0,0
2020-02-27,1.4051487028764664,1.4051487028764664,1.377952301469052,1.3960832357406616,5025180,0.0,0
2020-02-28,1.3779522955192074,1.405148696809191,1.3688868284225464,1.3688868284225464,4458630,0.0,0
2020-03-02,1.3688868698937102,1.3960832720076233,1.3688868698937102,1.3779523372650146,6236410,0.0,0
2020-03-03,1.387017804636319,1.4051487393789277,1.3779523372650146,1.3779523372650146,3124000,0.0,0
2020-03-04,1.3870177686048568,1.4142141700122715,1.377952301469052,1.3960832357406616,2415380,0.0,0
2020-03-05,1.4051487445831299,1.4232797874617855,1.3779523423684903,1.4051487445831299,10456000,0.0,0
2020-03-06,1.405148785755093,1.441410764506013,1.405148785755093,1.4142142534255981,4468000,0.0,0
2020-03-09,1.3960833092417033,1.3960833092417033,1.3598214387893677,1.3598214387893677,4279565,0.0,0
2020-03-10,1.3779524117593127,1.3779524117593127,1.3235596045909248,1.3416905403137207,6476149,0.0,0
2020-03-11,1.3507559666364835,1.359821434219099,1.3326250314712524,1.3326250314712524,3483950,0.0,0
2020-03-12,1.3326250531888717,1.3326250531888717,1.2782321387378464,1.2872976064682007,5732000,0.0,0
2020-03-13,1.2782320136268823,1.2872974804699255,1.196642812039493,1.260101079940796,11285080,0.0,0
2020-03-16,1.2691666198128964,1.296363021906933,1.1966428808954652,1.223839282989502,5078000,0.0,0
2020-03-17,1.223839282989502,1.2419702177188596,1.178511838097212,1.223839282989502,8860000,0.0,0
2020-03-18,1.223839303643712,1.232904771161385,1.1785118579864502,1.1785118579864502,5456360,0.0,0
2020-03-19,1.1785117670751788,1.1785117670751788,1.0969225657099742,1.1331844329833984,13842000,0.0,0
2020-03-20,1.1331844233080504,1.2057082653045654,1.0878570896032835,1.2057082653045654,14128000,0.0,0
2020-03-23,1.151315450668335,1.1785118531087924,1.1331845157080298,1.151315450668335,5723578,0.0,0
2020-03-24,1.178511774045461,1.2057082827302712,1.1603808403015137,1.1603808403015137,3860000,0.0,0
2020-03-25,1.1785117637950462,1.2329046726226807,1.1785117637950462,1.2329046726226807,3600000,0.0,0
2020-03-26,1.2329048360144217,1.269166707992554,1.2147739000253557,1.2691667079925537,4090000,0.0,0
2020-03-27,1.3144940754497458,1.3144940754497458,1.2782320976257324,1.2782320976257324,5105919,0.0,0
2020-03-30,1.2691665467838391,1.2782320136268823,1.2419701462547093,1.260101079940796,4181900,0.0,0
2020-03-31,1.2510356953093948,1.2872975650645118,1.2510356953093948,1.2782320976257324,7724000,0.0,0
2020-04-01,1.2601010376370274,1.2782319707144272,1.2329046380209276,1.2510355710983276,3420228,0.0,0
2020-04-02,1.2329046726226807,1.241970139415805,1.2057082722433077,1.2329046726226807,4192822,0.0,0
2020-04-03,1.2419701814651487,1.260101115665256,1.2329047143650953,1.241970181465149,2629688,0.0,0
2020-04-06,1.2419702278706155,1.2782320976257324,1.223839292993057,1.2782320976257324,1716000,0.0,0
2020-04-07,1.2782320976257324,1.3054286080109665,1.2691666301869533,1.2782320976257324,3586000,0.0,0
2020-04-08,1.2963630929378294,1.3416905403137207,1.2782321572150332,1.3416905403137207,5670000,0.0,0
2020-04-09,1.3416904572288122,1.3416904572288122,1.3054285880287562,1.3235595226287842,2690000,0.0,0
2020-04-14,1.323559568337032,1.3779523740155355,1.323559568337032,1.3598214387893677,6522000,0.0,0
2020-04-15,1.3598213613258852,1.3688868284225464,1.3416904271325627,1.3688868284225464,4026000,0.0,0
2020-04-16,1.3416904626105224,1.3688868646196533,1.3416904626105224,1.3507559299468994,3776000,0.0,0
2020-04-17,1.3688868284225464,1.3960832297125298,1.3598213613258852,1.3688868284225464,3984000,0.0,0
2020-04-20,1.377952301469052,1.4051487028764664,1.3598213671974422,1.3960832357406616,3665000,0.0,0
2020-04-21,1.3960832297125298,1.3960832297125298,1.3598213613258852,1.3688868284225464,4953088,0.0,0
2020-04-22,1.3688869150730723,1.4232798291650026,1.3416905120615568,1.4142142534255981,6940360,0.0,0
2020-04-23,1.4232797874617855,1.4414107222715453,1.39608327717825,1.4051487445831299,2835000,0.0,0
2020-04-24,1.405148781392198,1.405148781392198,1.3688869108227677,1.387017846107483,2310000,0.0,0
2020-04-27,1.4051487445831299,1.4142142119880097,1.3779523423684903,1.4051487445831299,3436000,0.0,0
2020-04-28,1.3870177852215304,1.4323452295124768,1.3779523179771198,1.4232797622680664,4113800,0.0,0
2020-04-29,1.4414106794885786,1.4414106794885786,1.3960832357406616,1.3960832357406616,3390000,0.0,0
2020-05-04,1.4232797821904322,1.4232797821904322,1.3688868698937102,1.3779523372650146,1528000,0.0,0
2020-05-05,1.38701780977337,1.4051487445831299,1.3779523423684903,1.4051487445831299,740000,0.0,0
2020-05-06,1.4142142119880097,1.4142142119880097,1.3779523423684903,1.4051487445831299,1308000,0.0,0
2020-05-07,1.38701780977337,1.4142142119880097,1.38701780977337,1.4051487445831299,1121408,0.0,0
2020-05-08,1.4051487197103514,1.4232797622680662,1.3870177852215304,1.4232797622680664,2484000,0.0,0
2020-05-11,1.405148781392198,1.4142142490345553,1.3870178461074827,1.387017846107483,2953000,0.0,0
2020-05-12,1.3960832357406616,1.4142141700122715,1.368886834333247,1.3960832357406616,3848000,0.0,0
2020-05-13,1.4051487393789277,1.4051487393789277,1.3779523372650146,1.3779523372650146,2032000,0.0,0
2020-05-14,1.3870178461074827,1.3960833137498403,1.3779523784651253,1.387017846107483,1830000,0.0,0
2020-05-15,1.3779522955192074,1.3870177626158686,1.3688868284225464,1.3688868284225464,1820064,0.0,0
2020-05-18,1.3688869064024516,1.3870178416286194,1.3598214387893677,1.3598214387893677,2264000,0.0,0
2020-05-19,1.368886834333247,1.4051487028764664,1.368886834333247,1.3960832357406616,1512000,0.0,0
2020-05-20,1.3779523372650146,1.3960832720076233,1.3688868698937102,1.3779523372650146,2922335,0.0,0
2020-05-21,1.3688869108227677,1.3960833137498403,1.3688869108227677,1.387017846107483,1280000,0.0,0
2020-05-22,1.3870177992924069,1.3870177992924069,1.3235595279377688,1.3507559299468994,3478261,0.0,0
2020-05-25,1.3416904626105224,1.3598213972832762,1.3326249952741456,1.3507559299468994,1322000,0.0,0
2020-05-26,1.3507559299468994,1.396083266628784,1.3507559299468994,1.3507559299468994,5134000,0.0,0
2020-05-27,1.350755894229224,1.3960832297125298,1.350755894229224,1.3688868284225464,2852000,0.0,0
2020-05-28,1.3870177686048568,1.3960832357406616,1.3507559000616374,1.3960832357406616,2121800,0.0,0
2020-05-29,1.387017903558085,1.4051488395937877,1.296363115310669,1.296363115310669,6352000,0.0,0
2020-06-01,1.3416905078956953,1.3870178461074827,1.3326250402533377,1.387017846107483,3760000,0.0,0
2020-06-02,1.3688869150730723,1.4323452968355077,1.3688869150730723,1.4142142534255981,2450000,0.0,0
2020-06-03,1.405148690596865,1.4686070680618286,1.37795228942712,1.4686070680618286,7732000,0.0,0
2020-06-04,1.4686071459661219,1.4776726135035936,1.45954167842865,1.45954167842865,6657461,0.0,0
2020-06-05,1.523750031987826,1.523750031987826,1.456666648387909,1.4758332967758179,5150484,0.087,0
2020-06-08,1.4758332667787093,1.5045833530184476,1.466249942779541,1.466249942779541,3100050,0.0,0
2020-06-09,1.4758332379353345,1.5141666474250608,1.4758332379353345,1.494999885559082,3278000,0.0,0
2020-06-10,1.4854165617472082,1.504583323613187,1.4758332379353345,1.494999885559082,2716490,0.0,0
2020-06-11,1.4854165315628052,1.5045832930393057,1.4662498843285334,1.4854165315628052,2146000,0.0,0
2020-06-12,1.4470832947812047,1.4854165907778776,1.4470832947812047,1.466249942779541,1412000,0.0,0
2020-06-15,1.475833205592555,1.475833205592555,1.4470832347869873,1.4470832347869873,936000,0.0,0
2020-06-16,1.4758332667787093,1.4758332667787093,1.4470832947812047,1.466249942779541,714000,0.0,0
2020-06-17,1.4662499483793416,1.5045833587646484,1.4566666243435735,1.5045833587646484,2796000,0.0,0
2020-06-18,1.5141666834213714,1.562083303619863,1.504583359381673,1.5429166555404663,3954000,0.0,0
2020-06-19,1.5429166555404663,1.5429166555404663,1.5141666834213714,1.5429166555404663,2192232,0.0,0
2020-06-22,1.5333333561817806,1.5333333561817806,1.4758332967758179,1.4758332967758179,2456000,0.0,0
2020-06-23,1.4758332441871385,1.5429166253966593,1.4566665964821988,1.5333333015441895,2054000,0.0,0
2020-06-24,1.5333333609693023,1.6004166305364373,1.5333333609693023,1.590833306312561,9166000,0.0,0
2020-06-26,1.6004165390274052,1.6004165390274052,1.5524999206478116,1.5620832443237305,2340000,0.0,0
2020-06-29,1.5524999185365715,1.5524999185365715,1.5141666238850262,1.5237499475479126,3918000,0.0,0
2020-06-30,1.5333333610875126,1.5908333064352043,1.5237500368628973,1.5525000095367432,5172000,0.0,0
2020-07-02,1.5333333015441895,1.562083273101599,1.5141666538392498,1.5333333015441895,3026000,0.0,0
2020-07-03,1.533333331500768,1.5716666276595612,1.533333331500768,1.5429166555404663,5164000,0.0,0
2020-07-06,1.5525000095367432,1.5620833337613584,1.514166712638282,1.5525000095367432,7836000,0.0,0
2020-07-07,1.562083242199458,1.5812498895252307,1.5237499475479126,1.5237499475479126,5050000,0.0,0
2020-07-08,1.542916685312128,1.5716666579859737,1.5237500368628973,1.5525000095367432,6182000,0.0,0
2020-07-09,1.562083273101599,1.5716665969540689,1.5237499776917196,1.5333333015441895,5012000,0.0,0
2020-07-10,1.5237499475479126,1.5524999185365715,1.5045833002221398,1.5237499475479126,5679000,0.0,0
2020-07-13,1.5524999386137315,1.7920832617686764,1.5429166148269122,1.753749966621399,45846980,0.0,0
2020-07-14,1.7537499666213991,1.7537499666213991,1.7537499666213991,1.753749966621399,0,0.0,0
2020-07-15,1.7537499666213991,1.7537499666213991,1.7537499666213991,1.753749966621399,0,0.0,0
2020-07-16,1.7537499666213991,1.7537499666213991,1.7537499666213991,1.753749966621399,0,0.0,0
2020-07-17,1.7537499666213991,1.7537499666213991,1.7537499666213991,1.753749966621399,0,0.0,0
2020-07-20,1.820833289157424,1.8495832614025383,1.667499989607913,1.6962499618530273,16048000,0.0,0
2020-07-21,1.7058333158493042,1.7058333158493042,1.6675000188502482,1.7058333158493042,6685190,0.0,0
2020-07-22,1.696249931768486,1.7154165795919576,1.6770832839450145,1.6866666078567505,4730000,0.0,0
2020-07-23,1.705833226886319,1.7537499598784116,1.657916608136457,1.7154165506362915,7304000,0.0,0
2020-07-24,1.715416580714561,1.7345832285505756,1.6674999611245245,1.7249999046325684,6972000,0.0,0
2020-07-27,1.7249999340981417,1.715416610016437,1.6866666377713226,1.6962499618530273,3122000,0.0,0
2020-07-28,1.6866666377713226,1.705833285934732,1.6866666377713226,1.6962499618530273,2116000,0.0,0
2020-07-29,1.705833285934732,1.715416610016437,1.6866666377713226,1.6962499618530273,4426000,0.0,0
2020-07-30,1.705833285934732,1.705833285934732,1.6770833136896177,1.6962499618530273,4160000,0.0,0
2020-07-31,1.6866666377713226,1.705833285934732,1.6866666377713226,1.6962499618530273,1964000,0.0,0
2020-08-03,1.705833254511968,1.705833254511968,1.6291666632705877,1.6483333110809326,8096000,0.0,0
2020-08-04,1.6483333048129811,1.6579166286817122,1.6004165712270941,1.6099998950958252,4160000,0.0,0
2020-08-05,1.619583309626253,1.6387499570846558,1.6099998716548214,1.6387499570846558,1760000,0.0,0
2020-08-06,1.648333280813857,1.648333280813857,1.6099998716548214,1.6387499570846558,2074000,0.0,0
2020-08-07,1.6483333405305651,1.6483333405305651,1.6004166059063747,1.6195833683013916,771666,0.0,0
2020-08-10,1.6195833932264265,1.6195833932264265,1.5908333063125608,1.590833306312561,620000,0.0,0
2020-08-11,1.6195833683013916,1.6483333405305651,1.6099999299827659,1.6195833683013916,1500000,0.0,0
2020-08-12,1.6099999595506513,1.6291667222976685,1.5908333110458708,1.6291667222976685,1148000,0.0,0
2020-08-13,1.6291666333554544,1.648333280813857,1.619583309626253,1.6387499570846558,2282000,0.0,0
2020-08-14,1.6291667222976685,1.6387500465500588,1.6195833980452783,1.6291667222976685,498000,0.0,0
2020-08-17,1.6387500169189906,1.6579166650772095,1.6291666928398811,1.6579166650772095,2096000,0.0,0
2020-08-18,1.657916636121543,1.7058332556802218,1.657916636121543,1.6866666078567505,2340000,0.0,0
2020-08-19,1.6962499618530273,1.6962499618530273,1.6770833136896177,1.6962499618530273,534000,0.0,0
2020-08-20,1.6866666377713226,1.705833285934732,1.6770833136896177,1.6962499618530273,2670000,0.0,0
2020-08-21,1.7058332556802218,1.7058332556802218,1.6483333122098072,1.6866666078567505,1772000,0.0,0
2020-08-24,1.6866666673497763,1.7058333158493042,1.6770833431000123,1.7058333158493042,1198000,0.0,0
2020-08-25,1.7058332863762888,1.763333345123636,1.6962499622921035,1.7345832586288452,4718000,0.0,0
2020-08-26,1.7249999046325684,1.7537499906288228,1.7249999046325684,1.7249999046325684,2818000,0.0,0
2020-08-27,1.7249999046325684,1.7441666667108153,1.7249999046325684,1.7249999046325684,2644000,0.0,0
2020-08-28,1.7249999345446598,1.7345832586288452,1.7249999345446598,1.7345832586288452,4242000,0.0,0
2020-08-31,1.7249999035036934,1.7537499894811333,1.6866666078567503,1.6866666078567505,3140246,0.0,0
2020-09-01,1.7058332567965537,1.7345832285505756,1.7058332567965537,1.7249999046325684,2990000,0.0,0
2020-09-02,1.7345832048055294,1.7537499666213991,1.715416557231891,1.753749966621399,2340403,0.0,0
2020-09-03,1.7633333505005448,1.8208332951809911,1.753750026387137,1.7729166746139526,4032814,0.0,0
2020-09-04,1.7633333803860696,1.7633333803860696,1.734583293316346,1.7441667318344116,3974000,0.0,0
2020-09-07,1.7537500561102406,1.7825000289377273,1.7249999690405171,1.7441667318344116,4120000,0.0,0
2020-09-08,1.7441667318344116,1.7537500561102406,1.7249999690405171,1.7441667318344116,2202000,0.0,0
2020-09-09,1.7441666361284394,1.7441666361284394,1.7154165506362915,1.7154165506362915,8808313,0.0,0
2020-09-10,1.7249999345446598,1.7441666969552652,1.7154166104604744,1.7345832586288452,3272000,0.0,0
2020-09-11,1.7345831981362363,1.7345831981362363,1.705833226886319,1.7154165506362915,2606000,0.0,0
2020-09-14,1.7154166400990682,1.7249999643488323,1.7058333158493042,1.7058333158493042,3047142,0.0,0
2020-09-15,1.705833262669437,1.7920832924706787,1.705833262669437,1.7633333206176758,4709298,0.0,0
2020-09-16,1.7441667270905967,1.7537500513403608,1.7058333158493042,1.7058333158493042,2538000,0.0,0
2020-09-17,1.7058332556802218,1.7154165795919576,1.6674999600332787,1.6866666078567505,4853765,0.0,0
2020-09-18,1.6770832538604736,1.6962499013401222,1.657916606380825,1.6770832538604736,29191220,0.0,0
2020-09-21,1.6962499013401222,1.6962499013401222,1.657916606380825,1.6770832538604736,3984665,0.0,0
2020-09-22,1.6770832827964504,1.6770832827964504,1.6483333110809328,1.6483333110809326,646000,0.0,0
2020-09-23,1.6579166950548396,1.6579166950548396,1.6291667222976685,1.6291667222976685,2511180,0.0,0
2020-09-24,1.6387500169189906,1.6770833132354281,1.6291666928398811,1.6579166650772095,2084000,0.0,0
2020-09-25,1.6674999301206495,1.6962499013401222,1.657916606380825,1.6770832538604736,2578000,0.0,0
2020-09-28,1.6674999611245245,1.7441666667108153,1.6579166372065173,1.7249999046325684,4877740,0.0,0
2020-09-29,1.7100000381469727,1.7100000381469727,1.649999976158142,1.7000000476837158,3545456,0.075,0
2020-09-30,1.6799999475479126,1.690000057220459,1.649999976158142,1.659999966621399,4355840,0.0,0
2020-10-05,1.6699999570846558,1.6799999475479126,1.5700000524520874,1.590000033378601,10511820,0.0,0
2020-10-06,1.5800000429153442,1.6299999952316284,1.5800000429153442,1.600000023841858,7042072,0.0,0
2020-10-07,1.6200000047683716,1.6399999856948853,1.590000033378601,1.590000033378601,16521830,0.0,0
2020-10-08,1.600000023841858,1.649999976158142,1.590000033378601,1.649999976158142,9750416,0.0,0
2020-10-09,1.649999976158142,1.649999976158142,1.600000023841858,1.600000023841858,13524360,0.0,0
2020-10-12,1.6100000143051147,1.6799999475479126,1.6100000143051147,1.6799999475479126,1817547,0.0,0
2020-10-14,1.7000000476837158,1.7799999713897705,1.659999966621399,1.7699999809265137,7579346,0.0,0
2020-10-15,1.7599999904632568,1.7699999809265137,1.7000000476837158,1.75,1925641,0.0,0
2020-10-16,1.7400000095367432,1.7999999523162842,1.7400000095367432,1.7999999523162842,6293861,0.0,0
2020-10-19,1.809999942779541,1.809999942779541,1.7599999904632568,1.7799999713897705,7347083,0.0,0
2020-10-20,1.7699999809265137,1.7999999523162842,1.7599999904632568,1.7899999618530273,3463836,0.0,0
2020-10-21,1.7799999713897705,1.809999942779541,1.7599999904632568,1.7899999618530273,3121941,0.0,0
2020-10-22,1.7999999523162842,1.809999942779541,1.7699999809265137,1.7999999523162842,11417340,0.0,0
2020-10-23,1.7999999523162842,1.850000023841858,1.7799999713897705,1.7999999523162842,5746454,0.0,0
2020-10-27,1.7899999618530273,1.840000033378601,1.7599999904632568,1.8200000524520874,3972071,0.0,0
2020-10-28,1.809999942779541,1.8300000429153442,1.7999999523162842,1.8300000429153442,2722336,0.0,0
2020-10-29,1.809999942779541,1.8300000429153442,1.7899999618530273,1.8200000524520874,8492369,0.0,0
2020-10-30,1.7999999523162842,1.8200000524520874,1.7899999618530273,1.809999942779541,6852880,0.0,0
2020-11-02,1.7799999713897705,1.8200000524520874,1.7799999713897705,1.8200000524520874,7360000,0.0,0
2020-11-03,1.7899999618530273,1.809999942779541,1.7899999618530273,1.7999999523162842,6128918,0.0,0
2020-11-04,1.7999999523162842,1.8200000524520874,1.7899999618530273,1.7999999523162842,3610891,0.0,0
2020-11-05,1.7999999523162842,1.809999942779541,1.7899999618530273,1.809999942779541,8833981,0.0,0
2020-11-06,1.809999942779541,1.8200000524520874,1.7899999618530273,1.8200000524520874,9430237,0.0,0
2020-11-09,1.8200000524520874,1.8200000524520874,1.7999999523162842,1.8200000524520874,9331529,0.0,0
2020-11-10,1.8200000524520874,1.8200000524520874,1.7999999523162842,1.8200000524520874,10336240,0.0,0
2020-11-11,1.809999942779541,1.8600000143051147,1.7999999523162842,1.850000023841858,5676480,0.0,0
2020-11-12,1.850000023841858,1.8899999856948853,1.850000023841858,1.8700000047683716,10186100,0.0,0
2020-11-13,1.8700000047683716,1.8899999856948853,1.8600000143051147,1.8700000047683716,2894642,0.0,0
2020-11-16,1.899999976158142,1.899999976158142,1.850000023841858,1.850000023841858,1701943,0.0,0
2020-11-17,1.850000023841858,1.8700000047683716,1.8300000429153442,1.8700000047683716,4443917,0.0,0
2020-11-18,1.8600000143051147,1.899999976158142,1.850000023841858,1.8600000143051147,8508817,0.0,0
2020-11-19,1.8600000143051147,1.8600000143051147,1.840000033378601,1.840000033378601,6941684,0.0,0
2020-11-20,1.850000023841858,1.8700000047683716,1.8300000429153442,1.8700000047683716,2546189,0.0,0
2020-11-23,1.8700000047683716,1.9500000476837158,1.850000023841858,1.9299999475479126,14036640,0.0,0
2020-11-24,1.9500000476837158,1.9600000381469727,1.9299999475479126,1.9299999475479126,3972034,0.0,0
2020-11-25,1.940000057220459,1.940000057220459,1.899999976158142,1.9199999570846558,4125770,0.0,0
2020-11-26,1.9299999475479126,1.9299999475479126,1.899999976158142,1.9199999570846558,1541498,0.0,0
2020-11-27,1.9199999570846558,1.9600000381469727,1.909999966621399,1.9500000476837158,5448860,0.0,0
2020-11-30,1.9500000476837158,1.9700000286102295,1.9299999475479126,1.9600000381469727,9508513,0.0,0
2020-12-01,1.9600000381469727,1.9900000095367432,1.9199999570846558,1.9800000190734863,7902332,0.0,0
2020-12-02,1.9900000095367432,2.049999952316284,1.9800000190734863,2.0,4061411,0.0,0
2020-12-03,2.0199999809265137,2.0199999809265137,1.9600000381469727,1.9600000381469727,2712928,0.0,0
2020-12-04,1.9900000095367432,1.9900000095367432,1.9299999475479126,1.9500000476837158,3603440,0.0,0
2020-12-07,1.9299999475479126,1.9600000381469727,1.8700000047683716,1.9299999475479126,4599611,0.0,0
