Date,Open,High,Low,Close,Volume,Dividends,Stock Splits
2020-01-02,16.072406800988283,16.151289707616172,14.987766364675574,15.086370468139648,2988206,0.0,0
2020-01-03,15.086370147625715,15.55966757733773,15.086370147625715,15.342740058898926,3145500,0.0,0
2020-01-06,15.06664861448788,15.480784326409683,15.00748690727527,15.382181167602539,1837100,0.0,0
2020-01-07,15.283577183222281,15.756874605911332,15.283577183222281,15.697712898254395,1945000,0.0,0
2020-01-08,15.28357700989111,16.072406038760075,15.28357700989111,15.717432975769043,2389456,0.0,0
2020-01-09,16.151289500912256,16.151289500912256,15.539947452549258,15.875200271606445,3198250,0.0,0
2020-01-10,15.737154982828653,16.309057468774466,15.737154982828653,16.171010971069336,3094500,0.0,0
2020-01-13,16.249893752711262,16.26961494947661,15.38218178292125,15.638550758361816,3116000,0.0,0
2020-01-14,15.776596078693304,16.309057099093273,15.57938881578132,15.993523597717285,2590000,0.0,0
2020-01-15,16.13157074819449,16.900678634643555,16.013245445277853,16.900678634643555,3208044,0.0,0
2020-01-16,16.97956008940334,17.038723676155136,16.742911384546332,16.959840774536133,1560504,0.0,0
2020-01-17,17.038725327416007,17.55146329727174,16.959842418152284,17.09788703918457,3231980,0.0,0
2020-01-20,17.097886675377467,17.472580016228232,16.585146835714852,16.703472137451172,1538994,0.0,0
2020-01-21,16.703471790208475,16.703471790208475,15.40190196139272,15.756875038146973,4035500,0.0,0
2020-01-22,15.75687414998109,16.230171558975126,15.461063739538996,16.190731048583984,1658000,0.0,0
2020-01-23,16.03296661376953,16.171011232993738,15.618830875380029,16.03296661376953,1303000,0.0,0
2020-01-24,15.67799221153409,16.03296623044297,15.480784945672724,15.638550758361816,586500,0.0,0
2020-01-29,15.283577058688167,15.283577058688167,14.475026831336764,14.61307144165039,3969500,0.0,0
2020-01-30,14.810279688274479,14.810279688274479,14.218656972441279,14.27781867980957,1994100,0.0,0
2020-01-31,14.672234593416814,14.672234593416814,14.041170406260955,14.336981773376465,1522000,0.0,0
2020-02-03,14.218657034741017,14.65251300532351,13.8045213199149,13.942566871643066,4277065,0.0,0
2020-02-04,13.942567270806947,14.790558980492841,13.765080262126341,14.770837783813477,3479000,0.0,0
2020-02-05,15.046929099539058,15.677992356115034,14.90888354198385,15.18497371673584,5367893,0.0,0
2020-02-06,15.38218183817345,15.38218183817345,15.007487561511757,15.086370468139648,1162010,0.0,0
2020-02-07,15.046928481726273,15.08636993364284,14.691954474118758,14.928604125976562,1987404,0.0,0
2020-02-10,14.790559000599497,15.184973531138786,14.790559000599497,14.98776626586914,7563000,0.0,0
2020-02-11,15.165253460147055,15.283577820755049,15.00748764600306,15.18497371673584,4994500,0.0,0
2020-02-12,15.224414952836387,16.03296614931425,15.224414952836387,15.756875038146973,3565996,0.0,0
2020-02-13,16.01324505912561,16.328776685005234,15.776596339715892,16.072406768798828,4397500,0.0,0
2020-02-14,16.34849788180192,16.62458899480501,15.914640955859017,16.072406768798828,2680000,0.0,0
2020-02-17,16.032965349147574,16.506262761198776,16.032965349147574,16.289335250854492,2480500,0.0,0
2020-02-18,16.15128922948362,16.15128922948362,15.53994719139446,15.796317100524902,4418946,0.0,0
2020-02-19,15.934362508302149,16.151290035756887,15.677992586373705,16.03296661376953,2572000,0.0,0
2020-02-20,15.855478247034029,16.289335145636922,15.835757051480096,16.190731048583984,1460500,0.0,0
2020-02-21,16.013245220756495,16.348498046816704,15.697713591692029,15.835758209228516,1531500,0.0,0
2020-02-24,15.658271384416617,16.11184854954505,15.579388480947184,15.816038131713867,2185000,0.0,0
2020-02-25,15.796317275163705,16.052687187128488,15.382181552869334,15.993523597717285,3400272,0.0,0
2020-02-26,15.677991524325593,15.954082624788109,15.61882981733961,15.717432975769043,3551961,0.0,0
2020-02-27,15.480785126530995,15.99352402376075,15.480785126530995,15.835758209228516,4152477,0.0,0
2020-02-28,15.658271955127162,15.776596314643983,15.480784945672724,15.638550758361816,11154000,0.0,0
2020-03-02,15.55966757733773,16.013244750990946,15.342740058898924,15.342740058898926,3391927,0.0,0
2020-03-03,15.382181384282255,15.638550353078857,14.849721310076399,15.027207374572754,3054800,0.0,0
2020-03-04,15.027207562226195,15.401901832510585,15.007487306084073,15.224414825439453,1985500,0.0,0
2020-03-05,15.263855960991409,15.579388515936163,15.106090153698224,15.48078441619873,4317500,0.0,0
2020-03-06,15.224414318160159,15.362459867988948,14.928603903375917,15.283576965332031,2719500,0.0,0
2020-03-09,14.790559136869598,14.830000590286915,14.317261695861815,14.317261695861816,1281000,0.0,0
2020-03-10,14.198935642094115,14.829999803655907,14.12005273944369,14.5144681930542,2374500,0.0,0
2020-03-11,14.65251294112281,14.65251294112281,14.139774069044638,14.27781867980957,1925500,0.0,0
2020-03-12,13.962287538302641,14.041170444366397,13.646755914047617,13.78480052947998,1951700,0.0,0
2020-03-13,12.621277013062109,13.567872812550728,12.128258387085921,13.370665550231934,5442800,0.0,0
2020-03-16,13.331224129960903,13.548151648856221,12.719880204758738,12.81848430633545,3358500,0.0,0
2020-03-17,12.719880015217756,13.173457183066674,12.424069595612348,12.62127685546875,4302702,0.0,0
2020-03-18,12.34518656306135,13.390385499590902,12.20714101242079,12.305744171142578,3935000,0.0,0
2020-03-19,12.305744894487992,12.680439176515845,11.063338627126456,11.240824699401855,7204500,0.0,0
2020-03-20,11.654959821840798,12.286023991043548,11.378869659221388,12.187419891357422,5383317,0.0,0
2020-03-23,11.536635849037234,12.128258586057981,11.359149780217745,11.812726020812988,2961599,0.0,0
2020-03-24,11.635239626962102,12.798762931407438,11.635239626962102,11.852168083190918,3760320,0.0,0
2020-03-25,12.108537394878633,13.745359110266328,12.029654488620798,13.015691757202148,3417500,0.0,0
2020-03-26,12.798763490075709,13.508710597585807,12.640997675153118,13.429827690124512,4659000,0.0,0
2020-03-27,13.627034365629985,13.80452136987159,13.252340101319035,13.607314109802246,2812000,0.0,0
2020-03-30,13.114295438081045,13.31150269737793,12.680438527269512,13.173457145690918,3387000,0.0,0
2020-03-31,13.252340249934306,13.548151613534825,12.226861545715332,12.384628295898438,10596500,0.0,0
2020-04-01,12.58183567464305,12.58183567464305,11.280265850824465,11.714122772216797,8114725,0.0,0
2020-04-02,11.45775257091019,11.81272563738557,11.2211038599266,11.41831111907959,3080000,0.0,0
2020-04-03,11.477473695471321,11.5366354026693,10.47171526952188,10.767526626586914,5575000,0.0,0
2020-04-06,10.767526702389084,10.885851057976412,10.471715343241572,10.649202346801758,3076000,0.0,0
2020-04-07,10.728085018498009,11.83244658711949,10.728085018498009,11.556356430053711,17500790,0.0,0
2020-04-08,11.51691514325805,11.753563852688682,11.142220883147024,11.536635398864746,8781500,0.0,0
2020-04-09,11.79300569897169,12.207141424515589,11.63523988740419,11.931051254272461,4117000,0.0,0
2020-04-14,12.06909559906134,12.46351105950995,11.536635526760351,11.852168083190918,5670000,0.0,0
2020-04-15,11.89161011152986,13.094574926286215,11.89161011152986,12.877647399902344,6176500,0.0,0
2020-04-16,12.857925681477548,13.074854139425154,12.32546560495771,12.936808586120605,4036098,0.0,0
2020-04-17,13.015691855724768,13.449548783785367,12.818484588587415,13.114295959472656,4633000,0.0,0
2020-04-20,13.232619554372732,13.449548005855766,13.193178103226577,13.311502456665039,3381000,0.0,0
2020-04-21,13.331224233883049,13.331224233883049,12.54239423619533,12.917088508605957,3655800,0.0,0
2020-04-22,12.897367575328856,12.995971679687498,12.522673295267811,12.9959716796875,5495000,0.0,0
2020-04-23,13.035412669821397,13.922845816058443,13.035412669821397,13.705917358398438,9906690,0.0,0
2020-04-24,13.705917827887744,13.765080478497385,12.719880547022195,12.779043197631836,4588000,0.0,0
2020-04-27,12.779042438438728,13.173456951209712,12.779042438438728,12.976249694824219,3328000,0.0,0
2020-04-28,13.035412765589173,13.13401592680748,12.562114394522723,12.81848430633545,2958500,0.0,0
2020-04-29,12.83820582680436,12.93680899051121,12.226861886173118,12.345187187194824,3154092,0.0,0
2020-05-04,12.128258361462343,12.542394081636061,11.970492551940621,12.167699813842773,2751592,0.0,0
2020-05-05,12.286024601695924,12.483231870511583,11.871888867003827,12.009934425354004,1842500,0.0,0
2020-05-06,12.069095869214818,12.345186979816358,11.753564246079815,11.931051254272461,5641000,0.0,0
2020-05-07,11.812726119305092,12.029654583402525,11.438032781807374,11.911330223083496,5835500,0.0,0
2020-05-08,12.009934027385567,12.522672909315853,11.635239758872695,12.384628295898438,6674500,0.0,0
2020-05-11,12.562114492449357,13.350944490137076,12.562114492449357,12.917088508605957,5877500,0.0,0
2020-05-12,12.818484229156018,13.212898752371306,12.719880128172997,12.936808586120605,2986685,0.0,0
2020-05-13,13.094574194335664,13.646755458716557,12.719879932855482,13.508709907531738,8581500,0.0,0
2020-05-14,13.607314620329365,13.784800690871604,13.193178888466761,13.548151969909668,5554000,0.0,0
2020-05-15,13.745358858098005,15.579388745842131,13.31150288163931,14.139774322509766,10931000,0.0,0
2020-05-18,14.139774245721492,14.37642295886835,13.725638527535292,14.258098602294922,4822000,0.0,0
2020-05-19,14.455305786041029,14.672234242112841,14.100332718216748,14.376422882080078,3091538,0.0,0
2020-05-20,14.455306414703413,14.84972189201972,14.297540599920262,14.632793426513672,3307500,0.0,0
2020-05-21,15.027207838103719,15.027207838103719,13.90312594697246,14.100333213806152,5666556,0.0,0
2020-05-22,13.705917643190567,14.396144482781889,13.508710377746654,14.001729011535645,4791166,0.0,0
2020-05-25,14.041169879869884,15.362459913855659,13.942566721433534,14.948324203491211,4601000,0.0,0
2020-05-26,15.184973443286808,15.184973443286808,14.613071907134344,14.88916301727295,2561500,0.0,0
2020-05-27,14.948324812815212,14.98776626586914,14.455306179461896,14.98776626586914,1934611,0.0,0
2020-05-28,14.948324278639541,15.125811281218963,14.080611402102258,14.829999923706055,3527876,0.0,0
2020-05-29,14.680000305175781,15.220000267028809,14.640000343322754,15.220000267028809,6358376,0.21,0
2020-06-01,15.260000228881836,15.979999542236328,15.260000228881836,15.479999542236328,4347315,0.0,0
2020-06-02,16.040000915527344,16.059999465942383,15.180000305175781,15.899999618530273,3168500,0.0,0
2020-06-03,15.880000114440918,15.880000114440918,15.260000228881836,15.739999771118164,2563000,0.0,0
2020-06-04,15.739999771118164,15.739999771118164,15.180000305175781,15.579999923706055,2524500,0.0,0
2020-06-05,15.420000076293945,15.760000228881836,15.34000015258789,15.5,1816000,0.0,0
2020-06-08,15.539999961853027,15.5600004196167,14.720000267028809,14.84000015258789,1919114,0.0,0
2020-06-09,14.859999656677246,15.5,14.899999618530273,15.15999984741211,1761000,0.0,0
2020-06-10,15.479999542236328,15.800000190734863,15.319999694824219,15.600000381469727,2010500,0.0,0
2020-06-11,15.5600004196167,15.680000305175781,15.140000343322754,15.279999732971191,1612638,0.0,0
2020-06-12,15.0,16.040000915527344,14.800000190734863,15.859999656677246,2588500,0.0,0
2020-06-15,16.0,16.0,14.140000343322754,14.420000076293945,6971015,0.0,0
2020-06-16,14.619999885559082,15.319999694824219,14.0,15.319999694824219,4610500,0.0,0
2020-06-17,15.479999542236328,15.5600004196167,14.460000038146973,14.979999542236328,4155561,0.0,0
2020-06-18,14.699999809265137,15.520000457763672,14.640000343322754,14.979999542236328,3263005,0.0,0
2020-06-19,15.0,15.15999984741211,14.600000381469727,14.899999618530273,2204940,0.0,0
2020-06-22,14.899999618530273,14.920000076293945,14.520000457763672,14.640000343322754,1848156,0.0,0
2020-06-23,14.800000190734863,14.800000190734863,14.260000228881836,14.300000190734863,1392080,0.0,0
2020-06-24,14.199999809265137,14.680000305175781,14.0,14.119999885559082,1475512,0.0,0
2020-06-26,14.4399995803833,14.4399995803833,14.020000457763672,14.180000305175781,1168500,0.0,0
2020-06-29,14.239999771118164,14.279999732971191,13.260000228881836,13.399999618530273,4395000,0.0,0
2020-06-30,13.5600004196167,14.119999885559082,13.399999618530273,14.020000457763672,3781800,0.0,0
2020-07-02,13.899999618530273,14.180000305175781,13.760000228881836,14.0,2606000,0.0,0
2020-07-03,14.319999694824219,14.5600004196167,13.579999923706055,13.699999809265137,10374601,0.0,0
2020-07-06,14.100000381469727,14.65999984741211,13.0,14.34000015258789,12130560,0.0,0
2020-07-07,14.4399995803833,14.9399995803833,14.020000457763672,14.619999885559082,6212022,0.0,0
2020-07-08,14.680000305175781,15.180000305175781,14.579999923706055,15.020000457763672,7450245,0.0,0
2020-07-09,15.119999885559082,15.9399995803833,14.779999732971191,15.699999809265137,6834000,0.0,0
2020-07-10,15.699999809265137,16.079999923706055,15.5,15.899999618530273,3517900,0.0,0
2020-07-13,16.0,17.860000610351562,15.899999618530273,17.540000915527344,11023500,0.0,0
2020-07-14,17.540000915527344,17.799999237060547,17.15999984741211,17.479999542236328,7341500,0.0,0
2020-07-15,17.68000030517578,18.260000228881836,17.520000457763672,18.020000457763672,6648500,0.0,0
2020-07-16,17.520000457763672,18.0,16.579999923706055,16.860000610351562,7840000,0.0,0
2020-07-17,16.8799991607666,18.65999984741211,16.8799991607666,18.520000457763672,7929500,0.0,0
2020-07-20,18.68000030517578,19.979999542236328,18.68000030517578,18.81999969482422,6542098,0.0,0
2020-07-21,18.940000534057617,19.65999984741211,18.760000228881836,19.139999389648438,3824050,0.0,0
2020-07-22,19.0,19.719999313354492,18.780000686645508,18.959999084472656,4905268,0.0,0
2020-07-23,19.360000610351562,20.299999237060547,19.15999984741211,19.940000534057617,4642000,0.0,0
2020-07-24,19.940000534057617,20.200000762939453,18.399999618530273,18.68000030517578,5182000,0.0,0
2020-07-27,19.100000381469727,19.579999923706055,18.520000457763672,19.0,1967373,0.0,0
2020-07-28,19.0,19.440000534057617,18.200000762939453,18.360000610351562,5589000,0.0,0
2020-07-29,18.059999465942383,18.979999542236328,17.739999771118164,17.940000534057617,4065500,0.0,0
2020-07-30,17.860000610351562,18.639999389648438,17.860000610351562,18.1200008392334,3383880,0.0,0
2020-07-31,18.15999984741211,18.700000762939453,18.0,18.200000762939453,2402837,0.0,0
2020-08-03,18.100000381469727,18.559999465942383,17.8799991607666,18.440000534057617,4161198,0.0,0
2020-08-04,18.440000534057617,19.360000610351562,18.420000076293945,19.15999984741211,1892000,0.0,0
2020-08-05,18.739999771118164,18.799999237060547,18.139999389648438,18.399999618530273,4303863,0.0,0
2020-08-06,18.360000610351562,18.6200008392334,17.239999771118164,17.719999313354492,5586475,0.0,0
2020-08-07,17.739999771118164,17.940000534057617,17.299999237060547,17.739999771118164,1913200,0.0,0
2020-08-10,17.700000762939453,18.360000610351562,17.639999389648438,18.34000015258789,3053252,0.0,0
2020-08-11,18.15999984741211,18.559999465942383,17.799999237060547,18.280000686645508,3961583,0.0,0
2020-08-12,17.600000381469727,18.360000610351562,17.459999084472656,17.860000610351562,733500,0.0,0
2020-08-13,17.700000762939453,18.260000228881836,17.600000381469727,18.059999465942383,1842693,0.0,0
2020-08-14,17.8799991607666,18.020000457763672,17.520000457763672,17.579999923706055,751157,0.0,0
2020-08-17,17.700000762939453,17.700000762939453,16.65999984741211,16.739999771118164,2105625,0.0,0
2020-08-18,16.739999771118164,17.520000457763672,16.579999923706055,17.420000076293945,4132540,0.0,0
2020-08-19,17.459999084472656,18.040000915527344,17.360000610351562,17.65999984741211,1953187,0.0,0
2020-08-20,17.600000381469727,17.600000381469727,16.81999969482422,17.299999237060547,4014360,0.0,0
2020-08-21,17.559999465942383,17.559999465942383,16.920000076293945,17.200000762939453,1922886,0.0,0
2020-08-24,17.200000762939453,17.799999237060547,16.600000381469727,17.059999465942383,4800600,0.0,0
2020-08-25,16.920000076293945,17.31999969482422,16.68000030517578,16.799999237060547,1843700,0.0,0
2020-08-26,17.31999969482422,17.579999923706055,16.739999771118164,17.020000457763672,1302042,0.0,0
2020-08-27,16.559999465942383,17.31999969482422,16.559999465942383,17.059999465942383,2744623,0.0,0
2020-08-28,17.5,17.5,16.780000686645508,17.399999618530273,1534377,0.0,0
2020-08-31,17.459999084472656,17.799999237060547,16.979999542236328,17.1200008392334,2744703,0.0,0
2020-09-01,17.200000762939453,18.600000381469727,17.020000457763672,18.420000076293945,6434000,0.0,0
2020-09-02,18.360000610351562,18.979999542236328,17.479999542236328,18.1200008392334,6220204,0.0,0
2020-09-03,17.959999084472656,18.420000076293945,17.100000381469727,17.479999542236328,5116300,0.0,0
2020-09-04,17.479999542236328,17.719999313354492,17.079999923706055,17.579999923706055,2103700,0.0,0
2020-09-07,17.540000915527344,17.8799991607666,17.219999313354492,17.420000076293945,2542245,0.0,0
2020-09-08,17.059999465942383,17.700000762939453,17.040000915527344,17.440000534057617,1834500,0.0,0
2020-09-09,17.139999389648438,17.239999771118164,16.959999084472656,17.15999984741211,1386000,0.0,0
2020-09-10,17.15999984741211,17.860000610351562,16.65999984741211,17.420000076293945,1866500,0.0,0
2020-09-11,17.260000228881836,17.6200008392334,17.059999465942383,17.440000534057617,3301000,0.0,0
2020-09-14,17.399999618530273,17.84000015258789,17.040000915527344,17.579999923706055,1055500,0.0,0
2020-09-15,17.579999923706055,18.219999313354492,17.579999923706055,17.920000076293945,2566500,0.0,0
2020-09-16,18.0,18.299999237060547,17.280000686645508,17.399999618530273,1985500,0.0,0
2020-09-17,17.299999237060547,17.479999542236328,16.920000076293945,17.3799991607666,2294074,0.0,0
2020-09-18,17.299999237060547,17.700000762939453,17.200000762939453,17.700000762939453,2582367,0.0,0
2020-09-21,17.700000762939453,18.18000030517578,17.040000915527344,17.940000534057617,4091500,0.0,0
2020-09-22,17.940000534057617,17.940000534057617,17.020000457763672,17.15999984741211,3113599,0.0,0
2020-09-23,17.239999771118164,17.420000076293945,17.079999923706055,17.280000686645508,809213,0.0,0
2020-09-24,17.3799991607666,17.3799991607666,16.719999313354492,16.920000076293945,2074500,0.0,0
2020-09-25,17.420000076293945,17.420000076293945,16.059999465942383,16.459999084472656,3474500,0.0,0
2020-09-28,16.600000381469727,16.799999237060547,16.459999084472656,16.65999984741211,3063000,0.0,0
2020-09-29,16.719999313354492,16.959999084472656,16.600000381469727,16.780000686645508,295000,0.0,0
2020-09-30,16.760000228881836,16.959999084472656,16.600000381469727,16.780000686645508,423000,0.0,0
2020-10-05,16.799999237060547,16.940000534057617,16.100000381469727,16.440000534057617,1160566,0.0,0
2020-10-06,16.219999313354492,16.81999969482422,16.219999313354492,16.799999237060547,334500,0.0,0
2020-10-07,16.899999618530273,16.979999542236328,16.299999237060547,16.68000030517578,785891,0.0,0
2020-10-08,16.440000534057617,16.459999084472656,16.1200008392334,16.360000610351562,613695,0.0,0
2020-10-09,16.700000762939453,16.700000762939453,15.520000457763672,15.65999984741211,4289487,0.0,0
2020-10-12,16.0,16.520000457763672,15.720000267028809,16.520000457763672,2391500,0.0,0
2020-10-14,16.799999237060547,16.959999084472656,16.1200008392334,16.899999618530273,2573397,0.0,0
2020-10-15,16.5,16.700000762939453,15.5,15.5600004196167,3305721,0.0,0
2020-10-16,15.539999961853027,15.779999732971191,14.859999656677246,15.279999732971191,3345982,0.0,0
2020-10-19,15.220000267028809,15.260000228881836,14.84000015258789,14.84000015258789,2757500,0.0,0
2020-10-20,14.84000015258789,15.5,14.84000015258789,15.359999656677246,903205,0.0,0
2020-10-21,15.279999732971191,15.300000190734863,14.699999809265137,15.239999771118164,2485442,0.0,0
2020-10-22,15.15999984741211,15.479999542236328,14.579999923706055,15.300000190734863,4275349,0.0,0
2020-10-23,15.359999656677246,15.460000038146973,14.819999694824219,15.140000343322754,3397500,0.0,0
2020-10-27,14.979999542236328,15.640000343322754,14.819999694824219,15.420000076293945,2897293,0.0,0
2020-10-28,15.5,15.800000190734863,15.199999809265137,15.34000015258789,1256160,0.0,0
2020-10-29,15.680000305175781,15.899999618530273,14.819999694824219,15.199999809265137,1605380,0.0,0
2020-10-30,14.819999694824219,15.319999694824219,14.739999771118164,14.899999618530273,1200495,0.0,0
2020-11-02,14.859999656677246,15.800000190734863,14.859999656677246,15.279999732971191,2020177,0.0,0
2020-11-03,15.260000228881836,15.739999771118164,15.079999923706055,15.34000015258789,882773,0.0,0
2020-11-04,15.319999694824219,15.600000381469727,15.100000381469727,15.359999656677246,401105,0.0,0
2020-11-05,15.619999885559082,16.34000015258789,15.260000228881836,16.239999771118164,2541500,0.0,0
2020-11-06,15.779999732971191,16.31999969482422,15.5600004196167,15.920000076293945,1702820,0.0,0
2020-11-09,15.979999542236328,15.979999542236328,14.979999542236328,15.600000381469727,7120720,0.0,0
2020-11-10,15.800000190734863,16.399999618530273,15.65999984741211,16.280000686645508,2087950,0.0,0
2020-11-11,15.640000343322754,16.399999618530273,15.420000076293945,15.65999984741211,2593151,0.0,0
2020-11-12,15.65999984741211,16.920000076293945,15.65999984741211,16.479999542236328,2707885,0.0,0
2020-11-13,16.100000381469727,16.739999771118164,16.059999465942383,16.68000030517578,1686761,0.0,0
2020-11-16,16.979999542236328,16.979999542236328,16.18000030517578,16.479999542236328,895000,0.0,0
2020-11-17,16.479999542236328,17.0,16.479999542236328,16.799999237060547,1163500,0.0,0
2020-11-18,16.8799991607666,16.8799991607666,16.280000686645508,16.459999084472656,911500,0.0,0
2020-11-19,16.420000076293945,16.700000762939453,16.079999923706055,16.15999984741211,1291000,0.0,0
2020-11-20,15.84000015258789,16.8799991607666,15.84000015258789,16.8799991607666,1660917,0.0,0
2020-11-23,16.8799991607666,17.239999771118164,16.68000030517578,17.059999465942383,1476647,0.0,0
2020-11-24,17.0,17.1200008392334,16.639999389648438,16.81999969482422,465070,0.0,0
2020-11-25,16.5,17.18000030517578,16.200000762939453,16.299999237060547,1110000,0.0,0
2020-11-26,16.520000457763672,16.899999618530273,16.260000228881836,16.65999984741211,1022000,0.0,0
2020-11-27,16.639999389648438,16.899999618530273,16.139999389648438,16.81999969482422,813413,0.0,0
2020-11-30,16.81999969482422,17.280000686645508,16.719999313354492,17.280000686645508,3598000,0.0,0
2020-12-01,17.280000686645508,17.860000610351562,16.899999618530273,17.31999969482422,2833500,0.0,0
2020-12-02,17.059999465942383,17.84000015258789,16.6200008392334,17.600000381469727,2835500,0.0,0
2020-12-03,17.540000915527344,17.979999542236328,17.31999969482422,17.399999618530273,1119602,0.0,0
2020-12-04,18.200000762939453,18.200000762939453,17.020000457763672,17.920000076293945,2535000,0.0,0
2020-12-07,17.579999923706055,17.899999618530273,17.239999771118164,17.540000915527344,2587000,0.0,0
