Date,Open,High,Low,Close,Volume,Dividends,Stock Splits
2020-01-02,9.33342862905973,9.382812038698075,9.264292420712165,9.284045219421387,3600824,0.0,0
2020-01-03,9.333428679247564,9.372935218788637,9.254415600165421,9.313675880432129,5912250,0.0,0
2020-01-06,9.343305460683897,9.363058259311332,9.165525563486025,9.254415512084961,3093446,0.0,0
2020-01-07,9.25441572441499,9.432195625691783,9.214909184343504,9.402565956115723,5033670,0.0,0
2020-01-08,9.343305468752082,9.550715035025307,9.28404518899822,9.481578826904297,6435007,0.0,0
2020-01-09,9.511208610356329,9.619851358984748,9.185279422560864,9.570467948913574,6588180,0.0,0
2020-01-10,9.501331625548788,9.501331625548788,9.343305468752082,9.481578826904297,4739380,0.0,0
2020-01-13,9.442072728498028,9.866767809238056,9.363058704500798,9.80750846862793,16943650,0.0,0
2020-01-14,9.768001927584432,9.817384397456127,9.609974821500211,9.80750846862793,6565932,0.0,0
2020-01-15,9.827261008882536,10.07417711936657,9.748247928880462,9.856890678405762,17835420,0.0,0
2020-01-16,9.758124605441777,9.935904502868652,9.698864325662754,9.935904502868652,9770291,0.0,0
2020-01-17,9.975411800132246,10.271710395812988,9.955658058068055,10.271710395812988,12379710,0.0,0
2020-01-20,10.27170982831404,10.27170982831404,9.600098647711722,9.629728317260742,13149460,0.0,0
2020-01-21,9.521085489064616,9.521085489064616,8.81984370279032,8.8889799118042,27919210,0.0,0
2020-01-22,9.03712919864217,9.422318667173387,8.888979910235657,9.343305587768555,15981610,0.0,0
2020-01-23,9.24453888885359,9.42231879080219,9.096389598503233,9.205032348632812,13296840,0.0,0
2020-01-24,9.185279428958886,9.36305838666466,9.17540255855573,9.343305587768555,5947529,0.0,0
2020-01-29,8.928486369916712,9.35318237434402,8.928486369916712,9.056882858276367,15265020,0.0,0
2020-01-30,9.06676052861971,9.27417011397736,8.81984440042776,8.938364028930664,6029540,0.0,0
2020-01-31,8.88898027838647,9.17540293856918,8.849473737047829,9.15565013885498,10851720,0.0,0
2020-02-03,9.047006750045442,9.48157966139407,8.967993664693015,9.39268970489502,18676610,0.0,0
2020-02-04,9.451948744044786,9.708741734138624,9.392689402890975,9.639605522155762,19884510,0.0,0
2020-02-05,9.590222361603118,10.074177742004395,9.560592690248622,10.074177742004395,24907450,0.0,0
2020-02-06,9.95565811467614,10.113684284447146,9.856891287614125,10.074177742004395,12004360,0.0,0
2020-02-07,10.034670289968197,10.113683367691555,9.768001388129413,9.876644134521484,13798440,0.0,0
2020-02-10,9.87664466582538,10.311216616681193,9.718618501877812,10.03467082977295,18792000,0.0,0
2020-02-11,10.07417766961472,10.172944495967029,9.82726154564421,10.014918327331543,15132050,0.0,0
2020-02-12,10.172944409976607,10.271710293583798,9.866768004400724,9.955657958984375,9793663,0.0,0
2020-02-13,9.87664467997649,9.935904962496853,9.68898884549744,9.80750846862793,14534510,0.0,0
2020-02-14,9.777878049817073,10.014918242676895,9.777878049817073,9.955657958984375,11867050,0.0,0
2020-02-17,9.975411415100098,10.054424496486575,9.876644592411887,9.975411415100098,8905510,0.0,0
2020-02-18,9.995163917541504,10.054424197775889,9.935904579217318,9.995163917541504,6763520,0.0,0
2020-02-19,9.87664445958982,10.133437441597605,9.837137919427867,10.113683700561523,8831702,0.0,0
2020-02-20,10.113683997826564,10.350723245765412,9.995164373857142,10.093931198120117,13946360,0.0,0
2020-02-21,10.113683694002962,10.647022456798542,9.876644453184975,10.568009376525879,27579110,0.0,0
2020-02-24,10.291463905335172,10.82480268418376,10.291463905335172,10.805048942565918,27160980,0.0,0
2020-02-25,10.60751644546,10.805049155988906,10.449490277036876,10.726036071777344,28168070,0.0,0
2020-02-26,10.528502836389547,10.706282737958146,10.350722934820949,10.568009376525879,13992300,0.0,0
2020-02-27,10.409983549660687,10.469243832719812,10.19269710099089,10.350723266601562,13691820,0.0,0
2020-02-28,10.054424623476669,10.074177423117657,9.659358269644262,9.837138175964355,26382210,0.0,0
2020-03-02,9.975411700851966,10.054424784501823,9.688989037143676,9.955657958984375,17716740,0.0,0
2020-03-03,10.113683581301647,10.251956941193072,9.777877522929762,9.79763126373291,19413520,0.0,0
2020-03-04,9.7284953002898,10.093931037179813,9.639605348252458,9.975411415100098,19801530,0.0,0
2020-03-05,10.113683621414973,10.568009300677101,10.093930822443683,10.508749961853027,24114120,0.0,0
2020-03-06,10.469243812254783,10.864309225509203,10.291463905335172,10.805048942565918,22465520,0.0,0
2020-03-09,10.60751634358044,10.805049052212148,10.330970551496046,10.40998363494873,19268040,0.0,0
2020-03-10,10.212450475370549,10.508749996189676,10.093930855424938,10.311216354370117,14505930,0.0,0
2020-03-11,10.370476598293664,11.061841516464533,10.370476598293664,10.963075637817383,23524480,0.0,0
2020-03-12,10.745789066667117,10.844554944109582,10.488996089878352,10.647022247314453,26839420,0.0,0
2020-03-13,10.034671224158108,10.449490391778921,9.688989212414281,10.330970764160156,29378700,0.0,0
2020-03-16,10.133438026623658,10.706283362998693,9.97541185685265,10.074177742004395,41760220,0.0,0
2020-03-17,9.93590445534338,10.409982923667185,9.609974330983029,9.67911148071289,24206070,0.0,0
2020-03-18,9.649482679406704,10.409983859522587,9.4025665528128,9.619852066040039,21060230,0.0,0
2020-03-19,9.521085443307218,10.29146343489303,9.284045264279875,9.995163917541504,26656210,0.0,0
2020-03-20,10.09393073781195,10.66677603182946,9.916150839009896,10.44948959350586,19520500,0.0,0
2020-03-23,9.91615103814088,10.449489803347074,9.91615103814088,10.370476722717285,14097100,0.0,0
2020-03-24,10.627269651361996,11.140854672828707,10.587763111249172,11.022335052490234,15589250,0.0,0
2020-03-25,11.160608246803877,11.200114786325422,10.192696615660715,10.44948959350586,23733590,0.0,0
2020-03-26,10.409983664206417,10.785296282616622,10.25195749685691,10.666776657104492,15637720,0.0,0
2020-03-27,10.765542155536954,11.259374381789295,10.726035615113176,11.081595420837402,25129040,0.0,0
2020-03-30,10.963075799566068,11.16060850168496,10.765542155536954,11.081595420837402,8172125,0.0,0
2020-03-31,11.061841428041195,11.35814094543457,10.864308730415676,11.35814094543457,22806890,0.0,0
2020-04-01,11.358141552318225,11.417401835727352,10.52850323605195,10.864309310913086,19301100,0.0,0
2020-04-02,10.963075430418918,11.200114664980036,10.706282455355945,11.042088508605957,15561960,0.0,0
2020-04-03,11.160608736349277,11.358141442621514,10.884062947568141,11.259374618530273,11187260,0.0,0
2020-04-06,11.437154398482996,11.59518056175091,11.180361412217518,11.397647857666016,13018590,0.0,0
2020-04-07,11.4569078536117,11.595180272061466,11.298880752381642,11.417401313781738,9826532,0.0,0
2020-04-08,11.35814103308169,11.634686811891429,11.259374212551679,11.417401313781738,16265510,0.0,0
2020-04-09,11.456908384055966,11.654441092351362,11.338387817168478,11.575428009033203,9534570,0.0,0
2020-04-14,11.654441220877922,12.168026268109827,11.496415052498874,12.148273468017578,23620650,0.0,0
2020-04-15,12.266792934477746,12.266792934477746,11.693947610612172,12.029753684997559,19632430,0.0,0
2020-04-16,11.83221933151283,11.990246430345168,11.654440375930514,11.753206253051758,16905840,0.0,0
2020-04-17,11.891480074399396,12.227286141891227,11.753206710752693,11.851973533630371,17278350,0.0,0
2020-04-20,11.79271370317038,12.108766983337324,11.71370061860621,11.950740814208984,11471010,0.0,0
2020-04-21,11.911234060257467,12.207532651152574,11.772960693772234,12.029753684997559,12517500,0.0,0
2020-04-22,11.950740702691837,12.424819205653039,11.87172761886497,12.345806121826172,20899980,0.0,0
2020-04-23,12.365559755505863,12.780377971011003,12.187779847496339,12.74087142944336,16373610,0.0,0
2020-04-24,12.721118610002332,12.918651317536012,12.306299453226476,12.484079360961914,12029350,0.0,0
2020-04-27,12.48407881071472,12.819883927765938,12.48407881071472,12.780377388000488,11664990,0.0,0
2020-04-28,12.839638339620642,12.91865142328087,12.70136497226011,12.800131797790527,10205350,0.0,0
2020-04-29,12.81988422562901,12.898898248905963,12.681611804192356,12.760624885559082,11655400,0.0,0
2020-05-04,12.424818918487299,12.484079200942938,12.207532472030268,12.365559577941895,20915390,0.0,0
2020-05-05,12.642105526988859,12.642105526988859,12.266792911719739,12.484079360961914,5788571,0.0,0
2020-05-06,12.424818794141306,12.54333841595622,11.950740306881649,12.049506187438965,17837100,0.0,0
2020-05-07,12.069260014898992,12.424818882883248,12.009999732613167,12.108766555786133,16377330,0.0,0
2020-05-08,12.18778001011234,12.345806178491387,12.01000009973078,12.148273468017578,14363630,0.0,0
2020-05-11,12.168025477139022,12.247038556192376,11.535920844712184,11.812466621398926,26233690,0.0,0
2020-05-12,11.851973533630371,12.069259978815126,11.69394737055427,11.851973533630371,17726760,0.0,0
2020-05-13,12.009999838681136,12.444572734187892,11.75320684969171,12.424818992614746,21517250,0.0,0
2020-05-14,12.2667929536133,12.44457286195589,12.14827332868832,12.286545753479004,13466930,0.0,0
2020-05-15,12.207531972120105,12.306298791531495,11.950739937088843,12.00999927520752,11426460,0.0,0
2020-05-18,12.0,12.300000190734863,11.880000114440918,12.140000343322754,13359010,0.15,0
2020-05-19,12.140000343322754,12.300000190734863,11.680000305175781,11.9399995803833,15094450,0.0,0
2020-05-20,12.199999809265137,12.319999694824219,11.9399995803833,12.039999961853027,12697360,0.0,0
2020-05-21,11.9399995803833,12.119999885559082,11.359999656677246,11.579999923706055,19941720,0.0,0
2020-05-22,11.4399995803833,11.600000381469727,11.119999885559082,11.319999694824219,13066030,0.0,0
2020-05-25,11.0600004196167,11.359999656677246,11.020000457763672,11.319999694824219,8134500,0.0,0
2020-05-26,11.260000228881836,11.579999923706055,11.15999984741211,11.34000015258789,7878500,0.0,0
2020-05-27,11.5600004196167,11.600000381469727,10.739999771118164,10.960000038146973,24246870,0.0,0
2020-05-28,10.979999542236328,11.359999656677246,10.9399995803833,11.359999656677246,15556350,0.0,0
2020-05-29,11.359999656677246,11.859999656677246,11.0,11.859999656677246,32331300,0.0,0
2020-06-01,11.899999618530273,11.960000038146973,11.359999656677246,11.460000038146973,24636490,0.0,0
2020-06-02,11.680000305175781,11.779999732971191,11.399999618530273,11.520000457763672,22926110,0.0,0
2020-06-03,11.619999885559082,11.65999984741211,11.15999984741211,11.34000015258789,22189330,0.0,0
2020-06-04,11.460000038146973,11.5,11.239999771118164,11.420000076293945,26136280,0.0,0
2020-06-05,11.479999542236328,11.5,11.020000457763672,11.220000267028809,16339430,0.0,0
2020-06-08,11.399999618530273,11.479999542236328,10.9399995803833,11.279999732971191,24018480,0.0,0
2020-06-09,11.279999732971191,11.479999542236328,11.199999809265137,11.239999771118164,13828250,0.0,0
2020-06-10,11.180000305175781,11.399999618530273,11.140000343322754,11.199999809265137,9004426,0.0,0
2020-06-11,11.300000190734863,11.300000190734863,11.0600004196167,11.199999809265137,10675410,0.0,0
2020-06-12,10.979999542236328,11.399999618530273,10.979999542236328,11.15999984741211,14758870,0.0,0
2020-06-15,11.220000267028809,11.739999771118164,11.220000267028809,11.640000343322754,23495520,0.0,0
2020-06-16,11.720000267028809,11.920000076293945,11.399999618530273,11.479999542236328,14421310,0.0,0
2020-06-17,11.4399995803833,11.460000038146973,11.239999771118164,11.460000038146973,7361692,0.0,0
2020-06-18,11.5,12.520000457763672,11.479999542236328,12.520000457763672,32660950,0.0,0
2020-06-19,12.300000190734863,12.979999542236328,12.300000190734863,12.979999542236328,23092864,0.0,0
2020-06-22,12.960000038146973,12.960000038146973,12.579999923706055,12.760000228881836,9106666,0.0,0
2020-06-23,12.739999771118164,13.180000305175781,12.600000381469727,13.100000381469727,13497210,0.0,0
2020-06-24,13.100000381469727,13.119999885559082,12.880000114440918,13.0,4695010,0.0,0
2020-06-26,13.180000305175781,13.34000015258789,12.9399995803833,13.020000457763672,7268942,0.0,0
2020-06-29,12.920000076293945,13.15999984741211,12.760000228881836,13.0600004196167,4775843,0.0,0
2020-06-30,13.0,13.399999618530273,12.979999542236328,13.239999771118164,10745400,0.0,0
2020-07-02,13.399999618530273,13.399999618530273,12.300000190734863,12.579999923706055,22982170,0.0,0
2020-07-03,12.800000190734863,12.859999656677246,12.100000381469727,12.300000190734863,22336117,0.0,0
2020-07-06,12.220000267028809,12.4399995803833,12.119999885559082,12.359999656677246,18327860,0.0,0
2020-07-07,12.460000038146973,12.600000381469727,12.140000343322754,12.239999771118164,12115630,0.0,0
2020-07-08,12.0,12.380000114440918,11.739999771118164,12.279999732971191,15997610,0.0,0
2020-07-09,12.279999732971191,12.380000114440918,11.819999694824219,11.9399995803833,35654850,0.0,0
2020-07-10,11.779999732971191,12.079999923706055,11.640000343322754,11.859999656677246,26286020,0.0,0
2020-07-13,11.920000076293945,12.359999656677246,11.899999618530273,12.039999961853027,14021960,0.0,0
2020-07-14,12.199999809265137,12.199999809265137,11.760000228881836,12.0,11813210,0.0,0
2020-07-15,12.100000381469727,12.100000381469727,11.760000228881836,11.960000038146973,10250720,0.0,0
2020-07-16,11.960000038146973,11.979999542236328,11.039999961853027,11.15999984741211,20370610,0.0,0
2020-07-17,11.039999961853027,11.359999656677246,11.039999961853027,11.319999694824219,7722396,0.0,0
2020-07-20,11.520000457763672,11.520000457763672,11.079999923706055,11.239999771118164,7306516,0.0,0
2020-07-21,11.279999732971191,11.399999618530273,11.0,11.399999618530273,14549590,0.0,0
2020-07-22,11.4399995803833,11.479999542236328,11.119999885559082,11.199999809265137,9993750,0.0,0
2020-07-23,11.300000190734863,11.319999694824219,11.140000343322754,11.199999809265137,10085710,0.0,0
2020-07-24,11.100000381469727,11.239999771118164,11.0,11.180000305175781,12871780,0.0,0
2020-07-27,11.239999771118164,11.279999732971191,10.779999732971191,11.079999923706055,11365810,0.0,0
2020-07-28,11.140000343322754,11.15999984741211,10.920000076293945,11.0,10914500,0.0,0
2020-07-29,11.0,11.119999885559082,10.640000343322754,10.899999618530273,18550920,0.0,0
2020-07-30,10.9399995803833,11.100000381469727,10.779999732971191,10.880000114440918,11643250,0.0,0
2020-07-31,11.0600004196167,11.079999923706055,10.699999809265137,10.760000228881836,9322752,0.0,0
2020-08-03,10.979999542236328,11.199999809265137,10.619999885559082,11.0,8540037,0.0,0
2020-08-04,11.279999732971191,11.279999732971191,10.779999732971191,10.9399995803833,11387210,0.0,0
2020-08-05,11.119999885559082,11.180000305175781,10.899999618530273,11.140000343322754,6981197,0.0,0
2020-08-06,11.239999771118164,11.260000228881836,11.079999923706055,11.199999809265137,7502753,0.0,0
2020-08-07,11.239999771118164,11.239999771118164,10.819999694824219,10.880000114440918,8229000,0.0,0
2020-08-10,11.0,11.0,10.460000038146973,10.5,13616510,0.0,0
2020-08-11,10.520000457763672,10.800000190734863,10.380000114440918,10.5600004196167,12978520,0.0,0
2020-08-12,10.5,10.640000343322754,10.239999771118164,10.5,11794210,0.0,0
2020-08-13,10.720000267028809,11.5,10.520000457763672,11.5,43974860,0.0,0
2020-08-14,11.899999618530273,11.899999618530273,10.760000228881836,11.180000305175781,52491760,0.0,0
2020-08-17,11.399999618530273,11.399999618530273,10.4399995803833,10.460000038146973,36332530,0.0,0
2020-08-18,10.720000267028809,10.800000190734863,10.420000076293945,10.65999984741211,22807040,0.0,0
2020-08-19,10.65999984741211,10.859999656677246,10.319999694824219,10.5600004196167,12049850,0.0,0
2020-08-20,10.5600004196167,10.619999885559082,10.239999771118164,10.359999656677246,10126110,0.0,0
2020-08-21,10.300000190734863,10.399999618530273,10.15999984741211,10.260000228881836,13760400,0.0,0
2020-08-24,10.279999732971191,10.460000038146973,10.0600004196167,10.319999694824219,14184960,0.0,0
2020-08-25,10.420000076293945,10.640000343322754,10.199999809265137,10.260000228881836,8846949,0.0,0
2020-08-26,10.300000190734863,10.640000343322754,10.199999809265137,10.460000038146973,11945550,0.0,0
2020-08-27,10.460000038146973,10.600000381469727,10.359999656677246,10.600000381469727,6057628,0.0,0
2020-08-28,10.479999542236328,10.760000228881836,10.359999656677246,10.579999923706055,13031000,0.0,0
2020-08-31,10.819999694824219,10.819999694824219,10.039999961853027,10.100000381469727,17906270,0.0,0
2020-09-01,10.100000381469727,10.359999656677246,10.039999961853027,10.0600004196167,11795050,0.0,0
2020-09-02,10.15999984741211,10.260000228881836,10.039999961853027,10.140000343322754,12389080,0.0,0
2020-09-03,10.039999961853027,10.140000343322754,9.600000381469727,9.720000267028809,34936300,0.0,0
2020-09-04,9.619999885559082,9.680000305175781,9.3100004196167,9.670000076293945,18944150,0.0,0
2020-09-07,9.600000381469727,9.600000381469727,9.180000305175781,9.3100004196167,18762240,0.0,0
2020-09-08,9.399999618530273,9.609999656677246,9.15999984741211,9.329999923706055,13369180,0.0,0
2020-09-09,9.3100004196167,9.3100004196167,9.039999961853027,9.229999542236328,12596810,0.0,0
2020-09-10,9.329999923706055,9.670000076293945,9.079999923706055,9.130000114440918,27014530,0.0,0
2020-09-11,9.1899995803833,9.279999732971191,9.100000381469727,9.229999542236328,19060850,0.0,0
2020-09-14,8.970000267028809,9.369999885559082,8.970000267028809,9.329999923706055,16173250,0.0,0
2020-09-15,9.479999542236328,9.5,9.229999542236328,9.300000190734863,11748170,0.0,0
2020-09-16,9.34000015258789,9.460000038146973,9.079999923706055,9.149999618530273,9087643,0.0,0
2020-09-17,9.25,9.260000228881836,9.0,9.069999694824219,11565130,0.0,0
2020-09-18,9.130000114440918,9.140000343322754,8.649999618530273,8.9399995803833,34428450,0.0,0
2020-09-21,9.029999732971191,9.039999961853027,8.819999694824219,8.880000114440918,14810980,0.0,0
2020-09-22,9.020000457763672,9.119999885559082,8.850000381469727,8.960000038146973,14246010,0.0,0
2020-09-23,9.100000381469727,9.100000381469727,8.819999694824219,8.960000038146973,8931805,0.0,0
2020-09-24,8.8100004196167,9.010000228881836,8.609999656677246,8.979999542236328,20424670,0.0,0
2020-09-25,9.119999885559082,9.119999885559082,8.859999656677246,8.9399995803833,8376500,0.0,0
2020-09-28,9.0,9.0,8.739999771118164,8.869999885559082,7369781,0.0,0
2020-09-29,9.0,9.0,8.289999961853027,8.369999885559082,36908490,0.0,0
2020-09-30,8.479999542236328,8.600000381469727,8.369999885559082,8.550000190734863,16822830,0.0,0
2020-10-05,8.680000305175781,8.680000305175781,8.3100004196167,8.569999694824219,8167405,0.0,0
2020-10-06,8.640000343322754,8.770000457763672,8.449999809265137,8.699999809265137,16260260,0.0,0
2020-10-07,8.649999618530273,8.680000305175781,7.570000171661377,7.730000019073486,65677000,0.0,0
2020-10-08,7.730000019073486,7.929999828338623,7.599999904632568,7.739999771118164,28529230,0.0,0
2020-10-09,7.730000019073486,8.029999732971191,7.730000019073486,7.989999771118164,22845600,0.0,0
2020-10-12,8.100000381469727,8.100000381469727,7.920000076293945,7.940000057220459,10993420,0.0,0
2020-10-14,8.180000305175781,8.199999809265137,7.980000019073486,8.119999885559082,24488870,0.0,0
2020-10-15,8.199999809265137,8.199999809265137,8.029999732971191,8.100000381469727,13003180,0.0,0
2020-10-16,8.050000190734863,8.0600004196167,7.829999923706055,7.929999828338623,21327340,0.0,0
2020-10-19,8.800000190734863,10.300000190734863,8.800000190734863,9.449999809265137,169939500,0.0,0
2020-10-20,9.420000076293945,9.420000076293945,8.720000267028809,8.880000114440918,122175200,0.0,0
2020-10-21,8.899999618530273,9.0,8.5,8.640000343322754,95881730,0.0,0
2020-10-22,8.630000114440918,8.680000305175781,8.350000381469727,8.460000038146973,43488400,0.0,0
2020-10-23,8.399999618530273,8.890000343322754,8.34000015258789,8.710000038146973,81723450,0.0,0
2020-10-27,8.720000267028809,8.859999656677246,8.6899995803833,8.779999732971191,25515590,0.0,0
2020-10-28,8.800000190734863,8.850000381469727,8.520000457763672,8.75,44536720,0.0,0
2020-10-29,8.649999618530273,8.670000076293945,8.5,8.529999732971191,13721850,0.0,0
2020-10-30,8.5,8.550000190734863,8.239999771118164,8.380000114440918,42565730,0.0,0
2020-11-02,8.40999984741211,8.489999771118164,8.3100004196167,8.369999885559082,24614950,0.0,0
2020-11-03,8.369999885559082,8.569999694824219,8.369999885559082,8.489999771118164,21391620,0.0,0
2020-11-04,8.34000015258789,8.430000305175781,8.300000190734863,8.390000343322754,20960880,0.0,0
2020-11-05,8.479999542236328,8.529999732971191,8.380000114440918,8.5,26580460,0.0,0
2020-11-06,8.600000381469727,8.670000076293945,8.430000305175781,8.5,16219550,0.0,0
2020-11-09,8.520000457763672,8.600000381469727,8.3100004196167,8.399999618530273,30943900,0.0,0
2020-11-10,8.399999618530273,8.430000305175781,8.25,8.380000114440918,25877770,0.0,0
2020-11-11,8.350000381469727,8.369999885559082,8.229999542236328,8.300000190734863,22535380,0.0,0
2020-11-12,8.25,8.359999656677246,8.220000267028809,8.239999771118164,19012100,0.0,0
2020-11-13,8.199999809265137,8.229999542236328,8.170000076293945,8.199999809265137,27569610,0.0,0
2020-11-16,8.260000228881836,8.270000457763672,8.140000343322754,8.140000343322754,29781680,0.0,0
2020-11-17,8.149999618530273,8.1899995803833,8.119999885559082,8.180000305175781,10071910,0.0,0
2020-11-18,8.149999618530273,8.180000305175781,8.100000381469727,8.100000381469727,24037370,0.0,0
2020-11-19,8.109999656677246,8.180000305175781,8.109999656677246,8.15999984741211,31074020,0.0,0
2020-11-20,8.180000305175781,8.300000190734863,8.170000076293945,8.270000457763672,17306830,0.0,0
2020-11-23,8.300000190734863,8.390000343322754,8.170000076293945,8.239999771118164,13071260,0.0,0
2020-11-24,8.239999771118164,8.40999984741211,8.170000076293945,8.350000381469727,18311060,0.0,0
2020-11-25,8.350000381469727,8.40999984741211,8.170000076293945,8.25,14834080,0.0,0
2020-11-26,8.25,8.289999961853027,8.180000305175781,8.25,6069075,0.0,0
2020-11-27,8.210000038146973,8.3100004196167,8.199999809265137,8.260000228881836,10412610,0.0,0
2020-11-30,8.270000457763672,8.300000190734863,8.119999885559082,8.140000343322754,54142670,0.0,0
2020-12-01,8.119999885559082,8.15999984741211,8.109999656677246,8.109999656677246,39756360,0.0,0
2020-12-02,8.100000381469727,8.180000305175781,8.100000381469727,8.119999885559082,31999560,0.0,0
2020-12-03,8.119999885559082,8.180000305175781,8.100000381469727,8.140000343322754,16070560,0.0,0
2020-12-04,8.140000343322754,8.140000343322754,8.069999694824219,8.130000114440918,17898660,0.0,0
2020-12-07,8.109999656677246,8.130000114440918,8.09000015258789,8.100000381469727,14779807,0.0,0
