Date,Open,High,Low,Close,Volume,Dividends,Stock Splits
2020-01-02,0.20399999618530273,0.20999999344348907,0.19599999487400055,0.20800000429153442,18024000,0,0
2020-01-03,0.20800000429153442,0.20900000631809235,0.20200000703334808,0.20900000631809235,6872000,0,0
2020-01-06,0.20600000023841858,0.20600000023841858,0.2029999941587448,0.20399999618530273,4016000,0,0
2020-01-07,0.20399999618530273,0.20499999821186066,0.20100000500679016,0.2029999941587448,6576000,0,0
2020-01-08,0.20100000500679016,0.20399999618530273,0.20100000500679016,0.20100000500679016,8032000,0,0
2020-01-09,0.20100000500679016,0.20399999618530273,0.20100000500679016,0.20200000703334808,1760000,0,0
2020-01-10,0.20100000500679016,0.20200000703334808,0.1979999989271164,0.20100000500679016,2652000,0,0
2020-01-13,0.19900000095367432,0.20200000703334808,0.19900000095367432,0.20100000500679016,2760000,0,0
2020-01-14,0.19900000095367432,0.20499999821186066,0.19900000095367432,0.19900000095367432,10320000,0,0
2020-01-15,0.19900000095367432,0.20000000298023224,0.19699999690055847,0.19900000095367432,2480000,0,0
2020-01-16,0.19900000095367432,0.20100000500679016,0.19499999284744263,0.19499999284744263,6856000,0,0
2020-01-17,0.19499999284744263,0.20200000703334808,0.1940000057220459,0.20000000298023224,5520000,0,0
2020-01-20,0.20000000298023224,0.2029999941587448,0.19699999690055847,0.2029999941587448,5212000,0,0
2020-01-21,0.2029999941587448,0.2029999941587448,0.1940000057220459,0.19599999487400055,4272000,0,0
2020-01-22,0.1899999976158142,0.20100000500679016,0.1899999976158142,0.20000000298023224,4656000,0,0
2020-01-23,0.20000000298023224,0.20100000500679016,0.19599999487400055,0.19599999487400055,5920000,0,0
2020-01-24,0.19699999690055847,0.20200000703334808,0.1940000057220459,0.20200000703334808,3784000,0,0
2020-01-29,0.19300000369548798,0.20000000298023224,0.19300000369548798,0.20000000298023224,4800000,0,0
2020-01-30,0.19900000095367432,0.19900000095367432,0.1899999976158142,0.19300000369548798,4928000,0,0
2020-01-31,0.1899999976158142,0.20800000429153442,0.1899999976158142,0.20800000429153442,12024000,0,0
2020-02-03,0.2070000022649765,0.2070000022649765,0.19200000166893005,0.1940000057220459,6792000,0,0
2020-02-04,0.19300000369548798,0.19599999487400055,0.19300000369548798,0.19599999487400055,1496000,0,0
2020-02-05,0.19300000369548798,0.19599999487400055,0.19200000166893005,0.1940000057220459,1216000,0,0
2020-02-06,0.19499999284744263,0.19699999690055847,0.19300000369548798,0.19499999284744263,2944000,0,0
2020-02-07,0.19300000369548798,0.1940000057220459,0.19099999964237213,0.19300000369548798,3336000,0,0
2020-02-10,0.1940000057220459,0.19499999284744263,0.19099999964237213,0.19499999284744263,3432000,0,0
2020-02-11,0.19099999964237213,0.1940000057220459,0.19099999964237213,0.1940000057220459,3568000,0,0
2020-02-12,0.19099999964237213,0.1940000057220459,0.19099999964237213,0.19099999964237213,6944000,0,0
2020-02-13,0.1940000057220459,0.19499999284744263,0.18799999356269836,0.19300000369548798,11656000,0,0
2020-02-14,0.19300000369548798,0.1940000057220459,0.1899999976158142,0.19300000369548798,2784000,0,0
2020-02-17,0.19099999964237213,0.19499999284744263,0.19099999964237213,0.19300000369548798,3472000,0,0
2020-02-18,0.19200000166893005,0.19300000369548798,0.19099999964237213,0.19200000166893005,2376000,0,0
2020-02-19,0.19200000166893005,0.1940000057220459,0.19099999964237213,0.19200000166893005,4360000,0,0
2020-02-20,0.19099999964237213,0.19499999284744263,0.1899999976158142,0.19499999284744263,56224000,0,0
2020-02-21,0.19099999964237213,0.19200000166893005,0.1899999976158142,0.19099999964237213,4912000,0,0
2020-02-24,0.18799999356269836,0.19200000166893005,0.18799999356269836,0.1899999976158142,2608000,0,0
2020-02-25,0.1899999976158142,0.19300000369548798,0.1889999955892563,0.1889999955892563,4912000,0,0
2020-02-26,0.1889999955892563,0.19200000166893005,0.1889999955892563,0.19099999964237213,2552000,0,0
2020-02-27,0.19099999964237213,0.19099999964237213,0.18799999356269836,0.19099999964237213,3744000,0,0
2020-02-28,0.1889999955892563,0.19099999964237213,0.18299999833106995,0.1899999976158142,14720000,0,0
2020-03-02,0.18799999356269836,0.1899999976158142,0.18700000643730164,0.1899999976158142,2464000,0,0
2020-03-03,0.1889999955892563,0.1899999976158142,0.18700000643730164,0.1889999955892563,4192000,0,0
2020-03-04,0.18700000643730164,0.1899999976158142,0.1860000044107437,0.1889999955892563,4254755,0,0
2020-03-05,0.18799999356269836,0.1889999955892563,0.1860000044107437,0.1889999955892563,2152000,0,0
2020-03-06,0.1860000044107437,0.18799999356269836,0.1850000023841858,0.18700000643730164,1536000,0,0
2020-03-09,0.18799999356269836,0.18799999356269836,0.17900000512599945,0.18199999630451202,11032000,0,0
2020-03-10,0.1770000010728836,0.1899999976158142,0.17399999499320984,0.1899999976158142,25752000,0,0
2020-03-11,0.18400000035762787,0.1899999976158142,0.18199999630451202,0.18799999356269836,21712000,0,0
2020-03-12,0.18299999833106995,0.19099999964237213,0.18000000715255737,0.1899999976158142,17290000,0,0
2020-03-13,0.1809999942779541,0.1850000023841858,0.17299999296665192,0.18000000715255737,24512000,0,0
2020-03-16,0.17599999904632568,0.17800000309944153,0.17399999499320984,0.17800000309944153,8288000,0,0
2020-03-17,0.17399999499320984,0.17800000309944153,0.17000000178813934,0.17800000309944153,18144000,0,0
2020-03-18,0.17900000512599945,0.18000000715255737,0.16500000655651093,0.17299999296665192,29832000,0,0
2020-03-19,0.17299999296665192,0.17499999701976776,0.1550000011920929,0.17100000381469727,28200000,0,0
2020-03-20,0.17499999701976776,0.17800000309944153,0.164000004529953,0.17100000381469727,18672000,0,0
2020-03-23,0.16099999845027924,0.16899999976158142,0.16099999845027924,0.1679999977350235,8048000,0,0
2020-03-24,0.1679999977350235,0.17000000178813934,0.16099999845027924,0.1679999977350235,19744000,0,0
2020-03-25,0.17000000178813934,0.17000000178813934,0.164000004529953,0.16599999368190765,16712000,0,0
2020-03-26,0.164000004529953,0.16699999570846558,0.1550000011920929,0.16699999570846558,27337290,0,0
2020-03-27,0.16699999570846558,0.16699999570846558,0.16200000047683716,0.16699999570846558,21648000,0,0
2020-03-30,0.1599999964237213,0.16599999368190765,0.1589999943971634,0.16500000655651093,23436000,0,0
2020-03-31,0.164000004529953,0.16500000655651093,0.1599999964237213,0.16300000250339508,21184000,0,0
2020-04-01,0.1599999964237213,0.16300000250339508,0.1550000011920929,0.16300000250339508,28728000,0,0
2020-04-02,0.16200000047683716,0.1679999977350235,0.1589999943971634,0.16699999570846558,34952000,0,0
2020-04-03,0.16500000655651093,0.17499999701976776,0.16200000047683716,0.1720000058412552,16456000,0,0
2020-04-06,0.1720000058412552,0.1720000058412552,0.16500000655651093,0.16699999570846558,13568000,0,0
2020-04-07,0.16699999570846558,0.1679999977350235,0.16300000250339508,0.16300000250339508,32792000,0,0
2020-04-08,0.16300000250339508,0.16699999570846558,0.16300000250339508,0.164000004529953,6096000,0,0
2020-04-09,0.164000004529953,0.16599999368190765,0.16200000047683716,0.16500000655651093,6436000,0,0
2020-04-14,0.16500000655651093,0.16500000655651093,0.15700000524520874,0.15700000524520874,13120000,0,0
2020-04-15,0.15700000524520874,0.1599999964237213,0.15700000524520874,0.15800000727176666,8832000,0,0
2020-04-16,0.15700000524520874,0.15700000524520874,0.15399999916553497,0.15700000524520874,11680000,0,0
2020-04-17,0.1550000011920929,0.15800000727176666,0.1469999998807907,0.15399999916553497,30552000,0,0
2020-04-20,0.15299999713897705,0.15399999916553497,0.15000000596046448,0.15399999916553497,13624000,0,0
2020-04-21,0.15000000596046448,0.15299999713897705,0.14900000393390656,0.15199999511241913,19192000,0,0
2020-04-22,0.1469999998807907,0.15199999511241913,0.1469999998807907,0.1509999930858612,7130400,0,0
2020-04-23,0.14900000393390656,0.15399999916553497,0.14800000190734863,0.15199999511241913,10938000,0,0
2020-04-24,0.14900000393390656,0.15299999713897705,0.14900000393390656,0.15000000596046448,5760000,0,0
2020-04-27,0.15199999511241913,0.15299999713897705,0.14900000393390656,0.15199999511241913,4152000,0,0
2020-04-28,0.14900000393390656,0.15299999713897705,0.14900000393390656,0.15299999713897705,14248000,0,0
2020-04-29,0.15199999511241913,0.1599999964237213,0.15000000596046448,0.1589999943971634,13080000,0,0
2020-05-04,0.1589999943971634,0.1599999964237213,0.15299999713897705,0.1599999964237213,6120000,0,0
2020-05-05,0.1589999943971634,0.16200000047683716,0.15700000524520874,0.1589999943971634,3192000,0,0
2020-05-06,0.1550000011920929,0.15800000727176666,0.1550000011920929,0.1550000011920929,8928000,0,0
2020-05-07,0.15399999916553497,0.1589999943971634,0.15199999511241913,0.1589999943971634,7788000,0,0
2020-05-08,0.1550000011920929,0.15700000524520874,0.15399999916553497,0.1550000011920929,4408000,0,0
2020-05-11,0.1550000011920929,0.15600000321865082,0.15199999511241913,0.15199999511241913,8056000,0,0
2020-05-12,0.15000000596046448,0.15199999511241913,0.14900000393390656,0.14900000393390656,3368000,0,0
2020-05-13,0.14900000393390656,0.14900000393390656,0.1379999965429306,0.1420000046491623,22168000,0,0
2020-05-14,0.1379999965429306,0.15000000596046448,0.1340000033378601,0.14000000059604645,21864000,0,0
2020-05-15,0.1379999965429306,0.14800000190734863,0.13699999451637268,0.14000000059604645,11608000,0,0
2020-05-18,0.13699999451637268,0.14100000262260437,0.13500000536441803,0.13699999451637268,10320000,0,0
2020-05-19,0.13600000739097595,0.13699999451637268,0.13300000131130219,0.13699999451637268,7040000,0,0
2020-05-20,0.13600000739097595,0.1379999965429306,0.13300000131130219,0.13600000739097595,63216000,0,0
2020-05-21,0.13300000131130219,0.13600000739097595,0.1289999932050705,0.13300000131130219,31056000,0,0
2020-05-22,0.12999999523162842,0.1340000033378601,0.10700000077486038,0.1120000034570694,40624000,0,0
2020-05-25,0.12600000202655792,0.12600000202655792,0.10000000149011612,0.10499999672174454,56584000,0,0
2020-05-26,0.10400000214576721,0.1289999932050705,0.09700000286102295,0.125,240488000,0,0
2020-05-27,0.125,0.12600000202655792,0.06599999964237213,0.07900000363588333,1094071000,0,0
2020-05-28,0.08100000023841858,0.0989999994635582,0.07999999821186066,0.09000000357627869,595924500,0,0
2020-05-29,0.09099999815225601,0.0949999988079071,0.08100000023841858,0.08799999952316284,113038000,0,0
2020-06-01,0.08900000154972076,0.09200000017881393,0.08299999684095383,0.0860000029206276,30208000,0,0
2020-06-02,0.0949999988079071,0.0989999994635582,0.0820000022649765,0.08399999886751175,87860000,0,0
2020-06-03,0.08399999886751175,0.08500000089406967,0.07800000160932541,0.08100000023841858,76112000,0,0
2020-06-04,0.08100000023841858,0.08299999684095383,0.07599999755620956,0.07999999821186066,45112000,0,0
2020-06-05,0.07999999821186066,0.08500000089406967,0.07599999755620956,0.08100000023841858,44776000,0,0
2020-06-08,0.08100000023841858,0.0949999988079071,0.07999999821186066,0.0860000029206276,40928000,0,0
2020-06-09,0.08699999749660492,0.08900000154972076,0.08500000089406967,0.08500000089406967,12246000,0,0
2020-06-10,0.08500000089406967,0.08799999952316284,0.08500000089406967,0.0860000029206276,12408000,0,0
2020-06-11,0.08799999952316284,0.09200000017881393,0.08500000089406967,0.08799999952316284,70176000,0,0
2020-06-12,0.0860000029206276,0.09300000220537186,0.08500000089406967,0.09000000357627869,35008000,0,0
2020-06-15,0.09000000357627869,0.09000000357627869,0.08699999749660492,0.08799999952316284,24840000,0,0
2020-06-16,0.09000000357627869,0.09000000357627869,0.08699999749660492,0.08900000154972076,27568000,0,0
2020-06-17,0.08900000154972076,0.08900000154972076,0.08699999749660492,0.08699999749660492,7184000,0,0
2020-06-18,0.0860000029206276,0.08699999749660492,0.0860000029206276,0.0860000029206276,2992000,0,0
2020-06-19,0.0860000029206276,0.08900000154972076,0.08500000089406967,0.0860000029206276,19255425,0,0
2020-06-22,0.0860000029206276,0.09000000357627869,0.08500000089406967,0.08900000154972076,10744000,0,0
2020-06-23,0.08900000154972076,0.09000000357627869,0.08799999952316284,0.09000000357627869,10120000,0,0
2020-06-24,0.09000000357627869,0.09000000357627869,0.08799999952316284,0.09000000357627869,34712000,0,0
2020-06-26,0.08900000154972076,0.09700000286102295,0.08799999952316284,0.09600000083446503,46888000,0,0
2020-06-29,0.0949999988079071,0.10499999672174454,0.09399999678134918,0.10300000011920929,61000000,0,0
2020-06-30,0.10599999874830246,0.11900000274181366,0.0989999994635582,0.11299999803304672,96440000,0,0
2020-07-02,0.11299999803304672,0.14800000190734863,0.10700000077486038,0.12800000607967377,153289700,0,0
2020-07-03,0.13199999928474426,0.15299999713897705,0.1289999932050705,0.15000000596046448,91540000,0,0
2020-07-06,0.1589999943971634,0.1979999989271164,0.1550000011920929,0.1889999955892563,232468000,0,0
2020-07-07,0.1979999989271164,0.20999999344348907,0.17100000381469727,0.17499999701976776,163528000,0,0
2020-07-08,0.17499999701976776,0.1809999942779541,0.1599999964237213,0.16899999976158142,77584000,0,0
2020-07-09,0.16899999976158142,0.1770000010728836,0.16699999570846558,0.1679999977350235,40276000,0,0
2020-07-10,0.1679999977350235,0.17599999904632568,0.16500000655651093,0.17100000381469727,30952000,0,0
2020-07-13,0.17100000381469727,0.17100000381469727,0.16500000655651093,0.16599999368190765,25706000,0,0
2020-07-14,0.16599999368190765,0.16599999368190765,0.14399999380111694,0.14800000190734863,29900000,0,0
2020-07-15,0.1509999930858612,0.15299999713897705,0.13600000739097595,0.1469999998807907,29080000,0,0
2020-07-16,0.14800000190734863,0.14800000190734863,0.13500000536441803,0.14000000059604645,17688000,0,0
2020-07-17,0.14000000059604645,0.14300000667572021,0.13899999856948853,0.14300000667572021,8568000,0,0
2020-07-20,0.14300000667572021,0.1720000058412552,0.14100000262260437,0.15299999713897705,45400000,0,0
2020-07-21,0.15600000321865082,0.17499999701976776,0.1550000011920929,0.16899999976158142,46808000,0,0
2020-07-22,0.16300000250339508,0.17499999701976776,0.16200000047683716,0.1679999977350235,24904000,0,0
2020-07-23,0.16899999976158142,0.17000000178813934,0.164000004529953,0.1679999977350235,12960000,0,0
2020-07-24,0.1679999977350235,0.16899999976158142,0.1589999943971634,0.164000004529953,35632000,0,0
2020-07-27,0.1679999977350235,0.17100000381469727,0.16099999845027924,0.16699999570846558,20936000,0,0
2020-07-28,0.16599999368190765,0.1679999977350235,0.1550000011920929,0.15600000321865082,29320000,0,0
2020-07-29,0.15600000321865082,0.15800000727176666,0.15399999916553497,0.15700000524520874,8432000,0,0
2020-07-30,0.15700000524520874,0.15800000727176666,0.14399999380111694,0.1469999998807907,12864000,0,0
2020-07-31,0.14800000190734863,0.1509999930858612,0.14100000262260437,0.14499999582767487,13226000,0,0
2020-08-03,0.14000000059604645,0.15000000596046448,0.14000000059604645,0.14900000393390656,21048000,0,0
2020-08-04,0.1459999978542328,0.15700000524520874,0.1459999978542328,0.15199999511241913,31936000,0,0
2020-08-05,0.14800000190734863,0.14900000393390656,0.14399999380111694,0.1459999978542328,18336000,0,0
2020-08-06,0.1459999978542328,0.1469999998807907,0.14100000262260437,0.14300000667572021,12992000,0,0
2020-08-07,0.14300000667572021,0.14300000667572021,0.13600000739097595,0.14300000667572021,6384000,0,0
2020-08-10,0.13899999856948853,0.14300000667572021,0.13600000739097595,0.14300000667572021,10016000,0,0
2020-08-11,0.14100000262260437,0.1459999978542328,0.13699999451637268,0.14100000262260437,23608000,0,0
2020-08-12,0.1379999965429306,0.1379999965429306,0.13300000131130219,0.13500000536441803,17016000,0,0
2020-08-13,0.13699999451637268,0.13699999451637268,0.1289999932050705,0.13300000131130219,9128000,0,0
2020-08-14,0.13600000739097595,0.1459999978542328,0.13099999725818634,0.14499999582767487,18008000,0,0
2020-08-17,0.1469999998807907,0.16099999845027924,0.1459999978542328,0.1550000011920929,58104000,0,0
2020-08-18,0.1550000011920929,0.1550000011920929,0.14800000190734863,0.15199999511241913,14104000,0,0
2020-08-19,0.15299999713897705,0.1589999943971634,0.14800000190734863,0.15700000524520874,18280000,0,0
2020-08-20,0.1550000011920929,0.1550000011920929,0.15000000596046448,0.15199999511241913,7520000,0,0
2020-08-21,0.15299999713897705,0.15299999713897705,0.15000000596046448,0.1509999930858612,8856000,0,0
2020-08-24,0.15000000596046448,0.1509999930858612,0.14499999582767487,0.1469999998807907,16160000,0,0
2020-08-25,0.1469999998807907,0.15000000596046448,0.13699999451637268,0.13699999451637268,17472000,0,0
2020-08-26,0.13600000739097595,0.1420000046491623,0.13600000739097595,0.13699999451637268,5416000,0,0
2020-08-27,0.13899999856948853,0.13899999856948853,0.13300000131130219,0.13500000536441803,5024000,0,0
2020-08-28,0.1379999965429306,0.1379999965429306,0.13300000131130219,0.1340000033378601,5368000,0,0
2020-08-31,0.1340000033378601,0.13600000739097595,0.12600000202655792,0.12600000202655792,28416000,0,0
2020-09-01,0.125,0.1340000033378601,0.12399999797344208,0.13300000131130219,6264000,0,0
2020-09-02,0.13300000131130219,0.13600000739097595,0.12999999523162842,0.13300000131130219,17888000,0,0
2020-09-03,0.13199999928474426,0.13600000739097595,0.12999999523162842,0.13300000131130219,14272000,0,0
2020-09-04,0.13099999725818634,0.13899999856948853,0.12999999523162842,0.13699999451637268,11296000,0,0
2020-09-07,0.13500000536441803,0.14000000059604645,0.13099999725818634,0.13199999928474426,4800000,0,0
2020-09-08,0.1340000033378601,0.13699999451637268,0.13099999725818634,0.13600000739097595,9816000,0,0
2020-09-09,0.13500000536441803,0.1379999965429306,0.1340000033378601,0.13500000536441803,6624000,0,0
2020-09-10,0.13500000536441803,0.1379999965429306,0.1340000033378601,0.13600000739097595,5784000,0,0
2020-09-11,0.13500000536441803,0.14300000667572021,0.13500000536441803,0.13600000739097595,12736000,0,0
2020-09-14,0.13500000536441803,0.1379999965429306,0.13300000131130219,0.13600000739097595,6280000,0,0
2020-09-15,0.1340000033378601,0.13600000739097595,0.1340000033378601,0.1340000033378601,11088000,0,0
2020-09-16,0.13500000536441803,0.13600000739097595,0.1289999932050705,0.1340000033378601,15696000,0,0
2020-09-17,0.13500000536441803,0.13500000536441803,0.13099999725818634,0.13300000131130219,8880000,0,0
2020-09-18,0.1340000033378601,0.13899999856948853,0.13099999725818634,0.13099999725818634,111897400,0,0
2020-09-21,0.1340000033378601,0.1340000033378601,0.12300000339746475,0.12700000405311584,55375690,0,0
2020-09-22,0.1289999932050705,0.1289999932050705,0.12300000339746475,0.12300000339746475,7928000,0,0
2020-09-23,0.125,0.125,0.11999999731779099,0.12300000339746475,16128000,0,0
2020-09-24,0.11999999731779099,0.12399999797344208,0.11900000274181366,0.11999999731779099,13784000,0,0
2020-09-25,0.12300000339746475,0.12300000339746475,0.11900000274181366,0.11999999731779099,11760000,0,0
2020-09-28,0.11999999731779099,0.12300000339746475,0.11900000274181366,0.11999999731779099,8276000,0,0
2020-09-29,0.11999999731779099,0.12800000607967377,0.11999999731779099,0.12099999934434891,22864000,0,0
2020-09-30,0.11999999731779099,0.12300000339746475,0.11999999731779099,0.12099999934434891,6424000,0,0
2020-10-05,0.11999999731779099,0.12099999934434891,0.11599999666213989,0.11699999868869781,26664000,0,0
2020-10-06,0.11699999868869781,0.12399999797344208,0.11699999868869781,0.12099999934434891,22016000,0,0
2020-10-07,0.11999999731779099,0.12099999934434891,0.11800000071525574,0.11999999731779099,7160000,0,0
2020-10-08,0.11999999731779099,0.12099999934434891,0.11900000274181366,0.11999999731779099,5640000,0,0
2020-10-09,0.11999999731779099,0.11999999731779099,0.11900000274181366,0.11999999731779099,2768000,0,0
2020-10-12,0.11999999731779099,0.11999999731779099,0.11699999868869781,0.11800000071525574,55288000,0,0
2020-10-14,0.11999999731779099,0.12099999934434891,0.11800000071525574,0.11900000274181366,51680000,0,0
2020-10-15,0.11999999731779099,0.125,0.11900000274181366,0.12300000339746475,17640000,0,0
2020-10-16,0.12200000137090683,0.13500000536441803,0.12200000137090683,0.1340000033378601,39344000,0,0
2020-10-19,0.13199999928474426,0.13500000536441803,0.12999999523162842,0.13300000131130219,26104000,0,0
2020-10-20,0.13099999725818634,0.13099999725818634,0.1289999932050705,0.1289999932050705,6856000,0,0
2020-10-21,0.1289999932050705,0.12999999523162842,0.12700000405311584,0.1289999932050705,14912000,0,0
2020-10-22,0.12999999523162842,0.12999999523162842,0.12700000405311584,0.1289999932050705,4374000,0,0
2020-10-23,0.12999999523162842,0.13099999725818634,0.12700000405311584,0.12999999523162842,13760000,0,0
2020-10-27,0.1289999932050705,0.12999999523162842,0.12700000405311584,0.1289999932050705,6064000,0,0
2020-10-28,0.12999999523162842,0.1379999965429306,0.12800000607967377,0.13099999725818634,30976000,0,0
2020-10-29,0.12999999523162842,0.12999999523162842,0.11999999731779099,0.12399999797344208,63968000,0,0
2020-10-30,0.12399999797344208,0.12399999797344208,0.11999999731779099,0.12399999797344208,15368000,0,0
2020-11-02,0.12300000339746475,0.125,0.12200000137090683,0.12399999797344208,4704000,0,0
2020-11-03,0.12399999797344208,0.13199999928474426,0.12300000339746475,0.125,22576000,0,0
2020-11-04,0.125,0.12600000202655792,0.12399999797344208,0.12600000202655792,9640000,0,0
2020-11-05,0.125,0.12800000607967377,0.12300000339746475,0.125,14592000,0,0
2020-11-06,0.125,0.12600000202655792,0.12399999797344208,0.12399999797344208,4112000,0,0
2020-11-09,0.125,0.12600000202655792,0.12399999797344208,0.12600000202655792,6464000,0,0
2020-11-10,0.125,0.125,0.12200000137090683,0.12200000137090683,10816000,0,0
2020-11-11,0.125,0.13199999928474426,0.12200000137090683,0.12999999523162842,48704000,0,0
2020-11-12,0.12700000405311584,0.13199999928474426,0.12700000405311584,0.12800000607967377,7424000,0,0
2020-11-13,0.12700000405311584,0.1289999932050705,0.125,0.12600000202655792,7768000,0,0
2020-11-16,0.12600000202655792,0.12700000405311584,0.12399999797344208,0.12600000202655792,5792000,0,0
2020-11-17,0.125,0.13199999928474426,0.125,0.1289999932050705,25264000,0,0
2020-11-18,0.12700000405311584,0.12999999523162842,0.12600000202655792,0.12600000202655792,6984000,0,0
2020-11-19,0.12600000202655792,0.12800000607967377,0.125,0.12600000202655792,13784000,0,0
2020-11-20,0.12700000405311584,0.12700000405311584,0.125,0.125,10760000,0,0
2020-11-23,0.125,0.12999999523162842,0.12399999797344208,0.1289999932050705,9712000,0,0
2020-11-24,0.12800000607967377,0.14000000059604645,0.12800000607967377,0.13500000536441803,44224000,0,0
2020-11-25,0.13300000131130219,0.13699999451637268,0.1289999932050705,0.12999999523162842,18928000,0,0
2020-11-26,0.12800000607967377,0.13099999725818634,0.12800000607967377,0.13099999725818634,6160000,0,0
2020-11-27,0.12800000607967377,0.13099999725818634,0.12800000607967377,0.12999999523162842,5824000,0,0
2020-11-30,0.12999999523162842,0.14100000262260437,0.1289999932050705,0.14100000262260437,66264000,0,0
2020-12-01,0.13899999856948853,0.14300000667572021,0.13600000739097595,0.13899999856948853,5573120,0,0
2020-12-02,0.13699999451637268,0.13899999856948853,0.13600000739097595,0.13699999451637268,4296000,0,0
2020-12-03,0.13600000739097595,0.14000000059604645,0.1340000033378601,0.13699999451637268,10520000,0,0
2020-12-04,0.13500000536441803,0.13899999856948853,0.13500000536441803,0.13699999451637268,8896000,0,0
2020-12-07,0.13600000739097595,0.13699999451637268,0.13500000536441803,0.13500000536441803,5712000,0,0
