Date,Open,High,Low,Close,Volume,Dividends,Stock Splits
2020-01-02,23.199745959222227,23.479822658655806,23.153065322193815,23.386463165283203,646000,0.0,0
2020-01-03,23.526504118576284,23.573182976553166,23.153066132024048,23.24642562866211,1523748,0.0,0
2020-01-06,23.339782596298473,23.433142082820485,22.872986944372503,23.013025283813477,1788551,0.0,0
2020-01-07,23.106387190230645,23.106387190230645,22.779629843524873,22.919668197631836,1330184,0.0,0
2020-01-08,22.826309389920578,22.87298824549485,22.4995520588481,22.77962875366211,2136375,0.0,0
2020-01-09,22.826309389920578,22.966347737327585,22.4995520588481,22.77962875366211,1574583,0.0,0
2020-01-10,22.639589118409518,23.106384770335488,22.639589118409518,23.013025283813477,1656098,0.0,0
2020-01-13,23.10638677597046,23.433144116818003,23.059707918999777,23.339784622192383,859271,0.0,0
2020-01-14,23.339783812077844,23.526502794848145,23.293104956727365,23.479822158813477,1451459,0.0,0
2020-01-15,23.526504118576284,23.526504118576284,22.96634891943222,23.24642562866211,7708586,0.0,0
2020-01-16,23.29310526712094,23.573181964324377,22.91966729660407,23.433143615722656,4069859,0.0,0
2020-01-17,23.433144206111358,23.89993990033396,23.386463568278543,23.666542053222656,2594960,0.0,0
2020-01-20,23.85325976991006,24.086657621986223,23.47982356272506,23.573183059692383,1381101,0.0,0
2020-01-21,23.433144255012294,23.47982311225826,22.639591217041016,22.639591217041016,2805803,0.0,0
2020-01-22,22.499553092886202,22.82631043897585,22.12611688907701,22.266155242919922,3605724,0.0,0
2020-01-23,22.21947423741587,22.266154875048457,21.61264019366624,21.659320831298828,2991669,0.0,0
2020-01-24,21.846037723894025,21.892718360851635,21.612639881158653,21.70599937438965,633630,0.0,0
2020-01-29,20.53900909423828,20.86576641323799,20.212251775238574,20.53900909423828,3863311,0.0,0
2020-01-30,20.725730314375618,20.912447530668643,20.445651818909592,20.492332458496094,3585900,0.0,0
2020-01-31,20.165573717783317,20.86576723728493,20.165573717783317,20.398971557617188,3803170,0.0,0
2020-02-03,20.118892669677734,20.212252159837544,19.745456489722663,20.118892669677734,3011655,0.0,0
2020-02-04,19.978854428177304,20.585688446330384,19.978854428177304,20.445650100708008,2012066,0.0,0
2020-02-05,20.725729678456116,20.725729678456116,20.07221498977125,20.585689544677734,2228978,0.0,0
2020-02-06,20.86576862165212,21.052485837496697,20.53901126806871,20.819087982177734,1908904,0.0,0
2020-02-07,20.81908638695166,21.05248422438692,20.67904804062734,20.77240753173828,1405137,0.0,0
2020-02-10,20.539010188514073,20.81908688790194,20.39897183882014,20.679048538208008,1030238,0.0,0
2020-02-11,20.81908589048417,20.959126014153174,20.58568805861469,20.865766525268555,1412510,0.0,0
2020-02-12,20.81908589048417,21.145843211238276,20.679047547499312,20.865766525268555,1717138,0.0,0
2020-02-13,20.959126306172777,21.285881850795366,20.959126306172777,21.145843505859375,1327637,0.0,0
2020-02-14,21.33256388327909,22.919668197631836,21.239204386979686,22.919668197631836,18432080,0.0,0
2020-02-17,22.59291126371823,22.59291126371823,22.079434955502162,22.49955177307129,5765620,0.0,0
2020-02-18,22.312833695131708,22.312833695131708,21.93939749810925,21.98607635498047,2030500,0.0,0
2020-02-19,22.17279474062923,22.17279474062923,21.565960714390954,21.75267791748047,2430933,0.0,0
2020-02-20,21.939396928794814,21.986075784454737,21.28588226545065,21.425922393798828,2695432,0.0,0
2020-02-21,21.612638355378863,21.612638355378863,21.099163849884313,21.28588104248047,2160757,0.0,0
2020-02-24,21.285883179068378,21.56596166710187,20.7724086220334,20.912446975708008,1846351,0.0,0
2020-02-25,20.7724086220334,21.00580647171917,20.632370268358795,20.912446975708008,2109856,0.0,0
2020-02-26,20.865768201877543,21.612640611599023,20.772408705491287,21.23920440673828,5722980,0.0,0
2020-02-27,20.95912800955744,21.47260257628176,20.91244737032885,21.19252586364746,2412765,0.0,0
2020-02-28,20.725729175228803,20.9591270182801,20.492331332177507,20.679048538208008,7548197,0.0,0
2020-03-02,20.865768118044564,21.00580647171917,20.352291780325306,20.912446975708008,2554438,0.0,0
2020-03-03,21.28588358073602,21.706000430371777,21.099166365874588,21.19252586364746,1511855,0.0,0
2020-03-04,21.09916524559599,21.565960928991107,20.63236956220088,21.379241943359375,1411709,0.0,0
2020-03-05,21.4726020281172,21.70599987624891,21.33256367537503,21.612640380859375,1022169,0.0,0
2020-03-06,21.28588104248047,21.425921162782707,21.0524832162222,21.28588104248047,1238175,0.0,0
2020-03-09,20.912444961410344,20.912444961410344,20.16557262662873,20.25893211364746,2775633,0.0,0
2020-03-10,20.305612065546796,20.72572888952145,19.885495241572148,20.398971557617188,2364015,0.0,0
2020-03-11,20.25893327874288,21.332562989492654,20.25893327874288,21.0524845123291,2978922,0.0,0
2020-03-12,20.725728572636935,20.725728572636935,20.305611755085632,20.445650100708008,2207527,0.0,0
2020-03-13,18.429093501200704,19.652097702026367,18.429093501200704,19.652097702026367,5039113,0.0,0
2020-03-16,19.46538013488247,19.46538013488247,18.503780396852562,18.559795379638672,3463064,0.0,0
2020-03-17,18.559795934695416,19.512059573959053,18.335734216165896,19.278661727905273,4400361,0.0,0
2020-03-18,18.811866109792145,20.072214839576848,18.447766038335065,18.46643829345703,4677505,0.0,0
2020-03-19,18.205031916746698,19.045263802921234,17.15940878725813,17.327455520629883,3865228,0.0,0
2020-03-20,17.570188694272595,17.75690767412524,17.140737533569336,17.140737533569336,8626583,0.0,0
2020-03-23,16.393865052189426,16.67394355028308,16.001756579405786,16.431209564208984,2921328,0.0,0
2020-03-24,16.860658906253107,17.364799078734325,16.860658906253107,17.084720611572266,2662977,0.0,0
2020-03-25,17.308784498057424,18.01831235764272,17.308784498057424,17.85026741027832,3296794,0.0,0
2020-03-26,17.551517475300162,18.186359907419764,17.45815976055197,18.093000411987305,2788276,0.0,0
2020-03-27,18.354405667927615,18.522452394641192,17.94362497825933,18.33573341369629,1904967,0.0,0
2020-03-30,17.94362637553185,18.03698587327422,17.57019016524669,17.887611389160156,1763967,0.0,0
2020-03-31,18.111671758986805,19.091943740844727,18.01831226823593,19.091943740844727,3326239,0.0,0
2020-04-01,18.95190379874617,19.5120589680166,18.85854608777126,19.045263290405273,1952801,0.0,0
2020-04-02,19.045262418227757,19.605417561845893,18.485107274609625,19.558738708496094,2507542,0.0,0
2020-04-03,19.745456591426663,19.745456591426663,19.091943718310244,19.418699264526367,1759738,0.0,0
2020-04-06,19.465380587430502,20.3989719654302,19.23198274293058,19.97885513305664,1872764,0.0,0
2020-04-07,20.398971557617188,20.819086600907635,19.79213753018596,20.398971557617188,2242812,0.0,0
2020-04-08,20.398970953033626,20.445649807343255,20.07221363081378,20.165573120117188,1196787,0.0,0
2020-04-09,20.352291018579844,20.95912682959762,20.352291018579844,20.72572898864746,1394856,0.0,0
2020-04-14,20.959128119916567,21.145845335761145,20.67904962512322,20.819087982177734,1351805,0.0,0
2020-04-15,20.819087112054493,21.239203946343782,20.165574212885232,20.305612564086914,2214914,0.0,0
2020-04-16,19.978855635812522,20.212253486185762,19.698778927638347,19.885496139526367,2657448,0.0,0
2020-04-17,20.445649605854918,20.772406924854625,20.212251775238574,20.53900909423828,2141356,0.0,0
2020-04-20,20.212253069724376,20.53901040965113,19.97885522416016,20.305612564086914,1294500,0.0,0
2020-04-21,20.305611861670595,20.305611861670595,19.605418349199198,19.74545669555664,2640464,0.0,0
2020-04-22,19.37202051170873,19.838816186689662,19.138622674218265,19.74545669555664,2981066,0.0,0
2020-04-23,19.838816186689662,20.02553516895571,19.185301529442683,19.74545669555664,4295685,0.0,0
2020-04-24,19.418698587078477,19.65209641519569,18.95190293084405,19.558738708496094,1874598,0.0,0
2020-04-27,19.32534333775343,20.072215770425768,19.32534333775343,19.792139053344727,1765299,0.0,0
2020-04-28,19.79213653661331,19.79213653661331,19.418698587078477,19.558738708496094,1887275,0.0,0
2020-04-29,19.698778927638347,20.165574628384828,19.55874057355126,19.885496139526367,2213697,0.0,0
2020-05-04,19.23198227372348,19.418699476357496,18.718505959940508,19.045263290405273,2775820,0.0,0
2020-05-05,19.09194293757355,19.46537910418098,18.90522396392778,19.23198127746582,2239354,0.0,0
2020-05-06,19.605420312216115,20.44565225517422,19.605420312216115,20.072216033935547,3159333,0.0,0
2020-05-07,20.025534666669625,20.258932498305942,19.698777346241954,19.838815689086914,1623150,0.0,0
2020-05-08,20.072214409092002,20.539010093024373,19.932176060049134,20.352291107177734,1081375,0.0,0
2020-05-11,20.44565041331028,21.052484440741505,20.35229092123989,20.398971557617188,1239245,0.0,0
2020-05-12,20.258932498305942,20.539009183995866,19.838815689086914,19.838815689086914,1907382,0.0,0
2020-05-13,19.652097611233614,20.11889329587749,19.372020912720973,20.025535583496094,1328784,0.0,0
2020-05-14,19.605419662793533,19.698779160181793,19.231983453924805,19.512060165405273,1384370,0.0,0
2020-05-15,19.512058755167047,20.118892773305213,19.372020409548114,19.418699264526367,1329344,0.0,0
2020-05-18,19.51205935212307,19.978855038923548,19.32534214581342,19.652097702026367,1274000,0.0,0
2020-05-19,19.652097204423615,20.352290716895016,19.652097204423615,19.74545669555664,1469500,0.0,0
2020-05-20,19.932177411885245,20.072215770425768,19.698779554089597,19.792139053344727,609908,0.0,0
2020-05-21,20.165575269680897,20.21225412896629,19.745458413374994,19.792139053344727,1029896,0.0,0
2020-05-22,19.372020808082567,19.6054186491438,18.485108299776186,18.615812301635742,3891226,0.0,0
2020-05-25,18.919703713749612,19.017733644498836,17.253202370074412,18.93931007385254,2953850,0.95,0
2020-05-26,19.174580367413324,19.70394086004956,18.664828104217584,19.40985107421875,2235533,0.0,0
2020-05-27,19.488275393428466,19.801971551011324,18.9981276012724,19.1353702545166,2249702,0.0,0
2020-05-28,19.56669803300519,19.56669803300519,18.272708222535872,18.80206871032715,2682359,0.0,0
2020-05-29,18.507978677994803,19.154975444283586,17.939407348632816,17.939407348632812,6610504,0.0,0
2020-06-01,18.292315199858788,19.94901523789223,18.272708839700897,19.703941345214844,3346497,0.0,0
2020-06-02,19.5078808089937,20.537192244525983,19.5078808089937,20.488176345825195,2189678,0.0,0
2020-06-03,20.48817675572009,20.78226654451243,19.998028977498244,20.14507293701172,1646500,0.0,0
2020-06-04,20.48817691840061,20.63522087908165,19.89999920591106,20.24310302734375,1912189,0.0,0
2020-06-05,20.341131543867107,20.63521944478799,19.94901371938417,20.53719139099121,2611408,0.0,0
2020-06-08,20.782265962909268,20.97832394685198,20.19408827155045,20.390146255493164,2341358,0.0,0
2020-06-09,20.586206756944236,21.027340506784913,20.439162796919142,20.78226661682129,3020722,0.0,0
2020-06-10,20.92930968037827,21.223397587831748,20.537191847185195,20.831279754638672,1916480,0.0,0
2020-06-11,20.83127952203518,20.92930944668017,19.75295409047089,20.096057891845703,2662754,0.0,0
2020-06-12,19.605911128873846,20.292118766290585,19.01773342105455,20.14507293701172,1958793,0.0,0
2020-06-15,20.047043864405858,20.6352196727452,19.850984015115877,20.096057891845703,2777530,0.0,0
2020-06-16,20.390147148366424,21.02734076593728,20.292119086985142,20.34113311767578,1716500,0.0,0
2020-06-17,20.39014586182446,20.929309514229402,20.194087881667002,20.73324966430664,1832231,0.0,0
2020-06-18,20.880293449531386,21.027339270677682,20.488175622593598,20.63521957397461,1751925,0.0,0
2020-06-19,20.635219573974606,21.3214271734397,20.145071822861052,20.63521957397461,17981969,0.0,0
2020-06-22,20.635220465480025,20.68423636456819,20.292118520689698,20.586206436157227,1430500,0.0,0
2020-06-23,20.488176055236114,20.537191953241695,19.998028293772258,20.292118072509766,1902242,0.0,0
2020-06-24,20.43916318768124,20.53719311949393,19.80197143554688,19.801971435546875,1260171,0.0,0
2020-06-26,19.703941023396673,19.89999901247718,19.331427665542556,19.50788116455078,2270577,0.0,0
2020-06-29,19.605911071712423,19.605911071712423,19.03733972542338,19.25300407409668,1368267,0.0,0
2020-06-30,19.44906411442498,19.605911254882812,19.03733990328183,19.605911254882812,2313116,0.0,0
2020-07-02,19.311822618010858,19.99802836463254,19.311822618010858,19.752954483032227,1791527,0.0,0
2020-07-03,19.605910528025102,19.949014336218607,19.605910528025102,19.752954483032227,810149,0.0,0
2020-07-06,19.85098477772304,20.733250393890987,19.85098477772304,20.586206436157227,1594783,0.0,0
2020-07-07,20.73325051746423,20.78226641684454,20.04704475402832,20.04704475402832,1890629,0.0,0
2020-07-08,20.439162099419235,20.488176127833167,19.54709331997532,19.752954483032227,1582031,0.0,0
2020-07-09,19.99802941339859,20.145073376117207,19.42945805305862,19.547094345092773,2130443,0.0,0
2020-07-10,19.409850289096074,21.076353398765008,18.91970253563642,20.096057891845703,4274500,0.0,0
2020-07-13,20.047044095806342,20.047044095806342,19.409850513141514,19.654924392700195,1353806,0.0,0
2020-07-14,19.586305211605865,20.19408929303222,19.1549765032547,19.801971435546875,3216340,0.0,0
2020-07-15,20.096059036254882,20.14507306648593,19.331427824198908,19.605911254882812,1589182,0.0,0
2020-07-16,19.7529544269706,19.7529544269706,18.939309217157412,19.11576271057129,2156000,0.0,0
2020-07-17,19.213792963255226,19.33142738101909,18.7824624020019,19.31182289123535,1311811,0.0,0
2020-07-20,19.311822457130294,19.703940290471124,18.93930911313252,19.654924392700195,1686534,0.0,0
2020-07-21,19.390245662103545,19.40985015108091,18.82167434692383,18.821674346923828,4638738,0.0,0
2020-07-22,18.998127123484633,19.115763413340424,18.72364556343011,18.841279983520508,1233935,0.0,0
2020-07-23,18.625615612896734,18.782462752687266,18.39034490321094,18.586402893066406,1548344,0.0,0
2020-07-24,18.62561530035895,18.62561530035895,18.017831241545217,18.135467529296875,1338398,0.0,0
2020-07-27,18.233498024998138,18.311921596018465,18.017831802368164,18.017831802368164,1257780,0.0,0
2020-07-28,18.017831378880654,18.311921165618728,17.74334982164357,17.978620529174805,1485524,0.0,0
2020-07-29,17.939406923207656,18.076649564809575,17.64531902076764,17.900196075439453,2495280,0.0,0
2020-07-30,17.99822704962946,18.155074189384216,17.782560830142625,18.076650619506836,1255804,0.0,0
2020-07-31,18.29231496922828,18.29231496922828,17.860984400020005,18.076650619506836,1087793,0.0,0
2020-08-03,18.076651056446927,18.664828779627108,18.076651056446927,18.370738983154297,1347000,0.0,0
2020-08-04,18.527584962816576,18.919702797049116,18.488374114275985,18.606008529663086,1629498,0.0,0
2020-08-05,18.860886803647254,18.998127587023077,18.547192516065124,18.8804931640625,1278298,0.0,0
2020-08-06,18.743250576229613,18.80206778204743,18.3511308847368,18.468767166137695,1019000,0.0,0
2020-08-07,18.429556194542684,18.586403338088672,18.17468098860453,18.370738983154297,1026425,0.0,0
2020-08-10,18.42955461530331,18.802067951628228,18.233496637553866,18.566797256469727,1196750,0.0,0
2020-08-11,18.566798423465986,18.978522633313162,18.566798423465986,18.841279983520508,1343811,0.0,0
2020-08-12,18.84127903080855,19.507880276831994,18.84127903080855,19.42945671081543,1949663,0.0,0
2020-08-13,19.37063943523151,19.37063943523151,18.919702529907227,18.919702529907227,834173,0.0,0
2020-08-14,18.91970269476974,19.272609678553877,18.91970269476974,19.017732620239258,1081500,0.0,0
2020-08-17,19.311822593051627,19.429457008999158,19.115762740118637,19.37063980102539,1657122,0.0,0
2020-08-18,19.370640826008525,19.507881608464416,19.194187322984995,19.292217254638672,825500,0.0,0
2020-08-19,19.27260928502798,19.409850056023807,19.0961557967389,19.2333984375,705665,0.0,0
2020-08-20,19.174580218387014,19.233399296955252,18.90009866412999,19.05694580078125,970100,0.0,0
2020-08-21,19.233399025831496,19.566697784193053,19.076550021625906,19.37063980102539,2447928,0.0,0
2020-08-24,19.46867047442356,19.703941185110306,19.253004253969994,19.605911254882812,1648755,0.0,0
2020-08-25,19.75295475041256,19.75295475041256,19.33142736919168,19.56669807434082,1587510,0.0,0
2020-08-26,19.605910364694587,19.654924392700195,19.33142694647335,19.654924392700195,1032629,0.0,0
2020-08-27,19.654924363920195,19.654924363920195,19.21379250321969,19.27260971069336,2063339,0.0,0
2020-08-28,19.488273786635688,19.703939994052732,19.351033014472325,19.5863037109375,1764197,0.0,0
2020-08-31,19.850984409625415,20.24310224623285,19.54709331997532,19.752954483032227,2144411,0.0,0
2020-09-01,19.998029429406834,19.998029429406834,19.331428136799033,19.801971435546875,2472116,0.0,0
2020-09-02,19.507880762340694,19.998028529584253,19.507880762340694,19.850984573364258,1731420,0.0,0
2020-09-03,20.09605948334715,20.243103447077093,19.65492572239189,19.899999618530273,2563251,0.0,0
2020-09-04,19.979999542236328,20.399999618530273,19.860000610351562,20.25,4015690,0.4,0
2020-09-07,20.5,20.850000381469727,20.049999237060547,20.600000381469727,2681645,0.0,0
2020-09-08,20.850000381469727,21.049999237060547,20.649999618530273,20.850000381469727,2009842,0.0,0
2020-09-09,20.649999618530273,21.299999237060547,20.5,20.5,1569983,0.0,0
2020-09-10,20.899999618530273,21.0,20.5,20.5,1552222,0.0,0
2020-09-11,20.5,20.799999237060547,20.25,20.700000762939453,1711467,0.0,0
2020-09-14,20.549999237060547,20.950000762939453,20.549999237060547,20.75,1832715,0.0,0
2020-09-15,20.75,21.049999237060547,20.75,20.850000381469727,1022068,0.0,0
2020-09-16,20.899999618530273,21.049999237060547,20.649999618530273,20.799999237060547,1604000,0.0,0
2020-09-17,21.049999237060547,21.049999237060547,20.5,20.649999618530273,1791854,0.0,0
2020-09-18,20.649999618530273,20.649999618530273,20.399999618530273,20.649999618530273,1855061,0.0,0
2020-09-21,20.700000762939453,20.799999237060547,20.350000381469727,20.399999618530273,914371,0.0,0
2020-09-22,20.399999618530273,20.399999618530273,20.0,20.299999237060547,1636486,0.0,0
2020-09-23,20.450000762939453,20.450000762939453,19.899999618530273,20.149999618530273,1443942,0.0,0
2020-09-24,19.899999618530273,19.899999618530273,19.540000915527344,19.81999969482422,2868589,0.0,0
2020-09-25,19.760000228881836,19.899999618530273,19.639999389648438,19.739999771118164,1858459,0.0,0
2020-09-28,19.799999237060547,19.860000610351562,19.440000534057617,19.81999969482422,1838997,0.0,0
2020-09-29,19.899999618530273,19.899999618530273,19.600000381469727,19.700000762939453,1146979,0.0,0
2020-09-30,19.860000610351562,20.049999237060547,19.739999771118164,19.780000686645508,2331911,0.0,0
2020-10-05,19.979999542236328,20.149999618530273,19.84000015258789,19.84000015258789,1162169,0.0,0
2020-10-06,20.0,20.25,19.959999084472656,20.0,1096823,0.0,0
2020-10-07,20.0,20.25,20.0,20.049999237060547,556412,0.0,0
2020-10-08,20.25,20.25,20.0,20.049999237060547,1414662,0.0,0
2020-10-09,20.0,20.149999618530273,19.719999313354492,19.760000228881836,1846007,0.0,0
2020-10-12,20.0,20.25,19.719999313354492,19.780000686645508,2711500,0.0,0
2020-10-14,20.0,20.049999237060547,19.799999237060547,20.049999237060547,1890178,0.0,0
2020-10-15,20.0,20.0,19.5,19.6200008392334,2164867,0.0,0
2020-10-16,19.68000030517578,19.719999313354492,19.639999389648438,19.639999389648438,1086808,0.0,0
2020-10-19,19.639999389648438,19.8799991607666,19.639999389648438,19.739999771118164,1651000,0.0,0
2020-10-20,19.600000381469727,19.899999618530273,19.600000381469727,19.700000762939453,1832046,0.0,0
2020-10-21,19.860000610351562,19.860000610351562,19.579999923706055,19.579999923706055,1867184,0.0,0
2020-10-22,19.520000457763672,19.760000228881836,19.399999618530273,19.579999923706055,942065,0.0,0
2020-10-23,19.579999923706055,19.760000228881836,19.459999084472656,19.639999389648438,2324978,0.0,0
2020-10-27,19.639999389648438,19.700000762939453,19.299999237060547,19.559999465942383,2210230,0.0,0
2020-10-28,19.420000076293945,19.479999542236328,18.719999313354492,19.200000762939453,2969374,0.0,0
2020-10-29,18.899999618530273,19.31999969482422,18.899999618530273,19.280000686645508,1404290,0.0,0
2020-10-30,19.260000228881836,19.260000228881836,18.920000076293945,18.959999084472656,1593130,0.0,0
2020-11-02,19.079999923706055,19.200000762939453,18.8799991607666,19.200000762939453,1573543,0.0,0
2020-11-03,19.040000915527344,19.639999389648438,19.040000915527344,19.3799991607666,1291360,0.0,0
2020-11-04,19.399999618530273,21.700000762939453,19.31999969482422,20.0,2320012,0.0,0
2020-11-05,20.25,20.299999237060547,19.84000015258789,20.0,2529379,0.0,0
2020-11-06,20.0,20.25,19.84000015258789,20.049999237060547,2725688,0.0,0
2020-11-09,20.25,20.25,19.68000030517578,19.719999313354492,2844972,0.0,0
2020-11-10,20.25,21.5,20.200000762939453,21.149999618530273,4687237,0.0,0
2020-11-11,21.0,21.399999618530273,20.350000381469727,21.350000381469727,6221311,0.0,0
2020-11-12,21.450000762939453,21.450000762939453,20.950000762939453,21.149999618530273,1710465,0.0,0
2020-11-13,20.950000762939453,20.950000762939453,20.200000762939453,20.799999237060547,2704450,0.0,0
2020-11-16,20.899999618530273,20.899999618530273,20.149999618530273,20.299999237060547,3633478,0.0,0
2020-11-17,20.399999618530273,20.850000381469727,20.299999237060547,20.649999618530273,3095109,0.0,0
2020-11-18,20.5,21.450000762939453,20.5,20.899999618530273,4368668,0.0,0
2020-11-19,20.899999618530273,21.299999237060547,20.649999618530273,20.75,2612701,0.0,0
2020-11-20,20.5,20.899999618530273,20.350000381469727,20.600000381469727,4772737,0.0,0
2020-11-23,20.600000381469727,20.950000762939453,20.350000381469727,20.899999618530273,3707117,0.0,0
2020-11-24,20.899999618530273,21.25,20.149999618530273,20.399999618530273,6161914,0.0,0
2020-11-25,20.600000381469727,21.200000762939453,20.450000762939453,20.549999237060547,7275762,0.0,0
2020-11-26,20.5,20.5,19.799999237060547,20.049999237060547,8353641,0.0,0
2020-11-27,19.799999237060547,20.100000381469727,19.3799991607666,20.0,7796392,0.0,0
2020-11-30,19.899999618530273,20.200000762939453,19.219999313354492,19.84000015258789,55444730,0.0,0
2020-12-01,19.479999542236328,20.399999618530273,19.479999542236328,20.100000381469727,16199110,0.0,0
2020-12-02,19.799999237060547,20.25,19.739999771118164,20.0,5524764,0.0,0
2020-12-03,20.100000381469727,20.299999237060547,19.6200008392334,20.149999618530273,4115425,0.0,0
2020-12-04,20.149999618530273,20.149999618530273,19.700000762939453,19.940000534057617,5492000,0.0,0
2020-12-07,19.959999084472656,20.149999618530273,19.700000762939453,19.739999771118164,1469524,0.0,0
