Date,Open,High,Low,Close,Volume,Dividends,Stock Splits
2020-01-02,13.551540580651386,13.746527525220944,13.434548971769646,13.610036849975586,11676000,0.0,0
2020-01-03,13.746527831018918,13.766025968049624,13.454048337424895,13.512543678283691,7212710,0.0,0
2020-01-06,13.376053545048652,13.57103955858095,13.278560073399179,13.395551681518555,5536270,0.0,0
2020-01-07,13.337056487699531,13.551540640039342,13.337056487699531,13.532042503356934,4063400,0.0,0
2020-01-08,13.317557761688448,13.376054032764346,12.927585720404753,13.064075469970703,6731405,0.0,0
2020-01-09,13.161568172691123,13.5125429892469,13.161568172691123,13.49304485321045,7199380,0.0,0
2020-01-10,13.610036821372908,13.668533090574174,13.22006479258667,13.317557334899902,6485000,0.0,0
2020-01-13,13.434549210290555,13.610037091612156,13.259062258735629,13.590538024902344,6856674,0.0,0
2020-01-14,13.70753026287338,13.941513479623142,13.571039588219358,13.688031196594238,15082950,0.0,0
2020-01-15,13.649034112751373,13.824521991726366,13.4345490306449,13.532042503356934,4335076,0.0,0
2020-01-16,13.532042503356934,13.668533179200445,13.317557421250461,13.532042503356934,6357287,0.0,0
2020-01-17,13.629535433119601,13.7855251798393,13.493045683169061,13.64903450012207,6076473,0.0,0
2020-01-20,13.746527525220944,13.785524728181523,13.493045241093846,13.610036849975586,4479951,0.0,0
2020-01-21,13.473545652680853,13.473545652680853,12.94708296822815,12.986080169677734,12116600,0.0,0
2020-01-22,13.181067294559375,13.415050506591797,12.869088748749508,13.415050506591797,5324200,0.0,0
2020-01-23,13.356554569280188,13.356554569280188,12.810593727691797,12.947083473205566,3185600,0.0,0
2020-01-24,12.869088770690627,13.064074781050087,12.869088770690627,13.044576644897461,7217800,0.0,0
2020-01-29,12.615606307983398,12.635105373617716,12.362124963103637,12.615606307983398,6050468,0.0,0
2020-01-30,12.576609241961371,12.576609241961371,11.972152147285447,12.089143753051758,5780000,0.0,0
2020-01-31,12.245134274365578,12.362125887620978,11.95265477634373,12.030649185180664,5723542,0.0,0
2020-02-03,11.894157687499588,12.284130634653105,11.699171678806145,12.16713809967041,9908108,0.0,0
2020-02-04,12.206137025492797,12.401123046874998,12.108643549918352,12.401123046875,6112489,0.0,0
2020-02-05,12.420620412891122,12.674102689831749,12.206136267572099,12.459617614746094,8768400,0.0,0
2020-02-06,12.47911729356131,12.92758560180664,12.47911729356131,12.92758560180664,6032527,0.0,0
2020-02-07,12.810593990494816,12.947083738808605,12.674103312414351,12.92758560180664,4754995,0.0,0
2020-02-10,12.674103372504891,13.103072616015409,12.557111760638387,12.849591255187988,5390800,0.0,0
2020-02-11,13.005579558920159,13.122571166180164,12.849590749240154,12.888587951660156,3975460,0.0,0
2020-02-12,13.064074871872826,13.317557151985676,12.869088860157806,13.259061813354492,6729996,0.0,0
2020-02-13,13.317557245722389,13.33705631191446,12.947083355972914,13.103072166442871,7122200,0.0,0
2020-02-14,12.966582924533123,13.220065216250868,12.927585720404753,13.064075469970703,3592497,0.0,0
2020-02-17,13.200566127013357,13.844020458928282,13.200566127013357,13.727028846740723,14062200,0.0,0
2020-02-18,13.727028665633997,13.76602586918201,13.473546377688576,13.668533325195312,9663523,0.0,0
2020-02-19,13.727028605242408,13.941513688696196,13.610036995113068,13.746527671813965,9830444,0.0,0
2020-02-20,13.805023154275874,14.214494258832081,13.707530609713293,14.175497055053711,15223350,0.0,0
2020-02-21,14.155998712813636,14.350984728878561,13.766025750917118,14.117000579833984,15990090,0.0,0
2020-02-24,14.117000273976272,14.117000273976272,13.493045036087068,13.55154037475586,11126040,0.0,0
2020-02-25,13.473546318412174,13.766025808618853,13.356554708282834,13.746527671813965,9653222,0.0,0
2020-02-26,13.356554683594041,13.74652764640433,13.356554683594041,13.454048156738281,6297963,0.0,0
2020-02-27,13.4345490306449,13.629535046302303,13.376053690831013,13.532042503356934,6490500,0.0,0
2020-02-28,13.356554145062804,13.473545750258832,12.966582127742706,13.200565338134766,11384670,0.0,0
2020-03-02,13.317557480289679,13.707530443099968,13.064075193927993,13.454048156738281,11355300,0.0,0
2020-03-03,13.707529986515643,13.844019728651238,13.31755703669497,13.415050506591797,6085998,0.0,0
2020-03-04,13.454047833718992,13.649033845559368,13.278559958179331,13.55154037475586,6962281,0.0,0
2020-03-05,13.649033763857084,14.097502053288768,13.512543091502522,14.000008583068848,9010000,0.0,0
2020-03-06,13.785524609408512,13.883017151086657,13.610036732714537,13.76602554321289,4647434,0.0,0
2020-03-09,13.454047817408696,13.473545953685774,12.576609370540751,12.596108436584473,15081800,0.0,0
2020-03-10,12.576609720980642,13.142069635271762,12.576609720980642,13.083574295043945,6222427,0.0,0
2020-03-11,12.966582659847044,13.22006494639047,12.69360223652079,12.791094779968262,6361673,0.0,0
2020-03-12,12.576609855636383,12.674103330082149,12.206136884182506,12.264632225036621,12520860,0.0,0
2020-03-13,11.816163339597033,12.264631626584542,11.387194118453891,12.089143753051758,14021300,0.0,0
2020-03-16,12.069646162870532,12.069646162870532,11.367695566757597,11.387194633483887,13074390,0.0,0
2020-03-17,11.387194368377138,11.718671056873502,11.367695302104808,11.406692504882812,13998740,0.0,0
2020-03-18,11.426192005196496,11.699172435012105,10.821734874292874,10.860732078552246,11228470,0.0,0
2020-03-19,10.958224431355369,10.958224431355369,10.061287819417148,10.1392822265625,20196800,0.0,0
2020-03-20,10.15878096832302,10.60724925994873,10.15878096832302,10.60724925994873,11966370,0.0,0
2020-03-23,10.1392822265625,10.412263581337905,10.080786886086821,10.1392822265625,5426042,0.0,0
2020-03-24,10.27577263193442,10.607249318410796,10.27577263193442,10.529254913330078,7736277,0.0,0
2020-03-25,10.821734609874731,11.055717829713824,10.724241136725109,10.880229949951172,7930400,0.0,0
2020-03-26,10.899728660135505,11.153210008457284,10.802235190173304,11.055717468261719,9793187,0.0,0
2020-03-27,11.270202851080585,11.328698190836773,10.860731753720623,10.958224296569824,4882755,0.0,0
2020-03-30,10.821734752683838,11.055717975610692,10.6852440744265,11.01672077178955,7460414,0.0,0
2020-03-31,11.133712465093739,11.42619196078558,11.09471526098594,11.231205940246582,7468558,0.0,0
2020-04-01,11.133712322014851,11.367695543654742,10.997221644508246,11.094715118408203,8295421,0.0,0
2020-04-02,11.270203022426177,11.387194633483887,11.094715140956273,11.387194633483887,1965550,0.0,0
2020-04-03,11.465189040855693,11.484687177815307,11.153210481601791,11.387194633483887,2801400,0.0,0
2020-04-06,11.46518922206377,11.562681767936066,11.1727097249135,11.445690155029297,3219000,0.0,0
2020-04-07,11.601678575578058,12.128141280542161,11.445689763702275,11.99165153503418,11613000,0.0,0
2020-04-08,11.991651328141966,12.108642935030344,11.83566251895746,11.933155059814453,6205708,0.0,0
2020-04-09,12.108643266399907,12.479117163234957,11.991651656309893,12.128141403198242,9936000,0.0,0
2020-04-14,12.03064859381305,12.615606631336385,11.952654188809937,12.51811408996582,12941110,0.0,0
2020-04-15,12.596108737910148,12.654604077907358,12.381623655131493,12.498615264892578,8522321,0.0,0
2020-04-16,12.303629490478778,12.635106189534417,12.089144403483951,12.186637878417969,6907691,0.0,0
2020-04-17,12.459618061638883,12.654604077907358,12.401122721641674,12.498615264892578,4770634,0.0,0
2020-04-20,12.479116946031747,12.635105756770063,12.284130932608852,12.440119743347168,2088400,0.0,0
2020-04-21,12.381623592870525,12.498615202043318,12.186637577582538,12.284131050109863,10350150,0.0,0
2020-04-22,12.36212518971743,12.38162332594255,12.167138248866387,12.303628921508789,3303684,0.0,0
2020-04-23,12.498615386183827,12.498615386183827,12.264632164390996,12.342626571655273,4410533,0.0,0
2020-04-24,12.381623898519319,12.381623898519319,12.12814160750422,12.186637878417969,3301378,0.0,0
2020-04-27,12.186637518930585,12.401122599598427,12.186637518930585,12.362125396728516,4509290,0.0,0
2020-04-28,12.401122569938083,12.791094597704484,12.381623503666436,12.732599258422852,6861200,0.0,0
2020-04-29,12.732599109590591,12.849590716552989,12.537612168219953,12.596108436584473,3774658,0.0,0
2020-05-04,12.537611865744761,12.537611865744761,11.523683700098788,11.660174369812012,8414027,0.0,0
2020-05-05,11.718670731488272,11.95265394165943,11.601678196636065,11.874659538269043,3786400,0.0,0
2020-05-06,11.972152613810714,12.459618121715655,11.952654476973184,12.420620918273926,8817200,0.0,0
2020-05-07,12.479116552399955,12.518113753854434,12.186637076608037,12.323127746582031,5264800,0.0,0
2020-05-08,12.518113753854434,12.518113753854434,12.206136142218588,12.323127746582031,5180867,0.0,0
2020-05-11,12.518114057783198,12.557111260184495,12.186637372488837,12.225634574890137,4761284,0.0,0
2020-05-12,12.381623898519319,12.381623898519319,12.167138811524492,12.186637878417969,4249069,0.0,0
2020-05-13,12.284131050109862,12.284131050109862,11.913657156179355,12.284131050109863,8165281,0.0,0
2020-05-14,12.264632411691464,12.264632411691464,11.874660367506797,12.030649185180664,5804500,0.0,0
2020-05-15,12.167138333090435,12.167138333090435,11.738169105735315,11.8551607131958,10582340,0.0,0
2020-05-18,11.83566314589285,11.87466035025466,11.699172465743171,11.73816967010498,5654631,0.0,0
2020-05-19,11.894158181953312,12.030648858596109,11.816163775233617,11.835662841796875,4759400,0.0,0
2020-05-20,11.95265475897828,11.95265475897828,11.601678989955301,11.73816967010498,8047400,0.0,0
2020-05-21,11.816163628586082,11.816163628586082,11.58218041133091,11.699172019958496,5060395,0.0,0
2020-05-22,11.621177457880243,11.621177457880243,11.01672035655213,11.27020263671875,15301200,0.0,0
2020-05-25,11.2507033066814,11.32869770955395,10.977722896627478,11.289700508117676,3620700,0.0,0
2020-05-26,11.348196869532332,11.73816888713827,11.289700602008127,11.504185676574707,4935520,0.0,0
2020-05-27,11.640675750761375,11.933155237213668,11.58218041133091,11.699172019958496,6589078,0.0,0
2020-05-28,11.699172465743171,12.011150100637648,11.601678989955301,11.73816967010498,8868274,0.0,0
2020-05-29,11.874660045156721,11.874660045156721,11.601678691871125,11.835662841796875,19195310,0.0,0
2020-06-01,11.91365733170175,12.42062097891955,11.91365733170175,12.342626571655273,14640130,0.0,0
2020-06-02,12.420620342431937,12.479116609765875,12.186637132629443,12.245133399963379,5250329,0.0,0
2020-06-03,12.303629038623821,12.440119712565442,12.1086430256834,12.147640228271484,6460800,0.0,0
2020-06-04,12.284130902213104,12.381623443799992,11.972152351741778,12.147640228271484,4370407,0.0,0
2020-06-05,12.14764037452494,12.381623592870525,12.011149698940017,12.284131050109863,3301200,0.0,0
2020-06-08,12.36212555314494,12.420620893306614,12.089144199834905,12.128141403198242,5192484,0.0,0
2020-06-09,12.069646146230303,12.459618182551688,12.050147079530896,12.342626571655273,11576810,0.0,0
2020-06-10,12.32312813529343,12.49861508249071,12.186637461014078,12.440119743347168,6288937,0.0,0
2020-06-11,12.440119743347168,12.674102959454641,12.362125337978009,12.440119743347168,11904870,0.0,0
2020-06-12,12.206136643994666,12.401122659282656,12.030648765352147,12.284131050109863,7375564,0.0,0
2020-06-15,12.147640469763246,12.401122756508279,12.089144199834905,12.128141403198242,6893800,0.0,0
2020-06-16,12.381623140798188,12.498614745699435,12.147639930995693,12.245133399963379,6435953,0.0,0
2020-06-17,12.186637372488837,12.342626182094032,12.128141104003568,12.225634574890137,4895470,0.0,0
2020-06-18,12.245134088007475,12.381623836511531,11.99165179826183,12.264632225036621,10554620,0.0,0
2020-06-19,12.284131391902822,12.888588520997295,12.284131391902822,12.771596908569336,17627937,0.0,0
2020-06-22,12.899999618530273,13.539999961853027,12.84000015258789,13.0600004196167,10219290,0.328404,0
2020-06-23,13.100000381469727,13.279999732971191,12.819999694824219,13.180000305175781,2489630,0.0,0
2020-06-24,13.140000343322754,13.319999694824219,13.100000381469727,13.100000381469727,3244472,0.0,0
2020-06-26,13.100000381469727,13.319999694824219,13.020000457763672,13.020000457763672,1454109,0.0,0
2020-06-29,13.020000457763672,13.020000457763672,12.359999656677246,12.539999961853027,13784440,0.0,0
2020-06-30,12.420000076293945,12.680000305175781,12.239999771118164,12.34000015258789,7976654,0.0,0
2020-07-02,12.5600004196167,13.4399995803833,12.5600004196167,13.34000015258789,14397840,0.0,0
2020-07-03,13.600000381469727,14.319999694824219,13.420000076293945,14.260000228881836,23362004,0.0,0
2020-07-06,14.600000381469727,15.859999656677246,14.600000381469727,15.84000015258789,49776540,0.0,0
2020-07-07,16.100000381469727,16.520000457763672,15.0,15.119999885559082,24491890,0.0,0
2020-07-08,15.300000190734863,16.059999465942383,15.079999923706055,16.0,25250810,0.0,0
2020-07-09,16.200000762939453,16.360000610351562,15.5,16.040000915527344,23615770,0.0,0
2020-07-10,15.800000190734863,15.880000114440918,15.220000267028809,15.479999542236328,17080800,0.0,0
2020-07-13,15.5600004196167,16.1200008392334,15.279999732971191,15.640000343322754,8471991,0.0,0
2020-07-14,15.479999542236328,15.619999885559082,15.079999923706055,15.5,13237360,0.0,0
2020-07-15,15.65999984741211,15.65999984741211,14.9399995803833,15.220000267028809,10216220,0.0,0
2020-07-16,15.220000267028809,15.380000114440918,14.460000038146973,14.579999923706055,11821600,0.0,0
2020-07-17,14.579999923706055,14.779999732971191,14.220000267028809,14.260000228881836,8458383,0.0,0
2020-07-20,14.359999656677246,15.15999984741211,14.220000267028809,15.039999961853027,10506280,0.0,0
2020-07-21,15.300000190734863,15.600000381469727,15.039999961853027,15.180000305175781,17738600,0.0,0
2020-07-22,15.199999809265137,15.359999656677246,14.5600004196167,14.579999923706055,16831570,0.0,0
2020-07-23,14.800000190734863,14.899999618530273,14.380000114440918,14.739999771118164,5419000,0.0,0
2020-07-24,14.680000305175781,14.680000305175781,13.539999961853027,13.699999809265137,14212400,0.0,0
2020-07-27,13.760000228881836,13.960000038146973,13.4399995803833,13.5,9109196,0.0,0
2020-07-28,13.739999771118164,13.9399995803833,13.460000038146973,13.65999984741211,5789600,0.0,0
2020-07-29,13.720000267028809,14.199999809265137,13.640000343322754,14.0,5399400,0.0,0
2020-07-30,14.079999923706055,14.180000305175781,13.779999732971191,13.899999618530273,4373577,0.0,0
2020-07-31,14.079999923706055,14.359999656677246,13.899999618530273,14.0,6059831,0.0,0
2020-08-03,14.15999984741211,14.319999694824219,13.880000114440918,14.180000305175781,4859362,0.0,0
2020-08-04,14.260000228881836,14.34000015258789,14.100000381469727,14.180000305175781,3357800,0.0,0
2020-08-05,14.199999809265137,14.260000228881836,13.960000038146973,14.079999923706055,4379526,0.0,0
2020-08-06,14.199999809265137,14.5,13.920000076293945,14.300000190734863,11537400,0.0,0
2020-08-07,14.300000190734863,14.300000190734863,13.619999885559082,14.079999923706055,8265714,0.0,0
2020-08-10,14.079999923706055,14.260000228881836,13.779999732971191,14.100000381469727,4040650,0.0,0
2020-08-11,14.199999809265137,14.359999656677246,14.039999961853027,14.079999923706055,4940882,0.0,0
2020-08-12,14.199999809265137,14.239999771118164,13.779999732971191,14.039999961853027,10743800,0.0,0
2020-08-13,14.0,14.199999809265137,14.0,14.0,4495149,0.0,0
2020-08-14,14.15999984741211,14.15999984741211,13.859999656677246,13.979999542236328,2216923,0.0,0
2020-08-17,14.0,14.84000015258789,13.979999542236328,14.640000343322754,10621700,0.0,0
2020-08-18,14.699999809265137,14.720000267028809,14.239999771118164,14.399999618530273,4673050,0.0,0
2020-08-19,14.100000381469727,14.520000457763672,14.100000381469727,14.4399995803833,4016587,0.0,0
2020-08-20,14.399999618530273,14.399999618530273,14.119999885559082,14.199999809265137,4425598,0.0,0
2020-08-21,14.220000267028809,14.380000114440918,14.119999885559082,14.260000228881836,4748655,0.0,0
2020-08-24,14.260000228881836,14.420000076293945,14.180000305175781,14.34000015258789,3833200,0.0,0
2020-08-25,14.260000228881836,14.399999618530273,13.960000038146973,13.979999542236328,7552000,0.0,0
2020-08-26,13.899999618530273,14.0,13.5600004196167,13.619999885559082,8312290,0.0,0
2020-08-27,13.859999656677246,13.9399995803833,13.520000457763672,13.739999771118164,13296270,0.0,0
2020-08-28,13.779999732971191,13.880000114440918,13.5,13.619999885559082,14057960,0.0,0
2020-08-31,13.760000228881836,14.039999961853027,13.539999961853027,13.600000381469727,9705800,0.0,0
2020-09-01,13.520000457763672,13.859999656677246,13.520000457763672,13.739999771118164,4807919,0.0,0
2020-09-02,13.720000267028809,13.800000190734863,13.5,13.539999961853027,10349630,0.0,0
2020-09-03,13.579999923706055,13.84000015258789,13.359999656677246,13.420000076293945,11706540,0.0,0
2020-09-04,13.279999732971191,13.34000015258789,13.020000457763672,13.34000015258789,5713000,0.0,0
2020-09-07,13.34000015258789,13.359999656677246,12.9399995803833,12.960000038146973,5175988,0.0,0
2020-09-08,13.119999885559082,13.140000343322754,12.819999694824219,12.960000038146973,13609090,0.0,0
2020-09-09,12.84000015258789,12.899999618530273,12.600000381469727,12.680000305175781,10601560,0.0,0
2020-09-10,12.859999656677246,12.899999618530273,12.399999618530273,12.5,9125278,0.0,0
2020-09-11,12.680000305175781,12.680000305175781,12.319999694824219,12.4399995803833,8324390,0.0,0
2020-09-14,12.520000457763672,12.5600004196167,12.34000015258789,12.460000038146973,9689841,0.0,0
2020-09-15,12.479999542236328,12.5,12.319999694824219,12.420000076293945,12203000,0.0,0
2020-09-16,12.5,12.880000114440918,12.5,12.640000343322754,9156986,0.0,0
2020-09-17,12.5600004196167,12.65999984741211,12.479999542236328,12.539999961853027,7289977,0.0,0
2020-09-18,12.619999885559082,12.9399995803833,12.479999542236328,12.739999771118164,7168408,0.0,0
2020-09-21,13.0,13.0600004196167,12.800000190734863,12.84000015258789,10664730,0.0,0
2020-09-22,12.819999694824219,12.920000076293945,12.640000343322754,12.779999732971191,8125138,0.0,0
2020-09-23,12.84000015258789,12.84000015258789,12.5600004196167,12.640000343322754,3365402,0.0,0
2020-09-24,12.640000343322754,12.680000305175781,12.4399995803833,12.600000381469727,5627200,0.0,0
2020-09-25,12.539999961853027,12.800000190734863,12.380000114440918,12.380000114440918,7274000,0.0,0
2020-09-28,12.420000076293945,12.819999694824219,12.279999732971191,12.699999809265137,14139600,0.0,0
2020-09-29,12.720000267028809,12.9399995803833,12.699999809265137,12.720000267028809,3955440,0.0,0
2020-09-30,12.800000190734863,12.880000114440918,12.5600004196167,12.65999984741211,3399800,0.0,0
2020-10-05,12.65999984741211,12.880000114440918,12.539999961853027,12.65999984741211,1433400,0.0,0
2020-10-06,12.779999732971191,12.9399995803833,12.720000267028809,12.819999694824219,2593683,0.0,0
2020-10-07,12.920000076293945,12.920000076293945,12.5,12.579999923706055,1910709,0.0,0
2020-10-08,12.600000381469727,12.880000114440918,12.600000381469727,12.880000114440918,2486721,0.0,0
2020-10-09,12.84000015258789,12.960000038146973,12.699999809265137,12.899999618530273,4143000,0.0,0
2020-10-12,13.0,13.239999771118164,12.9399995803833,13.199999809265137,5600683,0.0,0
2020-10-14,13.140000343322754,13.15999984741211,12.800000190734863,12.920000076293945,8455302,0.0,0
2020-10-15,12.920000076293945,13.039999961853027,12.800000190734863,12.859999656677246,3549484,0.0,0
2020-10-16,13.0,13.020000457763672,12.739999771118164,12.920000076293945,4468400,0.0,0
2020-10-19,12.9399995803833,13.300000190734863,12.899999618530273,12.979999542236328,3040600,0.0,0
2020-10-20,12.960000038146973,12.979999542236328,12.779999732971191,12.960000038146973,3798459,0.0,0
2020-10-21,12.960000038146973,13.079999923706055,12.699999809265137,13.0,5401400,0.0,0
2020-10-22,12.960000038146973,13.199999809265137,12.84000015258789,13.119999885559082,7135780,0.0,0
2020-10-23,13.220000267028809,13.300000190734863,12.979999542236328,13.079999923706055,4589600,0.0,0
2020-10-27,12.899999618530273,12.899999618530273,12.5,12.760000228881836,11963170,0.0,0
2020-10-28,12.819999694824219,12.819999694824219,12.5,12.760000228881836,6921200,0.0,0
2020-10-29,12.619999885559082,12.84000015258789,12.539999961853027,12.760000228881836,5371454,0.0,0
2020-10-30,12.720000267028809,12.859999656677246,12.5,12.520000457763672,7205719,0.0,0
2020-11-02,12.5600004196167,12.65999984741211,12.300000190734863,12.34000015258789,11574870,0.0,0
2020-11-03,12.359999656677246,12.699999809265137,12.34000015258789,12.5,9719237,0.0,0
2020-11-04,12.460000038146973,12.460000038146973,12.100000381469727,12.140000343322754,8339680,0.0,0
2020-11-05,12.380000114440918,12.4399995803833,12.140000343322754,12.359999656677246,10472200,0.0,0
2020-11-06,12.359999656677246,12.399999618530273,12.180000305175781,12.380000114440918,9834256,0.0,0
2020-11-09,12.399999618530273,13.0,12.399999618530273,12.779999732971191,7601600,0.0,0
2020-11-10,13.020000457763672,13.100000381469727,12.65999984741211,12.899999618530273,10067600,0.0,0
2020-11-11,12.960000038146973,13.020000457763672,12.739999771118164,12.859999656677246,7106544,0.0,0
2020-11-12,12.859999656677246,12.920000076293945,12.699999809265137,12.84000015258789,3844600,0.0,0
2020-11-13,12.800000190734863,12.800000190734863,12.119999885559082,12.140000343322754,13312700,0.0,0
2020-11-16,12.300000190734863,12.300000190734863,12.079999923706055,12.260000228881836,6039348,0.0,0
2020-11-17,12.319999694824219,12.319999694824219,12.039999961853027,12.15999984741211,6366200,0.0,0
2020-11-18,12.100000381469727,12.420000076293945,12.100000381469727,12.319999694824219,7129000,0.0,0
2020-11-19,12.260000228881836,12.279999732971191,12.039999961853027,12.039999961853027,10142000,0.0,0
2020-11-20,12.039999961853027,12.100000381469727,11.9399995803833,12.100000381469727,7945254,0.0,0
2020-11-23,12.0600004196167,12.319999694824219,11.9399995803833,12.199999809265137,18228500,0.0,0
2020-11-24,12.260000228881836,12.380000114440918,12.15999984741211,12.260000228881836,4680678,0.0,0
2020-11-25,12.420000076293945,12.520000457763672,12.100000381469727,12.100000381469727,3728771,0.0,0
2020-11-26,12.260000228881836,12.4399995803833,12.15999984741211,12.4399995803833,4209858,0.0,0
2020-11-27,12.380000114440918,12.5600004196167,12.300000190734863,12.5,3250742,0.0,0
2020-11-30,12.5600004196167,12.920000076293945,12.119999885559082,12.119999885559082,18179960,0.0,0
2020-12-01,12.199999809265137,12.65999984741211,12.15999984741211,12.619999885559082,8847541,0.0,0
2020-12-02,12.699999809265137,12.899999618530273,12.539999961853027,12.720000267028809,11997600,0.0,0
2020-12-03,12.739999771118164,12.739999771118164,12.34000015258789,12.4399995803833,6688305,0.0,0
2020-12-04,12.539999961853027,12.539999961853027,12.220000267028809,12.279999732971191,5487400,0.0,0
2020-12-07,12.279999732971191,12.34000015258789,12.119999885559082,12.15999984741211,4018200,0.0,0
