Date,Open,High,Low,Close,Volume,Dividends,Stock Splits
2020-01-02,374.75270688817596,383.72762565228106,374.5532825084926,381.3343200683594,13991000,0.0,0
2020-01-03,386.9187136020113,388.9131399607845,380.13767615519464,381.9326477050781,15313100,0.0,0
2020-01-06,378.94099635608467,378.94099635608467,374.3538097873734,376.3482360839844,12123190,0.0,0
2020-01-07,379.7387794591243,386.71927195236213,378.9410210614814,384.5254211425781,17686340,0.0,0
2020-01-08,381.33430397975707,384.7248226166435,378.14324014667056,380.9354248046875,15529150,0.0,0
2020-01-09,388.9131469726562,388.9131469726562,385.92150738055886,388.91314697265625,15946820,0.0,0
2020-01-10,393.69976827039534,398.08753079765484,390.907583418987,397.48919677734375,25292040,0.0,0
2020-01-13,398.8852673460783,405.2674255371094,396.29250702182264,405.2674255371094,27570260,0.0,0
2020-01-14,408.85740173610264,411.84904126100093,395.49475127806306,399.2841491699219,26827630,0.0,0
2020-01-15,396.0930819124145,401.87690610518405,395.0958687459004,397.6885986328125,15938130,0.0,0
2020-01-16,397.8880712127686,401.8769240570069,395.29531077750727,398.8852844238281,13770620,0.0,0
2020-01-17,398.8852747102131,399.48360870878463,394.8964219631109,397.8880615234375,13670840,0.0,0
2020-01-20,403.87134205211294,403.87134205211294,394.89642333984375,394.89642333984375,13282410,0.0,0
2020-01-21,393.89921098518806,393.89921098518806,382.331531867218,384.3259582519531,24173390,0.0,0
2020-01-22,386.32039618668625,391.705341499961,381.533784893227,389.9103698730469,18682300,0.0,0
2020-01-23,388.51427399585685,388.71369837900147,377.9438078481617,384.5254211425781,18621250,0.0,0
2020-01-24,385.9214909569721,387.51703809136234,382.33151751272675,384.7248229980469,8050690,0.0,0
2020-01-29,383.1293237961799,388.514268992248,379.9382293816416,382.1321105957031,31761020,0.0,0
2020-01-30,384.9243014322917,387.9159410807292,369.1683447902004,373.9549560546875,24946770,0.0,0
2020-01-31,379.14045720929954,383.72761341868517,370.3649631046488,371.96051025390625,20299050,0.0,0
2020-02-03,376.94658315558183,382.1321038799409,368.56999850529735,378.9410095214844,28678440,0.0,0
2020-02-04,388.9131455749046,392.50311915902546,383.7276247942266,391.90478515625,28433590,0.0,0
2020-02-05,398.88527585259743,398.88527585259743,386.32038357673434,391.1070251464844,22398570,0.0,0
2020-02-06,396.89085800170903,398.8852844238281,391.1070335505763,398.8852844238281,17792130,0.0,0
2020-02-07,398.0875006407574,401.27856445312506,393.50031407591564,401.278564453125,14896700,0.0,0
2020-02-10,394.49754608483494,399.8824912520975,393.89921208124315,399.4836120605469,16463490,0.0,0
2020-02-11,403.87134617290167,409.8546253754632,402.4752537788103,407.8601989746094,23184170,0.0,0
2020-02-12,408.8574010844359,412.4473745950981,407.0624295453702,409.8546142578125,17702660,0.0,0
2020-02-13,414.84068380190104,415.43901779773694,412.04849906470844,415.23956298828125,17862960,0.0,0
2020-02-14,413.8434753417968,418.8295413097703,412.24792814553905,413.8434753417969,13887300,0.0,0
2020-02-17,409.45574666922215,418.630089864552,409.05686747508287,415.43902587890625,10679530,0.0,0
2020-02-18,411.8490501348022,413.2451425233291,406.26465014816296,407.06243896484375,13033170,0.0,0
2020-02-19,408.85741711054015,413.44460397438434,407.46132469959593,410.2535095214844,12501000,0.0,0
2020-02-20,414.84067025533534,414.84067025533534,404.469659585458,408.8573913574219,16582650,0.0,0
2020-02-21,404.86854260223464,407.26184809761367,398.8852636475218,399.8824768066406,17446040,0.0,0
2020-02-24,392.1042268272814,394.69695669819777,388.9131325411114,389.31201171875,23182420,0.0,0
2020-02-25,389.7109139328826,401.6774725645887,389.3120347316655,400.4808349609375,24081010,0.0,0
2020-02-26,396.49196281844627,402.67466621822865,394.49753647673634,398.48638916015625,18326060,0.0,0
2020-02-27,397.88806959964637,400.4808300243961,393.3008827608634,398.0875244140625,19178470,0.0,0
2020-02-28,390.30923095190354,390.7081101357483,383.32873872076186,384.9242858886719,31915440,0.0,0
2020-03-02,383.52818592840845,393.50031748956036,383.52818592840845,388.5142517089844,23089580,0.0,0
2020-03-03,391.90479483822276,397.68861933203345,391.90479483822276,392.9020080566406,21808960,0.0,0
2020-03-04,394.89643449347636,394.89643449347636,389.7109135846905,392.9020080566406,19557990,0.0,0
2020-03-05,396.89083317193024,405.6662967072423,392.9019805772375,405.0679931640625,27046130,0.0,0
2020-03-06,396.8908415958766,399.0847227425345,393.89920208636,394.69696044921875,30386570,0.0,0
2020-03-09,378.94099635608467,383.92706209761207,372.55883829343554,376.3482360839844,36123860,0.0,0
2020-03-10,380.9354345256915,388.31480596664636,374.95215544937173,381.9326477050781,31903950,0.0,0
2020-03-11,381.93264567163715,383.52819283666713,375.9493666271728,377.345458984375,20448210,0.0,0
2020-03-12,366.9744630152726,368.37055542936776,360.79172891102417,362.58673095703125,38041810,0.0,0
2020-03-13,335.06363575556503,366.974458208476,335.06363575556503,363.9828186035156,57393060,0.0,0
2020-03-16,355.00788153536456,356.8028530330369,336.06083167814006,340.8474426269531,49707670,0.0,0
2020-03-17,340.8474592038885,353.81123078931773,337.0580612211603,348.8251647949219,42149370,0.0,0
2020-03-18,342.0441328037285,354.21014620183024,329.0803610065026,333.0692138671875,44397010,0.0,0
2020-03-19,342.0441284179688,349.62295484259926,324.293745588533,342.04412841796875,59750190,0.0,0
2020-03-20,354.0106831040653,363.38448102087796,348.2268587643918,358.5978698730469,52299070,0.0,0
2020-03-23,339.25193136036074,358.39840589448454,339.25193136036074,347.0301818847656,38694210,0.0,0
2020-03-24,359.9939737812899,366.77501152991897,357.00233410997726,364.1822814941406,36613460,0.0,0
2020-03-25,373.954943606728,380.53655670071265,372.3593964274997,378.9410095214844,36226850,0.0,0
2020-03-26,384.9243000979472,384.9243000979472,374.95216797105735,380.7359924316406,29318890,0.0,0
2020-03-27,388.9131464445544,388.9131464445544,380.735986064246,381.3343200683594,28738690,0.0,0
2020-03-30,370.76386485265607,378.94102547002217,370.56444046719133,375.5505065917969,21838730,0.0,0
2020-03-31,384.1265384331391,384.9242968234911,369.76664394654813,379.1404724121094,22201300,0.0,0
2020-04-01,382.5309710688073,382.5309710688073,371.3621715970419,373.3565979003906,23621270,0.0,0
2020-04-02,368.96886981946415,378.7415466308593,368.5699906413006,378.7415466308594,12125930,0.0,0
2020-04-03,370.96331169239187,375.3510437011719,370.96331169239187,375.3510437011719,14274200,0.0,0
2020-04-06,378.9410048156803,382.92985749795065,375.5504861222567,380.33709716796875,13869050,0.0,0
2020-04-07,386.5198364257813,386.5198364257813,380.93543650568387,386.51983642578125,18917050,0.0,0
2020-04-08,386.7192476370021,386.7192476370021,381.5337575133019,383.92706298828125,15181340,0.0,0
2020-04-09,388.91314224630116,390.3092346191406,385.5226235029679,390.3092346191406,15695980,0.0,0
2020-04-14,394.89641360512263,396.4919607567,391.3064401222063,393.8992004394531,26198960,0.0,0
2020-04-15,399.4836002537085,399.4836002537085,393.8992004394531,393.8992004394531,20507370,0.0,0
2020-04-16,397.88806995217266,405.6663208007813,393.8992171205719,405.66632080078125,28850990,0.0,0
2020-04-17,415.8378980928972,418.43065846007863,405.0680078692592,408.4585266113281,29626870,0.0,0
2020-04-20,408.458516872035,409.85460921106534,405.4668773887425,407.4613037109375,15337340,0.0,0
2020-04-21,409.2562891999296,409.2562891999296,395.4947592799773,399.4836120605469,20825170,0.0,0
2020-04-22,395.8936265595068,408.65794290025195,394.8964133943695,408.2590637207031,17154220,0.0,0
2020-04-23,408.8573947553215,413.84346054502055,406.2646344581719,410.45294189453125,17807170,0.0,0
2020-04-24,403.87133318790427,409.2562782105702,403.272999200379,405.2674255371094,12501500,0.0,0
2020-04-27,411.64960524148466,413.84348649955547,409.0568752142603,411.84906005859375,15666250,0.0,0
2020-04-28,413.84347233265623,416.03735351562506,411.25071196165624,416.037353515625,13114080,0.0,0
2020-04-29,416.8351037919664,417.83231695893284,412.44737194382026,415.837890625,13274000,0.0,0
2020-05-04,407.66074850813953,407.66074850813953,398.8852844238281,398.8852844238281,24638320,0.0,0
2020-05-05,400.08194958521835,406.46410800379203,399.48361557636076,404.8685607910156,12583080,0.0,0
2020-05-06,405.46687273511026,411.0512724596689,404.66908395587035,408.8573913574219,19797850,0.0,0
2020-05-07,410.4529479374812,410.4529479374812,406.0652160644531,406.0652160644531,12298250,0.0,0
2020-05-08,411.45017635590614,417.0345764160156,410.4529631463341,417.0345764160156,22019270,0.0,0
2020-05-11,423.81561805462013,433.7877502441406,422.41952563459375,433.7877502441406,33457400,0.0,0
2020-05-12,427.00670437342785,433.5882871467923,424.6133683476243,429.79888916015625,22037690,0.0,0
2020-05-13,427.00670910483836,436.9788412144093,425.0122826829242,428.4028015136719,24275790,0.0,0
2020-05-14,442.7626441886445,445.75428367640563,425.4111412461362,429.3999938964844,32929980,0.0,0
2020-05-15,430.0,435.6000061035156,420.0,421.20001220703125,24590940,1.2,0
2020-05-18,419.0,425.3999938964844,416.79998779296875,423.0,20585060,0.0,0
2020-05-19,430.20001220703125,433.0,425.6000061035156,430.0,19839680,0.0,0
2020-05-20,434.6000061035156,440.0,432.0,440.0,21245440,0.0,0
2020-05-21,436.3999938964844,437.79998779296875,431.3999938964844,433.3999938964844,18779510,0.0,0
2020-05-22,427.0,427.0,410.0,412.3999938964844,37869790,0.0,0
2020-05-25,410.0,417.6000061035156,406.0,416.6000061035156,19950420,0.0,0
2020-05-26,422.3999938964844,428.3999938964844,419.20001220703125,425.3999938964844,15998170,0.0,0
2020-05-27,423.20001220703125,423.20001220703125,414.20001220703125,420.0,20832340,0.0,0
2020-05-28,421.0,421.0,404.20001220703125,408.20001220703125,28940420,0.0,0
2020-05-29,405.79998779296875,413.3999938964844,404.0,410.3999938964844,29277960,0.0,0
2020-06-01,419.3999938964844,429.79998779296875,419.20001220703125,429.0,22992560,0.0,0
2020-06-02,436.0,436.0,429.20001220703125,430.3999938964844,17846180,0.0,0
2020-06-03,436.0,437.3999938964844,426.20001220703125,432.6000061035156,20029110,0.0,0
2020-06-04,435.0,435.0,428.6000061035156,435.0,18474120,0.0,0
2020-06-05,434.0,434.20001220703125,426.6000061035156,434.20001220703125,26529490,0.0,0
2020-06-08,435.0,435.79998779296875,427.0,430.0,19719610,0.0,0
2020-06-09,432.0,435.0,428.20001220703125,433.79998779296875,18496800,0.0,0
2020-06-10,437.0,447.3999938964844,435.79998779296875,446.20001220703125,33941610,0.0,0
2020-06-11,450.79998779296875,455.3999938964844,442.0,442.3999938964844,26926930,0.0,0
2020-06-12,434.6000061035156,444.3999938964844,433.0,441.0,17460540,0.0,0
2020-06-15,435.0,444.3999938964844,432.20001220703125,433.6000061035156,16009640,0.0,0
2020-06-16,449.3999938964844,452.79998779296875,445.3999938964844,448.79998779296875,22450720,0.0,0
2020-06-17,451.79998779296875,453.6000061035156,445.0,450.6000061035156,14077790,0.0,0
2020-06-18,452.3999938964844,458.0,445.20001220703125,458.0,18627360,0.0,0
2020-06-19,458.0,465.6000061035156,456.3999938964844,460.3999938964844,25331845,0.0,0
2020-06-22,460.0,474.6000061035156,459.20001220703125,474.20001220703125,25963340,0.0,0
2020-06-23,480.0,498.6000061035156,475.20001220703125,497.3999938964844,31328310,0.0,0
2020-06-24,502.0,505.0,490.79998779296875,490.79998779296875,23063460,0.0,0
2020-06-26,486.3999938964844,493.0,483.6000061035156,485.0,17878260,0.0,0
2020-06-29,481.0,493.79998779296875,481.0,486.0,22078970,0.0,0
2020-06-30,488.20001220703125,500.0,488.20001220703125,498.6000061035156,22144450,0.0,0
2020-07-02,503.0,519.0,503.0,518.5,31784530,0.0,0
2020-07-03,520.0,529.0,511.5,524.5,21000756,0.0,0
2020-07-06,524.0,529.0,516.0,520.0,23259690,0.0,0
2020-07-07,519.0,531.0,512.0,516.0,25223630,0.0,0
2020-07-08,515.5,546.5,515.5,543.0,27611980,0.0,0
2020-07-09,545.0,564.0,544.0,563.0,26065860,0.0,0
2020-07-10,549.0,562.0,546.0,546.5,23459570,0.0,0
2020-07-13,540.5,556.0,540.0,541.0,20035930,0.0,0
2020-07-14,529.0,535.5,517.5,525.0,25841760,0.0,0
2020-07-15,538.5,543.0,530.5,543.0,22169170,0.0,0
2020-07-16,539.0,542.0,511.0,513.0,27047080,0.0,0
2020-07-17,519.0,530.0,517.0,521.0,17564370,0.0,0
2020-07-20,521.0,527.5,513.0,522.5,12986880,0.0,0
2020-07-21,548.5,564.0,544.0,564.0,29100070,0.0,0
2020-07-22,553.0,563.0,537.5,539.0,20931050,0.0,0
2020-07-23,546.0,557.5,543.0,557.0,19087970,0.0,0
2020-07-24,542.0,547.0,525.0,528.0,28135030,0.0,0
2020-07-27,530.0,538.0,515.0,520.0,18687360,0.0,0
2020-07-28,535.0,544.5,529.0,543.5,21534550,0.0,0
2020-07-29,536.5,542.5,533.0,541.5,12483240,0.0,0
2020-07-30,547.0,549.5,532.0,535.0,13702870,0.0,0
2020-07-31,540.0,550.0,534.0,534.0,15632560,0.0,0
2020-08-03,536.0,541.5,528.0,539.0,18075990,0.0,0
2020-08-04,546.0,556.5,540.0,550.0,20181190,0.0,0
2020-08-05,557.5,561.0,551.0,561.0,15884970,0.0,0
2020-08-06,560.5,564.0,543.5,555.5,20568690,0.0,0
2020-08-07,559.0,559.0,499.3999938964844,527.5,62117080,0.0,0
2020-08-10,510.0,518.0,501.0,502.0,48583880,0.0,0
2020-08-11,511.0,526.0,510.0,513.5,25498510,0.0,0
2020-08-12,512.0,523.0,504.0,520.5,18944950,0.0,0
2020-08-13,528.0,531.0,510.0,510.0,27254630,0.0,0
2020-08-14,502.5,514.0,501.5,506.5,17991410,0.0,0
2020-08-17,508.5,515.0,502.0,504.5,14790860,0.0,0
2020-08-18,515.0,516.5,509.0,512.0,13387270,0.0,0
2020-08-19,516.0,520.0,506.0,506.0,11096260,0.0,0
2020-08-20,508.0,509.0,502.0,508.0,14375590,0.0,0
2020-08-21,516.5,524.5,512.0,518.0,18245050,0.0,0
2020-08-24,537.5,548.0,535.0,548.0,27410110,0.0,0
2020-08-25,548.0,549.0,537.0,544.5,18013350,0.0,0
2020-08-26,553.5,555.0,546.0,551.5,15633420,0.0,0
2020-08-27,554.0,560.0,547.0,558.0,17032210,0.0,0
2020-08-28,554.0,558.0,540.5,540.5,22537720,0.0,0
2020-08-31,554.5,554.5,530.5,530.5,21605430,0.0,0
2020-09-01,537.5,547.0,531.0,539.0,19767340,0.0,0
2020-09-02,555.0,555.0,543.5,545.0,14565280,0.0,0
2020-09-03,546.0,548.5,533.0,534.0,17078690,0.0,0
2020-09-04,517.0,524.5,513.0,518.0,33072890,0.0,0
2020-09-07,516.0,524.5,510.0,511.0,18039820,0.0,0
2020-09-08,517.0,520.0,502.0,508.5,18517660,0.0,0
2020-09-09,502.0,508.5,501.5,504.0,17759570,0.0,0
2020-09-10,514.0,518.5,506.0,506.0,13682280,0.0,0
2020-09-11,509.0,518.5,506.5,516.0,12738920,0.0,0
2020-09-14,521.5,537.5,518.5,529.5,19281610,0.0,0
2020-09-15,535.5,538.5,527.5,529.5,11319350,0.0,0
2020-09-16,538.0,538.0,530.5,534.5,10186220,0.0,0
2020-09-17,535.0,536.0,522.0,527.0,11774020,0.0,0
2020-09-18,520.0,525.0,510.5,525.0,21697400,0.0,0
2020-09-21,522.0,527.5,512.0,516.5,10511440,0.0,0
2020-09-22,513.0,518.5,510.0,511.5,12546360,0.0,0
2020-09-23,512.0,521.5,510.0,514.0,12517680,0.0,0
2020-09-24,510.0,512.0,505.0,505.0,14346970,0.0,0
2020-09-25,510.0,511.5,502.0,503.5,13227130,0.0,0
2020-09-28,505.0,509.5,503.5,506.0,10939960,0.0,0
2020-09-29,515.0,515.5,505.5,505.5,11431310,0.0,0
2020-09-30,512.5,520.0,509.0,511.5,10245120,0.0,0
2020-10-05,530.0,530.0,521.5,525.0,18238540,0.0,0
2020-10-06,527.5,529.5,525.5,527.5,7850605,0.0,0
2020-10-07,530.0,536.0,526.5,535.0,11521710,0.0,0
2020-10-08,538.0,538.0,531.5,535.0,8128914,0.0,0
2020-10-09,537.5,545.0,535.0,539.5,15192460,0.0,0
2020-10-12,545.0,557.0,543.5,557.0,18900360,0.0,0
2020-10-14,568.0,574.0,560.5,573.5,25903930,0.0,0
2020-10-15,570.0,570.0,548.5,552.0,15521650,0.0,0
2020-10-16,559.0,563.5,552.0,557.0,10324930,0.0,0
2020-10-19,562.0,568.5,558.5,561.5,9771820,0.0,0
2020-10-20,566.5,566.5,558.5,564.5,9946356,0.0,0
2020-10-21,568.5,573.0,562.0,566.5,12213540,0.0,0
2020-10-22,566.0,567.5,553.0,563.5,12652340,0.0,0
2020-10-23,560.5,564.5,557.0,561.5,7553740,0.0,0
2020-10-27,565.0,588.5,560.5,585.0,28119250,0.0,0
2020-10-28,587.5,604.0,584.0,601.0,24917540,0.0,0
2020-10-29,589.0,614.0,587.5,605.0,23050460,0.0,0
2020-10-30,597.0,610.0,584.5,591.0,24885040,0.0,0
2020-11-02,593.0,603.5,586.5,601.5,15507500,0.0,0
2020-11-03,597.0,603.5,595.0,598.0,16977350,0.0,0
2020-11-04,574.0,599.5,573.5,588.5,28464380,0.0,0
2020-11-05,610.0,625.0,609.0,625.0,25958680,0.0,0
2020-11-06,626.5,627.0,606.0,614.5,21350250,0.0,0
2020-11-09,630.5,633.0,620.0,622.5,17343100,0.0,0
2020-11-10,608.0,611.0,585.0,595.0,36120280,0.0,0
2020-11-11,561.0,585.0,551.0,551.0,66066990,0.0,0
2020-11-12,570.0,586.0,570.0,577.0,32309420,0.0,0
2020-11-13,590.0,602.0,581.0,602.0,28455410,0.0,0
2020-11-16,600.0,603.0,585.5,597.0,19389830,0.0,0
2020-11-17,596.0,596.0,581.5,581.5,19372100,0.0,0
2020-11-18,586.0,591.0,580.0,589.0,13483120,0.0,0
2020-11-19,586.0,587.0,573.0,573.0,15706590,0.0,0
2020-11-20,578.0,592.0,575.5,588.0,16568020,0.0,0
2020-11-23,599.0,600.0,586.0,586.0,20899490,0.0,0
2020-11-24,587.0,590.0,579.0,584.0,15902800,0.0,0
2020-11-25,589.5,594.0,571.0,573.0,20604540,0.0,0
2020-11-26,578.5,586.0,575.0,586.0,11144120,0.0,0
2020-11-27,586.0,594.5,583.0,583.0,11181070,0.0,0
2020-11-30,582.0,584.5,563.0,563.0,32813190,0.0,0
2020-12-01,573.0,581.0,571.5,578.0,22221870,0.0,0
2020-12-02,584.5,584.5,568.0,574.0,13475080,0.0,0
2020-12-03,584.5,589.0,579.5,589.0,15557200,0.0,0
2020-12-04,589.0,593.0,587.0,588.5,14363450,0.0,0
2020-12-07,592.5,592.5,579.5,586.0,8046086,0.0,0
