Date,Open,High,Low,Close,Volume,Dividends,Stock Splits
2020-01-02,23.742951621713356,24.2881960835722,23.4951128861667,24.18906021118164,12033380,0.0,0
2020-01-03,24.58560227418447,26.56831219600127,24.58560227418447,25.081279754638672,21786560,0.0,0
2020-01-06,24.78387309459367,26.12220261987362,24.38733150325206,25.67609214782715,17699600,0.0,0
2020-01-07,25.576957240871902,25.973500738012483,25.279551508875997,25.47782325744629,9184863,0.0,0
2020-01-08,24.932576187955053,25.67609238774015,24.783873326169928,25.130847930908203,9487871,0.0,0
2020-01-09,25.477821855792566,26.5683107403577,25.477821855792566,26.370040893554688,14748220,0.0,0
2020-01-10,26.41960789339161,27.06398820477005,26.27090503551342,26.766582489013672,13120630,0.0,0
2020-01-13,27.113558053940466,27.510099652745073,26.766583445914126,27.36139678955078,11455860,0.0,0
2020-01-14,27.55966712958426,27.708371886260704,26.370042312189412,26.667448043823242,11274840,0.0,0
2020-01-15,26.568311927560217,27.163125276267284,26.27090619863644,26.816150665283203,7824961,0.0,0
2020-01-16,27.014421944007356,27.8075051346436,26.766583210576094,27.113557815551758,12533000,0.0,0
2020-01-17,27.361396565151324,29.443242305376003,27.262260693548342,29.096267700195312,29630560,0.0,0
2020-01-20,29.393674144287736,29.64151288393748,28.749293799370307,29.4432430267334,10881680,0.0,0
2020-01-21,29.29453829417534,29.443243050774225,27.658802989323334,27.857074737548828,18214470,0.0,0
2020-01-22,27.85707494372663,29.096268652158777,27.31182857750076,28.89799690246582,11623460,0.0,0
2020-01-23,28.551021825583742,28.897996436522124,27.609235756876142,28.00577735900879,7452515,0.0,0
2020-01-24,27.757938385009766,28.104912992994286,27.1631250414448,27.757938385009766,4585960,0.0,0
2020-01-29,26.56831193709226,27.7579386349332,26.56831193709226,27.21269416809082,13059690,0.0,0
2020-01-30,27.16312478731035,27.212693668478373,24.833440316478477,25.130847930908203,14162330,0.0,0
2020-01-31,25.626525397431603,25.8743641306933,24.833440316478477,25.130847930908203,9181689,0.0,0
2020-02-03,24.585602045134408,26.37004209266063,24.585602045134408,25.62652587890625,16043970,0.0,0
2020-02-04,25.97350070639113,27.063989649621526,25.775228958062225,26.667448043823242,12971470,0.0,0
2020-02-05,27.1135578154088,27.46053242038263,26.270905743575064,26.717016220092773,14996390,0.0,0
2020-02-06,26.964854719407533,28.104912505115173,26.469177256851214,27.658802032470703,14026630,0.0,0
2020-02-07,27.609235042558858,28.20404837579833,27.163124569914384,27.658802032470703,7999619,0.0,0
2020-02-10,27.559666401623826,28.94756482154719,26.766583210975742,28.30318260192871,12507570,0.0,0
2020-02-11,28.451888091365795,28.798860814471123,27.75793886343608,27.857074737548828,6617297,0.0,0
2020-02-12,28.204049351513685,28.30318333476691,27.75793886343608,27.857074737548828,8799362,0.0,0
2020-02-13,27.95621083139052,28.848429923698824,27.906641948514782,28.501455307006836,12221320,0.0,0
2020-02-14,28.55102181887514,28.848429438549374,27.956210361245684,28.402318954467773,5635934,0.0,0
2020-02-17,28.600590688913854,31.27724791970156,28.30318306936444,31.17811393737793,27668980,0.0,0
2020-02-18,30.83113840520111,32.61557839658664,29.790214604178022,32.16946792602539,27601750,0.0,0
2020-02-19,32.07033135743826,33.160824079549705,30.7320036777095,31.029409408569336,20647080,0.0,0
2020-02-20,31.029409169723227,32.16946887458263,30.73200344115265,31.9711971282959,11682060,0.0,0
2020-02-21,31.673791163524584,32.71471309661865,31.6242222818928,31.723358154296875,15236030,0.0,0
2020-02-24,32.46687593109446,35.2922361406547,32.26860417669814,34.647857666015625,38431610,0.0,0
2020-02-25,34.00347377172018,36.382727146429744,32.46687436717479,34.895694732666016,52491830,0.0,0
2020-02-26,34.053039528794194,34.79655570873921,32.912983655243146,33.25995635986328,20037920,0.0,0
2020-02-27,32.81384800562782,34.20174647679405,32.71471402128127,33.50779724121094,14636800,0.0,0
2020-02-28,32.02076411943783,32.9625520780105,31.029409169723227,31.9711971282959,24103140,0.0,0
2020-03-02,32.51644314332479,35.193102391409646,32.36774216281515,34.49915313720703,27891380,0.0,0
2020-03-03,36.085320388242764,36.33315911678367,32.51644042822246,33.11125564575195,28325000,0.0,0
2020-03-04,33.160821881202786,33.706066315252826,31.624220664668268,32.764278411865234,20923800,0.0,0
2020-03-05,34.00347551700039,34.499153013696365,31.6242239110316,32.26860427856445,33493540,0.0,0
2020-03-06,31.872061028790824,32.16946673760511,31.42595057471001,32.11989974975586,11499680,0.0,0
2020-03-09,30.335462082160156,32.516441854467125,30.335462082160156,30.63286781311035,26109010,0.0,0
2020-03-10,31.029409182173463,32.219035878652114,29.04669928194872,31.17811393737793,33858100,0.0,0
2020-03-11,31.723358635054968,32.714713592400436,30.33546207294322,31.029409408569336,24122750,0.0,0
2020-03-12,30.335462101328936,30.97984244603455,29.591945882624106,29.839784622192383,21426760,0.0,0
2020-03-13,27.757937523626516,30.930273996956178,27.559665784971124,30.73200225830078,32115120,0.0,0
2020-03-16,28.749294481334992,29.046700219625663,23.296842079702493,23.594247817993164,133038900,0.0,0
2020-03-17,23.792517858135064,25.130847365827048,21.165427722804537,22.255918502807617,76362660,0.0,0
2020-03-18,22.305485932333326,22.999435139905263,19.727962735314026,19.975801467895508,54228050,0.0,0
2020-03-19,20.12450525613321,22.255919967186653,18.30041194905372,20.9671573638916,79175180,0.0,0
2020-03-20,21.512402523453495,22.20634983303814,20.471478722787356,21.314130783081055,44845010,0.0,0
2020-03-23,20.025369659321104,21.958510572370106,19.628826188158783,20.421911239624023,25744910,0.0,0
2020-03-24,21.115859508948326,22.801163666747364,20.917589655057522,22.60289192199707,40904940,0.0,0
2020-03-25,23.79251953125,24.883010387937542,23.742952538570393,24.78387451171875,47725870,0.0,0
2020-03-26,24.43689870333903,24.73430631754856,23.74295138523574,23.941221237182617,21587510,0.0,0
2020-03-27,24.883009684833493,24.98214555825106,23.495113129566104,23.643815994262695,15930950,0.0,0
2020-03-30,23.09856868295972,23.990789616049547,22.10721377140163,23.049001693725586,26225310,0.0,0
2020-03-31,23.941220754046157,24.486467090330763,23.197704569815784,23.842084884643555,17363150,0.0,0
2020-04-01,23.544680594820658,24.536035567234162,22.85073135778739,23.34640884399414,20412460,0.0,0
2020-04-02,23.346407225522466,24.436897997751796,23.296840236681803,24.387331008911133,12353870,0.0,0
2020-04-03,24.288196086883545,24.635170694868066,23.395977016965844,23.792518615722656,8010100,0.0,0
2020-04-06,24.288196320573544,24.53603505853858,23.64381598003635,24.436899185180664,6841100,0.0,0
2020-04-07,24.73430633544922,24.98214506870679,24.288195859241803,24.73430633544922,16003750,0.0,0
2020-04-08,24.288196320573544,25.229984281184485,24.189060447215628,24.436899185180664,16933420,0.0,0
2020-04-09,24.78387308209151,25.031711812912427,24.43689848077034,24.486467361450195,12304100,0.0,0
2020-04-14,23.99078963417718,24.139492492851367,23.34640742848997,23.842084884643555,17574370,0.0,0
2020-04-15,24.04035808102741,24.387332699544046,23.296841851717286,23.34640884399414,14400460,0.0,0
2020-04-16,22.999435421450965,23.69338274665833,22.999435421450965,23.395977020263672,9323448,0.0,0
2020-04-17,24.04035759707345,24.337763326466636,23.445544247427563,23.643815994262695,17458310,0.0,0
2020-04-20,23.891654246910768,24.288195841664,23.693382504104417,23.941221237182617,9898238,0.0,0
2020-04-21,23.89165497451389,24.089924832498934,22.900300012010074,23.098569869995117,11411890,0.0,0
2020-04-22,22.801164380745682,22.99943613170468,22.355053886517705,22.949867248535156,11018690,0.0,0
2020-04-23,23.04900240225549,23.34640812852144,22.404622068106267,22.60289192199707,9923655,0.0,0
2020-04-24,22.751596682628588,22.751596682628588,21.61153698627095,21.8098087310791,18612650,0.0,0
2020-04-27,22.10721371730508,22.3054854554753,21.066291819060005,21.462833404541016,20308210,0.0,0
2020-04-28,21.462833886834527,22.057647223851863,21.066292292442792,21.958511352539062,9480598,0.0,0
2020-04-29,22.057646517447857,22.20634937422506,21.809807792532713,22.008079528808594,5143371,0.0,0
2020-05-04,21.512403476171134,22.45418955750039,21.413267601594494,21.908945083618164,12488860,0.0,0
2020-05-05,22.107214688919374,22.751596920863534,22.107214688919374,22.45418930053711,8573168,0.0,0
2020-05-06,22.404621616068752,23.54467939823232,22.404621616068752,23.29684066772461,16304550,0.0,0
2020-05-07,23.94122123646498,24.684737435677306,23.395976780053065,23.544679641723633,24682260,0.0,0
2020-05-08,23.941221971510917,24.089924837746977,23.346408615707137,23.495113372802734,12989850,0.0,0
2020-05-11,23.74295114381089,24.08992385390468,23.693382263183594,23.693382263183594,11328680,0.0,0
2020-05-12,23.495113129566104,23.891654732376857,22.949866771199247,23.643815994262695,10348120,0.0,0
2020-05-13,23.34640765748237,23.643815268607295,23.098568926974664,23.29684066772461,7232317,0.0,0
2020-05-14,22.949867027189693,23.09856989354497,22.0080809463666,22.30548667907715,21899020,0.0,0
2020-05-15,22.553324931239242,22.751596675989536,22.008080469465167,22.60289192199707,11695050,0.0,0
2020-05-18,22.40462112426758,22.801162706203588,21.611536069536154,22.404621124267578,20889950,0.0,0
2020-05-19,22.75159692241864,23.395977263547334,22.553325175520804,23.24727439880371,19946220,0.0,0
2020-05-20,23.49511313699625,23.49511313699625,22.94986677845696,23.24727439880371,10649760,0.0,0
2020-05-21,23.346408892467647,23.5942476360856,21.958512306379003,22.156784057617188,18290100,0.0,0
2020-05-22,21.661106603424287,21.95851233987569,20.719318619895578,20.9671573638916,19611840,0.0,0
2020-05-25,20.66975117106379,20.719318162424763,19.92623495549214,20.07493782043457,17705490,0.0,0
2020-05-26,20.322776311095907,20.669750918969445,19.975801703222373,20.620182037353516,12452640,0.0,0
2020-05-27,20.818454277224657,20.86802126915995,20.074938053038064,20.322776794433594,8474567,0.0,0
2020-05-28,20.124504872544488,20.27320962879532,19.034015932435203,19.252113342285156,20175970,0.0,0
2020-05-29,19.252113058790837,19.529693123397465,19.11332397191727,19.430557250976562,14794350,0.0,0
2020-06-01,19.787444627556013,21.561970961418705,19.74779141133372,21.214996337890625,28740780,0.0,0
2020-06-02,21.512403947460694,21.66110681715364,21.016726454577817,21.61153793334961,12298320,0.0,0
2020-06-03,21.61153698627095,22.206350329835914,21.314131259918213,21.8098087310791,11440800,0.0,0
2020-06-04,22.20634983303814,22.255918713560977,21.066292053045228,21.314130783081055,10569580,0.0,0
2020-06-05,21.462833648440586,21.760241259075602,21.214994918341137,21.71067237854004,7663117,0.0,0
2020-06-08,21.809808490999597,22.503757699329736,21.611536748373993,21.958511352539062,17467830,0.0,0
2020-06-09,22.107214457431837,22.206350329835914,21.8098087310791,21.8098087310791,7071962,0.0,0
2020-06-10,21.85937548014429,22.057647222760078,21.363698014464287,21.561969757080078,6521855,0.0,0
2020-06-11,21.611536993053274,21.908944610358837,20.96715665851379,21.016725540161133,11189160,0.0,0
2020-06-12,20.322776543362238,20.967156884857918,20.322776543362238,20.86802101135254,8460792,0.0,0
2020-06-15,20.52104756944597,20.818453288654393,20.02537011019229,20.12450408935547,9770902,0.0,0
2020-06-16,21.016726394590375,23.29684209899971,21.016726394590375,23.19770622253418,50764920,0.0,0
2020-06-17,23.296841883397363,23.296841883397363,22.30548690963577,22.553325653076172,18823530,0.0,0
2020-06-18,22.602891732702872,27.510099411010742,22.503757752017442,27.510099411010742,90722500,0.0,0
2020-06-19,27.063989403006186,27.857074498235445,25.82479571439126,26.816150665283203,51080322,0.0,0
2020-06-22,24.536035282482864,26.221339472370953,24.38733241651851,25.081279754638672,47570140,0.0,0
2020-06-23,25.0,25.0,23.100000381469727,23.950000762939453,34880340,0.21872,0
2020-06-24,23.850000381469727,24.799999237060547,23.399999618530273,23.600000381469727,22724960,0.0,0
2020-06-26,23.450000762939453,24.299999237060547,23.350000381469727,23.75,12080000,0.0,0
2020-06-29,23.75,24.25,23.0,23.399999618530273,16869840,0.0,0
2020-06-30,23.75,24.700000762939453,23.5,23.700000762939453,27147350,0.0,0
2020-07-02,22.899999618530273,23.600000381469727,22.299999237060547,23.450000762939453,48768960,0.0,0
2020-07-03,23.899999618530273,26.450000762939453,23.299999237060547,26.0,53491370,0.0,0
2020-07-06,26.0,28.149999618530273,25.950000762939453,27.450000762939453,46848540,0.0,0
2020-07-07,28.799999237060547,29.950000762939453,26.25,26.350000381469727,53500330,0.0,0
2020-07-08,26.799999237060547,27.399999618530273,26.200000762939453,27.200000762939453,24527970,0.0,0
2020-07-09,28.100000381469727,28.549999237060547,27.049999237060547,27.399999618530273,25833680,0.0,0
2020-07-10,27.0,27.149999618530273,25.950000762939453,26.100000381469727,25003870,0.0,0
2020-07-13,26.399999618530273,27.350000381469727,25.75,26.899999618530273,21510460,0.0,0
2020-07-14,26.450000762939453,26.5,24.950000762939453,25.549999237060547,28514940,0.0,0
2020-07-15,25.700000762939453,26.350000381469727,24.399999618530273,24.75,19074960,0.0,0
2020-07-16,24.75,24.75,22.899999618530273,23.600000381469727,28057300,0.0,0
2020-07-17,23.799999237060547,24.0,22.450000762939453,23.0,21082040,0.0,0
2020-07-20,23.350000381469727,23.549999237060547,22.600000381469727,23.399999618530273,12368560,0.0,0
2020-07-21,23.799999237060547,24.200000762939453,23.149999618530273,23.850000381469727,18492640,0.0,0
2020-07-22,24.049999237060547,25.399999618530273,23.25,23.649999618530273,33453010,0.0,0
2020-07-23,24.049999237060547,24.100000381469727,22.649999618530273,23.5,19045570,0.0,0
2020-07-24,23.25,23.399999618530273,22.0,22.149999618530273,18802020,0.0,0
2020-07-27,22.200000762939453,22.75,21.350000381469727,21.850000381469727,14558870,0.0,0
2020-07-28,22.350000381469727,22.700000762939453,21.899999618530273,22.049999237060547,11956120,0.0,0
2020-07-29,22.200000762939453,23.100000381469727,21.850000381469727,23.100000381469727,12527810,0.0,0
2020-07-30,23.5,23.5,22.75,22.899999618530273,11875800,0.0,0
2020-07-31,23.0,23.549999237060547,22.549999237060547,22.899999618530273,6867814,0.0,0
2020-08-03,23.149999618530273,23.25,22.100000381469727,22.600000381469727,20665970,0.0,0
2020-08-04,22.850000381469727,23.200000762939453,22.450000762939453,22.950000762939453,11137000,0.0,0
2020-08-05,23.399999618530273,23.5,22.799999237060547,23.399999618530273,11553680,0.0,0
2020-08-06,23.450000762939453,23.450000762939453,22.649999618530273,23.299999237060547,8029384,0.0,0
2020-08-07,23.25,23.399999618530273,22.149999618530273,22.700000762939453,12117040,0.0,0
2020-08-10,22.649999618530273,22.700000762939453,21.799999237060547,22.0,8136534,0.0,0
2020-08-11,22.200000762939453,22.450000762939453,21.850000381469727,22.100000381469727,6056319,0.0,0
2020-08-12,22.0,22.350000381469727,21.100000381469727,22.25,15402180,0.0,0
2020-08-13,22.399999618530273,22.5,22.049999237060547,22.299999237060547,6528379,0.0,0
2020-08-14,22.299999237060547,22.5,22.049999237060547,22.399999618530273,4588839,0.0,0
2020-08-17,22.700000762939453,23.549999237060547,22.5,23.299999237060547,13096360,0.0,0
2020-08-18,23.149999618530273,23.799999237060547,22.600000381469727,22.899999618530273,8896504,0.0,0
2020-08-19,23.5,23.5,22.399999618530273,22.75,3643050,0.0,0
2020-08-20,22.299999237060547,22.700000762939453,22.299999237060547,22.549999237060547,5140888,0.0,0
2020-08-21,22.700000762939453,22.850000381469727,22.200000762939453,22.549999237060547,6131526,0.0,0
2020-08-24,22.549999237060547,22.799999237060547,22.200000762939453,22.450000762939453,4741294,0.0,0
2020-08-25,22.549999237060547,22.600000381469727,21.700000762939453,22.0,9889131,0.0,0
2020-08-26,22.299999237060547,22.350000381469727,21.899999618530273,22.100000381469727,5147883,0.0,0
2020-08-27,22.450000762939453,22.899999618530273,21.799999237060547,22.799999237060547,9996123,0.0,0
2020-08-28,22.799999237060547,23.200000762939453,22.399999618530273,22.75,10459160,0.0,0
2020-08-31,22.850000381469727,23.799999237060547,22.549999237060547,22.549999237060547,23672060,0.0,0
2020-09-01,22.850000381469727,22.899999618530273,22.149999618530273,22.25,10523990,0.0,0
2020-09-02,22.600000381469727,22.899999618530273,22.0,22.399999618530273,11078720,0.0,0
2020-09-03,22.200000762939453,22.299999237060547,21.0,21.350000381469727,21826980,0.0,0
2020-09-04,20.799999237060547,20.950000762939453,20.350000381469727,20.899999618530273,16235450,0.0,0
2020-09-07,20.700000762939453,20.899999618530273,19.559999465942383,20.0,17162940,0.0,0
2020-09-08,20.100000381469727,20.350000381469727,19.34000015258789,19.739999771118164,9780754,0.0,0
2020-09-09,19.6200008392334,19.739999771118164,19.219999313354492,19.5,9135145,0.0,0
2020-09-10,19.600000381469727,19.799999237060547,18.559999465942383,18.6200008392334,15575420,0.0,0
2020-09-11,18.8799991607666,19.34000015258789,18.399999618530273,19.15999984741211,9126018,0.0,0
2020-09-14,19.200000762939453,19.3799991607666,18.68000030517578,18.959999084472656,6940005,0.0,0
2020-09-15,19.0,19.360000610351562,18.639999389648438,19.200000762939453,5971424,0.0,0
2020-09-16,19.200000762939453,19.3799991607666,18.719999313354492,19.079999923706055,9683658,0.0,0
2020-09-17,19.040000915527344,19.1200008392334,18.700000762939453,18.940000534057617,4543046,0.0,0
2020-09-18,18.959999084472656,19.0,18.739999771118164,18.940000534057617,7984369,0.0,0
2020-09-21,18.979999542236328,19.459999084472656,18.799999237060547,18.799999237060547,9190839,0.0,0
2020-09-22,18.899999618530273,19.100000381469727,18.65999984741211,19.0,5793658,0.0,0
2020-09-23,19.079999923706055,19.15999984741211,18.479999542236328,18.6200008392334,5797296,0.0,0
2020-09-24,18.479999542236328,18.479999542236328,17.739999771118164,17.760000228881836,10226940,0.0,0
2020-09-25,17.979999542236328,18.18000030517578,17.5,17.68000030517578,6998087,0.0,0
2020-09-28,17.799999237060547,17.860000610351562,17.299999237060547,17.760000228881836,7028400,0.0,0
2020-09-29,18.15999984741211,18.3799991607666,17.8799991607666,17.920000076293945,5081630,0.0,0
2020-09-30,17.940000534057617,18.65999984741211,17.81999969482422,18.440000534057617,7847165,0.0,0
2020-10-05,18.799999237060547,18.799999237060547,17.799999237060547,17.8799991607666,6432791,0.0,0
2020-10-06,18.100000381469727,19.18000030517578,18.100000381469727,19.0,9054297,0.0,0
2020-10-07,19.0,19.399999618530273,18.760000228881836,19.31999969482422,5277563,0.0,0
2020-10-08,19.31999969482422,19.31999969482422,18.920000076293945,19.260000228881836,4020573,0.0,0
2020-10-09,19.239999771118164,19.31999969482422,18.719999313354492,18.920000076293945,7612345,0.0,0
2020-10-12,19.299999237060547,20.299999237060547,19.040000915527344,19.979999542236328,16641440,0.0,0
2020-10-14,20.299999237060547,20.450000762939453,19.719999313354492,20.0,14003880,0.0,0
2020-10-15,20.0,20.0,18.84000015258789,19.200000762939453,11175410,0.0,0
2020-10-16,19.360000610351562,19.479999542236328,19.0,19.360000610351562,9749903,0.0,0
2020-10-19,19.360000610351562,19.719999313354492,19.219999313354492,19.3799991607666,6210935,0.0,0
2020-10-20,19.459999084472656,19.780000686645508,18.899999618530273,19.520000457763672,8321144,0.0,0
2020-10-21,19.540000915527344,19.68000030517578,19.0,19.040000915527344,6672200,0.0,0
2020-10-22,19.020000457763672,19.200000762939453,18.68000030517578,19.0,5406400,0.0,0
2020-10-23,19.0,19.100000381469727,18.540000915527344,18.600000381469727,6115042,0.0,0
2020-10-27,18.600000381469727,18.700000762939453,18.15999984741211,18.540000915527344,5148234,0.0,0
2020-10-28,18.540000915527344,19.200000762939453,18.1200008392334,19.079999923706055,10133920,0.0,0
2020-10-29,18.399999618530273,18.399999618530273,17.68000030517578,17.799999237060547,22613000,0.0,0
2020-10-30,17.899999618530273,17.920000076293945,16.84000015258789,17.079999923706055,17761000,0.0,0
2020-11-02,17.200000762939453,17.239999771118164,16.5,16.920000076293945,12192690,0.0,0
2020-11-03,17.0,18.280000686645508,17.0,18.200000762939453,20070400,0.0,0
2020-11-04,18.079999923706055,18.399999618530273,17.280000686645508,17.420000076293945,13218370,0.0,0
2020-11-05,18.299999237060547,20.75,18.020000457763672,20.700000762939453,57061220,0.0,0
2020-11-06,20.799999237060547,21.649999618530273,20.0,21.049999237060547,43268540,0.0,0
2020-11-09,22.200000762939453,23.299999237060547,21.950000762939453,22.299999237060547,49100380,0.0,0
2020-11-10,22.5,22.600000381469727,21.25,21.75,20374950,0.0,0
2020-11-11,21.100000381469727,22.450000762939453,20.899999618530273,21.549999237060547,18395250,0.0,0
2020-11-12,21.799999237060547,22.200000762939453,21.0,21.200000762939453,12727910,0.0,0
2020-11-13,20.700000762939453,20.899999618530273,20.149999618530273,20.75,13756600,0.0,0
2020-11-16,21.049999237060547,21.149999618530273,20.0,20.299999237060547,11839630,0.0,0
2020-11-17,20.399999618530273,20.549999237060547,19.65999984741211,20.049999237060547,9823988,0.0,0
2020-11-18,20.049999237060547,21.0,19.899999618530273,20.549999237060547,12241430,0.0,0
2020-11-19,20.600000381469727,21.5,20.299999237060547,20.700000762939453,16789300,0.0,0
2020-11-20,21.100000381469727,21.149999618530273,20.350000381469727,20.700000762939453,10107600,0.0,0
2020-11-23,20.700000762939453,20.799999237060547,19.959999084472656,20.100000381469727,11329070,0.0,0
2020-11-24,20.049999237060547,22.0,20.049999237060547,21.399999618530273,20660620,0.0,0
2020-11-25,21.399999618530273,21.399999618530273,20.350000381469727,20.600000381469727,16787690,0.0,0
2020-11-26,20.399999618530273,20.75,20.149999618530273,20.299999237060547,14827600,0.0,0
2020-11-27,20.299999237060547,20.649999618530273,20.0,20.200000762939453,7004572,0.0,0
2020-11-30,20.299999237060547,20.600000381469727,20.0,20.0,9663792,0.0,0
2020-12-01,20.0,20.5,19.959999084472656,20.450000762939453,6020951,0.0,0
2020-12-02,20.450000762939453,20.649999618530273,19.920000076293945,20.100000381469727,10429330,0.0,0
2020-12-03,20.149999618530273,20.350000381469727,19.920000076293945,20.200000762939453,7515269,0.0,0
2020-12-04,20.200000762939453,20.200000762939453,19.68000030517578,19.81999969482422,7883872,0.0,0
2020-12-07,19.81999969482422,20.0,19.399999618530273,19.540000915527344,4388383,0.0,0
