Date,Open,High,Low,Close,Volume,Dividends,Stock Splits
2020-01-02,1.7121451179263834,1.7220419009681227,1.6923515518429042,1.7022483348846436,205082200,0.0,0
2020-01-03,1.7121450532418652,1.7220418359097063,1.6725579225705014,1.6824547052383423,298156100,0.0,0
2020-01-06,1.6824547595455908,1.6824547595455908,1.652764292604746,1.662661075592041,356578000,0.0,0
2020-01-07,1.6626610755920412,1.6824547595455908,1.6626610755920412,1.662661075592041,211632800,0.0,0
2020-01-08,1.6527642285494706,1.6527642285494706,1.6329706633420087,1.6428674459457397,325752400,0.0,0
2020-01-09,1.6626610219237048,1.6824547052383423,1.652764239255864,1.6824547052383423,289070100,0.0,0
2020-01-10,1.682454714433925,1.7220418453216553,1.6725579317119923,1.7220418453216553,562312600,0.0,0
2020-01-13,1.7220418813986482,1.7517322301864624,1.712145098469377,1.7517322301864624,526836000,0.0,0
2020-01-14,1.7616289309071285,1.8012161787557848,1.7517321484397028,1.78142249584198,732317100,0.0,0
2020-01-15,1.801216206461392,1.801216206461392,1.7517321753841657,1.7715257406234741,455081100,0.0,0
2020-01-16,1.7814225232431284,1.7814225232431284,1.76162895800382,1.7715257406234741,242443500,0.0,0
2020-01-17,1.78142249584198,1.7913192783094058,1.7616289309071285,1.78142249584198,462144800,0.0,0
2020-01-20,1.7913193438888706,1.801216244697571,1.7814225610591277,1.8012162446975708,319728800,0.0,0
2020-01-21,1.7913192959287827,1.8012161964725073,1.731938600540161,1.7319386005401611,440510700,0.0,0
2020-01-22,1.741835365972277,1.78142249584198,1.7220418010374254,1.78142249584198,414038800,0.0,0
2020-01-23,1.761628920577455,1.7715257029868487,1.7121450085304852,1.741835355758667,533197500,0.0,0
2020-01-24,1.731938600540161,1.731938600540161,1.7121450354106205,1.7319386005401611,88954100,0.0,0
2020-01-29,1.6725579500198364,1.6923515156803621,1.662661049210616,1.6725579500198364,376042900,0.0,0
2020-01-30,1.672557939784998,1.6923515053244016,1.6230739079575323,1.6329706907272339,443764000,0.0,0
2020-01-31,1.6428674082101575,1.652764190586566,1.6131770610809326,1.6131770610809326,336329300,0.0,0
2020-02-03,1.6230738807382779,1.6527642285494706,1.5933835329270853,1.6428674459457397,674156500,0.0,0
2020-02-04,1.6626610310111036,1.7220418453216553,1.6626610310111036,1.7220418453216553,574926400,0.0,0
2020-02-05,1.76162895800382,1.7814225232431284,1.7418353927645116,1.7715257406234741,635208300,0.0,0
2020-02-06,1.7715258043187883,1.8012162712242286,1.7616290213432948,1.7913193702697754,544731900,0.0,0
2020-02-07,1.7616290213432948,1.8012162712242286,1.7517322383678011,1.7913193702697754,394665900,0.0,0
2020-02-10,1.76162895800382,1.7913193058627825,1.76162895800382,1.7715257406234741,200845200,0.0,0
2020-02-11,1.78142249584198,1.8012161787557848,1.7715257133745543,1.78142249584198,159575600,0.0,0
2020-02-12,1.7715257601887735,1.8507001399993896,1.7616289774598162,1.8507001399993896,587234000,0.0,0
2020-02-13,1.8605968852530668,1.8803904503123088,1.8111129726049615,1.8210097551345825,357645200,0.0,0
2020-02-14,1.8210098371752157,1.8309066201507094,1.781422587294282,1.7913193702697754,197061900,0.0,0
2020-02-17,1.8111130090835597,1.860596922728347,1.7913193256466884,1.8507001399993896,521520500,0.0,0
2020-02-18,1.8408033201938245,1.8605968852530668,1.8111129726049615,1.8210097551345825,368440900,0.0,0
2020-02-19,1.8210098103570567,1.8408033760165425,1.7913193438888706,1.8012162446975708,287838700,0.0,0
2020-02-20,1.8012162804832754,1.830906629562378,1.7814225964515806,1.830906629562378,230496300,0.0,0
2020-02-21,1.8507001027234458,1.8507001027234458,1.8111129726049615,1.8210097551345825,275265900,0.0,0
2020-02-24,1.8408033497306453,1.9496680772822323,1.8012162189769612,1.939771294593811,1255533000,0.0,0
2020-02-25,1.9397712672633372,1.979358397459257,1.8902872365394832,1.949668049812317,949056200,0.0,0
2020-02-26,1.9199777021653772,1.979358397459257,1.8902872365394832,1.949668049812317,800819100,0.0,0
2020-02-27,1.9397713222045974,1.9496681050338895,1.900184072908471,1.9298745393753052,437062600,0.0,0
2020-02-28,1.8902872153120849,1.9100807801877686,1.8507000855607176,1.8704936504364014,636399700,0.0,0
2020-03-02,1.890287325170055,1.969461707253126,1.880390542157041,1.9595649242401123,769762700,0.0,0
2020-03-03,1.9793584819864938,2.009048830901341,1.9100808832062246,1.9199777841567993,639508300,0.0,0
2020-03-04,1.9298745479652455,1.9793584623319613,1.8902872984929149,1.9694616794586182,492048000,0.0,0
2020-03-05,1.979358397459257,1.9991519625572167,1.9397712672633372,1.949668049812317,1523572000,0.0,0
2020-03-06,1.939771311946433,1.939771311946433,1.8902872800827026,1.8902872800827026,431483800,0.0,0
2020-03-09,1.8309065745414745,1.8902872709152194,1.8210097918125172,1.8507001399993896,617376300,0.0,0
2020-03-10,1.8704937419421979,1.9100808736301942,1.840803393176201,1.8803905248641968,622325400,0.0,0
2020-03-11,1.9100808736301942,1.9100808736301942,1.860596959020199,1.8803905248641968,422122100,0.0,0
2020-03-12,1.8408033760165425,1.8507001588462855,1.7814225610591277,1.8012162446975708,579607800,0.0,0
2020-03-13,1.6824546711677226,1.8111129612232104,1.6626609882539178,1.78142249584198,1172699000,0.0,0
2020-03-16,1.7517322216267965,1.7814225702695317,1.6923515243413259,1.7121450901031494,560049000,0.0,0
2020-03-17,1.731938674482066,1.741835457469361,1.632970726630156,1.662661075592041,601544100,0.0,0
2020-03-18,1.6626610755920412,1.7715258064312462,1.642867509617451,1.662661075592041,1138156000,0.0,0
2020-03-19,1.7022482137906159,1.7022482137906159,1.4449316370523775,1.4845187664031982,1634304000,0.0,0
2020-03-20,1.514209212803656,1.6626610755920412,1.514209212803656,1.662661075592041,1061096000,0.0,0
2020-03-23,1.57358994826046,1.6230738606671917,1.5438994828374677,1.5636931657791138,694486300,0.0,0
2020-03-24,1.6527642285494706,1.6626610111532014,1.6032803155308162,1.6428674459457397,612812800,0.0,0
2020-03-25,1.6923515425328857,1.712145108507476,1.6131771606555658,1.662661075592041,778688600,0.0,0
2020-03-26,1.6329706907272339,1.6824547225546997,1.6230739079575323,1.6329706907272339,503985700,0.0,0
2020-03-27,1.6626609836039932,1.6824546664624414,1.6428674187244978,1.6527642011642456,450103700,0.0,0
2020-03-30,1.6131771251878304,1.6626610390363392,1.5933835596484267,1.6329706907272339,476339900,0.0,0
2020-03-31,1.6626610310111036,1.7220418453216553,1.652764248289171,1.7220418453216553,674242000,0.0,0
2020-04-01,1.6923514879061834,1.7319386185775472,1.6626610219237048,1.6824547052383423,505112300,0.0,0
2020-04-02,1.652764301696986,1.7319386840098623,1.652764301696986,1.7022483348846436,362259100,0.0,0
2020-04-03,1.6923515156803621,1.722041864171151,1.6725579500198364,1.6725579500198364,369895400,0.0,0
2020-04-06,1.6923514604568481,1.7121450254714856,1.6626609949559383,1.6923514604568481,665222700,0.0,0
2020-04-07,1.7121450715370028,1.7616289854049683,1.7022482887634096,1.7616289854049683,621012300,0.0,0
2020-04-08,1.731938655864973,1.7715257873886199,1.6923515243413259,1.7121450901031494,646596500,0.0,0
2020-04-09,1.7220418079788042,1.7418353729934417,1.6824546779495295,1.6923514604568481,523858300,0.0,0
2020-04-14,1.6923514604568481,1.7121450254714856,1.6626609949559383,1.6923514604568481,432120900,0.0,0
2020-04-15,1.7022482429641668,1.7319385904861229,1.6725578954422107,1.6923514604568481,387864200,0.0,0
2020-04-16,1.6824547328500994,1.712145081340888,1.6725579500198364,1.6725579500198364,372403900,0.0,0
2020-04-17,1.7022483072222376,1.731938655864973,1.6923515243413259,1.7121450901031494,560263400,0.0,0
2020-04-20,1.7121450085304852,1.751732138168061,1.7121450085304852,1.741835355758667,348850000,0.0,0
2020-04-21,1.7319385904861229,1.7418353729934417,1.6923514604568481,1.6923514604568481,330117700,0.0,0
2020-04-22,1.672557985759425,1.7319386840098623,1.672557985759425,1.7022483348846436,378754100,0.0,0
2020-04-23,1.7121450625997228,1.7319386280435878,1.70224827987779,1.7220418453216553,232770300,0.0,0
2020-04-24,1.7220418079788042,1.7220418079788042,1.6923514604568481,1.6923514604568481,239713600,0.0,0
2020-04-27,1.7022482705740243,1.7121450532418652,1.6824547052383423,1.6824547052383423,286573000,0.0,0
2020-04-28,1.6923515518429042,1.7022483348846438,1.672557985759425,1.7022483348846436,159020800,0.0,0
2020-04-29,1.7121450625997228,1.7220418453216553,1.70224827987779,1.7220418453216553,232739500,0.0,0
2020-05-04,1.7022482313419367,1.7022482313419367,1.6527642011642454,1.6527642011642456,465812100,0.0,0
2020-05-05,1.6725579500198364,1.6923515156803621,1.662661049210616,1.6725579500198364,199764700,0.0,0
2020-05-06,1.6824546779495295,1.7220418079788042,1.6725578954422107,1.6923514604568481,426145400,0.0,0
2020-05-07,1.6923514604568481,1.7220418079788042,1.6923514604568481,1.6923514604568481,204022000,0.0,0
2020-05-08,1.7121450532418652,1.7121450532418652,1.6725579225705014,1.6824547052383423,344047800,0.0,0
2020-05-11,1.7022482429641668,1.7220418079788042,1.6824546779495295,1.6923514604568481,404137600,0.0,0
2020-05-12,1.6824547328500994,1.6923515156803621,1.662661049210616,1.6725579500198364,439813500,0.0,0
2020-05-13,1.6725579500198364,1.6824547328500994,1.662661049210616,1.6725579500198364,292814700,0.0,0
2020-05-14,1.6626609836039932,1.6725578840226936,1.6329706362847503,1.6527642011642456,436346200,0.0,0
2020-05-15,1.6626610390363392,1.672557939784998,1.6329706907272339,1.6329706907272339,310599500,0.0,0
2020-05-18,1.642867436038625,1.6527642185826745,1.6032803058624268,1.6032803058624268,506025900,0.0,0
2020-05-19,1.6230738987852404,1.6329706814990137,1.5834867679301474,1.593383550643921,713823800,0.0,0
2020-05-20,1.593383496328116,1.623073843457341,1.5834867139517077,1.6131770610809326,384825300,0.0,0
2020-05-21,1.6230738987852404,1.6230738987852404,1.5834867679301474,1.593383550643921,422620000,0.0,0
2020-05-22,1.5735900223905346,1.5834868053381075,1.4647252919882754,1.4944156408309937,1206831000,0.0,0
2020-05-25,1.4944155592643213,1.5241059064865112,1.4647252120421315,1.5241059064865112,592825200,0.0,0
2020-05-26,1.559999942779541,1.5700000524520874,1.5499999523162842,1.5499999523162842,294894200,0.015894,0
2020-05-27,1.559999942779541,1.559999942779541,1.5399999618530273,1.5499999523162842,273189100,0.0,0
2020-05-28,1.5399999618530273,1.5399999618530273,1.5099999904632568,1.5299999713897705,522668700,0.0,0
2020-05-29,1.5299999713897705,1.559999942779541,1.5199999809265137,1.559999942779541,563366400,0.0,0
2020-06-01,1.5800000429153442,1.600000023841858,1.5700000524520874,1.590000033378601,633773500,0.0,0
2020-06-02,1.590000033378601,1.6100000143051147,1.559999942779541,1.5800000429153442,490186000,0.0,0
2020-06-03,1.600000023841858,1.6100000143051147,1.559999942779541,1.5700000524520874,439611800,0.0,0
2020-06-04,1.5700000524520874,1.5800000429153442,1.5399999618530273,1.5700000524520874,314629600,0.0,0
2020-06-05,1.5700000524520874,1.590000033378601,1.559999942779541,1.5700000524520874,325891600,0.0,0
2020-06-08,1.5800000429153442,1.600000023841858,1.5399999618530273,1.5499999523162842,427990100,0.0,0
2020-06-09,1.559999942779541,1.5700000524520874,1.5399999618530273,1.5399999618530273,475501100,0.0,0
2020-06-10,1.5499999523162842,1.559999942779541,1.5299999713897705,1.5399999618530273,549426400,0.0,0
2020-06-11,1.5499999523162842,1.5499999523162842,1.5,1.5099999904632568,706477600,0.0,0
2020-06-12,1.4900000095367432,1.5099999904632568,1.4700000286102295,1.4900000095367432,480680900,0.0,0
2020-06-15,1.5,1.5099999904632568,1.4700000286102295,1.4700000286102295,408782700,0.0,0
2020-06-16,1.5,1.5299999713897705,1.4900000095367432,1.5099999904632568,400485300,0.0,0
2020-06-17,1.5199999809265137,1.5399999618530273,1.5099999904632568,1.5199999809265137,362207200,0.0,0
2020-06-18,1.5199999809265137,1.5199999809265137,1.4900000095367432,1.5199999809265137,333230500,0.0,0
2020-06-19,1.5099999904632568,1.5199999809265137,1.4900000095367432,1.5099999904632568,550133045,0.0,0
2020-06-22,1.5099999904632568,1.5099999904632568,1.4700000286102295,1.4800000190734863,432345100,0.0,0
2020-06-23,1.4900000095367432,1.4900000095367432,1.4600000381469727,1.4800000190734863,348788000,0.0,0
2020-06-24,1.4800000190734863,1.4800000190734863,1.4500000476837158,1.4600000381469727,653280900,0.0,0
2020-06-26,1.4700000286102295,1.4700000286102295,1.440000057220459,1.440000057220459,442671700,0.0,0
2020-06-29,1.440000057220459,1.440000057220459,1.3799999952316284,1.399999976158142,835608800,0.0,0
2020-06-30,1.409999966621399,1.4199999570846558,1.3700000047683716,1.3700000047683716,551928900,0.0,0
2020-07-02,1.3899999856948853,1.4600000381469727,1.3899999856948853,1.4600000381469727,821331300,0.0,0
2020-07-03,1.4900000095367432,1.5700000524520874,1.4800000190734863,1.559999942779541,1253914131,0.0,0
2020-07-06,1.590000033378601,1.6200000047683716,1.5800000429153442,1.6200000047683716,890913700,0.0,0
2020-07-07,1.6399999856948853,1.659999966621399,1.5399999618530273,1.5499999523162842,1026496000,0.0,0
2020-07-08,1.5800000429153442,1.600000023841858,1.559999942779541,1.590000033378601,527981700,0.0,0
2020-07-09,1.600000023841858,1.6399999856948853,1.590000033378601,1.6200000047683716,819412600,0.0,0
2020-07-10,1.590000033378601,1.6100000143051147,1.5399999618530273,1.559999942779541,1996498000,0.0,0
2020-07-13,1.5700000524520874,1.5800000429153442,1.5299999713897705,1.5399999618530273,662583500,0.0,0
2020-07-14,1.5399999618530273,1.5399999618530273,1.4700000286102295,1.5,703653800,0.0,0
2020-07-15,1.5199999809265137,1.5199999809265137,1.4600000381469727,1.4700000286102295,609534000,0.0,0
2020-07-16,1.4800000190734863,1.4800000190734863,1.4199999570846558,1.440000057220459,644609900,0.0,0
2020-07-17,1.4600000381469727,1.4600000381469727,1.409999966621399,1.4199999570846558,573034300,0.0,0
2020-07-20,1.4199999570846558,1.4299999475479126,1.399999976158142,1.409999966621399,369158200,0.0,0
2020-07-21,1.4299999475479126,1.4700000286102295,1.4199999570846558,1.4600000381469727,654536500,0.0,0
2020-07-22,1.4700000286102295,1.4800000190734863,1.4199999570846558,1.440000057220459,505342400,0.0,0
2020-07-23,1.4500000476837158,1.4600000381469727,1.409999966621399,1.440000057220459,483121400,0.0,0
2020-07-24,1.440000057220459,1.440000057220459,1.409999966621399,1.4199999570846558,375058100,0.0,0
2020-07-27,1.4299999475479126,1.440000057220459,1.3899999856948853,1.399999976158142,413540600,0.0,0
2020-07-28,1.409999966621399,1.4199999570846558,1.399999976158142,1.399999976158142,355499900,0.0,0
2020-07-29,1.399999976158142,1.409999966621399,1.3899999856948853,1.409999966621399,233235300,0.0,0
2020-07-30,1.409999966621399,1.4199999570846558,1.409999966621399,1.4199999570846558,232149100,0.0,0
2020-07-31,1.4199999570846558,1.4299999475479126,1.399999976158142,1.409999966621399,210766700,0.0,0
2020-08-03,1.399999976158142,1.409999966621399,1.399999976158142,1.399999976158142,261883100,0.0,0
2020-08-04,1.409999966621399,1.4199999570846558,1.399999976158142,1.4199999570846558,459554100,0.0,0
2020-08-05,1.4199999570846558,1.4299999475479126,1.399999976158142,1.409999966621399,352073100,0.0,0
2020-08-06,1.409999966621399,1.5099999904632568,1.399999976158142,1.5,1177347000,0.0,0
2020-08-07,1.5099999904632568,1.559999942779541,1.4700000286102295,1.5199999809265137,1109189000,0.0,0
2020-08-10,1.5199999809265137,1.5499999523162842,1.5,1.5099999904632568,557290700,0.0,0
2020-08-11,1.5199999809265137,1.5399999618530273,1.440000057220459,1.4600000381469727,827670300,0.0,0
2020-08-12,1.4600000381469727,1.4600000381469727,1.409999966621399,1.4299999475479126,576140100,0.0,0
2020-08-13,1.4299999475479126,1.4299999475479126,1.399999976158142,1.409999966621399,617762500,0.0,0
2020-08-14,1.409999966621399,1.4900000095367432,1.409999966621399,1.4500000476837158,903247300,0.0,0
2020-08-17,1.4600000381469727,1.5,1.4600000381469727,1.4700000286102295,766833000,0.0,0
2020-08-18,1.4800000190734863,1.4900000095367432,1.4199999570846558,1.440000057220459,714284900,0.0,0
2020-08-19,1.440000057220459,1.4500000476837158,1.4199999570846558,1.440000057220459,221939500,0.0,0
2020-08-20,1.4299999475479126,1.440000057220459,1.4299999475479126,1.4299999475479126,169346100,0.0,0
2020-08-21,1.4500000476837158,1.4800000190734863,1.4500000476837158,1.4500000476837158,431401200,0.0,0
2020-08-24,1.4700000286102295,1.4900000095367432,1.4600000381469727,1.4800000190734863,570027700,0.0,0
2020-08-25,1.4900000095367432,1.5099999904632568,1.4600000381469727,1.4600000381469727,355049400,0.0,0
2020-08-26,1.4600000381469727,1.4800000190734863,1.440000057220459,1.4600000381469727,525700700,0.0,0
2020-08-27,1.4600000381469727,1.5099999904632568,1.440000057220459,1.4900000095367432,781703200,0.0,0
2020-08-28,1.4900000095367432,1.5099999904632568,1.4700000286102295,1.4800000190734863,645496400,0.0,0
2020-08-31,1.4900000095367432,1.5399999618530273,1.4800000190734863,1.4800000190734863,1196061000,0.0,0
2020-09-01,1.4800000190734863,1.5,1.4700000286102295,1.4800000190734863,626472700,0.0,0
2020-09-02,1.4900000095367432,1.4900000095367432,1.4600000381469727,1.4700000286102295,421224900,0.0,0
2020-09-03,1.4700000286102295,1.4900000095367432,1.4700000286102295,1.4800000190734863,300550400,0.0,0
2020-09-04,1.4700000286102295,1.4800000190734863,1.4500000476837158,1.4800000190734863,458950500,0.0,0
2020-09-07,1.4800000190734863,1.5299999713897705,1.4700000286102295,1.4900000095367432,733689700,0.0,0
2020-09-08,1.4900000095367432,1.5,1.4800000190734863,1.4900000095367432,468537400,0.0,0
2020-09-09,1.4800000190734863,1.5199999809265137,1.4700000286102295,1.5,637898900,0.0,0
2020-09-10,1.5099999904632568,1.5299999713897705,1.4900000095367432,1.4900000095367432,463040400,0.0,0
2020-09-11,1.4900000095367432,1.5,1.4900000095367432,1.4900000095367432,171276200,0.0,0
2020-09-14,1.4900000095367432,1.5,1.4700000286102295,1.4700000286102295,191937500,0.0,0
2020-09-15,1.4800000190734863,1.4800000190734863,1.4299999475479126,1.4500000476837158,478436200,0.0,0
2020-09-16,1.4600000381469727,1.4600000381469727,1.440000057220459,1.440000057220459,163307000,0.0,0
2020-09-17,1.4500000476837158,1.4500000476837158,1.4299999475479126,1.4299999475479126,202705000,0.0,0
2020-09-18,1.440000057220459,1.440000057220459,1.4299999475479126,1.4299999475479126,270944600,0.0,0
2020-09-21,1.4299999475479126,1.440000057220459,1.409999966621399,1.409999966621399,251760300,0.0,0
2020-09-22,1.409999966621399,1.409999966621399,1.3899999856948853,1.399999976158142,315541700,0.0,0
2020-09-23,1.399999976158142,1.409999966621399,1.3899999856948853,1.3899999856948853,254588700,0.0,0
2020-09-24,1.3799999952316284,1.3899999856948853,1.3300000429153442,1.340000033378601,628391600,0.0,0
2020-09-25,1.350000023841858,1.3600000143051147,1.309999942779541,1.309999942779541,560046400,0.0,0
2020-09-28,1.3200000524520874,1.3300000429153442,1.2999999523162842,1.309999942779541,446119700,0.0,0
2020-09-29,1.3300000429153442,1.3300000429153442,1.309999942779541,1.309999942779541,147313600,0.0,0
2020-09-30,1.309999942779541,1.350000023841858,1.309999942779541,1.340000033378601,465194300,0.0,0
2020-10-05,1.3600000143051147,1.3700000047683716,1.340000033378601,1.340000033378601,130763300,0.0,0
2020-10-06,1.350000023841858,1.3600000143051147,1.3300000429153442,1.3300000429153442,169383200,0.0,0
2020-10-07,1.3300000429153442,1.340000033378601,1.3200000524520874,1.3300000429153442,196828900,0.0,0
2020-10-08,1.3300000429153442,1.340000033378601,1.3200000524520874,1.3300000429153442,108959700,0.0,0
2020-10-09,1.340000033378601,1.350000023841858,1.3300000429153442,1.350000023841858,209084900,0.0,0
2020-10-12,1.350000023841858,1.3899999856948853,1.350000023841858,1.3899999856948853,328637500,0.0,0
2020-10-14,1.3799999952316284,1.3899999856948853,1.3600000143051147,1.3600000143051147,274665800,0.0,0
2020-10-15,1.3600000143051147,1.3600000143051147,1.3300000429153442,1.340000033378601,211666000,0.0,0
2020-10-16,1.340000033378601,1.3899999856948853,1.3300000429153442,1.3600000143051147,328681000,0.0,0
2020-10-19,1.3700000047683716,1.3899999856948853,1.3700000047683716,1.3899999856948853,210412000,0.0,0
2020-10-20,1.399999976158142,1.409999966621399,1.3300000429153442,1.340000033378601,659463700,0.0,0
2020-10-21,1.350000023841858,1.350000023841858,1.2999999523162842,1.3200000524520874,428510000,0.0,0
2020-10-22,1.309999942779541,1.3200000524520874,1.2999999523162842,1.309999942779541,201473400,0.0,0
2020-10-23,1.309999942779541,1.309999942779541,1.2599999904632568,1.2899999618530273,598678400,0.0,0
2020-10-27,1.2899999618530273,1.2899999618530273,1.2699999809265137,1.2899999618530273,247964900,0.0,0
2020-10-28,1.2799999713897705,1.2899999618530273,1.25,1.25,671307800,0.0,0
2020-10-29,1.2400000095367432,1.2400000095367432,1.2100000381469727,1.2200000286102295,397008500,0.0,0
2020-10-30,1.2100000381469727,1.2300000190734863,1.2000000476837158,1.2100000381469727,355986500,0.0,0
2020-11-02,1.2200000286102295,1.2300000190734863,1.2100000381469727,1.2200000286102295,182148100,0.0,0
2020-11-03,1.2300000190734863,1.3200000524520874,1.2200000286102295,1.2899999618530273,781892400,0.0,0
2020-11-04,1.2799999713897705,1.309999942779541,1.25,1.25,449131600,0.0,0
2020-11-05,1.2799999713897705,1.309999942779541,1.2699999809265137,1.2799999713897705,323954700,0.0,0
2020-11-06,1.2899999618530273,1.3799999952316284,1.2899999618530273,1.350000023841858,946979100,0.0,0
2020-11-09,1.3700000047683716,1.399999976158142,1.3600000143051147,1.3799999952316284,556044600,0.0,0
2020-11-10,1.399999976158142,1.399999976158142,1.3300000429153442,1.3300000429153442,531255100,0.0,0
2020-11-11,1.3300000429153442,1.350000023841858,1.3200000524520874,1.350000023841858,548906000,0.0,0
2020-11-12,1.3600000143051147,1.3700000047683716,1.350000023841858,1.350000023841858,296838500,0.0,0
2020-11-13,1.3600000143051147,1.3600000143051147,1.2799999713897705,1.2999999523162842,722047100,0.0,0
2020-11-16,1.309999942779541,1.309999942779541,1.2599999904632568,1.2699999809265137,608974500,0.0,0
2020-11-17,1.2599999904632568,1.2699999809265137,1.2400000095367432,1.2400000095367432,607981000,0.0,0
2020-11-18,1.2400000095367432,1.2799999713897705,1.2300000190734863,1.25,354112000,0.0,0
2020-11-19,1.25,1.2599999904632568,1.2300000190734863,1.2400000095367432,491998500,0.0,0
2020-11-20,1.2400000095367432,1.2599999904632568,1.2000000476837158,1.2200000286102295,1021739000,0.0,0
2020-11-23,1.2200000286102295,1.2200000286102295,1.2000000476837158,1.2200000286102295,510765300,0.0,0
2020-11-24,1.2200000286102295,1.2300000190734863,1.2000000476837158,1.2300000190734863,547927100,0.0,0
2020-11-25,1.2300000190734863,1.2599999904632568,1.2200000286102295,1.2200000286102295,723112500,0.0,0
2020-11-26,1.2200000286102295,1.2300000190734863,1.2200000286102295,1.2200000286102295,216298500,0.0,0
2020-11-27,1.2300000190734863,1.2300000190734863,1.2200000286102295,1.2300000190734863,224658300,0.0,0
2020-11-30,1.2400000095367432,1.2599999904632568,1.2200000286102295,1.2200000286102295,678090700,0.0,0
2020-12-01,1.2300000190734863,1.2300000190734863,1.2200000286102295,1.2300000190734863,217434500,0.0,0
2020-12-02,1.2200000286102295,1.2300000190734863,1.2100000381469727,1.2200000286102295,313007000,0.0,0
2020-12-03,1.2200000286102295,1.2300000190734863,1.2100000381469727,1.2200000286102295,247321300,0.0,0
2020-12-04,1.2200000286102295,1.2400000095367432,1.2200000286102295,1.2200000286102295,211198400,0.0,0
2020-12-07,1.2200000286102295,1.2300000190734863,1.2100000381469727,1.2100000381469727,149391383,0.0,0
