Date,Open,High,Low,Close,Volume,Dividends,Stock Splits
2020-01-02,29.668318664351244,30.202446639002527,29.425533726501225,30.05677604675293,4476665,0.0,0
2020-01-03,30.008218549819215,30.15388914499122,29.571206764303206,29.911104202270508,3107991,0.0,0
2020-01-06,29.57120645944731,29.57120645944731,28.64862294569888,28.842851638793945,5195903,0.0,0
2020-01-07,29.037078417842416,29.765433236947004,29.037078417842416,29.279863357543945,6442107,0.0,0
2020-01-08,29.571206614646666,29.668319109401782,28.988522384605442,29.376977920532227,4822810,0.0,0
2020-01-09,29.716876547676282,29.959661483764645,29.571205956483674,29.95966148376465,3562541,0.0,0
2020-01-10,29.862547583288034,29.862547583288034,29.085636517163977,29.279863357543945,5402660,0.0,0
2020-01-13,29.231306458629273,29.76543257314011,29.03707777027876,29.425533294677734,3795468,0.0,0
2020-01-14,29.716876989927535,29.716876989927535,29.085636517163977,29.279863357543945,3825901,0.0,0
2020-01-15,29.23130754024983,29.862548022293165,29.23130754024983,29.474092483520508,3230970,0.0,0
2020-01-16,29.813990579327385,31.173583984375004,29.66831813736324,31.173583984375,8544018,0.0,0
2020-01-17,31.173583984375004,31.173583984375004,31.173583984375004,31.173583984375,0,0.0,0
2020-01-20,29.32842129840146,29.42553379191569,28.502952137415928,28.745737075805664,204516600,0.0,0
2020-01-21,28.745736687970524,28.794292934072523,27.240468978881836,27.240468978881836,15700020,0.0,0
2020-01-22,27.43469703733704,28.551507342732833,27.19191210780308,28.26016616821289,21528470,0.0,0
2020-01-23,28.017380796313546,28.017380796313546,26.075101390708475,26.754898071289062,15724940,0.0,0
2020-01-24,26.366444067428606,26.754899600288837,26.075102880858957,26.560672760009766,5929750,0.0,0
2020-01-29,25.2496337890625,25.443862482206896,24.958292601648,25.2496337890625,15891220,0.0,0
2020-01-30,25.152520579470487,25.395305530724645,24.132824525123887,24.424165725708008,13980710,0.0,0
2020-01-31,24.861179807120706,25.249635365358078,24.278495543613538,24.61839485168457,9998145,0.0,0
2020-02-03,24.229938207292257,25.395304829764516,23.987153262739437,25.00684928894043,10226980,0.0,0
2020-02-04,25.346747275990808,26.51211383842708,25.1039623439455,26.172216415405273,17936920,0.0,0
2020-02-05,26.75490052380302,26.75490052380302,25.44386328668368,25.638090133666992,11336210,0.0,0
2020-02-06,25.92943207772032,26.269329508533335,25.249633511490142,26.02654457092285,10740010,0.0,0
2020-02-07,25.686648900856245,26.07510445720012,25.298191492210165,25.492420196533203,13299200,0.0,0
2020-02-10,25.05540674438366,25.73520536281281,24.81262178813071,25.589534759521484,7054428,0.0,0
2020-02-11,25.73520380419111,27.046242859015983,25.44386261525318,26.657787322998047,13516550,0.0,0
2020-02-12,26.706342063084637,27.483253091271756,26.31788654899108,27.289026260375977,15592580,0.0,0
2020-02-13,26.997683616461067,28.06593768451572,26.997683616461067,27.483253479003906,12111250,0.0,0
2020-02-14,27.483254346815208,28.357281608832228,26.99768446894001,27.87171173095703,11921590,0.0,0
2020-02-17,27.968824450074727,28.260167490528858,27.337583974210595,27.53181266784668,6336750,0.0,0
2020-02-18,27.386141026693153,27.386141026693153,26.463557545648804,26.609228134155273,6925229,0.0,0
2020-02-19,26.512114812960565,27.33758398271766,26.512114812960565,27.094799041748047,5235842,0.0,0
2020-02-20,27.094798824830544,27.434698109927226,26.803457638920293,26.997684478759766,4868762,0.0,0
2020-02-21,26.94912718536397,26.94912718536397,26.317886738869902,26.512113571166992,2829522,0.0,0
2020-02-24,26.31788678241659,26.366443027495702,25.78375882503627,26.075101852416992,6944294,0.0,0
2020-02-25,25.73520215959722,26.60922752285899,25.63808781872325,26.317886352539062,6776803,0.0,0
2020-02-26,25.735203742778655,27.82315386465688,25.63808939593039,27.094799041748047,13636370,0.0,0
2020-02-27,27.191912302399015,27.677482164941853,26.706342439856176,27.483253479003906,4732664,0.0,0
2020-02-28,26.657787259384012,27.531812676414187,26.60922915980883,27.094799041748047,7822130,0.0,0
2020-03-02,27.14335750224145,28.260167875091177,27.046243154101884,27.72603988647461,11204540,0.0,0
2020-03-03,27.774596507910825,28.11449578215122,27.289026645367986,27.483253479003906,7302839,0.0,0
2020-03-04,27.774598113527972,29.037079088201097,27.531813168221436,28.697179794311523,17870700,0.0,0
2020-03-05,28.84285186511601,28.84285186511601,28.163053286251174,28.502952575683594,5974500,0.0,0
2020-03-06,28.11449601185324,28.69717836982368,27.726038636803562,28.01738166809082,3960640,0.0,0
2020-03-09,27.191911715800835,27.191911715800835,26.12365767079112,26.317886352539062,13201350,0.0,0
2020-03-10,26.269328641569118,26.94912718536397,25.44386136277796,26.512113571166992,8122983,0.0,0
2020-03-11,26.852012674681912,27.386140627829054,26.2207722321462,26.415000915527344,5429000,0.0,0
2020-03-12,25.83231817052804,25.977988765105593,25.249633939915718,25.78376007080078,6522156,0.0,0
2020-03-13,24.278495425269718,25.92943385510894,23.84148176669398,25.492420196533203,10512560,0.0,0
2020-03-16,24.81262114233777,25.298191042205843,23.841481342601618,23.890039443969727,15078670,0.0,0
2020-03-17,23.45302522823711,24.132823812598467,22.57899979998831,23.161684036254883,15945930,0.0,0
2020-03-18,22.870340010086846,23.792923498925173,21.413630408111835,21.802087783813477,11695760,0.0,0
2020-03-19,21.219403396146564,21.753529504842568,19.714135708572506,20.830947875976562,22036430,0.0,0
2020-03-20,21.316519493253818,22.336215549141585,21.073734541632714,22.141986846923828,15187460,0.0,0
2020-03-23,20.733834130604066,21.413630847424248,20.345378599235094,20.68527603149414,11166540,0.0,0
2020-03-24,21.462189300476258,22.43332907106521,21.365074952956938,22.19054412841797,8145675,0.0,0
2020-03-25,23.210240635884738,24.035709828746565,22.627556390788026,23.792924880981445,17227710,0.0,0
2020-03-26,23.40446998929543,24.47272415978568,23.11312693245143,23.647254943847656,7590717,0.0,0
2020-03-27,24.27849566011901,25.39530609002404,24.27849566011901,25.15252113342285,12440600,0.0,0
2020-03-30,24.764064359523616,25.201078000906648,24.181380121780283,24.569835662841797,7801734,0.0,0
2020-03-31,25.929431221973704,27.289026457261393,25.7352025373746,26.512113571166992,18110850,0.0,0
2020-04-01,26.026545002668207,27.191913463451247,26.026545002668207,26.220773696899414,10195880,0.0,0
2020-04-02,26.172217010425193,27.046242415198687,25.832317727373812,26.900571823120117,5731672,0.0,0
2020-04-03,26.85201329147826,27.191912569051816,26.41500152228544,27.143356323242188,3809464,0.0,0
2020-04-06,27.968823564664916,27.968823564664916,26.997683831832077,27.580368041992188,4765668,0.0,0
2020-04-07,27.871712240593826,29.18274945298762,27.823154140537167,29.037078857421875,8674696,0.0,0
2020-04-08,28.551509038499855,29.279863870361087,28.357282194718135,28.600067138671875,7668080,0.0,0
2020-04-09,28.84285142561974,28.89140767238359,28.211609103877258,28.30872344970703,7061681,0.0,0
2020-04-14,28.600066848678658,29.619762862024224,28.163053213072214,29.376977920532227,7713129,0.0,0
2020-04-15,29.716877218844505,29.911104060720653,28.55150875837919,28.939964294433594,12578360,0.0,0
2020-04-16,28.502951655767923,29.668318228964853,28.357281065656064,29.425533294677734,8657092,0.0,0
2020-04-17,29.862548169040966,30.445232406214387,29.474092628359397,30.00821876525879,10588130,0.0,0
2020-04-20,29.66831932675578,29.911104270026453,29.13419319248114,29.474092483520508,12666640,0.0,0
2020-04-21,29.425534177577124,29.81399156593363,28.794293699950952,28.939964294433594,18545240,0.0,0
2020-04-22,30.105332074734186,30.251002665925714,28.891407394301357,29.522647857666016,8911647,0.0,0
2020-04-23,29.66831801431545,30.785130185797723,29.52264742525751,29.765432357788086,89890400,0.0,0
2020-04-24,29.619762258392427,29.619762258392427,28.842851202371815,29.085636138916016,6970558,0.0,0
2020-04-27,29.23130625355147,30.396672818572547,29.037077566563603,30.20244598388672,5046734,0.0,0
2020-04-28,30.153889133346734,30.493788423484894,29.86254794311524,30.34811782836914,3659685,0.0,0
2020-04-29,30.590901891955824,30.785130581397002,30.153888266864204,30.39667320251465,8120097,0.0,0
2020-05-04,29.182748191476854,29.765432400853687,28.745736423670756,28.891407012939453,16052570,0.0,0
2020-05-05,29.13419320523308,29.42553439636456,28.939964509610675,29.037078857421875,6220440,0.0,0
2020-05-06,29.231306458629273,29.668318228964853,29.03707777027876,29.425533294677734,4709909,0.0,0
2020-05-07,29.328420806203624,30.153888101033854,29.279862707959342,29.862546920776367,3346717,0.0,0
2020-05-08,30.153888702392575,30.688016679919475,30.008218109358726,30.153888702392578,3816932,0.0,0
2020-05-11,30.153889715359263,30.83368830875665,30.056777218275766,30.63945960998535,3851843,0.0,0
2020-05-12,30.202446365375526,30.736572482885677,30.202446365375526,30.39667320251465,4905242,0.0,0
2020-05-13,30.056776649744624,30.54234653518604,29.765433607098505,29.911104202270508,3551340,0.0,0
2020-05-14,29.95966170413861,30.25100288866684,29.27986313716998,29.619762420654297,8593015,0.0,0
2020-05-15,30.008219117431867,30.979358906684045,29.959662868890117,30.63945960998535,6082003,0.0,0
2020-05-18,31.173582966165853,32.33895135000281,30.882241796357604,31.562040328979492,12435640,0.0,0
2020-05-19,32.43606799709474,32.43606799709474,31.65915326059109,31.756269454956055,6846052,0.0,0
2020-05-20,31.562041207308724,32.09616731758852,31.562041207308724,31.950498580932617,4100596,0.0,0
2020-05-21,32.29039764404297,32.77596753342707,31.853384002676425,32.29039764404297,9687373,0.0,0
2020-05-22,31.610598490902664,31.80482718409277,31.076472363083013,31.125028610229492,12726980,0.0,0
2020-05-25,30.59090246820748,32.09616835667463,30.542346221083545,31.999055862426758,4677137,0.0,0
2020-05-26,32.04761124568202,32.92163848876953,31.853382557817675,32.92163848876953,4252324,0.0,0
2020-05-27,33.01875142104753,33.0673076675106,31.65915429245686,31.804826736450195,7614210,0.0,0
2020-05-28,31.562040495704718,31.999054105027582,30.882241959491818,31.65915298461914,9519827,0.0,0
2020-05-29,31.90843968578742,32.10786819458008,31.06087137625545,32.10786819458008,13607370,0.85,0
2020-06-01,33.30443561409858,33.70328882994391,32.80586624145508,32.80586624145508,7752268,0.0,0
2020-06-02,32.905578727152815,33.553720435715775,32.905578727152815,33.40414810180664,3745000,0.0,0
2020-06-03,33.65343480166879,34.650573610607125,33.65343480166879,33.95257568359375,6512944,0.0,0
2020-06-04,34.40128898008728,34.45114515988159,33.6035786920302,34.35143280029297,5924036,0.0,0
2020-06-05,34.70042810007197,35.09928512573242,33.70328933970333,35.09928512573242,18746190,0.0,0
2020-06-08,35.14914091309505,35.14914091309505,33.354291925097755,33.40414810180664,8156000,0.0,0
2020-06-09,33.05515297802451,34.00243180177622,32.50672359107434,33.5537223815918,6181433,0.0,0
2020-06-10,33.254575749516675,33.90271745772139,33.254575749516675,33.30443572998047,8635232,0.0,0
2020-06-11,33.005290966353975,33.60357649613765,32.756006279889725,32.90557861328125,6269444,0.0,0
2020-06-12,32.40700925876625,33.10500714201925,32.107868395595666,33.00529098510742,6126372,0.0,0
2020-06-15,32.3072985843869,32.95543652097126,31.609300664864573,31.9084415435791,7911500,0.0,0
2020-06-16,32.50672154529901,33.055150897734364,32.20758068274127,32.70615005493164,3372913,0.0,0
2020-06-17,32.407009173588435,32.8058661926225,32.15772448763776,32.60643768310547,4120753,0.0,0
2020-06-18,32.40701117368918,33.3044376200121,32.3571549941785,33.25457763671875,5632421,0.0,0
2020-06-19,32.85572439685064,33.75314703939089,32.85572439685064,33.25457763671875,4827492,0.0,0
2020-06-22,33.40414793675465,33.703288799312375,32.20758068274127,32.70615005493164,4777996,0.0,0
2020-06-23,32.40700924035275,33.005290966353975,31.908439867424246,32.90557861328125,3117462,0.0,0
2020-06-24,32.955434672264474,32.955434672264474,32.40700912475586,32.40700912475586,3228010,0.0,0
2020-06-26,32.25743690696122,33.15486329974551,32.10786837735213,32.90557861328125,5403942,0.0,0
2020-06-29,32.90557863197804,33.05515096545456,32.35715308220156,33.00529098510742,3158288,0.0,0
2020-06-30,34.00242966187011,34.10214581857765,32.50672154529901,32.70615005493164,7468383,0.0,0
2020-07-02,33.65343490629497,35.8969972333813,33.45400638313075,34.55086135864258,11335100,0.0,0
2020-07-03,34.70042989817871,35.14914312435252,34.25171667200491,34.55086135864258,5895143,0.0,0
2020-07-06,35.0992873039812,37.0935649484826,34.949714959130496,36.84428024291992,9351839,0.0,0
2020-07-07,37.09356468094897,37.3428493847137,34.89985852706277,35.24885559082031,9529941,0.0,0
2020-07-08,35.09928507995293,35.54799828229006,34.60071570041888,34.89985656738281,12882520,0.0,0
2020-07-09,35.44828210635672,35.89699530846908,34.45114334778813,34.80014419555664,6732779,0.0,0
2020-07-10,34.20185840761465,34.35143074181731,33.204719656350186,33.70328903198242,5834832,0.0,0
2020-07-13,33.85286326297564,34.20186032395967,32.855724455841056,33.5537223815918,4619773,0.0,0
2020-07-14,33.25457563380827,33.35429179060644,32.556581555133334,32.80586624145508,4022766,0.0,0
2020-07-15,33.30443767980815,33.85286326297564,33.15486533722489,33.5537223815918,5094166,0.0,0
2020-07-16,33.852862968055874,33.852862968055874,31.709013029880264,31.958297729492188,8991600,0.0,0
2020-07-17,32.35715467143884,32.60643937028848,31.11073117719068,31.40987205505371,6543667,0.0,0
2020-07-20,31.45972852348201,33.20472143148256,31.45972852348201,33.055152893066406,6341433,0.0,0
2020-07-21,33.204721370178746,33.454006070861446,32.35715490937064,32.75600814819336,4683200,0.0,0
2020-07-22,32.90558027542356,33.005292633532996,31.310157821085365,31.5594425201416,6756152,0.0,0
2020-07-23,31.7090130231752,32.05801388482769,31.459728323615987,31.9084415435791,3990853,0.0,0
2020-07-24,32.00815386358604,32.307298545725224,31.409872106872943,31.709012985229492,4464770,0.0,0
2020-07-27,31.90844140625,32.35715462428192,30.911302612304688,31.160587310791016,4125933,0.0,0
2020-07-28,31.210443489731755,31.70901288670441,31.160587310791016,31.160587310791016,2760386,0.0,0
2020-07-29,31.509584655586895,32.55658147675229,31.16058571519843,32.50672149658203,5634100,0.0,0
2020-07-30,32.60643768310547,33.40414791739116,32.30729682072114,32.60643768310547,6233702,0.0,0
2020-07-31,33.00529284887605,33.90271929284683,32.15772638806795,32.75600814819336,6207725,0.0,0
2020-08-03,33.254575786168935,34.10214600581561,32.75600641124117,33.50386047363281,6461842,0.0,0
2020-08-04,33.70329079614353,33.70329079614353,32.30729875357111,32.8557243347168,5242000,0.0,0
2020-08-05,32.85572221867918,33.15486307969437,31.65915497083598,32.00815200805664,6481460,0.0,0
2020-08-06,32.10786824383113,32.30729675292969,31.55944079475568,32.30729675292969,5871849,0.0,0
2020-08-07,32.407009025265175,32.407009025265175,31.60929879463052,32.00815200805664,3206062,0.0,0
2020-08-10,31.409872081086124,31.908441479198604,31.110731202975167,31.5594425201416,3431722,0.0,0
2020-08-11,31.80872540134358,32.30729667285426,31.21044177742198,32.00815200805664,2751903,0.0,0
2020-08-12,32.20758238375128,32.20758238375128,31.310157846790318,31.709012985229492,3683326,0.0,0
2020-08-13,32.058013865706144,32.15772622395729,31.459728304851303,31.808727264404297,2383378,0.0,0
2020-08-14,31.409872119012803,32.35715473732686,31.409872119012803,31.75887107849121,3673254,0.0,0
2020-08-17,31.808727485460388,33.10500907253846,31.808727485460388,33.055152893066406,3931331,0.0,0
2020-08-18,32.95543674314421,33.15486526489258,32.55658350343014,33.15486526489258,1851161,0.0,0
2020-08-19,33.204719476281866,33.204719476281866,32.35715306381639,32.90557861328125,3033891,0.0,0
2020-08-20,32.40700919237391,32.75600623139419,31.758869388904678,32.70615005493164,2510816,0.0,0
2020-08-21,32.9554349038617,33.553720435715775,32.456865529207874,33.40414810180664,3746736,0.0,0
2020-08-24,33.75314720859802,34.30157659731284,33.50386250601227,34.25171661376953,3807702,0.0,0
2020-08-25,33.90271960930456,34.650573718333334,33.45400638313075,34.55086135864258,4515746,0.0,0
2020-08-26,34.99956943185612,37.59213252548633,34.94971325393262,37.392704010009766,15187070,0.0,0
2020-08-27,38.33998835904419,38.48955689965474,35.89699749124461,36.14628219604492,7427474,0.0,0
2020-08-28,35.797285164081096,37.34284957452177,35.747425180048545,36.34571075439453,4693819,0.0,0
2020-08-31,36.79442171269381,36.9439902442096,34.80014419555664,34.80014419555664,6957000,0.0,0
2020-09-01,34.401287014135015,34.70042787958839,33.803005283228266,34.10214614868164,6234041,0.0,0
2020-09-02,33.95257570688534,34.35143275224736,33.503862481798734,34.05229187011719,4420667,0.0,0
2020-09-03,33.80300730711926,35.49814024744207,33.50386261997268,34.94971466064453,5491973,0.0,0
2020-09-04,34.102148178774115,34.89985846873143,33.902719655339105,34.85000228881836,2439000,0.0,0
2020-09-07,34.599998474121094,34.599998474121094,33.599998474121094,33.79999923706055,2678713,0.1,0
2020-09-08,33.79999923706055,34.0,33.099998474121094,33.70000076293945,3866128,0.0,0
2020-09-09,33.04999923706055,33.599998474121094,32.20000076293945,32.79999923706055,3424399,0.0,0
2020-09-10,32.79999923706055,33.95000076293945,32.599998474121094,33.45000076293945,5115090,0.0,0
2020-09-11,33.150001525878906,33.349998474121094,32.650001525878906,33.04999923706055,1775234,0.0,0
2020-09-14,33.099998474121094,33.099998474121094,32.29999923706055,33.099998474121094,2269840,0.0,0
2020-09-15,32.95000076293945,34.599998474121094,32.45000076293945,34.349998474121094,4351206,0.0,0
2020-09-16,34.5,34.849998474121094,34.0,34.79999923706055,3049461,0.0,0
2020-09-17,34.20000076293945,34.5,33.20000076293945,33.599998474121094,3104766,0.0,0
2020-09-18,33.29999923706055,33.849998474121094,33.099998474121094,33.599998474121094,4323443,0.0,0
2020-09-21,33.599998474121094,33.79999923706055,32.900001525878906,33.150001525878906,2429799,0.0,0
2020-09-22,33.099998474121094,33.099998474121094,32.099998474121094,32.349998474121094,4864495,0.0,0
2020-09-23,32.099998474121094,32.599998474121094,31.75,32.099998474121094,2032870,0.0,0
2020-09-24,31.600000381469727,32.0,31.200000762939453,31.600000381469727,4478294,0.0,0
2020-09-25,31.75,32.150001525878906,29.899999618530273,30.549999237060547,5124550,0.0,0
2020-09-28,30.399999618530273,31.649999618530273,30.350000381469727,31.450000762939453,4662081,0.0,0
2020-09-29,30.899999618530273,31.399999618530273,30.5,30.899999618530273,3656658,0.0,0
2020-09-30,31.75,37.25,31.600000381469727,32.0,6203793,0.0,0
2020-10-05,32.75,32.849998474121094,31.350000381469727,31.600000381469727,2999536,0.0,0
2020-10-06,31.799999237060547,32.349998474121094,31.350000381469727,32.349998474121094,2130910,0.0,0
2020-10-07,33.0,33.20000076293945,32.0,32.70000076293945,3702839,0.0,0
2020-10-08,32.04999923706055,32.54999923706055,32.04999923706055,32.349998474121094,2211247,0.0,0
2020-10-09,32.5,32.5,31.649999618530273,31.850000381469727,2646002,0.0,0
2020-10-12,31.850000381469727,32.400001525878906,31.350000381469727,31.549999237060547,4134962,0.0,0
2020-10-14,31.399999618530273,31.799999237060547,31.100000381469727,31.799999237060547,6529151,0.0,0
2020-10-15,31.299999237060547,31.899999618530273,31.299999237060547,31.5,3814522,0.0,0
2020-10-16,31.5,31.5,29.950000762939453,30.299999237060547,4363027,0.0,0
2020-10-19,30.5,30.649999618530273,30.0,30.049999237060547,2591956,0.0,0
2020-10-20,29.399999618530273,30.149999618530273,29.399999618530273,30.049999237060547,2607271,0.0,0
2020-10-21,29.600000381469727,29.700000762939453,28.850000381469727,28.950000762939453,5441104,0.0,0
2020-10-22,28.950000762939453,29.299999237060547,28.700000762939453,28.799999237060547,4524088,0.0,0
2020-10-23,29.0,29.0,28.350000381469727,28.600000381469727,5382379,0.0,0
2020-10-27,28.600000381469727,28.950000762939453,27.200000762939453,27.450000762939453,9773030,0.0,0
2020-10-28,27.700000762939453,27.75,26.799999237060547,27.200000762939453,9815800,0.0,0
2020-10-29,27.0,27.649999618530273,26.299999237060547,27.600000381469727,4202129,0.0,0
2020-10-30,27.25,27.700000762939453,26.700000762939453,27.350000381469727,4110082,0.0,0
2020-11-02,27.049999237060547,27.799999237060547,26.799999237060547,26.899999618530273,3347932,0.0,0
2020-11-03,27.100000381469727,28.350000381469727,27.100000381469727,28.149999618530273,6102017,0.0,0
2020-11-04,28.399999618530273,28.5,27.600000381469727,28.0,5019754,0.0,0
2020-11-05,28.799999237060547,30.850000381469727,28.799999237060547,30.5,8774196,0.0,0
2020-11-06,30.649999618530273,31.149999618530273,30.100000381469727,30.5,6108389,0.0,0
2020-11-09,31.5,31.5,29.799999237060547,30.049999237060547,5680137,0.0,0
2020-11-10,30.200000762939453,30.350000381469727,29.899999618530273,30.0,5068322,0.0,0
2020-11-11,30.399999618530273,32.04999923706055,30.0,32.0,10402000,0.0,0
2020-11-12,31.950000762939453,32.400001525878906,30.899999618530273,31.299999237060547,7262058,0.0,0
2020-11-13,30.950000762939453,31.299999237060547,30.100000381469727,31.299999237060547,4899932,0.0,0
2020-11-16,31.75,31.850000381469727,29.850000381469727,30.399999618530273,7007184,0.0,0
2020-11-17,30.450000762939453,30.899999618530273,29.950000762939453,30.5,8527577,0.0,0
2020-11-18,30.200000762939453,31.75,30.200000762939453,31.25,7053698,0.0,0
2020-11-19,31.25,31.299999237060547,30.25,30.5,7528760,0.0,0
2020-11-20,30.5,30.5,29.600000381469727,30.100000381469727,7506541,0.0,0
2020-11-23,30.200000762939453,30.25,28.799999237060547,29.049999237060547,5239152,0.0,0
2020-11-24,29.0,29.0,27.899999618530273,28.0,6646906,0.0,0
2020-11-25,28.299999237060547,28.850000381469727,28.149999618530273,28.200000762939453,4167257,0.0,0
2020-11-26,28.200000762939453,28.799999237060547,27.899999618530273,28.200000762939453,4400684,0.0,0
2020-11-27,28.5,29.049999237060547,28.299999237060547,28.799999237060547,5402231,0.0,0
2020-11-30,29.0,30.149999618530273,28.75,28.899999618530273,14089640,0.0,0
2020-12-01,29.049999237060547,29.049999237060547,28.049999237060547,28.100000381469727,9312260,0.0,0
2020-12-02,28.100000381469727,28.100000381469727,27.100000381469727,27.649999618530273,7749808,0.0,0
2020-12-03,27.350000381469727,27.549999237060547,26.899999618530273,27.450000762939453,5519144,0.0,0
2020-12-04,27.0,27.0,24.100000381469727,24.600000381469727,40236560,0.0,0
2020-12-07,24.75,24.75,23.649999618530273,23.850000381469727,5788936,0.0,0
