Date,Open,High,Low,Close,Volume,Dividends,Stock Splits
2020-01-02,10.746354749777508,10.784127489296617,10.689695190212273,10.765240669250488,3438042,0.0,0.0
2020-01-03,10.840786457971463,10.85967327855712,10.689695495578897,10.746355056762695,4868206,0.0,0.0
2020-01-06,10.670809438506462,10.784127658845383,10.595263958280514,10.689695358276367,9203044,0.0,0.0
2020-01-07,10.670810135532474,10.727468799116345,10.538605086214742,10.708582878112793,3968817,0.0,0.0
2020-01-08,10.576376748507839,10.689694964674304,10.557490829433325,10.651922225952148,4596345,0.0,0.0
2020-01-09,10.670809575566413,10.746355056762695,10.633036834968271,10.746355056762695,4923223,0.0,0.0
2020-01-10,10.76524097677518,10.784127797360837,10.670809575566413,10.746355056762695,5578534,0.0,0.0
2020-01-13,10.821900758692445,10.897446241429623,10.67080979321809,10.859673500061035,6311883,0.0,0.0
2020-01-14,10.916332498706558,10.954105238124649,10.803013379879134,10.897445678710938,6042453,0.0,0.0
2020-01-15,10.85967324569464,10.897445986178479,10.765240944198462,10.878560066223145,3383467,0.0,0.0
2020-01-16,10.897445512004548,10.972990989685059,10.765240475777091,10.972990989685059,4418719,0.0,0.0
2020-01-17,11.105196561156415,11.142969301817226,10.93521877789618,11.067423820495605,11628690,0.0,0.0
2020-01-20,11.048537171104185,11.105196733260074,10.954105768275287,10.991878509521484,2659698,0.0,0.0
2020-01-21,10.840785662039583,10.840785662039583,10.61414923509041,10.670808792114258,8436053,0.0,0.0
2020-01-22,10.670809438506462,10.708582178619436,10.576377137937445,10.689695358276367,6502534,0.0,0.0
2020-01-23,10.595264434814455,10.70858266024999,10.557491693002609,10.595264434814453,13335930,0.0,0.0
2020-01-24,10.576377613621931,10.614150355433775,10.50083212999824,10.595264434814453,2887834,0.0,0.0
2020-01-29,10.576376454412236,10.576376454412236,10.293080471587073,10.349740028381348,15150870,0.0,0.0
2020-01-30,10.425285695996719,10.425285695996719,10.104216969578326,10.141989707946777,9606804,0.0,0.0
2020-01-31,10.141990835784895,10.29308180606074,10.028672608078013,10.066445350646973,15418610,0.0,0.0
2020-02-03,9.953126907348635,10.066445132600968,9.915354165597856,9.953126907348633,4807670,0.0,0.0
2020-02-04,9.80203594034552,10.104217874351747,9.80203594034552,9.953126907348633,7006037,0.0,0.0
2020-02-05,9.858693823031828,9.990898858991006,9.802035165172986,9.877580642700195,5961317,0.0,0.0
2020-02-06,10.047558450875645,10.236422145322472,9.953126153365664,10.198649406433105,5000561,0.0,0.0
2020-02-07,10.104217108923127,10.255308064480587,10.104217108923127,10.198649406433105,5886884,0.0,0.0
2020-02-10,10.19864979841617,10.29308119898247,10.160877058075018,10.236422538757324,4208353,0.0,0.0
2020-02-11,10.387513329170469,10.481945628755826,10.274195110011934,10.311967849731445,5915957,0.0,0.0
2020-02-12,10.463059379992872,10.463059379992872,10.19865018751701,10.274195671081543,4802446,0.0,0.0
2020-02-13,10.25530773391526,10.40639958517562,10.25530773391526,10.349740028381348,7675517,0.0,0.0
2020-02-14,10.368626175135224,10.500831210182847,10.330853436632065,10.463058471679688,7130315,0.0,0.0
2020-02-17,10.50083230233784,10.557491866272105,10.44417363897679,10.519719123840332,3023729,0.0,0.0
2020-02-18,10.444172975178732,10.519718455240847,10.293081114481343,10.368626594543457,4896000,0.0,0.0
2020-02-19,10.444173422189724,10.444173422189724,10.27419563448833,10.406400680541992,3645390,0.0,0.0
2020-02-20,10.538604288048518,10.538604288048518,10.293081029585114,10.311967849731445,6417770,0.0,0.0
2020-02-21,10.38751367361543,10.40640049438804,10.123104486811163,10.160877227783203,4089045,0.0,0.0
2020-02-24,10.160876864583454,10.198649604205308,9.953126346376681,9.990899085998535,3383610,0.0,0.0
2020-02-25,10.179762214684308,10.179762214684308,9.915353052121535,10.028671264648438,6869043,0.0,0.0
2020-02-26,9.934240174833427,10.047558390824252,9.87758061655145,10.009785652160645,4652762,0.0,0.0
2020-02-27,10.028671796392986,10.141990014928297,9.953126317369446,10.123104095458984,11925460,0.0,0.0
2020-02-28,9.934240174833427,10.047558390824252,9.858693796933084,10.009785652160645,10945320,0.0,0.0
2020-03-02,9.990899393616589,10.047558955080484,9.877581171261978,9.972013473510742,8596940,0.0,0.0
2020-03-03,10.1231041249616,10.1231041249616,9.934240426852329,9.990899085998535,4649113,0.0,0.0
2020-03-04,10.028671825620389,10.066444565242243,9.915353606754826,9.990899085998535,4053425,0.0,0.0
2020-03-05,9.990899307914312,10.104217529296875,9.972013387970469,10.104217529296875,9529208,0.0,0.0
2020-03-06,10.047558274136586,10.066444192962493,9.764262287163026,9.820920944213867,6858408,0.0,0.0
2020-03-09,9.650945275550724,9.7264907614179,9.282660356518315,9.29210376739502,10660100,0.0,0.0
2020-03-10,9.416636418447348,9.512431661714393,9.263364760076993,9.426216125488281,7453919,0.14,1.0
2020-03-11,9.512431710740746,9.512431710740746,9.387898259280211,9.41663646697998,8559075,0.0,0.0
2020-03-12,9.292102965879646,9.330420880465022,8.908923820025883,8.95682144165039,8987081,0.0,0.0
2020-03-13,8.56406183487981,8.74607261773265,8.295836427780596,8.611959457397461,16864450,0.0,0.0
2020-03-16,8.458687480797726,8.583220929271658,8.305415825313235,8.353313446044922,13525580,0.0,0.0
2020-03-17,8.592800284260791,8.717333727635133,8.38205130981413,8.564061164855957,14763340,0.0,0.0
2020-03-18,8.69817455637232,8.71733396984121,8.161723769239053,8.209620475769043,11024150,0.0,0.0
2020-03-19,8.209620368555855,8.746072062254472,7.692328088075916,7.8360209465026855,11706690,0.0,0.0
2020-03-20,8.018031286605646,8.314995814363408,7.950975163448252,8.305416107177734,19611330,0.0,0.0
2020-03-23,8.142564410680226,8.142564410680226,7.845599894907654,7.883917808532715,7252845,0.0,0.0
2020-03-24,8.238359363235206,8.286256068412094,8.046768888243292,8.24793815612793,11557080,0.0,0.0
2020-03-25,8.343733956123017,8.650277275062184,8.343733956123017,8.631118774414062,7191906,0.0,0.0
2020-03-26,8.544903189507117,8.75565217687797,8.46826736020338,8.640698432922363,13765310,0.0,0.0
2020-03-27,8.71733404727009,8.870605702098121,8.631118513036538,8.832287788391113,7505150,0.0,0.0
2020-03-30,8.602379716064375,8.851446621311478,8.468267469832211,8.774810791015625,7887322,0.0,0.0
2020-03-31,8.975979943847005,9.426216125488281,8.975979943847005,9.426216125488281,17902290,0.0,0.0
2020-04-01,9.732758911002392,9.732758911002392,9.052615278928704,9.196308135986328,10319050,0.0,0.0
2020-04-02,9.129250874437679,9.234625816345215,9.01429713982397,9.234625816345215,7457027,0.0,0.0
2020-04-03,9.167569364964688,9.340000434560883,9.100513243931116,9.292102813720703,9389302,0.0,0.0
2020-04-06,9.330420516821551,9.569907702039174,9.330420516821551,9.483692169189453,5918657,0.0,0.0
2020-04-07,9.636964430638423,9.751918166282266,9.45495366402403,9.694440841674805,7083927,0.0,0.0
2020-04-08,9.531589740595349,9.598646773344473,9.311261969826948,9.493271827697754,11506450,0.0,0.0
2020-04-09,9.541169653504875,9.65612339468311,9.445374412404114,9.617805480957031,4869625,0.0,0.0
2020-04-14,9.847712886438368,9.847712886438368,9.694441232730552,9.790236473083496,6533558,0.0,0.0
2020-04-15,10.230892934279026,10.250051434206945,9.713600646229589,9.790236473083496,7027482,0.0,0.0
2020-04-16,9.90519033102127,10.077621400276312,9.732759261766228,9.924348831176758,6810343,0.0,0.0
2020-04-17,10.211733899530001,10.211733899530001,9.905190580744774,10.039302825927734,6777055,0.0,0.0
2020-04-20,10.077621400276312,10.077621400276312,9.886030917294653,9.924348831176758,4239407,0.0,0.0
2020-04-21,10.115938954115236,10.115938954115236,9.675282503369152,9.828554153442383,4743837,0.0,0.0
2020-04-22,9.809394537631208,10.020143508911131,9.656122890726202,10.020143508911133,4429230,0.0,0.0
2020-04-23,10.13509740772072,10.230892645368497,9.962666345383154,10.154256820678711,8990919,0.0,0.0
2020-04-24,10.230892977651678,10.230892977651678,10.000984582544165,10.096779823303223,8124032,0.0,0.0
2020-04-27,10.115938734396906,10.499117851257324,10.115938734396906,10.499117851257324,5184577,0.0,0.0
2020-04-28,10.67154900798995,10.67154900798995,10.345846298901568,10.479958534240723,7217703,0.0,0.0
2020-04-29,10.671549623817658,10.805661866896088,10.307528981686952,10.384164810180664,5471980,0.0,0.0
2020-05-04,10.384164956623064,10.384164956623064,9.809395321243404,9.886031150817871,9627643,0.0,0.0
2020-05-05,10.15425691680147,10.17341541636973,9.886030614277027,10.13509750366211,2886718,0.0,0.0
2020-05-06,10.173415825037385,10.403323310518523,10.115939410452668,10.384164810180664,3320261,0.0,0.0
2020-05-07,10.594913634987,10.594913634987,10.077621343697253,10.250051498413086,4489576,0.0,0.0
2020-05-08,10.384164441338664,10.518276679653471,10.307528615567028,10.441640853881836,3307847,0.0,0.0
2020-05-11,10.537436020761179,10.70986708435275,10.441640782416728,10.6140718460083,4025450,0.0,0.0
2020-05-12,10.44164122476538,10.499118552921235,10.326687482024811,10.384164810180664,4547132,0.0,0.0
2020-05-13,10.441640732544933,10.441640732544933,10.19257475846694,10.307528495788574,5076310,0.0,0.0
2020-05-14,10.19257514192263,10.211733642078118,9.847713003412546,9.924348831176758,4469305,0.0,0.0
2020-05-15,10.058461628552227,10.07762104159693,9.771076827879373,9.828554153442383,6313830,0.0,0.0
2020-05-18,9.86687265020983,10.020144309358766,9.57948783252,9.886031150817871,6618791,0.0,0.0
2020-05-19,10.173415868714018,10.250051697536746,9.809395225020493,9.905190467834473,11583150,0.0,0.0
2020-05-20,9.905190051301595,9.905190051301595,9.63696466170146,9.656123161315918,6472000,0.0,0.0
2020-05-21,9.675283044032584,9.790236788011224,9.512431678336725,9.579487800598145,8719324,0.0,0.0
2020-05-22,9.483691814878311,9.483691814878311,8.544902522412569,8.59280014038086,21460000,0.0,0.0
2020-05-25,8.621538652692523,8.621538652692523,8.28625622854826,8.382051467895508,11152970,0.0,0.0
2020-05-26,8.602379653085151,8.65985698217182,8.410790078748173,8.631118774414062,10001010,0.0,0.0
2020-05-27,8.717334262226101,8.746072469822217,8.564061690047478,8.640698432922363,8409400,0.0,0.0
2020-05-28,8.573641104570425,8.736492464677164,8.28625629770141,8.52574348449707,7139555,0.0,0.0
2020-05-29,8.525743688021242,8.669436551671506,8.487425773762068,8.650277137756348,14864230,0.0,0.0
2020-06-01,9.004718012099763,9.196308495670035,8.88976427010028,8.975979804992676,11137110,0.0,0.0
2020-06-02,9.196308466212034,9.196308466212034,8.956821276087462,9.13883113861084,6767515,0.0,0.0
2020-06-03,9.368738522940372,9.387897936462158,9.00471788816651,9.157990455627441,7804944,0.0,0.0
2020-06-04,9.56990736346379,9.56990736346379,9.081353303647408,9.225046157836914,11366350,0.0,0.0
2020-06-05,9.100512815838671,9.541169262411596,9.100512815838671,9.52200984954834,7853458,0.0,0.0
2020-06-08,9.550749264561675,9.694441211200859,9.48369223103509,9.636964797973633,6762907,0.0,0.0
2020-06-09,9.713600158691406,9.790235981698862,9.56990730537412,9.713600158691406,5228470,0.0,0.0
2020-06-10,9.732759151743064,9.771077065192008,9.416636137396493,9.474113464355469,6742947,0.0,0.0
2020-06-11,9.39747790097231,9.50285193751892,9.196308621331584,9.272944450378418,8418819,0.0,0.0
2020-06-12,8.918503559353208,9.263364791870117,8.908923852279395,9.263364791870117,6239729,0.0,0.0
2020-06-15,9.234625835493583,9.35915927664276,9.043035363835727,9.07177448272705,7483591,0.0,0.0
2020-06-16,9.292102274982705,9.387897511109042,9.196307952427444,9.225046157836914,5915705,0.0,0.0
2020-06-17,9.100512790108857,9.387897587247563,9.100512790108857,9.368738174438477,4337223,0.0,0.0
2020-06-18,9.38789816260942,9.454954284408762,9.24420529844793,9.435795783996582,6355629,0.0,0.0
2020-06-19,9.445374546955897,9.713600860430528,9.40705663268397,9.598647117614746,28481642,0.0,0.0
2020-06-22,9.617805731460837,9.617805731460837,9.215467170072204,9.263364791870117,5432779,0.0,0.0
2020-06-23,9.282522643939755,9.378317880843019,9.148410408560489,9.368738174438477,5544877,0.0,0.0
2020-06-24,9.292102765396562,9.349580092820089,9.215466937879276,9.301682472229004,5939034,0.0,0.0
2020-06-26,9.301682657878194,9.37831848692503,9.100513378237467,9.272944450378418,3972640,0.0,0.0
2020-06-29,9.426215610993212,9.426215610993212,9.100512897947912,9.196308135986328,5366949,0.0,0.0
2020-06-30,9.368738358795945,9.416635978190103,9.21546670759152,9.34000015258789,8359863,0.0,0.0
2020-07-02,9.579487039890344,9.86687183380127,9.292102245979418,9.86687183380127,11336760,0.0,0.0
2020-07-03,10.058462125479927,10.058462125479927,9.828554639011747,9.905190467834473,3467962,0.0,0.0
2020-07-06,10.020143563646348,10.32668685913086,10.020143563646348,10.32668685913086,6359683,0.0,0.0
2020-07-07,10.230892815994338,10.345846554946158,9.886030685567764,9.962666511535645,5379267,0.0,0.0
2020-07-08,9.96266625275051,10.000984164739124,9.694440868830211,9.847712516784668,6098521,0.0,0.0
2020-07-09,9.886030777910142,9.905190191366627,9.598646884631776,9.636964797973633,6841959,0.0,0.0
2020-07-10,9.771077373895878,9.809395288555423,9.52201047182325,9.579487800598145,3461633,0.0,0.0
2020-07-13,9.6752829461586,9.751918774702455,9.569907996732447,9.598647117614746,5572833,0.0,0.0
2020-07-14,9.617805248515898,9.694441074115938,9.445374184130259,9.656123161315918,5402921,0.0,0.0
2020-07-15,9.866872355897618,9.866872355897618,9.359159771718193,9.464533805847168,4044892,0.0,0.0
2020-07-16,9.598647296982667,9.617805797691071,9.340000685635529,9.40705680847168,4589126,0.0,0.0
2020-07-17,9.445374469552373,9.445374469552373,9.282523106838442,9.292102813720703,3750185,0.0,0.0
2020-07-20,9.282522665089097,9.33042028364986,9.17714863511229,9.205886840820312,2686367,0.0,0.0
2020-07-21,9.13883113861084,9.378318328735412,9.100513224733753,9.13883113861084,6959744,0.0,0.0
2020-07-22,9.071774689716557,9.157990221215545,8.870605420742615,8.8801851272583,6343805,0.0,0.0
2020-07-23,8.90892363591398,9.052615584246817,8.889764222231669,8.985559463500977,3214961,0.0,0.0
2020-07-24,8.880185660646749,9.186728978992484,8.880185660646749,8.94724178314209,2614460,0.0,0.0
2020-07-27,9.11967235807922,9.148410564210714,8.861025762182468,8.87060546875,3089360,0.0,0.0
2020-07-28,8.899343723148549,9.004717755249608,8.77481027780851,8.8610258102417,2907393,0.0,0.0
2020-07-29,8.8801851272583,8.956820952241603,8.832287508250964,8.8801851272583,2678170,0.0,0.0
2020-07-30,8.832287373158612,9.148410374772316,8.832287373158612,8.899343490600586,5579548,0.0,0.0
2020-07-31,8.841866554087726,9.033457035596886,8.841866554087726,8.995139122009277,6822460,0.0,0.0
2020-08-03,9.043035619110066,9.043035619110066,8.736492317517857,8.87060546875,5998299,0.0,0.0
2020-08-04,8.832287221244293,9.081353187561035,8.784389603793395,9.081353187561035,5920821,0.0,0.0
2020-08-05,9.10051317663316,9.196308417605119,9.014297642472625,9.14841079711914,4005324,0.0,0.0
2020-08-06,9.22504665310312,9.22504665310312,8.937661842866323,8.985559463500977,1806427,0.0,0.0
2020-08-07,8.985559697935306,8.9951394050264,8.851446539373471,8.94724178314209,2100871,0.0,0.0
2020-08-10,8.966400078678138,8.985559492422118,8.813128423010822,8.822708129882812,2575451,0.0,0.0
2020-08-11,8.956820661188196,9.138830511216323,8.956820661188196,9.081353187561035,4719012,0.0,0.0
2020-08-12,9.043035869179821,9.301682472229004,9.043035869179821,9.301682472229004,6142974,0.0,0.0
2020-08-13,9.34958036162961,9.37831856938206,8.99513942077886,9.100513458251953,6816260,0.0,0.0
2020-08-14,9.062195262958603,9.196308417605119,9.052615556147183,9.14841079711914,8491602,0.0,0.0
2020-08-17,8.985559591149306,9.052615712847741,8.793970019460106,8.803548812866211,14836510,0.0,0.0
2020-08-18,8.784390009300841,8.88018524862476,8.688594769976921,8.698174476623535,11145490,0.0,0.0
2020-08-19,8.861025550846144,8.861025550846144,8.726912402812612,8.746071815490723,3820572,0.0,0.0
2020-08-20,8.736492624354245,8.736492624354245,8.53532334722627,8.659856796264648,9120746,0.0,0.0
2020-08-21,8.707753856136485,8.861025502439746,8.650276531987226,8.755651473999023,6394773,0.0,0.0
2020-08-24,8.832287325709457,9.004717471572635,8.832287325709457,8.908923149108887,6549904,0.0,0.0
2020-08-25,8.937661611661982,9.043035643475445,8.937661611661982,9.023877143859863,8090512,0.0,0.0
2020-08-26,9.10051330299304,9.10051330299304,8.947241646166644,8.966400146484375,6839270,0.0,0.0
2020-08-27,9.071774763550794,9.081353556573346,8.669436222328319,8.707754135131836,14991580,0.0,0.0
2020-08-28,8.717333562423208,8.851445796153024,8.659856238273948,8.755651473999023,13055360,0.0,0.0
2020-08-31,8.88976433026898,8.956821365400891,8.640698344369907,8.650277137756348,15874130,0.0,0.0
2020-09-01,8.631117963844794,8.717333492592513,8.554482141307059,8.602378845214844,12236530,0.0,0.0
2020-09-02,8.59280044422411,8.698174476623535,8.525743411268923,8.698174476623535,12612910,0.0,0.0
2020-09-03,8.717333610044637,8.746071815490723,8.592800168350163,8.746071815490723,14475650,0.0,0.0
2020-09-04,8.698174661753338,8.698174661753338,8.535323299579252,8.66943645477295,64827330,0.0,0.0
2020-09-07,8.698174224703585,8.92808169613699,8.679015725536344,8.899343490600586,35274190,0.0,0.0
2020-09-08,8.947241597885586,9.07177504677781,8.89934397699302,8.975979804992676,4820703,0.0,0.0
2020-09-09,8.956821048175637,9.177148818969727,8.937661634939053,9.177148818969727,15104730,0.0,0.0
2020-09-10,9.196308232206311,9.196308232206311,9.023877167361473,9.177148818969727,7996074,0.0,0.0
2020-09-11,9.177148722950207,9.215466635451355,9.08135348491179,9.196308135986328,6225780,0.0,0.0
2020-09-14,9.225046205705173,9.253784411263762,9.157990088211433,9.215466499328613,4220341,0.0,0.0
2020-09-15,9.215466547246683,9.263364165807445,9.119672223696245,9.205886840820312,4981272,0.0,0.0
2020-09-16,9.205887446614444,9.215467153671208,9.110093116760254,9.110093116760254,3836856,0.0,0.0
2020-09-17,9.052615836283763,9.167569580864724,9.03345733563918,9.100513458251953,2676263,0.0,0.0
2020-09-18,9.177148422462828,9.177148422462828,8.995138572434701,9.081353187561035,12295730,0.0,0.0
2020-09-21,9.090933627185581,9.090933627185581,8.803548812866211,8.803548812866211,3506319,0.0,0.0
2020-09-22,8.87060535442182,8.899343560182924,8.726912498474121,8.726912498474121,4655560,0.0,0.0
2020-09-23,8.793970140993283,8.793970140993283,8.621539067304425,8.631118774414062,4738428,0.0,0.0
2020-09-24,8.621538786069493,8.755651940516177,8.544902958834564,8.67901611328125,4578048,0.0,0.0
2020-09-25,8.679016024986659,8.717333938214303,8.621538698359638,8.688594818115234,5701182,0.0,0.0
2020-09-28,8.74607239814502,8.803548812866211,8.679016276446587,8.803548812866211,3213215,0.0,0.0
2020-09-29,8.899343650060086,8.899343650060086,8.66943617450717,8.717333793640137,2680795,0.0,0.0
2020-09-30,8.82270839848641,8.86102631356981,8.621539115905762,8.621539115905762,6441390,0.0,0.0
2020-10-05,8.755651575933364,9.110092490528867,8.755651575933364,9.05261516571045,10043200,0.0,0.0
2020-10-06,9.100513458251953,9.177149287972592,9.004718214315576,9.100513458251953,4717737,0.0,0.0
2020-10-07,9.004718229562437,9.253785133361816,8.966400314637237,9.253785133361816,6873507,0.0,0.0
2020-10-08,9.244204637566398,9.387897491455078,9.1292509025981,9.387897491455078,6354760,0.0,0.0
2020-10-09,9.38789816260942,9.512431612787587,9.272944419422913,9.435795783996582,8830881,0.0,0.0
2020-10-12,9.435795184935262,9.550748920823567,9.3399999482428,9.53158950805664,11723680,0.0,0.0
2020-10-14,9.560328133172295,9.694441287712818,9.416636185399044,9.464533805847168,7249314,0.0,0.0
2020-10-15,9.579487497947287,9.675282738355207,9.292102690294644,9.474113464355469,6038185,0.0,0.0
2020-10-16,9.37831811372059,9.512431266001173,9.320840787437167,9.33042049407959,4377640,0.0,0.0
2020-10-19,9.435795783996582,9.435795783996582,9.311262333818416,9.435795783996582,3381966,0.0,0.0
2020-10-20,9.435795205699195,9.445373998532654,9.301682056748843,9.368738174438477,2565159,0.0,0.0
2020-10-21,9.349580296303104,9.493272247632525,9.320841175180304,9.426216125488281,5389867,0.0,0.0
2020-10-22,9.483691910579742,9.483691910579742,9.320840555986845,9.368738174438477,2947724,0.0,0.0
2020-10-23,9.464533266627715,9.464533266627715,9.330420119727972,9.397477149963379,4813579,0.0,0.0
2020-10-27,9.397477197761871,9.579487049735574,9.320840460878596,9.387897491455078,4302902,0.0,0.0
2020-10-28,9.38789819394867,9.38789819394867,9.21546712180772,9.272944450378418,4815628,0.0,0.0
2020-10-29,9.244204913799573,9.435795391376208,9.244204913799573,9.34000015258789,6189768,0.0,0.0
2020-10-30,9.390000343322754,9.390000343322754,9.010000228881836,9.15999984741211,7919745,0.41,0.0
2020-11-02,9.100000381469727,9.279999732971191,9.0600004196167,9.25,3732659,0.0,0.0
2020-11-03,9.25,9.449999809265137,9.25,9.350000381469727,6428637,0.0,0.0
2020-11-04,9.300000190734863,9.59000015258789,9.300000190734863,9.399999618530273,3476653,0.0,0.0
2020-11-05,9.4399995803833,9.579999923706055,9.34000015258789,9.399999618530273,4906134,0.0,0.0
2020-11-06,9.399999618530273,9.600000381469727,9.399999618530273,9.470000267028809,4382411,0.0,0.0
2020-11-09,9.59000015258789,9.59000015258789,9.289999961853027,9.350000381469727,2950812,0.0,0.0
2020-11-10,9.399999618530273,9.710000038146973,9.399999618530273,9.680000305175781,6024353,0.0,0.0
2020-11-11,9.640000343322754,10.079999923706055,9.609999656677246,10.020000457763672,8635985,0.0,0.0
2020-11-12,9.970000267028809,10.100000381469727,9.8100004196167,9.930000305175781,4922541,0.0,0.0
2020-11-13,9.800000190734863,9.819999694824219,9.619999885559082,9.699999809265137,4397505,0.0,0.0
2020-11-16,9.75,9.880000114440918,9.670000076293945,9.75,2750670,0.0,0.0
2020-11-17,9.819999694824219,10.0600004196167,9.8100004196167,10.039999961853027,7322266,0.0,0.0
2020-11-18,9.949999809265137,10.0600004196167,9.890000343322754,10.020000457763672,3018329,0.0,0.0
2020-11-19,10.0,10.0,9.869999885559082,9.970000267028809,2768462,0.0,0.0
2020-11-20,10.039999961853027,10.15999984741211,9.979999542236328,10.15999984741211,5901090,0.0,0.0
2020-11-23,10.15999984741211,10.199999809265137,9.979999542236328,10.020000457763672,3855007,0.0,0.0
2020-11-24,10.020000457763672,10.34000015258789,10.0,10.34000015258789,6211635,0.0,0.0
2020-11-25,10.34000015258789,10.4399995803833,10.199999809265137,10.420000076293945,13176840,0.0,0.0
2020-11-26,10.399999618530273,10.420000076293945,10.15999984741211,10.319999694824219,4212854,0.0,0.0
2020-11-27,10.319999694824219,10.600000381469727,10.180000305175781,10.5,7904531,0.0,0.0
2020-11-30,10.479999542236328,10.600000381469727,10.399999618530273,10.600000381469727,22613840,0.0,0.0
2020-12-01,10.5600004196167,10.5600004196167,10.140000343322754,10.520000457763672,8899047,0.0,0.0
2020-12-02,10.420000076293945,10.520000457763672,10.399999618530273,10.460000038146973,5853647,0.0,0.0
2020-12-03,10.460000038146973,10.5,10.260000228881836,10.420000076293945,3569185,0.0,0.0
2020-12-04,10.300000190734863,10.479999542236328,10.199999809265137,10.34000015258789,3863928,0.0,0.0
2020-12-07,10.380000114440918,10.600000381469727,10.34000015258789,10.460000038146973,2059711,0.0,0.0
