Date,Open,High,Low,Close,Volume,Dividends,Stock Splits
2020-01-02,1.309999942779541,1.3700000047683716,1.309999942779541,1.3700000047683716,16000,0,0
2020-01-03,1.309999942779541,1.309999942779541,1.309999942779541,1.3200000524520874,12750,0,0
2020-01-06,1.309999942779541,1.309999942779541,1.309999942779541,1.309999942779541,12500,0,0
2020-01-07,1.309999942779541,1.309999942779541,1.309999942779541,1.309999942779541,2900,0,0
2020-01-08,1.309999942779541,1.309999942779541,1.309999942779541,1.309999942779541,0,0,0
2020-01-09,1.2300000190734863,1.2699999809265137,1.1399999856948853,1.2699999809265137,57250,0,0
2020-01-10,1.2699999809265137,1.2699999809265137,1.2699999809265137,1.2699999809265137,0,0,0
2020-01-13,1.1799999475479126,1.3200000524520874,1.1299999952316284,1.3200000524520874,204750,0,0
2020-01-14,1.2599999904632568,1.2599999904632568,1.2599999904632568,1.2599999904632568,13422,0,0
2020-01-15,1.2799999713897705,1.2899999618530273,1.2799999713897705,1.2899999618530273,24358,0,0
2020-01-16,1.2999999523162842,1.3300000429153442,1.2999999523162842,1.3200000524520874,40250,0,0
2020-01-17,1.2899999618530273,1.2899999618530273,1.2899999618530273,1.2899999618530273,8465,0,0
2020-01-20,1.2899999618530273,1.2899999618530273,1.2599999904632568,1.2599999904632568,22685,0,0
2020-01-21,1.2699999809265137,1.2699999809265137,1.2400000095367432,1.2400000095367432,52000,0,0
2020-01-22,1.2400000095367432,1.2400000095367432,1.2100000381469727,1.2300000190734863,34500,0,0
2020-01-23,1.2300000190734863,1.2300000190734863,1.2300000190734863,1.2300000190734863,1250,0,0
2020-01-24,1.2300000190734863,1.2300000190734863,1.2300000190734863,1.2300000190734863,750,0,0
2020-01-29,1.2000000476837158,1.2200000286102295,1.2000000476837158,1.2200000286102295,28000,0,0
2020-01-30,1.149999976158142,1.149999976158142,1.1100000143051147,1.1100000143051147,33750,0,0
2020-01-31,1.1299999952316284,1.1299999952316284,1.1299999952316284,1.1299999952316284,20500,0,0
2020-02-03,1.149999976158142,1.1699999570846558,1.149999976158142,1.149999976158142,225000,0,0
2020-02-04,1.1699999570846558,1.1699999570846558,1.149999976158142,1.1699999570846558,68000,0,0
2020-02-05,1.1200000047683716,1.149999976158142,1.100000023841858,1.149999976158142,43200,0,0
2020-02-06,1.1699999570846558,1.1699999570846558,1.1699999570846558,1.1699999570846558,104000,0,0
2020-02-07,1.1699999570846558,1.1699999570846558,1.1699999570846558,1.1699999570846558,0,0,0
2020-02-10,1.1100000143051147,1.1799999475479126,1.1100000143051147,1.1799999475479126,22000,0,0
2020-02-11,1.2000000476837158,1.2000000476837158,1.2000000476837158,1.2000000476837158,8000,0,0
2020-02-12,1.2000000476837158,1.2000000476837158,1.149999976158142,1.2000000476837158,37250,0,0
2020-02-13,1.2000000476837158,1.2000000476837158,1.1699999570846558,1.1699999570846558,46025,0,0
2020-02-14,1.149999976158142,1.149999976158142,1.149999976158142,1.149999976158142,20218,0,0
2020-02-17,1.149999976158142,1.149999976158142,1.149999976158142,1.149999976158142,10550,0,0
2020-02-18,1.149999976158142,1.149999976158142,1.149999976158142,1.149999976158142,160500,0,0
2020-02-19,1.149999976158142,1.149999976158142,1.149999976158142,1.149999976158142,156000,0,0
2020-02-20,1.1699999570846558,1.2300000190734863,1.1699999570846558,1.2200000286102295,252689,0,0
2020-02-21,1.2200000286102295,1.2300000190734863,1.2200000286102295,1.2200000286102295,120850,0,0
2020-02-24,1.2200000286102295,1.2200000286102295,1.2200000286102295,1.2200000286102295,750,0,0
2020-02-25,1.2200000286102295,1.2200000286102295,1.2200000286102295,1.2000000476837158,5000,0,0
2020-02-26,1.1699999570846558,1.1699999570846558,1.100000023841858,1.1200000047683716,17518,0,0
2020-02-27,1.1200000047683716,1.1299999952316284,1.1200000047683716,1.1299999952316284,64000,0,0
2020-02-28,1.100000023841858,1.1399999856948853,1.100000023841858,1.1399999856948853,57437,0,0
2020-03-02,1.100000023841858,1.100000023841858,1.100000023841858,1.1100000143051147,12061,0,0
2020-03-03,1.1100000143051147,1.1299999952316284,1.1100000143051147,1.1299999952316284,12000,0,0
2020-03-04,1.1299999952316284,1.1299999952316284,1.1299999952316284,1.1299999952316284,0,0,0
2020-03-05,1.1299999952316284,1.1299999952316284,1.1299999952316284,1.1299999952316284,40750,0,0
2020-03-06,1.100000023841858,1.1100000143051147,1.100000023841858,1.100000023841858,81500,0,0
2020-03-09,1.0800000429153442,1.1200000047683716,1.0800000429153442,1.1100000143051147,116000,0,0
2020-03-10,1.100000023841858,1.100000023841858,1.0499999523162842,1.0499999523162842,68000,0,0
2020-03-11,1.0700000524520874,1.090000033378601,1.0700000524520874,1.090000033378601,36000,0,0
2020-03-12,1.090000033378601,1.090000033378601,1.090000033378601,1.090000033378601,0,0,0
2020-03-13,1.0099999904632568,1.0099999904632568,0.949999988079071,1.0,317400,0,0
2020-03-16,1.0099999904632568,1.0099999904632568,0.9300000071525574,1.0,169950,0,0
2020-03-17,0.9800000190734863,0.9800000190734863,0.9800000190734863,0.9800000190734863,136000,0,0
2020-03-18,1.0,1.0,0.9300000071525574,0.9300000071525574,17750,0,0
2020-03-19,0.9100000262260437,0.9100000262260437,0.9100000262260437,0.9100000262260437,1250,0,0
2020-03-20,0.9300000071525574,1.059999942779541,0.9300000071525574,1.059999942779541,1443618,0,0
2020-03-23,1.0499999523162842,1.100000023841858,1.0299999713897705,1.100000023841858,1488000,0,0
2020-03-24,1.1200000047683716,1.2200000286102295,1.1200000047683716,1.2000000476837158,644000,0,0
2020-03-25,1.2200000286102295,1.2999999523162842,1.2200000286102295,1.2999999523162842,541594,0,0
2020-03-26,1.2999999523162842,1.350000023841858,1.2999999523162842,1.350000023841858,255139,0,0
2020-03-27,1.2799999713897705,1.2799999713897705,1.2599999904632568,1.2799999713897705,48000,0,0
2020-03-30,1.2599999904632568,1.2599999904632568,1.2599999904632568,1.2599999904632568,0,0,0
2020-03-31,1.309999942779541,1.309999942779541,1.1799999475479126,1.190000057220459,63342,0,0
2020-04-01,1.190000057220459,1.190000057220459,1.190000057220459,1.190000057220459,0,0,0
2020-04-02,1.149999976158142,1.190000057220459,1.149999976158142,1.190000057220459,97500,0,0
2020-04-03,1.159999966621399,1.2599999904632568,1.149999976158142,1.2400000095367432,28000,0,0
2020-04-06,1.2300000190734863,1.2300000190734863,1.2300000190734863,1.2300000190734863,0,0,0
2020-04-07,1.2300000190734863,1.2300000190734863,1.1699999570846558,1.1699999570846558,64000,0,0
2020-04-08,1.1699999570846558,1.1699999570846558,1.1699999570846558,1.1699999570846558,0,0,0
2020-04-09,1.1699999570846558,1.2000000476837158,1.149999976158142,1.2000000476837158,152000,0,0
2020-04-14,1.2000000476837158,1.2000000476837158,1.149999976158142,1.149999976158142,9500,0,0
2020-04-15,1.149999976158142,1.149999976158142,1.149999976158142,1.149999976158142,118000,0,0
2020-04-16,1.149999976158142,1.2000000476837158,1.149999976158142,1.149999976158142,94200,0,0
2020-04-17,1.159999966621399,1.159999966621399,1.159999966621399,1.159999966621399,81500,0,0
2020-04-20,1.149999976158142,1.190000057220459,1.149999976158142,1.190000057220459,24000,0,0
2020-04-21,1.1799999475479126,1.1799999475479126,1.1799999475479126,1.1799999475479126,4000,0,0
2020-04-22,1.149999976158142,1.2200000286102295,1.1299999952316284,1.2100000381469727,279200,0,0
2020-04-23,1.2000000476837158,1.25,1.149999976158142,1.149999976158142,477000,0,0
2020-04-24,1.2000000476837158,1.2400000095367432,1.2000000476837158,1.2300000190734863,76000,0,0
2020-04-27,1.2000000476837158,1.2000000476837158,1.190000057220459,1.2000000476837158,382350,0,0
2020-04-28,1.2000000476837158,1.2000000476837158,1.2000000476837158,1.2000000476837158,0,0,0
2020-04-29,1.2000000476837158,1.2000000476837158,1.2000000476837158,1.2000000476837158,133528,0,0
2020-05-04,1.2000000476837158,1.2000000476837158,1.190000057220459,1.2000000476837158,247000,0,0
2020-05-05,1.2000000476837158,1.2000000476837158,1.2000000476837158,1.2000000476837158,184000,0,0
2020-05-06,1.2000000476837158,1.2000000476837158,1.159999966621399,1.159999966621399,298000,0,0
2020-05-07,1.159999966621399,1.159999966621399,1.159999966621399,1.159999966621399,20209,0,0
2020-05-08,1.159999966621399,1.159999966621399,1.149999976158142,1.149999976158142,32000,0,0
2020-05-11,1.149999976158142,1.190000057220459,1.149999976158142,1.190000057220459,13250,0,0
2020-05-12,1.190000057220459,1.2400000095367432,1.190000057220459,1.2100000381469727,60000,0,0
2020-05-13,1.2100000381469727,1.2100000381469727,1.2100000381469727,1.2100000381469727,1500,0,0
2020-05-14,1.2100000381469727,1.2100000381469727,1.2100000381469727,1.2100000381469727,1000,0,0
2020-05-15,1.149999976158142,1.149999976158142,1.149999976158142,1.1699999570846558,9400,0,0
2020-05-18,1.1799999475479126,1.190000057220459,1.1799999475479126,1.1799999475479126,14000,0,0
2020-05-19,1.2000000476837158,1.2000000476837158,1.2000000476837158,1.190000057220459,8000,0,0
2020-05-20,1.190000057220459,1.190000057220459,1.190000057220459,1.190000057220459,13526,0,0
2020-05-21,1.190000057220459,1.190000057220459,1.149999976158142,1.159999966621399,158500,0,0
2020-05-22,1.159999966621399,1.159999966621399,1.149999976158142,1.149999976158142,66750,0,0
2020-05-25,1.149999976158142,1.149999976158142,1.149999976158142,1.149999976158142,0,0,0
2020-05-26,1.1100000143051147,1.1399999856948853,1.090000033378601,1.1100000143051147,18401,0,0
2020-05-27,1.1100000143051147,1.1100000143051147,1.0700000524520874,1.100000023841858,87500,0,0
2020-05-28,1.0700000524520874,1.090000033378601,1.0700000524520874,1.090000033378601,24750,0,0
2020-05-29,1.0499999523162842,1.0499999523162842,1.0499999523162842,1.0499999523162842,6230,0,0
2020-06-01,1.0800000429153442,1.0800000429153442,1.0800000429153442,1.0800000429153442,5750,0,0
2020-06-02,1.0800000429153442,1.1200000047683716,1.0800000429153442,1.1200000047683716,97258,0,0
2020-06-03,1.1200000047683716,1.1200000047683716,1.1200000047683716,1.1200000047683716,85250,0,0
2020-06-04,1.1200000047683716,1.1200000047683716,1.1200000047683716,1.1200000047683716,1250,0,0
2020-06-05,1.1200000047683716,1.1200000047683716,1.1200000047683716,1.1200000047683716,750,0,0
2020-06-08,1.1100000143051147,1.1100000143051147,1.1100000143051147,1.1100000143051147,1011,0,0
2020-06-09,1.1100000143051147,1.1399999856948853,1.1100000143051147,1.1200000047683716,13250,0,0
2020-06-10,1.1200000047683716,1.1200000047683716,1.100000023841858,1.100000023841858,11750,0,0
2020-06-11,1.1200000047683716,1.1200000047683716,1.1200000047683716,1.1200000047683716,24000,0,0
2020-06-12,1.1200000047683716,1.1200000047683716,1.1200000047683716,1.1200000047683716,500,0,0
2020-06-15,1.1200000047683716,1.1200000047683716,1.1200000047683716,1.1200000047683716,0,0,0
2020-06-16,1.1200000047683716,1.1200000047683716,1.1200000047683716,1.1200000047683716,20000,0,0
2020-06-17,1.100000023841858,1.100000023841858,1.0800000429153442,1.0800000429153442,20000,0,0
2020-06-18,1.0700000524520874,1.100000023841858,1.0700000524520874,1.100000023841858,54250,0,0
2020-06-19,1.100000023841858,1.100000023841858,1.100000023841858,1.100000023841858,16402,0,0
2020-06-22,1.0800000429153442,1.100000023841858,1.0800000429153442,1.100000023841858,14400,0,0
2020-06-23,1.0800000429153442,1.0800000429153442,1.0800000429153442,1.0800000429153442,8675,0,0
2020-06-24,1.0800000429153442,1.0800000429153442,1.0800000429153442,1.0800000429153442,8000,0,0
2020-06-26,1.090000033378601,1.090000033378601,1.090000033378601,1.090000033378601,20000,0,0
2020-06-29,1.090000033378601,1.090000033378601,1.090000033378601,1.090000033378601,3750,0,0
2020-06-30,1.100000023841858,1.100000023841858,1.100000023841858,1.100000023841858,28600,0,0
2020-07-02,1.0800000429153442,1.090000033378601,1.0800000429153442,1.090000033378601,39000,0,0
2020-07-03,1.090000033378601,1.090000033378601,1.090000033378601,1.090000033378601,3075,0,0
2020-07-06,1.0800000429153442,1.090000033378601,1.0700000524520874,1.0700000524520874,80100,0,0
2020-07-07,1.0499999523162842,1.0700000524520874,1.0499999523162842,1.059999942779541,80015,0,0
2020-07-08,1.059999942779541,1.059999942779541,1.059999942779541,1.059999942779541,0,0,0
2020-07-09,1.059999942779541,1.0800000429153442,1.059999942779541,1.0700000524520874,43361,0,0
2020-07-10,1.059999942779541,1.059999942779541,1.0499999523162842,1.0499999523162842,62500,0,0
2020-07-13,1.0499999523162842,1.059999942779541,1.0499999523162842,1.0499999523162842,72500,0,0
2020-07-14,1.0499999523162842,1.0499999523162842,1.0299999713897705,1.0399999618530273,56200,0,0
2020-07-15,1.0499999523162842,1.0499999523162842,1.0499999523162842,1.0499999523162842,20001,0,0
2020-07-16,1.0399999618530273,1.0399999618530273,1.0299999713897705,1.0299999713897705,48000,0,0
2020-07-17,1.0399999618530273,1.0399999618530273,1.0299999713897705,1.0299999713897705,50425,0,0
2020-07-20,1.059999942779541,1.059999942779541,1.059999942779541,1.059999942779541,4000,0,0
2020-07-21,1.0499999523162842,1.0499999523162842,1.0499999523162842,1.0499999523162842,5200,0,0
2020-07-22,1.0499999523162842,1.0499999523162842,1.0499999523162842,1.0499999523162842,6250,0,0
2020-07-23,1.0499999523162842,1.0499999523162842,1.0499999523162842,1.0499999523162842,500,0,0
2020-07-24,1.0299999713897705,1.0700000524520874,0.8899999856948853,1.0700000524520874,222400,0,0
2020-07-27,1.0499999523162842,1.0499999523162842,1.0499999523162842,1.0499999523162842,615,0,0
2020-07-28,1.0499999523162842,1.059999942779541,1.0299999713897705,1.0299999713897705,104490,0,0
2020-07-29,1.0399999618530273,1.0399999618530273,1.0399999618530273,1.0399999618530273,500,0,0
2020-07-30,1.0399999618530273,1.0399999618530273,1.0399999618530273,1.0399999618530273,0,0,0
2020-07-31,1.0499999523162842,1.0499999523162842,1.0499999523162842,1.0499999523162842,0,0,0
2020-08-03,1.0499999523162842,1.0499999523162842,1.0199999809265137,1.0199999809265137,13221,0,0
2020-08-04,1.0499999523162842,1.0499999523162842,1.0499999523162842,1.0499999523162842,28220,0,0
2020-08-05,1.0800000429153442,1.2899999618530273,1.0800000429153442,1.25,1250109,0,0
2020-08-06,1.25,1.25,1.1399999856948853,1.149999976158142,160537,0,0
2020-08-07,1.2000000476837158,1.2599999904632568,1.2000000476837158,1.25,427652,0,0
2020-08-10,1.2799999713897705,1.2799999713897705,1.2000000476837158,1.2100000381469727,62702,0,0
2020-08-11,1.2200000286102295,1.25,1.2000000476837158,1.2200000286102295,146750,0,0
2020-08-12,1.2200000286102295,1.2999999523162842,1.2200000286102295,1.2899999618530273,193724,0,0
2020-08-13,1.2999999523162842,1.4199999570846558,1.2899999618530273,1.399999976158142,1029179,0,0
2020-08-14,1.3600000143051147,1.3600000143051147,1.2999999523162842,1.2999999523162842,151303,0,0
2020-08-17,1.3700000047683716,1.399999976158142,1.350000023841858,1.3600000143051147,261824,0,0
2020-08-18,1.3600000143051147,1.3600000143051147,1.2999999523162842,1.2999999523162842,42556,0,0
2020-08-19,1.3600000143051147,1.399999976158142,1.3600000143051147,1.399999976158142,72000,0,0
2020-08-20,1.3700000047683716,1.3700000047683716,1.350000023841858,1.3600000143051147,86500,0,0
2020-08-21,1.3600000143051147,1.3600000143051147,1.3600000143051147,1.3600000143051147,25359,0,0
2020-08-24,1.3899999856948853,1.399999976158142,1.3899999856948853,1.399999976158142,420750,0,0
2020-08-25,1.409999966621399,1.4199999570846558,1.3899999856948853,1.3899999856948853,25400,0,0
2020-08-26,1.3799999952316284,1.3799999952316284,1.3700000047683716,1.3700000047683716,38250,0,0
2020-08-27,1.350000023841858,1.3600000143051147,1.350000023841858,1.350000023841858,75400,0,0
2020-08-28,1.350000023841858,1.3600000143051147,1.350000023841858,1.3600000143051147,18500,0,0
2020-08-31,1.350000023841858,1.350000023841858,1.350000023841858,1.350000023841858,45250,0,0
2020-09-01,1.350000023841858,1.350000023841858,1.350000023841858,1.350000023841858,776,0,0
2020-09-02,1.350000023841858,1.350000023841858,1.350000023841858,1.350000023841858,2000,0,0
2020-09-03,1.350000023841858,1.3600000143051147,1.350000023841858,1.3600000143051147,76750,0,0
2020-09-04,1.350000023841858,1.409999966621399,1.350000023841858,1.409999966621399,155653,0,0
2020-09-07,1.3700000047683716,1.3700000047683716,1.2999999523162842,1.2999999523162842,108000,0,0
2020-09-08,1.3200000524520874,1.3200000524520874,1.3200000524520874,1.3200000524520874,4000,0,0
2020-09-09,1.3200000524520874,1.3200000524520874,1.3200000524520874,1.3200000524520874,5250,0,0
2020-09-10,1.3200000524520874,1.3200000524520874,1.3200000524520874,1.3200000524520874,0,0,0
2020-09-11,1.3200000524520874,1.3200000524520874,1.3200000524520874,1.3200000524520874,0,0,0
2020-09-14,1.3700000047683716,1.3799999952316284,1.3700000047683716,1.3799999952316284,76800,0,0
2020-09-15,1.3799999952316284,1.3799999952316284,1.3799999952316284,1.3799999952316284,20750,0,0
2020-09-16,1.350000023841858,1.350000023841858,1.350000023841858,1.350000023841858,27750,0,0
2020-09-17,1.350000023841858,1.350000023841858,1.350000023841858,1.350000023841858,0,0,0
2020-09-18,1.399999976158142,1.399999976158142,1.3700000047683716,1.3700000047683716,47750,0,0
2020-09-21,1.3700000047683716,1.3700000047683716,1.3700000047683716,1.3700000047683716,80000,0,0
2020-09-22,1.3700000047683716,1.3700000047683716,1.350000023841858,1.350000023841858,68000,0,0
2020-09-23,1.350000023841858,1.350000023841858,1.350000023841858,1.350000023841858,1000,0,0
2020-09-24,1.340000033378601,1.340000033378601,1.340000033378601,1.340000033378601,12500,0,0
2020-09-25,1.340000033378601,1.340000033378601,1.340000033378601,1.340000033378601,0,0,0
2020-09-28,1.340000033378601,1.340000033378601,1.340000033378601,1.340000033378601,4000,0,0
2020-09-29,1.3600000143051147,1.399999976158142,1.3600000143051147,1.399999976158142,26000,0,0
2020-09-30,1.399999976158142,1.399999976158142,1.3799999952316284,1.399999976158142,193500,0,0
2020-10-05,1.409999966621399,1.7999999523162842,1.3899999856948853,1.7000000476837158,919780,0,0
2020-10-06,1.7999999523162842,1.9199999570846558,1.600000023841858,1.8600000143051147,5861641,0,0
2020-10-07,1.9199999570846558,1.9500000476837158,1.8899999856948853,1.899999976158142,1730279,0,0
2020-10-08,1.9500000476837158,2.549999952316284,1.9199999570846558,2.490000009536743,4231964,0,0
2020-10-09,2.490000009536743,2.549999952316284,2.25,2.309999942779541,2973338,0,0
2020-10-12,2.369999885559082,2.450000047683716,2.309999942779541,2.359999895095825,1667437,0,0
2020-10-14,2.359999895095825,2.359999895095825,2.0,2.0199999809265137,1906057,0,0
2020-10-15,2.0199999809265137,2.0199999809265137,1.8300000429153442,2.0199999809265137,1780250,0,0
2020-10-16,2.0,2.140000104904175,2.0,2.119999885559082,901248,0,0
2020-10-19,2.0799999237060547,2.0899999141693115,2.0,2.0199999809265137,387012,0,0
2020-10-20,2.049999952316284,2.069999933242798,2.0299999713897705,2.0299999713897705,483250,0,0
2020-10-21,2.0399999618530273,2.0799999237060547,2.0399999618530273,2.049999952316284,160500,0,0
2020-10-22,2.059999942779541,2.059999942779541,2.0299999713897705,2.0299999713897705,121682,0,0
2020-10-23,2.0299999713897705,2.0299999713897705,1.9600000381469727,1.9600000381469727,697250,0,0
2020-10-27,1.9500000476837158,1.9500000476837158,1.8700000047683716,1.9199999570846558,261250,0,0
2020-10-28,1.899999976158142,1.9700000286102295,1.8899999856948853,1.9700000286102295,114000,0,0
2020-10-29,1.9700000286102295,1.9700000286102295,1.8700000047683716,1.909999966621399,73500,0,0
2020-10-30,1.9199999570846558,2.0899999141693115,1.9199999570846558,2.0299999713897705,791725,0,0
2020-11-02,2.0399999618530273,2.0899999141693115,2.0299999713897705,2.0299999713897705,397500,0,0
2020-11-03,2.0299999713897705,2.0299999713897705,2.009999990463257,2.009999990463257,96000,0,0
2020-11-04,2.0,2.0399999618530273,1.9500000476837158,2.0399999618530273,342500,0,0
2020-11-05,2.0199999809265137,2.049999952316284,1.9900000095367432,2.0199999809265137,88384,0,0
2020-11-06,2.0199999809265137,2.0199999809265137,2.0,2.0,117600,0,0
2020-11-09,2.2300000190734863,2.2300000190734863,2.0999999046325684,2.0999999046325684,1374200,0,0
2020-11-10,2.0999999046325684,2.0999999046325684,2.0799999237060547,2.0799999237060547,252000,0,0
2020-11-11,2.0799999237060547,2.0899999141693115,2.0199999809265137,2.049999952316284,296877,0,0
2020-11-12,2.0299999713897705,2.0399999618530273,2.0299999713897705,2.0399999618530273,116000,0,0
2020-11-13,2.0299999713897705,2.0299999713897705,2.0199999809265137,2.0199999809265137,373500,0,0
2020-11-16,2.0299999713897705,2.0299999713897705,2.0,2.0,313519,0,0
2020-11-17,2.0,2.0399999618530273,2.0,2.0399999618530273,158649,0,0
2020-11-18,2.0299999713897705,2.0299999713897705,1.9900000095367432,2.0,185661,0,0
2020-11-19,2.0299999713897705,2.0299999713897705,2.0,2.009999990463257,24000,0,0
2020-11-20,2.0,2.0199999809265137,2.0,2.0,100250,0,0
2020-11-23,2.0,2.0999999046325684,2.0,2.0899999141693115,342015,0,0
2020-11-24,2.0999999046325684,2.119999885559082,2.059999942779541,2.0799999237060547,400700,0,0
2020-11-25,2.0799999237060547,2.0799999237060547,2.0199999809265137,2.0199999809265137,600250,0,0
2020-11-26,2.0399999618530273,2.0399999618530273,2.0399999618530273,2.0399999618530273,15575,0,0
2020-11-27,2.0399999618530273,2.0399999618530273,2.0399999618530273,2.0399999618530273,208500,0,0
2020-11-30,2.0399999618530273,2.059999942779541,1.9900000095367432,2.0,922250,0,0
2020-12-01,2.0,2.0999999046325684,2.0,2.0999999046325684,1200150,0,0
2020-12-02,2.0999999046325684,2.140000104904175,2.059999942779541,2.069999933242798,661500,0,0
2020-12-03,2.0799999237060547,2.0799999237060547,2.0399999618530273,2.049999952316284,141000,0,0
2020-12-04,2.049999952316284,2.049999952316284,2.0,2.009999990463257,593250,0,0
2020-12-07,2.009999990463257,2.009999990463257,1.9600000381469727,2.0,276000,0,0
