Date,Open,High,Low,Close,Volume,Dividends,Stock Splits
2020-01-02,5.736514830811662,5.80469089736469,5.668339228670091,5.707296848297119,1773180,0.0,0
2020-01-03,5.726775342036187,5.833908557891846,5.726775342036187,5.833908557891846,1800100,0.0,0
2020-01-06,5.843648163945251,5.921563398492026,5.794950910147802,5.9118242263793945,2958696,0.0,0
2020-01-07,5.9994786330388,5.9994786330388,5.892345417742701,5.9118242263793945,1722319,0.0,0
2020-01-08,5.9702609278739,5.9702609278739,5.785212005077825,5.843648433685303,1200000,0.0,0
2020-01-09,5.921563671828609,5.989739737409726,5.833908796711664,5.843648433685303,3268300,0.0,0
2020-01-10,5.8533880706589425,5.902084862292782,5.804690814613651,5.843648433685303,1451603,0.0,0
2020-01-13,5.882606041095111,5.882606041095111,5.804690803106268,5.8631272315979,2267300,0.0,0
2020-01-14,5.941042446264586,5.970260892601428,5.843648399160862,5.902084827423096,2210000,0.0,0
2020-01-15,5.941042457887052,5.941042457887052,5.794951154739942,5.882606029510498,1742473,0.0,0
2020-01-16,5.911824538673562,6.204006683658588,5.872866919342225,6.18452787399292,4534277,0.0,0
2020-01-17,6.213745974841843,6.428012869238162,6.213745974841843,6.389055252075195,4613138,0.0,0
2020-01-20,6.486449252178529,6.515667697063656,6.389055209913814,6.466970443725586,3135800,0.0,0
2020-01-21,6.4669707282477065,6.4669707282477065,6.330619063078152,6.398795127868652,3940000,0.0,0
2020-01-22,6.418274081065836,6.583844196117831,6.408534443986798,6.544886112213135,1715500,0.0,0
2020-01-23,6.642280216987886,6.642280216987886,6.272182390144406,6.408534049987793,2094000,0.0,0
2020-01-24,6.447491884797326,6.46697069400412,6.330619029556567,6.457231521606445,723264,0.0,0
2020-01-29,6.4182737850380835,6.428012957256469,6.116352015685181,6.233224868774414,2975742,0.0,0
2020-01-30,6.233225202805503,6.281921995329902,6.009218656841179,6.067655086517334,1622000,0.0,0
2020-01-31,6.067654927913087,6.067654927913087,5.902084815952805,5.921563625335693,3218710,0.0,0
2020-02-03,5.902084793237129,6.155309778651536,5.892345620788892,5.960521221160889,1977000,0.0,0
2020-02-04,6.02869719738588,6.27218254236393,5.979999942625694,6.135830879211426,5279364,0.0,0
2020-02-05,6.145570062678856,6.272182553756155,6.038436380658723,6.116352081298828,2612183,0.0,0
2020-02-06,6.116351873355534,6.184527470532066,5.9702605781878715,6.048175811767578,2380000,0.0,0
2020-02-07,6.204006719366248,6.204006719366248,6.028697431366226,6.126091480255127,1365580,0.0,0
2020-02-10,6.106612379055361,6.242964040992799,6.067654761358949,6.233224868774414,2039580,0.0,0
2020-02-11,6.2721824755011495,6.30140045651664,6.18452760363181,6.252703666687012,920525,0.0,0
2020-02-12,6.262442795751808,6.418273729602964,6.21374600625761,6.330618858337402,1334605,0.0,0
2020-02-13,6.330618901943564,6.330618901943564,6.174788431430459,6.252703666687012,661632,0.0,0
2020-02-14,6.252703666687011,6.281921647702501,6.15530962261632,6.252703666687012,865000,0.0,0
2020-02-17,6.281921922321262,6.281921922321262,6.174788701365813,6.18452787399292,1554000,0.0,0
2020-02-18,6.242964291163052,6.242964291163052,6.145570243019216,6.204006671905518,896000,0.0,0
2020-02-19,6.252703881536458,6.33061911947026,6.213746262569558,6.281921863555908,830100,0.0,0
2020-02-20,6.281921625933172,6.291661262512206,6.223485199693262,6.291661262512207,1293940,0.0,0
2020-02-21,6.291661477468625,6.320879459381104,6.233225049232218,6.3208794593811035,798000,0.0,0
2020-02-24,6.233225202805503,6.320879615114005,6.018957829581475,6.067655086517334,1873283,0.0,0
2020-02-25,5.941042185715632,5.999478611415093,5.843648142883198,5.95078182220459,2860740,0.0,0
2020-02-26,5.902084827423096,5.931303273759938,5.843648399160862,5.902084827423096,1192000,0.0,0
2020-02-27,5.921563537139845,6.135830901571774,5.8923455557064095,6.0968732833862305,1294000,0.0,0
2020-02-28,6.038436175364402,6.165048662137139,5.999478558574549,6.048175811767578,2551764,0.0,0
2020-03-02,6.028697251703046,6.038436424095967,5.892345587322045,6.018957614898682,2035500,0.0,0
2020-03-03,6.05791542559773,6.165049111789412,6.05791542559773,6.106612682342529,734213,0.0,0
2020-03-04,6.106612682342529,6.126091492158157,6.067655062711274,6.106612682342529,2292000,0.0,0
2020-03-05,6.204006637084989,6.320879494201633,6.135831035972672,6.2624430656433105,2409406,0.0,0
2020-03-06,6.18452763628501,6.213746081866202,6.116352037281288,6.194267272949219,1247417,0.0,0
2020-03-09,6.116352026449385,6.320879287509773,6.116352026449385,6.213746070861816,2296984,0.0,0
2020-03-10,6.174788327025973,6.525406879752135,6.135830710056399,6.447491645812988,3755727,0.0,0
2020-03-11,6.447491829249353,6.64228038405054,6.447491829249353,6.554625511169434,2636378,0.0,0
2020-03-12,6.428012837328201,6.525406879752135,6.184527499062653,6.447491645812988,4178369,0.0,0
2020-03-13,6.116352059150762,6.281921703331403,5.960521122846276,6.155309677124023,4387890,0.0,0
2020-03-16,6.116351905467255,6.116351905467255,5.921563356083895,5.989739418029785,9174672,0.0,0
2020-03-17,5.853387852911717,6.077393922034921,5.755993344444229,5.79495096206665,6167868,0.0,0
2020-03-18,5.824169617350841,5.84364842686393,5.434592962677622,5.444332599639893,4230069,0.0,0
2020-03-19,5.444332266505993,5.444332266505993,5.015798019028231,5.152149677276611,4543654,0.0,0
2020-03-20,5.171628626826123,5.502768841740771,5.171628626826123,5.337198734283447,2731910,0.0,0
2020-03-23,5.191107512119562,5.278762385455105,5.113192275559721,5.200847148895264,2158000,0.0,0
2020-03-24,5.181368306572209,5.3274591419805795,5.142410688541785,5.259283542633057,2157730,0.0,0
2020-03-25,5.38589627678424,5.678078425213847,5.3371990198402415,5.668339252471924,2833931,0.0,0
2020-03-26,5.551465727759221,5.726775474883296,5.4930293001883435,5.600162982940674,2160208,0.0,0
2020-03-27,5.6488602267857955,5.746254272541804,5.541726544248465,5.6196417808532715,1076671,0.0,0
2020-03-30,5.600162775252789,5.600162775252789,5.454071479537822,5.531986713409424,852000,0.0,0
2020-03-31,5.600163185632619,5.668339252471925,5.512508308898006,5.668339252471924,1839929,0.0,0
2020-04-01,5.551465784646704,5.717035896666557,5.493029356477012,5.5027689933776855,1680344,0.0,0
2020-04-02,5.531986713409424,5.570944330345225,5.424853499041685,5.531986713409424,984081,0.0,0
2020-04-03,5.522247501798327,5.639120351767998,5.522247501798327,5.62938117980957,1364483,0.0,0
2020-04-06,5.658599376678468,5.687817822494929,5.5417265222355026,5.658599376678467,933558,0.0,0
2020-04-07,5.678078425213847,5.726775682157846,5.600163185632619,5.668339252471924,1103000,0.0,0
2020-04-08,5.765732970248217,5.824169396572315,5.561205245908157,5.814429759979248,2361426,0.0,0
2020-04-09,5.814430034061426,5.892345737244469,5.765733242034912,5.765733242034912,1835400,0.0,0
2020-04-14,5.804690609631722,5.843648227327658,5.72677537423985,5.775472164154053,995400,0.0,0
2020-04-15,5.794950818394226,5.824169263092355,5.62938117980957,5.62938117980957,1280000,0.0,0
2020-04-16,5.64886043067598,5.736514842814468,5.64886043067598,5.6878180503845215,884588,0.0,0
2020-04-17,5.7365145356330185,5.833908579689071,5.7365145356330185,5.79495096206665,1722567,0.0,0
2020-04-20,5.804690515391793,6.028697045712368,5.804690515391793,5.9702606201171875,3700040,0.0,0
2020-04-21,5.960521279083955,5.960521279083955,5.775472356654725,5.8631272315979,1812000,0.0,0
2020-04-22,5.814429759979248,5.863127014121714,5.765732970248217,5.814429759979248,846862,0.0,0
2020-04-23,5.843648205347014,5.941042249220511,5.785211779022917,5.814429759979248,1074000,0.0,0
2020-04-24,5.833908568753948,5.843648205347014,5.707296543924119,5.814429759979248,989729,0.0,0
2020-04-27,5.843648365313369,6.009218476636413,5.814429919145765,5.960521221160889,2112000,0.0,0
2020-04-28,5.989739667328492,5.989739667328492,5.843648365313369,5.960521221160889,400000,0.0,0
2020-04-29,5.95078194234462,5.970260751304363,5.71703577041626,5.71703577041626,2019323,0.0,0
2020-05-04,5.600163197512028,5.755993677005043,5.580684387575402,5.648860454559326,5831887,0.0,0
2020-05-05,5.70729655462192,5.853387852911717,5.629381319377078,5.79495096206665,886800,0.0,0
2020-05-06,5.80469089736469,5.872866963917718,5.70729684829712,5.707296848297119,1705239,0.0,0
2020-05-07,5.7462544441223145,5.7462544441223145,5.678078377851681,5.7462544441223145,830000,0.0,0
2020-05-08,5.785212075528822,5.785212075528822,5.707296836436683,5.726775646209717,1606000,0.0,0
2020-05-11,5.746254029779242,5.794950818394226,5.59042309874159,5.62938117980957,1635380,0.0,0
2020-05-12,5.629381198828306,5.687817624010568,5.561205137243288,5.570944309234619,1373310,0.0,0
2020-05-13,5.619641551889278,5.619641551889278,5.531986682074518,5.590423107147217,727400,0.0,0
2020-05-14,5.522247814326427,5.570944605697376,5.45407174911336,5.483290195465088,1811000,0.0,0
2020-05-15,5.5222475950089365,5.5222475950089365,5.405374743066556,5.4345927238464355,980000,0.0,0
2020-05-18,5.454071554225162,5.473550362959803,5.366417147124995,5.39563512802124,935578,0.0,0
2020-05-19,5.45407174911336,5.541726623757096,5.415114130252021,5.483290195465088,1043000,0.0,0
2020-05-20,5.522247791290283,5.541726600639697,5.473550535711026,5.522247791290283,2281000,0.0,0
2020-05-21,5.551465564852485,5.570944373471176,5.454071521759033,5.454071521759033,739700,0.0,0
2020-05-22,5.434592894170628,5.434592894170628,5.142410755157471,5.142410755157471,3292000,0.0,0
2020-05-25,5.19110773786453,5.259283805024875,5.161889755089713,5.2105865478515625,1503000,0.0,0
2020-05-26,5.278762602825048,5.36641747977006,5.23006534576416,5.23006534576416,1981000,0.0,0
2020-05-27,5.26902279380861,5.288501603115407,5.103452682495117,5.103452682495117,2056000,0.0,0
2020-05-28,5.122932038475012,5.122932038475012,4.918404305263716,4.967101097106934,5298172,0.0,0
2020-05-29,4.967100827625548,5.14241056910208,4.92814321049997,5.035276889801025,4079500,0.0,0
2020-06-01,5.083973615946709,5.191107293919005,5.083973615946709,5.152149677276611,1522000,0.0,0
2020-06-02,5.142410743845373,5.259283599193543,5.113192297802608,5.161889553070068,2277761,0.0,0
2020-06-03,5.161889303253924,5.210586091753196,5.1326708586252225,5.171628475189209,2518000,0.0,0
2020-06-04,5.230065357838595,5.278762615011908,5.161889755089713,5.2105865478515625,1148000,0.0,0
2020-06-05,5.269022703852814,5.366417213135467,5.171628658981599,5.278762340545654,1945413,0.0,0
2020-06-08,5.307980299718528,5.415113980836876,5.249543873038912,5.31771993637085,1994411,0.0,0
2020-06-09,5.317720139960039,5.405375015541052,5.288501693295882,5.3858962059021,2083759,0.0,0
2020-06-10,5.385896228905042,5.4345930210046784,5.327459335327148,5.327459335327148,768000,0.0,0
2020-06-11,5.327459130775543,5.366417213135467,5.230065085904328,5.278762340545654,1366700,0.0,0
2020-06-12,5.259283599193543,5.259283599193543,5.161889553070068,5.161889553070068,1561700,0.0,0
2020-06-15,5.220326014447133,5.220326014447133,5.0839738845825195,5.0839738845825195,1478000,0.0,0
2020-06-16,5.152150036448509,5.385896217009449,5.152150036448509,5.346938133239746,1548000,0.0,0
2020-06-17,5.356677759237943,5.415114188154801,5.298241330321086,5.3858962059021,1292000,0.0,0
2020-06-18,5.415114107662787,5.639120647386762,5.3371988702651345,5.522247791290283,2999000,0.0,0
2020-06-19,5.522247512051262,5.639120362237927,5.405374661864598,5.609902381896973,4995192,0.0,0
2020-06-22,5.629381263738677,5.648860072357367,5.454071521759033,5.454071521759033,1427000,0.0,0
2020-06-23,5.46381139755249,5.570944617441291,5.46381139755249,5.46381139755249,344000,0.0,0
2020-06-24,5.493029367974698,5.6488603078315025,5.43459293968269,5.483290195465088,559000,0.0,0
2020-06-26,5.463811169037746,5.551465575788816,5.405374743066556,5.4345927238464355,1081061,0.0,0
2020-06-29,5.4930294147940995,5.502769051798174,5.337198938020537,5.405375003814697,1692000,0.0,0
2020-06-30,5.424853551723619,5.493029149817626,5.376156297875245,5.4345927238464355,2380924,0.0,0
2020-07-02,5.454071543325263,5.522247605965973,5.366417136400273,5.415113925933838,4372024,0.0,0
2020-07-03,5.41511389392986,5.580683999070593,5.41511389392986,5.473550319671631,4000000,0.0,0
2020-07-06,5.551465837315453,5.853388082340481,5.531987027740754,5.824169635772705,4847000,0.0,0
2020-07-07,5.911824559057097,5.970260988255587,5.648860395458165,5.7462544441223145,4446650,0.0,0
2020-07-08,5.765733218632438,5.8241696474739415,5.697557152778291,5.804690837860107,3646516,0.0,0
2020-07-09,5.843648492786464,5.882606112252124,5.648860395458165,5.7462544441223145,5050000,0.0,0
2020-07-10,5.7462542384211694,5.755993410733219,5.658599365555526,5.6780781745910645,2061900,0.0,0
2020-07-13,5.707296543924119,5.824169396572315,5.580684054682856,5.814429759979248,4081090,0.0,0
2020-07-14,5.83390889208582,5.83390889208582,5.570944726847438,5.6878180503845215,3614380,0.0,0
2020-07-15,5.707296609208138,5.794951017491219,5.648860182215603,5.697556972503662,2336000,0.0,0
2020-07-16,5.697556776752833,5.697556776752833,5.570944290413312,5.62938117980957,1992000,0.0,0
2020-07-17,5.600163127439561,5.775472414675632,5.570944680694489,5.765733242034912,4246300,0.0,0
2020-07-20,5.794951087824154,6.038436435453933,5.794951087824154,5.999478816986084,4016000,0.0,0
2020-07-21,6.057915015564247,6.087133460515751,5.853387758549432,5.989739418029785,5161746,0.0,0
2020-07-22,5.989739471827523,6.048175897843959,5.892345428466798,5.892345428466797,1671590,0.0,0
2020-07-23,5.989739667328492,5.989739667328492,5.785211937389609,5.960521221160889,1755954,0.0,0
2020-07-24,5.8241693857283465,5.941042238158938,5.794950940414982,5.833908557891846,1965478,0.0,0
2020-07-27,5.941042154116577,6.009218215942383,5.872866556702198,6.009218215942383,2430910,0.0,0
2020-07-28,6.0092186450150615,6.1066126942836485,6.0092186450150615,6.087133884429932,1841000,0.0,0
2020-07-29,6.0968735335611415,6.116352343453194,5.980000209797372,6.067655086517334,1528971,0.0,0
2020-07-30,6.116352070189639,6.165048860538385,6.067654815429453,6.135830879211426,2136565,0.0,0
2020-07-31,6.184527696139295,6.535146724449738,6.184527696139295,6.515667915344238,6848621,0.0,0
2020-08-03,6.50592809273307,6.50592809273307,6.311140007242516,6.408534049987793,1796000,0.0,0
2020-08-04,6.457231567335005,6.46697073980165,6.272182646354276,6.379316329956055,2470000,0.0,0
2020-08-05,6.418273925781249,6.4280130982132,6.281921796442377,6.41827392578125,982000,0.0,0
2020-08-06,6.457231555798462,6.457231555798462,6.32087942621746,6.398795127868652,1297000,0.0,0
2020-08-07,6.437752667896144,6.535146713256836,6.291661367649387,6.535146713256836,2782000,0.0,0
2020-08-10,6.38905535926075,6.7494135562694355,6.38905535926075,6.632540702819824,3137024,0.0,0
2020-08-11,6.681238024946709,6.749413624610239,6.428013042163767,6.515667915344238,1664000,0.0,0
2020-08-12,6.525407238493441,6.525407238493441,6.184527839063746,6.242964267730713,5082846,0.0,0
2020-08-13,6.3014006499689685,6.4085343339414385,6.291661477468625,6.3208794593811035,3076200,0.0,0
2020-08-14,6.3014006730393595,6.369576738437161,6.194267453086107,6.281921863555908,2829675,0.0,0
2020-08-17,6.320879200421607,6.369576454162598,6.291661219706157,6.369576454162598,1978000,0.0,0
2020-08-18,6.359837520611317,6.408534311767437,6.3111402650437505,6.379316329956055,3280000,0.0,0
2020-08-19,6.379316352960822,6.4864495725374915,6.3111402878026635,6.340358734130859,645220,0.0,0
2020-08-20,6.379316167341673,6.379316167341673,6.204006423296388,6.233224868774414,2230500,0.0,0
2020-08-21,6.2234852430973415,6.262442860862314,6.155309644214357,6.213746070861816,3090185,0.0,0
2020-08-24,6.252704000392259,6.252704000392259,6.01895781773619,6.087133884429932,4000000,0.0,0
2020-08-25,6.038436347963304,6.174788475036621,6.028697175693175,6.174788475036621,2032000,0.0,0
2020-08-26,6.204006456258448,6.204006456258448,6.096873239229834,6.174788475036621,1875000,0.0,0
2020-08-27,6.135831058859406,6.2527039164119875,6.0384365464874685,6.223485469818115,1800000,0.0,0
2020-08-28,6.233225106819891,6.281921898594406,6.184527850633922,6.223485469818115,1470000,0.0,0
2020-08-31,6.233224879744303,6.320879287509773,6.135830835331872,6.213746070861816,2076500,0.0,0
2020-09-01,6.242964302989925,6.242964302989925,6.165049064327252,6.18452787399292,1162000,0.0,0
2020-09-02,6.135830900314254,6.135830900314254,5.989739599942688,6.077394008636475,1553386,0.0,0
2020-09-03,6.087133848947206,6.1553099152435395,6.04817622946686,6.145570278167725,783097,0.0,0
2020-09-04,6.135830946035001,6.223485355381938,5.950782026106996,5.999478816986084,1506000,0.0,0
2020-09-07,5.999478828344287,6.087133702268618,5.921563591261081,5.980000019073486,1444000,0.0,0
2020-09-08,6.019999980926514,6.110000133514404,5.889999866485596,6.019999980926514,2009026,0.16,0
2020-09-09,5.989999771118164,6.050000190734863,5.900000095367432,6.019999980926514,1384910,0.0,0
2020-09-10,6.070000171661377,6.070000171661377,5.900000095367432,6.059999942779541,1302000,0.0,0
2020-09-11,6.059999942779541,6.090000152587891,5.960000038146973,6.059999942779541,1172000,0.0,0
2020-09-14,6.070000171661377,6.139999866485596,5.949999809265137,6.119999885559082,2041979,0.0,0
2020-09-15,6.110000133514404,6.210000038146973,6.070000171661377,6.179999828338623,1262000,0.0,0
2020-09-16,6.159999847412109,6.190000057220459,6.019999980926514,6.139999866485596,1354200,0.0,0
2020-09-17,6.170000076293945,6.179999828338623,6.099999904632568,6.150000095367432,1079000,0.0,0
2020-09-18,6.190000057220459,6.190000057220459,6.119999885559082,6.150000095367432,2991013,0.0,0
2020-09-21,6.190000057220459,6.190000057220459,6.110000133514404,6.110000133514404,1014000,0.0,0
2020-09-22,6.130000114440918,6.130000114440918,6.050000190734863,6.059999942779541,1040000,0.0,0
2020-09-23,6.090000152587891,6.130000114440918,6.0,6.099999904632568,920000,0.0,0
2020-09-24,6.110000133514404,6.110000133514404,5.980000019073486,6.010000228881836,690818,0.0,0
2020-09-25,5.989999771118164,6.090000152587891,5.78000020980835,5.869999885559082,2624000,0.0,0
2020-09-28,5.920000076293945,6.059999942779541,5.860000133514404,6.059999942779541,820000,0.0,0
2020-09-29,6.0,6.0,5.909999847412109,5.96999979019165,1156179,0.0,0
2020-09-30,5.989999771118164,6.099999904632568,5.989999771118164,6.079999923706055,1163918,0.0,0
2020-10-05,6.119999885559082,6.199999809265137,5.949999809265137,6.159999847412109,2143000,0.0,0
2020-10-06,6.159999847412109,6.159999847412109,6.039999961853027,6.130000114440918,725000,0.0,0
2020-10-07,6.070000171661377,6.170000076293945,6.039999961853027,6.079999923706055,1146000,0.0,0
2020-10-08,6.079999923706055,6.079999923706055,6.010000228881836,6.019999980926514,644000,0.0,0
2020-10-09,6.010000228881836,6.079999923706055,5.96999979019165,5.96999979019165,695072,0.0,0
2020-10-12,6.03000020980835,6.079999923706055,6.0,6.059999942779541,1183000,0.0,0
2020-10-14,6.070000171661377,6.099999904632568,5.900000095367432,5.96999979019165,2042000,0.0,0
2020-10-15,6.010000228881836,6.010000228881836,5.829999923706055,5.860000133514404,1534000,0.0,0
2020-10-16,5.920000076293945,5.96999979019165,5.829999923706055,5.929999828338623,3376377,0.0,0
2020-10-19,5.889999866485596,6.0,5.809999942779541,5.840000152587891,1848000,0.0,0
2020-10-20,5.869999885559082,5.909999847412109,5.809999942779541,5.869999885559082,912000,0.0,0
2020-10-21,5.840000152587891,5.929999828338623,5.739999771118164,5.920000076293945,2798000,0.0,0
2020-10-22,5.909999847412109,5.909999847412109,5.579999923706055,5.599999904632568,6263714,0.0,0
2020-10-23,5.690000057220459,5.730000019073486,5.599999904632568,5.730000019073486,2124000,0.0,0
2020-10-27,5.75,5.829999923706055,5.710000038146973,5.78000020980835,1611831,0.0,0
2020-10-28,5.829999923706055,5.829999923706055,5.650000095367432,5.650000095367432,1004531,0.0,0
2020-10-29,5.690000057220459,5.699999809265137,5.639999866485596,5.699999809265137,886000,0.0,0
2020-10-30,5.760000228881836,5.760000228881836,5.5,5.550000190734863,2146014,0.0,0
2020-11-02,5.630000114440918,5.630000114440918,5.550000190734863,5.550000190734863,912469,0.0,0
2020-11-03,5.539999961853027,5.630000114440918,5.539999961853027,5.590000152587891,566000,0.0,0
2020-11-04,5.639999866485596,5.679999828338623,5.610000133514404,5.610000133514404,329000,0.0,0
2020-11-05,5.610000133514404,5.710000038146973,5.610000133514404,5.670000076293945,1192009,0.0,0
2020-11-06,5.71999979019165,5.71999979019165,5.670000076293945,5.679999828338623,874111,0.0,0
2020-11-09,5.730000019073486,5.800000190734863,5.659999847412109,5.739999771118164,1143000,0.0,0
2020-11-10,5.809999942779541,5.820000171661377,5.710000038146973,5.800000190734863,1156000,0.0,0
2020-11-11,5.769999980926514,5.920000076293945,5.769999980926514,5.900000095367432,1659006,0.0,0
2020-11-12,5.880000114440918,5.889999866485596,5.769999980926514,5.809999942779541,1282000,0.0,0
2020-11-13,5.769999980926514,5.809999942779541,5.71999979019165,5.800000190734863,480000,0.0,0
2020-11-16,5.849999904632568,5.880000114440918,5.809999942779541,5.829999923706055,499244,0.0,0
2020-11-17,5.889999866485596,5.96999979019165,5.820000171661377,5.900000095367432,1174000,0.0,0
2020-11-18,5.900000095367432,5.920000076293945,5.840000152587891,5.920000076293945,869243,0.0,0
2020-11-19,5.880000114440918,5.920000076293945,5.860000133514404,5.920000076293945,745000,0.0,0
2020-11-20,5.920000076293945,5.920000076293945,5.829999923706055,5.829999923706055,948000,0.0,0
2020-11-23,5.820000171661377,5.889999866485596,5.820000171661377,5.849999904632568,962000,0.0,0
2020-11-24,5.820000171661377,5.849999904632568,5.769999980926514,5.800000190734863,1130000,0.0,0
2020-11-25,5.809999942779541,5.849999904632568,5.789999961853027,5.809999942779541,858000,0.0,0
2020-11-26,5.809999942779541,5.840000152587891,5.769999980926514,5.809999942779541,2410000,0.0,0
2020-11-27,5.809999942779541,6.010000228881836,5.78000020980835,5.980000019073486,2966000,0.0,0
2020-11-30,6.039999961853027,6.170000076293945,5.989999771118164,6.090000152587891,4814000,0.0,0
2020-12-01,6.150000095367432,6.570000171661377,6.150000095367432,6.53000020980835,5263243,0.0,0
2020-12-02,6.519999980926514,6.559999942779541,6.300000190734863,6.53000020980835,3578258,0.0,0
2020-12-03,6.570000171661377,6.730000019073486,6.539999961853027,6.71999979019165,4939000,0.0,0
2020-12-04,6.690000057220459,6.78000020980835,6.570000171661377,6.639999866485596,1586000,0.0,0
2020-12-07,6.659999847412109,6.690000057220459,6.449999809265137,6.489999771118164,703500,0.0,0
