Date,Open,High,Low,Close,Volume,Dividends,Stock Splits
2020-01-02,0.375,0.3799999952316284,0.36000001430511475,0.3799999952316284,1164000,0,0
2020-01-03,0.375,0.375,0.3499999940395355,0.3700000047683716,808000,0,0
2020-01-06,0.35499998927116394,0.3799999952316284,0.3499999940395355,0.3799999952316284,1926000,0,0
2020-01-07,0.38499999046325684,0.4449999928474426,0.3700000047683716,0.4000000059604645,3008000,0,0
2020-01-08,0.39500001072883606,0.4099999964237213,0.38999998569488525,0.4000000059604645,752000,0,0
2020-01-09,0.41999998688697815,0.41999998688697815,0.375,0.39500001072883606,558000,0,0
2020-01-10,0.3799999952316284,0.38999998569488525,0.375,0.3799999952316284,450000,0,0
2020-01-13,0.36500000953674316,0.38499999046325684,0.36500000953674316,0.38499999046325684,176000,0,0
2020-01-14,0.38999998569488525,0.38999998569488525,0.38499999046325684,0.38999998569488525,120000,0,0
2020-01-15,0.38499999046325684,0.38999998569488525,0.38499999046325684,0.38499999046325684,366000,0,0
2020-01-16,0.3799999952316284,0.38499999046325684,0.3700000047683716,0.3799999952316284,540000,0,0
2020-01-17,0.38499999046325684,0.4099999964237213,0.3799999952316284,0.4000000059604645,1084000,0,0
2020-01-20,0.4000000059604645,0.6200000047683716,0.4000000059604645,0.5199999809265137,18328000,0,0
2020-01-21,0.5,0.5600000023841858,0.49000000953674316,0.5099999904632568,2134000,0,0
2020-01-22,0.5099999904632568,0.5099999904632568,0.4699999988079071,0.5099999904632568,855000,0,0
2020-01-23,0.5099999904632568,0.5199999809265137,0.48500001430511475,0.5,918000,0,0
2020-01-24,0.5099999904632568,0.5099999904632568,0.47999998927116394,0.49000000953674316,160000,0,0
2020-01-29,0.48500001430511475,0.49000000953674316,0.4399999976158142,0.4650000035762787,514000,0,0
2020-01-30,0.45500001311302185,0.5400000214576721,0.45500001311302185,0.48500001430511475,1272000,0,0
2020-01-31,0.5899999737739563,0.5899999737739563,0.4699999988079071,0.49000000953674316,458000,0,0
2020-02-03,0.48500001430511475,0.4950000047683716,0.46000000834465027,0.48500001430511475,162068,0,0
2020-02-04,0.4650000035762787,0.47999998927116394,0.4650000035762787,0.4650000035762787,160000,0,0
2020-02-05,0.4749999940395355,0.4950000047683716,0.4749999940395355,0.4749999940395355,82000,0,0
2020-02-06,0.48500001430511475,0.4950000047683716,0.4749999940395355,0.4749999940395355,728000,0,0
2020-02-07,0.47999998927116394,0.5,0.47999998927116394,0.47999998927116394,26000,0,0
2020-02-10,0.47999998927116394,0.5,0.46000000834465027,0.48500001430511475,154000,0,0
2020-02-11,0.4950000047683716,0.5099999904632568,0.4950000047683716,0.5,453220,0,0
2020-02-12,0.5299999713897705,0.550000011920929,0.5,0.5099999904632568,1974000,0,0
2020-02-13,0.5199999809265137,0.5199999809265137,0.48500001430511475,0.4950000047683716,1362000,0,0
2020-02-14,0.4950000047683716,0.4950000047683716,0.4950000047683716,0.4950000047683716,0,0,0
2020-02-17,0.5099999904632568,0.5099999904632568,0.49000000953674316,0.4950000047683716,206000,0,0
2020-02-18,0.4950000047683716,0.5,0.47999998927116394,0.48500001430511475,42000,0,0
2020-02-19,0.48500001430511475,0.4950000047683716,0.47999998927116394,0.48500001430511475,464000,0,0
2020-02-20,0.49000000953674316,0.5,0.48500001430511475,0.49000000953674316,404000,0,0
2020-02-21,0.4950000047683716,0.4950000047683716,0.49000000953674316,0.49000000953674316,2570000,0,0
2020-02-24,0.49000000953674316,0.49000000953674316,0.47999998927116394,0.47999998927116394,124000,0,0
2020-02-25,0.4749999940395355,0.5099999904632568,0.46000000834465027,0.47999998927116394,862000,0,0
2020-02-26,0.47999998927116394,0.47999998927116394,0.4650000035762787,0.4650000035762787,744000,0,0
2020-02-27,0.47999998927116394,0.47999998927116394,0.4749999940395355,0.4749999940395355,122000,0,0
2020-02-28,0.4650000035762787,0.4749999940395355,0.44999998807907104,0.4650000035762787,102000,0,0
2020-03-02,0.46000000834465027,0.4699999988079071,0.4300000071525574,0.4300000071525574,326000,0,0
2020-03-03,0.4399999976158142,0.4399999976158142,0.4399999976158142,0.4399999976158142,60000,0,0
2020-03-04,0.4300000071525574,0.4300000071525574,0.41999998688697815,0.41999998688697815,58000,0,0
2020-03-05,0.47999998927116394,0.47999998927116394,0.4300000071525574,0.4300000071525574,13500,0,0
2020-03-06,0.4650000035762787,0.4650000035762787,0.4399999976158142,0.4300000071525574,60000,0,0
2020-03-09,0.4300000071525574,0.4300000071525574,0.4000000059604645,0.4000000059604645,398000,0,0
2020-03-10,0.4050000011920929,0.41999998688697815,0.4000000059604645,0.4000000059604645,207298,0,0
2020-03-11,0.4000000059604645,0.4050000011920929,0.39500001072883606,0.39500001072883606,180000,0,0
2020-03-12,0.3799999952316284,0.3799999952316284,0.36000001430511475,0.36000001430511475,524000,0,0
2020-03-13,0.3199999928474426,0.3400000035762787,0.3199999928474426,0.33000001311302185,936000,0,0
2020-03-16,0.3449999988079071,0.3449999988079071,0.3149999976158142,0.3149999976158142,2456000,0,0
2020-03-17,0.3100000023841858,0.3100000023841858,0.29499998688697815,0.29499998688697815,598000,0,0
2020-03-18,0.29499998688697815,0.3199999928474426,0.28999999165534973,0.30000001192092896,2568000,0,0
2020-03-19,0.30000001192092896,0.30000001192092896,0.2549999952316284,0.26499998569488525,1480000,0,0
2020-03-20,0.25,0.25999999046325684,0.24400000274181366,0.2549999952316284,4320000,0,0
2020-03-23,0.2750000059604645,0.2750000059604645,0.23999999463558197,0.2409999966621399,938000,0,0
2020-03-24,0.25,0.25,0.23600000143051147,0.23999999463558197,896000,0,0
2020-03-25,0.24500000476837158,0.24899999797344208,0.23499999940395355,0.2409999966621399,1226000,0,0
2020-03-26,0.2460000067949295,0.2549999952316284,0.2460000067949295,0.25,239045,0,0
2020-03-27,0.25,0.2549999952316284,0.23499999940395355,0.24899999797344208,1270000,0,0
2020-03-30,0.24799999594688416,0.24799999594688416,0.24799999594688416,0.24799999594688416,4000,0,0
2020-03-31,0.24199999868869781,0.25,0.24199999868869781,0.24799999594688416,104000,0,0
2020-04-01,0.24899999797344208,0.2549999952316284,0.23999999463558197,0.2549999952316284,216000,0,0
2020-04-02,0.2290000021457672,0.25,0.2290000021457672,0.25,46000,0,0
2020-04-03,0.23000000417232513,0.25,0.23000000417232513,0.23999999463558197,16000,0,0
2020-04-06,0.23999999463558197,0.25,0.23999999463558197,0.25,16000,0,0
2020-04-07,0.24500000476837158,0.26499998569488525,0.24500000476837158,0.25999999046325684,966000,0,0
2020-04-08,0.2549999952316284,0.27000001072883606,0.25,0.25,200000,0,0
2020-04-09,0.25999999046325684,0.25999999046325684,0.2549999952316284,0.2549999952316284,170000,0,0
2020-04-14,0.25999999046325684,0.25999999046325684,0.25,0.2549999952316284,160000,0,0
2020-04-15,0.25999999046325684,0.25999999046325684,0.24799999594688416,0.24799999594688416,354661,0,0
2020-04-16,0.24500000476837158,0.25,0.2370000034570694,0.24799999594688416,118000,0,0
2020-04-17,0.24799999594688416,0.24799999594688416,0.24799999594688416,0.24799999594688416,0,0,0
2020-04-20,0.24500000476837158,0.24500000476837158,0.24500000476837158,0.24500000476837158,0,0,0
2020-04-21,0.23199999332427979,0.23499999940395355,0.2290000021457672,0.23100000619888306,790000,0,0
2020-04-22,0.23199999332427979,0.23199999332427979,0.22100000083446503,0.22100000083446503,784000,0,0
2020-04-23,0.22100000083446503,0.22100000083446503,0.2199999988079071,0.2199999988079071,554000,0,0
2020-04-24,0.2199999988079071,0.2199999988079071,0.2199999988079071,0.2199999988079071,74000,0,0
2020-04-27,0.2199999988079071,0.23000000417232513,0.2199999988079071,0.2199999988079071,278000,0,0
2020-04-28,0.2199999988079071,0.23199999332427979,0.2199999988079071,0.23199999332427979,122000,0,0
2020-04-29,0.23499999940395355,0.24500000476837158,0.23499999940395355,0.24199999868869781,140000,0,0
2020-05-04,0.25,0.25,0.25,0.25,0,0,0
2020-05-05,0.2549999952316284,0.2549999952316284,0.2409999966621399,0.2409999966621399,48000,0,0
2020-05-06,0.26499998569488525,0.26499998569488525,0.24500000476837158,0.24500000476837158,496000,0,0
2020-05-07,0.24500000476837158,0.2549999952316284,0.24500000476837158,0.2549999952316284,208000,0,0
2020-05-08,0.2549999952316284,0.2549999952316284,0.2460000067949295,0.2549999952316284,774000,0,0
2020-05-11,0.2549999952316284,0.25999999046325684,0.24699999392032623,0.25999999046325684,200000,0,0
2020-05-12,0.2549999952316284,0.2549999952316284,0.2549999952316284,0.2549999952316284,0,0,0
2020-05-13,0.2549999952316284,0.26499998569488525,0.2549999952316284,0.26499998569488525,90000,0,0
2020-05-14,0.2460000067949295,0.2460000067949295,0.2460000067949295,0.2460000067949295,8000,0,0
2020-05-15,0.24699999392032623,0.27000001072883606,0.2460000067949295,0.24799999594688416,528000,0,0
2020-05-18,0.23600000143051147,0.25,0.23600000143051147,0.23600000143051147,24000,0,0
2020-05-19,0.23600000143051147,0.24400000274181366,0.23600000143051147,0.24400000274181366,60000,0,0
2020-05-20,0.2460000067949295,0.2460000067949295,0.24500000476837158,0.24500000476837158,138000,0,0
2020-05-21,0.24699999392032623,0.2549999952316284,0.24500000476837158,0.24500000476837158,726000,0,0
2020-05-22,0.2460000067949295,0.2549999952316284,0.2460000067949295,0.2549999952316284,268000,0,0
2020-05-25,0.25,0.26499998569488525,0.25,0.2549999952316284,478000,0,0
2020-05-26,0.23999999463558197,0.25,0.23999999463558197,0.25,12000,0,0
2020-05-27,0.25,0.25,0.24300000071525574,0.24300000071525574,86000,0,0
2020-05-28,0.24300000071525574,0.24500000476837158,0.24300000071525574,0.24500000476837158,52000,0,0
2020-05-29,0.2460000067949295,0.25999999046325684,0.24500000476837158,0.25,44000,0,0
2020-06-01,0.2549999952316284,0.25999999046325684,0.2549999952316284,0.2549999952316284,346000,0,0
2020-06-02,0.25,0.2750000059604645,0.25,0.2549999952316284,272000,0,0
2020-06-03,0.2549999952316284,0.2549999952316284,0.2549999952316284,0.2549999952316284,0,0,0
2020-06-04,0.27000001072883606,0.3100000023841858,0.27000001072883606,0.2849999964237213,1428000,0,0
2020-06-05,0.3100000023841858,0.3149999976158142,0.29499998688697815,0.3149999976158142,318000,0,0
2020-06-08,0.3199999928474426,0.3400000035762787,0.3149999976158142,0.33500000834465027,848000,0,0
2020-06-09,0.32499998807907104,0.3499999940395355,0.3199999928474426,0.3400000035762787,1356000,0,0
2020-06-10,0.33500000834465027,0.33500000834465027,0.3149999976158142,0.3149999976158142,300000,0,0
2020-06-11,0.33000001311302185,0.33000001311302185,0.32499998807907104,0.32499998807907104,62000,0,0
2020-06-12,0.30000001192092896,0.3149999976158142,0.30000001192092896,0.3100000023841858,10000,0,0
2020-06-15,0.32499998807907104,0.32499998807907104,0.32499998807907104,0.32499998807907104,2000,0,0
2020-06-16,0.3100000023841858,0.3199999928474426,0.3050000071525574,0.3050000071525574,500000,0,0
2020-06-17,0.3050000071525574,0.3149999976158142,0.29499998688697815,0.30000001192092896,2044000,0,0
2020-06-18,0.29499998688697815,0.3050000071525574,0.29499998688697815,0.3050000071525574,94000,0,0
2020-06-19,0.3050000071525574,0.3100000023841858,0.30000001192092896,0.30000001192092896,202000,0,0
2020-06-22,0.30000001192092896,0.3100000023841858,0.30000001192092896,0.3100000023841858,302000,0,0
2020-06-23,0.3100000023841858,0.33500000834465027,0.3100000023841858,0.33000001311302185,20000,0,0
2020-06-24,0.3149999976158142,0.3149999976158142,0.3149999976158142,0.3149999976158142,46000,0,0
2020-06-26,0.3149999976158142,0.3149999976158142,0.3149999976158142,0.3149999976158142,28000,0,0
2020-06-29,0.3199999928474426,0.3199999928474426,0.3149999976158142,0.3149999976158142,54000,0,0
2020-06-30,0.3149999976158142,0.3199999928474426,0.29499998688697815,0.3199999928474426,200000,0,0
2020-07-02,0.32499998807907104,0.32499998807907104,0.3199999928474426,0.32499998807907104,1148000,0,0
2020-07-03,0.32499998807907104,0.32499998807907104,0.3199999928474426,0.3199999928474426,110000,0,0
2020-07-06,0.32499998807907104,0.33000001311302185,0.3199999928474426,0.3199999928474426,322000,0,0
2020-07-07,0.3149999976158142,0.3400000035762787,0.3100000023841858,0.3199999928474426,1052000,0,0
2020-07-08,0.33500000834465027,0.33500000834465027,0.30000001192092896,0.3149999976158142,366000,0,0
2020-07-09,0.3100000023841858,0.3100000023841858,0.30000001192092896,0.3100000023841858,176000,0,0
2020-07-10,0.3050000071525574,0.3100000023841858,0.30000001192092896,0.3100000023841858,738500,0,0
2020-07-13,0.3149999976158142,0.32499998807907104,0.3100000023841858,0.3100000023841858,326000,0,0
2020-07-14,0.3149999976158142,0.35499998927116394,0.3149999976158142,0.3449999988079071,314000,0,0
2020-07-15,0.36000001430511475,0.38499999046325684,0.35499998927116394,0.35499998927116394,950000,0,0
2020-07-16,0.3400000035762787,0.3400000035762787,0.30000001192092896,0.3149999976158142,380000,0,0
2020-07-17,0.3149999976158142,0.3400000035762787,0.3149999976158142,0.33000001311302185,98000,0,0
2020-07-20,0.33000001311302185,0.33000001311302185,0.33000001311302185,0.33000001311302185,30000,0,0
2020-07-21,0.3050000071525574,0.3449999988079071,0.3050000071525574,0.3149999976158142,198000,0,0
2020-07-22,0.3100000023841858,0.3199999928474426,0.3100000023841858,0.3100000023841858,212000,0,0
2020-07-23,0.30000001192092896,0.30000001192092896,0.30000001192092896,0.30000001192092896,8000,0,0
2020-07-24,0.30000001192092896,0.30000001192092896,0.30000001192092896,0.29499998688697815,78000,0,0
2020-07-27,0.29499998688697815,0.30000001192092896,0.29499998688697815,0.30000001192092896,40000,0,0
2020-07-28,0.3100000023841858,0.3149999976158142,0.30000001192092896,0.30000001192092896,6000,0,0
2020-07-29,0.3100000023841858,0.3100000023841858,0.3100000023841858,0.3100000023841858,100000,0,0
2020-07-30,0.3100000023841858,0.3100000023841858,0.3100000023841858,0.3100000023841858,0,0,0
2020-07-31,0.3100000023841858,0.3100000023841858,0.3100000023841858,0.3100000023841858,1000,0,0
2020-08-03,0.32499998807907104,0.33500000834465027,0.32499998807907104,0.33500000834465027,38000,0,0
2020-08-04,0.30000001192092896,0.30000001192092896,0.28999999165534973,0.29499998688697815,176000,0,0
2020-08-05,0.29499998688697815,0.3199999928474426,0.29499998688697815,0.3149999976158142,248000,0,0
2020-08-06,0.3100000023841858,0.3100000023841858,0.29499998688697815,0.29499998688697815,84000,0,0
2020-08-07,0.30000001192092896,0.3100000023841858,0.29499998688697815,0.29499998688697815,170000,0,0
2020-08-10,0.29499998688697815,0.29499998688697815,0.29499998688697815,0.29499998688697815,38000,0,0
2020-08-11,0.29499998688697815,0.29499998688697815,0.28999999165534973,0.28999999165534973,16000,0,0
2020-08-12,0.2849999964237213,0.2849999964237213,0.2849999964237213,0.2849999964237213,30000,0,0
2020-08-13,0.28999999165534973,0.28999999165534973,0.2849999964237213,0.28999999165534973,936000,0,0
2020-08-14,0.2849999964237213,0.30000001192092896,0.2849999964237213,0.29499998688697815,726000,0,0
2020-08-17,0.2849999964237213,0.2849999964237213,0.2849999964237213,0.2849999964237213,102000,0,0
2020-08-18,0.2849999964237213,0.2849999964237213,0.27000001072883606,0.2800000011920929,724000,0,0
2020-08-19,0.2800000011920929,0.2800000011920929,0.2800000011920929,0.2800000011920929,0,0,0
2020-08-20,0.2849999964237213,0.2849999964237213,0.2849999964237213,0.2849999964237213,2000,0,0
2020-08-21,0.26499998569488525,0.2800000011920929,0.26499998569488525,0.2800000011920929,260000,0,0
2020-08-24,0.25999999046325684,0.27000001072883606,0.25999999046325684,0.27000001072883606,30000,0,0
2020-08-25,0.27000001072883606,0.27000001072883606,0.27000001072883606,0.27000001072883606,10000,0,0
2020-08-26,0.2549999952316284,0.2549999952316284,0.24199999868869781,0.24699999392032623,244000,0,0
2020-08-27,0.23999999463558197,0.23999999463558197,0.23999999463558197,0.24300000071525574,184000,0,0
2020-08-28,0.23399999737739563,0.25999999046325684,0.23399999737739563,0.2409999966621399,100000,0,0
2020-08-31,0.2549999952316284,0.2549999952316284,0.25,0.2549999952316284,206000,0,0
2020-09-01,0.2549999952316284,0.2549999952316284,0.2549999952316284,0.2549999952316284,0,0,0
2020-09-02,0.23499999940395355,0.2549999952316284,0.23499999940395355,0.2549999952316284,8000,0,0
2020-09-03,0.2549999952316284,0.2549999952316284,0.2549999952316284,0.2549999952316284,2000,0,0
2020-09-04,0.25999999046325684,0.25999999046325684,0.25999999046325684,0.2549999952316284,2000,0,0
2020-09-07,0.2409999966621399,0.2549999952316284,0.2409999966621399,0.2549999952316284,28000,0,0
2020-09-08,0.24899999797344208,0.24899999797344208,0.24899999797344208,0.24899999797344208,8000,0,0
2020-09-09,0.2549999952316284,0.2549999952316284,0.23999999463558197,0.23999999463558197,336000,0,0
2020-09-10,0.25999999046325684,0.26499998569488525,0.24400000274181366,0.24400000274181366,98000,0,0
2020-09-11,0.24400000274181366,0.26499998569488525,0.23999999463558197,0.23999999463558197,456000,0,0
2020-09-14,0.24899999797344208,0.2549999952316284,0.24899999797344208,0.25,210000,0,0
2020-09-15,0.25,0.25,0.25,0.25,14000,0,0
2020-09-16,0.25,0.25,0.23899999260902405,0.23999999463558197,920000,0,0
2020-09-17,0.2409999966621399,0.2409999966621399,0.23000000417232513,0.23000000417232513,622000,0,0
2020-09-18,0.23000000417232513,0.23000000417232513,0.23000000417232513,0.23000000417232513,54000,0,0
2020-09-21,0.23499999940395355,0.23499999940395355,0.22100000083446503,0.22200000286102295,150000,0,0
2020-09-22,0.22200000286102295,0.22200000286102295,0.22200000286102295,0.22200000286102295,60000,0,0
2020-09-23,0.22200000286102295,0.22499999403953552,0.20200000703334808,0.22499999403953552,378000,0,0
2020-09-24,0.2240000069141388,0.2240000069141388,0.2240000069141388,0.2240000069141388,6000,0,0
2020-09-25,0.22499999403953552,0.22599999606609344,0.2240000069141388,0.22499999403953552,310000,0,0
2020-09-28,0.22499999403953552,0.22499999403953552,0.2240000069141388,0.2240000069141388,102000,0,0
2020-09-29,0.23000000417232513,0.23499999940395355,0.2290000021457672,0.2290000021457672,130000,0,0
2020-09-30,0.2290000021457672,0.2290000021457672,0.2290000021457672,0.2290000021457672,0,0,0
2020-10-05,0.24400000274181366,0.24400000274181366,0.24400000274181366,0.24300000071525574,4000,0,0
2020-10-06,0.24300000071525574,0.24300000071525574,0.24300000071525574,0.24300000071525574,26000,0,0
2020-10-07,0.24300000071525574,0.24300000071525574,0.24300000071525574,0.24300000071525574,0,0,0
2020-10-08,0.24500000476837158,0.28999999165534973,0.24500000476837158,0.26499998569488525,164000,0,0
2020-10-09,0.23999999463558197,0.24400000274181366,0.23899999260902405,0.23899999260902405,1130000,0,0
2020-10-12,0.23899999260902405,0.2549999952316284,0.23499999940395355,0.23600000143051147,632000,0,0
2020-10-14,0.24799999594688416,0.24799999594688416,0.23000000417232513,0.23000000417232513,254000,0,0
2020-10-15,0.23499999940395355,0.23499999940395355,0.22599999606609344,0.2280000001192093,1136000,0,0
2020-10-16,0.23000000417232513,0.23000000417232513,0.2240000069141388,0.2240000069141388,258000,0,0
2020-10-19,0.22300000488758087,0.23000000417232513,0.2199999988079071,0.22499999403953552,500000,0,0
2020-10-20,0.22100000083446503,0.22499999403953552,0.21899999678134918,0.22499999403953552,374500,0,0
2020-10-21,0.2290000021457672,0.23199999332427979,0.2290000021457672,0.22499999403953552,202000,0,0
2020-10-22,0.22499999403953552,0.22499999403953552,0.21199999749660492,0.2199999988079071,892000,0,0
2020-10-23,0.2199999988079071,0.22499999403953552,0.2199999988079071,0.2199999988079071,356000,0,0
2020-10-27,0.2199999988079071,0.22300000488758087,0.21899999678134918,0.22300000488758087,411000,0,0
2020-10-28,0.2199999988079071,0.2199999988079071,0.2199999988079071,0.2199999988079071,268000,0,0
2020-10-29,0.2199999988079071,0.2199999988079071,0.2160000056028366,0.2160000056028366,158000,0,0
2020-10-30,0.2160000056028366,0.21899999678134918,0.20000000298023224,0.20999999344348907,650000,0,0
2020-11-02,0.20999999344348907,0.20999999344348907,0.20999999344348907,0.20999999344348907,0,0,0
2020-11-03,0.2199999988079071,0.22200000286102295,0.2199999988079071,0.22200000286102295,60000,0,0
2020-11-04,0.22200000286102295,0.22200000286102295,0.22200000286102295,0.22200000286102295,0,0,0
2020-11-05,0.2199999988079071,0.22499999403953552,0.2199999988079071,0.2199999988079071,86000,0,0
2020-11-06,0.2199999988079071,0.22499999403953552,0.2199999988079071,0.22499999403953552,292000,0,0
2020-11-09,0.2199999988079071,0.22100000083446503,0.2199999988079071,0.22100000083446503,424000,0,0
2020-11-10,0.22499999403953552,0.23000000417232513,0.2199999988079071,0.2199999988079071,948000,0,0
2020-11-11,0.21799999475479126,0.2290000021457672,0.21799999475479126,0.21799999475479126,328000,0,0
2020-11-12,0.22100000083446503,0.22100000083446503,0.21699999272823334,0.21699999272823334,1094000,0,0
2020-11-13,0.21899999678134918,0.2199999988079071,0.20999999344348907,0.2150000035762787,860000,0,0
2020-11-16,0.21199999749660492,0.2199999988079071,0.21199999749660492,0.21799999475479126,8000,0,0
2020-11-17,0.2199999988079071,0.2290000021457672,0.2150000035762787,0.2199999988079071,826000,0,0
2020-11-18,0.21199999749660492,0.2199999988079071,0.20999999344348907,0.2199999988079071,1920000,0,0
2020-11-19,0.2199999988079071,0.2199999988079071,0.20999999344348907,0.21899999678134918,1944000,0,0
2020-11-20,0.2199999988079071,0.2199999988079071,0.20999999344348907,0.21299999952316284,2348000,0,0
2020-11-23,0.21199999749660492,0.2280000001192093,0.21199999749660492,0.2160000056028366,798000,0,0
2020-11-24,0.21400000154972076,0.21899999678134918,0.20800000429153442,0.21899999678134918,778000,0,0
2020-11-25,0.2199999988079071,0.22300000488758087,0.20999999344348907,0.2150000035762787,1354000,0,0
2020-11-26,0.21199999749660492,0.22300000488758087,0.20999999344348907,0.21799999475479126,5184000,0,0
2020-11-27,0.22100000083446503,0.22100000083446503,0.20999999344348907,0.21899999678134918,2914000,0,0
2020-11-30,0.2280000001192093,0.2329999953508377,0.20999999344348907,0.21299999952316284,2886000,0,0
2020-12-01,0.22499999403953552,0.22499999403953552,0.210999995470047,0.21699999272823334,2500000,0,0
2020-12-02,0.21299999952316284,0.21400000154972076,0.2070000022649765,0.20999999344348907,4526000,0,0
2020-12-03,0.21199999749660492,0.21799999475479126,0.21199999749660492,0.21699999272823334,3294000,0,0
2020-12-04,0.2150000035762787,0.2199999988079071,0.20999999344348907,0.2199999988079071,2918000,0,0
2020-12-07,0.22100000083446503,0.23999999463558197,0.2150000035762787,0.22100000083446503,1260000,0,0
