Date,Open,High,Low,Close,Volume,Dividends,Stock Splits
2020-01-02,1.0944094983778059,1.1122047575273455,1.0855118688030359,1.1033071279525757,2386000,0.0,0
2020-01-03,1.103307095099622,1.1122047244094488,1.085511836479968,1.094409465789795,1466000,0.0,0
2020-01-06,1.085511836479968,1.103307095099622,1.076614207170141,1.094409465789795,2310000,0.0,0
2020-01-07,1.1566928553613713,1.2189763657584174,1.1566928553613713,1.1833858489990234,15484000,0.0,0
2020-01-08,1.1655904917555242,1.1833858563133177,1.1388976040209948,1.1566928625106812,8104000,0.0,0
2020-01-09,1.165590524673462,1.165590524673462,1.147795265681212,1.165590524673462,2210000,0.0,0
2020-01-10,1.1744882270684747,1.1744882270684747,1.1477952332658379,1.1566928625106812,5821184,0.0,0
2020-01-13,1.1566928228880315,1.1744881868362427,1.1566928228880315,1.1744881868362427,2459000,0.0,0
2020-01-14,1.1744882198091748,1.1833858489990234,1.1744882198091748,1.1833858489990234,2071000,0.0,0
2020-01-15,1.1744882198091748,1.1833858489990234,1.1655904845512197,1.1833858489990234,1611000,0.0,0
2020-01-16,1.1833858817258893,1.2100787700336342,1.1744882522899744,1.1922835111618042,5528000,0.0,0
2020-01-17,1.1922834581967685,1.2100787162780762,1.1922834581967685,1.2100787162780762,2808103,0.0,0
2020-01-20,1.2100788030029208,1.2189764326812569,1.183385913967913,1.201181173324585,2478000,0.0,0
2020-01-21,1.1922834513643323,1.1922834513643323,1.1388975713582348,1.1477952003479004,6264000,0.0,0
2020-01-22,1.147795265681212,1.174488260237697,1.138897636185087,1.165590524673462,2346000,0.0,0
2020-01-23,1.1477952003479004,1.1655904583272314,1.1211023133789035,1.1477952003479004,4642000,0.0,0
2020-01-24,1.1388975713582348,1.1477952003479004,1.1299999423685692,1.1477952003479004,812000,0.0,0
2020-01-29,1.1211023537192757,1.1211023537192757,1.085511836479968,1.094409465789795,3958000,0.0,0
2020-01-30,1.0855117966483103,1.0855117966483103,0.9876377717634852,1.0232282876968384,5515400,0.0,0
2020-01-31,1.0410236120224,1.0855118658430494,1.014330723370877,1.0410236120224,3430000,0.0,0
2020-02-03,1.0143306913208838,1.0410235791289868,0.9965354327821485,1.0321259498596191,3960000,0.0,0
2020-02-04,1.0410235261592558,1.0588188898606286,1.0321258973426204,1.0499211549758911,2026000,0.0,0
2020-02-05,1.0321258973426204,1.0588188898606286,1.023228268525985,1.0499211549758911,3506000,0.0,0
2020-02-06,1.0499211490957217,1.0855117702310368,1.0410235203289182,1.0766141414642334,2648000,0.0,0
2020-02-07,1.0499212010725698,1.0588189363479614,1.0321259426580003,1.0588189363479614,3450000,0.0,0
2020-02-10,1.0499212334788046,1.0677165985107422,1.041023603996891,1.0677165985107422,2014000,0.0,0
2020-02-11,1.058818948550487,1.103307095099622,1.058818948550487,1.094409465789795,3206000,0.0,0
2020-02-12,1.0944094131424662,1.1211022997878672,1.0766141553788657,1.112204670906067,2242000,0.0,0
2020-02-13,1.112204670906067,1.1211022997878672,1.0944094131424662,1.112204670906067,906000,0.0,0
2020-02-14,1.1211023871021155,1.1211023871021155,1.1033071279525757,1.1033071279525757,550000,0.0,0
2020-02-17,1.1033071279525757,1.1122047575273455,1.1033071279525757,1.1033071279525757,1028000,0.0,0
2020-02-18,1.094409486956483,1.1033071164383967,1.0766142279926558,1.0677165985107422,1554000,0.0,0
2020-02-19,1.0766141414642334,1.0944093989978403,1.06771651269743,1.0766141414642334,2907632,0.0,0
2020-02-20,1.0766141414642334,1.0766141414642334,1.06771651269743,1.0766141414642334,1751572,0.0,0
2020-02-21,1.0855118574745695,1.0855118574745695,1.0588189690288283,1.0677165985107422,1400000,0.0,0
2020-02-24,1.0588189771915262,1.0588189771915262,1.0321259824718922,1.0410236120224,2080452,0.0,0
2020-02-25,1.0410235791289868,1.0499212083983545,1.0232283205902515,1.0321259498596191,3358000,0.0,0
2020-02-26,1.0232283134507154,1.0588189363479614,1.0232283134507154,1.0588189363479614,1016000,0.0,0
2020-02-27,1.0499211549758911,1.0588188898606286,1.0321258973426204,1.0499211549758911,1644000,0.0,0
2020-02-28,1.0232283205902515,1.0410235791289868,1.0143306913208838,1.0321259498596191,4056000,0.0,0
2020-03-02,1.0232282942751245,1.0855118036270142,1.0143306652345838,1.0855118036270142,5846000,0.0,0
2020-03-03,1.0855118574745695,1.094409486956483,1.0588189690288283,1.0677165985107422,1228000,0.0,0
2020-03-04,1.058818916505392,1.0944094326675549,1.0499211813967466,1.0855118036270142,3146000,0.0,0
2020-03-05,1.0944093989978403,1.0944093989978403,1.06771651269743,1.0766141414642334,1584000,0.0,0
2020-03-06,1.0677165655552463,1.0677165655552463,1.0499212010725698,1.0588189363479614,1594000,0.0,0
2020-03-09,1.0410235456635148,1.049921174646853,1.0143306587135,1.0232282876968384,12000000,0.0,0
2020-03-10,1.0232282876968384,1.049921174646853,1.0054330297301617,1.0232282876968384,2874000,0.0,0
2020-03-11,1.0321259166801766,1.049921174646853,1.0232282876968384,1.0232282876968384,3040000,0.0,0
2020-03-12,1.0143307060555056,1.0143307060555056,0.9787401884610311,0.9876378178596497,2924000,0.0,0
2020-03-13,0.9342519372343009,0.9520473021345898,0.9075590489860316,0.9431495666503906,7666000,0.0,0
2020-03-16,0.9431495479242072,0.9431495479242072,0.8808661432482124,0.8897637724876404,4708000,0.0,0
2020-03-17,0.8897637661181904,0.8897637661181904,0.8452755672054703,0.8719685077667236,4158000,0.0,0
2020-03-18,0.8719684945570974,0.8986613816799216,0.8363779253592792,0.8541731834411621,8214000,0.0,0
2020-03-19,0.8452755893570024,0.8452755893570024,0.7829921304605975,0.8007873892784119,5484000,0.0,0
2020-03-20,0.8185826672773964,0.8808661235980387,0.809685038236455,0.8541731834411621,4798000,0.0,0
2020-03-23,0.8541732102027336,0.8630708925564953,0.8185826929239036,0.8452755808830261,1982000,0.0,0
2020-03-24,0.8808661369424571,0.8897637661181904,0.8630708785909903,0.8719685077667236,2283000,0.0,0
2020-03-25,0.8986613816847153,0.916456639766693,0.8897637526437264,0.9164566397666931,3766000,0.0,0
2020-03-26,0.8986614079079328,0.9342519251104305,0.8986614079079328,0.9075590372085571,2280000,0.0,0
2020-03-27,0.9342518978486708,0.9431495268896597,0.916456639766693,0.9164566397666931,4556823,0.0,0
2020-03-30,1.005433093820369,1.0766142362925417,0.9876378347193537,1.0410236120224,27616450,0.0,0
2020-03-31,1.06771651269743,1.0855117702310368,1.0588188839306265,1.0766141414642334,9353548,0.0,0
2020-04-01,1.0677165778603142,1.1122047244094488,1.0677165778603142,1.094409465789795,13420000,0.0,0
2020-04-02,1.085511784260666,1.112204670906067,1.0677165264970654,1.112204670906067,4872000,0.0,0
2020-04-03,1.1033071070138993,1.1388976246375382,1.0944094776079896,1.1299999952316284,5506000,0.0,0
2020-04-06,1.1388976246375382,1.147795254043448,1.1033071070138993,1.1299999952316284,4844000,0.0,0
2020-04-07,1.138897591360717,1.147795220506652,1.1122047039229128,1.1211023330688477,9680000,0.0,0
2020-04-08,1.112204736419809,1.1388976246375382,1.112204736419809,1.1299999952316284,4354000,0.0,0
2020-04-09,1.1300000277325866,1.1477952870562316,1.121102398070764,1.1388976573944092,4660000,0.0,0
2020-04-14,1.1300000066889624,1.174488260237697,1.1300000066889624,1.165590524673462,6416200,0.0,0
2020-04-15,1.1655904787985216,1.1744882140125625,1.1122047039229128,1.1211023330688477,5416000,0.0,0
2020-04-16,1.1211023330688477,1.1299999622147825,1.0944094456310431,1.1211023330688477,8224000,0.0,0
2020-04-17,1.1299999286696676,1.1299999286696676,1.1033070420242665,1.112204670906067,9824000,0.0,0
2020-04-20,1.1299999952316284,1.1299999952316284,1.112204736419809,1.1299999952316284,3516000,0.0,0
2020-04-21,1.1211023330688477,1.1211023330688477,1.0944094456310431,1.1211023330688477,3878000,0.0,0
2020-04-22,1.103307074776978,1.1211023330688477,1.0944094456310431,1.1211023330688477,2392086,0.0,0
2020-04-23,1.1211023871021155,1.1211023871021155,1.0944094983778059,1.1033071279525757,7744000,0.0,0
2020-04-24,1.1122047244094488,1.1122047244094488,1.094409465789795,1.094409465789795,7348727,0.0,0
2020-04-27,1.112204670906067,1.1299999286696676,1.0944094131424662,1.112204670906067,2108000,0.0,0
2020-04-28,1.1300000277325866,1.1388976573944092,1.103307138747119,1.1388976573944092,4654000,0.0,0
2020-04-29,1.1388976573944092,1.1388976573944092,1.1122047684089413,1.1388976573944092,5022000,0.0,0
2020-05-04,1.1211022997878672,1.1211022997878672,1.1033070420242665,1.112204670906067,2992000,0.0,0
2020-05-05,1.1211022997878672,1.1299999286696676,1.112204670906067,1.112204670906067,904000,0.0,0
2020-05-06,1.1211023330688477,1.1299999622147825,1.1122047039229128,1.1211023330688477,1762000,0.0,0
2020-05-07,1.1299999952316284,1.1299999952316284,1.1211023658257186,1.1299999952316284,2280000,0.0,0
2020-05-08,1.1300000277325866,1.1477952870562316,1.1300000277325866,1.1388976573944092,4832000,0.0,0
2020-05-11,1.1477952003479004,1.1477952003479004,1.1299999423685692,1.1477952003479004,5620000,0.0,0
2020-05-12,1.147795254043448,1.147795254043448,1.1211023658257186,1.1299999952316284,5438000,0.0,0
2020-05-13,1.1299999622147825,1.138897591360717,1.1122047039229128,1.1211023330688477,3406000,0.0,0
2020-05-14,1.1211023871021155,1.1300000166768853,1.0944094983778059,1.1033071279525757,3394000,0.0,0
2020-05-15,1.112204670906067,1.1211022997878672,1.0944094131424662,1.112204670906067,6386000,0.0,0
2020-05-18,1.1122047039229128,1.138897591360717,1.1122047039229128,1.1211023330688477,4446000,0.0,0
2020-05-19,1.1299999952316284,1.147795254043448,1.1211023658257186,1.1299999952316284,5478000,0.0,0
2020-05-20,1.1477952870562316,1.1477952870562316,1.121102398070764,1.1388976573944092,3106000,0.0,0
2020-05-21,1.1388976246375382,1.147795254043448,1.1211023658257186,1.1299999952316284,6136000,0.0,0
2020-05-22,1.100000023841858,1.1100000143051147,1.0399999618530273,1.059999942779541,8904000,0.14,0
2020-05-25,1.059999942779541,1.0800000429153442,1.0299999713897705,1.0700000524520874,3820000,0.0,0
2020-05-26,1.0800000429153442,1.1100000143051147,1.0700000524520874,1.090000033378601,4268000,0.0,0
2020-05-27,1.090000033378601,1.1100000143051147,1.090000033378601,1.1100000143051147,9824000,0.0,0
2020-05-28,1.1100000143051147,1.1100000143051147,1.090000033378601,1.1100000143051147,4384000,0.0,0
2020-05-29,1.100000023841858,1.1100000143051147,1.090000033378601,1.100000023841858,3314000,0.0,0
2020-06-01,1.1100000143051147,1.2100000381469727,1.100000023841858,1.2000000476837158,14150000,0.0,0
2020-06-02,1.2000000476837158,1.2300000190734863,1.190000057220459,1.2200000286102295,8910000,0.0,0
2020-06-03,1.2300000190734863,1.2400000095367432,1.2100000381469727,1.2200000286102295,2448000,0.0,0
2020-06-04,1.2200000286102295,1.2300000190734863,1.2100000381469727,1.2100000381469727,4002000,0.0,0
2020-06-05,1.2100000381469727,1.2200000286102295,1.190000057220459,1.2000000476837158,2728307,0.0,0
2020-06-08,1.2400000095367432,1.2400000095367432,1.190000057220459,1.190000057220459,4182050,0.0,0
2020-06-09,1.2000000476837158,1.2100000381469727,1.190000057220459,1.2100000381469727,1906000,0.0,0
2020-06-10,1.2000000476837158,1.2100000381469727,1.1699999570846558,1.1699999570846558,2118000,0.0,0
2020-06-11,1.1799999475479126,1.190000057220459,1.159999966621399,1.1799999475479126,1932000,0.0,0
2020-06-12,1.159999966621399,1.190000057220459,1.149999976158142,1.190000057220459,3678000,0.0,0
2020-06-15,1.2000000476837158,1.2000000476837158,1.159999966621399,1.1699999570846558,2542000,0.0,0
2020-06-16,1.2000000476837158,1.2100000381469727,1.190000057220459,1.2000000476837158,3266000,0.0,0
2020-06-17,1.2000000476837158,1.2100000381469727,1.1799999475479126,1.2100000381469727,2740000,0.0,0
2020-06-18,1.2100000381469727,1.2100000381469727,1.190000057220459,1.2100000381469727,2930000,0.0,0
2020-06-19,1.2000000476837158,1.2100000381469727,1.2000000476837158,1.2100000381469727,5300000,0.0,0
2020-06-22,1.2100000381469727,1.2100000381469727,1.1799999475479126,1.2000000476837158,2358000,0.0,0
2020-06-23,1.1799999475479126,1.190000057220459,1.1699999570846558,1.1699999570846558,780000,0.0,0
2020-06-24,1.1699999570846558,1.1699999570846558,1.1299999952316284,1.1399999856948853,2834000,0.0,0
2020-06-26,1.1399999856948853,1.1799999475479126,1.1399999856948853,1.1799999475479126,1324000,0.0,0
2020-06-29,1.1699999570846558,1.190000057220459,1.149999976158142,1.1699999570846558,2538000,0.0,0
2020-06-30,1.190000057220459,1.190000057220459,1.149999976158142,1.190000057220459,4450000,0.0,0
2020-07-02,1.190000057220459,1.2799999713897705,1.190000057220459,1.2799999713897705,13266500,0.0,0
2020-07-03,1.2799999713897705,1.3200000524520874,1.2599999904632568,1.309999942779541,10926800,0.0,0
2020-07-06,1.340000033378601,1.4199999570846558,1.309999942779541,1.4199999570846558,20661200,0.0,0
2020-07-07,1.4299999475479126,1.5099999904632568,1.409999966621399,1.4299999475479126,10838000,0.0,0
2020-07-08,1.4199999570846558,1.4500000476837158,1.409999966621399,1.4299999475479126,3702000,0.0,0
2020-07-09,1.4500000476837158,1.4500000476837158,1.399999976158142,1.409999966621399,3236000,0.0,0
2020-07-10,1.409999966621399,1.4299999475479126,1.3200000524520874,1.3700000047683716,5256000,0.0,0
2020-07-13,1.3700000047683716,1.3799999952316284,1.350000023841858,1.3700000047683716,3140000,0.0,0
2020-07-14,1.3300000429153442,1.3600000143051147,1.2999999523162842,1.3600000143051147,6692000,0.0,0
2020-07-15,1.350000023841858,1.3700000047683716,1.309999942779541,1.3300000429153442,5222500,0.0,0
2020-07-16,1.3200000524520874,1.350000023841858,1.2999999523162842,1.3200000524520874,3196400,0.0,0
2020-07-17,1.309999942779541,1.3600000143051147,1.309999942779541,1.350000023841858,3810000,0.0,0
2020-07-20,1.3300000429153442,1.3700000047683716,1.3300000429153442,1.3600000143051147,4336000,0.0,0
2020-07-21,1.3600000143051147,1.3600000143051147,1.340000033378601,1.3600000143051147,1904000,0.0,0
2020-07-22,1.3600000143051147,1.3600000143051147,1.3200000524520874,1.3300000429153442,1858000,0.0,0
2020-07-23,1.3300000429153442,1.3300000429153442,1.2200000286102295,1.3200000524520874,2522000,0.0,0
2020-07-24,1.3200000524520874,1.3200000524520874,1.2000000476837158,1.2599999904632568,10659000,0.0,0
2020-07-27,1.25,1.2599999904632568,1.2300000190734863,1.2400000095367432,1956000,0.0,0
2020-07-28,1.2400000095367432,1.2599999904632568,1.2300000190734863,1.25,1150000,0.0,0
2020-07-29,1.2300000190734863,1.2699999809265137,1.2300000190734863,1.2699999809265137,2384000,0.0,0
2020-07-30,1.2899999618530273,1.2899999618530273,1.25,1.2699999809265137,1624000,0.0,0
2020-07-31,1.2699999809265137,1.309999942779541,1.2699999809265137,1.2899999618530273,2782100,0.0,0
2020-08-03,1.2699999809265137,1.2799999713897705,1.2400000095367432,1.2599999904632568,1624000,0.0,0
2020-08-04,1.2599999904632568,1.2799999713897705,1.2400000095367432,1.2699999809265137,1184000,0.0,0
2020-08-05,1.2699999809265137,1.2799999713897705,1.2599999904632568,1.2799999713897705,1928000,0.0,0
2020-08-06,1.2799999713897705,1.2799999713897705,1.2300000190734863,1.25,3222000,0.0,0
2020-08-07,1.25,1.2599999904632568,1.2400000095367432,1.25,1012000,0.0,0
2020-08-10,1.25,1.25,1.2400000095367432,1.25,718000,0.0,0
2020-08-11,1.2599999904632568,1.2799999713897705,1.2400000095367432,1.25,1818784,0.0,0
2020-08-12,1.2400000095367432,1.2699999809265137,1.2300000190734863,1.2599999904632568,1736000,0.0,0
2020-08-13,1.2599999904632568,1.2699999809265137,1.25,1.2699999809265137,628000,0.0,0
2020-08-14,1.2599999904632568,1.2699999809265137,1.25,1.2599999904632568,1030000,0.0,0
2020-08-17,1.2599999904632568,1.2799999713897705,1.2599999904632568,1.2699999809265137,3510000,0.0,0
2020-08-18,1.2699999809265137,1.2899999618530273,1.2599999904632568,1.2899999618530273,1428000,0.0,0
2020-08-19,1.25,1.2899999618530273,1.25,1.2899999618530273,414000,0.0,0
2020-08-20,1.2899999618530273,1.2899999618530273,1.25,1.2699999809265137,1998000,0.0,0
2020-08-21,1.25,1.2699999809265137,1.25,1.2599999904632568,1827000,0.0,0
2020-08-24,1.2599999904632568,1.2599999904632568,1.2400000095367432,1.25,994000,0.0,0
2020-08-25,1.25,1.2599999904632568,1.2400000095367432,1.2400000095367432,1714000,0.0,0
2020-08-26,1.2400000095367432,1.2400000095367432,1.2200000286102295,1.2200000286102295,2190000,0.0,0
2020-08-27,1.2200000286102295,1.2300000190734863,1.2000000476837158,1.2300000190734863,1710000,0.0,0
2020-08-28,1.2100000381469727,1.2300000190734863,1.2100000381469727,1.2100000381469727,586000,0.0,0
2020-08-31,1.2100000381469727,1.2300000190734863,1.1799999475479126,1.1799999475479126,2316000,0.0,0
2020-09-01,1.2000000476837158,1.2100000381469727,1.1799999475479126,1.2100000381469727,1700000,0.0,0
2020-09-02,1.2100000381469727,1.2100000381469727,1.1799999475479126,1.190000057220459,1566000,0.0,0
2020-09-03,1.1799999475479126,1.2100000381469727,1.1799999475479126,1.190000057220459,640000,0.0,0
2020-09-04,1.1799999475479126,1.2000000476837158,1.159999966621399,1.2000000476837158,2644000,0.0,0
2020-09-07,1.190000057220459,1.2000000476837158,1.1699999570846558,1.1799999475479126,896000,0.0,0
2020-09-08,1.1699999570846558,1.190000057220459,1.1699999570846558,1.190000057220459,1254000,0.0,0
2020-09-09,1.1799999475479126,1.190000057220459,1.1699999570846558,1.1699999570846558,522000,0.0,0
2020-09-10,1.1799999475479126,1.190000057220459,1.1699999570846558,1.1699999570846558,854000,0.0,0
2020-09-11,1.1699999570846558,1.1799999475479126,1.159999966621399,1.1699999570846558,1912000,0.0,0
2020-09-14,1.1699999570846558,1.1799999475479126,1.149999976158142,1.159999966621399,1116000,0.0,0
2020-09-15,1.159999966621399,1.2100000381469727,1.149999976158142,1.190000057220459,2172000,0.0,0
2020-09-16,1.2200000286102295,1.2200000286102295,1.1699999570846558,1.1799999475479126,779000,0.0,0
2020-09-17,1.1799999475479126,1.190000057220459,1.159999966621399,1.1699999570846558,654000,0.0,0
2020-09-18,1.1699999570846558,1.1799999475479126,1.149999976158142,1.1699999570846558,1842000,0.0,0
2020-09-21,1.1699999570846558,1.1799999475479126,1.149999976158142,1.159999966621399,1262000,0.0,0
2020-09-22,1.159999966621399,1.1799999475479126,1.149999976158142,1.1799999475479126,608000,0.0,0
2020-09-23,1.1699999570846558,1.1799999475479126,1.149999976158142,1.149999976158142,1692000,0.0,0
2020-09-24,1.1399999856948853,1.159999966621399,1.1200000047683716,1.1299999952316284,1560000,0.0,0
2020-09-25,1.1399999856948853,1.149999976158142,1.090000033378601,1.100000023841858,2164000,0.0,0
2020-09-28,1.1100000143051147,1.1200000047683716,1.090000033378601,1.1100000143051147,576000,0.0,0
2020-09-29,1.100000023841858,1.1100000143051147,1.100000023841858,1.1100000143051147,436000,0.0,0
2020-09-30,1.1200000047683716,1.1399999856948853,1.100000023841858,1.100000023841858,856000,0.0,0
2020-10-05,1.100000023841858,1.1100000143051147,1.0800000429153442,1.100000023841858,1268000,0.0,0
2020-10-06,1.1100000143051147,1.159999966621399,1.090000033378601,1.1299999952316284,376000,0.0,0
2020-10-07,1.1100000143051147,1.1200000047683716,1.100000023841858,1.1100000143051147,666000,0.0,0
2020-10-08,1.1100000143051147,1.1299999952316284,1.100000023841858,1.1100000143051147,580000,0.0,0
2020-10-09,1.1100000143051147,1.159999966621399,1.100000023841858,1.159999966621399,2496000,0.0,0
2020-10-12,1.1699999570846558,1.2000000476837158,1.159999966621399,1.190000057220459,1454000,0.0,0
2020-10-14,1.190000057220459,1.190000057220459,1.159999966621399,1.1799999475479126,690000,0.0,0
2020-10-15,1.159999966621399,1.1699999570846558,1.149999976158142,1.149999976158142,250000,0.0,0
2020-10-16,1.1799999475479126,1.1799999475479126,1.159999966621399,1.159999966621399,800000,0.0,0
2020-10-19,1.1799999475479126,1.1799999475479126,1.159999966621399,1.1699999570846558,1356000,0.0,0
2020-10-20,1.159999966621399,1.1699999570846558,1.159999966621399,1.159999966621399,368000,0.0,0
2020-10-21,1.159999966621399,1.1799999475479126,1.159999966621399,1.159999966621399,674000,0.0,0
2020-10-22,1.159999966621399,1.1699999570846558,1.1399999856948853,1.159999966621399,1706000,0.0,0
2020-10-23,1.159999966621399,1.1799999475479126,1.159999966621399,1.159999966621399,442500,0.0,0
2020-10-27,1.159999966621399,1.1699999570846558,1.149999976158142,1.149999976158142,506250,0.0,0
2020-10-28,1.149999976158142,1.149999976158142,1.1299999952316284,1.1299999952316284,666000,0.0,0
2020-10-29,1.1200000047683716,1.1299999952316284,1.1100000143051147,1.1200000047683716,582000,0.0,0
2020-10-30,1.1100000143051147,1.1299999952316284,1.100000023841858,1.1200000047683716,402000,0.0,0
2020-11-02,1.1100000143051147,1.1200000047683716,1.1100000143051147,1.1100000143051147,494000,0.0,0
2020-11-03,1.1200000047683716,1.149999976158142,1.1100000143051147,1.1100000143051147,1848000,0.0,0
2020-11-04,1.1299999952316284,1.149999976158142,1.1299999952316284,1.1299999952316284,536000,0.0,0
2020-11-05,1.1399999856948853,1.1799999475479126,1.1299999952316284,1.1699999570846558,1350000,0.0,0
2020-11-06,1.1699999570846558,1.1699999570846558,1.159999966621399,1.159999966621399,562000,0.0,0
2020-11-09,1.1799999475479126,1.190000057220459,1.1699999570846558,1.1799999475479126,1171600,0.0,0
2020-11-10,1.190000057220459,1.190000057220459,1.1699999570846558,1.1799999475479126,1384000,0.0,0
2020-11-11,1.1799999475479126,1.2100000381469727,1.1799999475479126,1.2100000381469727,1794000,0.0,0
2020-11-12,1.2300000190734863,1.2400000095367432,1.2200000286102295,1.2300000190734863,1258000,0.0,0
2020-11-13,1.2100000381469727,1.2100000381469727,1.190000057220459,1.2000000476837158,688000,0.0,0
2020-11-16,1.1699999570846558,1.2000000476837158,1.1699999570846558,1.190000057220459,530000,0.0,0
2020-11-17,1.190000057220459,1.2000000476837158,1.1799999475479126,1.2000000476837158,1486000,0.0,0
2020-11-18,1.190000057220459,1.2000000476837158,1.190000057220459,1.2000000476837158,920000,0.0,0
2020-11-19,1.2000000476837158,1.2000000476837158,1.190000057220459,1.190000057220459,554000,0.0,0
2020-11-20,1.2000000476837158,1.2000000476837158,1.1699999570846558,1.1799999475479126,1396000,0.0,0
2020-11-23,1.1799999475479126,1.2000000476837158,1.1699999570846558,1.1799999475479126,820000,0.0,0
2020-11-24,1.1799999475479126,1.190000057220459,1.159999966621399,1.1699999570846558,1518000,0.0,0
2020-11-25,1.1799999475479126,1.2000000476837158,1.1799999475479126,1.1799999475479126,1012000,0.0,0
2020-11-26,1.1699999570846558,1.1799999475479126,1.1699999570846558,1.1699999570846558,652000,0.0,0
2020-11-27,1.1799999475479126,1.2000000476837158,1.1699999570846558,1.1799999475479126,1139800,0.0,0
2020-11-30,1.2000000476837158,1.2300000190734863,1.1699999570846558,1.1699999570846558,2216000,0.0,0
2020-12-01,1.1799999475479126,1.2000000476837158,1.1699999570846558,1.190000057220459,444000,0.0,0
2020-12-02,1.2100000381469727,1.2100000381469727,1.1799999475479126,1.2000000476837158,522000,0.0,0
2020-12-03,1.2000000476837158,1.2100000381469727,1.1799999475479126,1.1799999475479126,1042000,0.0,0
2020-12-04,1.1799999475479126,1.190000057220459,1.1699999570846558,1.190000057220459,1304000,0.0,0
2020-12-07,1.2000000476837158,1.2000000476837158,1.1699999570846558,1.1699999570846558,828000,0.0,0
