Date,Open,High,Low,Close,Volume,Dividends,Stock Splits
2020-06-01,14.960000038146973,18.799999237060547,14.920000076293945,17.65999984741211,102492000,0,0
2020-06-02,17.799999237060547,19.399999618530273,17.799999237060547,18.479999542236328,28809101,0,0
2020-06-03,18.8799991607666,19.15999984741211,18.0,18.559999465942383,16274400,0,0
2020-06-04,18.860000610351562,18.8799991607666,17.079999923706055,17.459999084472656,9411800,0,0
2020-06-05,17.200000762939453,18.040000915527344,17.059999465942383,17.6200008392334,5083800,0,0
2020-06-08,17.81999969482422,17.899999618530273,16.600000381469727,16.65999984741211,6136800,0,0
2020-06-09,16.579999923706055,16.979999542236328,15.859999656677246,16.020000457763672,5110200,0,0
2020-06-10,16.280000686645508,16.280000686645508,15.319999694824219,15.819999694824219,4594000,0,0
2020-06-11,15.9399995803833,16.68000030517578,15.760000228881836,16.399999618530273,5241396,0,0
2020-06-12,15.880000114440918,17.299999237060547,15.800000190734863,17.239999771118164,6150400,0,0
2020-06-15,17.399999618530273,18.0,16.81999969482422,17.520000457763672,6546400,0,0
2020-06-16,17.940000534057617,18.200000762939453,17.1200008392334,17.31999969482422,3790000,0,0
2020-06-17,17.3799991607666,17.479999542236328,16.979999542236328,17.079999923706055,1756400,0,0
2020-06-18,17.0,17.200000762939453,16.399999618530273,17.200000762939453,3552800,0,0
2020-06-19,17.200000762939453,17.799999237060547,17.100000381469727,17.700000762939453,5797171,0,0
2020-06-22,17.799999237060547,17.799999237060547,17.079999923706055,17.579999923706055,2732000,0,0
2020-06-23,17.700000762939453,17.700000762939453,17.1200008392334,17.31999969482422,1540400,0,0
2020-06-24,17.31999969482422,17.459999084472656,17.040000915527344,17.200000762939453,1945200,0,0
2020-06-26,17.200000762939453,18.280000686645508,17.200000762939453,17.920000076293945,7832300,0,0
2020-06-29,18.0,18.059999465942383,17.200000762939453,17.34000015258789,3038400,0,0
2020-06-30,17.5,17.579999923706055,17.1200008392334,17.200000762939453,1663261,0,0
2020-07-02,17.3799991607666,17.760000228881836,17.219999313354492,17.6200008392334,2344064,0,0
2020-07-03,17.65999984741211,21.299999237060547,17.5,21.299999237060547,15079500,0,0
2020-07-06,22.5,28.899999618530273,22.100000381469727,28.399999618530273,20019000,0,0
2020-07-07,31.0,34.5,28.0,31.25,20469200,0,0
2020-07-08,32.150001525878906,34.0,31.100000381469727,32.79999923706055,5159128,0,0
2020-07-09,32.25,42.349998474121094,32.25,40.0,10001578,0,0
2020-07-10,40.25,46.0,40.0,42.20000076293945,10194573,0,0
2020-07-13,45.0,46.0,43.0,44.5,3669322,0,0
2020-07-14,42.0,42.0,37.0,39.70000076293945,6716578,0,0
2020-07-15,39.70000076293945,42.0,35.0,36.0,5799298,0,0
2020-07-16,34.5,35.29999923706055,30.049999237060547,32.95000076293945,7192060,0,0
2020-07-17,32.5,34.0,31.350000381469727,32.79999923706055,2469800,0,0
2020-07-20,32.5,39.20000076293945,31.399999618530273,39.0,5051800,0,0
2020-07-21,40.5,43.650001525878906,38.599998474121094,39.900001525878906,5698623,0,0
2020-07-22,39.900001525878906,42.45000076293945,36.900001525878906,37.0,3646259,0,0
2020-07-23,39.0,40.79999923706055,37.349998474121094,40.79999923706055,4263500,0,0
2020-07-24,39.900001525878906,40.79999923706055,38.099998474121094,39.0,3240400,0,0
2020-07-27,38.79999923706055,40.0,34.79999923706055,35.04999923706055,3432700,0,0
2020-07-28,36.70000076293945,37.54999923706055,35.650001525878906,37.0,1717100,0,0
2020-07-29,36.5,38.54999923706055,36.04999923706055,38.20000076293945,2100400,0,0
2020-07-30,39.5,39.79999923706055,37.5,37.900001525878906,1432200,0,0
2020-07-31,38.599998474121094,38.900001525878906,37.400001525878906,38.29999923706055,1066820,0,0
2020-08-03,38.79999923706055,41.5,37.0,41.0,3438400,0,0
2020-08-04,41.79999923706055,46.0,41.599998474121094,46.0,7755100,0,0
2020-08-05,45.599998474121094,51.0,45.29999923706055,50.29999923706055,5976630,0,0
2020-08-06,51.0,53.79999923706055,45.650001525878906,52.45000076293945,5916451,0,0
2020-08-07,53.0,58.20000076293945,52.25,57.70000076293945,6884217,0,0
2020-08-10,58.0,67.05000305175781,57.349998474121094,67.05000305175781,5045247,0,0
2020-08-11,68.0,80.0,47.20000076293945,52.79999923706055,13848689,0,0
2020-08-12,50.95000076293945,51.599998474121094,43.20000076293945,45.650001525878906,10347642,0,0
2020-08-13,47.5,57.79999923706055,47.5,57.0,10095157,0,0
2020-08-14,59.0,63.599998474121094,52.0,57.0,9993631,0,0
2020-08-17,58.5,58.900001525878906,55.0,56.150001525878906,2363016,0,0
2020-08-18,57.099998474121094,58.0,56.04999923706055,56.45000076293945,1441850,0,0
2020-08-19,57.0,60.0,56.400001525878906,59.349998474121094,2313050,0,0
2020-08-20,59.849998474121094,62.349998474121094,57.20000076293945,62.099998474121094,3036140,0,0
2020-08-21,62.849998474121094,65.0,58.0,61.150001525878906,5072796,0,0
2020-08-24,62.20000076293945,63.5,59.150001525878906,61.20000076293945,2156650,0,0
2020-08-25,60.900001525878906,62.0,59.5,59.599998474121094,1257600,0,0
2020-08-26,58.95000076293945,61.5,55.04999923706055,58.0,2314400,0,0
2020-08-27,58.04999923706055,60.79999923706055,58.04999923706055,59.54999923706055,1742585,0,0
2020-08-28,60.900001525878906,61.20000076293945,55.79999923706055,56.04999923706055,4018035,0,0
2020-08-31,56.20000076293945,57.70000076293945,51.099998474121094,52.099998474121094,3499400,0,0
2020-09-01,52.0,54.29999923706055,47.5,52.650001525878906,2978478,0,0
2020-09-02,52.599998474121094,57.400001525878906,51.04999923706055,57.400001525878906,3268300,0,0
2020-09-03,57.099998474121094,59.0,54.79999923706055,55.900001525878906,1649020,0,0
2020-09-04,53.0,54.400001525878906,52.0,53.900001525878906,1721050,0,0
2020-09-07,54.45000076293945,55.0,49.0,50.0,2184769,0,0
2020-09-08,50.0,52.0,47.5,48.79999923706055,1941896,0,0
2020-09-09,48.0,48.0,45.900001525878906,46.849998474121094,1971850,0,0
2020-09-10,47.5,49.5,47.5,48.29999923706055,1446050,0,0
2020-09-11,48.79999923706055,51.5,48.79999923706055,51.400001525878906,1984300,0,0
2020-09-14,52.0,52.54999923706055,51.150001525878906,51.75,1148400,0,0
2020-09-15,51.849998474121094,53.0,51.79999923706055,52.900001525878906,1149300,0,0
2020-09-16,53.29999923706055,53.95000076293945,51.0,51.150001525878906,1176300,0,0
2020-09-17,50.45000076293945,50.900001525878906,49.25,49.5,1037650,0,0
2020-09-18,49.70000076293945,52.20000076293945,49.5,52.20000076293945,972421,0,0
2020-09-21,52.5,52.599998474121094,49.20000076293945,49.70000076293945,867142,0,0
2020-09-22,49.5,51.0,48.150001525878906,49.599998474121094,729633,0,0
2020-09-23,49.849998474121094,50.79999923706055,49.5,50.29999923706055,476400,0,0
2020-09-24,49.400001525878906,49.45000076293945,48.29999923706055,48.849998474121094,647600,0,0
2020-09-25,49.95000076293945,50.0,47.04999923706055,47.25,1074000,0,0
2020-09-28,47.79999923706055,49.20000076293945,47.29999923706055,47.79999923706055,616425,0,0
2020-09-29,48.650001525878906,49.5,48.150001525878906,49.0,426400,0,0
2020-09-30,49.75,49.75,46.5,47.5,738400,0,0
2020-10-05,48.79999923706055,48.79999923706055,47.400001525878906,48.29999923706055,526900,0,0
2020-10-06,48.29999923706055,50.45000076293945,47.70000076293945,50.0,1229900,0,0
2020-10-07,49.900001525878906,49.900001525878906,48.70000076293945,49.45000076293945,447200,0,0
2020-10-08,49.79999923706055,51.95000076293945,48.349998474121094,50.0,1679025,0,0
2020-10-09,50.099998474121094,51.20000076293945,49.0,50.0,711409,0,0
2020-10-12,50.79999923706055,53.0,49.599998474121094,53.0,2395000,0,0
2020-10-14,54.45000076293945,54.5,50.5,53.20000076293945,2238325,0,0
2020-10-15,53.04999923706055,53.95000076293945,51.0,51.29999923706055,1077200,0,0
2020-10-16,51.54999923706055,52.29999923706055,50.04999923706055,50.150001525878906,835200,0,0
2020-10-19,50.20000076293945,51.20000076293945,43.29999923706055,46.45000076293945,2702724,0,0
2020-10-20,46.45000076293945,48.29999923706055,46.29999923706055,48.0,763900,0,0
2020-10-21,48.349998474121094,48.349998474121094,47.900001525878906,48.150001525878906,763710,0,0
2020-10-22,48.5,49.5,48.20000076293945,48.20000076293945,614800,0,0
2020-10-23,49.20000076293945,49.400001525878906,47.0,47.54999923706055,617520,0,0
2020-10-27,48.0,48.0,46.04999923706055,46.95000076293945,654000,0,0
2020-10-28,46.5,46.849998474121094,44.900001525878906,45.0,1998400,0,0
2020-10-29,44.5,44.5,43.29999923706055,44.099998474121094,1676000,0,0
2020-10-30,44.099998474121094,44.29999923706055,40.099998474121094,41.20000076293945,1810500,0,0
2020-11-02,41.0,42.79999923706055,40.29999923706055,42.650001525878906,2899300,0,0
2020-11-03,42.849998474121094,43.20000076293945,41.400001525878906,41.400001525878906,484000,0,0
2020-11-04,41.0,41.0,38.04999923706055,39.349998474121094,2288600,0,0
2020-11-05,40.70000076293945,43.150001525878906,40.45000076293945,43.0,2081400,0,0
2020-11-06,43.400001525878906,43.79999923706055,39.70000076293945,40.849998474121094,1496622,0,0
2020-11-09,41.0,42.20000076293945,41.0,41.5,1015356,0,0
2020-11-10,42.0,42.25,39.20000076293945,40.0,1176200,0,0
2020-11-11,38.5,39.599998474121094,37.0,37.25,2356400,0,0
2020-11-12,37.25,38.20000076293945,36.75,37.0,2666345,0,0
2020-11-13,37.04999923706055,37.5,35.599998474121094,37.29999923706055,3159200,0,0
2020-11-16,37.900001525878906,38.25,36.29999923706055,38.25,1395676,0,0
2020-11-17,39.0,39.400001525878906,38.349998474121094,39.20000076293945,3020000,0,0
2020-11-18,43.20000076293945,43.400001525878906,40.0,43.04999923706055,4777600,0,0
2020-11-19,44.20000076293945,44.20000076293945,42.0,42.900001525878906,3362900,0,0
2020-11-20,42.95000076293945,43.400001525878906,41.5,42.0,1942914,0,0
2020-11-23,43.0,43.900001525878906,41.400001525878906,41.70000076293945,1796400,0,0
2020-11-24,41.79999923706055,42.45000076293945,39.099998474121094,39.599998474121094,2241600,0,0
2020-11-25,39.650001525878906,40.849998474121094,37.599998474121094,37.599998474121094,2158150,0,0
2020-11-26,39.0,39.0,37.900001525878906,38.45000076293945,1437280,0,0
2020-11-27,38.45000076293945,39.79999923706055,38.20000076293945,39.400001525878906,860155,0,0
2020-11-30,39.79999923706055,42.25,39.400001525878906,40.95000076293945,2655114,0,0
2020-12-01,41.849998474121094,41.900001525878906,39.54999923706055,40.75,1209114,0,0
2020-12-02,40.79999923706055,42.150001525878906,39.79999923706055,40.599998474121094,1258128,0,0
2020-12-03,41.25,41.79999923706055,40.599998474121094,41.54999923706055,998000,0,0
2020-12-04,38.5,38.5,37.29999923706055,38.0,31052565,0,0
2020-12-07,38.0,38.5,36.900001525878906,37.54999923706055,1258494,0,0
