Date,pnl
2020-01-12,0.04052007629752008
2020-01-19,-0.06420320563120689
2020-01-26,-0.08064535118658758
2020-02-02,0.02326301659733392
2020-03-08,-0.051166478807483595
2020-03-15,-0.1285849960044892
2020-03-22,0.13000792111811948
2020-03-29,0.014481907848999314
2020-04-05,0.06459628378935585
2020-04-12,0.00599557164747655
2020-04-19,0.02139831733911417
2020-04-26,-0.01356351276338776
2020-05-03,0.016670133741482008
2020-05-10,0.02936343645583823
2020-05-17,0.001353645526779923
2020-05-24,0.04694440245153584
2020-05-31,0.1576854276666332
2020-06-07,-0.004270035126574309
2020-06-14,0.0021895983246623036
2020-06-21,0.028111993308141514
2020-06-28,0.04912110676276114
2020-07-05,0.09087836134303366
2020-07-12,-0.013856209401400777
2020-07-19,-0.027411571491815685
2020-07-26,0.07712289798013963
2020-08-02,0.04622242994167962
2020-08-09,0.018843240070920555
2020-08-16,-0.017197972353788726
2020-08-23,-0.06358743840586403
2020-08-30,-0.008283798253494169
2020-09-06,-0.03595651669398185
2020-09-13,0.14980336779182196
2020-09-20,-0.10788714354274283
2020-09-27,-0.030082529590915435
2020-10-04,0.09682598539331382
2020-10-11,0.014740878724110918
2020-10-18,-0.025399366768250164
2020-10-25,-0.0731964319889786
2020-11-01,0.06434482766944241
2020-11-08,0.04214668663066821
2020-11-15,0.0476225213588076
2020-11-22,0.025846518673783098
2020-11-29,0.06358651669769433
2020-12-06,0.0
