Date,pnl
2020-01-12,0.02983660697133225
2020-01-19,-0.09305932354433856
2020-01-26,-0.03782398470044053
2020-02-02,0.053214883371275404
2020-03-08,-0.09357949098475155
2020-03-15,-0.1360837538918578
2020-03-22,0.06829009826384672
2020-03-29,0.017429609476185277
2020-04-05,0.037843018271594184
2020-04-12,0.013707691583335194
2020-04-19,-0.022745354044849023
2020-04-26,0.002203120067996443
2020-05-03,0.03964819777899582
2020-05-10,-0.020272811501283065
2020-05-17,-0.04015127682755784
2020-05-24,0.017052441959597847
2020-05-31,0.06454603296493032
2020-06-07,-0.0016688834417340798
2020-06-14,0.03194496761499695
2020-06-21,-0.013519120965038304
2020-06-28,0.11416986512545638
2020-07-05,0.06537618926931721
2020-07-12,-0.04313420848892087
2020-07-19,-0.014170280030470087
2020-07-26,0.020284235955046914
2020-08-02,0.052293786623042376
2020-08-09,-0.008316294301915262
2020-08-16,-0.009643611357170703
2020-08-23,0.005672451093282323
2020-08-30,-0.03404562932624474
2020-09-06,-0.0246424084134286
2020-09-13,0.042371104189304454
2020-09-20,-0.060380211302940315
2020-09-27,0.03609825551623558
2020-10-04,0.03571879436095533
2020-10-11,-0.01006553520492995
2020-10-18,-0.017457534712779096
2020-10-25,0.006010645412723177
2020-11-01,0.06633058916043987
2020-11-08,-0.017994698949726443
2020-11-15,0.009092387463808319
2020-11-22,-0.007714484991303296
2020-11-29,0.002087935175570625
2020-12-06,-0.004
