Stock Code,Stock Name,Shareholding in CCASS,Percentage of the total number of Issued Shares
    1,CK HUTCHISON HOLDINGS LIMITED,"29,936,395",0.76%
    2,CLP HOLDINGS LIMITED,"4,308,452",0.16%
    3,"HONG KONG AND CHINA GAS COMPANY LIMITED, THE","25,158,088",0.13%
    4,"WHARF (HOLDINGS) LIMITED, THE","3,789,983",0.12%
    5,HSBC HOLDINGS PLC,"1,564,669,139",7.58%
    6,POWER ASSETS HOLDINGS LIMITED,"6,602,922",0.30%
    8,PCCW LIMITED,"10,289,099",0.12%
   10,HANG LUNG GROUP LIMITED,"9,941,000",0.72%
   11,HANG SENG BANK LTD,"3,989,888",0.19%
   12,HENDERSON LAND DEVELOPMENT CO LTD,"6,889,573",0.13%
   14,HYSAN DEVELOPMENT COMPANY LIMITED,"723,989",0.06%
   16,SUN HUNG KAI PROPERTIES LIMITED,"8,953,904",0.30%
   17,NEW WORLD DEVELOPMENT CO LTD,"38,964,528",0.37%
   19,SWIRE PACIFIC LTD 'A',"1,039,500",0.10%
   20,WHEELOCK AND COMPANY LIMITED,"410,467",0.01%
   23,BANK OF EAST ASIA LTD,"628,793",0.01%
   27,GALAXY ENTERTAINMENT GROUP LIMITED,"41,075,357",0.94%
   35,FAR EAST CONSORTIUM INTERNATIONAL LTD,"183,013",0.00%
   38,FIRST TRACTOR COMPANY LIMITED,"97,494,100",24.86%
   41,GREAT EAGLE HOLDINGS LIMITED,"1,449,511",0.20%
   42,NORTHEAST ELECTRIC DEVELOPMENT COMPANY LIMITED,"17,224,000",6.67%
   43,C.P. POKPHAND CO LTD,"858,000",0.00%
   45,"HONGKONG AND SHANGHAI HOTELS LTD,THE","66,013",0.00%
   59,SKYFAME REALTY (HOLDINGS) LIMITED,"33,926,000",0.42%
   66,MTR CORPORATION LIMITED,"10,376,411",0.16%
   69,SHANGRI-LA ASIA LIMITED,"5,870,000",0.15%
   78,REGAL HOTELS INTERNATIONAL HOLDINGS LIMITED,"16,000",0.00%
   81,CHINA OVERSEAS GRAND OCEANS GROUP LIMITED,"242,715,320",7.08%
   83,SINO LAND CO.LTD.,"8,863,929",0.12%
   86,SUN HUNG KAI & CO.LTD,"9,090,000",0.45%
   87,SWIRE PACIFIC LTD 'B',"13,977,500",0.46%
   95,LVGEM (CHINA) REAL ESTATE INVESTMENT COMPANY LIMITED,"147,436,000",2.91%
  101,HANG LUNG PROPERTIES LIMITED,"9,562,949",0.21%
  107,SICHUAN EXPRESSWAY COMPANY LIMITED,"190,724,000",21.30%
  109,GOOD RESOURCES HOLDINGS LIMITED,"46,940,000",0.65%
  116,CHOW SANG SANG HOLDINGS INTERNATIONAL LIMITED,"24,000",0.00%
  119,"POLY PROPERTY GROUP CO., LIMITED","312,473,000",8.52%
  123,YUEXIU PROPERTY COMPANY LIMITED,"252,344,087",1.62%
  127,CHINESE ESTATES HOLDINGS LIMITED,"4,793,500",0.25%
  135,KUNLUN ENERGY COMPANY LIMITED,"178,845,057",2.06%
  136,HENGTEN NETWORKS GROUP LIMITED,"4,694,252,000",6.28%
  142,FIRST PACIFIC CO. LTD.,"51,304,000",1.17%
  144,CHINA MERCHANTS PORT HOLDINGS COMPANY LIMITED,"77,155,648",2.23%
  148,KINGBOARD HOLDINGS LIMITED,"22,751,636",2.05%
  151,WANT WANT CHINA HOLDINGS LIMITED,"17,461,871",0.13%
  152,SHENZHEN INTERNATIONAL HOLDINGS LIMITED,"60,312,887",2.78%
  163,EMPEROR INTERNATIONAL HOLDINGS LIMITED,"11,774,000",0.32%
  165,CHINA EVERBRIGHT LIMITED,"112,393,955",6.66%
  168,TSINGTAO BREWERY COMPANY LIMITED,"52,489,698",8.00%
  173,K. WAH INTERNATIONAL HOLDINGS LIMITED,"38,222,158",1.22%
  175,GEELY AUTOMOBILE HOLDINGS LIMITED,"823,342,141",8.95%
  177,JIANGSU EXPRESSWAY COMPANY LIMITED,"58,792,818",4.80%
  178,SA SA INTERNATIONAL HOLDINGS LIMITED,"17,787,635",0.56%
  179,JOHNSON ELECTRIC HOLDINGS LIMITED,"394,500",0.04%
  187,BEIJING JINGCHENG MACHINERY ELECTRIC COMPANY LIMITED,"26,610,000",26.60%
  189,DONGYUE GROUP LIMITED,"119,839,358",5.67%
  198,SMI HOLDINGS GROUP LIMITED,"70,340,800",2.59%
  200,MELCO INTERNATIONAL DEVELOPMENT LIMITED,"8,980,000",0.58%
  207,JOY CITY PROPERTY LIMITED,"5,614,000",0.03%
  215,HUTCHISON TELECOMMUNICATIONS HONG KONG HOLDINGS LIMITED,"6,406,000",0.13%
  220,UNI-PRESIDENT CHINA HOLDINGS LTD.,"4,014,000",0.08%
  241,ALIBABA HEALTH INFORMATION TECHNOLOGY LIMITED,"400,167,021",3.31%
  242,SHUN TAK HOLDINGS LIMITED,"83,276,000",2.74%
  245,CHINA MINSHENG FINANCIAL HOLDING CORPORATION LIMITED,"32,690,000",0.08%
  256,CITYCHAMP WATCH & JEWELLERY GROUP LIMITED,"299,590,000",6.88%
  257,CHINA EVERBRIGHT INTERNATIONAL LIMITED,"228,942,392",3.72%
  267,CITIC LIMITED,"42,991,916",0.14%
  268,KINGDEE INTERNATIONAL SOFTWARE GROUP COMPANY LIMITED,"328,141,580",9.88%
  270,GUANGDONG INVESTMENT LIMITED,"37,867,299",0.57%
  272,SHUI ON LAND LIMITED,"553,782,846",6.86%
  279,FREEMAN FINTECH CORPORATION LIMITED,"620,290,000",33.20%
  285,BYD ELECTRONIC (INTERNATIONAL) COMPANY LIMITED,"146,964,400",6.51%
  288,WH GROUP LIMITED,"1,125,527,106",7.63%
  291,CHINA RESOURCES BEER (HOLDINGS) COMPANY LIMITED,"165,175,210",5.08%
  293,CATHAY PACIFIC AIRWAYS LTD,"3,647,000",0.09%
  295,KONG SUN HOLDINGS LIMITED,"59,100,000",0.39%
  297,SINOFERT HOLDINGS LIMITED,"367,290,000",5.22%
  303,VTECH HOLDINGS LIMITED,"1,293,120",0.51%
  308,CHINA TRAVEL INTERNATIONAL INVESTMENT HONG KONG LIMITED,"197,294,439",3.55%
  315,SMARTONE TELECOMMUNICATIONS HOLDINGS LIMITED,"1,347,411",0.11%
  316,ORIENT OVERSEAS (INTERNATIONAL) LIMITED,"19,000",0.00%
  317,CSSC OFFSHORE & MARINE ENGINEERING (GROUP) COMPANY LIMITED,"16,206,200",2.72%
  321,TEXWINCA HOLDINGS LIMITED,"1,150,000",0.08%
  322,TINGYI (CAYMAN ISLANDS) HOLDING CORP.,"20,202,708",0.35%
  323,MAANSHAN IRON & STEEL COMPANY LIMITED,"28,660,000",1.65%
  327,PAX GLOBAL TECHNOLOGY LIMITED,"7,819,000",0.71%
  330,ESPRIT HOLDINGS LIMITED,"79,176,400",4.19%
  336,HUABAO INTERNATIONAL HOLDINGS LIMITED,"245,505,100",7.89%
  337,GREENLAND HONG KONG HOLDINGS LIMITED,"124,308,000",4.45%
  338,SINOPEC SHANGHAI PETROCHEMICAL COMPANY LIMITED,"139,098,375",3.97%
  341,CAFE DE CORAL HOLDINGS LTD,"2,114,000",0.35%
  345,VITASOY INTERNATIONAL HOLDINGS LTD,"14,244,000",1.33%
  347,ANGANG STEEL COMPANY LIMITED,"43,464,000",3.07%
  354,CHINASOFT INTERNATIONAL LIMITED,"343,224,507",13.48%
  358,JIANGXI COPPER COMPANY LIMITED,"46,441,219",3.34%
  363,SHANGHAI INDUSTRIAL HOLDINGS LIMITED,"20,540,100",1.88%
  371,BEIJING ENTERPRISES WATER GROUP LIMITED,"260,406,010",2.59%
  378,FDG KINETIC LIMITED,"188,810,000",2.79%
  384,CHINA GAS HOLDINGS LIMITED,"22,624,643",0.43%
  386,CHINA PETROLEUM & CHEMICAL CORPORATION,"664,697,595",2.60%
  388,HONG KONG EXCHANGES AND CLEARING LIMITED,"28,819,785",2.27%
  390,CHINA RAILWAY GROUP LIMITED,"242,465,030",5.76%
  392,BEIJING ENTERPRISES HOLDINGS LIMITED,"82,835,121",6.55%
  400,COGOBUY GROUP,"67,333,000",4.71%
  410,SOHO CHINA LIMITED,"288,771,000",5.54%
  412,CHINA SHANDONG HI-SPEED FINANCIAL GROUP LIMITED,"21,576,000",0.07%
  419,HUAYI TENCENT ENTERTAINMENT COMPANY LIMITED,"191,550,000",1.41%
  425,MINTH GROUP LIMITED,"96,315,626",
  439,KUANGCHI SCIENCE LIMITED,"332,965,000",5.40%
  440,DAH SING FINANCIAL HOLDINGS LTD,"1,118,066",0.33%
  451,GCL NEW ENERGY HOLDINGS LIMITED,"1,003,872,000",5.26%
  460,SIHUAN PHARMACEUTICAL HOLDINGS GROUP LTD.,"456,453,000",4.81%
  467,UNITED ENERGY GROUP LIMITED,"11,308,000",0.04%
  468,GREATVIEW ASEPTIC PACKAGING COMPANY LIMITED,"1,143,000",0.08%
  480,HKR INTERNATIONAL LTD,"261,680",0.01%
  488,LAI SUN DEVELOPMENT COMPANY LIMITED,"30,000",0.00%
  489,DONGFENG MOTOR GROUP COMPANY LIMITED,"171,278,000",5.98%
  493,GOME RETAIL HOLDINGS LIMITED,"2,211,987,000",10.25%
  494,LI & FUNG LIMITED,"116,428,000",1.36%
  496,KASEN INTERNATIONAL HOLDINGS LIMITED,"65,533,000",4.38%
  506,CHINA FOODS LIMITED,"52,766,100",1.87%
  508,DINGYI GROUP INVESTMENT LIMITED,"419,820,000",5.70%
  511,TELEVISION BROADCASTS LIMITED,"708,200",0.15%
  512,CHINA GRAND PHARMACEUTICAL AND HEALTHCARE HOLDINGS LIMITED,"86,555,200",2.56%
  517,"COSCO SHIPPING INTERNATIONAL (HONG KONG) CO., LTD.","730,000",0.04%
  520,"XIABUXIABU CATERING MANAGEMENT (CHINA) HOLDINGS CO., LTD.","25,696,500",
  522,ASM PACIFIC TECHNOLOGY LIMITED,"8,958,247",2.18%
  525,GUANGSHEN RAILWAY COMPANY LIMITED,"287,442,010",20.07%
  530,GOLDIN FINANCIAL HOLDINGS LIMITED,"2,960,000",0.04%
  535,GEMDALE PROPERTIES AND INVESTMENT CORPORATION LIMITED,"1,834,210,000",11.53%
  546,FUFENG GROUP LIMITED,"48,052,000",1.89%
  547,DIGITAL DOMAIN HOLDINGS LIMITED,"1,069,960,000",3.14%
  548,SHENZHEN EXPRESSWAY COMPANY LIMITED,"110,014,000",14.71%
  551,YUE YUEN INDUSTRIAL (HOLDINGS) LIMITED,"1,234,793",0.07%
  552,CHINA COMMUNICATIONS SERVICES CORPORATION LIMITED,"76,406,000",3.19%
  553,NANJING PANDA ELECTRONICS COMPANY LIMITED,"37,356,000",15.42%
  563,SHANGHAI INDUSTRIAL URBAN DEVELOPMENT GROUP LIMITED,"149,310,855",3.10%
  564,ZHENGZHOU COAL MINING MACHINERY GROUP COMPANY LIMITED,"62,681,600",25.76%
  568,SHANDONG MOLONG PETROLEUM MACHINERY COMPANY LIMITED,"52,007,200",20.30%
  570,CHINA TRADITIONAL CHINESE MEDICINE HOLDINGS CO LIMITED,"546,167,486",10.84%
  576,"ZHEJIANG EXPRESSWAY CO., LTD.","71,375,759",4.97%
  579,"BEIJING JINGNENG CLEAN ENERGY CO., LIMITED","182,334,000",6.44%
  581,CHINA ORIENTAL GROUP COMPANY LIMITED,"77,594,987",2.07%
  582,LANDING INTERNATIONAL DEVELOPMENT LIMITED,"108,144,000",3.67%
  586,CHINA CONCH VENTURE HOLDINGS LIMITED,"156,174,453",8.65%
  588,BEIJING NORTH STAR COMPANY LIMITED,"180,544,000",25.53%
  590,LUK FOOK HOLDINGS (INTERNATIONAL) LIMITED,"1,479,000",0.24%
  598,SINOTRANS LIMITED,"153,169,000",7.13%
  604,SHENZHEN INVESTMENT LIMITED,"100,686,392",1.13%
  606,CHINA AGRI-INDUSTRIES HOLDINGS LIMITED,"24,173,000",0.45%
  607,FULLSHARE HOLDINGS LIMITED,"5,672,872,500",28.78%
  612,CHINA DING YI FENG HOLDINGS LIMITED,"2,928,000",0.23%
  631,SANY HEAVY EQUIPMENT INTERNATIONAL HOLDINGS COMPANY LIMITED,"123,328,000",3.97%
  636,KERRY LOGISTICS NETWORK LIMITED,"790,500",0.03%
  639,SHOUGANG FUSHAN RESOURCES GROUP LIMITED,"134,426,000",2.53%
  656,FOSUN INTERNATIONAL LIMITED,"658,836,934",7.71%
  658,"CHINA HIGH SPEED TRANSMISSION EQUIPMENT GROUP CO., LTD.","213,382,000",13.04%
  659,NWS HOLDINGS LIMITED,"2,044,719",0.04%
  665,HAITONG INTERNATIONAL SECURITIES GROUP LIMITED,"327,230,355",5.50%
  667,CHINA EAST EDUCATION HOLDINGS LIMITED,"55,224,000",2.51%
  669,TECHTRONIC INDUSTRIES CO. LTD.,"7,488,470",0.40%
  670,CHINA EASTERN AIRLINES CORPORATION LIMITED,"491,290,231",9.48%
  680,NAN HAI CORPORATION LIMITED,"824,950,000",1.19%
  683,KERRY PROPERTIES LIMITED,"3,922,124",0.26%
  686,PANDA GREEN ENERGY GROUP LIMITED,"379,244,000",2.48%
  687,TYSAN HOLDINGS LIMITED,"3,262,000",0.09%
  688,CHINA OVERSEAS LAND & INVESTMENT LIMITED,"40,756,639",0.36%
  691,CHINA SHANSHUI CEMENT GROUP LIMITED,"5,190,000",0.10%
  694,BEIJING CAPITAL INTERNATIONAL AIRPORT COMPANY LIMITED,"273,884,845",14.56%
  696,TRAVELSKY TECHNOLOGY LIMITED,"33,363,000",3.57%
  698,TONGDA GROUP HOLDINGS LIMITED,"429,530,000",6.62%
  699,CAR INC.,"175,825,001",8.28%
  700,TENCENT HOLDINGS LIMITED,"187,806,631",1.96%
  709,GIORDANO INTERNATIONAL LIMITED,"2,200,000",0.13%
  715,CHINA OCEANWIDE HOLDINGS LIMITED,"488,000",0.00%
  718,TAI UNITED HOLDINGS LIMITED,"20,150,000",0.38%
  719,SHANDONG XINHUA PHARMACEUTICAL COMPANY LIMITED,"77,940,000",39.96%
  721,CHINA FINANCIAL INTERNATIONAL INVESTMENTS LIMITED,"309,330,000",2.81%
  728,CHINA TELECOM CORPORATION LIMITED,"321,883,238",2.31%
  729,FDG ELECTRIC VEHICLES LIMITED,"87,290,750",4.47%
  732,TRULY INTERNATIONAL HOLDINGS LIMITED,"329,288,000",10.00%
  737,SZ INVESTMENT HLDGS BAY AREA DEV CO LTD -HKD TRADED SHARES,"1,920,500",0.05%
  743,ASIA CEMENT (CHINA) HOLDINGS CORPORATION,"4,132,000",0.26%
  751,SKYWORTH GROUP LIMITED,"108,086,459",3.52%
  753,AIR CHINA LIMITED,"436,611,149",9.56%
  754,HOPSON DEVELOPMENT HOLDINGS LIMITED,"79,774,000",3.57%
  762,CHINA UNICOM (HONG KONG) LIMITED,"100,692,000",0.32%
  763,ZTE CORPORATION,"233,348,207",30.88%
  772,CHINA LITERATURE LIMITED,"33,349,800",3.28%
  775,"CK LIFE SCIENCES INT'L., (HOLDINGS) INC.","27,406,000",0.28%
  777,NETDRAGON WEBSOFT HOLDINGS LIMITED,"19,160,500",3.60%
  780,TONGCHENG-ELONG HOLDINGS LIMITED,"10,598,000",0.49%
  787,GLOBAL BRANDS GROUP HOLDING LIMITED,"68,499,275",6.65%
  788,CHINA TOWER CORPORATION LIMITED,"1,503,095,357",3.21%
  799,IGG INC,"137,985,298",11.05%
  806,VALUE PARTNERS GROUP LIMITED,"50,828,405",2.73%
  811,"XINHUA WINSHARE PUBLISHING AND MEDIA CO., LTD.","53,310,000",12.05%
  813,SHIMAO PROPERTY HOLDINGS LIMITED,"65,725,265",1.98%
  816,HUADIAN FUXIN ENERGY CORPORATION LIMITED,"15,696,000",0.61%
  817,CHINA JINMAO HOLDINGS GROUP LIMITED,"776,416,052",6.59%
  819,TIANNENG POWER INTERNATIONAL LIMITED,"103,306,000",9.16%
  829,SHENGUAN HOLDINGS (GROUP) LIMITED,"146,384,000",4.53%
  832,CENTRAL CHINA REAL ESTATE LIMITED,"66,384,000",2.42%
  836,CHINA RESOURCES POWER HOLDINGS COMPANY LIMITED,"155,456,276",3.22%
  839,CHINA EDUCATION GROUP HOLDINGS LIMITED,"105,647,593",5.22%
  845,GLORIOUS PROPERTY HOLDINGS LIMITED,"23,377,000",0.29%
  846,MINGFA GROUP (INTERNATIONAL) COMPANY LIMITED,"5,261,000",0.08%
  853,MICROPORT SCIENTIFIC CORPORATION,"96,780,222",5.96%
  855,CHINA WATER AFFAIRS GROUP LIMITED,"193,914,334",12.08%
  856,VSTECS HOLDINGS LIMITED,"2,774,000",0.19%
  857,PETROCHINA COMPANY LIMITED,"1,168,511,455",5.53%
  860,WE SOLUTIONS LIMITED,"35,884,000",0.50%
  861,DIGITAL CHINA HOLDINGS LIMITED,"758,376,900",45.37%
  867,CHINA MEDICAL SYSTEM HOLDINGS LIMITED,"22,204,618",0.89%
  868,XINYI GLASS HOLDINGS LIMITED,"175,098,765",4.35%
  874,"GUANGZHOU BAIYUNSHAN PHARMACEUTICAL HOLDINGS CO., LTD.","71,500,000",32.51%
  880,SJM HOLDINGS LIMITED,"186,169,700",3.28%
  881,ZHONGSHENG GROUP HOLDINGS LIMITED,"41,310,813",1.81%
  883,CNOOC LIMITED,"136,915,345",0.30%
  884,CIFI HOLDINGS (GROUP) CO. LTD.,"446,547,271",5.65%
  885,RENTIAN TECHNOLOGY HOLDINGS LIMITED,"1,110,000",0.01%
  895,DONGJIANG ENVIRONMENTAL COMPANY LIMITED,"55,329,000",27.64%
  902,"HUANENG POWER INTERNATIONAL, INC.","1,925,900,624",40.96%
  906,CPMC HOLDINGS LIMITED,"43,251,000",3.72%
  911,QIANHAI HEALTH HOLDINGS LIMITED,"97,104,750",5.72%
  914,ANHUI CONCH CEMENT COMPANY LIMITED,"19,790,289",1.52%
  916,CHINA LONGYUAN POWER GROUP CORPORATION LIMITED,"226,462,000",6.77%
  921,"HISENSE HOME APPLIANCES GROUP CO., LTD.","55,980,300",12.18%
  931,CHINA LNG GROUP LIMITED,"176,421,000",3.11%
  933,BRIGHTOIL PETROLEUM (HOLDINGS) LIMITED,"25,254,000",0.24%
  934,SINOPEC KANTONS HOLDINGS LIMITED,"88,028,000",3.53%
  939,CHINA CONSTRUCTION BANK CORPORATION,"15,782,511,544",6.55%
  941,CHINA MOBILE LIMITED,"63,488,690",0.30%
  950,LEE'S PHARMACEUTICAL HOLDINGS LIMITED,"5,352,500",0.91%
  951,CHAOWEI POWER HOLDINGS LIMITED,"109,814,000",9.94%
  958,HUANENG RENEWABLES CORPORATION LIMITED,"214,224,606",4.24%
  960,LONGFOR GROUP HOLDINGS LIMITED,"150,173,993",2.50%
  966,CHINA TAIPING INSURANCE HOLDINGS COMPANY LIMITED,"418,466,967",11.64%
  967,SOUND GLOBAL LTD.,"289,000",0.01%
  968,XINYI SOLAR HOLDINGS LIMITED,"1,031,514,027",12.75%
  976,CHIHO ENVIRONMENTAL GROUP LIMITED,"237,984,000",14.82%
  978,CHINA MERCHANTS LAND LIMITED,"50,526,000",1.03%
  981,SEMICONDUCTOR MANUFACTURING INTERNATIONAL CORPORATION,"1,090,916,000",21.56%
  989,GROUND INTERNATIONAL DEVELOPMENT LIMITED,"192,660,000",3.65%
  991,"DATANG INTERNATIONAL POWER GENERATION CO.,LTD.","175,466,000",2.86%
  992,LENOVO GROUP LIMITED,"26,966,476",0.21%
  995,ANHUI EXPRESSWAY COMPANY LIMITED,"76,540,000",15.52%
  996,CARNIVAL GROUP INTERNATIONAL HOLDINGS LIMITED,"6,226,402,500",26.26%
  998,CHINA CITIC BANK CORPORATION LIMITED,"1,981,885,152",13.30%
 1028,C.BANNER INTERNATIONAL HOLDINGS LIMITED,"151,227,000",7.28%
 1030,SEAZEN GROUP LIMITED,"284,772,500",4.81%
 1031,KINGSTON FINANCIAL GROUP LIMITED,"750,000",0.00%
 1033,SINOPEC OILFIELD SERVICE CORPORATION,"326,078,000",6.01%
 1038,CK INFRASTRUCTURE HOLDINGS LIMITED,"11,249,000",0.41%
 1044,HENGAN INTERNATIONAL GROUP COMPANY LIMITED,"8,782,500",0.72%
 1052,YUEXIU TRANSPORT INFRASTRUCTURE LIMITED,"18,692,000",1.11%
 1053,CHONGQING IRON & STEEL COMPANY LIMITED,"89,088,000",16.55%
 1055,CHINA SOUTHERN AIRLINES COMPANY LIMITED,"439,461,137",11.98%
 1057,ZHEJIANG SHIBAO COMPANY LIMITED,"38,351,000",17.69%
 1060,ALIBABA PICTURES GROUP LIMITED,"2,675,468,620",10.04%
 1065,TIANJIN CAPITAL ENVIRONMENTAL PROTECTION GROUP COMPANY LIMITED,"86,120,100",25.32%
 1066,SHANDONG WEIGAO GROUP MEDICAL POLYMER COMPANY LIMITED,"116,191,944",2.56%
 1068,CHINA YURUN FOOD GROUP LIMITED,"18,633,000",1.02%
 1070,TCL ELECTRONICS HOLDINGS LIMITED,"42,146,666",1.78%
 1071,HUADIAN POWER INTERNATIONAL CORPORATION LIMITED,"482,841,886",28.11%
 1072,DONGFANG ELECTRIC CORPORATION LIMITED,"97,035,446",28.53%
 1076,IMPERIAL PACIFIC INTERNATIONAL HOLDINGS LIMITED,"409,600,000",0.28%
 1083,TOWNGAS CHINA COMPANY LIMITED,"3,141,007",0.10%
 1086,GOODBABY INTERNATIONAL HOLDINGS LIMITED,"32,237,000",1.93%
 1088,CHINA SHENHUA ENERGY COMPANY LIMITED,"710,621,520",20.90%
 1089,LEYOU TECHNOLOGIES HOLDINGS LIMITED,"78,105,000",2.53%
 1093,CSPC PHARMACEUTICAL GROUP LIMITED,"272,206,164",4.35%
 1097,I-CABLE COMMUNICATIONS LIMITED,"103,425",0.00%
 1098,ROAD KING INFRASTRUCTURE LIMITED,"9,191,000",1.22%
 1099,SINOPHARM GROUP CO. LTD.,"23,744,176",1.98%
 1108,LUOYANG GLASS COMPANY LIMITED,"83,576,000",33.42%
 1109,CHINA RESOURCES LAND LIMITED,"108,431,796",1.51%
 1111,CHONG HING BANK LIMITED,"1,070,500",0.11%
 1112,HEALTH AND HAPPINESS (H&H) INTERNATIONAL HOLDINGS LIMITED,"59,454,500",9.23%
 1113,CK ASSET HOLDINGS LIMITED,"8,807,963",0.22%
 1114,BRILLIANCE CHINA AUTOMOTIVE HOLDINGS LIMITED,"161,339,080",3.19%
 1115,TIBET WATER RESOURCES LTD.,"161,127,000",6.27%
 1117,CHINA MODERN DAIRY HOLDINGS LTD.,"122,545,000",1.90%
 1119,IDREAMSKY TECHNOLOGY HOLDINGS LIMITED,"19,727,200",1.55%
 1128,"WYNN MACAU, LIMITED","24,536,559",0.47%
 1131,AGRITRADE RESOURCES LIMITED,"15,855,000",0.24%
 1138,"COSCO SHIPPING ENERGY TRANSPORTATION CO., LTD.","176,946,000",13.64%
 1140,OP FINANCIAL LIMITED,"107,188,000",3.69%
 1141,CMBC CAPITAL HOLDINGS LIMITED,"570,960,000",1.18%
 1157,"ZOOMLION HEAVY INDUSTRY SCIENCE AND TECHNOLOGY CO., LTD.","69,510,011",5.00%
 1165,SHUNFENG INTERNATIONAL CLEAN ENERGY LIMITED,"339,014,000",6.80%
 1169,"HAIER ELECTRONICS GROUP CO., LTD.","71,281,929",2.53%
 1171,YANZHOU COAL MINING COMPANY LIMITED,"258,681,000",13.24%
 1176,ZHUGUANG HOLDINGS GROUP COMPANY LIMITED,"144,024,000",2.00%
 1177,SINO BIOPHARMACEUTICAL LIMITED,"958,364,409",7.60%
 1186,CHINA RAILWAY CONSTRUCTION CORPORATION LIMITED,"70,957,657",3.41%
 1188,HYBRID KINETIC GROUP LIMITED,"120,084,000",0.59%
 1193,CHINA RESOURCES GAS GROUP LIMITED,"15,204,000",0.67%
 1196,REALORD GROUP HOLDINGS LIMITED,"105,916,000",7.36%
 1199,COSCO SHIPPING PORTS LIMITED,"5,558,965",0.17%
 1205,CITIC RESOURCES HOLDINGS LIMITED,"190,798,100",2.42%
 1208,MMG LIMITED,"197,042,000",2.44%
 1211,BYD COMPANY LIMITED,"36,067,809",3.94%
 1212,LIFESTYLE INTERNATIONAL HOLDINGS LIMITED,"2,680,312",0.17%
 1230,YASHILI INTERNATIONAL HOLDINGS LTD,"80,101,000",1.68%
 1233,TIMES CHINA HOLDINGS LIMITED,"131,897,757",6.79%
 1234,CHINA LILANG LIMITED,"37,364,000",3.12%
 1238,POWERLONG REAL ESTATE HOLDINGS LIMITED,"84,630,000",2.04%
 1250,BEIJING ENTERPRISES CLEAN ENERGY GROUP LIMITED,"1,916,520,000",3.01%
 1253,CHINA GREENLAND BROAD GREENSTATE GROUP COMPANY LIMITED,"6,840,000",0.20%
 1257,CHINA EVERBRIGHT GREENTECH LIMITED,"44,467,000",2.15%
 1269,CHINA FIRST CAPITAL GROUP LIMITED,"1,002,166,000",19.93%
 1282,GLORY SUN FINANCIAL GROUP LIMITED,"2,042,760,000",6.84%
 1288,AGRICULTURAL BANK OF CHINA LIMITED,"5,295,588,249",17.21%
 1293,GRAND BAOXIN AUTO GROUP LIMITED,"140,061,695",4.93%
 1299,AIA GROUP LIMITED,"100,003,087",0.81%
 1302,LIFETECH SCIENTIFIC CORPORATION,"628,146,000",14.54%
 1308,SITC INTERNATIONAL HOLDINGS COMPANY LIMITED,"49,958,000",1.86%
 1310,HKBN LTD.,"2,420,000",0.18%
 1313,CHINA RESOURCES CEMENT HOLDINGS LIMITED,"70,609,915",1.00%
 1315,VISION FAME INTERNATIONAL HOLDING LIMITED,"733,014,000",12.21%
 1316,NEXTEER AUTOMOTIVE GROUP LIMITED,"14,025,000",0.55%
 1317,CHINA MAPLE LEAF EDUCATIONAL SYSTEMS LIMITED,"292,430,000",9.76%
 1330,"DYNAGREEN ENVIRONMENTAL PROTECTION GROUP CO., LTD","98,946,000",24.46%
 1333,CHINA ZHONGWANG HOLDINGS LIMITED,"252,356,800",4.63%
 1336,NEW CHINA LIFE INSURANCE COMPANY LTD.,"337,500,951",32.63%
 1339,"PEOPLE'S INSURANCE COMPANY (GROUP) OF CHINA LIMITED, THE","1,171,986,987",13.42%
 1347,HUA HONG SEMICONDUCTOR LIMITED,"41,800,984",3.24%
 1357,"MEITU, INC.","297,107,100",6.89%
 1359,"CHINA CINDA ASSET MANAGEMENT CO., LTD.","1,807,334,457",13.31%
 1361,361 DEGREES INTERNATIONAL LIMITED,"34,753,000",1.68%
 1363,CT ENVIRONMENTAL GROUP LIMITED,"502,874,000",7.95%
 1368,XTEP INTERNATIONAL HOLDINGS LIMITED,"33,863,396",1.34%
 1375,"CENTRAL CHINA SECURITIES CO., LTD.","192,974,000",16.13%
 1378,CHINA HONGQIAO GROUP LIMITED,"485,363,910",5.65%
 1381,CANVEST ENVIRONMENTAL PROTECTION GROUP COMPANY LIMITED,"27,618,000",1.13%
 1382,PACIFIC TEXTILES HOLDINGS LIMITED,"13,626,000",0.93%
 1383,SUNCITY GROUP HOLDINGS LIMITED,"14,170,000",0.21%
 1387,CHINA DILI GROUP,"162,352,530",2.83%
 1398,INDUSTRIAL AND COMMERCIAL BANK OF CHINA LIMITED,"20,209,270,562",23.28%
 1432,CHINA SHENGMU ORGANIC MILK LIMITED,"169,937,000",2.66%
 1448,FU SHOU YUAN INTERNATIONAL GROUP LIMITED,"199,905,000",
 1458,ZHOU HEI YA INTERNATIONAL HOLDINGS COMPANY LIMITED,"276,120,500",11.58%
 1478,Q TECHNOLOGY (GROUP) COMPANY LIMITED,"46,151,000",3.98%
 1508,CHINA REINSURANCE (GROUP) CORPORATION,"423,669,000",6.33%
 1513,LIVZON PHARMACEUTICAL GROUP INC.,"37,771,153",11.80%
 1515,CHINA RESOURCES MEDICAL HOLDINGS COMPANY LIMITED,"42,071,600",3.24%
 1521,FRONTAGE HOLDINGS CORPORATION,"70,483,368",3.51%
 1528,RED STAR MACALLINE GROUP CORPORATION LTD.,"101,813,037",15.10%
 1530,3SBIO INC.,"87,837,000",3.45%
 1533,"LANZHOU ZHUANGYUAN PASTURE CO., LTD.","4,429,500",12.60%
 1548,GENSCRIPT BIOTECH CORPORATION,"193,056,000",10.26%
 1551,"GUANGZHOU RURAL COMMERCIAL BANK CO., LTD","2,415,000",0.13%
 1558,"YICHANG HEC CHANGJIANG PHARMACEUTICAL CO., LTD.","63,562,200",28.55%
 1569,MINSHENG EDUCATION GROUP COMPANY LIMITED,"94,842,000",2.36%
 1573,SOUTHERN ENERGY HOLDINGS GROUP LIMITED,"91,628,000",12.76%
 1578,"BANK OF TIANJIN CO., LTD.","39,000",0.00%
 1579,YIHAI INTERNATIONAL HOLDING LTD.,"37,437,714",3.57%
 1583,QINQIN FOODSTUFFS GROUP (CAYMAN) COMPANY LIMITED,"25,700",0.00%
 1585,YADEA GROUP HOLDINGS LTD.,"245,272,000",8.18%
 1589,"CHINA LOGISTICS PROPERTY HOLDINGS CO., LTD","118,000",0.00%
 1600,CHINA TIAN LUN GAS HOLDINGS LIMITED,"9,959,500",0.99%
 1606,"CHINA DEVELOPMENT BANK FINANCIAL LEASING CO., LTD.","546,000",0.01%
 1608,VPOWER GROUP INTERNATIONAL HOLDINGS LIMITED,"1,470,000",0.05%
 1610,COFCO MEAT HOLDINGS LIMITED,"203,550,000",5.21%
 1618,METALLURGICAL CORPORATION OF CHINA LTD.,"254,856,000",8.87%
 1619,TIANHE CHEMICALS GROUP LIMITED,"193,880,000",0.78%
 1622,REDCO PROPERTIES GROUP LIMITED,"75,558,000",2.12%
 1628,YUZHOU PROPERTIES COMPANY LIMITED,"68,001,795",1.29%
 1635,"SHANGHAI DAZHONG PUBLIC UTILITIES (GROUP) CO., LTD.","69,783,000",13.06%
 1636,CHINA METAL RESOURCES UTILIZATION LIMITED,"41,260,000",1.56%
 1638,KAISA GROUP HOLDINGS LTD.,"329,849,611",5.41%
 1658,"POSTAL SAVINGS BANK OF CHINA CO., LTD.","349,359,000",1.75%
 1661,WISDOM SPORTS GROUP,"6,468,000",0.40%
 1666,TONG REN TANG TECHNOLOGIES CO LTD,"142,486,200",22.66%
 1668,CHINA SOUTH CITY HOLDINGS LIMITED,"775,758,396",9.56%
 1680,MACAU LEGEND DEVELOPMENT LIMITED,"136,482,000",2.19%
 1681,CONSUN PHARMACEUTICAL GROUP LIMITED,"28,404,000",3.28%
 1685,BOER POWER HOLDINGS LIMITED,"2,275,000",0.29%
 1686,SUNEVISION HOLDINGS LIMITED,"338,000",0.01%
 1717,AUSNUTRIA DAIRY CORPORATION LTD,"39,169,000",2.42%
 1728,CHINA ZHENGTONG AUTO SERVICES HOLDINGS LIMITED,"157,884,000",6.43%
 1761,BABYTREE GROUP,"8,511,500",0.51%
 1765,"HOPE EDUCATION GROUP CO., LTD.","357,502,000",5.36%
 1766,CRRC CORPORATION LIMITED,"222,608,520",5.08%
 1772,"GANFENG LITHIUM CO., LTD.","60,546,000",30.24%
 1776,"GF SECURITIES CO., LTD.","379,968,800",22.32%
 1777,"FANTASIA HOLDINGS GROUP CO., LIMITED","331,649,500",5.75%
 1778,"COLOUR LIFE SERVICES GROUP CO., LIMITED","84,432,000",5.93%
 1787,"SHANDONG GOLD MINING CO., LTD.","100,876,060",20.18%
 1788,GUOTAI JUNAN INTERNATIONAL HOLDINGS LIMITED,"198,070,000",2.55%
 1797,KOOLEARN TECHNOLOGY HOLDING LIMITED,"118,173,237",12.59%
 1800,CHINA COMMUNICATIONS CONSTRUCTION COMPANY LIMITED,"295,729,000",6.67%
 1806,HUIFU PAYMENT LIMITED,"27,598,000",2.20%
 1810,XIAOMI CORPORATION,"795,998,600",3.29%
 1811,"CGN NEW ENERGY HOLDINGS CO., LTD.","142,502,000",3.32%
 1812,SHANDONG CHENMING PAPER HOLDINGS LIMITED,"88,137,950",16.68%
 1813,KWG GROUP HOLDINGS LIMITED,"171,290,921",5.38%
 1816,"CGN POWER CO., LTD","2,018,105,000",18.07%
 1818,ZHAOJIN MINING INDUSTRY COMPANY LIMITED,"94,167,872",8.97%
 1829,CHINA MACHINERY ENGINEERING CORPORATION,"143,000",0.01%
 1833,PING AN HEALTHCARE AND TECHNOLOGY COMPANY LIMITED,"41,016,300",3.84%
 1848,CHINA AIRCRAFT LEASING GROUP HOLDINGS LIMITED,"7,810,000",1.15%
 1860,MOBVISTA INC.,"2,625,000",0.17%
 1876,BUDWEISER BREWING COMPANY APAC LIMITED,"10,514,700",0.07%
 1882,HAITIAN INTERNATIONAL HOLDINGS LIMITED,"22,643,000",1.41%
 1883,CITIC TELECOM INTERNATIONAL HOLDINGS LIMITED,"18,796,000",0.51%
 1886,CHINA HUIYUAN JUICE GROUP LIMITED,"125,355,500",4.69%
 1888,KINGBOARD LAMINATES HOLDINGS LIMITED,"36,967,095",1.19%
 1890,CHINA KEPEI EDUCATION GROUP LIMITED,"23,258,000",1.16%
 1896,MAOYAN ENTERTAINMENT,"20,316,400",1.79%
 1898,CHINA COAL ENERGY COMPANY LIMITED,"235,710,000",5.72%
 1905,"HAITONG UNITRUST INTERNATIONAL LEASING CO., LTD.","1,072,000",0.01%
 1907,CHINA RISUN GROUP LIMITED,"4,407,000",0.10%
 1908,C&D INTERNATIONAL INVESTMENT GROUP LIMITED,"40,566,000",4.45%
 1911,CHINA RENAISSANCE HOLDINGS LIMITED,"4,768,000",0.88%
 1916,"JIANGXI BANK CO., LTD.","11,425,500",0.84%
 1918,SUNAC CHINA HOLDINGS LIMITED,"846,766,056",19.01%
 1919,"COSCO SHIPPING HOLDINGS CO., LTD.","295,863,500",11.46%
 1928,SANDS CHINA LTD.,"39,466,693",0.47%
 1929,CHOW TAI FOOK JEWELLERY GROUP LIMITED,"46,232,600",0.45%
 1951,JINXIN FERTILITY GROUP LIMITED,"84,311,000",3.46%
 1958,BAIC MOTOR CORPORATION LIMITED,"144,732,500",5.73%
 1963,"BANK OF CHONGQING CO., LTD.","104,938,500",6.64%
 1966,CHINA SCE GROUP HOLDINGS LIMITED,"123,436,054",2.95%
 1970,"IMAX CHINA HOLDING, INC.","2,255,705",0.63%
 1972,SWIRE PROPERTIES LIMITED,"2,803,400",0.04%
 1980,TIAN GE INTERACTIVE HOLDINGS LIMITED,"29,333,000",2.32%
 1988,"CHINA MINSHENG BANKING CORP., LTD.","884,853,453",10.62%
 1992,FOSUN TOURISM GROUP,"1,417,400",0.11%
 1996,REDSUN PROPERTIES GROUP LIMITED,"6,398,000",0.19%
 1997,WHARF REAL ESTATE INVESTMENT COMPANY LIMITED,"2,685,956",0.08%
 1999,MAN WAH HOLDINGS LIMITED,"564,264,971",14.77%
 2001,CHINA NEW HIGHER EDUCATION GROUP LIMITED,"175,722,000",11.40%
 2003,VCREDIT HOLDINGS LIMITED,"3,838,200",0.76%
 2005,SSY GROUP LIMITED,"240,566,059",7.92%
 2007,COUNTRY GARDEN HOLDINGS COMPANY LIMITED,"212,927,480",0.96%
 2008,PHOENIX MEDIA INVESTMENT (HOLDINGS) LIMITED,"214,896,000",4.30%
 2009,BBMG CORPORATION,"204,043,500",8.72%
 2013,WEIMOB INC.,"60,783,000",2.69%
 2016,"CHINA ZHESHANG BANK CO., LTD.","2,277,000",0.04%
 2018,AAC TECHNOLOGIES HOLDINGS INC.,"80,315,002",6.63%
 2019,DEXIN CHINA HOLDINGS COMPANY LIMITED,"8,366,000",0.30%
 2020,ANTA SPORTS PRODUCTS LIMITED,"115,786,374",4.28%
 2038,FIH MOBILE LIMITED,"108,537,000",1.32%
 2039,"CHINA INTERNATIONAL MARINE CONTAINERS (GROUP) CO., LTD.","142,109,380",6.89%
 2051,51 CREDIT CARD INC.,"54,951,000",4.61%
 2066,"SHENGJING BANK CO., LTD.","361,000",0.01%
 2068,CHINA ALUMINUM INTERNATIONAL ENGINEERING CORPORATION LIMITED,"1,289,000",0.32%
 2098,ZALL SMART COMMERCE GROUP LTD.,"48,175,000",0.40%
 2099,CHINA GOLD INTERNATIONAL RESOURCES CORP. LTD.,"18,895,400",4.76%
 2111,BEST PACIFIC INTERNATIONAL HOLDINGS LIMITED,"1,812,000",0.17%
 2128,CHINA LESSO GROUP HOLDINGS LIMITED,"27,053,000",0.87%
 2136,LIFESTYLE CHINA GROUP LIMITED,"284,000",0.01%
 2186,LUYE PHARMA GROUP LTD.,"580,979,000",17.77%
 2196,"SHANGHAI FOSUN PHARMACEUTICAL (GROUP) CO., LTD.","165,517,668",29.97%
 2199,REGINA MIRACLE INTERNATIONAL (HOLDINGS) LIMITED,"3,013,000",0.24%
 2202,"CHINA VANKE CO., LTD.","141,020,190",8.93%
 2208,"XINJIANG GOLDWIND SCIENCE & TECHNOLOGY CO., LTD.","124,440,828",16.08%
 2232,CRYSTAL INTERNATIONAL GROUP LIMITED,"4,394,500",0.15%
 2233,WEST CHINA CEMENT LIMITED,"182,206,000",3.35%
 2238,"GUANGZHOU AUTOMOBILE GROUP CO., LTD.","1,192,212,270",38.47%
 2255,HAICHANG OCEAN PARK HOLDINGS LTD.,"45,297,000",1.13%
 2269,WUXI BIOLOGICS (CAYMAN) INC.,"78,436,314",6.05%
 2280,HC GROUP INC.,"126,139,000",11.25%
 2282,MGM CHINA HOLDINGS LIMITED,"26,929,496",0.70%
 2298,COSMO LADY (CHINA) HOLDINGS COMPANY LIMITED,"12,221,000",0.53%
 2313,SHENZHOU INTERNATIONAL GROUP HOLDINGS LIMITED,"46,633,381",3.09%
 2314,LEE & MAN PAPER MANUFACTURING LIMITED,"46,481,825",1.06%
 2318,"PING AN INSURANCE (GROUP) COMPANY OF CHINA, LTD.","146,628,424",1.96%
 2319,CHINA MENGNIU DAIRY COMPANY LIMITED,"75,658,706",1.91%
 2326,NEW PROVENANCE EVERLASTING HOLDINGS LIMITED,"56,940,000",0.26%
 2328,PICC PROPERTY AND CASUALTY COMPANY LIMITED,"549,919,641",7.96%
 2329,GUORUI PROPERTIES LIMITED,"153,647,000",3.44%
 2331,LI NING COMPANY LIMITED,"135,406,727",5.51%
 2333,GREAT WALL MOTOR COMPANY LIMITED,"901,915,286",29.09%
 2338,"WEICHAI POWER CO., LTD.","89,287,600",4.59%
 2343,PACIFIC BASIN SHIPPING LIMITED,"2,201,000",0.04%
 2356,DAH SING BANKING GROUP LIMITED,"216,800",0.01%
 2357,AVICHINA INDUSTRY & TECHNOLOGY COMPANY LIMITED,"387,410,000",6.19%
 2359,"WUXI APPTEC CO., LTD.","6,863,280",4.02%
 2362,JINCHUAN GROUP INTERNATIONAL RESOURCES CO. LTD.,"94,824,000",0.75%
 2363,TONGDA HONG TAI HOLDINGS LIMITED,"402,962",0.20%
 2369,COOLPAD GROUP LIMITED,"49,408,000",0.84%
 2380,CHINA POWER INTERNATIONAL DEVELOPMENT LIMITED,"831,121,102",8.46%
 2382,SUNNY OPTICAL TECHNOLOGY (GROUP) COMPANY LIMITED,"88,402,180",8.05%
 2386,"SINOPEC ENGINEERING (GROUP) CO., LTD.","10,835,500",0.73%
 2388,BOC HONG KONG (HOLDINGS) LIMITED,"42,849,225",0.40%
 2588,BOC AVIATION LIMITED,"8,204,500",1.18%
 2600,ALUMINUM CORPORATION OF CHINA LIMITED,"285,118,000",7.22%
 2601,CHINA PACIFIC INSURANCE (GROUP) CO. LTD.,"609,283,868",21.94%
 2607,"SHANGHAI PHARMACEUTICALS HOLDING CO., LTD.","116,119,652",12.63%
 2611,"GUOTAI JUNAN SECURITIES CO., LTD.","34,912,600",2.50%
 2628,CHINA LIFE INSURANCE COMPANY LIMITED,"222,455,593",2.98%
 2662,CAMSING INTERNATIONAL HOLDING LIMITED,"132,096,000",12.26%
 2666,GENERTEC UNIVERSAL MEDICAL GROUP COMPANY LIMITED,"293,591,500",17.10%
 2669,CHINA OVERSEAS PROPERTY HOLDINGS LIMITED,"217,403,699",6.61%
 2678,TEXHONG TEXTILE GROUP LIMITED,"27,337,500",2.98%
 2688,ENN ENERGY HOLDINGS LIMITED,"8,732,990",0.76%
 2689,NINE DRAGONS PAPER (HOLDINGS) LIMITED,"76,530,922",1.62%
 2727,SHANGHAI ELECTRIC GROUP COMPANY LIMITED,"706,213,000",23.74%
 2768,JIAYUAN INTERNATIONAL GROUP LIMITED,"298,582,596",7.56%
 2772,ZHONGLIANG HOLDINGS GROUP COMPANY LIMITED,"4,799,500",0.12%
 2777,"GUANGZHOU R&F PROPERTIES CO., LTD.","70,095,623",5.43%
 2799,"CHINA HUARONG ASSET MANAGEMENT CO., LTD.","1,617,000,000",6.45%
 2858,YIXIN GROUP LIMITED,"52,220,000",0.81%
 2866,"COSCO SHIPPING DEVELOPMENT CO., LTD.","609,013,000",16.56%
 2869,GREENTOWN SERVICE GROUP CO. LTD.,"172,641,899",6.18%
 2877,CHINA SHINEWAY PHARMACEUTICAL GROUP LIMITED,"10,957,000",1.31%
 2880,DALIAN PORT (PDA) COMPANY LIMITED,"896,473,200",17.37%
 2883,CHINA OILFIELD SERVICES LIMITED,"158,161,627",8.73%
 2888,STANDARD CHARTERED PLC,"442,320",0.01%
 2899,"ZIJIN MINING GROUP CO., LTD.","1,381,408,000",24.06%
 3301,RONSHINE CHINA HOLDINGS LIMITED,"146,872,000",8.55%
 3306,JNBY DESIGN LIMITED,"9,726,000",1.87%
 3308,GOLDEN EAGLE RETAIL GROUP LIMITED,"115,203,000",6.85%
 3309,C-MER EYE CARE HOLDINGS LIMITED,"14,104,000",1.34%
 3311,CHINA STATE CONSTRUCTION INTERNATIONAL HOLDINGS LIMITED,"10,446,740",0.20%
 3320,CHINA RESOURCES PHARMACEUTICAL GROUP LIMITED,"85,308,000",1.35%
 3323,CHINA NATIONAL BUILDING MATERIAL COMPANY LIMITED,"621,221,600",16.05%
 3328,"BANK OF COMMUNICATIONS CO., LTD.","500,430,391",1.42%
 3329,BOCOM INTERNATIONAL HOLDINGS COMPANY LIMITED,"20,071,000",0.73%
 3331,VINDA INTERNATIONAL HOLDINGS LIMITED,"499,000",0.03%
 3333,CHINA EVERGRANDE GROUP,"196,608,455",1.48%
 3339,LONKING HOLDINGS LIMITED,"19,107,000",0.44%
 3360,FAR EAST HORIZON LIMITED,"92,987,000",2.34%
 3368,PARKSON RETAIL GROUP LIMITED,"5,731,500",0.21%
 3369,"QINHUANGDAO PORT CO., LTD.","65,360,500",7.86%
 3377,SINO-OCEAN GROUP HOLDING LIMITED,"139,259,310",1.82%
 3380,LOGAN PROPERTY HOLDINGS COMPANY LIMITED,"135,264,871",2.44%
 3382,TIANJIN PORT DEVELOPMENT HOLDINGS LIMITED,"196,120,000",3.18%
 3383,AGILE GROUP HOLDINGS LIMITED,"26,698,548",0.67%
 3389,HENGDELI HOLDINGS LIMITED,"920,000",0.01%
 3393,WASION HOLDINGS LIMITED,"1,326,000",0.13%
 3396,LEGEND HOLDINGS CORPORATION,"67,478,700",5.29%
 3606,"FUYAO GLASS INDUSTRY GROUP CO., LTD","29,942,000",5.91%
 3613,BEIJING TONG REN TANG CHINESE MEDICINE COMPANY LIMITED,"63,091,000",7.53%
 3618,"CHONGQING RURAL COMMERCIAL BANK CO., LTD.","458,750,127",18.24%
 3633,ZHONGYU GAS HOLDINGS LIMITED,"13,451,000",0.49%
 3669,CHINA YONGDA AUTOMOBILES SERVICES HOLDINGS LIMITED,"18,768,000",1.01%
 3690,MEITUAN DIANPING,"156,654,232",2.69%
 3692,HANSOH PHARMACEUTICAL GROUP COMPANY LIMITED,"10,017,000",0.16%
 3698,HUISHANG BANK CORPORATION LIMITED,"4,883,900",0.14%
 3759,"PHARMARON BEIJING CO., LTD.","1,118,200",0.83%
 3788,CHINA HANKING HOLDINGS LIMITED,"16,479,000",0.90%
 3799,DALI FOODS GROUP COMPANY LIMITED,"346,262,500",2.52%
 3800,GCL-POLY ENERGY HOLDINGS LIMITED,"2,645,311,900",13.32%
 3808,SINOTRUK (HONG KONG) LIMITED,"89,760,500",3.24%
 3813,POU SHENG INTERNATIONAL (HOLDINGS) LIMITED,"8,044,000",0.15%
 3818,"CHINA DONGXIANG (GROUP) CO., LTD.","143,215,000",2.43%
 3823,TECH PRO TECHNOLOGY DEVELOPMENT LIMITED,"2,414,168,000",30.17%
 3836,CHINA HARMONY NEW ENERGY AUTO HOLDING LIMITED,"69,542,500",4.41%
 3866,"BANK OF QINGDAO CO., LTD.","834,500",0.04%
 3868,XINYI ENERGY HOLDINGS LIMITED,"3,798,000",0.05%
 3877,CSSC (HONG KONG) SHIPPING COMPANY LIMITED,"2,854,000",0.04%
 3883,CHINA AOYUAN GROUP LIMITED,"181,200,000",6.72%
 3886,TOWN HEALTH INTERNATIONAL MEDICAL GROUP LIMITED,"145,736,000",1.92%
 3888,KINGSOFT CORPORATION LIMITED,"327,598,027",23.86%
 3898,"ZHUZHOU CRRC TIMES ELECTRIC CO., LTD.","13,062,106",2.37%
 3899,CIMC ENRIC HOLDINGS LIMITED,"113,226,000",5.62%
 3900,GREENTOWN CHINA HOLDINGS LIMITED,"373,886,000",17.21%
 3908,CHINA INTERNATIONAL CAPITAL CORPORATION LIMITED,"316,091,696",16.59%
 3933,"UNITED LABORATORIES INTERNATIONAL HOLDINGS LIMITED, THE","112,484,181",6.85%
 3958,DFZQ,"365,102,856",35.54%
 3968,"CHINA MERCHANTS BANK CO., LTD.","255,048,851",5.55%
 3969,CHINA RAILWAY SIGNAL & COMMUNICATION CORPORATION LIMITED,"96,880,000",4.92%
 3988,BANK OF CHINA LIMITED,"5,193,121,231",6.20%
 3990,MIDEA REAL ESTATE HOLDING LIMITED,"21,093,000",1.70%
 3993,"CHINA MOLYBDENUM CO., LTD.","457,898,500",11.63%
 3996,CHINA ENERGY ENGINEERING CORPORATION LIMITED,"11,436,000",0.12%
 3998,BOSIDENG INTERNATIONAL HOLDINGS LIMITED,"542,154,000",4.98%
 6030,CITIC SECURITIES COMPANY LIMITED,"285,347,600",12.51%
 6055,CHINA TOBACCO INTERNATIONAL (HK) COMPANY LIMITED,"15,271,000",2.20%
 6060,"ZHONGAN ONLINE P & C INSURANCE CO., LTD.","16,872,500",3.58%
 6066,"CSC FINANCIAL CO., LTD.","228,617,500",18.12%
 6068,WISDOM EDUCATION INTERNATIONAL HOLDINGS COMPANY LIMITED,"82,172,000",4.01%
 6088,FIT HON TENG LIMITED,"96,224,000",1.39%
 6098,COUNTRY GARDEN SERVICES HOLDINGS COMPANY LIMITED,"104,340,346",3.83%
 6099,"CHINA MERCHANTS SECURITIES CO., LTD.","108,575,800",11.07%
 6100,"WISE TALENT INFORMATION TECHNOLOGY CO., LTD","259,000",0.04%
 6116,"SHANGHAI LA CHAPELLE FASHION CO., LTD.","57,865,800",26.93%
 6158,ZHENRO PROPERTIES GROUP LIMITED,"52,705,000",1.19%
 6166,CHINA VAST INDUSTRIAL URBAN DEVELOPMENT COMPANY LIMITED,"15,153,000",0.91%
 6169,CHINA YUHUA EDUCATION CORPORATION LIMITED,"411,370,050",12.50%
 6178,EVERBRIGHT SECURITIES COMPANY LIMITED,"86,247,800",12.23%
 6196,"BANK OF ZHENGZHOU CO., LTD.","177,148,000",11.66%
 6198,"QINGDAO PORT INTERNATIONAL CO., LTD.","4,930,000",0.44%
 6806,"SHENWAN HONGYUAN GROUP CO., LTD.","69,624,800",2.78%
 6808,SUN ART RETAIL GROUP LIMITED,"58,557,000",0.60%
 6818,CHINA EVERBRIGHT BANK COMPANY LIMITED,"805,141,992",6.34%
 6828,BEIJING GAS BLUE SKY HOLDINGS LIMITED,"373,096,000",2.87%
 6837,"HAITONG SECURITIES CO., LTD.","528,155,400",15.48%
 6862,HAIDILAO INTERNATIONAL HOLDING LTD.,"86,789,189",1.63%
 6865,"FLAT GLASS GROUP CO., LTD.","131,782,000",29.27%
 6869,YANGTZE OPTICAL FIBRE AND CABLE JOINT STOCK LIMITED COMPANY,"20,465,000",5.81%
 6881,"CHINA GALAXY SECURITIES CO., LTD.","789,645,382",21.38%
 6886,"HUATAI SECURITIES CO., LTD.","422,858,400",24.59%
 8328,XINYI AUTOMOBILE GLASS HONG KONG ENTERPRISES LIMITED,"109,750",0.01%
 9928,TIMES NEIGHBORHOOD HOLDINGS LIMITED,"13,086,779",1.43%
