Stock Code,Stock Name,Shareholding in CCASS,Percentage of the total number of Issued Shares
    1,CK HUTCHISON HOLDINGS LIMITED,"27,249,187",0.70%
    2,CLP HOLDINGS LIMITED,"5,785,992",0.22%
    3,"HONG KONG AND CHINA GAS COMPANY LIMITED, THE","23,198,481",0.12%
    4,"WHARF (HOLDINGS) LIMITED, THE","10,208,446",0.33%
    5,HSBC HOLDINGS PLC,"1,805,799,606",8.72%
    6,POWER ASSETS HOLDINGS LIMITED,"4,289,922",0.19%
    8,PCCW LIMITED,"7,924,776",0.09%
   10,HANG LUNG GROUP LIMITED,"26,283,000",1.92%
   11,HANG SENG BANK LTD,"2,657,705",0.13%
   12,HENDERSON LAND DEVELOPMENT CO LTD,"4,343,673",0.08%
   14,HYSAN DEVELOPMENT COMPANY LIMITED,"1,258,000",0.11%
   16,SUN HUNG KAI PROPERTIES LIMITED,"8,737,904",0.29%
   17,NEW WORLD DEVELOPMENT CO LTD,"9,206,881",0.36%
   19,SWIRE PACIFIC LTD 'A',"3,102,000",0.34%
   23,BANK OF EAST ASIA LTD,"1,070,993",0.03%
   27,GALAXY ENTERTAINMENT GROUP LIMITED,"39,473,102",0.90%
   35,FAR EAST CONSORTIUM INTERNATIONAL LTD,"100,013",0.00%
   38,FIRST TRACTOR COMPANY LIMITED,"116,554,100",29.73%
   41,GREAT EAGLE HOLDINGS LIMITED,"1,426,511",0.19%
   42,NORTHEAST ELECTRIC DEVELOPMENT COMPANY LIMITED,"16,054,000",6.22%
   43,C.P. POKPHAND CO LTD,"840,000",0.00%
   45,"HONGKONG AND SHANGHAI HOTELS LTD,THE","42,513",0.00%
   59,SKYFAME REALTY (HOLDINGS) LIMITED,"64,240,000",0.81%
   66,MTR CORPORATION LIMITED,"5,377,023",0.08%
   69,SHANGRI-LA ASIA LIMITED,"20,322,000",0.56%
   78,REGAL HOTELS INTERNATIONAL HOLDINGS LIMITED,"14,000",0.00%
   81,CHINA OVERSEAS GRAND OCEANS GROUP LIMITED,"316,336,820",9.24%
   83,SINO LAND CO.LTD.,"8,791,976",0.12%
   86,SUN HUNG KAI & CO.LTD,"13,997,000",0.69%
   87,SWIRE PACIFIC LTD 'B',"23,515,000",0.78%
   95,LVGEM (CHINA) REAL ESTATE INVESTMENT COMPANY LIMITED,"162,916,000",3.21%
  101,HANG LUNG PROPERTIES LIMITED,"52,440,949",1.16%
  107,SICHUAN EXPRESSWAY COMPANY LIMITED,"223,746,000",24.98%
  109,GOOD RESOURCES HOLDINGS LIMITED,"44,450,000",0.62%
  116,CHOW SANG SANG HOLDINGS INTERNATIONAL LIMITED,"20,818,000",3.07%
  119,"POLY PROPERTY GROUP CO., LIMITED","365,309,748",9.96%
  120,COSMOPOLITAN INTERNATIONAL HOLDINGS LTD,"1,296,000",0.02%
  123,YUEXIU PROPERTY COMPANY LIMITED,"390,452,351",2.51%
  127,CHINESE ESTATES HOLDINGS LIMITED,"3,131,500",0.16%
  135,KUNLUN ENERGY COMPANY LIMITED,"134,903,000",1.55%
  136,HENGTEN NETWORKS GROUP LIMITED,"5,107,820,000",6.84%
  142,FIRST PACIFIC CO. LTD.,"8,158,000",0.18%
  144,CHINA MERCHANTS PORT HOLDINGS COMPANY LIMITED,"148,510,232",4.10%
  148,KINGBOARD HOLDINGS LIMITED,"16,476,636",1.49%
  151,WANT WANT CHINA HOLDINGS LIMITED,"35,494,871",0.28%
  152,SHENZHEN INTERNATIONAL HOLDINGS LIMITED,"69,383,131",3.15%
  163,EMPEROR INTERNATIONAL HOLDINGS LIMITED,"10,856,000",0.29%
  165,CHINA EVERBRIGHT LIMITED,"207,399,955",12.30%
  168,TSINGTAO BREWERY COMPANY LIMITED,"67,128,000",10.24%
  173,K. WAH INTERNATIONAL HOLDINGS LIMITED,"41,211,264",1.31%
  175,GEELY AUTOMOBILE HOLDINGS LIMITED,"690,162,846",7.02%
  177,JIANGSU EXPRESSWAY COMPANY LIMITED,"124,674,818",10.20%
  178,SA SA INTERNATIONAL HOLDINGS LIMITED,"16,919,268",0.54%
  179,JOHNSON ELECTRIC HOLDINGS LIMITED,"656,500",0.07%
  187,BEIJING JINGCHENG MACHINERY ELECTRIC COMPANY LIMITED,"27,714,000",27.70%
  189,DONGYUE GROUP LIMITED,"156,994,358",7.43%
  198,SMI HOLDINGS GROUP LIMITED,"70,340,800",2.59%
  200,MELCO INTERNATIONAL DEVELOPMENT LIMITED,"14,801,000",0.96%
  207,JOY CITY PROPERTY LIMITED,"4,364,000",0.03%
  215,HUTCHISON TELECOMMUNICATIONS HONG KONG HOLDINGS LIMITED,"7,790,000",0.15%
  220,UNI-PRESIDENT CHINA HOLDINGS LTD.,"8,790,000",0.20%
  241,ALIBABA HEALTH INFORMATION TECHNOLOGY LIMITED,"247,140,498",1.89%
  242,SHUN TAK HOLDINGS LIMITED,"90,850,000",3.00%
  245,CHINA VERED FINANCIAL HOLDING CORPORATION LIMITED,"31,550,000",0.08%
  256,CITYCHAMP WATCH & JEWELLERY GROUP LIMITED,"349,660,000",8.03%
  257,CHINA EVERBRIGHT INTERNATIONAL LIMITED,"497,647,577",8.09%
  267,CITIC LIMITED,"140,949,916",0.48%
  268,KINGDEE INTERNATIONAL SOFTWARE GROUP COMPANY LIMITED,"470,111,926",14.10%
  270,GUANGDONG INVESTMENT LIMITED,"33,798,905",0.50%
  272,SHUI ON LAND LIMITED,"594,963,000",7.37%
  279,FREEMAN FINTECH CORPORATION LIMITED,"612,286,000",32.77%
  285,BYD ELECTRONIC (INTERNATIONAL) COMPANY LIMITED,"191,268,000",8.48%
  288,WH GROUP LIMITED,"1,356,074,427",9.20%
  291,CHINA RESOURCES BEER (HOLDINGS) COMPANY LIMITED,"330,176,159",10.16%
  293,CATHAY PACIFIC AIRWAYS LTD,"16,339,000",0.41%
  295,KONG SUN HOLDINGS LIMITED,"52,325,000",0.34%
  297,SINOFERT HOLDINGS LIMITED,"347,948,000",4.94%
  302,CMGE TECHNOLOGY GROUP LIMITED,"152,914,000",6.56%
  303,VTECH HOLDINGS LIMITED,"1,645,349",0.65%
  308,CHINA TRAVEL INTERNATIONAL INVESTMENT HONG KONG LIMITED,"178,582,439",3.22%
  315,SMARTONE TELECOMMUNICATIONS HOLDINGS LIMITED,"1,965,608",0.17%
  316,ORIENT OVERSEAS (INTERNATIONAL) LIMITED,"8,500",0.00%
  317,CSSC OFFSHORE & MARINE ENGINEERING (GROUP) COMPANY LIMITED,"23,608,900",3.97%
  321,TEXWINCA HOLDINGS LIMITED,"1,004,000",0.07%
  322,TINGYI (CAYMAN ISLANDS) HOLDING CORP.,"31,964,708",0.55%
  323,MAANSHAN IRON & STEEL COMPANY LIMITED,"17,250,000",0.99%
  327,PAX GLOBAL TECHNOLOGY LIMITED,"7,672,000",0.70%
  330,ESPRIT HOLDINGS LIMITED,"11,167,800",0.58%
  336,HUABAO INTERNATIONAL HOLDINGS LIMITED,"393,802,100",12.66%
  337,GREENLAND HONG KONG HOLDINGS LIMITED,"116,518,000",4.17%
  338,SINOPEC SHANGHAI PETROCHEMICAL COMPANY LIMITED,"293,314,375",8.38%
  341,CAFE DE CORAL HOLDINGS LTD,"6,010,000",1.01%
  345,VITASOY INTERNATIONAL HOLDINGS LTD,"7,736,011",0.72%
  347,ANGANG STEEL COMPANY LIMITED,"25,931,200",1.83%
  354,CHINASOFT INTERNATIONAL LIMITED,"387,902,542",14.28%
  358,JIANGXI COPPER COMPANY LIMITED,"83,600,219",6.01%
  363,SHANGHAI INDUSTRIAL HOLDINGS LIMITED,"25,238,100",2.31%
  371,BEIJING ENTERPRISES WATER GROUP LIMITED,"286,078,010",2.84%
  378,FDG KINETIC LIMITED,"183,718,000",2.72%
  384,CHINA GAS HOLDINGS LIMITED,"31,003,843",0.58%
  386,CHINA PETROLEUM & CHEMICAL CORPORATION,"1,495,542,498",5.85%
  388,HONG KONG EXCHANGES AND CLEARING LIMITED,"52,981,408",4.17%
  390,CHINA RAILWAY GROUP LIMITED,"272,532,030",6.47%
  392,BEIJING ENTERPRISES HOLDINGS LIMITED,"95,238,482",7.53%
  400,COGOBUY GROUP,"52,971,000",3.73%
  410,SOHO CHINA LIMITED,"385,471,000",7.41%
  412,CHINA SHANDONG HI-SPEED FINANCIAL GROUP LIMITED,"9,942,000",0.04%
  419,HUAYI TENCENT ENTERTAINMENT COMPANY LIMITED,"168,910,000",1.25%
  425,MINTH GROUP LIMITED,"60,577,189",5.25%
  439,KUANGCHI SCIENCE LIMITED,"280,036,000",4.54%
  440,DAH SING FINANCIAL HOLDINGS LTD,"2,963,666",0.92%
  451,GCL NEW ENERGY HOLDINGS LIMITED,"1,580,602,000",8.28%
  460,SIHUAN PHARMACEUTICAL HOLDINGS GROUP LTD.,"507,957,000",5.36%
  467,UNITED ENERGY GROUP LIMITED,"7,870,000",0.02%
  468,GREATVIEW ASEPTIC PACKAGING COMPANY LIMITED,"12,032,000",0.89%
  480,HKR INTERNATIONAL LTD,"62,800",0.00%
  488,LAI SUN DEVELOPMENT COMPANY LIMITED,"30,000",0.00%
  489,DONGFENG MOTOR GROUP COMPANY LIMITED,"201,288,000",7.03%
  493,GOME RETAIL HOLDINGS LIMITED,"2,518,845,000",11.67%
  496,KASEN INTERNATIONAL HOLDINGS LIMITED,"124,270,000",8.31%
  506,CHINA FOODS LIMITED,"42,470,100",1.51%
  508,DINGYI GROUP INVESTMENT LIMITED,"382,655,000",5.20%
  511,TELEVISION BROADCASTS LIMITED,"464,500",0.09%
  512,CHINA GRAND PHARMACEUTICAL AND HEALTHCARE HOLDINGS LIMITED,"120,999,200",3.58%
  517,"COSCO SHIPPING INTERNATIONAL (HONG KONG) CO., LTD.","420,000",0.02%
  520,"XIABUXIABU CATERING MANAGEMENT (CHINA) HOLDINGS CO., LTD.","108,039,000",9.98%
  522,ASM PACIFIC TECHNOLOGY LIMITED,"17,680,325",4.31%
  525,GUANGSHEN RAILWAY COMPANY LIMITED,"337,760,010",23.59%
  530,GOLDIN FINANCIAL HOLDINGS LIMITED,"2,770,000",0.03%
  535,GEMDALE PROPERTIES AND INVESTMENT CORPORATION LIMITED,"2,024,106,154",12.28%
  546,FUFENG GROUP LIMITED,"66,005,119",2.60%
  547,DIGITAL DOMAIN HOLDINGS LIMITED,"1,026,860,000",3.01%
  548,SHENZHEN EXPRESSWAY COMPANY LIMITED,"110,666,000",14.79%
  551,YUE YUEN INDUSTRIAL (HOLDINGS) LIMITED,"7,939,793",0.48%
  552,CHINA COMMUNICATIONS SERVICES CORPORATION LIMITED,"38,646,000",1.61%
  553,NANJING PANDA ELECTRONICS COMPANY LIMITED,"56,710,000",23.42%
  563,SHANGHAI INDUSTRIAL URBAN DEVELOPMENT GROUP LIMITED,"138,820,855",2.88%
  564,ZHENGZHOU COAL MINING MACHINERY GROUP COMPANY LIMITED,"55,595,804",22.85%
  568,SHANDONG MOLONG PETROLEUM MACHINERY COMPANY LIMITED,"58,105,200",22.68%
  570,CHINA TRADITIONAL CHINESE MEDICINE HOLDINGS CO LIMITED,"618,914,938",12.28%
  576,"ZHEJIANG EXPRESSWAY CO., LTD.","79,273,759",5.52%
  579,"BEIJING JINGNENG CLEAN ENERGY CO., LIMITED","159,164,000",5.62%
  581,CHINA ORIENTAL GROUP COMPANY LIMITED,"122,320,987",3.27%
  582,LANDING INTERNATIONAL DEVELOPMENT LIMITED,"112,036,800",3.18%
  586,CHINA CONCH VENTURE HOLDINGS LIMITED,"163,586,000",9.05%
  588,BEIJING NORTH STAR COMPANY LIMITED,"220,086,000",31.12%
  590,LUK FOOK HOLDINGS (INTERNATIONAL) LIMITED,"2,838,000",0.47%
  598,SINOTRANS LIMITED,"363,857,000",16.96%
  604,SHENZHEN INVESTMENT LIMITED,"45,791,461",0.51%
  607,FULLSHARE HOLDINGS LIMITED,"5,124,855,000",26.00%
  612,CHINA DING YI FENG HOLDINGS LIMITED,"2,264,000",0.17%
  631,SANY HEAVY EQUIPMENT INTERNATIONAL HOLDINGS COMPANY LIMITED,"214,506,000",6.89%
  636,KERRY LOGISTICS NETWORK LIMITED,"1,357,000",0.06%
  639,SHOUGANG FUSHAN RESOURCES GROUP LIMITED,"107,814,000",2.02%
  656,FOSUN INTERNATIONAL LIMITED,"954,553,216",11.22%
  658,"CHINA HIGH SPEED TRANSMISSION EQUIPMENT GROUP CO., LTD.","197,995,000",12.10%
  659,NWS HOLDINGS LIMITED,"5,187,719",0.13%
  665,HAITONG INTERNATIONAL SECURITIES GROUP LIMITED,"274,707,031",4.54%
  667,CHINA EAST EDUCATION HOLDINGS LIMITED,"116,827,500",5.32%
  669,TECHTRONIC INDUSTRIES CO. LTD.,"5,087,970",0.27%
  670,CHINA EASTERN AIRLINES CORPORATION LIMITED,"287,989,567",5.56%
  680,NAN HAI CORPORATION LIMITED,"508,550,000",0.73%
  683,KERRY PROPERTIES LIMITED,"4,042,624",0.27%
  686,PANDA GREEN ENERGY GROUP LIMITED,"295,144,000",1.31%
  687,TYSAN HOLDINGS LIMITED,"4,884,000",0.14%
  688,CHINA OVERSEAS LAND & INVESTMENT LIMITED,"58,952,667",0.53%
  691,CHINA SHANSHUI CEMENT GROUP LIMITED,"4,117,000",0.09%
  694,BEIJING CAPITAL INTERNATIONAL AIRPORT COMPANY LIMITED,"359,841,672",19.14%
  696,TRAVELSKY TECHNOLOGY LIMITED,"42,497,000",4.55%
  697,SHOUCHENG HOLDINGS LIMITED,"25,900,010",0.37%
  698,TONGDA GROUP HOLDINGS LIMITED,"157,610,000",2.42%
  699,CAR INC.,"160,274,001",7.55%
  700,TENCENT HOLDINGS LIMITED,"308,696,397",3.21%
  709,GIORDANO INTERNATIONAL LIMITED,"2,138,000",0.13%
  715,CHINA OCEANWIDE HOLDINGS LIMITED,"456,000",0.00%
  718,TAI UNITED HOLDINGS LIMITED,"20,050,000",0.38%
  719,SHANDONG XINHUA PHARMACEUTICAL COMPANY LIMITED,"64,125,036",32.88%
  721,CHINA FINANCIAL INTERNATIONAL INVESTMENTS LIMITED,"304,800,000",2.77%
  728,CHINA TELECOM CORPORATION LIMITED,"339,989,238",2.44%
  729,FDG ELECTRIC VEHICLES LIMITED,"70,130,750",2.79%
  732,TRULY INTERNATIONAL HOLDINGS LIMITED,"305,810,000",9.29%
  737,SZ INVESTMENT HLDGS BAY AREA DEV CO LTD -HKD TRADED SHARES,"1,632,000",0.04%
  743,ASIA CEMENT (CHINA) HOLDINGS CORPORATION,"33,861,500",2.16%
  751,SKYWORTH GROUP LIMITED,"155,269,919",5.06%
  753,AIR CHINA LIMITED,"354,152,449",7.75%
  754,HOPSON DEVELOPMENT HOLDINGS LIMITED,"60,402,000",2.71%
  762,CHINA UNICOM (HONG KONG) LIMITED,"189,628,000",0.61%
  763,ZTE CORPORATION,"200,894,466",26.59%
  772,CHINA LITERATURE LIMITED,"85,744,727",8.43%
  775,"CK LIFE SCIENCES INT'L., (HOLDINGS) INC.","18,478,000",0.19%
  777,NETDRAGON WEBSOFT HOLDINGS LIMITED,"23,526,500",4.16%
  780,TONGCHENG-ELONG HOLDINGS LIMITED,"19,516,400",0.89%
  787,GLOBAL BRANDS GROUP HOLDING LIMITED,"66,493,833",6.46%
  788,CHINA TOWER CORPORATION LIMITED,"1,957,584,384",4.19%
  799,IGG INC,"131,154,298",10.67%
  806,VALUE PARTNERS GROUP LIMITED,"70,064,405",3.77%
  811,"XINHUA WINSHARE PUBLISHING AND MEDIA CO., LTD.","78,678,000",17.80%
  813,SHIMAO GROUP HOLDINGS LIMITED,"81,925,641",2.31%
  816,HUADIAN FUXIN ENERGY CORPORATION LIMITED,"1,044,000",0.04%
  817,CHINA JINMAO HOLDINGS GROUP LIMITED,"1,017,802,157",8.21%
  819,TIANNENG POWER INTERNATIONAL LIMITED,"243,789,000",21.64%
  826,TIANGONG INTERNATIONAL COMPANY LIMITED,"60,452,000",2.35%
  829,SHENGUAN HOLDINGS (GROUP) LIMITED,"140,566,000",4.35%
  832,CENTRAL CHINA REAL ESTATE LIMITED,"118,778,000",4.24%
  836,CHINA RESOURCES POWER HOLDINGS COMPANY LIMITED,"229,540,335",4.76%
  839,CHINA EDUCATION GROUP HOLDINGS LIMITED,"95,190,655",4.71%
  845,GLORIOUS PROPERTY HOLDINGS LIMITED,"22,344,000",0.28%
  846,MINGFA GROUP (INTERNATIONAL) COMPANY LIMITED,"5,261,000",0.08%
  853,MICROPORT SCIENTIFIC CORPORATION,"235,309,786",13.05%
  855,CHINA WATER AFFAIRS GROUP LIMITED,"179,139,357",11.16%
  856,VSTECS HOLDINGS LIMITED,"17,988,000",1.23%
  857,PETROCHINA COMPANY LIMITED,"1,727,612,455",8.18%
  860,APOLLO FUTURE MOBILITY GROUP LIMITED,"29,760,000",0.41%
  861,DIGITAL CHINA HOLDINGS LIMITED,"690,950,400",41.32%
  867,CHINA MEDICAL SYSTEM HOLDINGS LIMITED,"23,873,618",0.95%
  868,XINYI GLASS HOLDINGS LIMITED,"248,139,053",6.14%
  874,"GUANGZHOU BAIYUNSHAN PHARMACEUTICAL HOLDINGS CO., LTD.","69,776,100",31.72%
  880,SJM HOLDINGS LIMITED,"207,119,700",3.64%
  881,ZHONGSHENG GROUP HOLDINGS LIMITED,"40,244,813",1.76%
  883,CNOOC LIMITED,"415,942,543",0.93%
  884,CIFI HOLDINGS (GROUP) CO. LTD.,"380,888,666",4.63%
  885,RENTIAN TECHNOLOGY HOLDINGS LIMITED,"1,110,000",0.01%
  895,DONGJIANG ENVIRONMENTAL COMPANY LIMITED,"65,985,600",32.97%
  902,"HUANENG POWER INTERNATIONAL, INC.","2,082,560,874",44.30%
  906,CPMC HOLDINGS LIMITED,"18,582,000",1.65%
  911,QIANHAI HEALTH HOLDINGS LIMITED,"91,325,500",5.38%
  914,ANHUI CONCH CEMENT COMPANY LIMITED,"55,759,789",4.28%
  916,CHINA LONGYUAN POWER GROUP CORPORATION LIMITED,"286,193,000",8.56%
  921,"HISENSE HOME APPLIANCES GROUP CO., LTD.","46,543,459",10.12%
  931,CHINA LNG GROUP LIMITED,"172,371,000",3.04%
  933,BRIGHTOIL PETROLEUM (HOLDINGS) LIMITED,"25,254,000",0.24%
  934,SINOPEC KANTONS HOLDINGS LIMITED,"206,170,000",8.28%
  939,CHINA CONSTRUCTION BANK CORPORATION,"25,941,234,335",10.78%
  941,CHINA MOBILE LIMITED,"99,429,724",0.48%
  950,LEE'S PHARMACEUTICAL HOLDINGS LIMITED,"1,398,000",0.23%
  951,CHAOWEI POWER HOLDINGS LIMITED,"100,949,000",9.14%
  956,CHINA SUNTIEN GREEN ENERGY CORPORATION LIMITED,"193,605,000",10.52%
  960,LONGFOR GROUP HOLDINGS LIMITED,"163,053,993",2.71%
  966,CHINA TAIPING INSURANCE HOLDINGS COMPANY LIMITED,"470,920,774",13.09%
  967,SOUND GLOBAL LTD.,"289,000",0.01%
  968,XINYI SOLAR HOLDINGS LIMITED,"980,069,685",11.99%
  976,CHIHO ENVIRONMENTAL GROUP LIMITED,"217,224,000",13.53%
  978,CHINA MERCHANTS LAND LIMITED,"168,144,000",3.42%
  981,SEMICONDUCTOR MANUFACTURING INTERNATIONAL CORPORATION,"1,096,608,537",14.73%
  989,GROUND INTERNATIONAL DEVELOPMENT LIMITED,"171,815,000",3.25%
  991,"DATANG INTERNATIONAL POWER GENERATION CO.,LTD.","336,430,000",5.49%
  992,LENOVO GROUP LIMITED,"125,107,882",1.03%
  995,ANHUI EXPRESSWAY COMPANY LIMITED,"114,622,000",23.24%
  996,CARNIVAL GROUP INTERNATIONAL HOLDINGS LIMITED,"6,099,442,500",25.73%
  998,CHINA CITIC BANK CORPORATION LIMITED,"2,281,308,758",15.32%
 1028,C.BANNER INTERNATIONAL HOLDINGS LIMITED,"146,797,000",7.06%
 1030,SEAZEN GROUP LIMITED,"267,247,127",4.29%
 1031,KINGSTON FINANCIAL GROUP LIMITED,"548,000",0.00%
 1033,SINOPEC OILFIELD SERVICE CORPORATION,"358,974,000",6.62%
 1038,CK INFRASTRUCTURE HOLDINGS LIMITED,"11,031,500",0.41%
 1044,HENGAN INTERNATIONAL GROUP COMPANY LIMITED,"21,150,605",1.77%
 1052,YUEXIU TRANSPORT INFRASTRUCTURE LIMITED,"77,657,238",4.64%
 1053,CHONGQING IRON & STEEL COMPANY LIMITED,"95,616,000",17.76%
 1055,CHINA SOUTHERN AIRLINES COMPANY LIMITED,"280,244,470",6.54%
 1057,ZHEJIANG SHIBAO COMPANY LIMITED,"50,742,000",23.40%
 1060,ALIBABA PICTURES GROUP LIMITED,"3,460,738,620",12.89%
 1065,TIANJIN CAPITAL ENVIRONMENTAL PROTECTION GROUP COMPANY LIMITED,"95,912,100",28.20%
 1066,SHANDONG WEIGAO GROUP MEDICAL POLYMER COMPANY LIMITED,"705,480,587",15.59%
 1068,CHINA YURUN FOOD GROUP LIMITED,"18,123,000",0.99%
 1070,TCL ELECTRONICS HOLDINGS LIMITED,"80,597,666",3.37%
 1071,HUADIAN POWER INTERNATIONAL CORPORATION LIMITED,"749,128,683",43.61%
 1072,DONGFANG ELECTRIC CORPORATION LIMITED,"100,367,316",29.51%
 1076,IMPERIAL PACIFIC INTERNATIONAL HOLDINGS LIMITED,"387,060,000",0.27%
 1083,TOWNGAS CHINA COMPANY LIMITED,"17,556,481",0.58%
 1086,GOODBABY INTERNATIONAL HOLDINGS LIMITED,"23,475,000",1.40%
 1088,CHINA SHENHUA ENERGY COMPANY LIMITED,"908,510,226",26.72%
 1089,LEYOU TECHNOLOGIES HOLDINGS LIMITED,"74,410,000",2.41%
 1093,CSPC PHARMACEUTICAL GROUP LIMITED,"475,455,801",6.34%
 1097,I-CABLE COMMUNICATIONS LIMITED,"101,191",0.00%
 1098,ROAD KING INFRASTRUCTURE LIMITED,"12,264,000",1.63%
 1099,SINOPHARM GROUP CO. LTD.,"71,800,309",5.35%
 1108,LUOYANG GLASS COMPANY LIMITED,"89,906,000",35.95%
 1109,CHINA RESOURCES LAND LIMITED,"89,179,763",1.24%
 1111,CHONG HING BANK LIMITED,"1,022,500",0.10%
 1112,HEALTH AND HAPPINESS (H&H) INTERNATIONAL HOLDINGS LIMITED,"40,307,000",6.25%
 1113,CK ASSET HOLDINGS LIMITED,"12,963,043",0.34%
 1114,BRILLIANCE CHINA AUTOMOTIVE HOLDINGS LIMITED,"140,308,461",2.77%
 1115,TIBET WATER RESOURCES LTD.,"161,112,000",6.27%
 1117,CHINA MODERN DAIRY HOLDINGS LTD.,"229,630,000",3.58%
 1119,IDREAMSKY TECHNOLOGY HOLDINGS LIMITED,"37,602,000",2.96%
 1128,"WYNN MACAU, LIMITED","68,084,000",1.30%
 1131,AGRITRADE RESOURCES LIMITED,"583,090,000",9.14%
 1138,"COSCO SHIPPING ENERGY TRANSPORTATION CO., LTD.","182,990,003",14.11%
 1140,OP FINANCIAL LIMITED,"99,308,000",3.42%
 1141,CMBC CAPITAL HOLDINGS LIMITED,"389,770,000",0.81%
 1157,"ZOOMLION HEAVY INDUSTRY SCIENCE AND TECHNOLOGY CO., LTD.","41,339,522",2.97%
 1165,SHUNFENG INTERNATIONAL CLEAN ENERGY LIMITED,"327,686,000",6.57%
 1169,"HAIER ELECTRONICS GROUP CO., LTD.","76,232,382",2.70%
 1171,YANZHOU COAL MINING COMPANY LIMITED,"311,906,235",16.41%
 1176,ZHUGUANG HOLDINGS GROUP COMPANY LIMITED,"203,862,000",2.83%
 1177,SINO BIOPHARMACEUTICAL LIMITED,"1,850,020,143",9.79%
 1186,CHINA RAILWAY CONSTRUCTION CORPORATION LIMITED,"72,550,690",3.49%
 1188,HYBRID KINETIC GROUP LIMITED,"103,122,000",0.50%
 1193,CHINA RESOURCES GAS GROUP LIMITED,"14,242,000",0.61%
 1196,REALORD GROUP HOLDINGS LIMITED,"122,608,000",8.52%
 1199,COSCO SHIPPING PORTS LIMITED,"24,602,995",0.75%
 1205,CITIC RESOURCES HOLDINGS LIMITED,"167,546,100",2.13%
 1208,MMG LIMITED,"296,894,000",3.68%
 1211,BYD COMPANY LIMITED,"71,168,243",7.77%
 1212,LIFESTYLE INTERNATIONAL HOLDINGS LIMITED,"3,629,666",0.23%
 1230,YASHILI INTERNATIONAL HOLDINGS LTD,"78,804,000",1.65%
 1233,TIMES CHINA HOLDINGS LIMITED,"77,027,757",3.96%
 1234,CHINA LILANG LIMITED,"63,808,000",5.32%
 1238,POWERLONG REAL ESTATE HOLDINGS LIMITED,"117,081,000",2.82%
 1250,BEIJING ENTERPRISES CLEAN ENERGY GROUP LIMITED,"1,614,300,000",2.54%
 1253,CHINA GREENLAND BROAD GREENSTATE GROUP COMPANY LIMITED,"6,484,000",0.19%
 1257,CHINA EVERBRIGHT GREENTECH LIMITED,"140,019,000",6.77%
 1268,CHINA MEIDONG AUTO HOLDINGS LIMITED,"54,926,000",4.41%
 1269,CHINA FIRST CAPITAL GROUP LIMITED,"1,273,696,000",25.33%
 1282,GLORY SUN FINANCIAL GROUP LIMITED,"4,190,864,000",13.35%
 1286,IMPRO PRECISION INDUSTRIES LIMITED,"1,789,000",0.09%
 1288,AGRICULTURAL BANK OF CHINA LIMITED,"8,330,519,668",27.09%
 1293,GRAND BAOXIN AUTO GROUP LIMITED,"132,851,509",4.67%
 1299,AIA GROUP LIMITED,"75,385,616",0.62%
 1302,LIFETECH SCIENTIFIC CORPORATION,"649,930,000",15.00%
 1308,SITC INTERNATIONAL HOLDINGS COMPANY LIMITED,"52,410,000",1.94%
 1310,HKBN LTD.,"4,040,500",0.30%
 1313,CHINA RESOURCES CEMENT HOLDINGS LIMITED,"52,001,747",0.74%
 1315,VISION FAME INTERNATIONAL HOLDING LIMITED,"733,014,000",12.21%
 1316,NEXTEER AUTOMOTIVE GROUP LIMITED,"41,627,000",1.65%
 1317,CHINA MAPLE LEAF EDUCATIONAL SYSTEMS LIMITED,"370,597,230",12.37%
 1330,"DYNAGREEN ENVIRONMENTAL PROTECTION GROUP CO., LTD","132,621,000",32.79%
 1333,CHINA ZHONGWANG HOLDINGS LIMITED,"327,416,000",6.00%
 1336,NEW CHINA LIFE INSURANCE COMPANY LTD.,"334,600,147",32.34%
 1339,"PEOPLE'S INSURANCE COMPANY (GROUP) OF CHINA LIMITED, THE","1,636,399,987",18.75%
 1347,HUA HONG SEMICONDUCTOR LIMITED,"79,587,065",6.14%
 1357,"MEITU, INC.","312,758,600",7.24%
 1359,"CHINA CINDA ASSET MANAGEMENT CO., LTD.","2,177,830,457",16.04%
 1361,361 DEGREES INTERNATIONAL LIMITED,"29,008,000",1.40%
 1363,CT ENVIRONMENTAL GROUP LIMITED,"502,874,000",7.95%
 1368,XTEP INTERNATIONAL HOLDINGS LIMITED,"85,326,033",3.38%
 1375,"CENTRAL CHINA SECURITIES CO., LTD.","266,684,000",22.30%
 1378,CHINA HONGQIAO GROUP LIMITED,"522,232,910",6.08%
 1381,CANVEST ENVIRONMENTAL PROTECTION GROUP COMPANY LIMITED,"27,409,000",1.12%
 1382,PACIFIC TEXTILES HOLDINGS LIMITED,"22,677,000",1.60%
 1383,SUNCITY GROUP HOLDINGS LIMITED,"30,810,000",0.46%
 1387,CHINA DILI GROUP,"151,839,870",2.65%
 1398,INDUSTRIAL AND COMMERCIAL BANK OF CHINA LIMITED,"23,874,609,812",27.50%
 1432,CHINA SHENGMU ORGANIC MILK LIMITED,"113,031,000",1.34%
 1448,FU SHOU YUAN INTERNATIONAL GROUP LIMITED,"258,596,677",11.28%
 1458,ZHOU HEI YA INTERNATIONAL HOLDINGS COMPANY LIMITED,"352,212,000",14.77%
 1478,Q TECHNOLOGY (GROUP) COMPANY LIMITED,"40,721,000",3.47%
 1508,CHINA REINSURANCE (GROUP) CORPORATION,"777,274,000",11.63%
 1513,LIVZON PHARMACEUTICAL GROUP INC.,"38,901,718",12.16%
 1515,CHINA RESOURCES MEDICAL HOLDINGS COMPANY LIMITED,"68,011,600",5.23%
 1521,FRONTAGE HOLDINGS CORPORATION,"212,752,000",10.46%
 1528,RED STAR MACALLINE GROUP CORPORATION LTD.,"116,746,722",17.31%
 1530,3SBIO INC.,"263,578,274",10.35%
 1533,"LANZHOU ZHUANGYUAN PASTURE CO., LTD.","7,818,500",22.25%
 1548,GENSCRIPT BIOTECH CORPORATION,"207,202,000",10.78%
 1551,"GUANGZHOU RURAL COMMERCIAL BANK CO., LTD","2,414,000",0.13%
 1558,"YICHANG HEC CHANGJIANG PHARMACEUTICAL CO., LTD.","152,101,800",35.57%
 1569,MINSHENG EDUCATION GROUP COMPANY LIMITED,"207,161,025",4.91%
 1573,SOUTHERN ENERGY HOLDINGS GROUP LIMITED,"126,862,000",17.66%
 1578,"BANK OF TIANJIN CO., LTD.","34,000",0.00%
 1579,YIHAI INTERNATIONAL HOLDING LTD.,"90,185,392",8.60%
 1583,QINQIN FOODSTUFFS GROUP (CAYMAN) COMPANY LIMITED,"24,400",0.00%
 1585,YADEA GROUP HOLDINGS LTD.,"274,294,000",9.15%
 1589,"CHINA LOGISTICS PROPERTY HOLDINGS CO., LTD","4,412,000",0.13%
 1600,CHINA TIAN LUN GAS HOLDINGS LIMITED,"14,890,000",1.48%
 1606,"CHINA DEVELOPMENT BANK FINANCIAL LEASING CO., LTD.","316,000",0.01%
 1608,VPOWER GROUP INTERNATIONAL HOLDINGS LIMITED,"2,074,000",0.07%
 1610,COFCO MEAT HOLDINGS LIMITED,"584,902,000",14.98%
 1618,METALLURGICAL CORPORATION OF CHINA LTD.,"435,617,000",15.17%
 1622,REDCO PROPERTIES GROUP LIMITED,"220,730,000",6.21%
 1628,YUZHOU GROUP HOLDINGS COMPANY LIMITED,"72,538,986",1.30%
 1635,"SHANGHAI DAZHONG PUBLIC UTILITIES (GROUP) CO., LTD.","75,199,000",14.08%
 1636,CHINA METAL RESOURCES UTILIZATION LIMITED,"34,624,000",1.31%
 1638,KAISA GROUP HOLDINGS LTD.,"467,386,619",7.63%
 1658,"POSTAL SAVINGS BANK OF CHINA CO., LTD.","226,821,831",1.13%
 1661,WISDOM SPORTS GROUP,"6,367,000",0.39%
 1666,TONG REN TANG TECHNOLOGIES CO LTD,"175,024,200",27.83%
 1668,CHINA SOUTH CITY HOLDINGS LIMITED,"773,363,543",9.55%
 1680,MACAU LEGEND DEVELOPMENT LIMITED,"126,786,000",2.04%
 1681,CONSUN PHARMACEUTICAL GROUP LIMITED,"25,084,000",3.00%
 1685,BOER POWER HOLDINGS LIMITED,"2,196,000",0.28%
 1686,SUNEVISION HOLDINGS LIMITED,"2,664,000",0.11%
 1691,JS GLOBAL LIFESTYLE COMPANY LIMITED,"2,624,000",0.06%
 1717,AUSNUTRIA DAIRY CORPORATION LTD,"94,877,000",5.86%
 1728,CHINA ZHENGTONG AUTO SERVICES HOLDINGS LIMITED,"403,779,000",14.95%
 1761,BABYTREE GROUP,"5,996,500",0.36%
 1765,"HOPE EDUCATION GROUP CO., LTD.","714,960,580",10.58%
 1766,CRRC CORPORATION LIMITED,"338,971,920",7.74%
 1772,"GANFENG LITHIUM CO., LTD.","113,781,655",56.83%
 1776,"GF SECURITIES CO., LTD.","515,076,100",30.26%
 1777,"FANTASIA HOLDINGS GROUP CO., LIMITED","405,463,000",7.02%
 1778,"COLOUR LIFE SERVICES GROUP CO., LIMITED","73,127,676",5.02%
 1787,"SHANDONG GOLD MINING CO., LTD.","162,661,861",32.54%
 1788,GUOTAI JUNAN INTERNATIONAL HOLDINGS LIMITED,"241,668,110",2.51%
 1789,AK MEDICAL HOLDINGS LIMITED,"95,481,955",8.57%
 1797,KOOLEARN TECHNOLOGY HOLDING LIMITED,"142,304,618",15.14%
 1800,CHINA COMMUNICATIONS CONSTRUCTION COMPANY LIMITED,"450,827,000",10.17%
 1806,HUIFU PAYMENT LIMITED,"18,819,200",1.44%
 1810,XIAOMI CORPORATION,"2,123,981,417",8.80%
 1811,"CGN NEW ENERGY HOLDINGS CO., LTD.","29,468,000",0.68%
 1812,SHANDONG CHENMING PAPER HOLDINGS LIMITED,"105,435,700",19.95%
 1813,KWG GROUP HOLDINGS LIMITED,"170,439,933",5.36%
 1816,"CGN POWER CO., LTD","2,417,333,000",21.65%
 1818,ZHAOJIN MINING INDUSTRY COMPANY LIMITED,"141,049,372",
 1829,CHINA MACHINERY ENGINEERING CORPORATION,"131,000",0.01%
 1833,PING AN HEALTHCARE AND TECHNOLOGY COMPANY LIMITED,"104,295,100",9.76%
 1836,STELLA INTERNATIONAL HOLDINGS LIMITED,"455,500",0.05%
 1848,CHINA AIRCRAFT LEASING GROUP HOLDINGS LIMITED,"11,002,049",1.55%
 1860,MOBVISTA INC.,"19,821,000",1.29%
 1873,VIVA BIOTECH HOLDINGS,"385,710,000",20.98%
 1876,BUDWEISER BREWING COMPANY APAC LIMITED,"19,312,300",0.13%
 1882,HAITIAN INTERNATIONAL HOLDINGS LIMITED,"32,316,000",2.02%
 1883,CITIC TELECOM INTERNATIONAL HOLDINGS LIMITED,"29,104,000",0.79%
 1886,CHINA HUIYUAN JUICE GROUP LIMITED,"125,355,500",4.69%
 1888,KINGBOARD LAMINATES HOLDINGS LIMITED,"8,753,595",0.28%
 1890,CHINA KEPEI EDUCATION GROUP LIMITED,"129,367,275",6.46%
 1896,MAOYAN ENTERTAINMENT,"33,786,600",2.97%
 1898,CHINA COAL ENERGY COMPANY LIMITED,"408,474,000",9.94%
 1905,"HAITONG UNITRUST INTERNATIONAL LEASING CO., LTD.","39,530,000",0.68%
 1907,CHINA RISUN GROUP LIMITED,"22,259,000",0.54%
 1908,C&D INTERNATIONAL INVESTMENT GROUP LIMITED,"83,637,000",7.10%
 1911,CHINA RENAISSANCE HOLDINGS LIMITED,"12,002,900",2.24%
 1916,"JIANGXI BANK CO., LTD.","10,789,000",0.80%
 1918,SUNAC CHINA HOLDINGS LIMITED,"785,783,474",16.85%
 1919,"COSCO SHIPPING HOLDINGS CO., LTD.","388,539,000",15.04%
 1928,SANDS CHINA LTD.,"59,006,893",0.72%
 1929,CHOW TAI FOOK JEWELLERY GROUP LIMITED,"43,632,400",0.42%
 1951,JINXIN FERTILITY GROUP LIMITED,"362,361,600",14.90%
 1958,BAIC MOTOR CORPORATION LIMITED,"79,226,000",3.13%
 1963,"BANK OF CHONGQING CO., LTD.","116,595,000",7.38%
 1966,CHINA SCE GROUP HOLDINGS LIMITED,"189,712,054",4.51%
 1970,"IMAX CHINA HOLDING, INC.","7,446,200",2.13%
 1972,SWIRE PROPERTIES LIMITED,"2,890,400",0.04%
 1980,TIAN GE INTERACTIVE HOLDINGS LIMITED,"26,267,000",2.05%
 1988,"CHINA MINSHENG BANKING CORP., LTD.","962,123,869",11.55%
 1992,FOSUN TOURISM GROUP,"902,800",0.07%
 1996,REDSUN PROPERTIES GROUP LIMITED,"69,688,000",2.09%
 1997,WHARF REAL ESTATE INVESTMENT COMPANY LIMITED,"4,532,425",0.14%
 1999,MAN WAH HOLDINGS LIMITED,"696,039,515",18.31%
 2001,CHINA NEW HIGHER EDUCATION GROUP LIMITED,"133,745,621",8.67%
 2003,VCREDIT HOLDINGS LIMITED,"2,141,800",0.43%
 2005,SSY GROUP LIMITED,"261,454,059",8.63%
 2007,COUNTRY GARDEN HOLDINGS COMPANY LIMITED,"256,326,541",1.17%
 2008,PHOENIX MEDIA INVESTMENT (HOLDINGS) LIMITED,"207,850,000",4.16%
 2009,BBMG CORPORATION,"281,042,500",12.01%
 2013,WEIMOB INC.,"469,638,197",20.83%
 2016,"CHINA ZHESHANG BANK CO., LTD.","8,458,000",0.18%
 2018,AAC TECHNOLOGIES HOLDINGS INC.,"95,141,771",7.87%
 2019,DEXIN CHINA HOLDINGS COMPANY LIMITED,"28,720,000",1.06%
 2020,ANTA SPORTS PRODUCTS LIMITED,"204,582,522",7.56%
 2038,FIH MOBILE LIMITED,"108,804,000",1.31%
 2039,"CHINA INTERNATIONAL MARINE CONTAINERS (GROUP) CO., LTD.","209,935,040",10.19%
 2048,E-HOUSE (CHINA) ENTERPRISE HOLDINGS LIMITED,"2,502,600",0.18%
 2051,51 CREDIT CARD INC.,"48,057,500",4.03%
 2066,"SHENGJING BANK CO., LTD.","206,000",0.00%
 2068,CHINA ALUMINUM INTERNATIONAL ENGINEERING CORPORATION LIMITED,"11,001,000",2.74%
 2098,ZALL SMART COMMERCE GROUP LTD.,"31,698,000",0.26%
 2099,CHINA GOLD INTERNATIONAL RESOURCES CORP. LTD.,"14,775,800",3.72%
 2103,SINIC HOLDINGS (GROUP) COMPANY LIMITED,"1,381,000",0.03%
 2111,BEST PACIFIC INTERNATIONAL HOLDINGS LIMITED,"1,430,000",0.13%
 2128,CHINA LESSO GROUP HOLDINGS LIMITED,"51,472,000",1.65%
 2136,LIFESTYLE CHINA GROUP LIMITED,"282,000",0.01%
 2186,LUYE PHARMA GROUP LTD.,"438,166,000",13.48%
 2196,"SHANGHAI FOSUN PHARMACEUTICAL (GROUP) CO., LTD.","197,990,398",35.86%
 2199,REGINA MIRACLE INTERNATIONAL (HOLDINGS) LIMITED,"2,914,000",0.23%
 2202,"CHINA VANKE CO., LTD.","219,574,347",11.59%
 2208,"XINJIANG GOLDWIND SCIENCE & TECHNOLOGY CO., LTD.","107,293,696",13.86%
 2232,CRYSTAL INTERNATIONAL GROUP LIMITED,"3,505,000",0.12%
 2233,WEST CHINA CEMENT LIMITED,"481,638,000",8.85%
 2238,"GUANGZHOU AUTOMOBILE GROUP CO., LTD.","1,200,046,491",38.72%
 2255,HAICHANG OCEAN PARK HOLDINGS LTD.,"341,335,000",8.53%
 2269,WUXI BIOLOGICS (CAYMAN) INC.,"105,006,618",7.73%
 2280,HC GROUP INC.,"107,542,000",8.20%
 2282,MGM CHINA HOLDINGS LIMITED,"28,441,096",0.74%
 2298,COSMO LADY (CHINA) HOLDINGS COMPANY LIMITED,"11,406,000",0.49%
 2313,SHENZHOU INTERNATIONAL GROUP HOLDINGS LIMITED,"49,410,860",3.28%
 2314,LEE & MAN PAPER MANUFACTURING LIMITED,"26,166,825",0.59%
 2318,"PING AN INSURANCE (GROUP) COMPANY OF CHINA, LTD.","109,441,345",1.46%
 2319,CHINA MENGNIU DAIRY COMPANY LIMITED,"73,861,994",1.87%
 2326,NEW PROVENANCE EVERLASTING HOLDINGS LIMITED,"55,940,000",0.25%
 2328,PICC PROPERTY AND CASUALTY COMPANY LIMITED,"512,973,341",7.43%
 2329,GUORUI PROPERTIES LIMITED,"152,789,000",3.43%
 2331,LI NING COMPANY LIMITED,"121,574,516",4.90%
 2333,GREAT WALL MOTOR COMPANY LIMITED,"1,039,194,096",33.52%
 2338,"WEICHAI POWER CO., LTD.","70,376,000",3.62%
 2343,PACIFIC BASIN SHIPPING LIMITED,"11,336,000",0.23%
 2356,DAH SING BANKING GROUP LIMITED,"200,000",0.01%
 2357,AVICHINA INDUSTRY & TECHNOLOGY COMPANY LIMITED,"404,111,000",6.49%
 2359,"WUXI APPTEC CO., LTD.","19,594,118",6.38%
 2362,JINCHUAN GROUP INTERNATIONAL RESOURCES CO. LTD.,"87,399,000",0.69%
 2363,TONGDA HONG TAI HOLDINGS LIMITED,"350,962",0.17%
 2369,COOLPAD GROUP LIMITED,"42,584,000",0.70%
 2380,CHINA POWER INTERNATIONAL DEVELOPMENT LIMITED,"621,249,438",6.32%
 2382,SUNNY OPTICAL TECHNOLOGY (GROUP) COMPANY LIMITED,"98,331,437",8.95%
 2386,"SINOPEC ENGINEERING (GROUP) CO., LTD.","33,625,000",2.29%
 2388,BOC HONG KONG (HOLDINGS) LIMITED,"14,047,945",0.12%
 2400,XD INC.,"51,772,361",11.40%
 2588,BOC AVIATION LIMITED,"9,833,400",1.41%
 2600,ALUMINUM CORPORATION OF CHINA LIMITED,"253,032,000",6.41%
 2601,CHINA PACIFIC INSURANCE (GROUP) CO. LTD.,"699,103,269",25.18%
 2607,"SHANGHAI PHARMACEUTICALS HOLDING CO., LTD.","97,497,866",10.59%
 2611,"GUOTAI JUNAN SECURITIES CO., LTD.","99,973,000",7.17%
 2628,CHINA LIFE INSURANCE COMPANY LIMITED,"274,975,706",3.68%
 2662,CAMSING INTERNATIONAL HOLDING LIMITED,"132,096,000",12.26%
 2666,GENERTEC UNIVERSAL MEDICAL GROUP COMPANY LIMITED,"328,981,000",19.16%
 2669,CHINA OVERSEAS PROPERTY HOLDINGS LIMITED,"297,908,316",9.06%
 2678,TEXHONG TEXTILE GROUP LIMITED,"31,411,000",3.43%
 2688,ENN ENERGY HOLDINGS LIMITED,"14,414,061",1.27%
 2689,NINE DRAGONS PAPER (HOLDINGS) LIMITED,"67,733,000",1.43%
 2727,SHANGHAI ELECTRIC GROUP COMPANY LIMITED,"818,607,000",27.53%
 2768,JIAYUAN INTERNATIONAL GROUP LIMITED,"350,617,183",
 2772,ZHONGLIANG HOLDINGS GROUP COMPANY LIMITED,"33,184,000",0.92%
 2777,"GUANGZHOU R&F PROPERTIES CO., LTD.","96,942,223",7.52%
 2799,"CHINA HUARONG ASSET MANAGEMENT CO., LTD.","2,271,861,000",9.07%
 2858,YIXIN GROUP LIMITED,"47,758,000",0.74%
 2866,"COSCO SHIPPING DEVELOPMENT CO., LTD.","575,606,000",15.65%
 2869,GREENTOWN SERVICE GROUP CO. LTD.,"322,130,899",
 2877,CHINA SHINEWAY PHARMACEUTICAL GROUP LIMITED,"25,289,000",3.05%
 2880,DALIAN PORT (PDA) COMPANY LIMITED,"896,987,400",17.38%
 2883,CHINA OILFIELD SERVICES LIMITED,"134,389,627",7.41%
 2888,STANDARD CHARTERED PLC,"397,770",0.01%
 2899,"ZIJIN MINING GROUP CO., LTD.","1,489,940,000",25.96%
 3301,RONSHINE CHINA HOLDINGS LIMITED,"132,842,500",7.80%
 3306,JNBY DESIGN LIMITED,"19,494,500",3.75%
 3308,GOLDEN EAGLE RETAIL GROUP LIMITED,"86,182,000",5.15%
 3309,C-MER EYE CARE HOLDINGS LIMITED,"68,412,000",5.98%
 3311,CHINA STATE CONSTRUCTION INTERNATIONAL HOLDINGS LIMITED,"29,148,192",0.57%
 3319,"A-LIVING SERVICES CO., LTD.","9,945,000",0.74%
 3320,CHINA RESOURCES PHARMACEUTICAL GROUP LIMITED,"162,805,000",2.58%
 3323,CHINA NATIONAL BUILDING MATERIAL COMPANY LIMITED,"1,005,153,660",25.97%
 3328,"BANK OF COMMUNICATIONS CO., LTD.","758,632,251",2.15%
 3329,BOCOM INTERNATIONAL HOLDINGS COMPANY LIMITED,"15,665,000",0.57%
 3331,VINDA INTERNATIONAL HOLDINGS LIMITED,"10,407,000",0.86%
 3333,CHINA EVERGRANDE GROUP,"134,355,355",1.02%
 3339,LONKING HOLDINGS LIMITED,"22,871,000",0.53%
 3360,FAR EAST HORIZON LIMITED,"118,964,000",2.99%
 3368,PARKSON RETAIL GROUP LIMITED,"5,669,500",0.21%
 3369,"QINHUANGDAO PORT CO., LTD.","78,098,500",9.40%
 3377,SINO-OCEAN GROUP HOLDING LIMITED,"148,806,310",1.95%
 3380,LOGAN GROUP COMPANY LIMITED,"157,179,871",2.84%
 3382,TIANJIN PORT DEVELOPMENT HOLDINGS LIMITED,"207,578,000",3.37%
 3383,AGILE GROUP HOLDINGS LIMITED,"41,181,548",1.04%
 3389,HENGDELI HOLDINGS LIMITED,"876,000",0.01%
 3393,WASION HOLDINGS LIMITED,"1,326,000",0.13%
 3396,LEGEND HOLDINGS CORPORATION,"74,638,100",5.85%
 3606,"FUYAO GLASS INDUSTRY GROUP CO., LTD","78,385,050",15.49%
 3613,BEIJING TONG REN TANG CHINESE MEDICINE COMPANY LIMITED,"81,357,000",9.71%
 3618,"CHONGQING RURAL COMMERCIAL BANK CO., LTD.","657,326,000",26.14%
 3633,ZHONGYU GAS HOLDINGS LIMITED,"18,221,000",0.68%
 3669,CHINA YONGDA AUTOMOBILES SERVICES HOLDINGS LIMITED,"118,349,000",6.00%
 3690,MEITUAN DIANPING,"300,349,707",5.10%
 3692,HANSOH PHARMACEUTICAL GROUP COMPANY LIMITED,"52,229,000",0.87%
 3698,HUISHANG BANK CORPORATION LIMITED,"4,766,400",0.12%
 3759,"PHARMARON BEIJING CO., LTD.","20,068,000",14.97%
 3788,CHINA HANKING HOLDINGS LIMITED,"16,380,000",0.90%
 3799,DALI FOODS GROUP COMPANY LIMITED,"396,089,000",2.88%
 3800,GCL-POLY ENERGY HOLDINGS LIMITED,"2,340,594,900",11.06%
 3808,SINOTRUK (HONG KONG) LIMITED,"135,818,366",4.91%
 3813,POU SHENG INTERNATIONAL (HOLDINGS) LIMITED,"5,125,000",0.09%
 3818,"CHINA DONGXIANG (GROUP) CO., LTD.","453,226,000",7.69%
 3836,CHINA HARMONY AUTO HOLDING LIMITED,"61,977,000",3.93%
 3866,"BANK OF QINGDAO CO., LTD.","1,121,500",0.06%
 3868,XINYI ENERGY HOLDINGS LIMITED,"35,306,000",0.52%
 3877,CSSC (HONG KONG) SHIPPING COMPANY LIMITED,"4,720,000",0.07%
 3883,CHINA AOYUAN GROUP LIMITED,"161,692,000",5.97%
 3886,TOWN HEALTH INTERNATIONAL MEDICAL GROUP LIMITED,"145,736,000",1.92%
 3888,KINGSOFT CORPORATION LIMITED,"380,656,032",27.72%
 3898,"ZHUZHOU CRRC TIMES ELECTRIC CO., LTD.","45,340,906",8.28%
 3899,CIMC ENRIC HOLDINGS LIMITED,"139,656,000",6.94%
 3900,GREENTOWN CHINA HOLDINGS LIMITED,"345,603,000",13.85%
 3908,CHINA INTERNATIONAL CAPITAL CORPORATION LIMITED,"313,345,281",16.45%
 3933,"UNITED LABORATORIES INTERNATIONAL HOLDINGS LIMITED, THE","192,901,948",10.58%
 3958,DFZQ,"378,204,785",36.81%
 3968,"CHINA MERCHANTS BANK CO., LTD.","175,183,903",3.81%
 3969,CHINA RAILWAY SIGNAL & COMMUNICATION CORPORATION LIMITED,"125,188,000",6.35%
 3988,BANK OF CHINA LIMITED,"8,159,781,205",9.75%
 3990,MIDEA REAL ESTATE HOLDING LIMITED,"54,340,200",4.41%
 3993,"CHINA MOLYBDENUM CO., LTD.","383,535,500",9.74%
 3996,CHINA ENERGY ENGINEERING CORPORATION LIMITED,"10,860,000",0.11%
 3998,BOSIDENG INTERNATIONAL HOLDINGS LIMITED,"706,298,000",6.55%
 6030,CITIC SECURITIES COMPANY LIMITED,"260,002,116",11.40%
 6049,"POLY PROPERTY SERVICES CO., LTD.","52,687,007",34.36%
 6055,CHINA TOBACCO INTERNATIONAL (HK) COMPANY LIMITED,"29,060,000",4.20%
 6060,"ZHONGAN ONLINE P & C INSURANCE CO., LTD.","28,190,700",5.99%
 6066,"CSC FINANCIAL CO., LTD.","310,283,500",24.60%
 6068,WISDOM EDUCATION INTERNATIONAL HOLDINGS COMPANY LIMITED,"110,376,000",5.39%
 6069,SHENG YE CAPITAL LIMITED,"14,928,000",1.69%
 6088,FIT HON TENG LIMITED,"377,256,000",5.47%
 6098,COUNTRY GARDEN SERVICES HOLDINGS COMPANY LIMITED,"221,386,169",8.01%
 6099,"CHINA MERCHANTS SECURITIES CO., LTD.","164,936,800",16.81%
 6100,TONGDAO LIEPIN GROUP,"85,400",0.01%
 6110,TOPSPORTS INTERNATIONAL HOLDINGS LIMITED,"18,436,000",0.29%
 6116,"SHANGHAI LA CHAPELLE FASHION CO., LTD.","71,444,400",33.25%
 6158,ZHENRO PROPERTIES GROUP LIMITED,"67,614,000",1.53%
 6166,CHINA VAST INDUSTRIAL URBAN DEVELOPMENT COMPANY LIMITED,"53,334,000",3.22%
 6169,CHINA YUHUA EDUCATION CORPORATION LIMITED,"556,325,614",16.65%
 6178,EVERBRIGHT SECURITIES COMPANY LIMITED,"84,521,000",12.00%
 6186,CHINA FEIHE LIMITED,"784,670,380",8.77%
 6196,"BANK OF ZHENGZHOU CO., LTD.","261,741,100",15.67%
 6198,"QINGDAO PORT INTERNATIONAL CO., LTD.","9,116,000",0.82%
 6806,"SHENWAN HONGYUAN GROUP CO., LTD.","165,384,000",6.60%
 6808,SUN ART RETAIL GROUP LIMITED,"64,916,023",0.67%
 6818,CHINA EVERBRIGHT BANK COMPANY LIMITED,"819,025,992",6.45%
 6828,BEIJING GAS BLUE SKY HOLDINGS LIMITED,"240,840,000",1.85%
 6837,"HAITONG SECURITIES CO., LTD.","780,979,400",22.90%
 6862,HAIDILAO INTERNATIONAL HOLDING LTD.,"164,815,029",3.09%
 6865,"FLAT GLASS GROUP CO., LTD.","175,543,000",39.00%
 6869,YANGTZE OPTICAL FIBRE AND CABLE JOINT STOCK LIMITED COMPANY,"17,810,500",5.06%
 6881,"CHINA GALAXY SECURITIES CO., LTD.","855,986,882",23.19%
 6886,"HUATAI SECURITIES CO., LTD.","432,422,409",25.15%
 6969,SMOORE INTERNATIONAL HOLDINGS LIMITED,"120,586,000",2.06%
 8328,XINYI AUTOMOBILE GLASS HONG KONG ENTERPRISES LIMITED,"109,750",0.01%
 9928,TIMES NEIGHBORHOOD HOLDINGS LIMITED,"7,321,324",0.74%
 9989,"SHENZHEN HEPALINK PHARMACEUTICAL GROUP CO., LTD.","1,898,500",0.86%
