Stock Code,Stock Name,Shareholding in CCASS,Percentage of the total number of Issued Shares
    1,CK HUTCHISON HOLDINGS LIMITED,"33,156,971",0.85%
    2,CLP HOLDINGS LIMITED,"5,639,452",0.22%
    3,"HONG KONG AND CHINA GAS COMPANY LIMITED, THE","21,845,047",0.12%
    4,"WHARF (HOLDINGS) LIMITED, THE","3,403,979",0.10%
    5,HSBC HOLDINGS PLC,"1,796,933,025",8.67%
    6,POWER ASSETS HOLDINGS LIMITED,"4,388,922",0.20%
    8,PCCW LIMITED,"10,072,776",0.12%
   10,HANG LUNG GROUP LIMITED,"13,385,000",0.97%
   11,HANG SENG BANK LTD,"2,641,805",0.13%
   12,HENDERSON LAND DEVELOPMENT CO LTD,"5,156,573",0.10%
   14,HYSAN DEVELOPMENT COMPANY LIMITED,"1,478,989",0.13%
   16,SUN HUNG KAI PROPERTIES LIMITED,"6,224,904",0.20%
   17,NEW WORLD DEVELOPMENT CO LTD,"27,808,528",0.26%
   19,SWIRE PACIFIC LTD 'A',"2,101,500",0.22%
   20,WHEELOCK AND COMPANY LIMITED,"444,467",0.01%
   23,BANK OF EAST ASIA LTD,"408,393",0.00%
   27,GALAXY ENTERTAINMENT GROUP LIMITED,"42,049,771",0.96%
   35,FAR EAST CONSORTIUM INTERNATIONAL LTD,"100,013",0.00%
   38,FIRST TRACTOR COMPANY LIMITED,"110,072,100",28.07%
   41,GREAT EAGLE HOLDINGS LIMITED,"1,428,511",0.19%
   42,NORTHEAST ELECTRIC DEVELOPMENT COMPANY LIMITED,"16,546,000",6.41%
   43,C.P. POKPHAND CO LTD,"852,000",0.00%
   45,"HONGKONG AND SHANGHAI HOTELS LTD,THE","42,513",0.00%
   59,SKYFAME REALTY (HOLDINGS) LIMITED,"63,450,000",0.79%
   66,MTR CORPORATION LIMITED,"6,000,683",0.09%
   69,SHANGRI-LA ASIA LIMITED,"15,608,000",0.43%
   78,REGAL HOTELS INTERNATIONAL HOLDINGS LIMITED,"16,000",0.00%
   81,CHINA OVERSEAS GRAND OCEANS GROUP LIMITED,"308,881,820",9.01%
   83,SINO LAND CO.LTD.,"11,441,976",0.15%
   86,SUN HUNG KAI & CO.LTD,"10,497,000",0.51%
   87,SWIRE PACIFIC LTD 'B',"16,395,000",0.54%
   95,LVGEM (CHINA) REAL ESTATE INVESTMENT COMPANY LIMITED,"156,506,000",3.09%
  101,HANG LUNG PROPERTIES LIMITED,"49,067,949",1.08%
  107,SICHUAN EXPRESSWAY COMPANY LIMITED,"221,130,000",24.69%
  109,GOOD RESOURCES HOLDINGS LIMITED,"44,730,000",0.62%
  116,CHOW SANG SANG HOLDINGS INTERNATIONAL LIMITED,"18,194,000",2.68%
  119,"POLY PROPERTY GROUP CO., LIMITED","351,301,748",9.58%
  120,COSMOPOLITAN INTERNATIONAL HOLDINGS LTD,"46,000",0.00%
  123,YUEXIU PROPERTY COMPANY LIMITED,"282,490,351",1.81%
  127,CHINESE ESTATES HOLDINGS LIMITED,"3,649,000",0.18%
  135,KUNLUN ENERGY COMPANY LIMITED,"139,837,000",1.60%
  136,HENGTEN NETWORKS GROUP LIMITED,"4,875,980,000",6.53%
  142,FIRST PACIFIC CO. LTD.,"9,404,000",0.20%
  144,CHINA MERCHANTS PORT HOLDINGS COMPANY LIMITED,"129,808,665",3.76%
  148,KINGBOARD HOLDINGS LIMITED,"17,274,636",1.55%
  151,WANT WANT CHINA HOLDINGS LIMITED,"26,635,871",0.20%
  152,SHENZHEN INTERNATIONAL HOLDINGS LIMITED,"59,592,957",2.75%
  163,EMPEROR INTERNATIONAL HOLDINGS LIMITED,"11,038,000",0.30%
  165,CHINA EVERBRIGHT LIMITED,"203,149,955",12.05%
  168,TSINGTAO BREWERY COMPANY LIMITED,"50,218,800",7.65%
  173,K. WAH INTERNATIONAL HOLDINGS LIMITED,"38,635,822",1.22%
  175,GEELY AUTOMOBILE HOLDINGS LIMITED,"728,510,984",7.41%
  177,JIANGSU EXPRESSWAY COMPANY LIMITED,"126,844,818",10.37%
  178,SA SA INTERNATIONAL HOLDINGS LIMITED,"10,173,268",0.32%
  179,JOHNSON ELECTRIC HOLDINGS LIMITED,"619,500",0.06%
  187,BEIJING JINGCHENG MACHINERY ELECTRIC COMPANY LIMITED,"28,940,000",28.93%
  189,DONGYUE GROUP LIMITED,"140,753,358",6.66%
  198,SMI HOLDINGS GROUP LIMITED,"70,340,800",2.59%
  200,MELCO INTERNATIONAL DEVELOPMENT LIMITED,"13,949,000",0.91%
  207,JOY CITY PROPERTY LIMITED,"5,564,000",0.03%
  215,HUTCHISON TELECOMMUNICATIONS HONG KONG HOLDINGS LIMITED,"8,308,000",0.16%
  220,UNI-PRESIDENT CHINA HOLDINGS LTD.,"7,389,000",0.16%
  241,ALIBABA HEALTH INFORMATION TECHNOLOGY LIMITED,"263,838,997",2.03%
  242,SHUN TAK HOLDINGS LIMITED,"86,326,000",2.84%
  245,CHINA MINSHENG FINANCIAL HOLDING CORPORATION LIMITED,"31,590,000",0.08%
  256,CITYCHAMP WATCH & JEWELLERY GROUP LIMITED,"330,968,000",7.60%
  257,CHINA EVERBRIGHT INTERNATIONAL LIMITED,"433,934,244",7.05%
  267,CITIC LIMITED,"115,792,916",0.39%
  268,KINGDEE INTERNATIONAL SOFTWARE GROUP COMPANY LIMITED,"362,674,172",10.88%
  270,GUANGDONG INVESTMENT LIMITED,"36,735,333",0.55%
  272,SHUI ON LAND LIMITED,"603,751,000",7.48%
  279,FREEMAN FINTECH CORPORATION LIMITED,"612,286,000",32.77%
  285,BYD ELECTRONIC (INTERNATIONAL) COMPANY LIMITED,"120,620,100",5.34%
  288,WH GROUP LIMITED,"1,188,455,783",8.05%
  291,CHINA RESOURCES BEER (HOLDINGS) COMPANY LIMITED,"235,496,803",7.25%
  293,CATHAY PACIFIC AIRWAYS LTD,"3,533,000",0.08%
  295,KONG SUN HOLDINGS LIMITED,"57,225,000",0.38%
  297,SINOFERT HOLDINGS LIMITED,"375,470,000",5.33%
  302,CMGE TECHNOLOGY GROUP LIMITED,"36,772,000",1.57%
  303,VTECH HOLDINGS LIMITED,"979,049",0.38%
  308,CHINA TRAVEL INTERNATIONAL INVESTMENT HONG KONG LIMITED,"185,508,439",3.34%
  315,SMARTONE TELECOMMUNICATIONS HOLDINGS LIMITED,"1,019,108",0.08%
  316,ORIENT OVERSEAS (INTERNATIONAL) LIMITED,"8,500",0.00%
  317,CSSC OFFSHORE & MARINE ENGINEERING (GROUP) COMPANY LIMITED,"17,274,200",2.91%
  321,TEXWINCA HOLDINGS LIMITED,"1,040,000",0.07%
  322,TINGYI (CAYMAN ISLANDS) HOLDING CORP.,"33,202,708",0.58%
  323,MAANSHAN IRON & STEEL COMPANY LIMITED,"24,420,000",1.40%
  327,PAX GLOBAL TECHNOLOGY LIMITED,"7,755,000",0.71%
  330,ESPRIT HOLDINGS LIMITED,"12,554,500",0.66%
  336,HUABAO INTERNATIONAL HOLDINGS LIMITED,"302,286,100",9.72%
  337,GREENLAND HONG KONG HOLDINGS LIMITED,"139,507,000",4.99%
  338,SINOPEC SHANGHAI PETROCHEMICAL COMPANY LIMITED,"300,636,375",8.60%
  341,CAFE DE CORAL HOLDINGS LTD,"1,520,000",0.25%
  345,VITASOY INTERNATIONAL HOLDINGS LTD,"7,514,011",0.69%
  347,ANGANG STEEL COMPANY LIMITED,"35,339,800",2.50%
  354,CHINASOFT INTERNATIONAL LIMITED,"375,089,152",14.29%
  358,JIANGXI COPPER COMPANY LIMITED,"49,272,219",3.54%
  363,SHANGHAI INDUSTRIAL HOLDINGS LIMITED,"21,002,100",1.92%
  371,BEIJING ENTERPRISES WATER GROUP LIMITED,"278,004,010",2.77%
  378,FDG KINETIC LIMITED,"183,780,000",2.72%
  384,CHINA GAS HOLDINGS LIMITED,"38,055,243",0.72%
  386,CHINA PETROLEUM & CHEMICAL CORPORATION,"1,432,480,498",5.60%
  388,HONG KONG EXCHANGES AND CLEARING LIMITED,"33,144,139",2.60%
  390,CHINA RAILWAY GROUP LIMITED,"273,272,030",6.49%
  392,BEIJING ENTERPRISES HOLDINGS LIMITED,"97,794,482",7.74%
  400,COGOBUY GROUP,"56,472,000",3.97%
  410,SOHO CHINA LIMITED,"330,791,500",6.35%
  412,CHINA SHANDONG HI-SPEED FINANCIAL GROUP LIMITED,"13,044,000",0.04%
  419,HUAYI TENCENT ENTERTAINMENT COMPANY LIMITED,"184,580,000",1.36%
  425,MINTH GROUP LIMITED,"98,042,445",8.51%
  439,KUANGCHI SCIENCE LIMITED,"316,973,000",5.14%
  440,DAH SING FINANCIAL HOLDINGS LTD,"1,617,266",0.50%
  451,GCL NEW ENERGY HOLDINGS LIMITED,"1,673,082,000",8.77%
  460,SIHUAN PHARMACEUTICAL HOLDINGS GROUP LTD.,"541,962,000",5.72%
  467,UNITED ENERGY GROUP LIMITED,"7,748,000",0.02%
  468,GREATVIEW ASEPTIC PACKAGING COMPANY LIMITED,"10,809,000",0.80%
  480,HKR INTERNATIONAL LTD,"261,680",0.01%
  488,LAI SUN DEVELOPMENT COMPANY LIMITED,"30,000",0.00%
  489,DONGFENG MOTOR GROUP COMPANY LIMITED,"186,146,000",6.51%
  493,GOME RETAIL HOLDINGS LIMITED,"2,355,464,000",10.92%
  496,KASEN INTERNATIONAL HOLDINGS LIMITED,"119,850,000",8.02%
  506,CHINA FOODS LIMITED,"47,358,100",1.69%
  508,DINGYI GROUP INVESTMENT LIMITED,"391,565,000",5.32%
  511,TELEVISION BROADCASTS LIMITED,"487,100",0.10%
  512,CHINA GRAND PHARMACEUTICAL AND HEALTHCARE HOLDINGS LIMITED,"100,835,200",2.98%
  517,"COSCO SHIPPING INTERNATIONAL (HONG KONG) CO., LTD.","422,000",0.02%
  520,"XIABUXIABU CATERING MANAGEMENT (CHINA) HOLDINGS CO., LTD.","75,750,000",7.00%
  522,ASM PACIFIC TECHNOLOGY LIMITED,"1,597,825",0.38%
  525,GUANGSHEN RAILWAY COMPANY LIMITED,"312,470,010",21.82%
  530,GOLDIN FINANCIAL HOLDINGS LIMITED,"2,920,000",0.04%
  535,GEMDALE PROPERTIES AND INVESTMENT CORPORATION LIMITED,"2,033,618,154",12.36%
  546,FUFENG GROUP LIMITED,"64,422,119",2.54%
  547,DIGITAL DOMAIN HOLDINGS LIMITED,"1,035,840,000",3.03%
  548,SHENZHEN EXPRESSWAY COMPANY LIMITED,"95,226,000",12.73%
  551,YUE YUEN INDUSTRIAL (HOLDINGS) LIMITED,"7,474,293",0.46%
  552,CHINA COMMUNICATIONS SERVICES CORPORATION LIMITED,"62,562,000",2.61%
  553,NANJING PANDA ELECTRONICS COMPANY LIMITED,"57,628,000",23.81%
  563,SHANGHAI INDUSTRIAL URBAN DEVELOPMENT GROUP LIMITED,"145,330,855",3.02%
  564,ZHENGZHOU COAL MINING MACHINERY GROUP COMPANY LIMITED,"69,068,278",28.39%
  568,SHANDONG MOLONG PETROLEUM MACHINERY COMPANY LIMITED,"54,626,400",21.32%
  570,CHINA TRADITIONAL CHINESE MEDICINE HOLDINGS CO LIMITED,"637,429,848",12.65%
  576,"ZHEJIANG EXPRESSWAY CO., LTD.","88,573,759",6.17%
  579,"BEIJING JINGNENG CLEAN ENERGY CO., LIMITED","175,078,000",6.18%
  581,CHINA ORIENTAL GROUP COMPANY LIMITED,"106,968,987",2.87%
  582,LANDING INTERNATIONAL DEVELOPMENT LIMITED,"112,357,200",3.18%
  586,CHINA CONCH VENTURE HOLDINGS LIMITED,"175,306,500",9.71%
  588,BEIJING NORTH STAR COMPANY LIMITED,"203,378,000",28.76%
  590,LUK FOOK HOLDINGS (INTERNATIONAL) LIMITED,"1,481,000",0.24%
  598,SINOTRANS LIMITED,"329,109,000",15.34%
  604,SHENZHEN INVESTMENT LIMITED,"42,183,461",0.47%
  607,FULLSHARE HOLDINGS LIMITED,"4,810,495,000",24.40%
  612,CHINA DING YI FENG HOLDINGS LIMITED,"2,472,000",0.18%
  631,SANY HEAVY EQUIPMENT INTERNATIONAL HOLDINGS COMPANY LIMITED,"215,783,000",6.93%
  636,KERRY LOGISTICS NETWORK LIMITED,"955,000",0.04%
  639,SHOUGANG FUSHAN RESOURCES GROUP LIMITED,"114,208,000",2.14%
  656,FOSUN INTERNATIONAL LIMITED,"924,801,742",10.86%
  658,"CHINA HIGH SPEED TRANSMISSION EQUIPMENT GROUP CO., LTD.","195,796,000",11.96%
  659,NWS HOLDINGS LIMITED,"4,091,719",0.09%
  665,HAITONG INTERNATIONAL SECURITIES GROUP LIMITED,"301,684,547",4.99%
  667,CHINA EAST EDUCATION HOLDINGS LIMITED,"100,864,000",4.59%
  669,TECHTRONIC INDUSTRIES CO. LTD.,"5,382,470",0.29%
  670,CHINA EASTERN AIRLINES CORPORATION LIMITED,"312,613,567",6.03%
  680,NAN HAI CORPORATION LIMITED,"542,800,000",0.78%
  683,KERRY PROPERTIES LIMITED,"5,445,124",0.36%
  686,PANDA GREEN ENERGY GROUP LIMITED,"298,112,000",1.32%
  687,TYSAN HOLDINGS LIMITED,"3,570,000",0.10%
  688,CHINA OVERSEAS LAND & INVESTMENT LIMITED,"87,544,039",0.79%
  691,CHINA SHANSHUI CEMENT GROUP LIMITED,"4,175,000",0.09%
  694,BEIJING CAPITAL INTERNATIONAL AIRPORT COMPANY LIMITED,"302,033,105",16.06%
  696,TRAVELSKY TECHNOLOGY LIMITED,"41,733,000",4.47%
  697,SHOUGANG CONCORD INTERNATIONAL ENTERPRISES COMPANY LIMITED,"10,485,610",0.15%
  698,TONGDA GROUP HOLDINGS LIMITED,"252,070,000",3.88%
  699,CAR INC.,"167,041,001",7.87%
  700,TENCENT HOLDINGS LIMITED,"262,032,051",2.73%
  709,GIORDANO INTERNATIONAL LIMITED,"2,160,000",0.13%
  715,CHINA OCEANWIDE HOLDINGS LIMITED,"460,000",0.00%
  718,TAI UNITED HOLDINGS LIMITED,"20,050,000",0.38%
  719,SHANDONG XINHUA PHARMACEUTICAL COMPANY LIMITED,"72,687,723",37.27%
  721,CHINA FINANCIAL INTERNATIONAL INVESTMENTS LIMITED,"305,700,000",2.78%
  728,CHINA TELECOM CORPORATION LIMITED,"337,931,238",2.42%
  729,FDG ELECTRIC VEHICLES LIMITED,"70,225,250",2.80%
  732,TRULY INTERNATIONAL HOLDINGS LIMITED,"310,428,000",9.43%
  737,SZ INVESTMENT HLDGS BAY AREA DEV CO LTD -HKD TRADED SHARES,"1,870,500",0.05%
  743,ASIA CEMENT (CHINA) HOLDINGS CORPORATION,"14,532,500",0.92%
  751,SKYWORTH GROUP LIMITED,"154,429,919",5.04%
  753,AIR CHINA LIMITED,"272,420,091",5.96%
  754,HOPSON DEVELOPMENT HOLDINGS LIMITED,"61,082,000",2.73%
  762,CHINA UNICOM (HONG KONG) LIMITED,"153,960,000",0.50%
  763,ZTE CORPORATION,"197,867,438",26.19%
  772,CHINA LITERATURE LIMITED,"59,715,426",5.86%
  775,"CK LIFE SCIENCES INT'L., (HOLDINGS) INC.","18,776,000",0.19%
  777,NETDRAGON WEBSOFT HOLDINGS LIMITED,"26,157,000",4.63%
  780,TONGCHENG-ELONG HOLDINGS LIMITED,"20,383,600",0.95%
  787,GLOBAL BRANDS GROUP HOLDING LIMITED,"66,887,633",6.49%
  788,CHINA TOWER CORPORATION LIMITED,"1,948,981,384",4.17%
  799,IGG INC,"127,692,298",10.26%
  806,VALUE PARTNERS GROUP LIMITED,"63,842,405",3.43%
  811,"XINHUA WINSHARE PUBLISHING AND MEDIA CO., LTD.","65,758,000",14.87%
  813,SHIMAO PROPERTY HOLDINGS LIMITED,"101,950,641",2.87%
  816,HUADIAN FUXIN ENERGY CORPORATION LIMITED,"6,394,000",0.24%
  817,CHINA JINMAO HOLDINGS GROUP LIMITED,"758,666,947",6.43%
  819,TIANNENG POWER INTERNATIONAL LIMITED,"179,856,000",15.96%
  826,TIANGONG INTERNATIONAL COMPANY LIMITED,"46,940,000",1.82%
  829,SHENGUAN HOLDINGS (GROUP) LIMITED,"141,052,000",4.36%
  832,CENTRAL CHINA REAL ESTATE LIMITED,"98,101,000",3.54%
  836,CHINA RESOURCES POWER HOLDINGS COMPANY LIMITED,"160,064,335",3.31%
  839,CHINA EDUCATION GROUP HOLDINGS LIMITED,"111,120,655",5.49%
  845,GLORIOUS PROPERTY HOLDINGS LIMITED,"23,365,000",0.29%
  846,MINGFA GROUP (INTERNATIONAL) COMPANY LIMITED,"5,261,000",0.08%
  853,MICROPORT SCIENTIFIC CORPORATION,"236,064,440",13.59%
  855,CHINA WATER AFFAIRS GROUP LIMITED,"181,168,334",11.29%
  856,VSTECS HOLDINGS LIMITED,"3,358,000",0.23%
  857,PETROCHINA COMPANY LIMITED,"1,696,920,455",8.03%
  860,APOLLO FUTURE MOBILITY GROUP LIMITED,"31,960,000",0.44%
  861,DIGITAL CHINA HOLDINGS LIMITED,"762,490,400",45.61%
  867,CHINA MEDICAL SYSTEM HOLDINGS LIMITED,"16,592,618",0.67%
  868,XINYI GLASS HOLDINGS LIMITED,"209,287,053",5.20%
  874,"GUANGZHOU BAIYUNSHAN PHARMACEUTICAL HOLDINGS CO., LTD.","62,330,100",28.34%
  880,SJM HOLDINGS LIMITED,"209,337,700",3.68%
  881,ZHONGSHENG GROUP HOLDINGS LIMITED,"46,501,313",2.04%
  883,CNOOC LIMITED,"440,079,295",0.97%
  884,CIFI HOLDINGS (GROUP) CO. LTD.,"398,254,891",
  885,RENTIAN TECHNOLOGY HOLDINGS LIMITED,"1,110,000",0.01%
  895,DONGJIANG ENVIRONMENTAL COMPANY LIMITED,"58,922,400",29.44%
  902,"HUANENG POWER INTERNATIONAL, INC.","1,942,081,624",41.31%
  906,CPMC HOLDINGS LIMITED,"21,928,000",1.90%
  911,QIANHAI HEALTH HOLDINGS LIMITED,"92,523,500",5.45%
  914,ANHUI CONCH CEMENT COMPANY LIMITED,"46,100,289",3.53%
  916,CHINA LONGYUAN POWER GROUP CORPORATION LIMITED,"201,285,000",6.02%
  921,"HISENSE HOME APPLIANCES GROUP CO., LTD.","48,456,459",10.54%
  931,CHINA LNG GROUP LIMITED,"174,761,000",3.08%
  933,BRIGHTOIL PETROLEUM (HOLDINGS) LIMITED,"25,254,000",0.24%
  934,SINOPEC KANTONS HOLDINGS LIMITED,"150,056,000",6.02%
  939,CHINA CONSTRUCTION BANK CORPORATION,"24,952,765,187",10.37%
  941,CHINA MOBILE LIMITED,"81,035,973",0.39%
  950,LEE'S PHARMACEUTICAL HOLDINGS LIMITED,"1,899,000",0.32%
  951,CHAOWEI POWER HOLDINGS LIMITED,"105,669,000",9.57%
  960,LONGFOR GROUP HOLDINGS LIMITED,"163,748,233",2.72%
  966,CHINA TAIPING INSURANCE HOLDINGS COMPANY LIMITED,"520,047,774",14.46%
  967,SOUND GLOBAL LTD.,"289,000",0.01%
  968,XINYI SOLAR HOLDINGS LIMITED,"1,133,429,809",14.01%
  976,CHIHO ENVIRONMENTAL GROUP LIMITED,"222,870,000",13.88%
  978,CHINA MERCHANTS LAND LIMITED,"94,608,000",1.92%
  981,SEMICONDUCTOR MANUFACTURING INTERNATIONAL CORPORATION,"1,208,068,079",21.83%
  989,GROUND INTERNATIONAL DEVELOPMENT LIMITED,"187,575,000",3.55%
  991,"DATANG INTERNATIONAL POWER GENERATION CO.,LTD.","322,684,000",5.27%
  992,LENOVO GROUP LIMITED,"81,192,476",0.66%
  995,ANHUI EXPRESSWAY COMPANY LIMITED,"110,478,000",22.40%
  996,CARNIVAL GROUP INTERNATIONAL HOLDINGS LIMITED,"6,099,442,500",25.73%
  998,CHINA CITIC BANK CORPORATION LIMITED,"2,092,182,649",14.05%
 1028,C.BANNER INTERNATIONAL HOLDINGS LIMITED,"147,238,000",7.08%
 1030,SEAZEN GROUP LIMITED,"314,986,500",5.06%
 1031,KINGSTON FINANCIAL GROUP LIMITED,"550,000",0.00%
 1033,SINOPEC OILFIELD SERVICE CORPORATION,"362,664,000",6.69%
 1038,CK INFRASTRUCTURE HOLDINGS LIMITED,"13,173,500",0.48%
 1044,HENGAN INTERNATIONAL GROUP COMPANY LIMITED,"18,611,000",1.55%
 1052,YUEXIU TRANSPORT INFRASTRUCTURE LIMITED,"62,898,000",3.75%
 1053,CHONGQING IRON & STEEL COMPANY LIMITED,"96,496,000",17.93%
 1055,CHINA SOUTHERN AIRLINES COMPANY LIMITED,"293,078,849",6.84%
 1057,ZHEJIANG SHIBAO COMPANY LIMITED,"44,375,000",20.46%
 1060,ALIBABA PICTURES GROUP LIMITED,"3,363,468,620",12.53%
 1065,TIANJIN CAPITAL ENVIRONMENTAL PROTECTION GROUP COMPANY LIMITED,"96,028,100",28.23%
 1066,SHANDONG WEIGAO GROUP MEDICAL POLYMER COMPANY LIMITED,"331,333,165",7.31%
 1068,CHINA YURUN FOOD GROUP LIMITED,"18,307,000",1.00%
 1070,TCL ELECTRONICS HOLDINGS LIMITED,"60,927,666",2.56%
 1071,HUADIAN POWER INTERNATIONAL CORPORATION LIMITED,"648,438,683",37.75%
 1072,DONGFANG ELECTRIC CORPORATION LIMITED,"106,325,846",31.26%
 1076,IMPERIAL PACIFIC INTERNATIONAL HOLDINGS LIMITED,"390,980,000",0.27%
 1083,TOWNGAS CHINA COMPANY LIMITED,"16,663,007",0.57%
 1086,GOODBABY INTERNATIONAL HOLDINGS LIMITED,"25,748,000",1.54%
 1088,CHINA SHENHUA ENERGY COMPANY LIMITED,"907,060,153",26.68%
 1089,LEYOU TECHNOLOGIES HOLDINGS LIMITED,"75,980,000",2.46%
 1093,CSPC PHARMACEUTICAL GROUP LIMITED,"281,543,667",4.51%
 1097,I-CABLE COMMUNICATIONS LIMITED,"101,191",0.00%
 1098,ROAD KING INFRASTRUCTURE LIMITED,"10,350,000",1.38%
 1099,SINOPHARM GROUP CO. LTD.,"57,435,043",4.27%
 1108,LUOYANG GLASS COMPANY LIMITED,"94,678,000",37.87%
 1109,CHINA RESOURCES LAND LIMITED,"98,370,005",1.37%
 1111,CHONG HING BANK LIMITED,"1,043,500",0.10%
 1112,HEALTH AND HAPPINESS (H&H) INTERNATIONAL HOLDINGS LIMITED,"44,557,000",6.91%
 1113,CK ASSET HOLDINGS LIMITED,"13,549,463",0.36%
 1114,BRILLIANCE CHINA AUTOMOTIVE HOLDINGS LIMITED,"181,070,401",3.58%
 1115,TIBET WATER RESOURCES LTD.,"161,127,000",6.27%
 1117,CHINA MODERN DAIRY HOLDINGS LTD.,"152,586,000",2.38%
 1119,IDREAMSKY TECHNOLOGY HOLDINGS LIMITED,"23,852,400",1.87%
 1128,"WYNN MACAU, LIMITED","57,842,959",1.10%
 1131,AGRITRADE RESOURCES LIMITED,"544,920,000",8.54%
 1138,"COSCO SHIPPING ENERGY TRANSPORTATION CO., LTD.","226,982,003",17.50%
 1140,OP FINANCIAL LIMITED,"99,592,000",3.43%
 1141,CMBC CAPITAL HOLDINGS LIMITED,"493,670,000",1.03%
 1157,"ZOOMLION HEAVY INDUSTRY SCIENCE AND TECHNOLOGY CO., LTD.","37,133,522",2.67%
 1165,SHUNFENG INTERNATIONAL CLEAN ENERGY LIMITED,"336,644,000",6.75%
 1169,"HAIER ELECTRONICS GROUP CO., LTD.","34,638,382",1.22%
 1171,YANZHOU COAL MINING COMPANY LIMITED,"313,715,736",16.26%
 1176,ZHUGUANG HOLDINGS GROUP COMPANY LIMITED,"195,216,000",2.71%
 1177,SINO BIOPHARMACEUTICAL LIMITED,"1,253,815,694",9.95%
 1186,CHINA RAILWAY CONSTRUCTION CORPORATION LIMITED,"66,920,657",3.21%
 1188,HYBRID KINETIC GROUP LIMITED,"103,500,000",0.50%
 1193,CHINA RESOURCES GAS GROUP LIMITED,"15,999,000",0.68%
 1196,REALORD GROUP HOLDINGS LIMITED,"117,854,000",8.19%
 1199,COSCO SHIPPING PORTS LIMITED,"23,734,965",0.74%
 1205,CITIC RESOURCES HOLDINGS LIMITED,"175,104,100",2.22%
 1208,MMG LIMITED,"379,174,000",4.69%
 1211,BYD COMPANY LIMITED,"58,776,309",6.42%
 1212,LIFESTYLE INTERNATIONAL HOLDINGS LIMITED,"3,385,812",0.22%
 1230,YASHILI INTERNATIONAL HOLDINGS LTD,"78,979,000",1.65%
 1233,TIMES CHINA HOLDINGS LIMITED,"92,374,757",4.74%
 1234,CHINA LILANG LIMITED,"47,097,962",3.93%
 1238,POWERLONG REAL ESTATE HOLDINGS LIMITED,"115,079,000",2.77%
 1250,BEIJING ENTERPRISES CLEAN ENERGY GROUP LIMITED,"1,643,700,000",2.58%
 1253,CHINA GREENLAND BROAD GREENSTATE GROUP COMPANY LIMITED,"6,500,000",0.19%
 1257,CHINA EVERBRIGHT GREENTECH LIMITED,"96,956,000",4.69%
 1268,CHINA MEIDONG AUTO HOLDINGS LIMITED,"45,160,000",3.88%
 1269,CHINA FIRST CAPITAL GROUP LIMITED,"1,157,284,000",23.01%
 1282,GLORY SUN FINANCIAL GROUP LIMITED,"3,467,856,000",11.04%
 1286,IMPRO PRECISION INDUSTRIES LIMITED,"515,000",0.02%
 1288,AGRICULTURAL BANK OF CHINA LIMITED,"8,264,746,435",26.88%
 1293,GRAND BAOXIN AUTO GROUP LIMITED,"147,397,009",5.18%
 1299,AIA GROUP LIMITED,"64,862,179",0.53%
 1302,LIFETECH SCIENTIFIC CORPORATION,"583,670,000",13.50%
 1308,SITC INTERNATIONAL HOLDINGS COMPANY LIMITED,"67,249,000",2.50%
 1310,HKBN LTD.,"6,000,000",0.45%
 1313,CHINA RESOURCES CEMENT HOLDINGS LIMITED,"66,101,915",0.94%
 1315,VISION FAME INTERNATIONAL HOLDING LIMITED,"733,014,000",12.21%
 1316,NEXTEER AUTOMOTIVE GROUP LIMITED,"44,798,000",1.78%
 1317,CHINA MAPLE LEAF EDUCATIONAL SYSTEMS LIMITED,"285,613,230",9.53%
 1330,"DYNAGREEN ENVIRONMENTAL PROTECTION GROUP CO., LTD","129,427,000",31.99%
 1333,CHINA ZHONGWANG HOLDINGS LIMITED,"293,834,000",5.38%
 1336,NEW CHINA LIFE INSURANCE COMPANY LTD.,"332,894,947",32.18%
 1339,"PEOPLE'S INSURANCE COMPANY (GROUP) OF CHINA LIMITED, THE","1,530,411,987",17.53%
 1347,HUA HONG SEMICONDUCTOR LIMITED,"65,225,783",5.05%
 1357,"MEITU, INC.","303,528,600",7.03%
 1359,"CHINA CINDA ASSET MANAGEMENT CO., LTD.","2,112,724,457",15.57%
 1361,361 DEGREES INTERNATIONAL LIMITED,"30,145,000",1.45%
 1363,CT ENVIRONMENTAL GROUP LIMITED,"502,874,000",7.95%
 1368,XTEP INTERNATIONAL HOLDINGS LIMITED,"47,199,396",1.87%
 1375,"CENTRAL CHINA SECURITIES CO., LTD.","256,410,000",21.44%
 1378,CHINA HONGQIAO GROUP LIMITED,"503,476,410",5.86%
 1381,CANVEST ENVIRONMENTAL PROTECTION GROUP COMPANY LIMITED,"27,562,000",1.12%
 1382,PACIFIC TEXTILES HOLDINGS LIMITED,"18,801,000",1.32%
 1383,SUNCITY GROUP HOLDINGS LIMITED,"25,770,000",0.38%
 1387,CHINA DILI GROUP,"156,079,330",2.72%
 1398,INDUSTRIAL AND COMMERCIAL BANK OF CHINA LIMITED,"23,898,491,890",27.52%
 1432,CHINA SHENGMU ORGANIC MILK LIMITED,"164,607,000",2.33%
 1448,FU SHOU YUAN INTERNATIONAL GROUP LIMITED,"231,403,838",10.09%
 1458,ZHOU HEI YA INTERNATIONAL HOLDINGS COMPANY LIMITED,"385,322,500",16.16%
 1478,Q TECHNOLOGY (GROUP) COMPANY LIMITED,"40,360,000",3.44%
 1508,CHINA REINSURANCE (GROUP) CORPORATION,"674,622,000",10.09%
 1513,LIVZON PHARMACEUTICAL GROUP INC.,"31,992,551",10.00%
 1515,CHINA RESOURCES MEDICAL HOLDINGS COMPANY LIMITED,"44,104,100",3.39%
 1521,FRONTAGE HOLDINGS CORPORATION,"193,506,000",9.57%
 1528,RED STAR MACALLINE GROUP CORPORATION LTD.,"108,294,462",16.06%
 1530,3SBIO INC.,"202,160,000",7.95%
 1533,"LANZHOU ZHUANGYUAN PASTURE CO., LTD.","7,075,500",20.14%
 1548,GENSCRIPT BIOTECH CORPORATION,"188,900,000",9.96%
 1551,"GUANGZHOU RURAL COMMERCIAL BANK CO., LTD","2,415,000",0.13%
 1558,"YICHANG HEC CHANGJIANG PHARMACEUTICAL CO., LTD.","55,079,400",25.24%
 1569,MINSHENG EDUCATION GROUP COMPANY LIMITED,"118,565,025",2.95%
 1573,SOUTHERN ENERGY HOLDINGS GROUP LIMITED,"126,862,000",17.66%
 1578,"BANK OF TIANJIN CO., LTD.","34,000",0.00%
 1579,YIHAI INTERNATIONAL HOLDING LTD.,"74,697,245",7.12%
 1583,QINQIN FOODSTUFFS GROUP (CAYMAN) COMPANY LIMITED,"25,600",0.00%
 1585,YADEA GROUP HOLDINGS LTD.,"249,660,000",8.33%
 1589,"CHINA LOGISTICS PROPERTY HOLDINGS CO., LTD","4,778,000",0.14%
 1600,CHINA TIAN LUN GAS HOLDINGS LIMITED,"12,528,000",1.25%
 1606,"CHINA DEVELOPMENT BANK FINANCIAL LEASING CO., LTD.","316,000",0.01%
 1608,VPOWER GROUP INTERNATIONAL HOLDINGS LIMITED,"1,261,000",0.04%
 1610,COFCO MEAT HOLDINGS LIMITED,"314,608,000",8.06%
 1618,METALLURGICAL CORPORATION OF CHINA LTD.,"412,940,000",14.37%
 1619,TIANHE CHEMICALS GROUP LIMITED,"193,880,000",0.78%
 1622,REDCO PROPERTIES GROUP LIMITED,"189,890,000",5.34%
 1628,YUZHOU PROPERTIES COMPANY LIMITED,"75,777,024",1.43%
 1635,"SHANGHAI DAZHONG PUBLIC UTILITIES (GROUP) CO., LTD.","66,852,000",12.51%
 1636,CHINA METAL RESOURCES UTILIZATION LIMITED,"35,096,000",1.33%
 1638,KAISA GROUP HOLDINGS LTD.,"398,706,619",6.52%
 1658,"POSTAL SAVINGS BANK OF CHINA CO., LTD.","256,849,141",1.29%
 1661,WISDOM SPORTS GROUP,"6,425,000",0.40%
 1666,TONG REN TANG TECHNOLOGIES CO LTD,"175,757,200",27.95%
 1668,CHINA SOUTH CITY HOLDINGS LIMITED,"754,002,396",9.31%
 1680,MACAU LEGEND DEVELOPMENT LIMITED,"129,965,000",2.09%
 1681,CONSUN PHARMACEUTICAL GROUP LIMITED,"27,956,000",3.30%
 1685,BOER POWER HOLDINGS LIMITED,"2,249,000",0.29%
 1686,SUNEVISION HOLDINGS LIMITED,"2,624,000",0.11%
 1691,JS GLOBAL LIFESTYLE COMPANY LIMITED,"2,046,000",0.05%
 1717,AUSNUTRIA DAIRY CORPORATION LTD,"89,151,000",5.52%
 1728,CHINA ZHENGTONG AUTO SERVICES HOLDINGS LIMITED,"211,516,500",8.61%
 1761,BABYTREE GROUP,"6,544,500",0.39%
 1765,"HOPE EDUCATION GROUP CO., LTD.","547,044,580",8.15%
 1766,CRRC CORPORATION LIMITED,"310,097,020",7.08%
 1772,"GANFENG LITHIUM CO., LTD.","106,063,455",52.98%
 1776,"GF SECURITIES CO., LTD.","470,924,500",27.67%
 1777,"FANTASIA HOLDINGS GROUP CO., LIMITED","400,922,500",6.95%
 1778,"COLOUR LIFE SERVICES GROUP CO., LIMITED","73,146,000",5.14%
 1787,"SHANDONG GOLD MINING CO., LTD.","138,002,511",27.61%
 1788,GUOTAI JUNAN INTERNATIONAL HOLDINGS LIMITED,"240,414,110",2.48%
 1789,AK MEDICAL HOLDINGS LIMITED,"80,366,000",7.22%
 1797,KOOLEARN TECHNOLOGY HOLDING LIMITED,"120,560,077",12.83%
 1800,CHINA COMMUNICATIONS CONSTRUCTION COMPANY LIMITED,"408,944,000",9.22%
 1806,HUIFU PAYMENT LIMITED,"34,857,200",2.69%
 1810,XIAOMI CORPORATION,"1,506,540,637",6.26%
 1811,"CGN NEW ENERGY HOLDINGS CO., LTD.","43,460,000",1.01%
 1812,SHANDONG CHENMING PAPER HOLDINGS LIMITED,"98,184,200",18.58%
 1813,KWG GROUP HOLDINGS LIMITED,"192,144,040",6.04%
 1816,"CGN POWER CO., LTD","2,337,969,000",20.93%
 1818,ZHAOJIN MINING INDUSTRY COMPANY LIMITED,"113,823,872",10.84%
 1829,CHINA MACHINERY ENGINEERING CORPORATION,"141,000",0.01%
 1833,PING AN HEALTHCARE AND TECHNOLOGY COMPANY LIMITED,"97,054,100",9.09%
 1836,STELLA INTERNATIONAL HOLDINGS LIMITED,"569,000",0.07%
 1848,CHINA AIRCRAFT LEASING GROUP HOLDINGS LIMITED,"8,236,500",1.22%
 1860,MOBVISTA INC.,"22,817,000",1.48%
 1873,VIVA BIOTECH HOLDINGS,"158,817,000",9.96%
 1876,BUDWEISER BREWING COMPANY APAC LIMITED,"21,088,900",0.15%
 1882,HAITIAN INTERNATIONAL HOLDINGS LIMITED,"22,255,000",1.38%
 1883,CITIC TELECOM INTERNATIONAL HOLDINGS LIMITED,"36,260,000",0.98%
 1886,CHINA HUIYUAN JUICE GROUP LIMITED,"125,355,500",4.69%
 1888,KINGBOARD LAMINATES HOLDINGS LIMITED,"10,821,095",0.34%
 1890,CHINA KEPEI EDUCATION GROUP LIMITED,"144,778,927",7.23%
 1896,MAOYAN ENTERTAINMENT,"24,397,800",2.15%
 1898,CHINA COAL ENERGY COMPANY LIMITED,"364,441,000",8.86%
 1905,"HAITONG UNITRUST INTERNATIONAL LEASING CO., LTD.","25,960,000",0.44%
 1907,CHINA RISUN GROUP LIMITED,"14,607,000",0.35%
 1908,C&D INTERNATIONAL INVESTMENT GROUP LIMITED,"85,333,000",7.25%
 1911,CHINA RENAISSANCE HOLDINGS LIMITED,"8,356,200",1.56%
 1916,"JIANGXI BANK CO., LTD.","10,789,000",0.80%
 1918,SUNAC CHINA HOLDINGS LIMITED,"851,966,853",18.29%
 1919,"COSCO SHIPPING HOLDINGS CO., LTD.","301,757,703",11.68%
 1928,SANDS CHINA LTD.,"53,779,293",0.66%
 1929,CHOW TAI FOOK JEWELLERY GROUP LIMITED,"47,106,200",0.46%
 1951,JINXIN FERTILITY GROUP LIMITED,"200,741,600",8.23%
 1958,BAIC MOTOR CORPORATION LIMITED,"81,982,500",3.24%
 1963,"BANK OF CHONGQING CO., LTD.","118,224,500",7.48%
 1966,CHINA SCE GROUP HOLDINGS LIMITED,"167,293,054",4.00%
 1970,"IMAX CHINA HOLDING, INC.","4,154,500",1.18%
 1972,SWIRE PROPERTIES LIMITED,"2,360,600",0.03%
 1980,TIAN GE INTERACTIVE HOLDINGS LIMITED,"27,019,000",2.11%
 1988,"CHINA MINSHENG BANKING CORP., LTD.","795,899,449",9.55%
 1992,FOSUN TOURISM GROUP,"1,035,400",0.07%
 1996,REDSUN PROPERTIES GROUP LIMITED,"60,364,000",1.81%
 1997,WHARF REAL ESTATE INVESTMENT COMPANY LIMITED,"5,091,958",0.15%
 1999,MAN WAH HOLDINGS LIMITED,"596,606,128",15.71%
 2001,CHINA NEW HIGHER EDUCATION GROUP LIMITED,"173,687,621",11.27%
 2003,VCREDIT HOLDINGS LIMITED,"2,151,800",0.43%
 2005,SSY GROUP LIMITED,"273,968,059",9.03%
 2007,COUNTRY GARDEN HOLDINGS COMPANY LIMITED,"248,404,496",1.13%
 2008,PHOENIX MEDIA INVESTMENT (HOLDINGS) LIMITED,"208,498,000",4.17%
 2009,BBMG CORPORATION,"246,713,500",10.54%
 2013,WEIMOB INC.,"445,010,153",19.88%
 2016,"CHINA ZHESHANG BANK CO., LTD.","2,856,000",0.06%
 2018,AAC TECHNOLOGIES HOLDINGS INC.,"72,247,541",5.97%
 2019,DEXIN CHINA HOLDINGS COMPANY LIMITED,"19,085,000",0.70%
 2020,ANTA SPORTS PRODUCTS LIMITED,"184,959,190",6.84%
 2038,FIH MOBILE LIMITED,"96,025,000",1.16%
 2039,"CHINA INTERNATIONAL MARINE CONTAINERS (GROUP) CO., LTD.","191,726,900",9.30%
 2048,E-HOUSE (CHINA) ENTERPRISE HOLDINGS LIMITED,"146,100",0.01%
 2051,51 CREDIT CARD INC.,"56,279,000",4.72%
 2066,"SHENGJING BANK CO., LTD.","241,500",0.01%
 2068,CHINA ALUMINUM INTERNATIONAL ENGINEERING CORPORATION LIMITED,"8,395,000",2.09%
 2098,ZALL SMART COMMERCE GROUP LTD.,"31,698,000",0.26%
 2099,CHINA GOLD INTERNATIONAL RESOURCES CORP. LTD.,"15,569,200",3.92%
 2103,SINIC HOLDINGS (GROUP) COMPANY LIMITED,"1,295,000",0.03%
 2111,BEST PACIFIC INTERNATIONAL HOLDINGS LIMITED,"1,614,000",0.15%
 2128,CHINA LESSO GROUP HOLDINGS LIMITED,"25,516,000",0.81%
 2136,LIFESTYLE CHINA GROUP LIMITED,"284,000",0.01%
 2186,LUYE PHARMA GROUP LTD.,"464,255,500",14.23%
 2196,"SHANGHAI FOSUN PHARMACEUTICAL (GROUP) CO., LTD.","205,884,725",37.29%
 2199,REGINA MIRACLE INTERNATIONAL (HOLDINGS) LIMITED,"2,929,000",0.23%
 2202,"CHINA VANKE CO., LTD.","200,461,807",12.70%
 2208,"XINJIANG GOLDWIND SCIENCE & TECHNOLOGY CO., LTD.","89,878,306",11.61%
 2232,CRYSTAL INTERNATIONAL GROUP LIMITED,"3,777,000",0.13%
 2233,WEST CHINA CEMENT LIMITED,"417,960,000",7.68%
 2238,"GUANGZHOU AUTOMOBILE GROUP CO., LTD.","1,081,153,091",34.88%
 2255,HAICHANG OCEAN PARK HOLDINGS LTD.,"65,350,000",1.63%
 2269,WUXI BIOLOGICS (CAYMAN) INC.,"99,268,250",7.61%
 2280,HC GROUP INC.,"114,199,500",8.64%
 2282,MGM CHINA HOLDINGS LIMITED,"30,532,696",0.79%
 2298,COSMO LADY (CHINA) HOLDINGS COMPANY LIMITED,"11,742,000",0.51%
 2313,SHENZHOU INTERNATIONAL GROUP HOLDINGS LIMITED,"61,363,439",4.07%
 2314,LEE & MAN PAPER MANUFACTURING LIMITED,"24,126,825",0.55%
 2318,"PING AN INSURANCE (GROUP) COMPANY OF CHINA, LTD.","127,166,365",1.69%
 2319,CHINA MENGNIU DAIRY COMPANY LIMITED,"51,189,035",1.29%
 2326,NEW PROVENANCE EVERLASTING HOLDINGS LIMITED,"55,970,000",0.25%
 2328,PICC PROPERTY AND CASUALTY COMPANY LIMITED,"553,099,641",8.00%
 2329,GUORUI PROPERTIES LIMITED,"150,947,000",3.39%
 2331,LI NING COMPANY LIMITED,"137,229,727",5.53%
 2333,GREAT WALL MOTOR COMPANY LIMITED,"920,968,533",29.70%
 2338,"WEICHAI POWER CO., LTD.","114,404,000",5.88%
 2343,PACIFIC BASIN SHIPPING LIMITED,"7,870,000",0.16%
 2356,DAH SING BANKING GROUP LIMITED,"200,000",0.01%
 2357,AVICHINA INDUSTRY & TECHNOLOGY COMPANY LIMITED,"391,181,000",6.25%
 2359,"WUXI APPTEC CO., LTD.","15,283,165",6.40%
 2362,JINCHUAN GROUP INTERNATIONAL RESOURCES CO. LTD.,"110,455,000",0.87%
 2363,TONGDA HONG TAI HOLDINGS LIMITED,"377,962",0.19%
 2369,COOLPAD GROUP LIMITED,"46,272,000",0.79%
 2380,CHINA POWER INTERNATIONAL DEVELOPMENT LIMITED,"620,019,106",6.32%
 2382,SUNNY OPTICAL TECHNOLOGY (GROUP) COMPANY LIMITED,"85,197,492",7.76%
 2386,"SINOPEC ENGINEERING (GROUP) CO., LTD.","30,151,000",2.05%
 2388,BOC HONG KONG (HOLDINGS) LIMITED,"20,550,445",0.19%
 2400,XD INC.,"28,584,561",6.67%
 2588,BOC AVIATION LIMITED,"15,912,083",2.28%
 2600,ALUMINUM CORPORATION OF CHINA LIMITED,"294,264,000",7.46%
 2601,CHINA PACIFIC INSURANCE (GROUP) CO. LTD.,"684,685,254",24.66%
 2607,"SHANGHAI PHARMACEUTICALS HOLDING CO., LTD.","119,394,166",12.98%
 2611,"GUOTAI JUNAN SECURITIES CO., LTD.","76,672,000",5.50%
 2628,CHINA LIFE INSURANCE COMPANY LIMITED,"228,447,593",3.06%
 2662,CAMSING INTERNATIONAL HOLDING LIMITED,"132,096,000",12.26%
 2666,GENERTEC UNIVERSAL MEDICAL GROUP COMPANY LIMITED,"340,025,000",19.81%
 2669,CHINA OVERSEAS PROPERTY HOLDINGS LIMITED,"275,538,316",8.38%
 2678,TEXHONG TEXTILE GROUP LIMITED,"30,359,000",3.31%
 2688,ENN ENERGY HOLDINGS LIMITED,"16,850,790",1.48%
 2689,NINE DRAGONS PAPER (HOLDINGS) LIMITED,"61,425,000",1.29%
 2727,SHANGHAI ELECTRIC GROUP COMPANY LIMITED,"797,619,000",26.82%
 2768,JIAYUAN INTERNATIONAL GROUP LIMITED,"337,567,374",8.55%
 2772,ZHONGLIANG HOLDINGS GROUP COMPANY LIMITED,"14,812,500",0.41%
 2777,"GUANGZHOU R&F PROPERTIES CO., LTD.","84,281,823",6.53%
 2799,"CHINA HUARONG ASSET MANAGEMENT CO., LTD.","2,198,046,000",8.76%
 2858,YIXIN GROUP LIMITED,"87,260,000",1.36%
 2866,"COSCO SHIPPING DEVELOPMENT CO., LTD.","556,873,000",15.14%
 2869,GREENTOWN SERVICE GROUP CO. LTD.,"250,602,899",8.48%
 2877,CHINA SHINEWAY PHARMACEUTICAL GROUP LIMITED,"21,343,000",2.57%
 2880,DALIAN PORT (PDA) COMPANY LIMITED,"924,991,000",17.92%
 2883,CHINA OILFIELD SERVICES LIMITED,"191,197,627",10.55%
 2888,STANDARD CHARTERED PLC,"398,620",0.01%
 2899,"ZIJIN MINING GROUP CO., LTD.","1,371,888,000",23.90%
 3301,RONSHINE CHINA HOLDINGS LIMITED,"130,436,500",7.64%
 3306,JNBY DESIGN LIMITED,"24,303,000",4.68%
 3308,GOLDEN EAGLE RETAIL GROUP LIMITED,"114,995,000",6.85%
 3309,C-MER EYE CARE HOLDINGS LIMITED,"38,830,000",3.60%
 3311,CHINA STATE CONSTRUCTION INTERNATIONAL HOLDINGS LIMITED,"18,788,192",0.36%
 3319,"A-LIVING SERVICES CO., LTD.","16,517,750",3.81%
 3320,CHINA RESOURCES PHARMACEUTICAL GROUP LIMITED,"136,940,500",2.17%
 3323,CHINA NATIONAL BUILDING MATERIAL COMPANY LIMITED,"971,938,099",25.12%
 3328,"BANK OF COMMUNICATIONS CO., LTD.","730,021,562",2.08%
 3329,BOCOM INTERNATIONAL HOLDINGS COMPANY LIMITED,"16,573,000",0.60%
 3331,VINDA INTERNATIONAL HOLDINGS LIMITED,"10,930,000",0.90%
 3333,CHINA EVERGRANDE GROUP,"188,422,355",1.42%
 3339,LONKING HOLDINGS LIMITED,"29,506,000",0.68%
 3360,FAR EAST HORIZON LIMITED,"118,972,000",2.99%
 3368,PARKSON RETAIL GROUP LIMITED,"5,679,500",0.21%
 3369,"QINHUANGDAO PORT CO., LTD.","75,548,500",9.10%
 3377,SINO-OCEAN GROUP HOLDING LIMITED,"148,533,310",1.94%
 3380,LOGAN PROPERTY HOLDINGS COMPANY LIMITED- 1000,"160,446,871",2.90%
 3382,TIANJIN PORT DEVELOPMENT HOLDINGS LIMITED,"211,932,000",3.44%
 3383,AGILE GROUP HOLDINGS LIMITED,"36,133,548",0.91%
 3389,HENGDELI HOLDINGS LIMITED,"876,000",0.01%
 3393,WASION HOLDINGS LIMITED,"1,326,000",0.13%
 3396,LEGEND HOLDINGS CORPORATION,"57,245,400",4.50%
 3606,"FUYAO GLASS INDUSTRY GROUP CO., LTD","58,922,000",11.64%
 3613,BEIJING TONG REN TANG CHINESE MEDICINE COMPANY LIMITED,"82,958,000",9.91%
 3618,"CHONGQING RURAL COMMERCIAL BANK CO., LTD.","614,325,000",24.44%
 3633,ZHONGYU GAS HOLDINGS LIMITED,"15,793,000",0.59%
 3669,CHINA YONGDA AUTOMOBILES SERVICES HOLDINGS LIMITED,"38,166,000",
 3690,MEITUAN DIANPING,"261,748,732",4.48%
 3692,HANSOH PHARMACEUTICAL GROUP COMPANY LIMITED,"44,203,000",0.74%
 3698,HUISHANG BANK CORPORATION LIMITED,"4,770,800",0.12%
 3759,"PHARMARON BEIJING CO., LTD.","11,990,700",8.94%
 3788,CHINA HANKING HOLDINGS LIMITED,"16,439,000",0.90%
 3799,DALI FOODS GROUP COMPANY LIMITED,"389,845,000",2.84%
 3800,GCL-POLY ENERGY HOLDINGS LIMITED,"2,476,795,900",12.48%
 3808,SINOTRUK (HONG KONG) LIMITED,"143,292,866",5.18%
 3813,POU SHENG INTERNATIONAL (HOLDINGS) LIMITED,"6,102,000",0.11%
 3818,"CHINA DONGXIANG (GROUP) CO., LTD.","247,849,000",4.21%
 3836,CHINA HARMONY NEW ENERGY AUTO HOLDING LIMITED,"63,817,000",4.05%
 3866,"BANK OF QINGDAO CO., LTD.","773,000",0.04%
 3868,XINYI ENERGY HOLDINGS LIMITED,"11,638,000",0.17%
 3877,CSSC (HONG KONG) SHIPPING COMPANY LIMITED,"4,176,000",0.06%
 3883,CHINA AOYUAN GROUP LIMITED,"185,181,000",6.84%
 3886,TOWN HEALTH INTERNATIONAL MEDICAL GROUP LIMITED,"145,736,000",1.92%
 3888,KINGSOFT CORPORATION LIMITED,"326,078,478",23.75%
 3898,"ZHUZHOU CRRC TIMES ELECTRIC CO., LTD.","22,988,106",4.19%
 3899,CIMC ENRIC HOLDINGS LIMITED,"134,794,000",6.70%
 3900,GREENTOWN CHINA HOLDINGS LIMITED,"345,548,000",13.85%
 3908,CHINA INTERNATIONAL CAPITAL CORPORATION LIMITED,"268,389,518",14.09%
 3933,"UNITED LABORATORIES INTERNATIONAL HOLDINGS LIMITED, THE","149,054,181",8.54%
 3958,DFZQ,"380,982,739",37.08%
 3968,"CHINA MERCHANTS BANK CO., LTD.","182,915,949",3.97%
 3969,CHINA RAILWAY SIGNAL & COMMUNICATION CORPORATION LIMITED,"108,532,000",5.50%
 3988,BANK OF CHINA LIMITED,"8,277,220,858",9.89%
 3990,MIDEA REAL ESTATE HOLDING LIMITED,"34,686,400",2.81%
 3993,"CHINA MOLYBDENUM CO., LTD.","343,595,500",8.72%
 3996,CHINA ENERGY ENGINEERING CORPORATION LIMITED,"11,080,000",0.11%
 3998,BOSIDENG INTERNATIONAL HOLDINGS LIMITED,"673,306,000",6.26%
 6030,CITIC SECURITIES COMPANY LIMITED,"266,740,075",11.70%
 6049,"POLY PROPERTY DEVELOPMENT CO., LTD.","32,793,600",21.38%
 6055,CHINA TOBACCO INTERNATIONAL (HK) COMPANY LIMITED,"22,506,000",3.25%
 6060,"ZHONGAN ONLINE P & C INSURANCE CO., LTD.","22,293,000",4.74%
 6066,"CSC FINANCIAL CO., LTD.","288,410,000",22.86%
 6068,WISDOM EDUCATION INTERNATIONAL HOLDINGS COMPANY LIMITED,"101,088,000",4.93%
 6069,SHENG YE CAPITAL LIMITED,"7,680,000",0.87%
 6088,FIT HON TENG LIMITED,"167,841,000",2.43%
 6098,COUNTRY GARDEN SERVICES HOLDINGS COMPANY LIMITED,"188,244,492",6.82%
 6099,"CHINA MERCHANTS SECURITIES CO., LTD.","129,678,000",13.22%
 6100,"WISE TALENT INFORMATION TECHNOLOGY CO., LTD","86,200",0.01%
 6110,TOPSPORTS INTERNATIONAL HOLDINGS LIMITED,"13,642,000",0.21%
 6116,"SHANGHAI LA CHAPELLE FASHION CO., LTD.","68,963,000",32.10%
 6158,ZHENRO PROPERTIES GROUP LIMITED,"63,670,000",1.44%
 6166,CHINA VAST INDUSTRIAL URBAN DEVELOPMENT COMPANY LIMITED,"48,030,000",2.90%
 6169,CHINA YUHUA EDUCATION CORPORATION LIMITED,"533,259,614",15.96%
 6178,EVERBRIGHT SECURITIES COMPANY LIMITED,"101,133,600",14.35%
 6186,CHINA FEIHE LIMITED,"844,436,827",9.45%
 6196,"BANK OF ZHENGZHOU CO., LTD.","215,173,000",14.17%
 6198,"QINGDAO PORT INTERNATIONAL CO., LTD.","9,698,000",0.87%
 6806,"SHENWAN HONGYUAN GROUP CO., LTD.","94,287,200",3.76%
 6808,SUN ART RETAIL GROUP LIMITED,"65,307,500",0.67%
 6818,CHINA EVERBRIGHT BANK COMPANY LIMITED,"834,890,992",6.57%
 6828,BEIJING GAS BLUE SKY HOLDINGS LIMITED,"258,888,000",1.99%
 6837,"HAITONG SECURITIES CO., LTD.","673,375,000",19.74%
 6862,HAIDILAO INTERNATIONAL HOLDING LTD.,"144,997,552",2.73%
 6865,"FLAT GLASS GROUP CO., LTD.","201,719,000",44.82%
 6869,YANGTZE OPTICAL FIBRE AND CABLE JOINT STOCK LIMITED COMPANY,"22,125,500",6.28%
 6881,"CHINA GALAXY SECURITIES CO., LTD.","882,547,882",23.90%
 6886,"HUATAI SECURITIES CO., LTD.","428,234,409",24.90%
 8328,XINYI AUTOMOBILE GLASS HONG KONG ENTERPRISES LIMITED,"109,750",0.01%
 9928,TIMES NEIGHBORHOOD HOLDINGS LIMITED,"8,006,712",0.87%
