Stock Code,Stock Name,Shareholding in CCASS,Percentage of the total number of Issued Shares
    1,CK HUTCHISON HOLDINGS LIMITED,"30,093,895",0.77%
    2,CLP HOLDINGS LIMITED,"4,402,952",0.16%
    3,"HONG KONG AND CHINA GAS COMPANY LIMITED, THE","24,563,088",0.13%
    4,"WHARF (HOLDINGS) LIMITED, THE","2,535,983",0.08%
    5,HSBC HOLDINGS PLC,"1,564,967,088",7.57%
    6,POWER ASSETS HOLDINGS LIMITED,"6,761,422",0.30%
    8,PCCW LIMITED,"10,405,352",0.12%
   10,HANG LUNG GROUP LIMITED,"9,124,000",0.66%
   11,HANG SENG BANK LTD,"4,003,688",0.20%
   12,HENDERSON LAND DEVELOPMENT CO LTD,"6,400,073",0.12%
   14,HYSAN DEVELOPMENT COMPANY LIMITED,"779,989",0.06%
   16,SUN HUNG KAI PROPERTIES LIMITED,"8,368,404",0.28%
   17,NEW WORLD DEVELOPMENT CO LTD,"35,653,528",0.34%
   19,SWIRE PACIFIC LTD 'A',"994,500",0.10%
   20,WHEELOCK AND COMPANY LIMITED,"404,467",0.01%
   23,BANK OF EAST ASIA LTD,"568,593",0.01%
   27,GALAXY ENTERTAINMENT GROUP LIMITED,"43,558,357",0.99%
   35,FAR EAST CONSORTIUM INTERNATIONAL LTD,"183,013",0.00%
   38,FIRST TRACTOR COMPANY LIMITED,"98,098,100",25.02%
   41,GREAT EAGLE HOLDINGS LIMITED,"1,449,511",0.20%
   42,NORTHEAST ELECTRIC DEVELOPMENT COMPANY LIMITED,"17,224,000",6.67%
   43,C.P. POKPHAND CO LTD,"858,000",0.00%
   45,"HONGKONG AND SHANGHAI HOTELS LTD,THE","66,013",0.00%
   59,SKYFAME REALTY (HOLDINGS) LIMITED,"34,048,000",0.42%
   66,MTR CORPORATION LIMITED,"10,390,911",0.15%
   69,SHANGRI-LA ASIA LIMITED,"6,278,000",0.17%
   78,REGAL HOTELS INTERNATIONAL HOLDINGS LIMITED,"16,000",0.00%
   81,CHINA OVERSEAS GRAND OCEANS GROUP LIMITED,"243,141,320",7.09%
   83,SINO LAND CO.LTD.,"8,817,929",0.12%
   86,SUN HUNG KAI & CO.LTD,"9,190,000",0.45%
   87,SWIRE PACIFIC LTD 'B',"13,487,500",0.44%
   95,LVGEM (CHINA) REAL ESTATE INVESTMENT COMPANY LIMITED,"146,524,000",2.90%
  101,HANG LUNG PROPERTIES LIMITED,"9,930,949",0.21%
  107,SICHUAN EXPRESSWAY COMPANY LIMITED,"191,740,000",21.40%
  109,GOOD RESOURCES HOLDINGS LIMITED,"46,940,000",0.65%
  116,CHOW SANG SANG HOLDINGS INTERNATIONAL LIMITED,"24,000",0.00%
  119,"POLY PROPERTY GROUP CO., LIMITED","314,278,748",8.57%
  123,YUEXIU PROPERTY COMPANY LIMITED,"253,054,351",1.63%
  127,CHINESE ESTATES HOLDINGS LIMITED,"4,734,000",0.23%
  135,KUNLUN ENERGY COMPANY LIMITED,"170,533,057",1.96%
  136,HENGTEN NETWORKS GROUP LIMITED,"4,703,560,000",6.30%
  142,FIRST PACIFIC CO. LTD.,"51,210,000",1.17%
  144,CHINA MERCHANTS PORT HOLDINGS COMPANY LIMITED,"78,387,648",2.26%
  148,KINGBOARD HOLDINGS LIMITED,"22,518,136",2.02%
  151,WANT WANT CHINA HOLDINGS LIMITED,"17,618,871",0.14%
  152,SHENZHEN INTERNATIONAL HOLDINGS LIMITED,"64,438,387",2.97%
  163,EMPEROR INTERNATIONAL HOLDINGS LIMITED,"11,748,000",0.31%
  165,CHINA EVERBRIGHT LIMITED,"116,027,955",6.87%
  168,TSINGTAO BREWERY COMPANY LIMITED,"52,521,698",8.00%
  173,K. WAH INTERNATIONAL HOLDINGS LIMITED,"36,317,822",1.15%
  175,GEELY AUTOMOBILE HOLDINGS LIMITED,"815,581,462",8.86%
  177,JIANGSU EXPRESSWAY COMPANY LIMITED,"58,732,818",4.79%
  178,SA SA INTERNATIONAL HOLDINGS LIMITED,"18,011,635",0.57%
  179,JOHNSON ELECTRIC HOLDINGS LIMITED,"539,500",0.05%
  187,BEIJING JINGCHENG MACHINERY ELECTRIC COMPANY LIMITED,"26,708,000",26.70%
  189,DONGYUE GROUP LIMITED,"119,979,358",5.68%
  198,SMI HOLDINGS GROUP LIMITED,"70,340,800",2.59%
  200,MELCO INTERNATIONAL DEVELOPMENT LIMITED,"7,971,000",0.52%
  207,JOY CITY PROPERTY LIMITED,"5,614,000",0.03%
  215,HUTCHISON TELECOMMUNICATIONS HONG KONG HOLDINGS LIMITED,"6,648,000",0.13%
  220,UNI-PRESIDENT CHINA HOLDINGS LTD.,"4,088,000",0.08%
  241,ALIBABA HEALTH INFORMATION TECHNOLOGY LIMITED,"403,113,021",3.34%
  242,SHUN TAK HOLDINGS LIMITED,"82,874,000",2.74%
  245,CHINA MINSHENG FINANCIAL HOLDING CORPORATION LIMITED,"32,030,000",0.08%
  256,CITYCHAMP WATCH & JEWELLERY GROUP LIMITED,"307,542,000",7.06%
  257,CHINA EVERBRIGHT INTERNATIONAL LIMITED,"235,311,799",3.82%
  267,CITIC LIMITED,"35,977,916",0.12%
  268,KINGDEE INTERNATIONAL SOFTWARE GROUP COMPANY LIMITED,"323,955,580",9.75%
  270,GUANGDONG INVESTMENT LIMITED,"36,207,299",0.54%
  272,SHUI ON LAND LIMITED,"551,120,846",6.83%
  279,FREEMAN FINTECH CORPORATION LIMITED,"616,348,000",32.99%
  285,BYD ELECTRONIC (INTERNATIONAL) COMPANY LIMITED,"147,952,400",6.56%
  288,WH GROUP LIMITED,"1,114,458,106",7.57%
  291,CHINA RESOURCES BEER (HOLDINGS) COMPANY LIMITED,"163,787,614",5.04%
  293,CATHAY PACIFIC AIRWAYS LTD,"4,068,000",0.09%
  295,KONG SUN HOLDINGS LIMITED,"59,100,000",0.39%
  297,SINOFERT HOLDINGS LIMITED,"367,876,000",5.23%
  303,VTECH HOLDINGS LIMITED,"1,219,520",0.47%
  308,CHINA TRAVEL INTERNATIONAL INVESTMENT HONG KONG LIMITED,"187,596,439",3.38%
  315,SMARTONE TELECOMMUNICATIONS HOLDINGS LIMITED,"1,354,911",0.12%
  316,ORIENT OVERSEAS (INTERNATIONAL) LIMITED,"19,000",0.00%
  317,CSSC OFFSHORE & MARINE ENGINEERING (GROUP) COMPANY LIMITED,"16,136,200",2.72%
  321,TEXWINCA HOLDINGS LIMITED,"1,150,000",0.08%
  322,TINGYI (CAYMAN ISLANDS) HOLDING CORP.,"21,742,708",0.37%
  323,MAANSHAN IRON & STEEL COMPANY LIMITED,"28,132,000",1.61%
  327,PAX GLOBAL TECHNOLOGY LIMITED,"7,815,000",0.71%
  330,ESPRIT HOLDINGS LIMITED,"79,165,300",4.19%
  336,HUABAO INTERNATIONAL HOLDINGS LIMITED,"249,246,100",8.01%
  337,GREENLAND HONG KONG HOLDINGS LIMITED,"126,508,000",4.53%
  338,SINOPEC SHANGHAI PETROCHEMICAL COMPANY LIMITED,"141,172,375",4.03%
  341,CAFE DE CORAL HOLDINGS LTD,"1,764,000",0.29%
  345,VITASOY INTERNATIONAL HOLDINGS LTD,"15,620,000",1.46%
  347,ANGANG STEEL COMPANY LIMITED,"41,520,000",2.94%
  354,CHINASOFT INTERNATIONAL LIMITED,"356,508,507",14.01%
  358,JIANGXI COPPER COMPANY LIMITED,"45,997,219",3.30%
  363,SHANGHAI INDUSTRIAL HOLDINGS LIMITED,"20,708,100",1.89%
  371,BEIJING ENTERPRISES WATER GROUP LIMITED,"259,180,010",2.57%
  378,FDG KINETIC LIMITED,"185,480,000",2.74%
  384,CHINA GAS HOLDINGS LIMITED,"21,073,843",0.39%
  386,CHINA PETROLEUM & CHEMICAL CORPORATION,"697,379,595",2.73%
  388,HONG KONG EXCHANGES AND CLEARING LIMITED,"29,524,875",2.33%
  390,CHINA RAILWAY GROUP LIMITED,"244,017,030",5.79%
  392,BEIJING ENTERPRISES HOLDINGS LIMITED,"83,900,121",6.64%
  400,COGOBUY GROUP,"66,920,000",4.67%
  410,SOHO CHINA LIMITED,"281,672,000",5.41%
  412,CHINA SHANDONG HI-SPEED FINANCIAL GROUP LIMITED,"21,576,000",0.07%
  419,HUAYI TENCENT ENTERTAINMENT COMPANY LIMITED,"191,500,000",1.41%
  425,MINTH GROUP LIMITED,"92,987,626",
  439,KUANGCHI SCIENCE LIMITED,"332,153,000",5.38%
  440,DAH SING FINANCIAL HOLDINGS LTD,"1,127,666",0.34%
  451,GCL NEW ENERGY HOLDINGS LIMITED,"1,003,582,000",5.26%
  460,SIHUAN PHARMACEUTICAL HOLDINGS GROUP LTD.,"462,943,000",4.88%
  467,UNITED ENERGY GROUP LIMITED,"10,988,000",0.04%
  468,GREATVIEW ASEPTIC PACKAGING COMPANY LIMITED,"1,367,000",0.10%
  480,HKR INTERNATIONAL LTD,"261,680",0.01%
  488,LAI SUN DEVELOPMENT COMPANY LIMITED,"30,000",0.00%
  489,DONGFENG MOTOR GROUP COMPANY LIMITED,"178,646,000",6.25%
  493,GOME RETAIL HOLDINGS LIMITED,"2,233,005,000",10.35%
  494,LI & FUNG LIMITED,"59,532,000",0.69%
  496,KASEN INTERNATIONAL HOLDINGS LIMITED,"68,750,000",4.60%
  506,CHINA FOODS LIMITED,"51,956,100",1.85%
  508,DINGYI GROUP INVESTMENT LIMITED,"419,730,000",5.70%
  511,TELEVISION BROADCASTS LIMITED,"694,300",0.15%
  512,CHINA GRAND PHARMACEUTICAL AND HEALTHCARE HOLDINGS LIMITED,"90,907,200",2.69%
  517,"COSCO SHIPPING INTERNATIONAL (HONG KONG) CO., LTD.","730,000",0.04%
  520,"XIABUXIABU CATERING MANAGEMENT (CHINA) HOLDINGS CO., LTD.","27,030,000",
  522,ASM PACIFIC TECHNOLOGY LIMITED,"9,598,547",2.34%
  525,GUANGSHEN RAILWAY COMPANY LIMITED,"291,588,010",20.36%
  530,GOLDIN FINANCIAL HOLDINGS LIMITED,"2,948,000",0.04%
  535,GEMDALE PROPERTIES AND INVESTMENT CORPORATION LIMITED,"1,926,386,154",12.11%
  546,FUFENG GROUP LIMITED,"51,574,000",2.03%
  547,DIGITAL DOMAIN HOLDINGS LIMITED,"1,069,850,000",3.13%
  548,SHENZHEN EXPRESSWAY COMPANY LIMITED,"107,144,000",14.32%
  551,YUE YUEN INDUSTRIAL (HOLDINGS) LIMITED,"1,741,293",0.10%
  552,CHINA COMMUNICATIONS SERVICES CORPORATION LIMITED,"78,486,000",3.27%
  553,NANJING PANDA ELECTRONICS COMPANY LIMITED,"35,930,000",14.83%
  563,SHANGHAI INDUSTRIAL URBAN DEVELOPMENT GROUP LIMITED,"152,916,855",3.17%
  564,ZHENGZHOU COAL MINING MACHINERY GROUP COMPANY LIMITED,"61,512,600",25.28%
  568,SHANDONG MOLONG PETROLEUM MACHINERY COMPANY LIMITED,"51,623,200",20.15%
  570,CHINA TRADITIONAL CHINESE MEDICINE HOLDINGS CO LIMITED,"549,001,486",10.89%
  576,"ZHEJIANG EXPRESSWAY CO., LTD.","71,177,759",4.96%
  579,"BEIJING JINGNENG CLEAN ENERGY CO., LIMITED","182,264,000",6.44%
  581,CHINA ORIENTAL GROUP COMPANY LIMITED,"74,576,987",1.99%
  582,LANDING INTERNATIONAL DEVELOPMENT LIMITED,"108,032,400",3.67%
  586,CHINA CONCH VENTURE HOLDINGS LIMITED,"153,783,953",8.51%
  588,BEIJING NORTH STAR COMPANY LIMITED,"181,690,000",25.69%
  590,LUK FOOK HOLDINGS (INTERNATIONAL) LIMITED,"1,453,000",0.24%
  598,SINOTRANS LIMITED,"153,495,000",7.14%
  604,SHENZHEN INVESTMENT LIMITED,"90,528,392",1.02%
  606,CHINA AGRI-INDUSTRIES HOLDINGS LIMITED,"22,029,000",0.41%
  607,FULLSHARE HOLDINGS LIMITED,"5,674,717,500",28.79%
  612,CHINA DING YI FENG HOLDINGS LIMITED,"2,928,000",0.23%
  631,SANY HEAVY EQUIPMENT INTERNATIONAL HOLDINGS COMPANY LIMITED,"127,218,000",4.10%
  636,KERRY LOGISTICS NETWORK LIMITED,"806,500",0.03%
  639,SHOUGANG FUSHAN RESOURCES GROUP LIMITED,"125,350,000",2.36%
  656,FOSUN INTERNATIONAL LIMITED,"665,357,922",7.78%
  658,"CHINA HIGH SPEED TRANSMISSION EQUIPMENT GROUP CO., LTD.","212,617,000",12.99%
  659,NWS HOLDINGS LIMITED,"2,038,719",0.04%
  665,HAITONG INTERNATIONAL SECURITIES GROUP LIMITED,"310,230,978",5.21%
  667,CHINA EAST EDUCATION HOLDINGS LIMITED,"57,343,500",2.61%
  669,TECHTRONIC INDUSTRIES CO. LTD.,"7,087,470",0.38%
  670,CHINA EASTERN AIRLINES CORPORATION LIMITED,"486,120,231",9.38%
  680,NAN HAI CORPORATION LIMITED,"821,850,000",1.18%
  683,KERRY PROPERTIES LIMITED,"4,519,124",0.30%
  686,PANDA GREEN ENERGY GROUP LIMITED,"379,214,000",2.48%
  687,TYSAN HOLDINGS LIMITED,"2,792,000",0.08%
  688,CHINA OVERSEAS LAND & INVESTMENT LIMITED,"33,536,639",0.29%
  691,CHINA SHANSHUI CEMENT GROUP LIMITED,"5,190,000",0.10%
  694,BEIJING CAPITAL INTERNATIONAL AIRPORT COMPANY LIMITED,"279,268,845",14.84%
  696,TRAVELSKY TECHNOLOGY LIMITED,"32,977,000",3.52%
  698,TONGDA GROUP HOLDINGS LIMITED,"491,820,000",7.58%
  699,CAR INC.,"175,850,001",8.28%
  700,TENCENT HOLDINGS LIMITED,"193,467,756",2.02%
  709,GIORDANO INTERNATIONAL LIMITED,"2,102,000",0.13%
  715,CHINA OCEANWIDE HOLDINGS LIMITED,"488,000",0.00%
  718,TAI UNITED HOLDINGS LIMITED,"20,150,000",0.38%
  719,SHANDONG XINHUA PHARMACEUTICAL COMPANY LIMITED,"78,192,800",40.09%
  721,CHINA FINANCIAL INTERNATIONAL INVESTMENTS LIMITED,"307,330,000",2.80%
  728,CHINA TELECOM CORPORATION LIMITED,"344,879,238",2.48%
  729,FDG ELECTRIC VEHICLES LIMITED,"72,985,500",3.74%
  732,TRULY INTERNATIONAL HOLDINGS LIMITED,"326,176,000",9.91%
  737,SZ INVESTMENT HLDGS BAY AREA DEV CO LTD -HKD TRADED SHARES,"1,920,500",0.05%
  743,ASIA CEMENT (CHINA) HOLDINGS CORPORATION,"3,827,500",0.24%
  751,SKYWORTH GROUP LIMITED,"111,666,459",3.64%
  753,AIR CHINA LIMITED,"433,847,149",9.50%
  754,HOPSON DEVELOPMENT HOLDINGS LIMITED,"80,462,000",3.60%
  762,CHINA UNICOM (HONG KONG) LIMITED,"90,358,000",0.28%
  763,ZTE CORPORATION,"242,526,607",32.10%
  772,CHINA LITERATURE LIMITED,"38,631,200",3.80%
  775,"CK LIFE SCIENCES INT'L., (HOLDINGS) INC.","27,396,000",0.28%
  777,NETDRAGON WEBSOFT HOLDINGS LIMITED,"18,600,500",3.49%
  780,TONGCHENG-ELONG HOLDINGS LIMITED,"11,283,600",0.52%
  787,GLOBAL BRANDS GROUP HOLDING LIMITED,"68,465,275",6.65%
  788,CHINA TOWER CORPORATION LIMITED,"1,624,669,357",3.47%
  799,IGG INC,"144,362,298",11.57%
  806,VALUE PARTNERS GROUP LIMITED,"52,232,405",2.81%
  811,"XINHUA WINSHARE PUBLISHING AND MEDIA CO., LTD.","52,421,000",11.85%
  813,SHIMAO PROPERTY HOLDINGS LIMITED,"68,747,265",2.07%
  816,HUADIAN FUXIN ENERGY CORPORATION LIMITED,"15,686,000",0.61%
  817,CHINA JINMAO HOLDINGS GROUP LIMITED,"763,686,947",6.48%
  819,TIANNENG POWER INTERNATIONAL LIMITED,"103,878,000",9.21%
  829,SHENGUAN HOLDINGS (GROUP) LIMITED,"145,944,000",4.51%
  832,CENTRAL CHINA REAL ESTATE LIMITED,"67,168,000",2.45%
  836,CHINA RESOURCES POWER HOLDINGS COMPANY LIMITED,"156,726,615",3.25%
  839,CHINA EDUCATION GROUP HOLDINGS LIMITED,"112,652,593",5.56%
  845,GLORIOUS PROPERTY HOLDINGS LIMITED,"23,377,000",0.29%
  846,MINGFA GROUP (INTERNATIONAL) COMPANY LIMITED,"5,261,000",0.08%
  853,MICROPORT SCIENTIFIC CORPORATION,"97,697,752",6.02%
  855,CHINA WATER AFFAIRS GROUP LIMITED,"191,682,334",11.95%
  856,VSTECS HOLDINGS LIMITED,"2,702,000",0.18%
  857,PETROCHINA COMPANY LIMITED,"1,114,161,455",5.27%
  860,WE SOLUTIONS LIMITED,"34,880,000",0.48%
  861,DIGITAL CHINA HOLDINGS LIMITED,"757,416,650",45.32%
  867,CHINA MEDICAL SYSTEM HOLDINGS LIMITED,"21,882,618",0.87%
  868,XINYI GLASS HOLDINGS LIMITED,"172,495,053",4.28%
  874,"GUANGZHOU BAIYUNSHAN PHARMACEUTICAL HOLDINGS CO., LTD.","71,244,000",32.38%
  880,SJM HOLDINGS LIMITED,"186,797,700",3.29%
  881,ZHONGSHENG GROUP HOLDINGS LIMITED,"40,967,813",1.79%
  883,CNOOC LIMITED,"123,610,995",0.27%
  884,CIFI HOLDINGS (GROUP) CO. LTD.,"442,973,271",
  885,RENTIAN TECHNOLOGY HOLDINGS LIMITED,"1,110,000",0.01%
  895,DONGJIANG ENVIRONMENTAL COMPANY LIMITED,"56,282,200",28.12%
  902,"HUANENG POWER INTERNATIONAL, INC.","1,921,546,624",40.87%
  906,CPMC HOLDINGS LIMITED,"43,187,000",3.71%
  911,QIANHAI HEALTH HOLDINGS LIMITED,"96,654,750",5.70%
  914,ANHUI CONCH CEMENT COMPANY LIMITED,"18,398,289",1.40%
  916,CHINA LONGYUAN POWER GROUP CORPORATION LIMITED,"225,068,000",6.72%
  921,"HISENSE HOME APPLIANCES GROUP CO., LTD.","56,460,300",12.28%
  931,CHINA LNG GROUP LIMITED,"176,797,000",3.12%
  933,BRIGHTOIL PETROLEUM (HOLDINGS) LIMITED,"25,254,000",0.24%
  934,SINOPEC KANTONS HOLDINGS LIMITED,"89,272,000",3.58%
  939,CHINA CONSTRUCTION BANK CORPORATION,"15,920,682,797",6.61%
  941,CHINA MOBILE LIMITED,"75,666,190",0.36%
  950,LEE'S PHARMACEUTICAL HOLDINGS LIMITED,"4,949,500",0.84%
  951,CHAOWEI POWER HOLDINGS LIMITED,"109,722,000",9.93%
  958,HUANENG RENEWABLES CORPORATION LIMITED,"95,816,606",1.89%
  960,LONGFOR GROUP HOLDINGS LIMITED,"154,831,993",2.58%
  966,CHINA TAIPING INSURANCE HOLDINGS COMPANY LIMITED,"412,635,367",11.47%
  967,SOUND GLOBAL LTD.,"289,000",0.01%
  968,XINYI SOLAR HOLDINGS LIMITED,"1,026,678,027",12.69%
  976,CHIHO ENVIRONMENTAL GROUP LIMITED,"237,980,000",14.82%
  978,CHINA MERCHANTS LAND LIMITED,"48,056,000",0.97%
  981,SEMICONDUCTOR MANUFACTURING INTERNATIONAL CORPORATION,"1,176,483,000",23.24%
  989,GROUND INTERNATIONAL DEVELOPMENT LIMITED,"192,660,000",3.65%
  991,"DATANG INTERNATIONAL POWER GENERATION CO.,LTD.","173,238,000",2.82%
  992,LENOVO GROUP LIMITED,"30,422,476",0.24%
  995,ANHUI EXPRESSWAY COMPANY LIMITED,"77,892,000",15.79%
  996,CARNIVAL GROUP INTERNATIONAL HOLDINGS LIMITED,"6,224,382,500",26.25%
  998,CHINA CITIC BANK CORPORATION LIMITED,"1,981,781,152",13.31%
 1028,C.BANNER INTERNATIONAL HOLDINGS LIMITED,"151,227,000",7.28%
 1030,SEAZEN GROUP LIMITED,"314,388,500",5.32%
 1031,KINGSTON FINANCIAL GROUP LIMITED,"750,000",0.00%
 1033,SINOPEC OILFIELD SERVICE CORPORATION,"327,678,000",6.05%
 1038,CK INFRASTRUCTURE HOLDINGS LIMITED,"11,209,000",0.41%
 1044,HENGAN INTERNATIONAL GROUP COMPANY LIMITED,"10,937,000",0.91%
 1052,YUEXIU TRANSPORT INFRASTRUCTURE LIMITED,"23,174,000",1.38%
 1053,CHONGQING IRON & STEEL COMPANY LIMITED,"89,498,000",16.62%
 1055,CHINA SOUTHERN AIRLINES COMPANY LIMITED,"441,719,861",12.04%
 1057,ZHEJIANG SHIBAO COMPANY LIMITED,"37,341,000",17.22%
 1060,ALIBABA PICTURES GROUP LIMITED,"2,669,688,620",10.02%
 1065,TIANJIN CAPITAL ENVIRONMENTAL PROTECTION GROUP COMPANY LIMITED,"86,274,100",25.37%
 1066,SHANDONG WEIGAO GROUP MEDICAL POLYMER COMPANY LIMITED,"115,827,094",2.56%
 1068,CHINA YURUN FOOD GROUP LIMITED,"18,633,000",1.02%
 1070,TCL ELECTRONICS HOLDINGS LIMITED,"42,430,666",1.79%
 1071,HUADIAN POWER INTERNATIONAL CORPORATION LIMITED,"484,966,683",28.23%
 1072,DONGFANG ELECTRIC CORPORATION LIMITED,"97,763,446",28.75%
 1076,IMPERIAL PACIFIC INTERNATIONAL HOLDINGS LIMITED,"406,900,000",0.28%
 1083,TOWNGAS CHINA COMPANY LIMITED,"3,039,007",0.10%
 1086,GOODBABY INTERNATIONAL HOLDINGS LIMITED,"32,043,000",1.92%
 1088,CHINA SHENHUA ENERGY COMPANY LIMITED,"708,355,830",20.83%
 1089,LEYOU TECHNOLOGIES HOLDINGS LIMITED,"76,530,000",2.48%
 1093,CSPC PHARMACEUTICAL GROUP LIMITED,"265,066,164",4.24%
 1097,I-CABLE COMMUNICATIONS LIMITED,"103,425",0.00%
 1098,ROAD KING INFRASTRUCTURE LIMITED,"9,209,000",1.22%
 1099,SINOPHARM GROUP CO. LTD.,"25,858,176",2.16%
 1108,LUOYANG GLASS COMPANY LIMITED,"84,712,000",33.88%
 1109,CHINA RESOURCES LAND LIMITED,"102,118,690",1.42%
 1111,CHONG HING BANK LIMITED,"1,070,500",0.11%
 1112,HEALTH AND HAPPINESS (H&H) INTERNATIONAL HOLDINGS LIMITED,"57,905,500",8.99%
 1113,CK ASSET HOLDINGS LIMITED,"8,354,963",0.22%
 1114,BRILLIANCE CHINA AUTOMOTIVE HOLDINGS LIMITED,"163,859,080",3.23%
 1115,TIBET WATER RESOURCES LTD.,"161,127,000",6.27%
 1117,CHINA MODERN DAIRY HOLDINGS LTD.,"123,783,000",1.92%
 1119,IDREAMSKY TECHNOLOGY HOLDINGS LIMITED,"19,600,800",1.54%
 1128,"WYNN MACAU, LIMITED","27,756,559",0.53%
 1131,AGRITRADE RESOURCES LIMITED,"34,470,000",0.54%
 1138,"COSCO SHIPPING ENERGY TRANSPORTATION CO., LTD.","182,176,000",14.04%
 1140,OP FINANCIAL LIMITED,"106,964,000",3.68%
 1141,CMBC CAPITAL HOLDINGS LIMITED,"570,950,000",1.18%
 1157,"ZOOMLION HEAVY INDUSTRY SCIENCE AND TECHNOLOGY CO., LTD.","75,106,611",5.41%
 1165,SHUNFENG INTERNATIONAL CLEAN ENERGY LIMITED,"339,008,000",6.80%
 1169,"HAIER ELECTRONICS GROUP CO., LTD.","69,612,929",2.47%
 1171,YANZHOU COAL MINING COMPANY LIMITED,"279,785,000",14.33%
 1176,ZHUGUANG HOLDINGS GROUP COMPANY LIMITED,"147,844,000",2.05%
 1177,SINO BIOPHARMACEUTICAL LIMITED,"938,843,409",7.45%
 1186,CHINA RAILWAY CONSTRUCTION CORPORATION LIMITED,"73,263,657",3.52%
 1188,HYBRID KINETIC GROUP LIMITED,"120,084,000",0.59%
 1193,CHINA RESOURCES GAS GROUP LIMITED,"15,330,000",0.68%
 1196,REALORD GROUP HOLDINGS LIMITED,"108,018,000",7.51%
 1199,COSCO SHIPPING PORTS LIMITED,"5,902,965",0.18%
 1205,CITIC RESOURCES HOLDINGS LIMITED,"186,454,100",2.36%
 1208,MMG LIMITED,"195,726,000",2.42%
 1211,BYD COMPANY LIMITED,"34,793,809",3.80%
 1212,LIFESTYLE INTERNATIONAL HOLDINGS LIMITED,"2,691,812",0.17%
 1230,YASHILI INTERNATIONAL HOLDINGS LTD,"79,967,000",1.68%
 1233,TIMES CHINA HOLDINGS LIMITED,"134,240,757",6.90%
 1234,CHINA LILANG LIMITED,"37,264,000",3.11%
 1238,POWERLONG REAL ESTATE HOLDINGS LIMITED,"81,125,000",1.95%
 1250,BEIJING ENTERPRISES CLEAN ENERGY GROUP LIMITED,"1,912,900,000",3.01%
 1253,CHINA GREENLAND BROAD GREENSTATE GROUP COMPANY LIMITED,"6,840,000",0.20%
 1257,CHINA EVERBRIGHT GREENTECH LIMITED,"45,766,000",2.21%
 1269,CHINA FIRST CAPITAL GROUP LIMITED,"1,037,588,000",20.63%
 1282,GLORY SUN FINANCIAL GROUP LIMITED,"2,037,936,000",6.84%
 1288,AGRICULTURAL BANK OF CHINA LIMITED,"5,273,753,435",17.15%
 1293,GRAND BAOXIN AUTO GROUP LIMITED,"139,311,966",4.90%
 1299,AIA GROUP LIMITED,"100,441,114",0.82%
 1302,LIFETECH SCIENTIFIC CORPORATION,"622,754,000",14.41%
 1308,SITC INTERNATIONAL HOLDINGS COMPANY LIMITED,"51,697,000",1.92%
 1310,HKBN LTD.,"2,416,000",0.18%
 1313,CHINA RESOURCES CEMENT HOLDINGS LIMITED,"70,003,915",0.99%
 1315,VISION FAME INTERNATIONAL HOLDING LIMITED,"733,014,000",12.21%
 1316,NEXTEER AUTOMOTIVE GROUP LIMITED,"20,326,000",0.80%
 1317,CHINA MAPLE LEAF EDUCATIONAL SYSTEMS LIMITED,"287,666,000",9.60%
 1330,"DYNAGREEN ENVIRONMENTAL PROTECTION GROUP CO., LTD","99,788,000",24.67%
 1333,CHINA ZHONGWANG HOLDINGS LIMITED,"249,963,600",4.58%
 1336,NEW CHINA LIFE INSURANCE COMPANY LTD.,"338,494,651",32.72%
 1339,"PEOPLE'S INSURANCE COMPANY (GROUP) OF CHINA LIMITED, THE","1,185,035,987",13.57%
 1347,HUA HONG SEMICONDUCTOR LIMITED,"48,365,984",3.74%
 1357,"MEITU, INC.","286,356,600",6.64%
 1359,"CHINA CINDA ASSET MANAGEMENT CO., LTD.","1,828,689,457",13.47%
 1361,361 DEGREES INTERNATIONAL LIMITED,"34,673,000",1.67%
 1363,CT ENVIRONMENTAL GROUP LIMITED,"502,874,000",7.95%
 1368,XTEP INTERNATIONAL HOLDINGS LIMITED,"32,999,396",1.31%
 1375,"CENTRAL CHINA SECURITIES CO., LTD.","195,861,000",16.37%
 1378,CHINA HONGQIAO GROUP LIMITED,"490,729,910",5.72%
 1381,CANVEST ENVIRONMENTAL PROTECTION GROUP COMPANY LIMITED,"27,593,000",1.13%
 1382,PACIFIC TEXTILES HOLDINGS LIMITED,"14,018,000",0.96%
 1383,SUNCITY GROUP HOLDINGS LIMITED,"14,210,000",0.21%
 1387,CHINA DILI GROUP,"161,970,930",2.82%
 1398,INDUSTRIAL AND COMMERCIAL BANK OF CHINA LIMITED,"20,200,335,562",23.26%
 1432,CHINA SHENGMU ORGANIC MILK LIMITED,"169,358,000",2.65%
 1448,FU SHOU YUAN INTERNATIONAL GROUP LIMITED,"199,988,000",
 1458,ZHOU HEI YA INTERNATIONAL HOLDINGS COMPANY LIMITED,"288,963,500",12.12%
 1478,Q TECHNOLOGY (GROUP) COMPANY LIMITED,"46,841,000",4.04%
 1508,CHINA REINSURANCE (GROUP) CORPORATION,"429,892,000",6.43%
 1513,LIVZON PHARMACEUTICAL GROUP INC.,"37,538,074",11.73%
 1515,CHINA RESOURCES MEDICAL HOLDINGS COMPANY LIMITED,"43,027,600",3.31%
 1521,FRONTAGE HOLDINGS CORPORATION,"73,900,000",3.68%
 1528,RED STAR MACALLINE GROUP CORPORATION LTD.,"101,767,037",15.09%
 1530,3SBIO INC.,"83,502,000",3.28%
 1533,"LANZHOU ZHUANGYUAN PASTURE CO., LTD.","4,400,500",12.52%
 1548,GENSCRIPT BIOTECH CORPORATION,"191,042,000",10.15%
 1551,"GUANGZHOU RURAL COMMERCIAL BANK CO., LTD","2,415,000",0.13%
 1558,"YICHANG HEC CHANGJIANG PHARMACEUTICAL CO., LTD.","61,908,000",27.80%
 1569,MINSHENG EDUCATION GROUP COMPANY LIMITED,"90,926,000",2.26%
 1573,SOUTHERN ENERGY HOLDINGS GROUP LIMITED,"95,928,000",13.36%
 1578,"BANK OF TIANJIN CO., LTD.","39,000",0.00%
 1579,YIHAI INTERNATIONAL HOLDING LTD.,"38,798,714",3.70%
 1583,QINQIN FOODSTUFFS GROUP (CAYMAN) COMPANY LIMITED,"25,700",0.00%
 1585,YADEA GROUP HOLDINGS LTD.,"247,790,000",8.27%
 1589,"CHINA LOGISTICS PROPERTY HOLDINGS CO., LTD","120,000",0.00%
 1600,CHINA TIAN LUN GAS HOLDINGS LIMITED,"10,449,500",1.04%
 1606,"CHINA DEVELOPMENT BANK FINANCIAL LEASING CO., LTD.","546,000",0.01%
 1608,VPOWER GROUP INTERNATIONAL HOLDINGS LIMITED,"1,469,000",0.05%
 1610,COFCO MEAT HOLDINGS LIMITED,"203,101,000",5.20%
 1618,METALLURGICAL CORPORATION OF CHINA LTD.,"258,214,000",8.98%
 1619,TIANHE CHEMICALS GROUP LIMITED,"193,880,000",0.78%
 1622,REDCO PROPERTIES GROUP LIMITED,"74,484,000",2.09%
 1628,YUZHOU PROPERTIES COMPANY LIMITED,"66,909,469",1.28%
 1635,"SHANGHAI DAZHONG PUBLIC UTILITIES (GROUP) CO., LTD.","70,285,000",13.16%
 1636,CHINA METAL RESOURCES UTILIZATION LIMITED,"41,260,000",1.56%
 1638,KAISA GROUP HOLDINGS LTD.,"321,825,611",5.27%
 1658,"POSTAL SAVINGS BANK OF CHINA CO., LTD.","353,190,000",1.77%
 1661,WISDOM SPORTS GROUP,"6,452,000",0.40%
 1666,TONG REN TANG TECHNOLOGIES CO LTD,"141,137,200",22.44%
 1668,CHINA SOUTH CITY HOLDINGS LIMITED,"776,064,396",9.56%
 1680,MACAU LEGEND DEVELOPMENT LIMITED,"136,291,000",2.18%
 1681,CONSUN PHARMACEUTICAL GROUP LIMITED,"37,934,000",4.38%
 1685,BOER POWER HOLDINGS LIMITED,"2,255,000",0.29%
 1686,SUNEVISION HOLDINGS LIMITED,"1,040,000",0.04%
 1717,AUSNUTRIA DAIRY CORPORATION LTD,"43,909,000",2.72%
 1728,CHINA ZHENGTONG AUTO SERVICES HOLDINGS LIMITED,"161,211,500",6.57%
 1761,BABYTREE GROUP,"8,047,500",0.48%
 1765,"HOPE EDUCATION GROUP CO., LTD.","372,190,000",5.58%
 1766,CRRC CORPORATION LIMITED,"219,099,920",5.00%
 1772,"GANFENG LITHIUM CO., LTD.","64,928,600",32.43%
 1776,"GF SECURITIES CO., LTD.","385,314,200",22.64%
 1777,"FANTASIA HOLDINGS GROUP CO., LIMITED","342,979,000",5.94%
 1778,"COLOUR LIFE SERVICES GROUP CO., LIMITED","82,580,000",5.80%
 1787,"SHANDONG GOLD MINING CO., LTD.","97,161,760",19.44%
 1788,GUOTAI JUNAN INTERNATIONAL HOLDINGS LIMITED,"198,740,000",2.57%
 1797,KOOLEARN TECHNOLOGY HOLDING LIMITED,"125,439,737",13.36%
 1800,CHINA COMMUNICATIONS CONSTRUCTION COMPANY LIMITED,"291,820,000",6.58%
 1806,HUIFU PAYMENT LIMITED,"30,702,400",2.37%
 1810,XIAOMI CORPORATION,"960,494,000",4.00%
 1811,"CGN NEW ENERGY HOLDINGS CO., LTD.","148,942,000",3.47%
 1812,SHANDONG CHENMING PAPER HOLDINGS LIMITED,"88,856,700",16.81%
 1813,KWG GROUP HOLDINGS LIMITED,"181,500,793",5.70%
 1816,"CGN POWER CO., LTD","2,027,520,000",18.16%
 1818,ZHAOJIN MINING INDUSTRY COMPANY LIMITED,"97,018,372",9.24%
 1829,CHINA MACHINERY ENGINEERING CORPORATION,"143,000",0.01%
 1833,PING AN HEALTHCARE AND TECHNOLOGY COMPANY LIMITED,"42,483,500",3.97%
 1848,CHINA AIRCRAFT LEASING GROUP HOLDINGS LIMITED,"7,751,000",1.14%
 1860,MOBVISTA INC.,"2,688,000",0.17%
 1876,BUDWEISER BREWING COMPANY APAC LIMITED,"12,613,800",0.09%
 1882,HAITIAN INTERNATIONAL HOLDINGS LIMITED,"22,437,000",1.40%
 1883,CITIC TELECOM INTERNATIONAL HOLDINGS LIMITED,"19,750,000",0.53%
 1886,CHINA HUIYUAN JUICE GROUP LIMITED,"125,355,500",4.69%
 1888,KINGBOARD LAMINATES HOLDINGS LIMITED,"36,993,095",1.19%
 1890,CHINA KEPEI EDUCATION GROUP LIMITED,"48,326,000",2.41%
 1896,MAOYAN ENTERTAINMENT,"24,175,400",2.13%
 1898,CHINA COAL ENERGY COMPANY LIMITED,"240,095,000",5.84%
 1905,"HAITONG UNITRUST INTERNATIONAL LEASING CO., LTD.","1,162,000",0.02%
 1907,CHINA RISUN GROUP LIMITED,"4,861,000",0.11%
 1908,C&D INTERNATIONAL INVESTMENT GROUP LIMITED,"51,181,000",4.34%
 1911,CHINA RENAISSANCE HOLDINGS LIMITED,"4,825,700",0.89%
 1916,"JIANGXI BANK CO., LTD.","11,550,000",0.85%
 1918,SUNAC CHINA HOLDINGS LIMITED,"877,332,056",18.89%
 1919,"COSCO SHIPPING HOLDINGS CO., LTD.","290,999,000",11.26%
 1928,SANDS CHINA LTD.,"39,146,595",0.48%
 1929,CHOW TAI FOOK JEWELLERY GROUP LIMITED,"42,393,600",0.41%
 1951,JINXIN FERTILITY GROUP LIMITED,"109,416,000",4.48%
 1958,BAIC MOTOR CORPORATION LIMITED,"130,108,500",5.15%
 1963,"BANK OF CHONGQING CO., LTD.","105,037,000",6.65%
 1966,CHINA SCE GROUP HOLDINGS LIMITED,"141,910,054",3.39%
 1970,"IMAX CHINA HOLDING, INC.","2,247,900",0.63%
 1972,SWIRE PROPERTIES LIMITED,"2,770,200",0.04%
 1980,TIAN GE INTERACTIVE HOLDINGS LIMITED,"29,187,000",2.31%
 1988,"CHINA MINSHENG BANKING CORP., LTD.","875,949,653",10.51%
 1992,FOSUN TOURISM GROUP,"1,404,400",0.11%
 1996,REDSUN PROPERTIES GROUP LIMITED,"5,832,000",0.17%
 1997,WHARF REAL ESTATE INVESTMENT COMPANY LIMITED,"2,650,956",0.08%
 1999,MAN WAH HOLDINGS LIMITED,"565,995,771",14.81%
 2001,CHINA NEW HIGHER EDUCATION GROUP LIMITED,"187,821,000",12.18%
 2003,VCREDIT HOLDINGS LIMITED,"3,818,000",0.76%
 2005,SSY GROUP LIMITED,"241,042,059",7.94%
 2007,COUNTRY GARDEN HOLDINGS COMPANY LIMITED,"213,292,461",0.96%
 2008,PHOENIX MEDIA INVESTMENT (HOLDINGS) LIMITED,"214,656,000",4.29%
 2009,BBMG CORPORATION,"211,606,500",9.04%
 2013,WEIMOB INC.,"102,700,000",4.54%
 2016,"CHINA ZHESHANG BANK CO., LTD.","2,382,000",0.05%
 2018,AAC TECHNOLOGIES HOLDINGS INC.,"71,682,002",5.92%
 2019,DEXIN CHINA HOLDINGS COMPANY LIMITED,"8,996,000",0.33%
 2020,ANTA SPORTS PRODUCTS LIMITED,"119,094,374",4.39%
 2038,FIH MOBILE LIMITED,"104,872,000",1.27%
 2039,"CHINA INTERNATIONAL MARINE CONTAINERS (GROUP) CO., LTD.","146,666,660",7.12%
 2051,51 CREDIT CARD INC.,"57,394,500",4.81%
 2066,"SHENGJING BANK CO., LTD.","357,000",0.01%
 2068,CHINA ALUMINUM INTERNATIONAL ENGINEERING CORPORATION LIMITED,"1,328,000",0.32%
 2098,ZALL SMART COMMERCE GROUP LTD.,"47,925,000",0.40%
 2099,CHINA GOLD INTERNATIONAL RESOURCES CORP. LTD.,"18,875,300",4.76%
 2111,BEST PACIFIC INTERNATIONAL HOLDINGS LIMITED,"1,702,000",0.16%
 2128,CHINA LESSO GROUP HOLDINGS LIMITED,"27,406,000",0.88%
 2136,LIFESTYLE CHINA GROUP LIMITED,"284,000",0.01%
 2186,LUYE PHARMA GROUP LTD.,"579,937,000",17.73%
 2196,"SHANGHAI FOSUN PHARMACEUTICAL (GROUP) CO., LTD.","167,119,668",30.27%
 2199,REGINA MIRACLE INTERNATIONAL (HOLDINGS) LIMITED,"3,010,000",0.24%
 2202,"CHINA VANKE CO., LTD.","137,569,490",8.71%
 2208,"XINJIANG GOLDWIND SCIENCE & TECHNOLOGY CO., LTD.","128,502,823",16.61%
 2232,CRYSTAL INTERNATIONAL GROUP LIMITED,"4,390,500",0.14%
 2233,WEST CHINA CEMENT LIMITED,"202,182,000",3.71%
 2238,"GUANGZHOU AUTOMOBILE GROUP CO., LTD.","1,172,856,478",37.84%
 2255,HAICHANG OCEAN PARK HOLDINGS LTD.,"44,326,000",1.10%
 2269,WUXI BIOLOGICS (CAYMAN) INC.,"89,960,314",6.94%
 2280,HC GROUP INC.,"126,353,000",11.27%
 2282,MGM CHINA HOLDINGS LIMITED,"30,153,496",0.79%
 2298,COSMO LADY (CHINA) HOLDINGS COMPANY LIMITED,"12,221,000",0.53%
 2313,SHENZHOU INTERNATIONAL GROUP HOLDINGS LIMITED,"47,456,581",3.15%
 2314,LEE & MAN PAPER MANUFACTURING LIMITED,"44,242,825",1.00%
 2318,"PING AN INSURANCE (GROUP) COMPANY OF CHINA, LTD.","137,226,657",1.84%
 2319,CHINA MENGNIU DAIRY COMPANY LIMITED,"72,491,919",1.83%
 2326,NEW PROVENANCE EVERLASTING HOLDINGS LIMITED,"56,940,000",0.26%
 2328,PICC PROPERTY AND CASUALTY COMPANY LIMITED,"540,547,641",7.82%
 2329,GUORUI PROPERTIES LIMITED,"153,290,000",3.44%
 2331,LI NING COMPANY LIMITED,"137,778,727",5.60%
 2333,GREAT WALL MOTOR COMPANY LIMITED,"907,309,786",29.26%
 2338,"WEICHAI POWER CO., LTD.","84,354,600",4.34%
 2343,PACIFIC BASIN SHIPPING LIMITED,"4,202,000",0.08%
 2356,DAH SING BANKING GROUP LIMITED,"216,800",0.01%
 2357,AVICHINA INDUSTRY & TECHNOLOGY COMPANY LIMITED,"364,579,000",5.83%
 2359,"WUXI APPTEC CO., LTD.","7,253,980",4.24%
 2362,JINCHUAN GROUP INTERNATIONAL RESOURCES CO. LTD.,"102,976,000",0.81%
 2363,TONGDA HONG TAI HOLDINGS LIMITED,"395,462",0.20%
 2369,COOLPAD GROUP LIMITED,"49,128,000",0.84%
 2380,CHINA POWER INTERNATIONAL DEVELOPMENT LIMITED,"812,267,102",8.28%
 2382,SUNNY OPTICAL TECHNOLOGY (GROUP) COMPANY LIMITED,"90,855,258",8.28%
 2386,"SINOPEC ENGINEERING (GROUP) CO., LTD.","11,319,000",0.77%
 2388,BOC HONG KONG (HOLDINGS) LIMITED,"46,819,936",0.44%
 2588,BOC AVIATION LIMITED,"9,675,200",1.38%
 2600,ALUMINUM CORPORATION OF CHINA LIMITED,"266,994,000",6.76%
 2601,CHINA PACIFIC INSURANCE (GROUP) CO. LTD.,"612,653,668",22.07%
 2607,"SHANGHAI PHARMACEUTICALS HOLDING CO., LTD.","117,915,752",12.82%
 2611,"GUOTAI JUNAN SECURITIES CO., LTD.","35,204,600",2.52%
 2628,CHINA LIFE INSURANCE COMPANY LIMITED,"222,603,593",2.98%
 2662,CAMSING INTERNATIONAL HOLDING LIMITED,"132,096,000",12.26%
 2666,GENERTEC UNIVERSAL MEDICAL GROUP COMPANY LIMITED,"295,090,500",17.19%
 2669,CHINA OVERSEAS PROPERTY HOLDINGS LIMITED,"218,038,699",6.63%
 2678,TEXHONG TEXTILE GROUP LIMITED,"27,544,000",3.01%
 2688,ENN ENERGY HOLDINGS LIMITED,"8,604,690",0.76%
 2689,NINE DRAGONS PAPER (HOLDINGS) LIMITED,"72,932,922",1.55%
 2727,SHANGHAI ELECTRIC GROUP COMPANY LIMITED,"705,649,000",23.73%
 2768,JIAYUAN INTERNATIONAL GROUP LIMITED,"301,375,577",7.63%
 2772,ZHONGLIANG HOLDINGS GROUP COMPANY LIMITED,"6,958,000",0.19%
 2777,"GUANGZHOU R&F PROPERTIES CO., LTD.","74,803,223",5.80%
 2799,"CHINA HUARONG ASSET MANAGEMENT CO., LTD.","1,621,522,000",6.47%
 2858,YIXIN GROUP LIMITED,"51,062,500",0.80%
 2866,"COSCO SHIPPING DEVELOPMENT CO., LTD.","610,188,000",16.59%
 2869,GREENTOWN SERVICE GROUP CO. LTD.,"179,421,899",
 2877,CHINA SHINEWAY PHARMACEUTICAL GROUP LIMITED,"10,935,000",1.31%
 2880,DALIAN PORT (PDA) COMPANY LIMITED,"897,803,200",17.39%
 2883,CHINA OILFIELD SERVICES LIMITED,"154,677,627",8.53%
 2888,STANDARD CHARTERED PLC,"442,070",0.01%
 2899,"ZIJIN MINING GROUP CO., LTD.","1,368,600,000",23.84%
 3301,RONSHINE CHINA HOLDINGS LIMITED,"146,956,000",8.55%
 3306,JNBY DESIGN LIMITED,"10,747,000",2.07%
 3308,GOLDEN EAGLE RETAIL GROUP LIMITED,"115,197,000",6.85%
 3309,C-MER EYE CARE HOLDINGS LIMITED,"14,682,000",1.39%
 3311,CHINA STATE CONSTRUCTION INTERNATIONAL HOLDINGS LIMITED,"12,970,192",0.25%
 3320,CHINA RESOURCES PHARMACEUTICAL GROUP LIMITED,"87,859,000",1.39%
 3323,CHINA NATIONAL BUILDING MATERIAL COMPANY LIMITED,"642,515,600",16.60%
 3328,"BANK OF COMMUNICATIONS CO., LTD.","493,964,944",1.40%
 3329,BOCOM INTERNATIONAL HOLDINGS COMPANY LIMITED,"20,036,000",0.73%
 3331,VINDA INTERNATIONAL HOLDINGS LIMITED,"497,000",0.03%
 3333,CHINA EVERGRANDE GROUP,"185,712,455",1.39%
 3339,LONKING HOLDINGS LIMITED,"17,201,000",0.40%
 3360,FAR EAST HORIZON LIMITED,"92,510,000",2.33%
 3368,PARKSON RETAIL GROUP LIMITED,"5,731,500",0.21%
 3369,"QINHUANGDAO PORT CO., LTD.","65,467,000",7.87%
 3377,SINO-OCEAN GROUP HOLDING LIMITED,"140,259,810",1.83%
 3380,LOGAN PROPERTY HOLDINGS COMPANY LIMITED,"134,740,871",2.43%
 3382,TIANJIN PORT DEVELOPMENT HOLDINGS LIMITED,"197,190,000",3.20%
 3383,AGILE GROUP HOLDINGS LIMITED,"29,774,548",0.75%
 3389,HENGDELI HOLDINGS LIMITED,"920,000",0.01%
 3393,WASION HOLDINGS LIMITED,"1,326,000",0.13%
 3396,LEGEND HOLDINGS CORPORATION,"67,721,600",5.31%
 3606,"FUYAO GLASS INDUSTRY GROUP CO., LTD","29,501,600",5.83%
 3613,BEIJING TONG REN TANG CHINESE MEDICINE COMPANY LIMITED,"62,224,000",7.43%
 3618,"CHONGQING RURAL COMMERCIAL BANK CO., LTD.","462,305,127",18.39%
 3633,ZHONGYU GAS HOLDINGS LIMITED,"13,448,000",0.49%
 3669,CHINA YONGDA AUTOMOBILES SERVICES HOLDINGS LIMITED,"20,610,500",
 3690,MEITUAN DIANPING,"170,550,432",2.92%
 3692,HANSOH PHARMACEUTICAL GROUP COMPANY LIMITED,"9,659,000",0.16%
 3698,HUISHANG BANK CORPORATION LIMITED,"4,883,900",0.14%
 3759,"PHARMARON BEIJING CO., LTD.","1,633,500",1.21%
 3788,CHINA HANKING HOLDINGS LIMITED,"16,479,000",0.90%
 3799,DALI FOODS GROUP COMPANY LIMITED,"338,784,500",2.47%
 3800,GCL-POLY ENERGY HOLDINGS LIMITED,"2,629,369,900",13.24%
 3808,SINOTRUK (HONG KONG) LIMITED,"86,331,000",3.12%
 3813,POU SHENG INTERNATIONAL (HOLDINGS) LIMITED,"8,044,000",0.15%
 3818,"CHINA DONGXIANG (GROUP) CO., LTD.","144,062,000",2.44%
 3823,TECH PRO TECHNOLOGY DEVELOPMENT LIMITED,"2,414,168,000",30.17%
 3836,CHINA HARMONY NEW ENERGY AUTO HOLDING LIMITED,"68,367,000",4.34%
 3866,"BANK OF QINGDAO CO., LTD.","845,500",0.04%
 3868,XINYI ENERGY HOLDINGS LIMITED,"3,752,000",0.05%
 3877,CSSC (HONG KONG) SHIPPING COMPANY LIMITED,"3,150,000",0.05%
 3883,CHINA AOYUAN GROUP LIMITED,"177,516,000",6.59%
 3886,TOWN HEALTH INTERNATIONAL MEDICAL GROUP LIMITED,"145,736,000",1.92%
 3888,KINGSOFT CORPORATION LIMITED,"337,249,012",24.56%
 3898,"ZHUZHOU CRRC TIMES ELECTRIC CO., LTD.","14,748,806",2.69%
 3899,CIMC ENRIC HOLDINGS LIMITED,"117,438,000",5.83%
 3900,GREENTOWN CHINA HOLDINGS LIMITED,"374,459,000",17.24%
 3908,CHINA INTERNATIONAL CAPITAL CORPORATION LIMITED,"315,490,496",16.56%
 3933,"UNITED LABORATORIES INTERNATIONAL HOLDINGS LIMITED, THE","113,506,181",6.91%
 3958,DFZQ,"364,210,056",35.45%
 3968,"CHINA MERCHANTS BANK CO., LTD.","248,441,851",5.40%
 3969,CHINA RAILWAY SIGNAL & COMMUNICATION CORPORATION LIMITED,"98,023,000",4.97%
 3988,BANK OF CHINA LIMITED,"5,507,526,441",6.58%
 3990,MIDEA REAL ESTATE HOLDING LIMITED,"20,951,400",1.70%
 3993,"CHINA MOLYBDENUM CO., LTD.","493,045,500",12.52%
 3996,CHINA ENERGY ENGINEERING CORPORATION LIMITED,"11,436,000",0.12%
 3998,BOSIDENG INTERNATIONAL HOLDINGS LIMITED,"575,360,000",5.30%
 6030,CITIC SECURITIES COMPANY LIMITED,"290,637,600",12.75%
 6055,CHINA TOBACCO INTERNATIONAL (HK) COMPANY LIMITED,"15,020,000",2.17%
 6060,"ZHONGAN ONLINE P & C INSURANCE CO., LTD.","17,251,300",3.66%
 6066,"CSC FINANCIAL CO., LTD.","245,639,500",19.47%
 6068,WISDOM EDUCATION INTERNATIONAL HOLDINGS COMPANY LIMITED,"85,500,000",4.17%
 6088,FIT HON TENG LIMITED,"96,694,000",1.39%
 6098,COUNTRY GARDEN SERVICES HOLDINGS COMPANY LIMITED,"112,055,162",4.12%
 6099,"CHINA MERCHANTS SECURITIES CO., LTD.","108,823,000",11.09%
 6100,"WISE TALENT INFORMATION TECHNOLOGY CO., LTD","171,800",0.03%
 6116,"SHANGHAI LA CHAPELLE FASHION CO., LTD.","56,162,200",26.14%
 6158,ZHENRO PROPERTIES GROUP LIMITED,"52,834,000",1.20%
 6166,CHINA VAST INDUSTRIAL URBAN DEVELOPMENT COMPANY LIMITED,"15,538,000",0.94%
 6169,CHINA YUHUA EDUCATION CORPORATION LIMITED,"417,772,050",12.70%
 6178,EVERBRIGHT SECURITIES COMPANY LIMITED,"85,638,000",12.15%
 6196,"BANK OF ZHENGZHOU CO., LTD.","178,400,000",11.75%
 6198,"QINGDAO PORT INTERNATIONAL CO., LTD.","5,266,000",0.47%
 6806,"SHENWAN HONGYUAN GROUP CO., LTD.","72,968,000",2.91%
 6808,SUN ART RETAIL GROUP LIMITED,"59,415,507",0.62%
 6818,CHINA EVERBRIGHT BANK COMPANY LIMITED,"805,504,992",6.34%
 6828,BEIJING GAS BLUE SKY HOLDINGS LIMITED,"371,336,000",2.85%
 6837,"HAITONG SECURITIES CO., LTD.","534,683,400",15.67%
 6862,HAIDILAO INTERNATIONAL HOLDING LTD.,"88,622,189",1.66%
 6865,"FLAT GLASS GROUP CO., LTD.","137,117,000",30.46%
 6869,YANGTZE OPTICAL FIBRE AND CABLE JOINT STOCK LIMITED COMPANY,"22,276,500",6.32%
 6881,"CHINA GALAXY SECURITIES CO., LTD.","794,083,882",21.51%
 6886,"HUATAI SECURITIES CO., LTD.","423,005,800",24.60%
 8328,XINYI AUTOMOBILE GLASS HONG KONG ENTERPRISES LIMITED,"109,750",0.01%
 9928,TIMES NEIGHBORHOOD HOLDINGS LIMITED,"12,062,161",1.32%
