Stock Code,Stock Name,Shareholding in CCASS,Percentage of the total number of Issued Shares
    1,CK HUTCHISON HOLDINGS LIMITED,"31,743,211",0.82%
    2,CLP HOLDINGS LIMITED,"3,855,952",0.14%
    3,"HONG KONG AND CHINA GAS COMPANY LIMITED, THE","22,473,983",0.12%
    4,"WHARF (HOLDINGS) LIMITED, THE","3,799,979",0.11%
    5,HSBC HOLDINGS PLC,"1,570,409,051",7.59%
    6,POWER ASSETS HOLDINGS LIMITED,"6,206,422",0.28%
    8,PCCW LIMITED,"11,300,776",0.14%
   10,HANG LUNG GROUP LIMITED,"9,050,000",0.66%
   11,HANG SENG BANK LTD,"3,459,888",0.17%
   12,HENDERSON LAND DEVELOPMENT CO LTD,"4,942,773",0.10%
   14,HYSAN DEVELOPMENT COMPANY LIMITED,"1,045,989",0.09%
   16,SUN HUNG KAI PROPERTIES LIMITED,"8,838,404",0.29%
   17,NEW WORLD DEVELOPMENT CO LTD,"27,971,528",0.26%
   19,SWIRE PACIFIC LTD 'A',"1,079,000",0.11%
   20,WHEELOCK AND COMPANY LIMITED,"505,467",0.02%
   23,BANK OF EAST ASIA LTD,"429,993",0.01%
   27,GALAXY ENTERTAINMENT GROUP LIMITED,"46,283,357",1.05%
   35,FAR EAST CONSORTIUM INTERNATIONAL LTD,"100,013",0.00%
   38,FIRST TRACTOR COMPANY LIMITED,"100,596,100",25.65%
   41,GREAT EAGLE HOLDINGS LIMITED,"1,449,511",0.20%
   42,NORTHEAST ELECTRIC DEVELOPMENT COMPANY LIMITED,"16,946,000",6.56%
   43,C.P. POKPHAND CO LTD,"854,000",0.00%
   45,"HONGKONG AND SHANGHAI HOTELS LTD,THE","46,013",0.00%
   59,SKYFAME REALTY (HOLDINGS) LIMITED,"34,708,000",0.43%
   66,MTR CORPORATION LIMITED,"7,677,923",0.12%
   69,SHANGRI-LA ASIA LIMITED,"12,682,000",0.34%
   78,REGAL HOTELS INTERNATIONAL HOLDINGS LIMITED,"16,000",0.00%
   81,CHINA OVERSEAS GRAND OCEANS GROUP LIMITED,"260,725,820",7.61%
   83,SINO LAND CO.LTD.,"9,517,929",0.13%
   86,SUN HUNG KAI & CO.LTD,"9,658,000",0.48%
   87,SWIRE PACIFIC LTD 'B',"13,290,000",0.44%
   95,LVGEM (CHINA) REAL ESTATE INVESTMENT COMPANY LIMITED,"147,924,000",2.92%
  101,HANG LUNG PROPERTIES LIMITED,"5,680,949",0.12%
  107,SICHUAN EXPRESSWAY COMPANY LIMITED,"205,352,000",22.92%
  109,GOOD RESOURCES HOLDINGS LIMITED,"46,230,000",0.64%
  116,CHOW SANG SANG HOLDINGS INTERNATIONAL LIMITED,"24,000",0.00%
  119,"POLY PROPERTY GROUP CO., LIMITED","306,806,748",8.37%
  123,YUEXIU PROPERTY COMPANY LIMITED,"246,006,351",1.58%
  127,CHINESE ESTATES HOLDINGS LIMITED,"4,696,000",0.23%
  135,KUNLUN ENERGY COMPANY LIMITED,"136,387,000",1.56%
  136,HENGTEN NETWORKS GROUP LIMITED,"4,771,008,000",6.38%
  142,FIRST PACIFIC CO. LTD.,"51,122,000",1.17%
  144,CHINA MERCHANTS PORT HOLDINGS COMPANY LIMITED,"84,230,637",2.43%
  148,KINGBOARD HOLDINGS LIMITED,"18,567,136",1.67%
  151,WANT WANT CHINA HOLDINGS LIMITED,"17,830,871",0.13%
  152,SHENZHEN INTERNATIONAL HOLDINGS LIMITED,"59,095,457",2.72%
  163,EMPEROR INTERNATIONAL HOLDINGS LIMITED,"11,614,000",0.31%
  165,CHINA EVERBRIGHT LIMITED,"136,143,955",8.07%
  168,TSINGTAO BREWERY COMPANY LIMITED,"50,068,000",7.63%
  173,K. WAH INTERNATIONAL HOLDINGS LIMITED,"35,313,965",1.12%
  175,GEELY AUTOMOBILE HOLDINGS LIMITED,"727,337,426",7.89%
  177,JIANGSU EXPRESSWAY COMPANY LIMITED,"104,500,818",8.54%
  178,SA SA INTERNATIONAL HOLDINGS LIMITED,"15,619,268",0.49%
  179,JOHNSON ELECTRIC HOLDINGS LIMITED,"391,500",0.03%
  187,BEIJING JINGCHENG MACHINERY ELECTRIC COMPANY LIMITED,"27,940,000",27.93%
  189,DONGYUE GROUP LIMITED,"117,727,358",5.57%
  198,SMI HOLDINGS GROUP LIMITED,"70,340,800",2.59%
  200,MELCO INTERNATIONAL DEVELOPMENT LIMITED,"6,499,000",0.42%
  207,JOY CITY PROPERTY LIMITED,"5,564,000",0.03%
  215,HUTCHISON TELECOMMUNICATIONS HONG KONG HOLDINGS LIMITED,"6,736,000",0.13%
  220,UNI-PRESIDENT CHINA HOLDINGS LTD.,"5,142,000",0.11%
  241,ALIBABA HEALTH INFORMATION TECHNOLOGY LIMITED,"320,124,021",2.64%
  242,SHUN TAK HOLDINGS LIMITED,"79,598,000",2.62%
  245,CHINA MINSHENG FINANCIAL HOLDING CORPORATION LIMITED,"31,600,000",0.08%
  256,CITYCHAMP WATCH & JEWELLERY GROUP LIMITED,"317,934,000",7.30%
  257,CHINA EVERBRIGHT INTERNATIONAL LIMITED,"280,524,243",4.55%
  267,CITIC LIMITED,"40,528,916",0.13%
  268,KINGDEE INTERNATIONAL SOFTWARE GROUP COMPANY LIMITED,"334,582,580",10.06%
  270,GUANGDONG INVESTMENT LIMITED,"29,939,333",0.45%
  272,SHUI ON LAND LIMITED,"560,111,846",6.94%
  279,FREEMAN FINTECH CORPORATION LIMITED,"612,286,000",32.77%
  285,BYD ELECTRONIC (INTERNATIONAL) COMPANY LIMITED,"118,493,500",5.24%
  288,WH GROUP LIMITED,"1,147,310,801",7.78%
  291,CHINA RESOURCES BEER (HOLDINGS) COMPANY LIMITED,"143,509,615",4.42%
  293,CATHAY PACIFIC AIRWAYS LTD,"3,299,000",0.08%
  295,KONG SUN HOLDINGS LIMITED,"59,100,000",0.39%
  297,SINOFERT HOLDINGS LIMITED,"350,506,000",4.98%
  303,VTECH HOLDINGS LIMITED,"657,449",0.25%
  308,CHINA TRAVEL INTERNATIONAL INVESTMENT HONG KONG LIMITED,"193,646,439",3.48%
  315,SMARTONE TELECOMMUNICATIONS HOLDINGS LIMITED,"1,040,534",0.08%
  316,ORIENT OVERSEAS (INTERNATIONAL) LIMITED,"10,500",0.00%
  317,CSSC OFFSHORE & MARINE ENGINEERING (GROUP) COMPANY LIMITED,"15,532,200",2.62%
  321,TEXWINCA HOLDINGS LIMITED,"1,076,000",0.07%
  322,TINGYI (CAYMAN ISLANDS) HOLDING CORP.,"27,316,708",0.47%
  323,MAANSHAN IRON & STEEL COMPANY LIMITED,"26,376,000",1.51%
  327,PAX GLOBAL TECHNOLOGY LIMITED,"7,780,000",0.71%
  330,ESPRIT HOLDINGS LIMITED,"26,244,000",1.38%
  336,HUABAO INTERNATIONAL HOLDINGS LIMITED,"276,968,100",8.90%
  337,GREENLAND HONG KONG HOLDINGS LIMITED,"129,579,000",4.64%
  338,SINOPEC SHANGHAI PETROCHEMICAL COMPANY LIMITED,"165,468,375",4.72%
  341,CAFE DE CORAL HOLDINGS LTD,"1,808,000",0.30%
  345,VITASOY INTERNATIONAL HOLDINGS LTD,"12,516,011",1.16%
  347,ANGANG STEEL COMPANY LIMITED,"18,326,200",1.29%
  354,CHINASOFT INTERNATIONAL LIMITED,"390,242,460",14.86%
  358,JIANGXI COPPER COMPANY LIMITED,"38,278,219",2.75%
  363,SHANGHAI INDUSTRIAL HOLDINGS LIMITED,"19,579,100",1.79%
  371,BEIJING ENTERPRISES WATER GROUP LIMITED,"274,194,010",2.72%
  378,FDG KINETIC LIMITED,"185,364,000",2.74%
  384,CHINA GAS HOLDINGS LIMITED,"23,620,443",0.44%
  386,CHINA PETROLEUM & CHEMICAL CORPORATION,"989,487,595",3.87%
  388,HONG KONG EXCHANGES AND CLEARING LIMITED,"24,779,228",1.95%
  390,CHINA RAILWAY GROUP LIMITED,"244,091,030",5.79%
  392,BEIJING ENTERPRISES HOLDINGS LIMITED,"87,730,121",6.94%
  400,COGOBUY GROUP,"63,887,000",4.47%
  410,SOHO CHINA LIMITED,"255,314,000",4.90%
  412,CHINA SHANDONG HI-SPEED FINANCIAL GROUP LIMITED,"20,640,000",0.07%
  419,HUAYI TENCENT ENTERTAINMENT COMPANY LIMITED,"189,220,000",1.40%
  425,MINTH GROUP LIMITED,"99,841,626",
  439,KUANGCHI SCIENCE LIMITED,"327,301,000",5.30%
  440,DAH SING FINANCIAL HOLDINGS LTD,"1,280,466",0.40%
  451,GCL NEW ENERGY HOLDINGS LIMITED,"1,283,298,000",6.72%
  460,SIHUAN PHARMACEUTICAL HOLDINGS GROUP LTD.,"451,339,000",4.76%
  467,UNITED ENERGY GROUP LIMITED,"10,528,000",0.03%
  468,GREATVIEW ASEPTIC PACKAGING COMPANY LIMITED,"3,812,000",0.28%
  480,HKR INTERNATIONAL LTD,"261,680",0.01%
  488,LAI SUN DEVELOPMENT COMPANY LIMITED,"30,000",0.00%
  489,DONGFENG MOTOR GROUP COMPANY LIMITED,"198,243,000",6.93%
  493,GOME RETAIL HOLDINGS LIMITED,"2,179,515,000",10.10%
  494,LI & FUNG LIMITED,"49,162,000",0.56%
  496,KASEN INTERNATIONAL HOLDINGS LIMITED,"112,272,000",7.51%
  506,CHINA FOODS LIMITED,"51,430,100",1.83%
  508,DINGYI GROUP INVESTMENT LIMITED,"407,895,000",5.54%
  511,TELEVISION BROADCASTS LIMITED,"633,100",0.14%
  512,CHINA GRAND PHARMACEUTICAL AND HEALTHCARE HOLDINGS LIMITED,"93,839,200",2.77%
  517,"COSCO SHIPPING INTERNATIONAL (HONG KONG) CO., LTD.","728,000",0.04%
  520,"XIABUXIABU CATERING MANAGEMENT (CHINA) HOLDINGS CO., LTD.","49,703,500",4.59%
  522,ASM PACIFIC TECHNOLOGY LIMITED,"6,926,925",1.69%
  525,GUANGSHEN RAILWAY COMPANY LIMITED,"289,014,010",20.19%
  530,GOLDIN FINANCIAL HOLDINGS LIMITED,"2,936,000",0.04%
  535,GEMDALE PROPERTIES AND INVESTMENT CORPORATION LIMITED,"1,898,958,154",11.94%
  546,FUFENG GROUP LIMITED,"60,877,119",2.40%
  547,DIGITAL DOMAIN HOLDINGS LIMITED,"1,062,440,000",3.11%
  548,SHENZHEN EXPRESSWAY COMPANY LIMITED,"102,532,000",13.70%
  551,YUE YUEN INDUSTRIAL (HOLDINGS) LIMITED,"2,272,293",0.13%
  552,CHINA COMMUNICATIONS SERVICES CORPORATION LIMITED,"109,248,000",4.55%
  553,NANJING PANDA ELECTRONICS COMPANY LIMITED,"43,784,000",18.08%
  563,SHANGHAI INDUSTRIAL URBAN DEVELOPMENT GROUP LIMITED,"151,743,855",3.14%
  564,ZHENGZHOU COAL MINING MACHINERY GROUP COMPANY LIMITED,"64,528,200",26.52%
  568,SHANDONG MOLONG PETROLEUM MACHINERY COMPANY LIMITED,"51,958,400",20.28%
  570,CHINA TRADITIONAL CHINESE MEDICINE HOLDINGS CO LIMITED,"612,169,486",12.15%
  576,"ZHEJIANG EXPRESSWAY CO., LTD.","74,927,759",5.21%
  579,"BEIJING JINGNENG CLEAN ENERGY CO., LIMITED","182,002,000",6.43%
  581,CHINA ORIENTAL GROUP COMPANY LIMITED,"78,026,987",2.08%
  582,LANDING INTERNATIONAL DEVELOPMENT LIMITED,"120,164,400",4.08%
  586,CHINA CONCH VENTURE HOLDINGS LIMITED,"161,935,453",8.96%
  588,BEIJING NORTH STAR COMPANY LIMITED,"173,192,000",24.49%
  590,LUK FOOK HOLDINGS (INTERNATIONAL) LIMITED,"894,000",0.14%
  598,SINOTRANS LIMITED,"188,342,000",8.77%
  604,SHENZHEN INVESTMENT LIMITED,"64,101,461",0.72%
  606,CHINA AGRI-INDUSTRIES HOLDINGS LIMITED,"12,092,000",0.22%
  607,FULLSHARE HOLDINGS LIMITED,"5,129,565,000",26.02%
  612,CHINA DING YI FENG HOLDINGS LIMITED,"2,832,000",0.22%
  631,SANY HEAVY EQUIPMENT INTERNATIONAL HOLDINGS COMPANY LIMITED,"175,721,000",5.66%
  636,KERRY LOGISTICS NETWORK LIMITED,"971,500",0.05%
  639,SHOUGANG FUSHAN RESOURCES GROUP LIMITED,"120,972,000",2.27%
  656,FOSUN INTERNATIONAL LIMITED,"665,215,226",7.79%
  658,"CHINA HIGH SPEED TRANSMISSION EQUIPMENT GROUP CO., LTD.","215,573,000",13.17%
  659,NWS HOLDINGS LIMITED,"2,282,719",0.05%
  665,HAITONG INTERNATIONAL SECURITIES GROUP LIMITED,"296,048,456",4.97%
  667,CHINA EAST EDUCATION HOLDINGS LIMITED,"55,924,500",2.54%
  669,TECHTRONIC INDUSTRIES CO. LTD.,"7,803,970",0.42%
  670,CHINA EASTERN AIRLINES CORPORATION LIMITED,"496,150,231",9.58%
  680,NAN HAI CORPORATION LIMITED,"812,300,000",1.17%
  683,KERRY PROPERTIES LIMITED,"3,708,124",0.25%
  686,PANDA GREEN ENERGY GROUP LIMITED,"302,318,000",1.34%
  687,TYSAN HOLDINGS LIMITED,"2,752,000",0.08%
  688,CHINA OVERSEAS LAND & INVESTMENT LIMITED,"67,663,639",0.61%
  691,CHINA SHANSHUI CEMENT GROUP LIMITED,"4,442,000",0.09%
  694,BEIJING CAPITAL INTERNATIONAL AIRPORT COMPANY LIMITED,"248,180,949",13.20%
  696,TRAVELSKY TECHNOLOGY LIMITED,"41,803,000",4.48%
  698,TONGDA GROUP HOLDINGS LIMITED,"441,880,000",6.81%
  699,CAR INC.,"178,975,001",8.43%
  700,TENCENT HOLDINGS LIMITED,"219,691,864",2.29%
  709,GIORDANO INTERNATIONAL LIMITED,"4,104,000",0.25%
  715,CHINA OCEANWIDE HOLDINGS LIMITED,"488,000",0.00%
  718,TAI UNITED HOLDINGS LIMITED,"20,150,000",0.38%
  719,SHANDONG XINHUA PHARMACEUTICAL COMPANY LIMITED,"70,663,723",36.23%
  721,CHINA FINANCIAL INTERNATIONAL INVESTMENTS LIMITED,"307,160,000",2.79%
  728,CHINA TELECOM CORPORATION LIMITED,"313,763,238",2.25%
  729,FDG ELECTRIC VEHICLES LIMITED,"72,358,750",2.88%
  732,TRULY INTERNATIONAL HOLDINGS LIMITED,"317,266,000",9.64%
  737,SZ INVESTMENT HLDGS BAY AREA DEV CO LTD -HKD TRADED SHARES,"1,883,500",0.05%
  743,ASIA CEMENT (CHINA) HOLDINGS CORPORATION,"4,266,500",0.27%
  751,SKYWORTH GROUP LIMITED,"119,348,311",3.89%
  753,AIR CHINA LIMITED,"355,249,936",7.78%
  754,HOPSON DEVELOPMENT HOLDINGS LIMITED,"76,918,000",3.45%
  762,CHINA UNICOM (HONG KONG) LIMITED,"93,256,000",0.29%
  763,ZTE CORPORATION,"267,865,604",35.45%
  772,CHINA LITERATURE LIMITED,"40,133,800",3.96%
  775,"CK LIFE SCIENCES INT'L., (HOLDINGS) INC.","26,512,000",0.27%
  777,NETDRAGON WEBSOFT HOLDINGS LIMITED,"29,922,000",5.30%
  780,TONGCHENG-ELONG HOLDINGS LIMITED,"27,530,400",1.28%
  787,GLOBAL BRANDS GROUP HOLDING LIMITED,"68,011,875",6.60%
  788,CHINA TOWER CORPORATION LIMITED,"2,091,751,916",4.47%
  799,IGG INC,"142,209,298",11.40%
  806,VALUE PARTNERS GROUP LIMITED,"50,813,405",2.73%
  811,"XINHUA WINSHARE PUBLISHING AND MEDIA CO., LTD.","53,694,000",12.14%
  813,SHIMAO PROPERTY HOLDINGS LIMITED,"93,503,141",2.69%
  816,HUADIAN FUXIN ENERGY CORPORATION LIMITED,"15,600,000",0.60%
  817,CHINA JINMAO HOLDINGS GROUP LIMITED,"738,110,947",6.26%
  819,TIANNENG POWER INTERNATIONAL LIMITED,"107,976,000",9.58%
  829,SHENGUAN HOLDINGS (GROUP) LIMITED,"144,784,000",4.48%
  832,CENTRAL CHINA REAL ESTATE LIMITED,"67,645,000",2.46%
  836,CHINA RESOURCES POWER HOLDINGS COMPANY LIMITED,"136,582,627",2.83%
  839,CHINA EDUCATION GROUP HOLDINGS LIMITED,"118,575,593",5.86%
  845,GLORIOUS PROPERTY HOLDINGS LIMITED,"23,371,000",0.29%
  846,MINGFA GROUP (INTERNATIONAL) COMPANY LIMITED,"5,261,000",0.08%
  853,MICROPORT SCIENTIFIC CORPORATION,"112,732,679",6.53%
  855,CHINA WATER AFFAIRS GROUP LIMITED,"185,458,334",11.56%
  856,VSTECS HOLDINGS LIMITED,"3,772,000",0.25%
  857,PETROCHINA COMPANY LIMITED,"1,242,149,455",5.88%
  860,WE SOLUTIONS LIMITED,"32,292,000",0.45%
  861,DIGITAL CHINA HOLDINGS LIMITED,"758,421,400",45.37%
  867,CHINA MEDICAL SYSTEM HOLDINGS LIMITED,"12,057,618",0.47%
  868,XINYI GLASS HOLDINGS LIMITED,"185,723,053",4.61%
  874,"GUANGZHOU BAIYUNSHAN PHARMACEUTICAL HOLDINGS CO., LTD.","60,744,000",27.61%
  880,SJM HOLDINGS LIMITED,"177,599,700",3.12%
  881,ZHONGSHENG GROUP HOLDINGS LIMITED,"49,877,313",2.18%
  883,CNOOC LIMITED,"127,241,995",0.28%
  884,CIFI HOLDINGS (GROUP) CO. LTD.,"430,488,611",5.44%
  885,RENTIAN TECHNOLOGY HOLDINGS LIMITED,"1,110,000",0.01%
  895,DONGJIANG ENVIRONMENTAL COMPANY LIMITED,"55,334,800",27.64%
  902,"HUANENG POWER INTERNATIONAL, INC.","1,870,513,624",39.79%
  906,CPMC HOLDINGS LIMITED,"36,770,000",3.16%
  911,QIANHAI HEALTH HOLDINGS LIMITED,"93,808,000",5.53%
  914,ANHUI CONCH CEMENT COMPANY LIMITED,"28,006,289",2.14%
  916,CHINA LONGYUAN POWER GROUP CORPORATION LIMITED,"209,750,077",6.27%
  921,"HISENSE HOME APPLIANCES GROUP CO., LTD.","57,901,300",12.59%
  931,CHINA LNG GROUP LIMITED,"182,077,000",3.22%
  933,BRIGHTOIL PETROLEUM (HOLDINGS) LIMITED,"25,254,000",0.24%
  934,SINOPEC KANTONS HOLDINGS LIMITED,"120,114,000",4.82%
  939,CHINA CONSTRUCTION BANK CORPORATION,"19,696,642,126",8.18%
  941,CHINA MOBILE LIMITED,"80,265,190",0.38%
  950,LEE'S PHARMACEUTICAL HOLDINGS LIMITED,"2,323,500",0.39%
  951,CHAOWEI POWER HOLDINGS LIMITED,"107,892,000",9.77%
  960,LONGFOR GROUP HOLDINGS LIMITED,"153,450,493",2.56%
  966,CHINA TAIPING INSURANCE HOLDINGS COMPANY LIMITED,"454,004,970",12.63%
  967,SOUND GLOBAL LTD.,"289,000",0.01%
  968,XINYI SOLAR HOLDINGS LIMITED,"956,374,242",11.82%
  976,CHIHO ENVIRONMENTAL GROUP LIMITED,"233,340,000",14.53%
  978,CHINA MERCHANTS LAND LIMITED,"51,196,000",1.04%
  981,SEMICONDUCTOR MANUFACTURING INTERNATIONAL CORPORATION,"1,260,004,798",24.58%
  989,GROUND INTERNATIONAL DEVELOPMENT LIMITED,"189,520,000",3.59%
  991,"DATANG INTERNATIONAL POWER GENERATION CO.,LTD.","186,300,000",3.04%
  992,LENOVO GROUP LIMITED,"44,064,476",0.35%
  995,ANHUI EXPRESSWAY COMPANY LIMITED,"90,678,000",18.38%
  996,CARNIVAL GROUP INTERNATIONAL HOLDINGS LIMITED,"6,110,842,500",25.77%
  998,CHINA CITIC BANK CORPORATION LIMITED,"2,006,536,901",13.47%
 1028,C.BANNER INTERNATIONAL HOLDINGS LIMITED,"150,504,000",7.24%
 1030,SEAZEN GROUP LIMITED,"319,678,500",5.14%
 1031,KINGSTON FINANCIAL GROUP LIMITED,"550,000",0.00%
 1033,SINOPEC OILFIELD SERVICE CORPORATION,"332,190,000",6.13%
 1038,CK INFRASTRUCTURE HOLDINGS LIMITED,"10,661,500",0.39%
 1044,HENGAN INTERNATIONAL GROUP COMPANY LIMITED,"14,106,500",1.18%
 1052,YUEXIU TRANSPORT INFRASTRUCTURE LIMITED,"37,984,000",2.27%
 1053,CHONGQING IRON & STEEL COMPANY LIMITED,"91,822,000",17.05%
 1055,CHINA SOUTHERN AIRLINES COMPANY LIMITED,"431,644,861",11.76%
 1057,ZHEJIANG SHIBAO COMPANY LIMITED,"40,566,000",18.71%
 1060,ALIBABA PICTURES GROUP LIMITED,"2,692,958,620",10.11%
 1065,TIANJIN CAPITAL ENVIRONMENTAL PROTECTION GROUP COMPANY LIMITED,"90,450,100",26.59%
 1066,SHANDONG WEIGAO GROUP MEDICAL POLYMER COMPANY LIMITED,"115,011,094",2.53%
 1068,CHINA YURUN FOOD GROUP LIMITED,"18,608,000",1.02%
 1070,TCL ELECTRONICS HOLDINGS LIMITED,"50,969,666",2.15%
 1071,HUADIAN POWER INTERNATIONAL CORPORATION LIMITED,"484,210,683",28.19%
 1072,DONGFANG ELECTRIC CORPORATION LIMITED,"99,131,646",29.15%
 1076,IMPERIAL PACIFIC INTERNATIONAL HOLDINGS LIMITED,"391,480,000",0.27%
 1083,TOWNGAS CHINA COMPANY LIMITED,"3,621,007",0.12%
 1086,GOODBABY INTERNATIONAL HOLDINGS LIMITED,"29,091,000",1.74%
 1088,CHINA SHENHUA ENERGY COMPANY LIMITED,"752,804,520",22.14%
 1089,LEYOU TECHNOLOGIES HOLDINGS LIMITED,"73,765,000",2.39%
 1093,CSPC PHARMACEUTICAL GROUP LIMITED,"296,390,867",4.74%
 1097,I-CABLE COMMUNICATIONS LIMITED,"102,723",0.00%
 1098,ROAD KING INFRASTRUCTURE LIMITED,"8,489,000",1.13%
 1099,SINOPHARM GROUP CO. LTD.,"37,981,776",2.82%
 1108,LUOYANG GLASS COMPANY LIMITED,"90,800,000",36.31%
 1109,CHINA RESOURCES LAND LIMITED,"93,227,683",1.30%
 1111,CHONG HING BANK LIMITED,"1,056,500",0.10%
 1112,HEALTH AND HAPPINESS (H&H) INTERNATIONAL HOLDINGS LIMITED,"52,558,500",8.16%
 1113,CK ASSET HOLDINGS LIMITED,"9,735,963",0.26%
 1114,BRILLIANCE CHINA AUTOMOTIVE HOLDINGS LIMITED,"200,469,080",3.96%
 1115,TIBET WATER RESOURCES LTD.,"161,127,000",6.27%
 1117,CHINA MODERN DAIRY HOLDINGS LTD.,"131,968,000",2.05%
 1119,IDREAMSKY TECHNOLOGY HOLDINGS LIMITED,"22,520,000",1.77%
 1128,"WYNN MACAU, LIMITED","14,450,559",0.27%
 1131,AGRITRADE RESOURCES LIMITED,"246,230,000",3.86%
 1138,"COSCO SHIPPING ENERGY TRANSPORTATION CO., LTD.","196,006,000",15.11%
 1140,OP FINANCIAL LIMITED,"102,936,000",3.54%
 1141,CMBC CAPITAL HOLDINGS LIMITED,"566,610,000",1.18%
 1157,"ZOOMLION HEAVY INDUSTRY SCIENCE AND TECHNOLOGY CO., LTD.","62,234,411",4.48%
 1165,SHUNFENG INTERNATIONAL CLEAN ENERGY LIMITED,"338,256,000",6.78%
 1169,"HAIER ELECTRONICS GROUP CO., LTD.","61,461,929",2.17%
 1171,YANZHOU COAL MINING COMPANY LIMITED,"327,533,000",16.77%
 1176,ZHUGUANG HOLDINGS GROUP COMPANY LIMITED,"147,564,000",2.05%
 1177,SINO BIOPHARMACEUTICAL LIMITED,"952,353,409",7.55%
 1186,CHINA RAILWAY CONSTRUCTION CORPORATION LIMITED,"68,162,657",3.27%
 1188,HYBRID KINETIC GROUP LIMITED,"119,950,000",0.58%
 1193,CHINA RESOURCES GAS GROUP LIMITED,"13,481,000",0.59%
 1196,REALORD GROUP HOLDINGS LIMITED,"113,248,000",7.87%
 1199,COSCO SHIPPING PORTS LIMITED,"6,496,965",0.19%
 1205,CITIC RESOURCES HOLDINGS LIMITED,"187,218,100",2.37%
 1208,MMG LIMITED,"210,894,000",2.61%
 1211,BYD COMPANY LIMITED,"44,951,831",4.91%
 1212,LIFESTYLE INTERNATIONAL HOLDINGS LIMITED,"1,447,312",0.09%
 1230,YASHILI INTERNATIONAL HOLDINGS LTD,"79,870,000",1.68%
 1233,TIMES CHINA HOLDINGS LIMITED,"124,298,757",6.39%
 1234,CHINA LILANG LIMITED,"37,418,000",3.12%
 1238,POWERLONG REAL ESTATE HOLDINGS LIMITED,"90,395,000",2.18%
 1250,BEIJING ENTERPRISES CLEAN ENERGY GROUP LIMITED,"1,873,580,000",2.94%
 1253,CHINA GREENLAND BROAD GREENSTATE GROUP COMPANY LIMITED,"6,840,000",0.20%
 1257,CHINA EVERBRIGHT GREENTECH LIMITED,"60,309,000",2.91%
 1269,CHINA FIRST CAPITAL GROUP LIMITED,"1,246,286,000",24.79%
 1282,GLORY SUN FINANCIAL GROUP LIMITED,"2,031,860,000",6.81%
 1288,AGRICULTURAL BANK OF CHINA LIMITED,"6,623,287,435",21.54%
 1293,GRAND BAOXIN AUTO GROUP LIMITED,"136,412,966",4.80%
 1299,AIA GROUP LIMITED,"84,808,714",0.69%
 1302,LIFETECH SCIENTIFIC CORPORATION,"614,458,000",14.22%
 1308,SITC INTERNATIONAL HOLDINGS COMPANY LIMITED,"56,753,000",2.11%
 1310,HKBN LTD.,"4,002,500",0.30%
 1313,CHINA RESOURCES CEMENT HOLDINGS LIMITED,"64,197,915",0.91%
 1315,VISION FAME INTERNATIONAL HOLDING LIMITED,"733,014,000",12.21%
 1316,NEXTEER AUTOMOTIVE GROUP LIMITED,"29,480,000",1.16%
 1317,CHINA MAPLE LEAF EDUCATIONAL SYSTEMS LIMITED,"270,348,537",9.02%
 1330,"DYNAGREEN ENVIRONMENTAL PROTECTION GROUP CO., LTD","105,372,000",26.05%
 1333,CHINA ZHONGWANG HOLDINGS LIMITED,"242,932,800",4.45%
 1336,NEW CHINA LIFE INSURANCE COMPANY LTD.,"332,462,635",32.14%
 1339,"PEOPLE'S INSURANCE COMPANY (GROUP) OF CHINA LIMITED, THE","1,321,125,987",15.13%
 1347,HUA HONG SEMICONDUCTOR LIMITED,"60,072,984",4.64%
 1357,"MEITU, INC.","296,392,600",6.86%
 1359,"CHINA CINDA ASSET MANAGEMENT CO., LTD.","1,935,313,457",14.25%
 1361,361 DEGREES INTERNATIONAL LIMITED,"33,511,000",1.62%
 1363,CT ENVIRONMENTAL GROUP LIMITED,"502,874,000",7.95%
 1368,XTEP INTERNATIONAL HOLDINGS LIMITED,"34,820,396",1.38%
 1375,"CENTRAL CHINA SECURITIES CO., LTD.","190,623,000",15.94%
 1378,CHINA HONGQIAO GROUP LIMITED,"491,716,410",5.72%
 1381,CANVEST ENVIRONMENTAL PROTECTION GROUP COMPANY LIMITED,"27,912,000",1.14%
 1382,PACIFIC TEXTILES HOLDINGS LIMITED,"13,405,000",0.92%
 1383,SUNCITY GROUP HOLDINGS LIMITED,"13,280,000",0.19%
 1387,CHINA DILI GROUP,"158,786,730",2.77%
 1398,INDUSTRIAL AND COMMERCIAL BANK OF CHINA LIMITED,"21,425,719,634",24.67%
 1432,CHINA SHENGMU ORGANIC MILK LIMITED,"167,678,000",2.63%
 1448,FU SHOU YUAN INTERNATIONAL GROUP LIMITED,"199,380,000",8.79%
 1458,ZHOU HEI YA INTERNATIONAL HOLDINGS COMPANY LIMITED,"319,763,500",13.41%
 1478,Q TECHNOLOGY (GROUP) COMPANY LIMITED,"43,785,000",3.78%
 1508,CHINA REINSURANCE (GROUP) CORPORATION,"509,520,000",7.62%
 1513,LIVZON PHARMACEUTICAL GROUP INC.,"31,859,446",9.96%
 1515,CHINA RESOURCES MEDICAL HOLDINGS COMPANY LIMITED,"42,211,600",3.25%
 1521,FRONTAGE HOLDINGS CORPORATION,"105,072,000",5.21%
 1528,RED STAR MACALLINE GROUP CORPORATION LTD.,"101,660,189",15.08%
 1530,3SBIO INC.,"90,241,000",3.54%
 1533,"LANZHOU ZHUANGYUAN PASTURE CO., LTD.","4,646,000",13.22%
 1548,GENSCRIPT BIOTECH CORPORATION,"194,390,000",10.32%
 1551,"GUANGZHOU RURAL COMMERCIAL BANK CO., LTD","2,415,000",0.13%
 1558,"YICHANG HEC CHANGJIANG PHARMACEUTICAL CO., LTD.","54,876,800",24.65%
 1569,MINSHENG EDUCATION GROUP COMPANY LIMITED,"86,746,000",2.15%
 1573,SOUTHERN ENERGY HOLDINGS GROUP LIMITED,"108,872,000",15.16%
 1578,"BANK OF TIANJIN CO., LTD.","39,000",0.00%
 1579,YIHAI INTERNATIONAL HOLDING LTD.,"45,403,748",4.32%
 1583,QINQIN FOODSTUFFS GROUP (CAYMAN) COMPANY LIMITED,"25,700",0.00%
 1585,YADEA GROUP HOLDINGS LTD.,"252,902,000",8.44%
 1589,"CHINA LOGISTICS PROPERTY HOLDINGS CO., LTD","116,000",0.00%
 1600,CHINA TIAN LUN GAS HOLDINGS LIMITED,"9,543,000",0.95%
 1606,"CHINA DEVELOPMENT BANK FINANCIAL LEASING CO., LTD.","546,000",0.01%
 1608,VPOWER GROUP INTERNATIONAL HOLDINGS LIMITED,"1,394,000",0.05%
 1610,COFCO MEAT HOLDINGS LIMITED,"219,923,489",5.63%
 1618,METALLURGICAL CORPORATION OF CHINA LTD.,"267,592,000",9.31%
 1619,TIANHE CHEMICALS GROUP LIMITED,"193,880,000",0.78%
 1622,REDCO PROPERTIES GROUP LIMITED,"77,306,000",2.17%
 1628,YUZHOU PROPERTIES COMPANY LIMITED,"56,283,469",1.06%
 1635,"SHANGHAI DAZHONG PUBLIC UTILITIES (GROUP) CO., LTD.","69,569,000",13.03%
 1636,CHINA METAL RESOURCES UTILIZATION LIMITED,"39,952,000",1.51%
 1638,KAISA GROUP HOLDINGS LTD.,"335,363,619",5.49%
 1658,"POSTAL SAVINGS BANK OF CHINA CO., LTD.","311,404,000",1.56%
 1661,WISDOM SPORTS GROUP,"6,451,000",0.40%
 1666,TONG REN TANG TECHNOLOGIES CO LTD,"150,405,200",23.92%
 1668,CHINA SOUTH CITY HOLDINGS LIMITED,"749,528,396",9.24%
 1680,MACAU LEGEND DEVELOPMENT LIMITED,"134,216,000",2.15%
 1681,CONSUN PHARMACEUTICAL GROUP LIMITED,"33,629,000",3.88%
 1685,BOER POWER HOLDINGS LIMITED,"2,255,000",0.29%
 1686,SUNEVISION HOLDINGS LIMITED,"2,954,000",0.12%
 1717,AUSNUTRIA DAIRY CORPORATION LTD,"52,511,000",3.25%
 1728,CHINA ZHENGTONG AUTO SERVICES HOLDINGS LIMITED,"166,913,500",6.79%
 1761,BABYTREE GROUP,"6,885,500",0.41%
 1765,"HOPE EDUCATION GROUP CO., LTD.","413,218,000",6.19%
 1766,CRRC CORPORATION LIMITED,"238,146,120",5.44%
 1772,"GANFENG LITHIUM CO., LTD.","93,848,200",46.88%
 1776,"GF SECURITIES CO., LTD.","413,091,900",24.27%
 1777,"FANTASIA HOLDINGS GROUP CO., LIMITED","344,053,000",5.96%
 1778,"COLOUR LIFE SERVICES GROUP CO., LIMITED","69,876,000",4.91%
 1787,"SHANDONG GOLD MINING CO., LTD.","89,703,661",17.95%
 1788,GUOTAI JUNAN INTERNATIONAL HOLDINGS LIMITED,"197,077,000",2.54%
 1797,KOOLEARN TECHNOLOGY HOLDING LIMITED,"131,145,237",13.97%
 1800,CHINA COMMUNICATIONS CONSTRUCTION COMPANY LIMITED,"313,055,000",7.06%
 1806,HUIFU PAYMENT LIMITED,"41,680,800",3.22%
 1810,XIAOMI CORPORATION,"1,308,673,437",5.44%
 1811,"CGN NEW ENERGY HOLDINGS CO., LTD.","145,430,000",3.38%
 1812,SHANDONG CHENMING PAPER HOLDINGS LIMITED,"93,682,700",17.73%
 1813,KWG GROUP HOLDINGS LIMITED,"199,784,293",6.28%
 1816,"CGN POWER CO., LTD","2,122,186,000",19.00%
 1818,ZHAOJIN MINING INDUSTRY COMPANY LIMITED,"91,215,372",8.69%
 1829,CHINA MACHINERY ENGINEERING CORPORATION,"143,000",0.01%
 1833,PING AN HEALTHCARE AND TECHNOLOGY COMPANY LIMITED,"40,041,000",3.75%
 1848,CHINA AIRCRAFT LEASING GROUP HOLDINGS LIMITED,"6,883,000",1.01%
 1860,MOBVISTA INC.,"2,739,000",0.17%
 1876,BUDWEISER BREWING COMPANY APAC LIMITED,"15,499,500",0.11%
 1882,HAITIAN INTERNATIONAL HOLDINGS LIMITED,"20,493,000",1.28%
 1883,CITIC TELECOM INTERNATIONAL HOLDINGS LIMITED,"20,553,000",0.56%
 1886,CHINA HUIYUAN JUICE GROUP LIMITED,"125,355,500",4.69%
 1888,KINGBOARD LAMINATES HOLDINGS LIMITED,"23,683,595",0.76%
 1890,CHINA KEPEI EDUCATION GROUP LIMITED,"84,584,000",4.22%
 1896,MAOYAN ENTERTAINMENT,"23,264,200",2.05%
 1898,CHINA COAL ENERGY COMPANY LIMITED,"250,388,000",6.08%
 1905,"HAITONG UNITRUST INTERNATIONAL LEASING CO., LTD.","1,270,000",0.02%
 1907,CHINA RISUN GROUP LIMITED,"8,559,000",0.20%
 1908,C&D INTERNATIONAL INVESTMENT GROUP LIMITED,"59,762,000",5.07%
 1911,CHINA RENAISSANCE HOLDINGS LIMITED,"5,268,900",0.98%
 1916,"JIANGXI BANK CO., LTD.","11,698,500",0.86%
 1918,SUNAC CHINA HOLDINGS LIMITED,"883,804,939",19.01%
 1919,"COSCO SHIPPING HOLDINGS CO., LTD.","288,668,500",11.18%
 1928,SANDS CHINA LTD.,"43,724,541",0.53%
 1929,CHOW TAI FOOK JEWELLERY GROUP LIMITED,"42,257,400",0.42%
 1951,JINXIN FERTILITY GROUP LIMITED,"123,400,930",5.06%
 1958,BAIC MOTOR CORPORATION LIMITED,"89,449,000",3.53%
 1963,"BANK OF CHONGQING CO., LTD.","107,635,000",6.81%
 1966,CHINA SCE GROUP HOLDINGS LIMITED,"128,892,054",3.08%
 1970,"IMAX CHINA HOLDING, INC.","3,204,500",0.91%
 1972,SWIRE PROPERTIES LIMITED,"1,768,200",0.02%
 1980,TIAN GE INTERACTIVE HOLDINGS LIMITED,"28,414,000",2.25%
 1988,"CHINA MINSHENG BANKING CORP., LTD.","882,712,449",10.60%
 1992,FOSUN TOURISM GROUP,"1,165,800",0.09%
 1996,REDSUN PROPERTIES GROUP LIMITED,"5,684,000",0.17%
 1997,WHARF REAL ESTATE INVESTMENT COMPANY LIMITED,"3,904,958",0.11%
 1999,MAN WAH HOLDINGS LIMITED,"558,767,371",14.64%
 2001,CHINA NEW HIGHER EDUCATION GROUP LIMITED,"185,619,000",12.04%
 2003,VCREDIT HOLDINGS LIMITED,"3,683,800",0.73%
 2005,SSY GROUP LIMITED,"254,890,059",8.40%
 2007,COUNTRY GARDEN HOLDINGS COMPANY LIMITED,"223,490,421",1.01%
 2008,PHOENIX MEDIA INVESTMENT (HOLDINGS) LIMITED,"213,004,000",4.26%
 2009,BBMG CORPORATION,"201,181,500",8.59%
 2013,WEIMOB INC.,"221,159,432",9.88%
 2016,"CHINA ZHESHANG BANK CO., LTD.","2,982,000",0.06%
 2018,AAC TECHNOLOGIES HOLDINGS INC.,"50,894,551",4.20%
 2019,DEXIN CHINA HOLDINGS COMPANY LIMITED,"12,948,000",0.47%
 2020,ANTA SPORTS PRODUCTS LIMITED,"110,714,961",4.09%
 2038,FIH MOBILE LIMITED,"102,270,000",1.24%
 2039,"CHINA INTERNATIONAL MARINE CONTAINERS (GROUP) CO., LTD.","160,306,000",7.78%
 2051,51 CREDIT CARD INC.,"63,475,500",5.32%
 2066,"SHENGJING BANK CO., LTD.","284,500",0.01%
 2068,CHINA ALUMINUM INTERNATIONAL ENGINEERING CORPORATION LIMITED,"3,039,000",0.75%
 2098,ZALL SMART COMMERCE GROUP LTD.,"47,925,000",0.40%
 2099,CHINA GOLD INTERNATIONAL RESOURCES CORP. LTD.,"17,558,300",4.42%
 2111,BEST PACIFIC INTERNATIONAL HOLDINGS LIMITED,"1,698,000",0.16%
 2128,CHINA LESSO GROUP HOLDINGS LIMITED,"21,802,000",0.69%
 2136,LIFESTYLE CHINA GROUP LIMITED,"284,000",0.01%
 2186,LUYE PHARMA GROUP LTD.,"513,905,000",15.71%
 2196,"SHANGHAI FOSUN PHARMACEUTICAL (GROUP) CO., LTD.","173,246,825",31.38%
 2199,REGINA MIRACLE INTERNATIONAL (HOLDINGS) LIMITED,"2,987,000",0.23%
 2202,"CHINA VANKE CO., LTD.","159,617,690",10.11%
 2208,"XINJIANG GOLDWIND SCIENCE & TECHNOLOGY CO., LTD.","100,955,662",13.05%
 2232,CRYSTAL INTERNATIONAL GROUP LIMITED,"4,810,500",0.16%
 2233,WEST CHINA CEMENT LIMITED,"222,628,000",4.09%
 2238,"GUANGZHOU AUTOMOBILE GROUP CO., LTD.","1,166,857,343",37.64%
 2255,HAICHANG OCEAN PARK HOLDINGS LTD.,"49,806,000",1.24%
 2269,WUXI BIOLOGICS (CAYMAN) INC.,"104,044,912",8.01%
 2280,HC GROUP INC.,"127,556,000",11.38%
 2282,MGM CHINA HOLDINGS LIMITED,"21,230,696",0.55%
 2298,COSMO LADY (CHINA) HOLDINGS COMPANY LIMITED,"11,895,000",0.51%
 2313,SHENZHOU INTERNATIONAL GROUP HOLDINGS LIMITED,"55,941,138",3.71%
 2314,LEE & MAN PAPER MANUFACTURING LIMITED,"47,946,825",1.09%
 2318,"PING AN INSURANCE (GROUP) COMPANY OF CHINA, LTD.","125,139,453",1.67%
 2319,CHINA MENGNIU DAIRY COMPANY LIMITED,"58,456,919",1.48%
 2326,NEW PROVENANCE EVERLASTING HOLDINGS LIMITED,"56,120,000",0.25%
 2328,PICC PROPERTY AND CASUALTY COMPANY LIMITED,"551,887,641",7.99%
 2329,GUORUI PROPERTIES LIMITED,"149,584,000",3.35%
 2331,LI NING COMPANY LIMITED,"112,182,227",4.56%
 2333,GREAT WALL MOTOR COMPANY LIMITED,"877,348,786",28.30%
 2338,"WEICHAI POWER CO., LTD.","107,420,600",5.52%
 2343,PACIFIC BASIN SHIPPING LIMITED,"5,478,000",0.11%
 2356,DAH SING BANKING GROUP LIMITED,"201,200",0.01%
 2357,AVICHINA INDUSTRY & TECHNOLOGY COMPANY LIMITED,"334,196,000",5.35%
 2359,"WUXI APPTEC CO., LTD.","9,869,620",5.78%
 2362,JINCHUAN GROUP INTERNATIONAL RESOURCES CO. LTD.,"94,777,000",0.75%
 2363,TONGDA HONG TAI HOLDINGS LIMITED,"379,462",0.19%
 2369,COOLPAD GROUP LIMITED,"48,928,000",0.83%
 2380,CHINA POWER INTERNATIONAL DEVELOPMENT LIMITED,"723,299,436",7.36%
 2382,SUNNY OPTICAL TECHNOLOGY (GROUP) COMPANY LIMITED,"97,821,230",8.91%
 2386,"SINOPEC ENGINEERING (GROUP) CO., LTD.","16,322,000",1.11%
 2388,BOC HONG KONG (HOLDINGS) LIMITED,"34,120,445",0.31%
 2588,BOC AVIATION LIMITED,"11,918,100",1.71%
 2600,ALUMINUM CORPORATION OF CHINA LIMITED,"234,108,000",5.92%
 2601,CHINA PACIFIC INSURANCE (GROUP) CO. LTD.,"660,678,368",23.79%
 2607,"SHANGHAI PHARMACEUTICALS HOLDING CO., LTD.","112,626,166",12.25%
 2611,"GUOTAI JUNAN SECURITIES CO., LTD.","41,134,400",2.94%
 2628,CHINA LIFE INSURANCE COMPANY LIMITED,"212,459,593",2.85%
 2662,CAMSING INTERNATIONAL HOLDING LIMITED,"132,096,000",12.26%
 2666,GENERTEC UNIVERSAL MEDICAL GROUP COMPANY LIMITED,"305,617,500",17.80%
 2669,CHINA OVERSEAS PROPERTY HOLDINGS LIMITED,"270,264,682",8.22%
 2678,TEXHONG TEXTILE GROUP LIMITED,"27,573,500",3.01%
 2688,ENN ENERGY HOLDINGS LIMITED,"9,729,890",0.86%
 2689,NINE DRAGONS PAPER (HOLDINGS) LIMITED,"72,710,000",1.54%
 2727,SHANGHAI ELECTRIC GROUP COMPANY LIMITED,"684,635,000",23.02%
 2768,JIAYUAN INTERNATIONAL GROUP LIMITED,"316,811,577",8.03%
 2772,ZHONGLIANG HOLDINGS GROUP COMPANY LIMITED,"7,950,500",0.21%
 2777,"GUANGZHOU R&F PROPERTIES CO., LTD.","79,367,623",6.15%
 2799,"CHINA HUARONG ASSET MANAGEMENT CO., LTD.","1,833,856,000",7.31%
 2858,YIXIN GROUP LIMITED,"59,562,000",0.92%
 2866,"COSCO SHIPPING DEVELOPMENT CO., LTD.","514,766,000",14.00%
 2869,GREENTOWN SERVICE GROUP CO. LTD.,"204,587,899",7.32%
 2877,CHINA SHINEWAY PHARMACEUTICAL GROUP LIMITED,"10,605,000",1.27%
 2880,DALIAN PORT (PDA) COMPANY LIMITED,"905,936,400",17.55%
 2883,CHINA OILFIELD SERVICES LIMITED,"156,285,627",8.62%
 2888,STANDARD CHARTERED PLC,"427,970",0.01%
 2899,"ZIJIN MINING GROUP CO., LTD.","1,302,358,000",22.69%
 3301,RONSHINE CHINA HOLDINGS LIMITED,"150,213,000",8.74%
 3306,JNBY DESIGN LIMITED,"17,308,500",3.33%
 3308,GOLDEN EAGLE RETAIL GROUP LIMITED,"115,197,000",6.85%
 3309,C-MER EYE CARE HOLDINGS LIMITED,"13,418,000",1.27%
 3311,CHINA STATE CONSTRUCTION INTERNATIONAL HOLDINGS LIMITED,"18,822,192",0.37%
 3320,CHINA RESOURCES PHARMACEUTICAL GROUP LIMITED,"92,221,000",1.46%
 3323,CHINA NATIONAL BUILDING MATERIAL COMPANY LIMITED,"805,937,600",20.82%
 3328,"BANK OF COMMUNICATIONS CO., LTD.","566,170,944",1.60%
 3329,BOCOM INTERNATIONAL HOLDINGS COMPANY LIMITED,"19,076,000",0.69%
 3331,VINDA INTERNATIONAL HOLDINGS LIMITED,"402,000",0.02%
 3333,CHINA EVERGRANDE GROUP,"179,897,355",1.35%
 3339,LONKING HOLDINGS LIMITED,"11,284,000",0.26%
 3360,FAR EAST HORIZON LIMITED,"92,242,000",2.32%
 3368,PARKSON RETAIL GROUP LIMITED,"5,709,500",0.21%
 3369,"QINHUANGDAO PORT CO., LTD.","68,468,500",8.24%
 3377,SINO-OCEAN GROUP HOLDING LIMITED,"127,402,310",1.66%
 3380,LOGAN PROPERTY HOLDINGS COMPANY LIMITED,"138,704,871",2.50%
 3382,TIANJIN PORT DEVELOPMENT HOLDINGS LIMITED,"219,386,000",3.56%
 3383,AGILE GROUP HOLDINGS LIMITED,"31,046,548",0.79%
 3389,HENGDELI HOLDINGS LIMITED,"920,000",0.01%
 3393,WASION HOLDINGS LIMITED,"1,326,000",0.13%
 3396,LEGEND HOLDINGS CORPORATION,"72,258,700",5.67%
 3606,"FUYAO GLASS INDUSTRY GROUP CO., LTD","30,159,200",5.96%
 3613,BEIJING TONG REN TANG CHINESE MEDICINE COMPANY LIMITED,"72,173,000",8.62%
 3618,"CHONGQING RURAL COMMERCIAL BANK CO., LTD.","517,615,127",20.58%
 3633,ZHONGYU GAS HOLDINGS LIMITED,"13,441,000",0.49%
 3669,CHINA YONGDA AUTOMOBILES SERVICES HOLDINGS LIMITED,"15,402,500",0.83%
 3690,MEITUAN DIANPING,"212,182,218",3.64%
 3692,HANSOH PHARMACEUTICAL GROUP COMPANY LIMITED,"42,443,000",0.73%
 3698,HUISHANG BANK CORPORATION LIMITED,"4,803,800",0.13%
 3759,"PHARMARON BEIJING CO., LTD.","6,451,200",4.81%
 3788,CHINA HANKING HOLDINGS LIMITED,"16,444,000",0.90%
 3799,DALI FOODS GROUP COMPANY LIMITED,"336,995,500",2.45%
 3800,GCL-POLY ENERGY HOLDINGS LIMITED,"2,508,131,900",12.63%
 3808,SINOTRUK (HONG KONG) LIMITED,"84,661,000",3.06%
 3813,POU SHENG INTERNATIONAL (HOLDINGS) LIMITED,"6,797,000",0.12%
 3818,"CHINA DONGXIANG (GROUP) CO., LTD.","157,828,000",2.68%
 3836,CHINA HARMONY NEW ENERGY AUTO HOLDING LIMITED,"65,173,500",4.13%
 3866,"BANK OF QINGDAO CO., LTD.","845,000",0.04%
 3868,XINYI ENERGY HOLDINGS LIMITED,"7,624,000",0.11%
 3877,CSSC (HONG KONG) SHIPPING COMPANY LIMITED,"2,960,000",0.04%
 3883,CHINA AOYUAN GROUP LIMITED,"167,186,000",6.20%
 3886,TOWN HEALTH INTERNATIONAL MEDICAL GROUP LIMITED,"145,736,000",1.92%
 3888,KINGSOFT CORPORATION LIMITED,"345,634,328",25.17%
 3898,"ZHUZHOU CRRC TIMES ELECTRIC CO., LTD.","18,377,306",3.35%
 3899,CIMC ENRIC HOLDINGS LIMITED,"123,892,000",6.16%
 3900,GREENTOWN CHINA HOLDINGS LIMITED,"373,097,000",17.18%
 3908,CHINA INTERNATIONAL CAPITAL CORPORATION LIMITED,"302,944,096",15.91%
 3933,"UNITED LABORATORIES INTERNATIONAL HOLDINGS LIMITED, THE","136,230,181",8.28%
 3958,DFZQ,"367,127,534",35.74%
 3968,"CHINA MERCHANTS BANK CO., LTD.","237,687,881",5.17%
 3969,CHINA RAILWAY SIGNAL & COMMUNICATION CORPORATION LIMITED,"94,586,000",4.80%
 3988,BANK OF CHINA LIMITED,"7,313,255,376",8.73%
 3990,MIDEA REAL ESTATE HOLDING LIMITED,"25,180,000",2.04%
 3993,"CHINA MOLYBDENUM CO., LTD.","499,403,500",12.69%
 3996,CHINA ENERGY ENGINEERING CORPORATION LIMITED,"11,286,000",0.12%
 3998,BOSIDENG INTERNATIONAL HOLDINGS LIMITED,"531,904,000",4.92%
 6030,CITIC SECURITIES COMPANY LIMITED,"283,090,100",12.42%
 6055,CHINA TOBACCO INTERNATIONAL (HK) COMPANY LIMITED,"18,354,000",2.65%
 6060,"ZHONGAN ONLINE P & C INSURANCE CO., LTD.","21,964,100",4.66%
 6066,"CSC FINANCIAL CO., LTD.","264,174,000",20.94%
 6068,WISDOM EDUCATION INTERNATIONAL HOLDINGS COMPANY LIMITED,"99,774,000",4.87%
 6088,FIT HON TENG LIMITED,"114,727,000",1.66%
 6098,COUNTRY GARDEN SERVICES HOLDINGS COMPANY LIMITED,"129,571,429",4.77%
 6099,"CHINA MERCHANTS SECURITIES CO., LTD.","110,603,800",11.27%
 6100,"WISE TALENT INFORMATION TECHNOLOGY CO., LTD","179,600",0.03%
 6116,"SHANGHAI LA CHAPELLE FASHION CO., LTD.","60,096,400",27.97%
 6158,ZHENRO PROPERTIES GROUP LIMITED,"52,723,000",1.19%
 6166,CHINA VAST INDUSTRIAL URBAN DEVELOPMENT COMPANY LIMITED,"26,963,000",1.63%
 6169,CHINA YUHUA EDUCATION CORPORATION LIMITED,"428,018,050",12.81%
 6178,EVERBRIGHT SECURITIES COMPANY LIMITED,"86,120,200",12.22%
 6196,"BANK OF ZHENGZHOU CO., LTD.","189,528,000",12.48%
 6198,"QINGDAO PORT INTERNATIONAL CO., LTD.","4,579,000",0.40%
 6806,"SHENWAN HONGYUAN GROUP CO., LTD.","78,237,600",3.12%
 6808,SUN ART RETAIL GROUP LIMITED,"66,896,007",0.69%
 6818,CHINA EVERBRIGHT BANK COMPANY LIMITED,"779,000,992",6.14%
 6828,BEIJING GAS BLUE SKY HOLDINGS LIMITED,"338,856,000",2.60%
 6837,"HAITONG SECURITIES CO., LTD.","532,890,600",15.62%
 6862,HAIDILAO INTERNATIONAL HOLDING LTD.,"121,499,147",2.28%
 6865,"FLAT GLASS GROUP CO., LTD.","148,415,000",32.97%
 6869,YANGTZE OPTICAL FIBRE AND CABLE JOINT STOCK LIMITED COMPANY,"23,077,500",6.55%
 6881,"CHINA GALAXY SECURITIES CO., LTD.","808,423,382",21.90%
 6886,"HUATAI SECURITIES CO., LTD.","391,420,600",22.76%
 8328,XINYI AUTOMOBILE GLASS HONG KONG ENTERPRISES LIMITED,"109,750",0.01%
 9928,TIMES NEIGHBORHOOD HOLDINGS LIMITED,"10,801,946",1.18%
