Stock Code,Stock Name,Shareholding in CCASS,Percentage of the total number of Issued Shares
    1,CK HUTCHISON HOLDINGS LIMITED,"27,050,187",0.69%
    2,CLP HOLDINGS LIMITED,"5,819,492",0.22%
    3,"HONG KONG AND CHINA GAS COMPANY LIMITED, THE","24,262,506",0.12%
    4,"WHARF (HOLDINGS) LIMITED, THE","9,629,446",0.30%
    5,HSBC HOLDINGS PLC,"1,813,328,431",8.75%
    6,POWER ASSETS HOLDINGS LIMITED,"4,523,422",0.20%
    8,PCCW LIMITED,"8,159,843",0.09%
   10,HANG LUNG GROUP LIMITED,"27,149,000",1.99%
   11,HANG SENG BANK LTD,"2,312,105",0.11%
   12,HENDERSON LAND DEVELOPMENT CO LTD,"4,173,746",0.08%
   14,HYSAN DEVELOPMENT COMPANY LIMITED,"1,145,000",0.10%
   16,SUN HUNG KAI PROPERTIES LIMITED,"7,956,904",0.27%
   17,NEW WORLD DEVELOPMENT CO LTD,"10,965,131",0.42%
   19,SWIRE PACIFIC LTD 'A',"3,469,500",0.37%
   23,BANK OF EAST ASIA LTD,"1,115,193",0.03%
   27,GALAXY ENTERTAINMENT GROUP LIMITED,"69,560,403",1.59%
   35,FAR EAST CONSORTIUM INTERNATIONAL LTD,"108,013",0.00%
   38,FIRST TRACTOR COMPANY LIMITED,"122,534,100",31.25%
   41,GREAT EAGLE HOLDINGS LIMITED,"1,373,511",0.18%
   42,NORTHEAST ELECTRIC DEVELOPMENT COMPANY LIMITED,"15,888,000",6.15%
   43,C.P. POKPHAND CO LTD,"840,000",0.00%
   45,"HONGKONG AND SHANGHAI HOTELS LTD,THE","42,513",0.00%
   59,SKYFAME REALTY (HOLDINGS) LIMITED,"65,542,000",0.82%
   66,MTR CORPORATION LIMITED,"6,169,523",0.09%
   69,SHANGRI-LA ASIA LIMITED,"20,140,000",0.55%
   78,REGAL HOTELS INTERNATIONAL HOLDINGS LIMITED,"12,000",0.00%
   81,CHINA OVERSEAS GRAND OCEANS GROUP LIMITED,"331,964,820",9.69%
   83,SINO LAND CO.LTD.,"4,037,976",0.05%
   86,SUN HUNG KAI & CO.LTD,"14,721,000",0.73%
   87,SWIRE PACIFIC LTD 'B',"27,202,500",0.91%
   95,LVGEM (CHINA) REAL ESTATE INVESTMENT COMPANY LIMITED,"182,070,000",3.57%
  101,HANG LUNG PROPERTIES LIMITED,"65,242,949",1.44%
  107,SICHUAN EXPRESSWAY COMPANY LIMITED,"227,412,000",25.39%
  109,GOOD RESOURCES HOLDINGS LIMITED,"44,440,000",0.62%
  116,CHOW SANG SANG HOLDINGS INTERNATIONAL LIMITED,"21,690,000",3.20%
  119,"POLY PROPERTY GROUP CO., LIMITED","375,596,748",10.25%
  120,COSMOPOLITAN INTERNATIONAL HOLDINGS LTD,"6,676,000",0.11%
  123,YUEXIU PROPERTY COMPANY LIMITED,"390,196,786",2.51%
  127,CHINESE ESTATES HOLDINGS LIMITED,"2,811,000",0.14%
  135,KUNLUN ENERGY COMPANY LIMITED,"111,367,534",1.28%
  136,HENGTEN NETWORKS GROUP LIMITED,"5,160,368,000",6.91%
  142,FIRST PACIFIC CO. LTD.,"6,966,000",0.15%
  144,CHINA MERCHANTS PORT HOLDINGS COMPANY LIMITED,"146,672,683",4.05%
  148,KINGBOARD HOLDINGS LIMITED,"16,065,636",1.45%
  151,WANT WANT CHINA HOLDINGS LIMITED,"25,822,871",0.19%
  152,SHENZHEN INTERNATIONAL HOLDINGS LIMITED,"72,780,589",3.31%
  163,EMPEROR INTERNATIONAL HOLDINGS LIMITED,"10,854,000",0.29%
  165,CHINA EVERBRIGHT LIMITED,"209,001,955",12.39%
  168,TSINGTAO BREWERY COMPANY LIMITED,"90,244,000",13.76%
  173,K. WAH INTERNATIONAL HOLDINGS LIMITED,"40,050,196",1.27%
  175,GEELY AUTOMOBILE HOLDINGS LIMITED,"689,974,128",7.03%
  177,JIANGSU EXPRESSWAY COMPANY LIMITED,"130,316,818",10.66%
  178,SA SA INTERNATIONAL HOLDINGS LIMITED,"15,671,268",0.49%
  179,JOHNSON ELECTRIC HOLDINGS LIMITED,"577,500",0.05%
  187,BEIJING JINGCHENG MACHINERY ELECTRIC COMPANY LIMITED,"27,150,000",27.15%
  189,DONGYUE GROUP LIMITED,"161,911,358",7.66%
  198,SMI HOLDINGS GROUP LIMITED,"70,340,800",2.59%
  200,MELCO INTERNATIONAL DEVELOPMENT LIMITED,"9,239,000",0.60%
  207,JOY CITY PROPERTY LIMITED,"4,364,000",0.03%
  215,HUTCHISON TELECOMMUNICATIONS HONG KONG HOLDINGS LIMITED,"10,968,000",0.22%
  220,UNI-PRESIDENT CHINA HOLDINGS LTD.,"10,305,000",0.23%
  241,ALIBABA HEALTH INFORMATION TECHNOLOGY LIMITED,"271,289,523",2.01%
  242,SHUN TAK HOLDINGS LIMITED,"85,112,000",2.80%
  245,CHINA VERED FINANCIAL HOLDING CORPORATION LIMITED,"25,120,000",0.06%
  256,CITYCHAMP WATCH & JEWELLERY GROUP LIMITED,"351,194,000",8.06%
  257,CHINA EVERBRIGHT INTERNATIONAL LIMITED,"535,145,021",8.70%
  267,CITIC LIMITED,"146,628,916",0.50%
  268,KINGDEE INTERNATIONAL SOFTWARE GROUP COMPANY LIMITED,"547,624,462",15.79%
  270,GUANGDONG INVESTMENT LIMITED,"36,068,905",0.55%
  272,SHUI ON LAND LIMITED,"731,783,500",9.07%
  279,FREEMAN FINTECH CORPORATION LIMITED,"612,286,000",32.77%
  285,BYD ELECTRONIC (INTERNATIONAL) COMPANY LIMITED,"198,591,500",8.80%
  288,WH GROUP LIMITED,"1,357,684,041",9.21%
  291,CHINA RESOURCES BEER (HOLDINGS) COMPANY LIMITED,"337,429,445",10.39%
  293,CATHAY PACIFIC AIRWAYS LTD,"26,597,844",0.40%
  295,KONG SUN HOLDINGS LIMITED,"52,325,000",0.34%
  297,SINOFERT HOLDINGS LIMITED,"349,120,000",4.96%
  302,CMGE TECHNOLOGY GROUP LIMITED,"191,518,000",8.21%
  303,VTECH HOLDINGS LIMITED,"1,504,101",0.58%
  308,CHINA TRAVEL INTERNATIONAL INVESTMENT HONG KONG LIMITED,"172,354,439",3.10%
  315,SMARTONE TELECOMMUNICATIONS HOLDINGS LIMITED,"1,562,608",0.13%
  316,ORIENT OVERSEAS (INTERNATIONAL) LIMITED,"8,500",0.00%
  317,CSSC OFFSHORE & MARINE ENGINEERING (GROUP) COMPANY LIMITED,"23,571,900",3.97%
  321,TEXWINCA HOLDINGS LIMITED,"1,004,000",0.07%
  322,TINGYI (CAYMAN ISLANDS) HOLDING CORP.,"31,082,708",0.54%
  323,MAANSHAN IRON & STEEL COMPANY LIMITED,"14,974,000",0.85%
  327,PAX GLOBAL TECHNOLOGY LIMITED,"6,400,000",0.59%
  330,ESPRIT HOLDINGS LIMITED,"11,156,500",0.58%
  336,HUABAO INTERNATIONAL HOLDINGS LIMITED,"411,694,100",13.24%
  337,GREENLAND HONG KONG HOLDINGS LIMITED,"112,442,000",4.02%
  338,SINOPEC SHANGHAI PETROCHEMICAL COMPANY LIMITED,"367,253,339",10.50%
  341,CAFE DE CORAL HOLDINGS LTD,"5,684,000",0.97%
  345,VITASOY INTERNATIONAL HOLDINGS LTD,"7,782,011",0.72%
  347,ANGANG STEEL COMPANY LIMITED,"20,052,800",1.42%
  354,CHINASOFT INTERNATIONAL LIMITED,"324,220,542",11.94%
  358,JIANGXI COPPER COMPANY LIMITED,"86,713,219",6.24%
  363,SHANGHAI INDUSTRIAL HOLDINGS LIMITED,"24,311,500",2.23%
  371,BEIJING ENTERPRISES WATER GROUP LIMITED,"297,218,010",2.96%
  378,FDG KINETIC LIMITED,"183,718,000",2.72%
  384,CHINA GAS HOLDINGS LIMITED,"32,353,243",0.61%
  386,CHINA PETROLEUM & CHEMICAL CORPORATION,"1,489,879,621",5.83%
  388,HONG KONG EXCHANGES AND CLEARING LIMITED,"54,029,961",4.25%
  390,CHINA RAILWAY GROUP LIMITED,"272,899,030",6.48%
  392,BEIJING ENTERPRISES HOLDINGS LIMITED,"83,569,982",6.61%
  400,COGOBUY GROUP,"51,386,000",3.62%
  410,SOHO CHINA LIMITED,"439,660,500",8.44%
  412,CHINA SHANDONG HI-SPEED FINANCIAL GROUP LIMITED,"9,912,000",0.04%
  419,HUAYI TENCENT ENTERTAINMENT COMPANY LIMITED,"167,510,000",1.24%
  425,MINTH GROUP LIMITED,"53,112,268",
  439,KUANGCHI SCIENCE LIMITED,"268,768,000",4.36%
  440,DAH SING FINANCIAL HOLDINGS LTD,"2,924,466",0.90%
  451,GCL NEW ENERGY HOLDINGS LIMITED,"1,488,976,000",7.80%
  460,SIHUAN PHARMACEUTICAL HOLDINGS GROUP LTD.,"504,007,000",5.32%
  467,UNITED ENERGY GROUP LIMITED,"41,366,000",0.14%
  468,GREATVIEW ASEPTIC PACKAGING COMPANY LIMITED,"9,621,000",0.71%
  480,HKR INTERNATIONAL LTD,"62,800",0.00%
  488,LAI SUN DEVELOPMENT COMPANY LIMITED,"30,000",0.00%
  489,DONGFENG MOTOR GROUP COMPANY LIMITED,"184,588,000",6.46%
  493,GOME RETAIL HOLDINGS LIMITED,"2,530,066,000",11.72%
  496,KASEN INTERNATIONAL HOLDINGS LIMITED,"123,657,000",8.27%
  506,CHINA FOODS LIMITED,"41,346,100",1.47%
  508,DINGYI GROUP INVESTMENT LIMITED,"382,395,000",5.19%
  511,TELEVISION BROADCASTS LIMITED,"463,700",0.09%
  512,CHINA GRAND PHARMACEUTICAL AND HEALTHCARE HOLDINGS LIMITED,"122,115,200",3.44%
  517,"COSCO SHIPPING INTERNATIONAL (HONG KONG) CO., LTD.","420,000",0.02%
  520,"XIABUXIABU CATERING MANAGEMENT (CHINA) HOLDINGS CO., LTD.","118,716,500",10.97%
  522,ASM PACIFIC TECHNOLOGY LIMITED,"13,854,825",3.38%
  525,GUANGSHEN RAILWAY COMPANY LIMITED,"367,084,010",25.63%
  530,GOLDIN FINANCIAL HOLDINGS LIMITED,"2,468,000",0.03%
  535,GEMDALE PROPERTIES AND INVESTMENT CORPORATION LIMITED,"1,984,982,154",12.03%
  546,FUFENG GROUP LIMITED,"70,568,119",2.78%
  547,DIGITAL DOMAIN HOLDINGS LIMITED,"1,025,620,000",3.00%
  548,SHENZHEN EXPRESSWAY COMPANY LIMITED,"122,130,000",16.33%
  551,YUE YUEN INDUSTRIAL (HOLDINGS) LIMITED,"5,365,793",0.32%
  552,CHINA COMMUNICATIONS SERVICES CORPORATION LIMITED,"30,670,000",1.28%
  553,NANJING PANDA ELECTRONICS COMPANY LIMITED,"59,084,000",24.40%
  563,SHANGHAI INDUSTRIAL URBAN DEVELOPMENT GROUP LIMITED,"114,817,855",2.38%
  564,ZHENGZHOU COAL MINING MACHINERY GROUP COMPANY LIMITED,"42,861,804",17.61%
  568,SHANDONG MOLONG PETROLEUM MACHINERY COMPANY LIMITED,"59,257,200",23.13%
  570,CHINA TRADITIONAL CHINESE MEDICINE HOLDINGS CO LIMITED,"623,200,938",12.36%
  576,"ZHEJIANG EXPRESSWAY CO., LTD.","74,845,759",5.21%
  579,"BEIJING JINGNENG CLEAN ENERGY CO., LIMITED","157,118,000",5.55%
  581,CHINA ORIENTAL GROUP COMPANY LIMITED,"128,682,987",3.45%
  582,LANDING INTERNATIONAL DEVELOPMENT LIMITED,"111,962,400",3.17%
  586,CHINA CONCH VENTURE HOLDINGS LIMITED,"161,848,000",8.96%
  588,BEIJING NORTH STAR COMPANY LIMITED,"224,256,000",31.71%
  590,LUK FOOK HOLDINGS (INTERNATIONAL) LIMITED,"2,722,000",0.45%
  598,SINOTRANS LIMITED,"347,334,000",16.18%
  604,SHENZHEN INVESTMENT LIMITED,"44,251,579",0.49%
  607,FULLSHARE HOLDINGS LIMITED,"4,919,807,500",24.95%
  612,CHINA DING YI FENG HOLDINGS LIMITED,"2,248,000",0.17%
  631,SANY HEAVY EQUIPMENT INTERNATIONAL HOLDINGS COMPANY LIMITED,"188,927,000",6.06%
  636,KERRY LOGISTICS NETWORK LIMITED,"1,088,000",0.05%
  639,SHOUGANG FUSHAN RESOURCES GROUP LIMITED,"104,918,000",1.96%
  656,FOSUN INTERNATIONAL LIMITED,"966,101,984",11.35%
  658,"CHINA HIGH SPEED TRANSMISSION EQUIPMENT GROUP CO., LTD.","192,383,000",11.76%
  659,NWS HOLDINGS LIMITED,"7,276,471",0.17%
  665,HAITONG INTERNATIONAL SECURITIES GROUP LIMITED,"266,115,840",4.40%
  667,CHINA EAST EDUCATION HOLDINGS LIMITED,"126,441,000",5.76%
  669,TECHTRONIC INDUSTRIES CO. LTD.,"6,745,970",0.35%
  670,CHINA EASTERN AIRLINES CORPORATION LIMITED,"282,029,567",5.44%
  680,NAN HAI CORPORATION LIMITED,"489,900,000",0.70%
  683,KERRY PROPERTIES LIMITED,"3,382,624",0.22%
  686,PANDA GREEN ENERGY GROUP LIMITED,"295,012,000",1.31%
  687,TYSAN HOLDINGS LIMITED,"32,044,000",0.95%
  688,CHINA OVERSEAS LAND & INVESTMENT LIMITED,"58,889,167",0.53%
  691,CHINA SHANSHUI CEMENT GROUP LIMITED,"4,078,000",0.09%
  694,BEIJING CAPITAL INTERNATIONAL AIRPORT COMPANY LIMITED,"381,261,672",20.28%
  696,TRAVELSKY TECHNOLOGY LIMITED,"38,087,000",4.07%
  697,SHOUCHENG HOLDINGS LIMITED,"42,278,010",0.60%
  698,TONGDA GROUP HOLDINGS LIMITED,"156,600,000",2.41%
  699,CAR INC.,"160,623,001",7.56%
  700,TENCENT HOLDINGS LIMITED,"318,237,562",3.31%
  709,GIORDANO INTERNATIONAL LIMITED,"2,104,000",0.13%
  715,CHINA OCEANWIDE HOLDINGS LIMITED,"456,000",0.00%
  718,TAI UNITED HOLDINGS LIMITED,"20,050,000",0.38%
  719,SHANDONG XINHUA PHARMACEUTICAL COMPANY LIMITED,"69,170,236",35.47%
  721,CHINA FINANCIAL INTERNATIONAL INVESTMENTS LIMITED,"304,790,000",2.77%
  728,CHINA TELECOM CORPORATION LIMITED,"398,897,238",2.86%
  729,FDG ELECTRIC VEHICLES LIMITED,"70,130,750",2.79%
  732,TRULY INTERNATIONAL HOLDINGS LIMITED,"302,590,000",9.19%
  737,SZ INVESTMENT HLDGS BAY AREA DEV CO LTD -HKD TRADED SHARES,"1,431,500",0.04%
  743,ASIA CEMENT (CHINA) HOLDINGS CORPORATION,"31,587,500",2.01%
  751,SKYWORTH GROUP LIMITED,"155,441,235",5.07%
  753,AIR CHINA LIMITED,"365,024,449",7.99%
  754,HOPSON DEVELOPMENT HOLDINGS LIMITED,"58,164,000",2.60%
  762,CHINA UNICOM (HONG KONG) LIMITED,"316,290,000",1.03%
  763,ZTE CORPORATION,"196,544,266",26.01%
  772,CHINA LITERATURE LIMITED,"84,353,218",8.30%
  775,"CK LIFE SCIENCES INT'L., (HOLDINGS) INC.","18,388,000",0.19%
  777,NETDRAGON WEBSOFT HOLDINGS LIMITED,"25,477,500",4.51%
  780,TONGCHENG-ELONG HOLDINGS LIMITED,"21,071,200",0.96%
  787,GLOBAL BRANDS GROUP HOLDING LIMITED,"66,361,833",6.44%
  788,CHINA TOWER CORPORATION LIMITED,"2,009,052,384",4.30%
  799,IGG INC,"95,948,298",7.80%
  806,VALUE PARTNERS GROUP LIMITED,"64,461,405",3.46%
  811,"XINHUA WINSHARE PUBLISHING AND MEDIA CO., LTD.","80,435,000",18.19%
  813,SHIMAO GROUP HOLDINGS LIMITED,"77,757,072",2.19%
  816,HUADIAN FUXIN ENERGY CORPORATION LIMITED,"880,000",0.03%
  817,CHINA JINMAO HOLDINGS GROUP LIMITED,"1,031,235,130",8.08%
  819,TIANNENG POWER INTERNATIONAL LIMITED,"238,783,000",21.20%
  826,TIANGONG INTERNATIONAL COMPANY LIMITED,"70,618,000",2.75%
  829,SHENGUAN HOLDINGS (GROUP) LIMITED,"140,478,000",4.34%
  832,CENTRAL CHINA REAL ESTATE LIMITED,"118,483,000",4.21%
  836,CHINA RESOURCES POWER HOLDINGS COMPANY LIMITED,"225,742,335",4.68%
  839,CHINA EDUCATION GROUP HOLDINGS LIMITED,"109,404,655",5.08%
  845,GLORIOUS PROPERTY HOLDINGS LIMITED,"22,344,000",0.28%
  846,MINGFA GROUP (INTERNATIONAL) COMPANY LIMITED,"5,261,000",0.08%
  853,MICROPORT SCIENTIFIC CORPORATION,"229,762,189",12.72%
  855,CHINA WATER AFFAIRS GROUP LIMITED,"170,441,357",10.70%
  856,VSTECS HOLDINGS LIMITED,"16,852,000",1.16%
  857,PETROCHINA COMPANY LIMITED,"1,733,756,455",8.21%
  860,APOLLO FUTURE MOBILITY GROUP LIMITED,"29,760,000",0.41%
  861,DIGITAL CHINA HOLDINGS LIMITED,"658,825,900",39.39%
  867,CHINA MEDICAL SYSTEM HOLDINGS LIMITED,"33,930,618",1.36%
  868,XINYI GLASS HOLDINGS LIMITED,"228,669,443",5.66%
  874,"GUANGZHOU BAIYUNSHAN PHARMACEUTICAL HOLDINGS CO., LTD.","69,818,100",31.74%
  880,SJM HOLDINGS LIMITED,"253,529,700",4.46%
  881,ZHONGSHENG GROUP HOLDINGS LIMITED,"43,353,500",1.90%
  883,CNOOC LIMITED,"408,077,543",0.90%
  884,CIFI HOLDINGS (GROUP) CO. LTD.,"372,866,200",4.53%
  885,RENTIAN TECHNOLOGY HOLDINGS LIMITED,"1,110,000",0.01%
  895,DONGJIANG ENVIRONMENTAL COMPANY LIMITED,"66,099,600",33.02%
  902,"HUANENG POWER INTERNATIONAL, INC.","2,058,425,004",43.78%
  906,CPMC HOLDINGS LIMITED,"15,430,000",1.38%
  911,QIANHAI HEALTH HOLDINGS LIMITED,"90,782,500",5.35%
  914,ANHUI CONCH CEMENT COMPANY LIMITED,"52,128,789",4.00%
  916,CHINA LONGYUAN POWER GROUP CORPORATION LIMITED,"224,275,000",6.71%
  921,"HISENSE HOME APPLIANCES GROUP CO., LTD.","42,380,459",9.22%
  931,CHINA LNG GROUP LIMITED,"168,769,000",2.98%
  933,BRIGHTOIL PETROLEUM (HOLDINGS) LIMITED,"25,254,000",0.24%
  934,SINOPEC KANTONS HOLDINGS LIMITED,"174,908,000",7.03%
  939,CHINA CONSTRUCTION BANK CORPORATION,"25,920,032,059",10.78%
  941,CHINA MOBILE LIMITED,"101,925,724",0.49%
  950,LEE'S PHARMACEUTICAL HOLDINGS LIMITED,"1,356,500",0.23%
  951,CHAOWEI POWER HOLDINGS LIMITED,"100,350,000",9.08%
  956,CHINA SUNTIEN GREEN ENERGY CORPORATION LIMITED,"214,597,000",11.66%
  960,LONGFOR GROUP HOLDINGS LIMITED,"169,262,493",2.81%
  966,CHINA TAIPING INSURANCE HOLDINGS COMPANY LIMITED,"491,050,374",13.65%
  967,SOUND GLOBAL LTD.,"289,000",0.01%
  968,XINYI SOLAR HOLDINGS LIMITED,"978,505,958",11.58%
  976,CHIHO ENVIRONMENTAL GROUP LIMITED,"215,788,000",13.44%
  978,CHINA MERCHANTS LAND LIMITED,"176,148,000",3.59%
  981,SEMICONDUCTOR MANUFACTURING INTERNATIONAL CORPORATION,"1,050,046,440",13.63%
  989,GROUND INTERNATIONAL DEVELOPMENT LIMITED,"136,970,000",2.29%
  991,"DATANG INTERNATIONAL POWER GENERATION CO.,LTD.","350,460,000",5.73%
  992,LENOVO GROUP LIMITED,"110,409,882",0.91%
  995,ANHUI EXPRESSWAY COMPANY LIMITED,"114,520,000",23.22%
  996,CARNIVAL GROUP INTERNATIONAL HOLDINGS LIMITED,"6,099,442,500",25.73%
  998,CHINA CITIC BANK CORPORATION LIMITED,"2,477,962,758",16.64%
 1028,C.BANNER INTERNATIONAL HOLDINGS LIMITED,"143,877,000",6.92%
 1030,SEAZEN GROUP LIMITED,"290,981,127",4.68%
 1031,KINGSTON FINANCIAL GROUP LIMITED,"548,000",0.00%
 1033,SINOPEC OILFIELD SERVICE CORPORATION,"378,830,000",6.99%
 1038,CK INFRASTRUCTURE HOLDINGS LIMITED,"10,638,000",0.39%
 1044,HENGAN INTERNATIONAL GROUP COMPANY LIMITED,"20,963,605",1.75%
 1052,YUEXIU TRANSPORT INFRASTRUCTURE LIMITED,"77,185,238",4.61%
 1053,CHONGQING IRON & STEEL COMPANY LIMITED,"97,762,000",18.15%
 1055,CHINA SOUTHERN AIRLINES COMPANY LIMITED,"297,418,470",6.95%
 1057,ZHEJIANG SHIBAO COMPANY LIMITED,"53,748,000",24.79%
 1060,ALIBABA PICTURES GROUP LIMITED,"3,490,188,620",12.99%
 1065,TIANJIN CAPITAL ENVIRONMENTAL PROTECTION GROUP COMPANY LIMITED,"109,098,100",32.08%
 1066,SHANDONG WEIGAO GROUP MEDICAL POLYMER COMPANY LIMITED,"728,135,417",16.09%
 1068,CHINA YURUN FOOD GROUP LIMITED,"18,087,000",0.99%
 1070,TCL ELECTRONICS HOLDINGS LIMITED,"125,813,666",5.18%
 1071,HUADIAN POWER INTERNATIONAL CORPORATION LIMITED,"788,731,855",45.92%
 1072,DONGFANG ELECTRIC CORPORATION LIMITED,"97,435,716",28.65%
 1076,IMPERIAL PACIFIC INTERNATIONAL HOLDINGS LIMITED,"387,060,000",0.27%
 1083,TOWNGAS CHINA COMPANY LIMITED,"17,330,481",0.57%
 1086,GOODBABY INTERNATIONAL HOLDINGS LIMITED,"23,077,000",1.38%
 1088,CHINA SHENHUA ENERGY COMPANY LIMITED,"921,286,813",27.09%
 1089,LEYOU TECHNOLOGIES HOLDINGS LIMITED,"13,135,000",0.42%
 1093,CSPC PHARMACEUTICAL GROUP LIMITED,"473,881,079",6.32%
 1097,I-CABLE COMMUNICATIONS LIMITED,"81,191",0.00%
 1098,ROAD KING INFRASTRUCTURE LIMITED,"11,959,000",1.59%
 1099,SINOPHARM GROUP CO. LTD.,"66,549,509",4.95%
 1108,LUOYANG GLASS COMPANY LIMITED,"94,604,000",37.83%
 1109,CHINA RESOURCES LAND LIMITED,"109,793,763",1.53%
 1111,CHONG HING BANK LIMITED,"1,022,500",0.10%
 1112,HEALTH AND HAPPINESS (H&H) INTERNATIONAL HOLDINGS LIMITED,"38,739,500",6.00%
 1113,CK ASSET HOLDINGS LIMITED,"12,847,043",0.34%
 1114,BRILLIANCE CHINA AUTOMOTIVE HOLDINGS LIMITED,"98,703,211",1.95%
 1115,TIBET WATER RESOURCES LTD.,"161,107,000",6.27%
 1117,CHINA MODERN DAIRY HOLDINGS LTD.,"252,227,000",3.89%
 1119,IDREAMSKY TECHNOLOGY HOLDINGS LIMITED,"37,005,200",2.91%
 1128,"WYNN MACAU, LIMITED","61,518,400",1.17%
 1131,AGRITRADE RESOURCES LIMITED,"583,090,000",9.14%
 1138,"COSCO SHIPPING ENERGY TRANSPORTATION CO., LTD.","186,362,003",14.37%
 1140,OP FINANCIAL LIMITED,"98,052,000",3.38%
 1141,CMBC CAPITAL HOLDINGS LIMITED,"419,110,000",0.87%
 1157,"ZOOMLION HEAVY INDUSTRY SCIENCE AND TECHNOLOGY CO., LTD.","36,686,322",2.64%
 1165,SHUNFENG INTERNATIONAL CLEAN ENERGY LIMITED,"326,102,000",6.54%
 1169,"HAIER ELECTRONICS GROUP CO., LTD.","108,675,382",3.85%
 1171,YANZHOU COAL MINING COMPANY LIMITED,"318,645,995",16.76%
 1176,ZHUGUANG HOLDINGS GROUP COMPANY LIMITED,"216,796,000",3.01%
 1177,SINO BIOPHARMACEUTICAL LIMITED,"1,620,894,149",8.58%
 1186,CHINA RAILWAY CONSTRUCTION CORPORATION LIMITED,"93,072,190",4.47%
 1188,HYBRID KINETIC GROUP LIMITED,"102,914,000",0.50%
 1193,CHINA RESOURCES GAS GROUP LIMITED,"8,346,000",0.35%
 1196,REALORD GROUP HOLDINGS LIMITED,"121,840,000",8.47%
 1199,COSCO SHIPPING PORTS LIMITED,"17,098,995",0.51%
 1205,CITIC RESOURCES HOLDINGS LIMITED,"166,320,100",2.11%
 1208,MMG LIMITED,"294,518,000",3.64%
 1211,BYD COMPANY LIMITED,"68,864,243",7.52%
 1212,LIFESTYLE INTERNATIONAL HOLDINGS LIMITED,"3,666,166",0.23%
 1230,YASHILI INTERNATIONAL HOLDINGS LTD,"78,686,000",1.65%
 1233,TIMES CHINA HOLDINGS LIMITED,"74,794,757",3.84%
 1234,CHINA LILANG LIMITED,"67,876,000",5.66%
 1238,POWERLONG REAL ESTATE HOLDINGS LIMITED,"123,409,116",2.97%
 1250,BEIJING ENTERPRISES CLEAN ENERGY GROUP LIMITED,"1,610,420,000",2.53%
 1253,CHINA GREENLAND BROAD GREENSTATE GROUP COMPANY LIMITED,"6,472,000",0.19%
 1257,CHINA EVERBRIGHT GREENTECH LIMITED,"145,707,000",7.05%
 1268,CHINA MEIDONG AUTO HOLDINGS LIMITED,"58,864,000",4.73%
 1269,CHINA FIRST CAPITAL GROUP LIMITED,"1,519,534,000",30.22%
 1282,GLORY SUN FINANCIAL GROUP LIMITED,"4,246,332,000",13.52%
 1286,IMPRO PRECISION INDUSTRIES LIMITED,"1,591,000",0.08%
 1288,AGRICULTURAL BANK OF CHINA LIMITED,"8,314,810,668",27.04%
 1293,GRAND BAOXIN AUTO GROUP LIMITED,"134,791,337",4.74%
 1299,AIA GROUP LIMITED,"82,990,426",0.67%
 1302,LIFETECH SCIENTIFIC CORPORATION,"704,606,000",16.27%
 1308,SITC INTERNATIONAL HOLDINGS COMPANY LIMITED,"42,121,000",1.56%
 1310,HKBN LTD.,"3,548,000",0.27%
 1313,CHINA RESOURCES CEMENT HOLDINGS LIMITED,"46,745,747",0.66%
 1315,VISION FAME INTERNATIONAL HOLDING LIMITED,"720,456,000",12.00%
 1316,NEXTEER AUTOMOTIVE GROUP LIMITED,"39,111,000",1.55%
 1317,CHINA MAPLE LEAF EDUCATIONAL SYSTEMS LIMITED,"446,753,230",14.91%
 1330,"DYNAGREEN ENVIRONMENTAL PROTECTION GROUP CO., LTD","145,504,000",35.97%
 1333,CHINA ZHONGWANG HOLDINGS LIMITED,"353,552,800",6.48%
 1336,NEW CHINA LIFE INSURANCE COMPANY LTD.,"331,294,881",32.03%
 1339,"PEOPLE'S INSURANCE COMPANY (GROUP) OF CHINA LIMITED, THE","1,682,024,987",19.27%
 1347,HUA HONG SEMICONDUCTOR LIMITED,"74,127,065",5.71%
 1357,"MEITU, INC.","330,867,100",7.66%
 1359,"CHINA CINDA ASSET MANAGEMENT CO., LTD.","2,382,819,457",17.55%
 1361,361 DEGREES INTERNATIONAL LIMITED,"28,714,000",1.38%
 1363,CT ENVIRONMENTAL GROUP LIMITED,"502,874,000",7.95%
 1368,XTEP INTERNATIONAL HOLDINGS LIMITED,"94,821,503",3.76%
 1375,"CENTRAL CHINA SECURITIES CO., LTD.","287,682,000",24.06%
 1378,CHINA HONGQIAO GROUP LIMITED,"506,015,410",5.90%
 1381,CANVEST ENVIRONMENTAL PROTECTION GROUP COMPANY LIMITED,"27,536,000",1.12%
 1382,PACIFIC TEXTILES HOLDINGS LIMITED,"30,143,000",2.13%
 1383,SUNCITY GROUP HOLDINGS LIMITED,"31,760,000",0.47%
 1387,CHINA DILI GROUP,"149,484,270",1.77%
 1398,INDUSTRIAL AND COMMERCIAL BANK OF CHINA LIMITED,"24,061,810,103",27.72%
 1432,CHINA SHENGMU ORGANIC MILK LIMITED,"96,353,000",1.13%
 1448,FU SHOU YUAN INTERNATIONAL GROUP LIMITED,"272,877,677",11.87%
 1456,"GUOLIAN SECURITIES CO., LTD.","21,816,000",4.92%
 1458,ZHOU HEI YA INTERNATIONAL HOLDINGS COMPANY LIMITED,"364,081,500",15.27%
 1475,NISSIN FOODS COMPANY LIMITED,"82,000",0.00%
 1478,Q TECHNOLOGY (GROUP) COMPANY LIMITED,"43,145,000",3.68%
 1508,CHINA REINSURANCE (GROUP) CORPORATION,"841,199,000",12.58%
 1513,LIVZON PHARMACEUTICAL GROUP INC.,"39,068,157",12.21%
 1515,CHINA RESOURCES MEDICAL HOLDINGS COMPANY LIMITED,"67,148,100",5.17%
 1521,FRONTAGE HOLDINGS CORPORATION,"237,066,000",11.65%
 1528,RED STAR MACALLINE GROUP CORPORATION LTD.,"131,269,476",17.70%
 1530,3SBIO INC.,"246,267,157",9.67%
 1533,"LANZHOU ZHUANGYUAN PASTURE CO., LTD.","7,941,500",22.60%
 1548,GENSCRIPT BIOTECH CORPORATION,"220,456,000",11.47%
 1551,"GUANGZHOU RURAL COMMERCIAL BANK CO., LTD","2,414,000",0.13%
 1558,"YICHANG HEC CHANGJIANG PHARMACEUTICAL CO., LTD.","170,856,400",26.13%
 1569,MINSHENG EDUCATION GROUP COMPANY LIMITED,"232,081,025",5.50%
 1573,SOUTHERN ENERGY HOLDINGS GROUP LIMITED,"126,862,000",17.66%
 1578,"BANK OF TIANJIN CO., LTD.","34,000",0.00%
 1579,YIHAI INTERNATIONAL HOLDING LTD.,"104,046,049",9.93%
 1583,QINQIN FOODSTUFFS GROUP (CAYMAN) COMPANY LIMITED,"24,400",0.00%
 1585,YADEA GROUP HOLDINGS LTD.,"268,802,000",8.97%
 1589,"CHINA LOGISTICS PROPERTY HOLDINGS CO., LTD","4,990,000",0.15%
 1600,CHINA TIAN LUN GAS HOLDINGS LIMITED,"16,483,000",1.64%
 1606,"CHINA DEVELOPMENT BANK FINANCIAL LEASING CO., LTD.","316,000",0.01%
 1608,VPOWER GROUP INTERNATIONAL HOLDINGS LIMITED,"4,670,000",0.17%
 1610,COFCO MEAT HOLDINGS LIMITED,"714,066,000",18.30%
 1618,METALLURGICAL CORPORATION OF CHINA LTD.,"467,625,000",16.28%
 1622,REDCO PROPERTIES GROUP LIMITED,"219,546,000",6.18%
 1628,YUZHOU GROUP HOLDINGS COMPANY LIMITED,"68,259,048",1.22%
 1635,"SHANGHAI DAZHONG PUBLIC UTILITIES (GROUP) CO., LTD.","80,299,000",15.03%
 1636,CHINA METAL RESOURCES UTILIZATION LIMITED,"34,616,000",1.31%
 1638,KAISA GROUP HOLDINGS LTD.,"509,572,619",8.31%
 1658,"POSTAL SAVINGS BANK OF CHINA CO., LTD.","286,583,845",1.43%
 1661,WISDOM SPORTS GROUP,"6,217,000",0.39%
 1666,TONG REN TANG TECHNOLOGIES CO LTD,"188,492,200",29.98%
 1668,CHINA SOUTH CITY HOLDINGS LIMITED,"807,879,543",9.98%
 1675,ASIAINFO TECHNOLOGIES LIMITED,"971,600",0.10%
 1680,MACAU LEGEND DEVELOPMENT LIMITED,"124,016,000",1.99%
 1681,CONSUN PHARMACEUTICAL GROUP LIMITED,"22,656,000",2.71%
 1685,BOER POWER HOLDINGS LIMITED,"2,195,000",0.28%
 1686,SUNEVISION HOLDINGS LIMITED,"2,478,000",0.10%
 1691,JS GLOBAL LIFESTYLE COMPANY LIMITED,"10,010,000",0.28%
 1717,AUSNUTRIA DAIRY CORPORATION LTD,"107,743,000",6.27%
 1728,CHINA ZHENGTONG AUTO SERVICES HOLDINGS LIMITED,"481,192,000",17.83%
 1761,BABYTREE GROUP,"5,903,500",0.35%
 1765,"HOPE EDUCATION GROUP CO., LTD.","831,438,580",11.50%
 1766,CRRC CORPORATION LIMITED,"344,101,420",7.86%
 1772,"GANFENG LITHIUM CO., LTD.","117,474,800",58.68%
 1773,TIANLI EDUCATION INTERNATIONAL HOLDINGS LIMITED,"86,691,000",4.17%
 1776,"GF SECURITIES CO., LTD.","515,040,900",30.26%
 1777,"FANTASIA HOLDINGS GROUP CO., LIMITED","415,297,000",7.19%
 1778,"COLOUR LIFE SERVICES GROUP CO., LIMITED","67,630,702",4.64%
 1787,"SHANDONG GOLD MINING CO., LTD.","187,140,918",26.74%
 1788,GUOTAI JUNAN INTERNATIONAL HOLDINGS LIMITED,"224,188,110",2.32%
 1789,AK MEDICAL HOLDINGS LIMITED,"108,127,805",9.70%
 1797,KOOLEARN TECHNOLOGY HOLDING LIMITED,"137,728,618",14.64%
 1800,CHINA COMMUNICATIONS CONSTRUCTION COMPANY LIMITED,"536,678,000",12.11%
 1801,"INNOVENT BIOLOGICS, INC.","35,944,000",2.56%
 1806,HUIFU PAYMENT LIMITED,"13,446,400",1.03%
 1810,XIAOMI CORPORATION,"2,179,711,646",9.02%
 1811,"CGN NEW ENERGY HOLDINGS CO., LTD.","50,432,000",1.17%
 1812,SHANDONG CHENMING PAPER HOLDINGS LIMITED,"105,605,950",19.98%
 1813,KWG GROUP HOLDINGS LIMITED,"152,142,418",4.78%
 1816,"CGN POWER CO., LTD","2,436,774,000",21.82%
 1817,MULSANNE GROUP HOLDING LIMITED,"145,000",0.01%
 1818,ZHAOJIN MINING INDUSTRY COMPANY LIMITED,"160,059,372",6.13%
 1829,CHINA MACHINERY ENGINEERING CORPORATION,"131,000",0.01%
 1833,PING AN HEALTHCARE AND TECHNOLOGY COMPANY LIMITED,"108,077,100",10.11%
 1836,STELLA INTERNATIONAL HOLDINGS LIMITED,"497,500",0.06%
 1848,CHINA AIRCRAFT LEASING GROUP HOLDINGS LIMITED,"12,726,049",1.80%
 1860,MOBVISTA INC.,"14,043,000",0.91%
 1873,VIVA BIOTECH HOLDINGS,"422,000,000",22.18%
 1876,BUDWEISER BREWING COMPANY APAC LIMITED,"21,735,100",0.15%
 1882,HAITIAN INTERNATIONAL HOLDINGS LIMITED,"33,614,000",2.10%
 1883,CITIC TELECOM INTERNATIONAL HOLDINGS LIMITED,"17,546,000",0.47%
 1886,CHINA HUIYUAN JUICE GROUP LIMITED,"125,355,500",4.69%
 1888,KINGBOARD LAMINATES HOLDINGS LIMITED,"12,115,935",0.39%
 1890,CHINA KEPEI EDUCATION GROUP LIMITED,"130,441,475",6.47%
 1896,MAOYAN ENTERTAINMENT,"43,473,000",3.82%
 1898,CHINA COAL ENERGY COMPANY LIMITED,"428,273,000",10.42%
 1905,"HAITONG UNITRUST INTERNATIONAL LEASING CO., LTD.","41,302,000",0.71%
 1907,CHINA RISUN GROUP LIMITED,"26,029,000",0.63%
 1908,C&D INTERNATIONAL INVESTMENT GROUP LIMITED,"75,820,000",6.44%
 1911,CHINA RENAISSANCE HOLDINGS LIMITED,"15,005,300",2.80%
 1916,"JIANGXI BANK CO., LTD.","10,789,000",0.80%
 1918,SUNAC CHINA HOLDINGS LIMITED,"782,148,020",16.77%
 1919,"COSCO SHIPPING HOLDINGS CO., LTD.","462,695,000",17.92%
 1928,SANDS CHINA LTD.,"57,037,693",0.69%
 1929,CHOW TAI FOOK JEWELLERY GROUP LIMITED,"44,229,000",0.43%
 1951,JINXIN FERTILITY GROUP LIMITED,"424,873,600",17.48%
 1958,BAIC MOTOR CORPORATION LIMITED,"89,632,000",3.54%
 1963,"BANK OF CHONGQING CO., LTD.","115,781,000",7.33%
 1966,CHINA SCE GROUP HOLDINGS LIMITED,"164,052,054",3.90%
 1970,"IMAX CHINA HOLDING, INC.","7,838,300",2.24%
 1972,SWIRE PROPERTIES LIMITED,"2,036,000",0.03%
 1980,TIAN GE INTERACTIVE HOLDINGS LIMITED,"25,700,000",2.00%
 1988,"CHINA MINSHENG BANKING CORP., LTD.","1,059,696,169",12.73%
 1992,FOSUN TOURISM GROUP,"805,800",0.05%
 1995,EVER SUNSHINE LIFESTYLE SERVICES GROUP LIMITED,"32,656,000",1.95%
 1996,REDSUN PROPERTIES GROUP LIMITED,"69,552,000",2.09%
 1997,WHARF REAL ESTATE INVESTMENT COMPANY LIMITED,"5,087,425",0.15%
 1999,MAN WAH HOLDINGS LIMITED,"740,731,515",19.47%
 2001,CHINA NEW HIGHER EDUCATION GROUP LIMITED,"120,446,621",7.81%
 2003,VCREDIT HOLDINGS LIMITED,"2,141,800",0.43%
 2005,SSY GROUP LIMITED,"314,892,059",10.41%
 2007,COUNTRY GARDEN HOLDINGS COMPANY LIMITED,"260,669,162",1.17%
 2008,PHOENIX MEDIA INVESTMENT (HOLDINGS) LIMITED,"205,648,000",4.11%
 2009,BBMG CORPORATION,"288,336,500",12.32%
 2013,WEIMOB INC.,"500,874,602",22.21%
 2016,"CHINA ZHESHANG BANK CO., LTD.","17,801,000",0.38%
 2018,AAC TECHNOLOGIES HOLDINGS INC.,"74,531,456",6.15%
 2019,DEXIN CHINA HOLDINGS COMPANY LIMITED,"29,407,000",1.08%
 2020,ANTA SPORTS PRODUCTS LIMITED,"204,952,591",7.57%
 2038,FIH MOBILE LIMITED,"113,924,000",1.38%
 2039,"CHINA INTERNATIONAL MARINE CONTAINERS (GROUP) CO., LTD.","215,797,140",10.47%
 2048,E-HOUSE (CHINA) ENTERPRISE HOLDINGS LIMITED,"12,565,200",0.90%
 2051,51 CREDIT CARD INC.,"46,006,000",3.38%
 2066,"SHENGJING BANK CO., LTD.","195,000",0.00%
 2068,CHINA ALUMINUM INTERNATIONAL ENGINEERING CORPORATION LIMITED,"11,044,000",2.76%
 2098,ZALL SMART COMMERCE GROUP LTD.,"31,698,000",0.26%
 2099,CHINA GOLD INTERNATIONAL RESOURCES CORP. LTD.,"13,546,000",3.41%
 2103,SINIC HOLDINGS (GROUP) COMPANY LIMITED,"877,000",0.02%
 2111,BEST PACIFIC INTERNATIONAL HOLDINGS LIMITED,"1,398,000",0.13%
 2128,CHINA LESSO GROUP HOLDINGS LIMITED,"58,259,573",1.86%
 2136,LIFESTYLE CHINA GROUP LIMITED,"282,000",0.01%
 2186,LUYE PHARMA GROUP LTD.,"482,138,500",14.83%
 2196,"SHANGHAI FOSUN PHARMACEUTICAL (GROUP) CO., LTD.","196,967,357",35.68%
 2199,REGINA MIRACLE INTERNATIONAL (HOLDINGS) LIMITED,"2,904,000",0.23%
 2202,"CHINA VANKE CO., LTD.","236,041,947",12.46%
 2208,"XINJIANG GOLDWIND SCIENCE & TECHNOLOGY CO., LTD.","76,428,722",9.87%
 2232,CRYSTAL INTERNATIONAL GROUP LIMITED,"3,459,500",0.11%
 2233,WEST CHINA CEMENT LIMITED,"499,932,000",9.19%
 2238,"GUANGZHOU AUTOMOBILE GROUP CO., LTD.","1,097,862,049",35.42%
 2255,HAICHANG OCEAN PARK HOLDINGS LTD.,"372,304,000",9.30%
 2269,WUXI BIOLOGICS (CAYMAN) INC.,"104,619,696",7.69%
 2280,HC GROUP INC.,"105,492,000",8.05%
 2282,MGM CHINA HOLDINGS LIMITED,"27,489,096",0.71%
 2298,COSMO LADY (CHINA) HOLDINGS COMPANY LIMITED,"11,395,000",0.49%
 2313,SHENZHOU INTERNATIONAL GROUP HOLDINGS LIMITED,"51,168,162",3.40%
 2314,LEE & MAN PAPER MANUFACTURING LIMITED,"26,142,825",0.60%
 2318,"PING AN INSURANCE (GROUP) COMPANY OF CHINA, LTD.","130,537,377",1.74%
 2319,CHINA MENGNIU DAIRY COMPANY LIMITED,"78,738,994",1.98%
 2326,NEW PROVENANCE EVERLASTING HOLDINGS LIMITED,"55,940,000",0.25%
 2328,PICC PROPERTY AND CASUALTY COMPANY LIMITED,"492,587,169",7.13%
 2329,GUORUI PROPERTIES LIMITED,"154,193,000",3.46%
 2331,LI NING COMPANY LIMITED,"122,245,016",4.91%
 2333,GREAT WALL MOTOR COMPANY LIMITED,"1,104,427,204",35.62%
 2338,"WEICHAI POWER CO., LTD.","51,701,000",2.66%
 2342,COMBA TELECOM SYSTEMS HOLDINGS LIMITED,"314,000",0.01%
 2343,PACIFIC BASIN SHIPPING LIMITED,"7,705,000",0.16%
 2356,DAH SING BANKING GROUP LIMITED,"201,200",0.01%
 2357,AVICHINA INDUSTRY & TECHNOLOGY COMPANY LIMITED,"424,204,000",6.82%
 2359,"WUXI APPTEC CO., LTD.","24,096,854",7.84%
 2362,JINCHUAN GROUP INTERNATIONAL RESOURCES CO. LTD.,"75,461,000",0.59%
 2363,TONGDA HONG TAI HOLDINGS LIMITED,"341,212",0.17%
 2369,COOLPAD GROUP LIMITED,"41,324,000",0.68%
 2380,CHINA POWER INTERNATIONAL DEVELOPMENT LIMITED,"600,805,700",6.11%
 2382,SUNNY OPTICAL TECHNOLOGY (GROUP) COMPANY LIMITED,"98,818,366",9.00%
 2386,"SINOPEC ENGINEERING (GROUP) CO., LTD.","35,498,500",2.42%
 2388,BOC HONG KONG (HOLDINGS) LIMITED,"12,733,445",0.11%
 2400,XD INC.,"56,298,300",12.39%
 2588,BOC AVIATION LIMITED,"13,726,258",1.96%
 2600,ALUMINUM CORPORATION OF CHINA LIMITED,"278,632,000",7.06%
 2601,CHINA PACIFIC INSURANCE (GROUP) CO. LTD.,"741,332,390",26.70%
 2607,"SHANGHAI PHARMACEUTICALS HOLDING CO., LTD.","106,005,706",11.53%
 2611,"GUOTAI JUNAN SECURITIES CO., LTD.","106,796,400",7.66%
 2628,CHINA LIFE INSURANCE COMPANY LIMITED,"282,629,093",3.79%
 2662,CAMSING INTERNATIONAL HOLDING LIMITED,"132,096,000",12.26%
 2666,GENERTEC UNIVERSAL MEDICAL GROUP COMPANY LIMITED,"329,045,500",19.17%
 2669,CHINA OVERSEAS PROPERTY HOLDINGS LIMITED,"375,242,275",11.41%
 2678,TEXHONG TEXTILE GROUP LIMITED,"32,276,000",3.52%
 2688,ENN ENERGY HOLDINGS LIMITED,"13,773,061",1.22%
 2689,NINE DRAGONS PAPER (HOLDINGS) LIMITED,"70,456,410",1.49%
 2727,SHANGHAI ELECTRIC GROUP COMPANY LIMITED,"844,319,000",28.39%
 2768,JIAYUAN INTERNATIONAL GROUP LIMITED,"353,243,183",8.70%
 2772,ZHONGLIANG HOLDINGS GROUP COMPANY LIMITED,"35,516,000",0.98%
 2777,"GUANGZHOU R&F PROPERTIES CO., LTD.","93,025,344",7.21%
 2799,"CHINA HUARONG ASSET MANAGEMENT CO., LTD.","2,336,023,000",9.32%
 2858,YIXIN GROUP LIMITED,"42,589,000",0.66%
 2866,"COSCO SHIPPING DEVELOPMENT CO., LTD.","576,484,000",15.68%
 2869,GREENTOWN SERVICE GROUP CO. LTD.,"362,698,899",11.26%
 2877,CHINA SHINEWAY PHARMACEUTICAL GROUP LIMITED,"25,082,000",3.02%
 2880,DALIAN PORT (PDA) COMPANY LIMITED,"884,270,400",17.13%
 2883,CHINA OILFIELD SERVICES LIMITED,"184,205,627",10.16%
 2888,STANDARD CHARTERED PLC,"357,070",0.01%
 2899,"ZIJIN MINING GROUP CO., LTD.","1,463,874,000",25.50%
 3301,RONSHINE CHINA HOLDINGS LIMITED,"139,307,500",8.17%
 3306,JNBY DESIGN LIMITED,"22,257,000",4.29%
 3308,GOLDEN EAGLE RETAIL GROUP LIMITED,"86,182,000",5.15%
 3309,C-MER EYE CARE HOLDINGS LIMITED,"76,252,000",6.66%
 3311,CHINA STATE CONSTRUCTION INTERNATIONAL HOLDINGS LIMITED,"177,279,692",3.50%
 3319,"A-LIVING SERVICES CO., LTD.","7,998,500",0.59%
 3320,CHINA RESOURCES PHARMACEUTICAL GROUP LIMITED,"190,312,500",3.02%
 3323,CHINA NATIONAL BUILDING MATERIAL COMPANY LIMITED,"956,360,660",24.71%
 3328,"BANK OF COMMUNICATIONS CO., LTD.","756,963,069",2.15%
 3329,BOCOM INTERNATIONAL HOLDINGS COMPANY LIMITED,"15,597,000",0.57%
 3331,VINDA INTERNATIONAL HOLDINGS LIMITED,"10,260,000",0.84%
 3333,CHINA EVERGRANDE GROUP,"116,945,355",0.88%
 3339,LONKING HOLDINGS LIMITED,"25,358,000",0.59%
 3347,"HANGZHOU TIGERMED CONSULTING CO., LTD.","73,900",0.06%
 3360,FAR EAST HORIZON LIMITED,"120,236,000",3.02%
 3368,PARKSON RETAIL GROUP LIMITED,"5,669,500",0.21%
 3369,"QINHUANGDAO PORT CO., LTD.","79,894,500",9.62%
 3377,SINO-OCEAN GROUP HOLDING LIMITED,"151,912,310",1.99%
 3380,LOGAN GROUP COMPANY LIMITED,"151,980,528",2.75%
 3382,TIANJIN PORT DEVELOPMENT HOLDINGS LIMITED,"205,170,000",3.33%
 3383,AGILE GROUP HOLDINGS LIMITED,"40,785,548",1.03%
 3389,HENGDELI HOLDINGS LIMITED,"776,000",0.01%
 3393,WASION HOLDINGS LIMITED,"1,326,000",0.13%
 3396,LEGEND HOLDINGS CORPORATION,"80,260,200",6.30%
 3606,"FUYAO GLASS INDUSTRY GROUP CO., LTD","80,165,850",15.84%
 3613,BEIJING TONG REN TANG CHINESE MEDICINE COMPANY LIMITED,"70,686,000",8.44%
 3618,"CHONGQING RURAL COMMERCIAL BANK CO., LTD.","696,747,000",27.71%
 3633,ZHONGYU GAS HOLDINGS LIMITED,"17,672,000",0.66%
 3669,CHINA YONGDA AUTOMOBILES SERVICES HOLDINGS LIMITED,"117,996,000",5.98%
 3690,MEITUAN DIANPING,"328,791,340",5.59%
 3692,HANSOH PHARMACEUTICAL GROUP COMPANY LIMITED,"52,707,000",0.88%
 3698,HUISHANG BANK CORPORATION LIMITED,"4,764,200",0.12%
 3759,"PHARMARON BEIJING CO., LTD.","21,017,265",15.68%
 3788,CHINA HANKING HOLDINGS LIMITED,"16,380,000",0.90%
 3799,DALI FOODS GROUP COMPANY LIMITED,"400,207,500",2.91%
 3800,GCL-POLY ENERGY HOLDINGS LIMITED,"2,383,104,500",11.27%
 3808,SINOTRUK (HONG KONG) LIMITED,"126,437,366",4.57%
 3813,POU SHENG INTERNATIONAL (HOLDINGS) LIMITED,"9,774,000",0.18%
 3818,"CHINA DONGXIANG (GROUP) CO., LTD.","498,155,000",8.46%
 3836,CHINA HARMONY AUTO HOLDING LIMITED,"59,684,500",3.79%
 3866,"BANK OF QINGDAO CO., LTD.","1,110,000",0.06%
 3868,XINYI ENERGY HOLDINGS LIMITED,"94,742,000",1.40%
 3877,CSSC (HONG KONG) SHIPPING COMPANY LIMITED,"5,118,000",0.08%
 3883,CHINA AOYUAN GROUP LIMITED,"175,957,000",6.50%
 3886,TOWN HEALTH INTERNATIONAL MEDICAL GROUP LIMITED,"145,736,000",1.92%
 3888,KINGSOFT CORPORATION LIMITED,"375,821,169",27.36%
 3898,"ZHUZHOU CRRC TIMES ELECTRIC CO., LTD.","39,741,506",7.25%
 3899,CIMC ENRIC HOLDINGS LIMITED,"148,634,000",7.39%
 3900,GREENTOWN CHINA HOLDINGS LIMITED,"347,685,500",13.93%
 3908,CHINA INTERNATIONAL CAPITAL CORPORATION LIMITED,"310,070,881",16.27%
 3933,"UNITED LABORATORIES INTERNATIONAL HOLDINGS LIMITED, THE","188,219,948",10.22%
 3958,DFZQ,"393,526,385",38.31%
 3968,"CHINA MERCHANTS BANK CO., LTD.","185,036,403",4.02%
 3969,CHINA RAILWAY SIGNAL & COMMUNICATION CORPORATION LIMITED,"157,090,000",7.97%
 3988,BANK OF CHINA LIMITED,"7,803,089,215",9.32%
 3990,MIDEA REAL ESTATE HOLDING LIMITED,"74,231,200",6.02%
 3993,"CHINA MOLYBDENUM CO., LTD.","332,085,500",8.44%
 3996,CHINA ENERGY ENGINEERING CORPORATION LIMITED,"10,824,000",0.11%
 3998,BOSIDENG INTERNATIONAL HOLDINGS LIMITED,"691,586,000",6.41%
 6030,CITIC SECURITIES COMPANY LIMITED,"279,393,641",12.25%
 6049,"POLY PROPERTY SERVICES CO., LTD.","56,313,807",36.72%
 6055,CHINA TOBACCO INTERNATIONAL (HK) COMPANY LIMITED,"30,407,000",4.39%
 6060,"ZHONGAN ONLINE P & C INSURANCE CO., LTD.","37,694,300",8.02%
 6066,"CSC FINANCIAL CO., LTD.","316,316,000",25.08%
 6068,WISDOM EDUCATION INTERNATIONAL HOLDINGS COMPANY LIMITED,"166,414,000",7.64%
 6069,SHENG YE CAPITAL LIMITED,"16,910,500",1.91%
 6078,"HYGEIA HEALTHCARE HOLDINGS CO., LIMITED","13,502,000",2.18%
 6088,FIT HON TENG LIMITED,"414,049,000",6.00%
 6098,COUNTRY GARDEN SERVICES HOLDINGS COMPANY LIMITED,"224,200,490",8.12%
 6099,"CHINA MERCHANTS SECURITIES CO., LTD.","231,087,160",18.13%
 6100,TONGDAO LIEPIN GROUP,"84,800",0.01%
 6110,TOPSPORTS INTERNATIONAL HOLDINGS LIMITED,"23,606,000",0.38%
 6116,"XINJIANG LA CHAPELLE FASHION CO., LTD.","69,479,200",32.33%
 6158,ZHENRO PROPERTIES GROUP LIMITED,"68,013,000",1.55%
 6160,"BEIGENE, LTD.","354,100",0.02%
 6166,CHINA VAST INDUSTRIAL URBAN DEVELOPMENT COMPANY LIMITED,"54,814,000",3.31%
 6169,CHINA YUHUA EDUCATION CORPORATION LIMITED,"574,755,614",17.20%
 6178,EVERBRIGHT SECURITIES COMPANY LIMITED,"86,531,200",12.28%
 6186,CHINA FEIHE LIMITED,"838,516,457",9.37%
 6196,"BANK OF ZHENGZHOU CO., LTD.","278,785,700",16.69%
 6198,"QINGDAO PORT INTERNATIONAL CO., LTD.","10,031,000",0.90%
 6806,"SHENWAN HONGYUAN GROUP CO., LTD.","204,628,000",8.17%
 6808,SUN ART RETAIL GROUP LIMITED,"65,381,023",0.68%
 6818,CHINA EVERBRIGHT BANK COMPANY LIMITED,"858,502,992",6.76%
 6828,BEIJING GAS BLUE SKY HOLDINGS LIMITED,"233,640,000",1.79%
 6837,"HAITONG SECURITIES CO., LTD.","871,260,200",25.54%
 6862,HAIDILAO INTERNATIONAL HOLDING LTD.,"178,640,922",3.36%
 6865,"FLAT GLASS GROUP CO., LTD.","162,022,000",35.99%
 6869,YANGTZE OPTICAL FIBRE AND CABLE JOINT STOCK LIMITED COMPANY,"16,844,500",4.78%
 6881,"CHINA GALAXY SECURITIES CO., LTD.","837,737,382",22.69%
 6886,"HUATAI SECURITIES CO., LTD.","444,522,985",25.85%
 6969,SMOORE INTERNATIONAL HOLDINGS LIMITED,"211,076,265",3.61%
 8328,XINYI AUTOMOBILE GLASS HONG KONG ENTERPRISES LIMITED,"109,750",0.01%
 9909,POWERLONG COMMERCIAL MANAGEMENT HOLDINGS LIMITED,"4,887,500",0.78%
 9922,JIUMAOJIU INTERNATIONAL HOLDINGS LIMITED,"23,848,000",1.64%
 9923,YEAHKA LIMITED,"11,600",0.00%
 9928,TIMES NEIGHBORHOOD HOLDINGS LIMITED,"12,369,947",1.25%
 9968,HUIJING HOLDINGS COMPANY LIMITED,"1,670,000",0.03%
 9983,CENTRAL CHINA NEW LIFE LIMITED,"6,326,000",0.50%
 9989,"SHENZHEN HEPALINK PHARMACEUTICAL GROUP CO., LTD.","12,077,500",5.48%
 9997,KANGJI MEDICAL HOLDINGS LIMITED,"1,497,500",0.11%
