Stock Code,Stock Name,Shareholding in CCASS,Percentage of the total number of Issued Shares
    1,CK HUTCHISON HOLDINGS LIMITED,"32,663,971",0.84%
    2,CLP HOLDINGS LIMITED,"5,991,952",0.23%
    3,"HONG KONG AND CHINA GAS COMPANY LIMITED, THE","21,168,663",0.11%
    4,"WHARF (HOLDINGS) LIMITED, THE","3,132,979",0.09%
    5,HSBC HOLDINGS PLC,"1,749,121,166",8.45%
    6,POWER ASSETS HOLDINGS LIMITED,"4,291,922",0.19%
    8,PCCW LIMITED,"11,337,776",0.14%
   10,HANG LUNG GROUP LIMITED,"12,037,000",0.88%
   11,HANG SENG BANK LTD,"2,949,788",0.14%
   12,HENDERSON LAND DEVELOPMENT CO LTD,"5,388,473",0.10%
   14,HYSAN DEVELOPMENT COMPANY LIMITED,"1,399,989",0.13%
   16,SUN HUNG KAI PROPERTIES LIMITED,"12,646,904",0.43%
   17,NEW WORLD DEVELOPMENT CO LTD,"28,820,528",0.27%
   19,SWIRE PACIFIC LTD 'A',"1,931,000",0.21%
   20,WHEELOCK AND COMPANY LIMITED,"519,467",0.02%
   23,BANK OF EAST ASIA LTD,"409,793",0.01%
   27,GALAXY ENTERTAINMENT GROUP LIMITED,"43,939,168",1.01%
   35,FAR EAST CONSORTIUM INTERNATIONAL LTD,"100,013",0.00%
   38,FIRST TRACTOR COMPANY LIMITED,"105,464,100",26.90%
   41,GREAT EAGLE HOLDINGS LIMITED,"1,428,511",0.19%
   42,NORTHEAST ELECTRIC DEVELOPMENT COMPANY LIMITED,"16,666,000",6.46%
   43,C.P. POKPHAND CO LTD,"852,000",0.00%
   45,"HONGKONG AND SHANGHAI HOTELS LTD,THE","44,013",0.00%
   59,SKYFAME REALTY (HOLDINGS) LIMITED,"57,520,000",0.72%
   66,MTR CORPORATION LIMITED,"10,473,923",0.16%
   69,SHANGRI-LA ASIA LIMITED,"17,422,000",0.48%
   78,REGAL HOTELS INTERNATIONAL HOLDINGS LIMITED,"16,000",0.00%
   81,CHINA OVERSEAS GRAND OCEANS GROUP LIMITED,"295,717,820",8.63%
   83,SINO LAND CO.LTD.,"10,735,976",0.14%
   86,SUN HUNG KAI & CO.LTD,"10,184,000",0.50%
   87,SWIRE PACIFIC LTD 'B',"14,640,000",0.48%
   95,LVGEM (CHINA) REAL ESTATE INVESTMENT COMPANY LIMITED,"149,710,000",2.95%
  101,HANG LUNG PROPERTIES LIMITED,"10,443,949",0.22%
  107,SICHUAN EXPRESSWAY COMPANY LIMITED,"221,746,000",24.76%
  109,GOOD RESOURCES HOLDINGS LIMITED,"46,080,000",0.64%
  116,CHOW SANG SANG HOLDINGS INTERNATIONAL LIMITED,"16,225,000",2.39%
  119,"POLY PROPERTY GROUP CO., LIMITED","346,234,748",9.45%
  120,COSMOPOLITAN INTERNATIONAL HOLDINGS LTD,"40,000",0.00%
  123,YUEXIU PROPERTY COMPANY LIMITED,"270,096,351",1.74%
  127,CHINESE ESTATES HOLDINGS LIMITED,"4,497,500",0.23%
  135,KUNLUN ENERGY COMPANY LIMITED,"179,213,000",2.06%
  136,HENGTEN NETWORKS GROUP LIMITED,"5,006,876,000",6.70%
  142,FIRST PACIFIC CO. LTD.,"9,242,000",0.20%
  144,CHINA MERCHANTS PORT HOLDINGS COMPANY LIMITED,"119,937,935",3.46%
  148,KINGBOARD HOLDINGS LIMITED,"17,589,636",1.58%
  151,WANT WANT CHINA HOLDINGS LIMITED,"25,293,871",0.19%
  152,SHENZHEN INTERNATIONAL HOLDINGS LIMITED,"55,153,457",2.54%
  163,EMPEROR INTERNATIONAL HOLDINGS LIMITED,"11,038,000",0.30%
  165,CHINA EVERBRIGHT LIMITED,"192,165,955",11.39%
  168,TSINGTAO BREWERY COMPANY LIMITED,"49,084,800",7.48%
  173,K. WAH INTERNATIONAL HOLDINGS LIMITED,"38,412,965",1.22%
  175,GEELY AUTOMOBILE HOLDINGS LIMITED,"664,500,842",7.20%
  177,JIANGSU EXPRESSWAY COMPANY LIMITED,"130,240,818",10.65%
  178,SA SA INTERNATIONAL HOLDINGS LIMITED,"12,681,268",0.40%
  179,JOHNSON ELECTRIC HOLDINGS LIMITED,"602,000",0.05%
  187,BEIJING JINGCHENG MACHINERY ELECTRIC COMPANY LIMITED,"29,254,000",29.25%
  189,DONGYUE GROUP LIMITED,"128,261,358",6.07%
  198,SMI HOLDINGS GROUP LIMITED,"70,340,800",2.59%
  200,MELCO INTERNATIONAL DEVELOPMENT LIMITED,"16,453,000",1.07%
  207,JOY CITY PROPERTY LIMITED,"5,564,000",0.03%
  215,HUTCHISON TELECOMMUNICATIONS HONG KONG HOLDINGS LIMITED,"7,178,000",0.14%
  220,UNI-PRESIDENT CHINA HOLDINGS LTD.,"5,425,000",0.12%
  241,ALIBABA HEALTH INFORMATION TECHNOLOGY LIMITED,"286,662,195",2.21%
  242,SHUN TAK HOLDINGS LIMITED,"84,606,000",2.80%
  245,CHINA MINSHENG FINANCIAL HOLDING CORPORATION LIMITED,"31,600,000",0.08%
  256,CITYCHAMP WATCH & JEWELLERY GROUP LIMITED,"322,604,000",7.41%
  257,CHINA EVERBRIGHT INTERNATIONAL LIMITED,"391,512,207",6.36%
  267,CITIC LIMITED,"115,045,916",0.38%
  268,KINGDEE INTERNATIONAL SOFTWARE GROUP COMPANY LIMITED,"330,610,872",9.92%
  270,GUANGDONG INVESTMENT LIMITED,"39,749,333",0.60%
  272,SHUI ON LAND LIMITED,"601,102,000",7.45%
  279,FREEMAN FINTECH CORPORATION LIMITED,"612,286,000",32.77%
  285,BYD ELECTRONIC (INTERNATIONAL) COMPANY LIMITED,"118,282,600",5.24%
  288,WH GROUP LIMITED,"1,239,816,001",8.40%
  291,CHINA RESOURCES BEER (HOLDINGS) COMPANY LIMITED,"159,155,018",4.90%
  293,CATHAY PACIFIC AIRWAYS LTD,"3,548,000",0.08%
  295,KONG SUN HOLDINGS LIMITED,"59,100,000",0.39%
  297,SINOFERT HOLDINGS LIMITED,"373,758,000",5.32%
  302,CMGE TECHNOLOGY GROUP LIMITED,"19,102,000",0.81%
  303,VTECH HOLDINGS LIMITED,"950,349",0.36%
  308,CHINA TRAVEL INTERNATIONAL INVESTMENT HONG KONG LIMITED,"189,458,439",3.42%
  315,SMARTONE TELECOMMUNICATIONS HOLDINGS LIMITED,"790,608",0.06%
  316,ORIENT OVERSEAS (INTERNATIONAL) LIMITED,"9,500",0.00%
  317,CSSC OFFSHORE & MARINE ENGINEERING (GROUP) COMPANY LIMITED,"16,404,200",2.76%
  321,TEXWINCA HOLDINGS LIMITED,"1,040,000",0.07%
  322,TINGYI (CAYMAN ISLANDS) HOLDING CORP.,"22,382,708",0.39%
  323,MAANSHAN IRON & STEEL COMPANY LIMITED,"25,078,000",1.44%
  327,PAX GLOBAL TECHNOLOGY LIMITED,"7,756,000",0.71%
  330,ESPRIT HOLDINGS LIMITED,"12,691,700",0.66%
  336,HUABAO INTERNATIONAL HOLDINGS LIMITED,"296,600,100",9.53%
  337,GREENLAND HONG KONG HOLDINGS LIMITED,"137,515,000",4.92%
  338,SINOPEC SHANGHAI PETROCHEMICAL COMPANY LIMITED,"288,520,375",8.24%
  341,CAFE DE CORAL HOLDINGS LTD,"640,000",0.10%
  345,VITASOY INTERNATIONAL HOLDINGS LTD,"8,822,011",0.82%
  347,ANGANG STEEL COMPANY LIMITED,"27,212,800",1.92%
  354,CHINASOFT INTERNATIONAL LIMITED,"418,488,460",15.94%
  358,JIANGXI COPPER COMPANY LIMITED,"46,198,219",3.32%
  363,SHANGHAI INDUSTRIAL HOLDINGS LIMITED,"20,757,100",1.90%
  371,BEIJING ENTERPRISES WATER GROUP LIMITED,"279,668,010",2.78%
  378,FDG KINETIC LIMITED,"184,818,000",2.73%
  384,CHINA GAS HOLDINGS LIMITED,"40,184,843",0.76%
  386,CHINA PETROLEUM & CHEMICAL CORPORATION,"1,413,844,595",5.53%
  388,HONG KONG EXCHANGES AND CLEARING LIMITED,"35,456,845",2.79%
  390,CHINA RAILWAY GROUP LIMITED,"265,444,030",6.30%
  392,BEIJING ENTERPRISES HOLDINGS LIMITED,"97,033,121",7.68%
  400,COGOBUY GROUP,"62,538,000",4.38%
  410,SOHO CHINA LIMITED,"321,387,000",6.18%
  412,CHINA SHANDONG HI-SPEED FINANCIAL GROUP LIMITED,"13,074,000",0.04%
  419,HUAYI TENCENT ENTERTAINMENT COMPANY LIMITED,"187,560,000",1.38%
  425,MINTH GROUP LIMITED,"114,427,240",9.94%
  439,KUANGCHI SCIENCE LIMITED,"322,972,000",5.24%
  440,DAH SING FINANCIAL HOLDINGS LTD,"1,406,466",0.43%
  451,GCL NEW ENERGY HOLDINGS LIMITED,"1,512,484,000",7.92%
  460,SIHUAN PHARMACEUTICAL HOLDINGS GROUP LTD.,"498,215,000",5.25%
  467,UNITED ENERGY GROUP LIMITED,"7,998,000",0.02%
  468,GREATVIEW ASEPTIC PACKAGING COMPANY LIMITED,"14,063,000",1.05%
  480,HKR INTERNATIONAL LTD,"261,680",0.01%
  488,LAI SUN DEVELOPMENT COMPANY LIMITED,"30,000",0.00%
  489,DONGFENG MOTOR GROUP COMPANY LIMITED,"199,018,000",6.96%
  493,GOME RETAIL HOLDINGS LIMITED,"2,353,729,000",10.91%
  494,LI & FUNG LIMITED,"47,812,000",0.55%
  496,KASEN INTERNATIONAL HOLDINGS LIMITED,"113,489,000",7.59%
  506,CHINA FOODS LIMITED,"50,332,100",1.79%
  508,DINGYI GROUP INVESTMENT LIMITED,"395,875,000",5.38%
  511,TELEVISION BROADCASTS LIMITED,"496,400",0.10%
  512,CHINA GRAND PHARMACEUTICAL AND HEALTHCARE HOLDINGS LIMITED,"92,223,200",2.73%
  517,"COSCO SHIPPING INTERNATIONAL (HONG KONG) CO., LTD.","462,000",0.03%
  520,"XIABUXIABU CATERING MANAGEMENT (CHINA) HOLDINGS CO., LTD.","59,308,000",5.48%
  522,ASM PACIFIC TECHNOLOGY LIMITED,"2,962,125",0.71%
  525,GUANGSHEN RAILWAY COMPANY LIMITED,"312,294,010",21.81%
  530,GOLDIN FINANCIAL HOLDINGS LIMITED,"2,926,000",0.04%
  535,GEMDALE PROPERTIES AND INVESTMENT CORPORATION LIMITED,"2,023,976,154",12.72%
  546,FUFENG GROUP LIMITED,"76,477,119",3.01%
  547,DIGITAL DOMAIN HOLDINGS LIMITED,"1,050,690,000",3.08%
  548,SHENZHEN EXPRESSWAY COMPANY LIMITED,"103,360,000",13.82%
  551,YUE YUEN INDUSTRIAL (HOLDINGS) LIMITED,"5,848,293",0.35%
  552,CHINA COMMUNICATIONS SERVICES CORPORATION LIMITED,"107,622,000",4.49%
  553,NANJING PANDA ELECTRONICS COMPANY LIMITED,"55,542,000",22.94%
  563,SHANGHAI INDUSTRIAL URBAN DEVELOPMENT GROUP LIMITED,"150,046,855",3.11%
  564,ZHENGZHOU COAL MINING MACHINERY GROUP COMPANY LIMITED,"75,068,766",30.85%
  568,SHANDONG MOLONG PETROLEUM MACHINERY COMPANY LIMITED,"56,185,600",21.93%
  570,CHINA TRADITIONAL CHINESE MEDICINE HOLDINGS CO LIMITED,"651,646,812",12.93%
  576,"ZHEJIANG EXPRESSWAY CO., LTD.","91,631,759",6.38%
  579,"BEIJING JINGNENG CLEAN ENERGY CO., LIMITED","181,244,000",6.40%
  581,CHINA ORIENTAL GROUP COMPANY LIMITED,"97,498,987",2.61%
  582,LANDING INTERNATIONAL DEVELOPMENT LIMITED,"113,317,200",3.21%
  586,CHINA CONCH VENTURE HOLDINGS LIMITED,"177,397,953",9.82%
  588,BEIJING NORTH STAR COMPANY LIMITED,"192,842,000",27.27%
  590,LUK FOOK HOLDINGS (INTERNATIONAL) LIMITED,"1,188,000",0.19%
  598,SINOTRANS LIMITED,"233,548,000",10.88%
  604,SHENZHEN INVESTMENT LIMITED,"41,697,461",0.46%
  607,FULLSHARE HOLDINGS LIMITED,"4,761,010,000",24.15%
  612,CHINA DING YI FENG HOLDINGS LIMITED,"2,632,000",0.20%
  631,SANY HEAVY EQUIPMENT INTERNATIONAL HOLDINGS COMPANY LIMITED,"201,770,000",6.50%
  636,KERRY LOGISTICS NETWORK LIMITED,"1,145,500",0.05%
  639,SHOUGANG FUSHAN RESOURCES GROUP LIMITED,"116,504,000",2.18%
  656,FOSUN INTERNATIONAL LIMITED,"838,532,526",9.84%
  658,"CHINA HIGH SPEED TRANSMISSION EQUIPMENT GROUP CO., LTD.","195,468,000",11.94%
  659,NWS HOLDINGS LIMITED,"3,097,719",0.07%
  665,HAITONG INTERNATIONAL SECURITIES GROUP LIMITED,"319,795,222",5.38%
  667,CHINA EAST EDUCATION HOLDINGS LIMITED,"90,489,500",4.12%
  669,TECHTRONIC INDUSTRIES CO. LTD.,"5,781,470",0.30%
  670,CHINA EASTERN AIRLINES CORPORATION LIMITED,"468,308,535",9.03%
  680,NAN HAI CORPORATION LIMITED,"794,950,000",1.15%
  683,KERRY PROPERTIES LIMITED,"4,008,624",0.26%
  686,PANDA GREEN ENERGY GROUP LIMITED,"302,044,000",1.34%
  687,TYSAN HOLDINGS LIMITED,"3,030,000",0.09%
  688,CHINA OVERSEAS LAND & INVESTMENT LIMITED -500,"140,554,539",1.27%
  691,CHINA SHANSHUI CEMENT GROUP LIMITED,"4,301,000",0.09%
  694,BEIJING CAPITAL INTERNATIONAL AIRPORT COMPANY LIMITED,"281,731,105",14.98%
  696,TRAVELSKY TECHNOLOGY LIMITED,"45,127,000",4.83%
  697,SHOUGANG CONCORD INTERNATIONAL ENTERPRISES COMPANY LIMITED-NEW,"6,927,200",0.10%
  698,TONGDA GROUP HOLDINGS LIMITED,"359,880,000",5.55%
  699,CAR INC.,"172,329,001",8.12%
  700,TENCENT HOLDINGS LIMITED,"267,018,789",2.79%
  709,GIORDANO INTERNATIONAL LIMITED,"2,262,000",0.14%
  715,CHINA OCEANWIDE HOLDINGS LIMITED,"460,000",0.00%
  718,TAI UNITED HOLDINGS LIMITED,"20,050,000",0.38%
  719,SHANDONG XINHUA PHARMACEUTICAL COMPANY LIMITED,"72,955,323",37.41%
  721,CHINA FINANCIAL INTERNATIONAL INVESTMENTS LIMITED,"306,500,000",2.79%
  728,CHINA TELECOM CORPORATION LIMITED,"336,479,238",2.41%
  729,FDG ELECTRIC VEHICLES LIMITED,"71,829,750",2.86%
  732,TRULY INTERNATIONAL HOLDINGS LIMITED,"311,114,000",9.44%
  737,SZ INVESTMENT HLDGS BAY AREA DEV CO LTD -HKD TRADED SHARES,"1,870,500",0.05%
  743,ASIA CEMENT (CHINA) HOLDINGS CORPORATION,"7,129,000",0.45%
  751,SKYWORTH GROUP LIMITED,"129,710,229",4.22%
  753,AIR CHINA LIMITED,"320,178,508",7.01%
  754,HOPSON DEVELOPMENT HOLDINGS LIMITED,"78,000,000",3.50%
  762,CHINA UNICOM (HONG KONG) LIMITED,"172,094,000",0.55%
  763,ZTE CORPORATION,"224,358,438",29.69%
  772,CHINA LITERATURE LIMITED,"38,188,200",3.75%
  775,"CK LIFE SCIENCES INT'L., (HOLDINGS) INC.","18,810,000",0.19%
  777,NETDRAGON WEBSOFT HOLDINGS LIMITED,"28,934,500",5.12%
  780,TONGCHENG-ELONG HOLDINGS LIMITED,"21,455,600",0.99%
  787,GLOBAL BRANDS GROUP HOLDING LIMITED,"66,990,675",6.50%
  788,CHINA TOWER CORPORATION LIMITED,"2,083,448,853",4.46%
  799,IGG INC,"126,207,298",10.14%
  806,VALUE PARTNERS GROUP LIMITED,"55,689,405",2.99%
  811,"XINHUA WINSHARE PUBLISHING AND MEDIA CO., LTD.","60,412,000",13.66%
  813,SHIMAO PROPERTY HOLDINGS LIMITED,"105,793,641",3.05%
  816,HUADIAN FUXIN ENERGY CORPORATION LIMITED,"15,596,000",0.60%
  817,CHINA JINMAO HOLDINGS GROUP LIMITED,"752,632,947",6.38%
  819,TIANNENG POWER INTERNATIONAL LIMITED,"127,652,000",11.32%
  826,TIANGONG INTERNATIONAL COMPANY LIMITED,"31,008,000",1.20%
  829,SHENGUAN HOLDINGS (GROUP) LIMITED,"142,670,000",4.41%
  832,CENTRAL CHINA REAL ESTATE LIMITED,"90,656,000",3.29%
  836,CHINA RESOURCES POWER HOLDINGS COMPANY LIMITED,"153,226,335",3.17%
  839,CHINA EDUCATION GROUP HOLDINGS LIMITED,"113,658,655",5.61%
  845,GLORIOUS PROPERTY HOLDINGS LIMITED,"23,365,000",0.29%
  846,MINGFA GROUP (INTERNATIONAL) COMPANY LIMITED,"5,261,000",0.08%
  853,MICROPORT SCIENTIFIC CORPORATION,"204,658,638",11.81%
  855,CHINA WATER AFFAIRS GROUP LIMITED,"182,582,334",11.38%
  856,VSTECS HOLDINGS LIMITED,"3,516,000",0.24%
  857,PETROCHINA COMPANY LIMITED,"1,548,458,455",7.33%
  860,WE SOLUTIONS LIMITED,"32,172,000",0.44%
  861,DIGITAL CHINA HOLDINGS LIMITED,"772,488,400",46.21%
  867,CHINA MEDICAL SYSTEM HOLDINGS LIMITED,"17,732,618",0.70%
  868,XINYI GLASS HOLDINGS LIMITED,"186,139,053",4.62%
  874,"GUANGZHOU BAIYUNSHAN PHARMACEUTICAL HOLDINGS CO., LTD.","60,976,200",27.72%
  880,SJM HOLDINGS LIMITED,"193,651,700",3.41%
  881,ZHONGSHENG GROUP HOLDINGS LIMITED,"50,835,813",2.23%
  883,CNOOC LIMITED,"345,891,295",0.76%
  884,CIFI HOLDINGS (GROUP) CO. LTD.,"426,563,993",5.39%
  885,RENTIAN TECHNOLOGY HOLDINGS LIMITED,"1,110,000",0.01%
  895,DONGJIANG ENVIRONMENTAL COMPANY LIMITED,"56,130,400",28.04%
  902,"HUANENG POWER INTERNATIONAL, INC.","1,918,307,624",40.80%
  906,CPMC HOLDINGS LIMITED,"35,434,000",3.07%
  911,QIANHAI HEALTH HOLDINGS LIMITED,"92,736,500",5.47%
  914,ANHUI CONCH CEMENT COMPANY LIMITED,"65,931,789",5.07%
  916,CHINA LONGYUAN POWER GROUP CORPORATION LIMITED,"212,660,000",6.36%
  921,"HISENSE HOME APPLIANCES GROUP CO., LTD.","54,304,459",11.81%
  931,CHINA LNG GROUP LIMITED,"178,287,000",3.15%
  933,BRIGHTOIL PETROLEUM (HOLDINGS) LIMITED,"25,254,000",0.24%
  934,SINOPEC KANTONS HOLDINGS LIMITED,"139,926,000",5.62%
  939,CHINA CONSTRUCTION BANK CORPORATION,"24,243,130,294",10.08%
  941,CHINA MOBILE LIMITED,"113,162,866",0.54%
  950,LEE'S PHARMACEUTICAL HOLDINGS LIMITED,"2,094,000",0.35%
  951,CHAOWEI POWER HOLDINGS LIMITED,"106,414,000",9.63%
  960,LONGFOR GROUP HOLDINGS LIMITED,"177,056,233",2.94%
  966,CHINA TAIPING INSURANCE HOLDINGS COMPANY LIMITED,"545,897,404",15.18%
  967,SOUND GLOBAL LTD.,"289,000",0.01%
  968,XINYI SOLAR HOLDINGS LIMITED,"1,089,069,713",13.46%
  976,CHIHO ENVIRONMENTAL GROUP LIMITED,"225,210,000",14.03%
  978,CHINA MERCHANTS LAND LIMITED,"58,956,000",1.20%
  981,SEMICONDUCTOR MANUFACTURING INTERNATIONAL CORPORATION,"1,157,129,998",22.46%
  989,GROUND INTERNATIONAL DEVELOPMENT LIMITED,"188,905,000",3.58%
  991,"DATANG INTERNATIONAL POWER GENERATION CO.,LTD.","245,730,000",4.01%
  992,LENOVO GROUP LIMITED,"57,630,476",0.47%
  995,ANHUI EXPRESSWAY COMPANY LIMITED,"101,928,000",20.67%
  996,CARNIVAL GROUP INTERNATIONAL HOLDINGS LIMITED,"6,099,442,500",25.73%
  998,CHINA CITIC BANK CORPORATION LIMITED,"2,058,658,678",13.83%
 1028,C.BANNER INTERNATIONAL HOLDINGS LIMITED,"150,475,000",7.24%
 1030,SEAZEN GROUP LIMITED,"339,194,500",5.45%
 1031,KINGSTON FINANCIAL GROUP LIMITED,"550,000",0.00%
 1033,SINOPEC OILFIELD SERVICE CORPORATION,"352,766,000",6.50%
 1038,CK INFRASTRUCTURE HOLDINGS LIMITED,"11,798,000",0.44%
 1044,HENGAN INTERNATIONAL GROUP COMPANY LIMITED,"20,188,000",1.68%
 1052,YUEXIU TRANSPORT INFRASTRUCTURE LIMITED,"61,960,000",3.70%
 1053,CHONGQING IRON & STEEL COMPANY LIMITED,"95,020,000",17.64%
 1055,CHINA SOUTHERN AIRLINES COMPANY LIMITED,"347,961,679",8.13%
 1057,ZHEJIANG SHIBAO COMPANY LIMITED,"44,481,000",20.51%
 1060,ALIBABA PICTURES GROUP LIMITED,"3,238,768,620",12.07%
 1065,TIANJIN CAPITAL ENVIRONMENTAL PROTECTION GROUP COMPANY LIMITED,"94,606,100",27.82%
 1066,SHANDONG WEIGAO GROUP MEDICAL POLYMER COMPANY LIMITED,"176,990,357",3.90%
 1068,CHINA YURUN FOOD GROUP LIMITED,"18,527,000",1.01%
 1070,TCL ELECTRONICS HOLDINGS LIMITED,"54,402,999",2.29%
 1071,HUADIAN POWER INTERNATIONAL CORPORATION LIMITED,"554,748,683",32.29%
 1072,DONGFANG ELECTRIC CORPORATION LIMITED,"103,974,246",30.57%
 1076,IMPERIAL PACIFIC INTERNATIONAL HOLDINGS LIMITED,"391,100,000",0.27%
 1083,TOWNGAS CHINA COMPANY LIMITED,"7,330,007",0.24%
 1086,GOODBABY INTERNATIONAL HOLDINGS LIMITED,"27,171,000",1.62%
 1088,CHINA SHENHUA ENERGY COMPANY LIMITED,"900,351,152",26.49%
 1089,LEYOU TECHNOLOGIES HOLDINGS LIMITED,"80,305,000",2.60%
 1093,CSPC PHARMACEUTICAL GROUP LIMITED,"293,070,867",4.69%
 1097,I-CABLE COMMUNICATIONS LIMITED,"101,191",0.00%
 1098,ROAD KING INFRASTRUCTURE LIMITED,"9,033,000",1.20%
 1099,SINOPHARM GROUP CO. LTD.,"64,582,337",4.81%
 1108,LUOYANG GLASS COMPANY LIMITED,"93,264,000",37.29%
 1109,CHINA RESOURCES LAND LIMITED,"97,573,870",1.36%
 1111,CHONG HING BANK LIMITED,"1,052,500",0.10%
 1112,HEALTH AND HAPPINESS (H&H) INTERNATIONAL HOLDINGS LIMITED,"48,964,000",7.59%
 1113,CK ASSET HOLDINGS LIMITED,"12,182,963",0.32%
 1114,BRILLIANCE CHINA AUTOMOTIVE HOLDINGS LIMITED,"212,388,978",4.20%
 1115,TIBET WATER RESOURCES LTD.,"161,127,000",6.27%
 1117,CHINA MODERN DAIRY HOLDINGS LTD.,"169,060,000",2.63%
 1119,IDREAMSKY TECHNOLOGY HOLDINGS LIMITED,"24,200,400",1.90%
 1128,"WYNN MACAU, LIMITED","59,474,159",1.13%
 1131,AGRITRADE RESOURCES LIMITED,"238,580,000",3.74%
 1138,"COSCO SHIPPING ENERGY TRANSPORTATION CO., LTD.","240,142,000",18.52%
 1140,OP FINANCIAL LIMITED,"101,196,000",3.48%
 1141,CMBC CAPITAL HOLDINGS LIMITED,"561,230,000",1.16%
 1157,"ZOOMLION HEAVY INDUSTRY SCIENCE AND TECHNOLOGY CO., LTD.","57,052,922",4.10%
 1165,SHUNFENG INTERNATIONAL CLEAN ENERGY LIMITED,"337,078,000",6.76%
 1169,"HAIER ELECTRONICS GROUP CO., LTD.","42,956,382",1.52%
 1171,YANZHOU COAL MINING COMPANY LIMITED,"311,279,000",15.94%
 1176,ZHUGUANG HOLDINGS GROUP COMPANY LIMITED,"189,726,000",2.63%
 1177,SINO BIOPHARMACEUTICAL LIMITED,"1,112,700,434",8.83%
 1186,CHINA RAILWAY CONSTRUCTION CORPORATION LIMITED,"63,303,157",3.04%
 1188,HYBRID KINETIC GROUP LIMITED,"118,550,000",0.58%
 1193,CHINA RESOURCES GAS GROUP LIMITED,"10,560,000",0.47%
 1196,REALORD GROUP HOLDINGS LIMITED,"115,092,000",8.00%
 1199,COSCO SHIPPING PORTS LIMITED,"18,548,965",0.58%
 1205,CITIC RESOURCES HOLDINGS LIMITED,"176,134,100",2.23%
 1208,MMG LIMITED,"376,694,000",4.66%
 1211,BYD COMPANY LIMITED,"56,244,309",6.14%
 1212,LIFESTYLE INTERNATIONAL HOLDINGS LIMITED,"2,640,812",0.17%
 1230,YASHILI INTERNATIONAL HOLDINGS LTD,"79,315,000",1.66%
 1233,TIMES CHINA HOLDINGS LIMITED,"103,686,757",5.33%
 1234,CHINA LILANG LIMITED,"43,427,962",3.62%
 1238,POWERLONG REAL ESTATE HOLDINGS LIMITED,"108,640,000",2.61%
 1250,BEIJING ENTERPRISES CLEAN ENERGY GROUP LIMITED,"1,768,560,000",2.78%
 1253,CHINA GREENLAND BROAD GREENSTATE GROUP COMPANY LIMITED,"6,500,000",0.19%
 1257,CHINA EVERBRIGHT GREENTECH LIMITED,"83,746,000",4.05%
 1268,CHINA MEIDONG AUTO HOLDINGS LIMITED,"27,966,000",2.41%
 1269,CHINA FIRST CAPITAL GROUP LIMITED,"1,150,502,000",22.88%
 1282,GLORY SUN FINANCIAL GROUP LIMITED,"3,270,984,000",10.97%
 1286,IMPRO PRECISION INDUSTRIES LIMITED,"292,000",0.01%
 1288,AGRICULTURAL BANK OF CHINA LIMITED,"7,917,107,435",25.74%
 1293,GRAND BAOXIN AUTO GROUP LIMITED,"140,484,509",4.95%
 1299,AIA GROUP LIMITED,"74,630,014",0.61%
 1302,LIFETECH SCIENTIFIC CORPORATION,"592,068,000",13.70%
 1308,SITC INTERNATIONAL HOLDINGS COMPANY LIMITED,"64,987,000",2.41%
 1310,HKBN LTD.,"4,220,000",0.32%
 1313,CHINA RESOURCES CEMENT HOLDINGS LIMITED,"63,063,915",0.89%
 1315,VISION FAME INTERNATIONAL HOLDING LIMITED,"733,014,000",12.21%
 1316,NEXTEER AUTOMOTIVE GROUP LIMITED,"55,749,000",2.22%
 1317,CHINA MAPLE LEAF EDUCATIONAL SYSTEMS LIMITED,"260,479,230",8.69%
 1330,"DYNAGREEN ENVIRONMENTAL PROTECTION GROUP CO., LTD","121,347,000",29.99%
 1333,CHINA ZHONGWANG HOLDINGS LIMITED,"266,844,000",4.89%
 1336,NEW CHINA LIFE INSURANCE COMPANY LTD.,"348,764,004",33.71%
 1339,"PEOPLE'S INSURANCE COMPANY (GROUP) OF CHINA LIMITED, THE","1,498,528,987",17.17%
 1347,HUA HONG SEMICONDUCTOR LIMITED,"68,816,984",5.32%
 1357,"MEITU, INC.","300,780,600",6.96%
 1359,"CHINA CINDA ASSET MANAGEMENT CO., LTD.","2,078,521,457",15.31%
 1361,361 DEGREES INTERNATIONAL LIMITED,"30,846,000",1.49%
 1363,CT ENVIRONMENTAL GROUP LIMITED,"502,874,000",7.95%
 1368,XTEP INTERNATIONAL HOLDINGS LIMITED,"43,425,396",1.72%
 1375,"CENTRAL CHINA SECURITIES CO., LTD.","227,867,000",19.05%
 1378,CHINA HONGQIAO GROUP LIMITED,"510,079,910",5.94%
 1381,CANVEST ENVIRONMENTAL PROTECTION GROUP COMPANY LIMITED,"27,356,000",1.12%
 1382,PACIFIC TEXTILES HOLDINGS LIMITED,"15,874,000",1.12%
 1383,SUNCITY GROUP HOLDINGS LIMITED,"18,590,000",0.27%
 1387,CHINA DILI GROUP,"157,179,130",2.74%
 1398,INDUSTRIAL AND COMMERCIAL BANK OF CHINA LIMITED,"23,365,504,890",26.91%
 1432,CHINA SHENGMU ORGANIC MILK LIMITED,"166,121,000",2.60%
 1448,FU SHOU YUAN INTERNATIONAL GROUP LIMITED,"214,927,838",
 1458,ZHOU HEI YA INTERNATIONAL HOLDINGS COMPANY LIMITED,"336,005,000",14.09%
 1478,Q TECHNOLOGY (GROUP) COMPANY LIMITED,"44,553,000",3.80%
 1508,CHINA REINSURANCE (GROUP) CORPORATION,"602,204,000",9.01%
 1513,LIVZON PHARMACEUTICAL GROUP INC.,"34,103,265",10.66%
 1515,CHINA RESOURCES MEDICAL HOLDINGS COMPANY LIMITED,"35,042,100",2.70%
 1521,FRONTAGE HOLDINGS CORPORATION,"130,402,000",6.46%
 1528,RED STAR MACALLINE GROUP CORPORATION LTD.,"105,290,062",15.62%
 1530,3SBIO INC.,"150,334,000",5.91%
 1533,"LANZHOU ZHUANGYUAN PASTURE CO., LTD.","5,920,500",16.85%
 1548,GENSCRIPT BIOTECH CORPORATION,"192,636,000",10.20%
 1551,"GUANGZHOU RURAL COMMERCIAL BANK CO., LTD","2,415,000",0.13%
 1558,"YICHANG HEC CHANGJIANG PHARMACEUTICAL CO., LTD.","55,163,200",25.28%
 1569,MINSHENG EDUCATION GROUP COMPANY LIMITED,"78,795,887",1.96%
 1573,SOUTHERN ENERGY HOLDINGS GROUP LIMITED,"126,862,000",17.66%
 1578,"BANK OF TIANJIN CO., LTD.","39,000",0.00%
 1579,YIHAI INTERNATIONAL HOLDING LTD.,"66,173,171",6.31%
 1583,QINQIN FOODSTUFFS GROUP (CAYMAN) COMPANY LIMITED,"25,700",0.00%
 1585,YADEA GROUP HOLDINGS LTD.,"253,326,000",8.45%
 1589,"CHINA LOGISTICS PROPERTY HOLDINGS CO., LTD","4,759,000",0.14%
 1600,CHINA TIAN LUN GAS HOLDINGS LIMITED,"8,918,500",0.89%
 1606,"CHINA DEVELOPMENT BANK FINANCIAL LEASING CO., LTD.","546,000",0.01%
 1608,VPOWER GROUP INTERNATIONAL HOLDINGS LIMITED,"1,221,000",0.04%
 1610,COFCO MEAT HOLDINGS LIMITED,"280,020,000",7.17%
 1618,METALLURGICAL CORPORATION OF CHINA LTD.,"312,148,000",10.86%
 1619,TIANHE CHEMICALS GROUP LIMITED,"193,880,000",0.78%
 1622,REDCO PROPERTIES GROUP LIMITED,"89,916,000",2.53%
 1628,YUZHOU PROPERTIES COMPANY LIMITED,"65,136,024",1.24%
 1635,"SHANGHAI DAZHONG PUBLIC UTILITIES (GROUP) CO., LTD.","67,384,000",12.61%
 1636,CHINA METAL RESOURCES UTILIZATION LIMITED,"35,372,000",1.34%
 1638,KAISA GROUP HOLDINGS LTD.,"391,853,619",6.42%
 1658,"POSTAL SAVINGS BANK OF CHINA CO., LTD.","168,177,035",0.84%
 1661,WISDOM SPORTS GROUP,"6,425,000",0.40%
 1666,TONG REN TANG TECHNOLOGIES CO LTD,"164,111,200",26.10%
 1668,CHINA SOUTH CITY HOLDINGS LIMITED,"748,572,396",9.22%
 1680,MACAU LEGEND DEVELOPMENT LIMITED,"131,331,000",2.10%
 1681,CONSUN PHARMACEUTICAL GROUP LIMITED,"29,694,000",3.43%
 1685,BOER POWER HOLDINGS LIMITED,"2,249,000",0.29%
 1686,SUNEVISION HOLDINGS LIMITED,"2,737,000",0.11%
 1691,JS GLOBAL LIFESTYLE COMPANY LIMITED,"451,500",0.00%
 1717,AUSNUTRIA DAIRY CORPORATION LTD,"63,849,000",3.95%
 1728,CHINA ZHENGTONG AUTO SERVICES HOLDINGS LIMITED,"197,137,500",8.03%
 1761,BABYTREE GROUP,"6,750,500",0.40%
 1765,"HOPE EDUCATION GROUP CO., LTD.","440,204,580",6.59%
 1766,CRRC CORPORATION LIMITED,"318,897,020",7.29%
 1772,"GANFENG LITHIUM CO., LTD.","104,007,055",51.95%
 1776,"GF SECURITIES CO., LTD.","443,970,700",26.08%
 1777,"FANTASIA HOLDINGS GROUP CO., LIMITED","393,046,000",6.81%
 1778,"COLOUR LIFE SERVICES GROUP CO., LIMITED","74,173,000",5.21%
 1787,"SHANDONG GOLD MINING CO., LTD.","142,287,711",28.47%
 1788,GUOTAI JUNAN INTERNATIONAL HOLDINGS LIMITED,"232,150,110",2.40%
 1789,AK MEDICAL HOLDINGS LIMITED,"60,643,329",5.48%
 1797,KOOLEARN TECHNOLOGY HOLDING LIMITED,"128,661,577",13.70%
 1800,CHINA COMMUNICATIONS CONSTRUCTION COMPANY LIMITED,"383,467,000",8.65%
 1806,HUIFU PAYMENT LIMITED,"36,256,400",2.80%
 1810,XIAOMI CORPORATION,"1,309,634,437",5.43%
 1811,"CGN NEW ENERGY HOLDINGS CO., LTD.","70,974,000",1.65%
 1812,SHANDONG CHENMING PAPER HOLDINGS LIMITED,"98,025,450",18.55%
 1813,KWG GROUP HOLDINGS LIMITED,"187,298,540",5.89%
 1816,"CGN POWER CO., LTD","2,261,441,000",20.24%
 1818,ZHAOJIN MINING INDUSTRY COMPANY LIMITED,"99,470,872",9.48%
 1829,CHINA MACHINERY ENGINEERING CORPORATION,"141,000",0.01%
 1833,PING AN HEALTHCARE AND TECHNOLOGY COMPANY LIMITED,"53,443,300",5.00%
 1836,STELLA INTERNATIONAL HOLDINGS LIMITED,"481,000",0.06%
 1848,CHINA AIRCRAFT LEASING GROUP HOLDINGS LIMITED,"8,367,000",1.24%
 1860,MOBVISTA INC.,"8,480,000",0.55%
 1873,VIVA BIOTECH HOLDINGS,"60,152,500",3.85%
 1876,BUDWEISER BREWING COMPANY APAC LIMITED,"7,557,700",0.05%
 1882,HAITIAN INTERNATIONAL HOLDINGS LIMITED,"22,058,000",1.37%
 1883,CITIC TELECOM INTERNATIONAL HOLDINGS LIMITED,"28,805,000",0.78%
 1886,CHINA HUIYUAN JUICE GROUP LIMITED,"125,355,500",4.69%
 1888,KINGBOARD LAMINATES HOLDINGS LIMITED,"11,571,095",0.36%
 1890,CHINA KEPEI EDUCATION GROUP LIMITED,"118,664,927",5.93%
 1896,MAOYAN ENTERTAINMENT,"24,541,000",2.16%
 1898,CHINA COAL ENERGY COMPANY LIMITED,"304,842,000",7.41%
 1905,"HAITONG UNITRUST INTERNATIONAL LEASING CO., LTD.","2,772,000",0.04%
 1907,CHINA RISUN GROUP LIMITED,"11,854,000",0.28%
 1908,C&D INTERNATIONAL INVESTMENT GROUP LIMITED,"77,408,000",6.57%
 1911,CHINA RENAISSANCE HOLDINGS LIMITED,"5,991,200",1.12%
 1916,"JIANGXI BANK CO., LTD.","10,789,000",0.80%
 1918,SUNAC CHINA HOLDINGS LIMITED,"896,238,323",19.25%
 1919,"COSCO SHIPPING HOLDINGS CO., LTD.","309,168,203",11.98%
 1928,SANDS CHINA LTD.,"52,457,293",0.64%
 1929,CHOW TAI FOOK JEWELLERY GROUP LIMITED,"42,121,200",0.41%
 1951,JINXIN FERTILITY GROUP LIMITED,"171,212,930",7.02%
 1958,BAIC MOTOR CORPORATION LIMITED,"85,336,500",3.38%
 1963,"BANK OF CHONGQING CO., LTD.","115,989,500",7.34%
 1966,CHINA SCE GROUP HOLDINGS LIMITED,"145,373,054",3.47%
 1970,"IMAX CHINA HOLDING, INC.","3,803,200",1.08%
 1972,SWIRE PROPERTIES LIMITED,"1,898,000",0.02%
 1980,TIAN GE INTERACTIVE HOLDINGS LIMITED,"27,093,000",2.14%
 1988,"CHINA MINSHENG BANKING CORP., LTD.","782,936,149",9.40%
 1992,FOSUN TOURISM GROUP,"1,048,200",0.07%
 1996,REDSUN PROPERTIES GROUP LIMITED,"38,753,000",1.16%
 1997,WHARF REAL ESTATE INVESTMENT COMPANY LIMITED,"5,290,958",0.16%
 1999,MAN WAH HOLDINGS LIMITED,"605,962,128",15.96%
 2001,CHINA NEW HIGHER EDUCATION GROUP LIMITED,"193,410,621",12.55%
 2003,VCREDIT HOLDINGS LIMITED,"2,397,200",0.48%
 2005,SSY GROUP LIMITED,"261,384,122",8.61%
 2007,COUNTRY GARDEN HOLDINGS COMPANY LIMITED,"257,944,504",1.17%
 2008,PHOENIX MEDIA INVESTMENT (HOLDINGS) LIMITED,"212,606,000",4.25%
 2009,BBMG CORPORATION,"226,930,500",9.70%
 2013,WEIMOB INC.,"207,353,432",9.26%
 2016,"CHINA ZHESHANG BANK CO., LTD.","3,190,000",0.06%
 2018,AAC TECHNOLOGIES HOLDINGS INC.,"41,131,924",3.39%
 2019,DEXIN CHINA HOLDINGS COMPANY LIMITED,"15,997,000",0.59%
 2020,ANTA SPORTS PRODUCTS LIMITED,"155,555,549",5.75%
 2038,FIH MOBILE LIMITED,"107,357,000",1.30%
 2039,"CHINA INTERNATIONAL MARINE CONTAINERS (GROUP) CO., LTD.","184,315,600",8.94%
 2048,E-HOUSE (CHINA) ENTERPRISE HOLDINGS LIMITED,"36,000",0.00%
 2051,51 CREDIT CARD INC.,"58,347,000",4.89%
 2066,"SHENGJING BANK CO., LTD.","253,500",0.01%
 2068,CHINA ALUMINUM INTERNATIONAL ENGINEERING CORPORATION LIMITED,"5,183,000",1.29%
 2098,ZALL SMART COMMERCE GROUP LTD.,"31,698,000",0.26%
 2099,CHINA GOLD INTERNATIONAL RESOURCES CORP. LTD.,"16,737,900",4.22%
 2103,SINIC HOLDINGS (GROUP) COMPANY LIMITED,"545,000",0.01%
 2111,BEST PACIFIC INTERNATIONAL HOLDINGS LIMITED,"1,616,000",0.15%
 2128,CHINA LESSO GROUP HOLDINGS LIMITED,"22,289,000",0.71%
 2136,LIFESTYLE CHINA GROUP LIMITED,"284,000",0.01%
 2186,LUYE PHARMA GROUP LTD.,"485,494,500",14.88%
 2196,"SHANGHAI FOSUN PHARMACEUTICAL (GROUP) CO., LTD.","199,681,725",36.17%
 2199,REGINA MIRACLE INTERNATIONAL (HOLDINGS) LIMITED,"2,940,000",0.23%
 2202,"CHINA VANKE CO., LTD.","201,352,007",12.76%
 2208,"XINJIANG GOLDWIND SCIENCE & TECHNOLOGY CO., LTD.","91,257,225",11.79%
 2232,CRYSTAL INTERNATIONAL GROUP LIMITED,"4,164,500",0.14%
 2233,WEST CHINA CEMENT LIMITED,"353,090,000",6.49%
 2238,"GUANGZHOU AUTOMOBILE GROUP CO., LTD.","1,143,091,863",36.88%
 2255,HAICHANG OCEAN PARK HOLDINGS LTD.,"54,985,000",1.37%
 2269,WUXI BIOLOGICS (CAYMAN) INC.,"101,245,323",7.77%
 2280,HC GROUP INC.,"119,500,000",10.66%
 2282,MGM CHINA HOLDINGS LIMITED,"34,269,496",0.89%
 2298,COSMO LADY (CHINA) HOLDINGS COMPANY LIMITED,"11,798,000",0.51%
 2313,SHENZHOU INTERNATIONAL GROUP HOLDINGS LIMITED,"58,084,676",3.85%
 2314,LEE & MAN PAPER MANUFACTURING LIMITED,"36,301,825",0.83%
 2318,"PING AN INSURANCE (GROUP) COMPANY OF CHINA, LTD.","131,431,524",1.75%
 2319,CHINA MENGNIU DAIRY COMPANY LIMITED,"52,712,919",1.33%
 2326,NEW PROVENANCE EVERLASTING HOLDINGS LIMITED,"55,970,000",0.25%
 2328,PICC PROPERTY AND CASUALTY COMPANY LIMITED,"571,656,641",8.28%
 2329,GUORUI PROPERTIES LIMITED,"150,126,000",3.37%
 2331,LI NING COMPANY LIMITED,"135,312,227",5.49%
 2333,GREAT WALL MOTOR COMPANY LIMITED,"915,277,965",29.52%
 2338,"WEICHAI POWER CO., LTD.","112,552,000",5.79%
 2343,PACIFIC BASIN SHIPPING LIMITED,"7,657,000",0.15%
 2356,DAH SING BANKING GROUP LIMITED,"200,000",0.01%
 2357,AVICHINA INDUSTRY & TECHNOLOGY COMPANY LIMITED,"349,160,000",5.58%
 2359,"WUXI APPTEC CO., LTD.","9,807,386",5.74%
 2362,JINCHUAN GROUP INTERNATIONAL RESOURCES CO. LTD.,"111,182,000",0.88%
 2363,TONGDA HONG TAI HOLDINGS LIMITED,"377,962",0.19%
 2369,COOLPAD GROUP LIMITED,"46,708,000",0.80%
 2380,CHINA POWER INTERNATIONAL DEVELOPMENT LIMITED,"711,760,439",7.24%
 2382,SUNNY OPTICAL TECHNOLOGY (GROUP) COMPANY LIMITED,"92,480,417",8.42%
 2386,"SINOPEC ENGINEERING (GROUP) CO., LTD.","30,410,500",2.07%
 2388,BOC HONG KONG (HOLDINGS) LIMITED,"25,558,445",0.23%
 2400,XD INC.,"27,785,800",6.49%
 2588,BOC AVIATION LIMITED,"18,528,700",2.66%
 2600,ALUMINUM CORPORATION OF CHINA LIMITED,"260,598,000",6.60%
 2601,CHINA PACIFIC INSURANCE (GROUP) CO. LTD.,"754,825,290",27.19%
 2607,"SHANGHAI PHARMACEUTICALS HOLDING CO., LTD.","122,221,866",13.29%
 2611,"GUOTAI JUNAN SECURITIES CO., LTD.","56,738,800",4.06%
 2628,CHINA LIFE INSURANCE COMPANY LIMITED,"359,926,593",4.83%
 2662,CAMSING INTERNATIONAL HOLDING LIMITED,"132,096,000",12.26%
 2666,GENERTEC UNIVERSAL MEDICAL GROUP COMPANY LIMITED,"328,776,500",19.15%
 2669,CHINA OVERSEAS PROPERTY HOLDINGS LIMITED,"285,971,609",8.69%
 2678,TEXHONG TEXTILE GROUP LIMITED,"27,923,500",3.05%
 2688,ENN ENERGY HOLDINGS LIMITED,"16,540,490",1.46%
 2689,NINE DRAGONS PAPER (HOLDINGS) LIMITED,"74,943,000",1.58%
 2727,SHANGHAI ELECTRIC GROUP COMPANY LIMITED,"769,183,000",25.86%
 2768,JIAYUAN INTERNATIONAL GROUP LIMITED,"331,041,374",8.38%
 2772,ZHONGLIANG HOLDINGS GROUP COMPANY LIMITED,"8,115,000",0.21%
 2777,"GUANGZHOU R&F PROPERTIES CO., LTD.","83,020,023",6.44%
 2799,"CHINA HUARONG ASSET MANAGEMENT CO., LTD.","2,092,027,000",8.35%
 2858,YIXIN GROUP LIMITED,"69,799,500",1.09%
 2866,"COSCO SHIPPING DEVELOPMENT CO., LTD.","543,741,000",14.78%
 2869,GREENTOWN SERVICE GROUP CO. LTD.,"252,673,899",
 2877,CHINA SHINEWAY PHARMACEUTICAL GROUP LIMITED,"17,018,000",2.04%
 2880,DALIAN PORT (PDA) COMPANY LIMITED,"922,237,000",17.87%
 2883,CHINA OILFIELD SERVICES LIMITED,"210,783,627",11.62%
 2888,STANDARD CHARTERED PLC,"417,870",0.01%
 2899,"ZIJIN MINING GROUP CO., LTD.","1,404,200,000",24.47%
 2989,SHOUGANG CONCORD INTERNATIONAL ENTERPRISES CO LTD-OLD,"29,200",0.00%
 3301,RONSHINE CHINA HOLDINGS LIMITED,"146,061,500",8.49%
 3306,JNBY DESIGN LIMITED,"21,653,000",4.17%
 3308,GOLDEN EAGLE RETAIL GROUP LIMITED,"115,197,000",6.85%
 3309,C-MER EYE CARE HOLDINGS LIMITED,"20,574,000",1.94%
 3311,CHINA STATE CONSTRUCTION INTERNATIONAL HOLDINGS LIMITED,"19,608,192",0.38%
 3319,"A-LIVING SERVICES CO., LTD.","12,052,500",2.78%
 3320,CHINA RESOURCES PHARMACEUTICAL GROUP LIMITED,"135,008,500",2.13%
 3323,CHINA NATIONAL BUILDING MATERIAL COMPANY LIMITED,"960,204,118",24.81%
 3328,"BANK OF COMMUNICATIONS CO., LTD.","635,979,944",1.80%
 3329,BOCOM INTERNATIONAL HOLDINGS COMPANY LIMITED,"16,821,000",0.61%
 3331,VINDA INTERNATIONAL HOLDINGS LIMITED,"5,891,000",0.48%
 3333,CHINA EVERGRANDE GROUP,"210,059,355",1.57%
 3339,LONKING HOLDINGS LIMITED,"31,085,000",0.72%
 3360,FAR EAST HORIZON LIMITED,"107,511,000",2.70%
 3368,PARKSON RETAIL GROUP LIMITED,"5,679,500",0.21%
 3369,"QINHUANGDAO PORT CO., LTD.","72,795,500",8.76%
 3377,SINO-OCEAN GROUP HOLDING LIMITED,"140,232,310",1.83%
 3380,LOGAN PROPERTY HOLDINGS COMPANY LIMITED,"151,284,871",2.73%
 3382,TIANJIN PORT DEVELOPMENT HOLDINGS LIMITED,"214,720,000",3.48%
 3383,AGILE GROUP HOLDINGS LIMITED,"32,154,548",0.82%
 3389,HENGDELI HOLDINGS LIMITED,"876,000",0.01%
 3393,WASION HOLDINGS LIMITED,"1,326,000",0.13%
 3396,LEGEND HOLDINGS CORPORATION,"75,404,100",5.92%
 3606,"FUYAO GLASS INDUSTRY GROUP CO., LTD","39,686,400",7.84%
 3613,BEIJING TONG REN TANG CHINESE MEDICINE COMPANY LIMITED,"82,701,000",9.87%
 3618,"CHONGQING RURAL COMMERCIAL BANK CO., LTD.","608,754,127",24.21%
 3633,ZHONGYU GAS HOLDINGS LIMITED,"15,251,000",0.57%
 3669,CHINA YONGDA AUTOMOBILES SERVICES HOLDINGS LIMITED,"23,801,500",
 3690,MEITUAN DIANPING,"253,327,942",4.35%
 3692,HANSOH PHARMACEUTICAL GROUP COMPANY LIMITED,"43,499,000",0.75%
 3698,HUISHANG BANK CORPORATION LIMITED,"4,770,800",0.12%
 3759,"PHARMARON BEIJING CO., LTD.","10,048,900",7.49%
 3788,CHINA HANKING HOLDINGS LIMITED,"16,444,000",0.90%
 3799,DALI FOODS GROUP COMPANY LIMITED,"381,500,500",2.77%
 3800,GCL-POLY ENERGY HOLDINGS LIMITED,"2,505,152,900",12.62%
 3808,SINOTRUK (HONG KONG) LIMITED,"124,978,366",4.51%
 3813,POU SHENG INTERNATIONAL (HOLDINGS) LIMITED,"6,612,000",0.12%
 3818,"CHINA DONGXIANG (GROUP) CO., LTD.","215,523,000",3.66%
 3836,CHINA HARMONY NEW ENERGY AUTO HOLDING LIMITED,"64,169,000",4.07%
 3866,"BANK OF QINGDAO CO., LTD.","764,500",0.04%
 3868,XINYI ENERGY HOLDINGS LIMITED,"8,530,000",0.12%
 3877,CSSC (HONG KONG) SHIPPING COMPANY LIMITED,"4,038,000",0.06%
 3883,CHINA AOYUAN GROUP LIMITED,"177,124,000",6.55%
 3886,TOWN HEALTH INTERNATIONAL MEDICAL GROUP LIMITED,"145,736,000",1.92%
 3888,KINGSOFT CORPORATION LIMITED,"345,174,126",25.13%
 3898,"ZHUZHOU CRRC TIMES ELECTRIC CO., LTD.","23,063,406",4.21%
 3899,CIMC ENRIC HOLDINGS LIMITED,"134,490,000",6.68%
 3900,GREENTOWN CHINA HOLDINGS LIMITED,"345,679,000",15.91%
 3908,CHINA INTERNATIONAL CAPITAL CORPORATION LIMITED,"297,242,096",15.60%
 3933,"UNITED LABORATORIES INTERNATIONAL HOLDINGS LIMITED, THE","138,944,181",7.97%
 3958,DFZQ,"381,740,446",37.15%
 3968,"CHINA MERCHANTS BANK CO., LTD.","207,658,016",4.51%
 3969,CHINA RAILWAY SIGNAL & COMMUNICATION CORPORATION LIMITED,"101,255,000",5.13%
 3988,BANK OF CHINA LIMITED,"8,057,651,376",9.62%
 3990,MIDEA REAL ESTATE HOLDING LIMITED,"30,493,800",2.47%
 3993,"CHINA MOLYBDENUM CO., LTD.","390,353,500",9.92%
 3996,CHINA ENERGY ENGINEERING CORPORATION LIMITED,"11,080,000",0.11%
 3998,BOSIDENG INTERNATIONAL HOLDINGS LIMITED,"637,578,000",5.93%
 6030,CITIC SECURITIES COMPANY LIMITED,"296,152,100",12.99%
 6049,"POLY PROPERTY DEVELOPMENT CO., LTD.","29,797,400",19.43%
 6055,CHINA TOBACCO INTERNATIONAL (HK) COMPANY LIMITED,"19,165,000",2.77%
 6060,"ZHONGAN ONLINE P & C INSURANCE CO., LTD.","22,123,200",4.70%
 6066,"CSC FINANCIAL CO., LTD.","318,925,000",25.28%
 6068,WISDOM EDUCATION INTERNATIONAL HOLDINGS COMPANY LIMITED,"109,994,000",5.37%
 6069,SHENG YE CAPITAL LIMITED,"10,614,000",1.20%
 6088,FIT HON TENG LIMITED,"107,525,000",1.55%
 6098,COUNTRY GARDEN SERVICES HOLDINGS COMPANY LIMITED,"173,713,630",6.38%
 6099,"CHINA MERCHANTS SECURITIES CO., LTD.","119,886,400",12.22%
 6100,"WISE TALENT INFORMATION TECHNOLOGY CO., LTD","112,000",0.02%
 6110,TOPSPORTS INTERNATIONAL HOLDINGS LIMITED,"4,691,000",0.07%
 6116,"SHANGHAI LA CHAPELLE FASHION CO., LTD.","70,000,200",32.58%
 6158,ZHENRO PROPERTIES GROUP LIMITED,"54,950,000",1.25%
 6166,CHINA VAST INDUSTRIAL URBAN DEVELOPMENT COMPANY LIMITED,"32,475,000",1.96%
 6169,CHINA YUHUA EDUCATION CORPORATION LIMITED,"454,959,614",13.62%
 6178,EVERBRIGHT SECURITIES COMPANY LIMITED,"93,658,800",13.30%
 6186,CHINA FEIHE LIMITED,"395,934,903",4.42%
 6196,"BANK OF ZHENGZHOU CO., LTD.","204,718,000",13.48%
 6198,"QINGDAO PORT INTERNATIONAL CO., LTD.","6,746,000",0.61%
 6806,"SHENWAN HONGYUAN GROUP CO., LTD.","86,980,000",3.47%
 6808,SUN ART RETAIL GROUP LIMITED,"73,793,500",0.76%
 6818,CHINA EVERBRIGHT BANK COMPANY LIMITED,"829,153,992",6.53%
 6828,BEIJING GAS BLUE SKY HOLDINGS LIMITED,"275,304,000",2.11%
 6837,"HAITONG SECURITIES CO., LTD.","622,373,800",18.24%
 6862,HAIDILAO INTERNATIONAL HOLDING LTD.,"147,542,896",2.78%
 6865,"FLAT GLASS GROUP CO., LTD.","190,942,000",42.42%
 6869,YANGTZE OPTICAL FIBRE AND CABLE JOINT STOCK LIMITED COMPANY,"24,621,000",7.00%
 6881,"CHINA GALAXY SECURITIES CO., LTD.","881,893,382",23.89%
 6886,"HUATAI SECURITIES CO., LTD.","419,911,000",24.42%
 8328,XINYI AUTOMOBILE GLASS HONG KONG ENTERPRISES LIMITED,"109,750",0.01%
 9928,TIMES NEIGHBORHOOD HOLDINGS LIMITED,"8,474,326",0.92%
