Stock Code,Stock Name,Shareholding in CCASS,Percentage of the total number of Issued Shares
    1,CK HUTCHISON HOLDINGS LIMITED,"28,073,819",0.72%
    2,CLP HOLDINGS LIMITED,"5,807,492",0.22%
    3,"HONG KONG AND CHINA GAS COMPANY LIMITED, THE","25,275,900",0.13%
    4,"WHARF (HOLDINGS) LIMITED, THE","9,301,450",0.29%
    5,HSBC HOLDINGS PLC,"1,844,550,870",8.90%
    6,POWER ASSETS HOLDINGS LIMITED,"4,280,922",0.19%
    8,PCCW LIMITED,"11,788,772",0.14%
   10,HANG LUNG GROUP LIMITED,"29,626,000",2.16%
   11,HANG SENG BANK LTD,"2,406,697",0.12%
   12,HENDERSON LAND DEVELOPMENT CO LTD,"4,217,636",0.08%
   14,HYSAN DEVELOPMENT COMPANY LIMITED,"1,073,000",0.09%
   16,SUN HUNG KAI PROPERTIES LIMITED,"7,171,904",0.24%
   17,NEW WORLD DEVELOPMENT CO LTD,"10,820,631",0.41%
   19,SWIRE PACIFIC LTD 'A',"3,410,000",0.36%
   23,BANK OF EAST ASIA LTD,"888,193",0.02%
   27,GALAXY ENTERTAINMENT GROUP LIMITED,"57,313,768",1.31%
   35,FAR EAST CONSORTIUM INTERNATIONAL LTD,"372,013",0.01%
   38,FIRST TRACTOR COMPANY LIMITED,"121,574,100",31.01%
   41,GREAT EAGLE HOLDINGS LIMITED,"1,420,511",0.19%
   42,NORTHEAST ELECTRIC DEVELOPMENT COMPANY LIMITED,"15,812,000",6.12%
   43,C.P. POKPHAND CO LTD,"840,000",0.00%
   45,"HONGKONG AND SHANGHAI HOTELS LTD,THE","42,013",0.00%
   59,SKYFAME REALTY (HOLDINGS) LIMITED,"63,876,000",0.80%
   66,MTR CORPORATION LIMITED,"6,302,668",0.09%
   69,SHANGRI-LA ASIA LIMITED,"19,836,000",0.54%
   78,REGAL HOTELS INTERNATIONAL HOLDINGS LIMITED,"12,000",0.00%
   81,CHINA OVERSEAS GRAND OCEANS GROUP LIMITED,"332,826,820",9.71%
   83,SINO LAND CO.LTD.,"3,911,976",0.05%
   86,SUN HUNG KAI & CO.LTD,"14,834,000",0.73%
   87,SWIRE PACIFIC LTD 'B',"29,380,000",0.98%
   95,LVGEM (CHINA) REAL ESTATE INVESTMENT COMPANY LIMITED,"184,646,000",3.62%
  101,HANG LUNG PROPERTIES LIMITED,"80,562,949",1.78%
  107,SICHUAN EXPRESSWAY COMPANY LIMITED,"227,560,000",25.40%
  109,GOOD RESOURCES HOLDINGS LIMITED,"44,440,000",0.62%
  116,CHOW SANG SANG HOLDINGS INTERNATIONAL LIMITED,"23,033,000",3.40%
  119,"POLY PROPERTY GROUP CO., LIMITED","394,589,748",10.76%
  120,COSMOPOLITAN INTERNATIONAL HOLDINGS LTD,"3,352,000",0.05%
  123,YUEXIU PROPERTY COMPANY LIMITED,"373,288,786",2.40%
  127,CHINESE ESTATES HOLDINGS LIMITED,"2,751,500",0.14%
  135,KUNLUN ENERGY COMPANY LIMITED,"107,431,534",1.23%
  136,HENGTEN NETWORKS GROUP LIMITED,"6,836,320,000",9.15%
  142,FIRST PACIFIC CO. LTD.,"6,958,000",0.15%
  144,CHINA MERCHANTS PORT HOLDINGS COMPANY LIMITED,"152,086,683",4.20%
  148,KINGBOARD HOLDINGS LIMITED,"14,790,636",1.32%
  151,WANT WANT CHINA HOLDINGS LIMITED,"25,280,871",0.19%
  152,SHENZHEN INTERNATIONAL HOLDINGS LIMITED,"75,486,953",3.43%
  163,EMPEROR INTERNATIONAL HOLDINGS LIMITED,"10,806,000",0.29%
  165,CHINA EVERBRIGHT LIMITED,"220,947,955",13.10%
  168,TSINGTAO BREWERY COMPANY LIMITED,"94,215,000",14.37%
  173,K. WAH INTERNATIONAL HOLDINGS LIMITED,"39,447,196",1.26%
  175,GEELY AUTOMOBILE HOLDINGS LIMITED,"860,363,940",8.76%
  177,JIANGSU EXPRESSWAY COMPANY LIMITED,"132,288,818",10.82%
  178,SA SA INTERNATIONAL HOLDINGS LIMITED,"15,029,268",0.47%
  179,JOHNSON ELECTRIC HOLDINGS LIMITED,"531,500",0.04%
  187,BEIJING JINGCHENG MACHINERY ELECTRIC COMPANY LIMITED,"27,052,000",27.05%
  189,DONGYUE GROUP LIMITED,"166,406,358",7.88%
  198,SMI HOLDINGS GROUP LIMITED,"70,340,800",2.59%
  200,MELCO INTERNATIONAL DEVELOPMENT LIMITED,"12,668,000",0.83%
  207,JOY CITY PROPERTY LIMITED,"4,364,000",0.03%
  215,HUTCHISON TELECOMMUNICATIONS HONG KONG HOLDINGS LIMITED,"12,446,000",0.25%
  220,UNI-PRESIDENT CHINA HOLDINGS LTD.,"8,899,000",0.19%
  241,ALIBABA HEALTH INFORMATION TECHNOLOGY LIMITED,"253,823,523",1.88%
  242,SHUN TAK HOLDINGS LIMITED,"92,756,000",3.06%
  245,CHINA VERED FINANCIAL HOLDING CORPORATION LIMITED,"25,120,000",0.06%
  256,CITYCHAMP WATCH & JEWELLERY GROUP LIMITED,"370,748,000",8.51%
  257,CHINA EVERBRIGHT ENVIRONMENT GROUP LIMITED,"549,732,021",8.94%
  267,CITIC LIMITED,"169,430,916",0.57%
  268,KINGDEE INTERNATIONAL SOFTWARE GROUP COMPANY LIMITED,"584,543,786",16.86%
  270,GUANGDONG INVESTMENT LIMITED,"36,524,905",0.54%
  272,SHUI ON LAND LIMITED,"788,573,000",9.77%
  279,FREEMAN FINTECH CORPORATION LIMITED,"612,286,000",32.77%
  285,BYD ELECTRONIC (INTERNATIONAL) COMPANY LIMITED,"183,164,987",8.12%
  288,WH GROUP LIMITED,"1,297,601,361",8.79%
  291,CHINA RESOURCES BEER (HOLDINGS) COMPANY LIMITED,"328,767,087",10.13%
  293,CATHAY PACIFIC AIRWAYS LTD,"23,235,299",0.35%
  295,KONG SUN HOLDINGS LIMITED,"52,325,000",0.34%
  297,SINOFERT HOLDINGS LIMITED,"366,296,000",5.21%
  302,CMGE TECHNOLOGY GROUP LIMITED,"188,810,000",8.10%
  303,VTECH HOLDINGS LIMITED,"1,383,501",0.54%
  308,CHINA TRAVEL INTERNATIONAL INVESTMENT HONG KONG LIMITED,"173,146,439",3.12%
  315,SMARTONE TELECOMMUNICATIONS HOLDINGS LIMITED,"1,728,108",0.15%
  316,ORIENT OVERSEAS (INTERNATIONAL) LIMITED,"8,500",0.00%
  317,CSSC OFFSHORE & MARINE ENGINEERING (GROUP) COMPANY LIMITED,"25,077,900",4.22%
  321,TEXWINCA HOLDINGS LIMITED,"1,004,000",0.07%
  322,TINGYI (CAYMAN ISLANDS) HOLDING CORP.,"21,046,708",0.37%
  323,MAANSHAN IRON & STEEL COMPANY LIMITED,"12,030,000",0.68%
  327,PAX GLOBAL TECHNOLOGY LIMITED,"6,321,000",0.58%
  330,ESPRIT HOLDINGS LIMITED,"11,002,800",0.57%
  336,HUABAO INTERNATIONAL HOLDINGS LIMITED,"417,833,100",13.43%
  337,GREENLAND HONG KONG HOLDINGS LIMITED,"112,386,000",4.02%
  338,SINOPEC SHANGHAI PETROCHEMICAL COMPANY LIMITED,"452,239,339",12.93%
  341,CAFE DE CORAL HOLDINGS LTD,"5,484,000",0.93%
  345,VITASOY INTERNATIONAL HOLDINGS LTD,"7,180,011",0.67%
  347,ANGANG STEEL COMPANY LIMITED,"19,525,200",1.38%
  354,CHINASOFT INTERNATIONAL LIMITED,"324,182,542",11.89%
  358,JIANGXI COPPER COMPANY LIMITED,"83,946,219",6.04%
  363,SHANGHAI INDUSTRIAL HOLDINGS LIMITED,"26,930,500",2.46%
  371,BEIJING ENTERPRISES WATER GROUP LIMITED,"269,698,010",2.68%
  378,FDG KINETIC LIMITED,"183,710,000",2.72%
  384,CHINA GAS HOLDINGS LIMITED,"43,987,643",0.83%
  386,CHINA PETROLEUM & CHEMICAL CORPORATION,"1,604,371,621",6.28%
  388,HONG KONG EXCHANGES AND CLEARING LIMITED,"53,763,492",4.23%
  390,CHINA RAILWAY GROUP LIMITED,"291,696,030",6.92%
  392,BEIJING ENTERPRISES HOLDINGS LIMITED,"86,241,482",6.83%
  400,COGOBUY GROUP,"50,377,000",3.54%
  410,SOHO CHINA LIMITED,"477,559,500",9.17%
  412,CHINA SHANDONG HI-SPEED FINANCIAL GROUP LIMITED,"9,900,000",0.04%
  419,HUAYI TENCENT ENTERTAINMENT COMPANY LIMITED,"165,140,000",1.22%
  425,MINTH GROUP LIMITED,"41,715,886",
  432,PACIFIC CENTURY PREMIUM DEVELOPMENTS LIMITED,"540,082",0.02%
  439,KUANGCHI SCIENCE LIMITED,"268,740,000",4.36%
  440,DAH SING FINANCIAL HOLDINGS LTD,"2,973,266",0.92%
  451,GCL NEW ENERGY HOLDINGS LIMITED,"1,332,402,000",6.98%
  460,SIHUAN PHARMACEUTICAL HOLDINGS GROUP LTD.,"532,076,000",5.61%
  467,UNITED ENERGY GROUP LIMITED,"199,942,000",0.75%
  468,GREATVIEW ASEPTIC PACKAGING COMPANY LIMITED,"7,001,000",0.52%
  480,HKR INTERNATIONAL LTD,"62,800",0.00%
  488,LAI SUN DEVELOPMENT COMPANY LIMITED,"30,000",0.00%
  489,DONGFENG MOTOR GROUP COMPANY LIMITED,"209,326,000",7.32%
  493,GOME RETAIL HOLDINGS LIMITED,"2,535,560,000",11.75%
  496,KASEN INTERNATIONAL HOLDINGS LIMITED,"136,670,000",9.15%
  506,CHINA FOODS LIMITED,"36,336,100",1.29%
  508,DINGYI GROUP INVESTMENT LIMITED,"381,155,000",5.18%
  511,TELEVISION BROADCASTS LIMITED,"454,000",0.09%
  512,CHINA GRAND PHARMACEUTICAL AND HEALTHCARE HOLDINGS LIMITED,"121,975,200",3.43%
  517,"COSCO SHIPPING INTERNATIONAL (HONG KONG) CO., LTD.","420,000",0.02%
  520,"XIABUXIABU CATERING MANAGEMENT (CHINA) HOLDINGS CO., LTD.","126,188,000",11.66%
  522,ASM PACIFIC TECHNOLOGY LIMITED,"13,479,025",3.29%
  525,GUANGSHEN RAILWAY COMPANY LIMITED,"389,194,010",27.18%
  530,GOLDIN FINANCIAL HOLDINGS LIMITED,"2,448,000",0.03%
  535,GEMDALE PROPERTIES AND INVESTMENT CORPORATION LIMITED,"2,015,454,154",12.20%
  546,FUFENG GROUP LIMITED,"72,883,119",2.87%
  547,DIGITAL DOMAIN HOLDINGS LIMITED,"1,017,020,000",2.98%
  548,SHENZHEN EXPRESSWAY COMPANY LIMITED,"117,982,000",15.77%
  551,YUE YUEN INDUSTRIAL (HOLDINGS) LIMITED,"5,297,293",0.32%
  552,CHINA COMMUNICATIONS SERVICES CORPORATION LIMITED,"35,244,000",1.47%
  553,NANJING PANDA ELECTRONICS COMPANY LIMITED,"61,438,000",25.37%
  563,SHANGHAI INDUSTRIAL URBAN DEVELOPMENT GROUP LIMITED,"115,726,155",2.40%
  564,ZHENGZHOU COAL MINING MACHINERY GROUP COMPANY LIMITED,"38,234,604",15.71%
  568,SHANDONG MOLONG PETROLEUM MACHINERY COMPANY LIMITED,"61,050,800",23.83%
  570,CHINA TRADITIONAL CHINESE MEDICINE HOLDINGS CO LIMITED,"659,630,938",13.08%
  576,"ZHEJIANG EXPRESSWAY CO., LTD.","71,909,759",5.00%
  579,"BEIJING JINGNENG CLEAN ENERGY CO., LIMITED","155,170,000",5.48%
  581,CHINA ORIENTAL GROUP COMPANY LIMITED,"147,308,987",3.95%
  582,LANDING INTERNATIONAL DEVELOPMENT LIMITED,"111,888,000",3.16%
  586,CHINA CONCH VENTURE HOLDINGS LIMITED,"164,104,000",9.09%
  588,BEIJING NORTH STAR COMPANY LIMITED,"231,220,000",32.69%
  590,LUK FOOK HOLDINGS (INTERNATIONAL) LIMITED,"2,521,000",0.42%
  598,SINOTRANS LIMITED,"315,929,000",14.72%
  604,SHENZHEN INVESTMENT LIMITED,"43,527,579",0.47%
  607,FULLSHARE HOLDINGS LIMITED,"4,510,337,500",22.88%
  612,CHINA DING YI FENG HOLDINGS LIMITED,"2,208,000",0.16%
  631,SANY HEAVY EQUIPMENT INTERNATIONAL HOLDINGS COMPANY LIMITED,"186,645,000",5.98%
  636,KERRY LOGISTICS NETWORK LIMITED,"1,449,500",0.07%
  639,SHOUGANG FUSHAN RESOURCES GROUP LIMITED,"82,605,594",1.63%
  656,FOSUN INTERNATIONAL LIMITED,"1,010,550,416",11.89%
  658,"CHINA HIGH SPEED TRANSMISSION EQUIPMENT GROUP CO., LTD.","158,794,000",9.70%
  659,NWS HOLDINGS LIMITED,"7,139,969",0.17%
  665,HAITONG INTERNATIONAL SECURITIES GROUP LIMITED,"270,460,840",4.47%
  667,CHINA EAST EDUCATION HOLDINGS LIMITED,"127,013,000",5.78%
  669,TECHTRONIC INDUSTRIES CO. LTD.,"6,988,970",0.37%
  670,CHINA EASTERN AIRLINES CORPORATION LIMITED,"282,981,567",5.45%
  680,NAN HAI CORPORATION LIMITED,"483,100,000",0.69%
  683,KERRY PROPERTIES LIMITED,"3,399,124",0.22%
  686,"BEIJING ENERGY INTERNATIONAL HOLDING CO., LTD","295,010,000",1.31%
  687,TYSAN HOLDINGS LIMITED,"26,332,000",0.78%
  688,CHINA OVERSEAS LAND & INVESTMENT LIMITED,"62,387,587",0.56%
  691,CHINA SHANSHUI CEMENT GROUP LIMITED,"4,078,000",0.09%
  694,BEIJING CAPITAL INTERNATIONAL AIRPORT COMPANY LIMITED,"367,165,672",19.53%
  696,TRAVELSKY TECHNOLOGY LIMITED,"35,626,000",3.81%
  697,SHOUCHENG HOLDINGS LIMITED,"53,478,010",0.75%
  698,TONGDA GROUP HOLDINGS LIMITED,"156,070,000",2.40%
  699,CAR INC.,"166,616,001",7.84%
  700,TENCENT HOLDINGS LIMITED,"339,084,700",3.53%
  709,GIORDANO INTERNATIONAL LIMITED,"2,100,000",0.13%
  715,CHINA OCEANWIDE HOLDINGS LIMITED,"456,000",0.00%
  718,TAI UNITED HOLDINGS LIMITED,"20,050,000",0.38%
  719,SHANDONG XINHUA PHARMACEUTICAL COMPANY LIMITED,"68,721,036",35.24%
  721,CHINA FINANCIAL INTERNATIONAL INVESTMENTS LIMITED,"304,790,000",2.77%
  728,CHINA TELECOM CORPORATION LIMITED,"292,509,238",2.09%
  729,FDG ELECTRIC VEHICLES LIMITED,"70,130,750",2.79%
  732,TRULY INTERNATIONAL HOLDINGS LIMITED,"299,746,000",9.10%
  737,SZ INVESTMENT HLDGS BAY AREA DEV CO LTD -HKD TRADED SHARES,"1,431,500",0.04%
  743,ASIA CEMENT (CHINA) HOLDINGS CORPORATION,"32,738,500",2.08%
  751,SKYWORTH GROUP LIMITED,"162,471,429",6.08%
  753,AIR CHINA LIMITED,"353,712,449",7.74%
  754,HOPSON DEVELOPMENT HOLDINGS LIMITED,"53,924,000",2.42%
  762,CHINA UNICOM (HONG KONG) LIMITED,"326,568,000",1.06%
  763,ZTE CORPORATION,"191,426,578",25.33%
  772,CHINA LITERATURE LIMITED,"78,421,018",7.71%
  775,"CK LIFE SCIENCES INT'L., (HOLDINGS) INC.","18,334,000",0.19%
  777,NETDRAGON WEBSOFT HOLDINGS LIMITED,"24,890,000",4.41%
  780,TONGCHENG-ELONG HOLDINGS LIMITED,"26,662,800",1.22%
  787,GLOBAL BRANDS GROUP HOLDING LIMITED,"66,264,633",6.43%
  788,CHINA TOWER CORPORATION LIMITED,"1,922,676,140",4.11%
  799,IGG INC,"93,218,298",7.57%
  806,VALUE PARTNERS GROUP LIMITED,"65,217,405",3.50%
  811,"XINHUA WINSHARE PUBLISHING AND MEDIA CO., LTD.","82,110,000",18.57%
  813,SHIMAO GROUP HOLDINGS LIMITED,"72,726,072",2.04%
  817,CHINA JINMAO HOLDINGS GROUP LIMITED,"1,017,331,130",7.98%
  819,TIANNENG POWER INTERNATIONAL LIMITED,"217,567,000",19.31%
  826,TIANGONG INTERNATIONAL COMPANY LIMITED,"74,810,000",2.91%
  829,SHENGUAN HOLDINGS (GROUP) LIMITED,"140,356,000",4.34%
  832,CENTRAL CHINA REAL ESTATE LIMITED,"128,178,000",4.53%
  836,CHINA RESOURCES POWER HOLDINGS COMPANY LIMITED,"223,492,335",4.64%
  839,CHINA EDUCATION GROUP HOLDINGS LIMITED,"97,241,655",4.52%
  845,GLORIOUS PROPERTY HOLDINGS LIMITED,"22,344,000",0.28%
  846,MINGFA GROUP (INTERNATIONAL) COMPANY LIMITED,"5,261,000",0.08%
  853,MICROPORT SCIENTIFIC CORPORATION,"240,030,299",13.29%
  855,CHINA WATER AFFAIRS GROUP LIMITED,"170,563,357",10.75%
  856,VSTECS HOLDINGS LIMITED,"16,158,000",1.11%
  857,PETROCHINA COMPANY LIMITED,"1,722,194,455",8.15%
  860,APOLLO FUTURE MOBILITY GROUP LIMITED,"28,832,000",0.40%
  861,DIGITAL CHINA HOLDINGS LIMITED,"613,918,150",36.70%
  867,CHINA MEDICAL SYSTEM HOLDINGS LIMITED,"35,095,474",1.42%
  868,XINYI GLASS HOLDINGS LIMITED,"203,823,443",5.04%
  874,"GUANGZHOU BAIYUNSHAN PHARMACEUTICAL HOLDINGS CO., LTD.","69,494,100",31.59%
  880,SJM HOLDINGS LIMITED,"244,413,700",4.29%
  881,ZHONGSHENG GROUP HOLDINGS LIMITED,"45,286,000",1.98%
  883,CNOOC LIMITED,"443,344,543",0.98%
  884,CIFI HOLDINGS (GROUP) CO. LTD.,"382,162,009",4.64%
  885,RENTIAN TECHNOLOGY HOLDINGS LIMITED,"1,110,000",0.01%
  895,DONGJIANG ENVIRONMENTAL COMPANY LIMITED,"56,978,400",28.46%
  902,"HUANENG POWER INTERNATIONAL, INC.","2,001,353,004",42.56%
  906,CPMC HOLDINGS LIMITED,"14,094,000",1.26%
  911,QIANHAI HEALTH HOLDINGS LIMITED,"90,766,000",5.35%
  914,ANHUI CONCH CEMENT COMPANY LIMITED,"53,247,789",4.09%
  916,CHINA LONGYUAN POWER GROUP CORPORATION LIMITED,"148,752,000",4.44%
  921,"HISENSE HOME APPLIANCES GROUP CO., LTD.","40,744,459",8.86%
  931,CHINA LNG GROUP LIMITED,"130,765,000",2.31%
  934,SINOPEC KANTONS HOLDINGS LIMITED,"185,412,000",7.44%
  939,CHINA CONSTRUCTION BANK CORPORATION,"26,680,778,450",11.09%
  941,CHINA MOBILE LIMITED,"88,511,724",0.42%
  950,LEE'S PHARMACEUTICAL HOLDINGS LIMITED,"1,356,500",0.23%
  951,CHAOWEI POWER HOLDINGS LIMITED,"100,306,000",9.08%
  956,CHINA SUNTIEN GREEN ENERGY CORPORATION LIMITED,"235,247,000",12.78%
  960,LONGFOR GROUP HOLDINGS LIMITED,"168,005,993",2.79%
  966,CHINA TAIPING INSURANCE HOLDINGS COMPANY LIMITED,"501,914,174",13.95%
  967,SOUND GLOBAL LTD.,"289,000",0.01%
  968,XINYI SOLAR HOLDINGS LIMITED,"851,186,132",9.99%
  976,CHIHO ENVIRONMENTAL GROUP LIMITED,"210,206,000",13.09%
  978,CHINA MERCHANTS LAND LIMITED,"185,492,000",3.78%
  981,SEMICONDUCTOR MANUFACTURING INTERNATIONAL CORPORATION,"1,051,207,199",13.65%
  989,GROUND INTERNATIONAL DEVELOPMENT LIMITED,"136,250,000",2.28%
  991,"DATANG INTERNATIONAL POWER GENERATION CO.,LTD.","372,672,000",6.09%
  992,LENOVO GROUP LIMITED,"97,573,882",0.80%
  995,ANHUI EXPRESSWAY COMPANY LIMITED,"116,810,000",23.68%
  996,CARNIVAL GROUP INTERNATIONAL HOLDINGS LIMITED,"6,099,442,500",25.73%
  998,CHINA CITIC BANK CORPORATION LIMITED,"2,780,739,758",18.68%
 1028,C.BANNER INTERNATIONAL HOLDINGS LIMITED,"143,864,000",6.92%
 1030,SEAZEN GROUP LIMITED,"298,610,000",4.80%
 1031,KINGSTON FINANCIAL GROUP LIMITED,"548,000",0.00%
 1033,SINOPEC OILFIELD SERVICE CORPORATION,"394,202,000",7.27%
 1038,CK INFRASTRUCTURE HOLDINGS LIMITED,"10,683,500",0.40%
 1044,HENGAN INTERNATIONAL GROUP COMPANY LIMITED,"19,035,605",1.59%
 1052,YUEXIU TRANSPORT INFRASTRUCTURE LIMITED,"80,523,238",4.81%
 1053,CHONGQING IRON & STEEL COMPANY LIMITED,"99,514,000",18.48%
 1055,CHINA SOUTHERN AIRLINES COMPANY LIMITED,"285,830,470",6.68%
 1057,ZHEJIANG SHIBAO COMPANY LIMITED,"55,854,000",25.76%
 1060,ALIBABA PICTURES GROUP LIMITED,"3,480,898,620",12.96%
 1065,TIANJIN CAPITAL ENVIRONMENTAL PROTECTION GROUP COMPANY LIMITED,"117,218,100",34.46%
 1066,SHANDONG WEIGAO GROUP MEDICAL POLYMER COMPANY LIMITED,"748,674,050",16.54%
 1068,CHINA YURUN FOOD GROUP LIMITED,"18,047,000",0.99%
 1070,TCL ELECTRONICS HOLDINGS LIMITED,"130,282,666",5.32%
 1071,HUADIAN POWER INTERNATIONAL CORPORATION LIMITED,"761,251,855",44.32%
 1072,DONGFANG ELECTRIC CORPORATION LIMITED,"78,313,716",23.02%
 1076,IMPERIAL PACIFIC INTERNATIONAL HOLDINGS LIMITED,"387,060,000",0.27%
 1083,TOWNGAS CHINA COMPANY LIMITED,"18,358,542",0.61%
 1086,GOODBABY INTERNATIONAL HOLDINGS LIMITED,"22,176,000",1.32%
 1088,CHINA SHENHUA ENERGY COMPANY LIMITED,"952,975,825",28.03%
 1089,LEYOU TECHNOLOGIES HOLDINGS LIMITED,"6,915,000",0.22%
 1093,CSPC PHARMACEUTICAL GROUP LIMITED,"495,128,055",6.61%
 1097,I-CABLE COMMUNICATIONS LIMITED,"81,191",0.00%
 1098,ROAD KING INFRASTRUCTURE LIMITED,"11,092,000",1.48%
 1099,SINOPHARM GROUP CO. LTD.,"71,761,109",5.34%
 1108,LUOYANG GLASS COMPANY LIMITED,"93,210,000",37.28%
 1109,CHINA RESOURCES LAND LIMITED,"120,085,763",1.68%
 1111,CHONG HING BANK LIMITED,"1,022,500",0.10%
 1112,HEALTH AND HAPPINESS (H&H) INTERNATIONAL HOLDINGS LIMITED,"37,108,500",5.75%
 1113,CK ASSET HOLDINGS LIMITED,"13,560,033",0.36%
 1114,BRILLIANCE CHINA AUTOMOTIVE HOLDINGS LIMITED,"86,811,386",1.71%
 1115,TIBET WATER RESOURCES LTD.,"161,107,000",6.27%
 1117,CHINA MODERN DAIRY HOLDINGS LTD.,"253,916,000",3.92%
 1119,IDREAMSKY TECHNOLOGY HOLDINGS LIMITED,"42,971,600",3.38%
 1128,"WYNN MACAU, LIMITED","59,565,600",1.13%
 1131,AGRITRADE RESOURCES LIMITED,"583,090,000",9.14%
 1138,"COSCO SHIPPING ENERGY TRANSPORTATION CO., LTD.","191,208,003",14.74%
 1140,OP FINANCIAL LIMITED,"97,520,000",3.36%
 1141,CMBC CAPITAL HOLDINGS LIMITED,"716,250,000",1.50%
 1157,"ZOOMLION HEAVY INDUSTRY SCIENCE AND TECHNOLOGY CO., LTD.","35,756,122",2.57%
 1165,SHUNFENG INTERNATIONAL CLEAN ENERGY LIMITED,"324,022,000",6.50%
 1169,"HAIER ELECTRONICS GROUP CO., LTD.","125,449,382",4.44%
 1171,YANZHOU COAL MINING COMPANY LIMITED,"325,001,995",17.10%
 1176,ZHUGUANG HOLDINGS GROUP COMPANY LIMITED,"235,832,000",3.27%
 1177,SINO BIOPHARMACEUTICAL LIMITED,"1,671,556,221",8.84%
 1186,CHINA RAILWAY CONSTRUCTION CORPORATION LIMITED,"116,714,690",5.61%
 1188,HYBRID KINETIC GROUP LIMITED,"102,914,000",0.50%
 1193,CHINA RESOURCES GAS GROUP LIMITED,"8,664,000",0.36%
 1196,REALORD GROUP HOLDINGS LIMITED,"124,124,000",8.63%
 1199,COSCO SHIPPING PORTS LIMITED,"17,324,272",0.53%
 1205,CITIC RESOURCES HOLDINGS LIMITED,"165,902,100",2.10%
 1208,MMG LIMITED,"306,706,000",3.80%
 1211,BYD COMPANY LIMITED,"65,489,473",7.15%
 1212,LIFESTYLE INTERNATIONAL HOLDINGS LIMITED,"3,724,166",0.24%
 1230,YASHILI INTERNATIONAL HOLDINGS LTD,"78,412,000",1.64%
 1233,TIMES CHINA HOLDINGS LIMITED,"84,797,757",4.36%
 1234,CHINA LILANG LIMITED,"74,786,000",6.24%
 1238,POWERLONG REAL ESTATE HOLDINGS LIMITED,"127,183,116",3.06%
 1250,BEIJING ENTERPRISES CLEAN ENERGY GROUP LIMITED,"1,610,320,000",2.53%
 1253,CHINA GREENLAND BROAD GREENSTATE GROUP COMPANY LIMITED,"6,428,000",0.19%
 1257,CHINA EVERBRIGHT GREENTECH LIMITED,"156,874,000",7.59%
 1268,CHINA MEIDONG AUTO HOLDINGS LIMITED,"55,242,000",4.43%
 1269,CHINA FIRST CAPITAL GROUP LIMITED,"1,520,348,000",30.23%
 1282,GLORY SUN FINANCIAL GROUP LIMITED,"4,336,160,000",13.80%
 1286,IMPRO PRECISION INDUSTRIES LIMITED,"1,146,000",0.06%
 1288,AGRICULTURAL BANK OF CHINA LIMITED,"8,455,225,058",27.50%
 1293,GRAND BAOXIN AUTO GROUP LIMITED,"132,449,837",4.66%
 1299,AIA GROUP LIMITED,"88,286,999",0.72%
 1302,LIFETECH SCIENTIFIC CORPORATION,"747,400,000",17.25%
 1308,SITC INTERNATIONAL HOLDINGS COMPANY LIMITED,"40,753,000",1.51%
 1310,HKBN LTD.,"4,270,000",0.32%
 1313,CHINA RESOURCES CEMENT HOLDINGS LIMITED,"48,897,747",0.69%
 1315,VISION FAME INTERNATIONAL HOLDING LIMITED,"714,184,000",11.89%
 1316,NEXTEER AUTOMOTIVE GROUP LIMITED,"43,818,000",1.74%
 1317,CHINA MAPLE LEAF EDUCATIONAL SYSTEMS LIMITED,"436,468,537",14.57%
 1330,"DYNAGREEN ENVIRONMENTAL PROTECTION GROUP CO., LTD","156,355,000",38.66%
 1333,CHINA ZHONGWANG HOLDINGS LIMITED,"373,596,800",6.85%
 1336,NEW CHINA LIFE INSURANCE COMPANY LTD.,"330,964,940",31.99%
 1339,"PEOPLE'S INSURANCE COMPANY (GROUP) OF CHINA LIMITED, THE","1,764,182,987",20.20%
 1347,HUA HONG SEMICONDUCTOR LIMITED,"80,966,681",6.25%
 1357,"MEITU, INC.","328,241,600",7.60%
 1359,"CHINA CINDA ASSET MANAGEMENT CO., LTD.","2,615,521,337",19.27%
 1361,361 DEGREES INTERNATIONAL LIMITED,"28,663,000",1.38%
 1363,CT ENVIRONMENTAL GROUP LIMITED,"502,874,000",7.95%
 1368,XTEP INTERNATIONAL HOLDINGS LIMITED,"88,761,003",3.52%
 1375,"CENTRAL CHINA SECURITIES CO., LTD.","303,195,000",25.35%
 1378,CHINA HONGQIAO GROUP LIMITED,"478,868,910",5.57%
 1381,CANVEST ENVIRONMENTAL PROTECTION GROUP COMPANY LIMITED,"27,524,000",1.12%
 1382,PACIFIC TEXTILES HOLDINGS LIMITED,"29,948,000",2.11%
 1383,SUNCITY GROUP HOLDINGS LIMITED,"33,670,000",0.50%
 1387,CHINA DILI GROUP,"149,107,670",1.76%
 1398,INDUSTRIAL AND COMMERCIAL BANK OF CHINA LIMITED,"24,673,162,103",28.41%
 1432,CHINA SHENGMU ORGANIC MILK LIMITED,"96,008,000",1.13%
 1448,FU SHOU YUAN INTERNATIONAL GROUP LIMITED,"278,434,677",12.11%
 1456,"GUOLIAN SECURITIES CO., LTD.","63,572,000",14.35%
 1458,ZHOU HEI YA INTERNATIONAL HOLDINGS COMPANY LIMITED,"364,511,500",15.28%
 1475,NISSIN FOODS COMPANY LIMITED,"244,000",0.02%
 1478,Q TECHNOLOGY (GROUP) COMPANY LIMITED,"44,955,000",3.83%
 1508,CHINA REINSURANCE (GROUP) CORPORATION,"885,346,000",13.24%
 1513,LIVZON PHARMACEUTICAL GROUP INC.,"41,402,708",12.94%
 1515,CHINA RESOURCES MEDICAL HOLDINGS COMPANY LIMITED,"67,728,600",5.21%
 1521,FRONTAGE HOLDINGS CORPORATION,"241,142,000",11.85%
 1528,RED STAR MACALLINE GROUP CORPORATION LTD.,"132,561,082",17.87%
 1530,3SBIO INC.,"232,021,539",9.11%
 1533,"LANZHOU ZHUANGYUAN PASTURE CO., LTD.","7,949,500",22.62%
 1548,GENSCRIPT BIOTECH CORPORATION,"230,536,000",11.98%
 1551,"GUANGZHOU RURAL COMMERCIAL BANK CO., LTD","2,414,000",0.13%
 1558,"YICHANG HEC CHANGJIANG PHARMACEUTICAL CO., LTD.","188,924,800",28.89%
 1569,MINSHENG EDUCATION GROUP COMPANY LIMITED,"232,855,025",5.52%
 1573,SOUTHERN ENERGY HOLDINGS GROUP LIMITED,"126,862,000",17.66%
 1578,"BANK OF TIANJIN CO., LTD.","34,000",0.00%
 1579,YIHAI INTERNATIONAL HOLDING LTD.,"107,060,402",10.21%
 1583,QINQIN FOODSTUFFS GROUP (CAYMAN) COMPANY LIMITED,"24,400",0.00%
 1585,YADEA GROUP HOLDINGS LTD.,"265,130,000",8.85%
 1589,"CHINA LOGISTICS PROPERTY HOLDINGS CO., LTD","1,862,000",0.05%
 1600,CHINA TIAN LUN GAS HOLDINGS LIMITED,"16,892,500",1.68%
 1606,"CHINA DEVELOPMENT BANK FINANCIAL LEASING CO., LTD.","316,000",0.01%
 1608,VPOWER GROUP INTERNATIONAL HOLDINGS LIMITED,"4,863,000",0.18%
 1610,COFCO MEAT HOLDINGS LIMITED,"719,075,000",18.42%
 1618,METALLURGICAL CORPORATION OF CHINA LTD.,"472,954,000",16.46%
 1622,REDCO PROPERTIES GROUP LIMITED,"230,448,000",6.48%
 1628,YUZHOU GROUP HOLDINGS COMPANY LIMITED,"74,325,271",1.33%
 1635,"SHANGHAI DAZHONG PUBLIC UTILITIES (GROUP) CO., LTD.","82,507,000",15.45%
 1636,CHINA METAL RESOURCES UTILIZATION LIMITED,"34,616,000",1.31%
 1638,KAISA GROUP HOLDINGS LTD.,"559,693,619",9.12%
 1658,"POSTAL SAVINGS BANK OF CHINA CO., LTD.","655,500,845",3.29%
 1661,WISDOM SPORTS GROUP,"6,217,000",0.39%
 1666,TONG REN TANG TECHNOLOGIES CO LTD,"167,275,540",26.60%
 1668,CHINA SOUTH CITY HOLDINGS LIMITED,"847,501,543",10.46%
 1675,ASIAINFO TECHNOLOGIES LIMITED,"1,646,400",0.17%
 1680,MACAU LEGEND DEVELOPMENT LIMITED,"114,133,000",1.83%
 1681,CONSUN PHARMACEUTICAL GROUP LIMITED,"21,446,000",2.56%
 1685,BOER POWER HOLDINGS LIMITED,"2,195,000",0.28%
 1686,SUNEVISION HOLDINGS LIMITED,"2,492,000",0.10%
 1691,JS GLOBAL LIFESTYLE COMPANY LIMITED,"34,012,000",0.97%
 1717,AUSNUTRIA DAIRY CORPORATION LTD,"110,687,000",6.44%
 1728,CHINA ZHENGTONG AUTO SERVICES HOLDINGS LIMITED,"392,646,000",14.55%
 1761,BABYTREE GROUP,"5,895,000",0.35%
 1765,"HOPE EDUCATION GROUP CO., LTD.","866,932,580",11.98%
 1766,CRRC CORPORATION LIMITED,"365,864,770",8.36%
 1772,"GANFENG LITHIUM CO., LTD.","128,791,697",53.61%
 1773,TIANLI EDUCATION INTERNATIONAL HOLDINGS LIMITED,"206,706,000",9.96%
 1776,"GF SECURITIES CO., LTD.","527,338,500",30.98%
 1777,"FANTASIA HOLDINGS GROUP CO., LIMITED","403,277,500",6.98%
 1778,"COLOUR LIFE SERVICES GROUP CO., LIMITED","67,673,702",4.65%
 1787,"SHANDONG GOLD MINING CO., LTD.","149,855,148",21.41%
 1788,GUOTAI JUNAN INTERNATIONAL HOLDINGS LIMITED,"232,365,110",2.41%
 1789,AK MEDICAL HOLDINGS LIMITED,"108,452,000",9.72%
 1797,KOOLEARN TECHNOLOGY HOLDING LIMITED,"138,770,804",14.75%
 1800,CHINA COMMUNICATIONS CONSTRUCTION COMPANY LIMITED,"626,484,000",14.14%
 1801,"INNOVENT BIOLOGICS, INC.","87,770,000",6.26%
 1806,HUIFU PAYMENT LIMITED,"13,333,200",1.02%
 1810,XIAOMI CORPORATION,"2,393,135,542",9.90%
 1811,"CGN NEW ENERGY HOLDINGS CO., LTD.","104,588,000",2.43%
 1812,SHANDONG CHENMING PAPER HOLDINGS LIMITED,"106,900,950",20.23%
 1813,KWG GROUP HOLDINGS LIMITED,"143,427,165",4.50%
 1816,"CGN POWER CO., LTD","2,481,231,000",22.22%
 1817,MULSANNE GROUP HOLDING LIMITED,"108,500",0.01%
 1818,ZHAOJIN MINING INDUSTRY COMPANY LIMITED,"125,650,872",4.81%
 1829,CHINA MACHINERY ENGINEERING CORPORATION,"131,000",0.01%
 1833,PING AN HEALTHCARE AND TECHNOLOGY COMPANY LIMITED,"108,977,900",9.48%
 1836,STELLA INTERNATIONAL HOLDINGS LIMITED,"471,500",0.05%
 1848,CHINA AIRCRAFT LEASING GROUP HOLDINGS LIMITED,"13,144,549",1.86%
 1860,MOBVISTA INC.,"16,559,000",1.07%
 1873,VIVA BIOTECH HOLDINGS,"427,448,500",22.36%
 1876,BUDWEISER BREWING COMPANY APAC LIMITED,"13,053,716",0.09%
 1882,HAITIAN INTERNATIONAL HOLDINGS LIMITED,"32,462,000",2.03%
 1883,CITIC TELECOM INTERNATIONAL HOLDINGS LIMITED,"13,193,000",0.36%
 1886,CHINA HUIYUAN JUICE GROUP LIMITED,"125,355,500",4.69%
 1888,KINGBOARD LAMINATES HOLDINGS LIMITED,"16,383,935",0.51%
 1890,CHINA KEPEI EDUCATION GROUP LIMITED,"131,305,127",6.51%
 1896,MAOYAN ENTERTAINMENT,"32,327,600",2.84%
 1898,CHINA COAL ENERGY COMPANY LIMITED,"438,091,000",10.66%
 1905,"HAITONG UNITRUST INTERNATIONAL FINANCIAL LEASING CO., LTD.","39,750,000",0.68%
 1907,CHINA RISUN GROUP LIMITED,"30,835,000",0.75%
 1908,C&D INTERNATIONAL INVESTMENT GROUP LIMITED,"79,845,000",6.78%
 1911,CHINA RENAISSANCE HOLDINGS LIMITED,"16,408,800",3.06%
 1916,"JIANGXI BANK CO., LTD.","10,788,500",0.80%
 1918,SUNAC CHINA HOLDINGS LIMITED,"779,516,992",16.72%
 1919,"COSCO SHIPPING HOLDINGS CO., LTD.","453,767,500",17.57%
 1928,SANDS CHINA LTD.,"65,794,532",0.80%
 1929,CHOW TAI FOOK JEWELLERY GROUP LIMITED,"47,981,000",0.47%
 1951,JINXIN FERTILITY GROUP LIMITED,"421,151,600",17.32%
 1958,BAIC MOTOR CORPORATION LIMITED,"98,908,000",3.92%
 1963,"BANK OF CHONGQING CO., LTD.","116,634,500",7.38%
 1966,CHINA SCE GROUP HOLDINGS LIMITED,"159,895,054",3.78%
 1970,"IMAX CHINA HOLDING, INC.","7,402,600",2.11%
 1972,SWIRE PROPERTIES LIMITED,"1,721,400",0.02%
 1980,TIAN GE INTERACTIVE HOLDINGS LIMITED,"24,108,000",1.88%
 1988,"CHINA MINSHENG BANKING CORP., LTD.","1,259,290,369",15.13%
 1992,FOSUN TOURISM GROUP,"800,000",0.05%
 1995,EVER SUNSHINE LIFESTYLE SERVICES GROUP LIMITED,"62,224,000",3.72%
 1996,REDSUN PROPERTIES GROUP LIMITED,"68,958,000",2.07%
 1997,WHARF REAL ESTATE INVESTMENT COMPANY LIMITED,"4,593,425",0.14%
 1999,MAN WAH HOLDINGS LIMITED,"767,094,715",20.16%
 2001,CHINA NEW HIGHER EDUCATION GROUP LIMITED,"116,153,621",7.32%
 2003,VCREDIT HOLDINGS LIMITED,"2,141,000",0.43%
 2005,SSY GROUP LIMITED,"317,854,059",10.48%
 2007,COUNTRY GARDEN HOLDINGS COMPANY LIMITED,"272,577,539",1.23%
 2008,PHOENIX MEDIA INVESTMENT (HOLDINGS) LIMITED,"205,012,000",4.10%
 2009,BBMG CORPORATION,"307,775,500",13.15%
 2013,WEIMOB INC.,"489,318,416",21.69%
 2016,"CHINA ZHESHANG BANK CO., LTD.","91,659,000",2.00%
 2018,AAC TECHNOLOGIES HOLDINGS INC.,"73,901,832",6.10%
 2019,DEXIN CHINA HOLDINGS COMPANY LIMITED,"29,133,000",1.07%
 2020,ANTA SPORTS PRODUCTS LIMITED,"214,959,253",7.94%
 2038,FIH MOBILE LIMITED,"114,687,000",1.40%
 2039,"CHINA INTERNATIONAL MARINE CONTAINERS (GROUP) CO., LTD.","222,455,960",10.79%
 2048,E-HOUSE (CHINA) ENTERPRISE HOLDINGS LIMITED,"9,602,100",0.69%
 2051,51 CREDIT CARD INC.,"45,713,000",3.36%
 2066,"SHENGJING BANK CO., LTD.","195,000",0.00%
 2068,CHINA ALUMINUM INTERNATIONAL ENGINEERING CORPORATION LIMITED,"11,112,000",2.78%
 2098,ZALL SMART COMMERCE GROUP LTD.,"31,698,000",0.26%
 2099,CHINA GOLD INTERNATIONAL RESOURCES CORP. LTD.,"12,860,100",3.24%
 2103,SINIC HOLDINGS (GROUP) COMPANY LIMITED,"682,000",0.01%
 2111,BEST PACIFIC INTERNATIONAL HOLDINGS LIMITED,"1,340,000",0.12%
 2128,CHINA LESSO GROUP HOLDINGS LIMITED,"63,527,573",2.03%
 2136,LIFESTYLE CHINA GROUP LIMITED,"282,000",0.01%
 2186,LUYE PHARMA GROUP LTD.,"481,114,500",14.80%
 2196,"SHANGHAI FOSUN PHARMACEUTICAL (GROUP) CO., LTD.","198,883,357",36.02%
 2199,REGINA MIRACLE INTERNATIONAL (HOLDINGS) LIMITED,"2,892,000",0.23%
 2202,"CHINA VANKE CO., LTD.","269,567,228",14.23%
 2208,"XINJIANG GOLDWIND SCIENCE & TECHNOLOGY CO., LTD.","66,381,042",8.58%
 2218,"YANTAI NORTH ANDRE JUICE CO., LTD.","1,171,000",1.08%
 2232,CRYSTAL INTERNATIONAL GROUP LIMITED,"3,451,500",0.11%
 2233,WEST CHINA CEMENT LIMITED,"546,006,000",10.03%
 2238,"GUANGZHOU AUTOMOBILE GROUP CO., LTD.","1,065,955,358",34.39%
 2255,HAICHANG OCEAN PARK HOLDINGS LTD.,"330,089,000",8.25%
 2269,WUXI BIOLOGICS (CAYMAN) INC.,"102,156,295",7.50%
 2280,HC GROUP INC.,"98,286,500",7.50%
 2282,MGM CHINA HOLDINGS LIMITED,"26,209,096",0.68%
 2298,COSMO LADY (CHINA) HOLDINGS COMPANY LIMITED,"10,394,000",0.45%
 2313,SHENZHOU INTERNATIONAL GROUP HOLDINGS LIMITED,"53,707,062",3.56%
 2314,LEE & MAN PAPER MANUFACTURING LIMITED,"19,560,825",0.44%
 2318,"PING AN INSURANCE (GROUP) COMPANY OF CHINA, LTD.","171,848,877",2.29%
 2319,CHINA MENGNIU DAIRY COMPANY LIMITED,"69,695,994",1.76%
 2326,NEW PROVENANCE EVERLASTING HOLDINGS LIMITED,"55,940,000",0.25%
 2328,PICC PROPERTY AND CASUALTY COMPANY LIMITED,"520,415,169",7.53%
 2329,GUORUI PROPERTIES LIMITED,"155,932,000",3.50%
 2331,LI NING COMPANY LIMITED,"126,966,516",5.09%
 2333,GREAT WALL MOTOR COMPANY LIMITED,"1,164,881,054",37.57%
 2338,"WEICHAI POWER CO., LTD.","43,765,000",2.25%
 2342,COMBA TELECOM SYSTEMS HOLDINGS LIMITED,"2,214,000",0.08%
 2343,PACIFIC BASIN SHIPPING LIMITED,"8,309,000",0.17%
 2356,DAH SING BANKING GROUP LIMITED,"232,000",0.01%
 2357,AVICHINA INDUSTRY & TECHNOLOGY COMPANY LIMITED,"408,632,000",6.57%
 2359,"WUXI APPTEC CO., LTD.","22,383,366",7.29%
 2362,JINCHUAN GROUP INTERNATIONAL RESOURCES CO. LTD.,"67,811,000",0.53%
 2363,TONGDA HONG TAI HOLDINGS LIMITED,"340,962",0.17%
 2369,COOLPAD GROUP LIMITED,"37,820,000",0.62%
 2380,CHINA POWER INTERNATIONAL DEVELOPMENT LIMITED,"561,272,367",5.72%
 2382,SUNNY OPTICAL TECHNOLOGY (GROUP) COMPANY LIMITED,"109,223,405",9.95%
 2386,"SINOPEC ENGINEERING (GROUP) CO., LTD.","40,015,500",2.73%
 2388,BOC HONG KONG (HOLDINGS) LIMITED,"12,816,945",0.11%
 2400,XD INC.,"57,334,100",12.62%
 2588,BOC AVIATION LIMITED,"11,167,858",1.59%
 2600,ALUMINUM CORPORATION OF CHINA LIMITED,"286,204,000",7.25%
 2601,CHINA PACIFIC INSURANCE (GROUP) CO. LTD.,"809,660,231",29.16%
 2607,"SHANGHAI PHARMACEUTICALS HOLDING CO., LTD.","107,957,106",11.73%
 2611,"GUOTAI JUNAN SECURITIES CO., LTD.","131,207,400",9.41%
 2628,CHINA LIFE INSURANCE COMPANY LIMITED,"285,750,093",3.83%
 2662,CAMSING INTERNATIONAL HOLDING LIMITED,"132,096,000",12.26%
 2666,GENERTEC UNIVERSAL MEDICAL GROUP COMPANY LIMITED,"314,683,500",18.33%
 2669,CHINA OVERSEAS PROPERTY HOLDINGS LIMITED,"390,092,275",11.86%
 2678,TEXHONG TEXTILE GROUP LIMITED,"31,506,500",3.44%
 2688,ENN ENERGY HOLDINGS LIMITED,"14,602,061",1.29%
 2689,NINE DRAGONS PAPER (HOLDINGS) LIMITED,"68,244,410",1.44%
 2727,SHANGHAI ELECTRIC GROUP COMPANY LIMITED,"883,223,000",29.70%
 2768,JIAYUAN INTERNATIONAL GROUP LIMITED,"359,315,183",8.85%
 2772,ZHONGLIANG HOLDINGS GROUP COMPANY LIMITED,"39,385,500",1.09%
 2777,"GUANGZHOU R&F PROPERTIES CO., LTD.","93,183,344",2.47%
 2799,"CHINA HUARONG ASSET MANAGEMENT CO., LTD.","2,355,914,000",9.40%
 2858,YIXIN GROUP LIMITED,"42,176,500",0.65%
 2866,"COSCO SHIPPING DEVELOPMENT CO., LTD.","587,227,000",15.96%
 2869,GREENTOWN SERVICE GROUP CO. LTD.,"326,206,899",
 2877,CHINA SHINEWAY PHARMACEUTICAL GROUP LIMITED,"26,533,000",3.19%
 2880,DALIAN PORT (PDA) COMPANY LIMITED,"894,762,200",17.34%
 2883,CHINA OILFIELD SERVICES LIMITED,"228,317,627",12.59%
 2888,STANDARD CHARTERED PLC,"349,020",0.00%
 2899,"ZIJIN MINING GROUP CO., LTD.","1,553,460,000",27.07%
 3301,RONSHINE CHINA HOLDINGS LIMITED,"133,659,500",7.84%
 3306,JNBY DESIGN LIMITED,"20,887,000",4.02%
 3308,GOLDEN EAGLE RETAIL GROUP LIMITED,"86,164,000",5.15%
 3309,C-MER EYE CARE HOLDINGS LIMITED,"78,370,000",6.84%
 3311,CHINA STATE CONSTRUCTION INTERNATIONAL HOLDINGS LIMITED,"198,519,692",3.92%
 3319,"A-LIVING SERVICES CO., LTD.","6,465,750",0.48%
 3320,CHINA RESOURCES PHARMACEUTICAL GROUP LIMITED,"212,991,500",3.38%
 3323,CHINA NATIONAL BUILDING MATERIAL COMPANY LIMITED,"944,477,365",24.40%
 3328,"BANK OF COMMUNICATIONS CO., LTD.","803,354,069",2.29%
 3329,BOCOM INTERNATIONAL HOLDINGS COMPANY LIMITED,"15,021,000",0.54%
 3331,VINDA INTERNATIONAL HOLDINGS LIMITED,"12,056,000",0.99%
 3333,CHINA EVERGRANDE GROUP,"134,720,355",1.00%
 3339,LONKING HOLDINGS LIMITED,"24,907,000",0.58%
 3347,"HANGZHOU TIGERMED CONSULTING CO., LTD.","74,000",0.06%
 3360,FAR EAST HORIZON LIMITED,"117,484,000",2.95%
 3368,PARKSON RETAIL GROUP LIMITED,"5,669,500",0.21%
 3369,"QINHUANGDAO PORT CO., LTD.","81,585,500",9.82%
 3377,SINO-OCEAN GROUP HOLDING LIMITED,"169,424,810",2.22%
 3380,LOGAN GROUP COMPANY LIMITED,"151,860,528",2.74%
 3382,TIANJIN PORT DEVELOPMENT HOLDINGS LIMITED,"203,860,000",3.31%
 3383,AGILE GROUP HOLDINGS LIMITED,"40,611,548",1.03%
 3389,HENGDELI HOLDINGS LIMITED,"776,000",0.01%
 3393,WASION HOLDINGS LIMITED,"1,326,000",0.13%
 3396,LEGEND HOLDINGS CORPORATION,"84,945,100",6.67%
 3606,"FUYAO GLASS INDUSTRY GROUP CO., LTD","87,534,650",17.30%
 3613,BEIJING TONG REN TANG CHINESE MEDICINE COMPANY LIMITED,"70,810,000",8.45%
 3618,"CHONGQING RURAL COMMERCIAL BANK CO., LTD.","728,658,000",28.98%
 3633,ZHONGYU GAS HOLDINGS LIMITED,"17,063,000",0.64%
 3669,CHINA YONGDA AUTOMOBILES SERVICES HOLDINGS LIMITED,"112,940,000",
 3690,MEITUAN DIANPING,"346,645,484",5.88%
 3692,HANSOH PHARMACEUTICAL GROUP COMPANY LIMITED,"45,285,000",0.75%
 3698,HUISHANG BANK CORPORATION LIMITED,"4,759,200",0.12%
 3759,"PHARMARON BEIJING CO., LTD.","19,643,065",14.65%
 3788,CHINA HANKING HOLDINGS LIMITED,"16,380,000",0.90%
 3799,DALI FOODS GROUP COMPANY LIMITED,"412,116,000",2.99%
 3800,GCL-POLY ENERGY HOLDINGS LIMITED,"2,885,905,500",13.64%
 3808,SINOTRUK (HONG KONG) LIMITED,"113,684,866",4.10%
 3813,POU SHENG INTERNATIONAL (HOLDINGS) LIMITED,"19,736,000",0.36%
 3818,"CHINA DONGXIANG (GROUP) CO., LTD.","480,533,000",8.16%
 3836,CHINA HARMONY AUTO HOLDING LIMITED,"69,855,000",4.43%
 3866,"BANK OF QINGDAO CO., LTD.","1,138,000",0.06%
 3868,XINYI ENERGY HOLDINGS LIMITED,"97,258,000",1.36%
 3877,CSSC (HONG KONG) SHIPPING COMPANY LIMITED,"4,896,000",0.07%
 3883,CHINA AOYUAN GROUP LIMITED,"181,534,000",6.71%
 3886,TOWN HEALTH INTERNATIONAL MEDICAL GROUP LIMITED,"145,736,000",1.92%
 3888,KINGSOFT CORPORATION LIMITED,"370,878,169",27.01%
 3898,"ZHUZHOU CRRC TIMES ELECTRIC CO., LTD.","38,927,906",7.11%
 3899,CIMC ENRIC HOLDINGS LIMITED,"138,070,000",6.86%
 3900,GREENTOWN CHINA HOLDINGS LIMITED,"327,144,500",13.10%
 3908,CHINA INTERNATIONAL CAPITAL CORPORATION LIMITED,"322,356,481",16.92%
 3933,"UNITED LABORATORIES INTERNATIONAL HOLDINGS LIMITED, THE","182,153,948",9.89%
 3958,DFZQ,"403,671,185",39.30%
 3968,"CHINA MERCHANTS BANK CO., LTD.","199,952,070",4.35%
 3969,CHINA RAILWAY SIGNAL & COMMUNICATION CORPORATION LIMITED,"215,326,000",10.93%
 3988,BANK OF CHINA LIMITED,"7,796,440,615",9.31%
 3990,MIDEA REAL ESTATE HOLDING LIMITED,"76,823,600",6.23%
 3993,"CHINA MOLYBDENUM CO., LTD.","315,597,500",8.01%
 3996,CHINA ENERGY ENGINEERING CORPORATION LIMITED,"10,824,000",0.11%
 3998,BOSIDENG INTERNATIONAL HOLDINGS LIMITED,"696,706,000",6.47%
 6030,CITIC SECURITIES COMPANY LIMITED,"295,184,141",12.95%
 6049,"POLY PROPERTY SERVICES CO., LTD.","61,946,666",40.39%
 6055,CHINA TOBACCO INTERNATIONAL (HK) COMPANY LIMITED,"30,145,000",4.35%
 6060,"ZHONGAN ONLINE P & C INSURANCE CO., LTD.","34,301,600",7.29%
 6066,"CSC FINANCIAL CO., LTD.","316,715,000",25.11%
 6068,WISDOM EDUCATION INTERNATIONAL HOLDINGS COMPANY LIMITED,"179,598,000",8.24%
 6069,SHENG YE CAPITAL LIMITED,"24,992,000",2.66%
 6078,"HYGEIA HEALTHCARE HOLDINGS CO., LIMITED","20,224,800",3.27%
 6088,FIT HON TENG LIMITED,"411,391,000",5.97%
 6098,COUNTRY GARDEN SERVICES HOLDINGS COMPANY LIMITED,"219,388,388",7.95%
 6099,"CHINA MERCHANTS SECURITIES CO., LTD.","249,498,960",19.57%
 6100,TONGDAO LIEPIN GROUP,"84,800",0.01%
 6110,TOPSPORTS INTERNATIONAL HOLDINGS LIMITED,"17,877,020",0.28%
 6116,"XINJIANG LA CHAPELLE FASHION CO., LTD.","68,849,600",32.05%
 6158,ZHENRO PROPERTIES GROUP LIMITED,"67,870,000",1.54%
 6160,"BEIGENE, LTD.","2,260,600",0.18%
 6166,CHINA VAST INDUSTRIAL URBAN DEVELOPMENT COMPANY LIMITED,"73,082,000",4.42%
 6169,CHINA YUHUA EDUCATION CORPORATION LIMITED,"576,594,528",17.26%
 6178,EVERBRIGHT SECURITIES COMPANY LIMITED,"89,924,200",12.76%
 6186,CHINA FEIHE LIMITED,"834,391,048",9.33%
 6196,"BANK OF ZHENGZHOU CO., LTD.","304,688,500",18.24%
 6198,"QINGDAO PORT INTERNATIONAL CO., LTD.","10,174,000",0.91%
 6806,"SHENWAN HONGYUAN GROUP CO., LTD.","244,777,600",9.77%
 6808,SUN ART RETAIL GROUP LIMITED,"73,005,523",0.75%
 6818,CHINA EVERBRIGHT BANK COMPANY LIMITED,"948,578,992",7.47%
 6828,BEIJING GAS BLUE SKY HOLDINGS LIMITED,"233,504,000",1.79%
 6837,"HAITONG SECURITIES CO., LTD.","845,771,800",24.79%
 6862,HAIDILAO INTERNATIONAL HOLDING LTD.,"148,809,784",2.80%
 6865,"FLAT GLASS GROUP CO., LTD.","146,184,760",32.47%
 6869,YANGTZE OPTICAL FIBRE AND CABLE JOINT STOCK LIMITED COMPANY,"18,562,000",5.27%
 6881,"CHINA GALAXY SECURITIES CO., LTD.","838,668,882",22.71%
 6886,"HUATAI SECURITIES CO., LTD.","445,360,846",25.90%
 6969,SMOORE INTERNATIONAL HOLDINGS LIMITED,"259,546,782",4.45%
 8328,XINYI AUTOMOBILE GLASS HONG KONG ENTERPRISES LIMITED,"93,750",0.01%
 9633,"NONGFU SPRING CO., LTD.","43,243,200",0.85%
 9909,POWERLONG COMMERCIAL MANAGEMENT HOLDINGS LIMITED,"15,355,500",2.47%
 9922,JIUMAOJIU INTERNATIONAL HOLDINGS LIMITED,"92,503,295",6.36%
 9923,YEAHKA LIMITED,"85,600",0.02%
 9928,TIMES NEIGHBORHOOD HOLDINGS LIMITED,"21,600,592",2.18%
 9968,HUIJING HOLDINGS COMPANY LIMITED,"4,132,000",0.07%
 9983,CENTRAL CHINA NEW LIFE LIMITED,"16,234,000",1.30%
 9989,"SHENZHEN HEPALINK PHARMACEUTICAL GROUP CO., LTD.","15,628,000",7.10%
 9997,KANGJI MEDICAL HOLDINGS LIMITED,"5,632,500",0.44%
