Stock Code,Stock Name,Shareholding in CCASS,Percentage of the total number of Issued Shares
    1,CK HUTCHISON HOLDINGS LIMITED,"27,312,319",0.70%
    2,CLP HOLDINGS LIMITED,"5,765,492",0.22%
    3,"HONG KONG AND CHINA GAS COMPANY LIMITED, THE","24,015,520",0.13%
    4,"WHARF (HOLDINGS) LIMITED, THE","9,564,446",0.30%
    5,HSBC HOLDINGS PLC,"1,814,684,831",8.76%
    6,POWER ASSETS HOLDINGS LIMITED,"4,537,422",0.20%
    8,PCCW LIMITED,"9,745,843",0.11%
   10,HANG LUNG GROUP LIMITED,"27,226,000",1.99%
   11,HANG SENG BANK LTD,"2,319,405",0.11%
   12,HENDERSON LAND DEVELOPMENT CO LTD,"4,181,746",0.08%
   14,HYSAN DEVELOPMENT COMPANY LIMITED,"1,128,000",0.10%
   16,SUN HUNG KAI PROPERTIES LIMITED,"7,953,404",0.27%
   17,NEW WORLD DEVELOPMENT CO LTD,"10,967,131",0.42%
   19,SWIRE PACIFIC LTD 'A',"3,421,500",0.36%
   23,BANK OF EAST ASIA LTD,"1,147,593",0.03%
   27,GALAXY ENTERTAINMENT GROUP LIMITED,"72,205,403",1.65%
   35,FAR EAST CONSORTIUM INTERNATIONAL LTD,"115,013",0.00%
   38,FIRST TRACTOR COMPANY LIMITED,"123,164,100",31.41%
   41,GREAT EAGLE HOLDINGS LIMITED,"1,350,511",0.18%
   42,NORTHEAST ELECTRIC DEVELOPMENT COMPANY LIMITED,"15,888,000",6.15%
   43,C.P. POKPHAND CO LTD,"840,000",0.00%
   45,"HONGKONG AND SHANGHAI HOTELS LTD,THE","42,513",0.00%
   59,SKYFAME REALTY (HOLDINGS) LIMITED,"64,008,000",
   66,MTR CORPORATION LIMITED,"6,175,580",0.09%
   69,SHANGRI-LA ASIA LIMITED,"20,142,000",0.55%
   78,REGAL HOTELS INTERNATIONAL HOLDINGS LIMITED,"12,000",0.00%
   81,CHINA OVERSEAS GRAND OCEANS GROUP LIMITED,"333,496,820",9.74%
   83,SINO LAND CO.LTD.,"3,933,976",0.05%
   86,SUN HUNG KAI & CO.LTD,"14,927,000",0.74%
   87,SWIRE PACIFIC LTD 'B',"28,172,500",0.94%
   95,LVGEM (CHINA) REAL ESTATE INVESTMENT COMPANY LIMITED,"182,386,000",3.58%
  101,HANG LUNG PROPERTIES LIMITED,"67,177,949",1.48%
  107,SICHUAN EXPRESSWAY COMPANY LIMITED,"227,506,000",25.40%
  109,GOOD RESOURCES HOLDINGS LIMITED,"44,440,000",0.62%
  116,CHOW SANG SANG HOLDINGS INTERNATIONAL LIMITED,"21,523,000",3.17%
  119,"POLY PROPERTY GROUP CO., LIMITED","380,045,748",10.36%
  120,COSMOPOLITAN INTERNATIONAL HOLDINGS LTD,"4,262,000",0.07%
  123,YUEXIU PROPERTY COMPANY LIMITED,"394,090,786",2.54%
  127,CHINESE ESTATES HOLDINGS LIMITED,"2,807,000",0.14%
  135,KUNLUN ENERGY COMPANY LIMITED,"112,365,534",1.29%
  136,HENGTEN NETWORKS GROUP LIMITED,"6,268,144,000",8.39%
  142,FIRST PACIFIC CO. LTD.,"6,820,000",0.15%
  144,CHINA MERCHANTS PORT HOLDINGS COMPANY LIMITED,"148,704,683",4.11%
  148,KINGBOARD HOLDINGS LIMITED,"15,535,636",1.39%
  151,WANT WANT CHINA HOLDINGS LIMITED,"24,698,871",0.19%
  152,SHENZHEN INTERNATIONAL HOLDINGS LIMITED,"73,177,589",3.32%
  163,EMPEROR INTERNATIONAL HOLDINGS LIMITED,"10,854,000",0.29%
  165,CHINA EVERBRIGHT LIMITED,"210,219,955",12.47%
  168,TSINGTAO BREWERY COMPANY LIMITED,"92,767,000",14.15%
  173,K. WAH INTERNATIONAL HOLDINGS LIMITED,"39,443,196",1.25%
  175,GEELY AUTOMOBILE HOLDINGS LIMITED,"689,111,128",7.02%
  177,JIANGSU EXPRESSWAY COMPANY LIMITED,"130,818,818",10.70%
  178,SA SA INTERNATIONAL HOLDINGS LIMITED,"15,209,268",0.48%
  179,JOHNSON ELECTRIC HOLDINGS LIMITED,"573,000",0.05%
  187,BEIJING JINGCHENG MACHINERY ELECTRIC COMPANY LIMITED,"27,150,000",27.15%
  189,DONGYUE GROUP LIMITED,"163,393,358",7.73%
  198,SMI HOLDINGS GROUP LIMITED,"70,340,800",2.59%
  200,MELCO INTERNATIONAL DEVELOPMENT LIMITED,"9,231,000",0.60%
  207,JOY CITY PROPERTY LIMITED,"4,364,000",0.03%
  215,HUTCHISON TELECOMMUNICATIONS HONG KONG HOLDINGS LIMITED,"11,020,000",0.22%
  220,UNI-PRESIDENT CHINA HOLDINGS LTD.,"9,010,000",0.20%
  241,ALIBABA HEALTH INFORMATION TECHNOLOGY LIMITED,"272,547,523",2.02%
  242,SHUN TAK HOLDINGS LIMITED,"84,950,000",2.80%
  245,CHINA VERED FINANCIAL HOLDING CORPORATION LIMITED,"25,120,000",0.06%
  256,CITYCHAMP WATCH & JEWELLERY GROUP LIMITED,"352,194,000",8.09%
  257,CHINA EVERBRIGHT INTERNATIONAL LIMITED,"540,588,021",8.79%
  267,CITIC LIMITED,"148,639,916",0.50%
  268,KINGDEE INTERNATIONAL SOFTWARE GROUP COMPANY LIMITED,"555,629,462",16.02%
  270,GUANGDONG INVESTMENT LIMITED,"37,010,905",0.56%
  272,SHUI ON LAND LIMITED,"745,183,000",9.23%
  279,FREEMAN FINTECH CORPORATION LIMITED,"612,286,000",32.77%
  285,BYD ELECTRONIC (INTERNATIONAL) COMPANY LIMITED,"195,215,000",8.66%
  288,WH GROUP LIMITED,"1,356,781,041",9.20%
  291,CHINA RESOURCES BEER (HOLDINGS) COMPANY LIMITED,"340,533,445",10.49%
  293,CATHAY PACIFIC AIRWAYS LTD,"27,245,026",0.42%
  295,KONG SUN HOLDINGS LIMITED,"52,325,000",0.34%
  297,SINOFERT HOLDINGS LIMITED,"351,974,000",5.00%
  302,CMGE TECHNOLOGY GROUP LIMITED,"188,106,000",8.07%
  303,VTECH HOLDINGS LIMITED,"1,474,601",0.58%
  308,CHINA TRAVEL INTERNATIONAL INVESTMENT HONG KONG LIMITED,"172,422,439",3.10%
  315,SMARTONE TELECOMMUNICATIONS HOLDINGS LIMITED,"1,641,108",0.14%
  316,ORIENT OVERSEAS (INTERNATIONAL) LIMITED,"8,500",0.00%
  317,CSSC OFFSHORE & MARINE ENGINEERING (GROUP) COMPANY LIMITED,"23,289,900",3.93%
  321,TEXWINCA HOLDINGS LIMITED,"1,004,000",0.07%
  322,TINGYI (CAYMAN ISLANDS) HOLDING CORP.,"26,686,708",0.47%
  323,MAANSHAN IRON & STEEL COMPANY LIMITED,"12,156,000",0.69%
  327,PAX GLOBAL TECHNOLOGY LIMITED,"6,400,000",0.59%
  330,ESPRIT HOLDINGS LIMITED,"11,019,700",0.57%
  336,HUABAO INTERNATIONAL HOLDINGS LIMITED,"410,842,100",13.21%
  337,GREENLAND HONG KONG HOLDINGS LIMITED,"112,492,000",4.02%
  338,SINOPEC SHANGHAI PETROCHEMICAL COMPANY LIMITED,"392,511,339",11.22%
  341,CAFE DE CORAL HOLDINGS LTD,"5,534,000",0.94%
  345,VITASOY INTERNATIONAL HOLDINGS LTD,"7,850,011",0.72%
  347,ANGANG STEEL COMPANY LIMITED,"19,621,000",1.39%
  354,CHINASOFT INTERNATIONAL LIMITED,"308,760,542",11.37%
  358,JIANGXI COPPER COMPANY LIMITED,"85,645,219",6.16%
  363,SHANGHAI INDUSTRIAL HOLDINGS LIMITED,"24,901,500",2.28%
  371,BEIJING ENTERPRISES WATER GROUP LIMITED,"276,670,010",2.75%
  378,FDG KINETIC LIMITED,"183,718,000",2.72%
  384,CHINA GAS HOLDINGS LIMITED,"32,613,043",0.62%
  386,CHINA PETROLEUM & CHEMICAL CORPORATION,"1,531,857,621",5.99%
  388,HONG KONG EXCHANGES AND CLEARING LIMITED,"54,663,161",4.31%
  390,CHINA RAILWAY GROUP LIMITED,"274,688,030",6.52%
  392,BEIJING ENTERPRISES HOLDINGS LIMITED,"80,868,982",6.39%
  400,COGOBUY GROUP,"51,373,000",3.62%
  410,SOHO CHINA LIMITED,"445,871,000",8.57%
  412,CHINA SHANDONG HI-SPEED FINANCIAL GROUP LIMITED,"9,912,000",0.04%
  419,HUAYI TENCENT ENTERTAINMENT COMPANY LIMITED,"167,400,000",1.24%
  425,MINTH GROUP LIMITED,"50,806,268",
  439,KUANGCHI SCIENCE LIMITED,"268,768,000",4.36%
  440,DAH SING FINANCIAL HOLDINGS LTD,"2,938,866",0.91%
  451,GCL NEW ENERGY HOLDINGS LIMITED,"1,461,984,000",7.66%
  460,SIHUAN PHARMACEUTICAL HOLDINGS GROUP LTD.,"509,995,000",5.37%
  467,UNITED ENERGY GROUP LIMITED,"73,636,000",0.27%
  468,GREATVIEW ASEPTIC PACKAGING COMPANY LIMITED,"8,810,000",0.65%
  480,HKR INTERNATIONAL LTD,"62,800",0.00%
  488,LAI SUN DEVELOPMENT COMPANY LIMITED,"30,000",0.00%
  489,DONGFENG MOTOR GROUP COMPANY LIMITED,"184,992,000",6.47%
  493,GOME RETAIL HOLDINGS LIMITED,"2,542,872,000",11.78%
  496,KASEN INTERNATIONAL HOLDINGS LIMITED,"125,254,000",8.38%
  506,CHINA FOODS LIMITED,"40,550,100",1.44%
  508,DINGYI GROUP INVESTMENT LIMITED,"381,195,000",5.18%
  511,TELEVISION BROADCASTS LIMITED,"462,100",0.09%
  512,CHINA GRAND PHARMACEUTICAL AND HEALTHCARE HOLDINGS LIMITED,"122,343,200",3.44%
  517,"COSCO SHIPPING INTERNATIONAL (HONG KONG) CO., LTD.","420,000",0.02%
  520,"XIABUXIABU CATERING MANAGEMENT (CHINA) HOLDINGS CO., LTD.","119,276,000",11.02%
  522,ASM PACIFIC TECHNOLOGY LIMITED,"13,531,725",3.30%
  525,GUANGSHEN RAILWAY COMPANY LIMITED,"368,316,010",25.72%
  530,GOLDIN FINANCIAL HOLDINGS LIMITED,"2,468,000",0.03%
  535,GEMDALE PROPERTIES AND INVESTMENT CORPORATION LIMITED,"1,980,468,154",12.01%
  546,FUFENG GROUP LIMITED,"70,244,119",2.77%
  547,DIGITAL DOMAIN HOLDINGS LIMITED,"1,025,100,000",3.00%
  548,SHENZHEN EXPRESSWAY COMPANY LIMITED,"121,870,000",16.29%
  551,YUE YUEN INDUSTRIAL (HOLDINGS) LIMITED,"5,414,293",0.32%
  552,CHINA COMMUNICATIONS SERVICES CORPORATION LIMITED,"31,890,000",1.33%
  553,NANJING PANDA ELECTRONICS COMPANY LIMITED,"59,224,000",24.46%
  563,SHANGHAI INDUSTRIAL URBAN DEVELOPMENT GROUP LIMITED,"112,317,855",2.33%
  564,ZHENGZHOU COAL MINING MACHINERY GROUP COMPANY LIMITED,"41,295,204",16.96%
  568,SHANDONG MOLONG PETROLEUM MACHINERY COMPANY LIMITED,"58,924,800",23.00%
  570,CHINA TRADITIONAL CHINESE MEDICINE HOLDINGS CO LIMITED,"631,756,938",12.54%
  576,"ZHEJIANG EXPRESSWAY CO., LTD.","73,523,759",5.12%
  579,"BEIJING JINGNENG CLEAN ENERGY CO., LIMITED","157,018,000",5.54%
  581,CHINA ORIENTAL GROUP COMPANY LIMITED,"135,020,987",3.62%
  582,LANDING INTERNATIONAL DEVELOPMENT LIMITED,"111,962,400",3.17%
  586,CHINA CONCH VENTURE HOLDINGS LIMITED,"165,310,500",9.15%
  588,BEIJING NORTH STAR COMPANY LIMITED,"224,634,000",31.76%
  590,LUK FOOK HOLDINGS (INTERNATIONAL) LIMITED,"2,601,000",0.44%
  598,SINOTRANS LIMITED,"339,962,000",15.84%
  604,SHENZHEN INVESTMENT LIMITED,"44,275,579",0.49%
  607,FULLSHARE HOLDINGS LIMITED,"4,825,095,000",24.47%
  612,CHINA DING YI FENG HOLDINGS LIMITED,"2,224,000",0.17%
  631,SANY HEAVY EQUIPMENT INTERNATIONAL HOLDINGS COMPANY LIMITED,"192,663,000",6.18%
  636,KERRY LOGISTICS NETWORK LIMITED,"1,197,000",0.05%
  639,SHOUGANG FUSHAN RESOURCES GROUP LIMITED,"28,362,000",0.53%
  656,FOSUN INTERNATIONAL LIMITED,"965,044,984",11.34%
  658,"CHINA HIGH SPEED TRANSMISSION EQUIPMENT GROUP CO., LTD.","181,696,000",11.10%
  659,NWS HOLDINGS LIMITED,"7,513,471",0.18%
  665,HAITONG INTERNATIONAL SECURITIES GROUP LIMITED,"269,249,840",4.45%
  667,CHINA EAST EDUCATION HOLDINGS LIMITED,"124,802,500",5.68%
  669,TECHTRONIC INDUSTRIES CO. LTD.,"7,038,970",0.38%
  670,CHINA EASTERN AIRLINES CORPORATION LIMITED,"272,823,567",5.26%
  680,NAN HAI CORPORATION LIMITED,"486,150,000",0.70%
  683,KERRY PROPERTIES LIMITED,"3,363,124",0.22%
  686,"BEIJING ENERGY INTERNATIONAL HOLDING CO., LTD","295,012,000",1.31%
  687,TYSAN HOLDINGS LIMITED,"29,614,000",0.87%
  688,CHINA OVERSEAS LAND & INVESTMENT LIMITED,"56,852,667",0.51%
  691,CHINA SHANSHUI CEMENT GROUP LIMITED,"4,078,000",0.09%
  694,BEIJING CAPITAL INTERNATIONAL AIRPORT COMPANY LIMITED,"361,751,672",19.23%
  696,TRAVELSKY TECHNOLOGY LIMITED,"38,867,000",4.16%
  697,SHOUCHENG HOLDINGS LIMITED,"44,370,010",0.63%
  698,TONGDA GROUP HOLDINGS LIMITED,"156,190,000",2.40%
  699,CAR INC.,"162,921,001",7.67%
  700,TENCENT HOLDINGS LIMITED,"327,138,871",3.41%
  709,GIORDANO INTERNATIONAL LIMITED,"2,104,000",0.13%
  715,CHINA OCEANWIDE HOLDINGS LIMITED,"456,000",0.00%
  718,TAI UNITED HOLDINGS LIMITED,"20,050,000",0.38%
  719,SHANDONG XINHUA PHARMACEUTICAL COMPANY LIMITED,"68,423,836",35.08%
  721,CHINA FINANCIAL INTERNATIONAL INVESTMENTS LIMITED,"304,790,000",2.77%
  728,CHINA TELECOM CORPORATION LIMITED,"378,763,238",2.72%
  729,FDG ELECTRIC VEHICLES LIMITED,"70,130,750",2.79%
  732,TRULY INTERNATIONAL HOLDINGS LIMITED,"300,536,000",9.13%
  737,SZ INVESTMENT HLDGS BAY AREA DEV CO LTD -HKD TRADED SHARES,"1,431,500",0.04%
  743,ASIA CEMENT (CHINA) HOLDINGS CORPORATION,"32,051,000",2.04%
  751,SKYWORTH GROUP LIMITED,"166,452,952",6.23%
  753,AIR CHINA LIMITED,"368,838,449",8.07%
  754,HOPSON DEVELOPMENT HOLDINGS LIMITED,"57,356,000",2.58%
  762,CHINA UNICOM (HONG KONG) LIMITED,"325,818,000",1.06%
  763,ZTE CORPORATION,"192,645,178",25.49%
  772,CHINA LITERATURE LIMITED,"83,125,818",8.17%
  775,"CK LIFE SCIENCES INT'L., (HOLDINGS) INC.","18,388,000",0.19%
  777,NETDRAGON WEBSOFT HOLDINGS LIMITED,"25,134,000",4.45%
  780,TONGCHENG-ELONG HOLDINGS LIMITED,"18,561,600",0.85%
  787,GLOBAL BRANDS GROUP HOLDING LIMITED,"66,361,833",6.44%
  788,CHINA TOWER CORPORATION LIMITED,"1,996,444,384",4.27%
  799,IGG INC,"95,206,298",7.74%
  806,VALUE PARTNERS GROUP LIMITED,"61,278,405",3.29%
  811,"XINHUA WINSHARE PUBLISHING AND MEDIA CO., LTD.","80,042,000",18.10%
  813,SHIMAO GROUP HOLDINGS LIMITED,"78,376,572",2.21%
  816,HUADIAN FUXIN ENERGY CORPORATION LIMITED,"880,000",0.03%
  817,CHINA JINMAO HOLDINGS GROUP LIMITED,"1,015,161,130",7.96%
  819,TIANNENG POWER INTERNATIONAL LIMITED,"232,777,000",20.67%
  826,TIANGONG INTERNATIONAL COMPANY LIMITED,"73,048,000",2.84%
  829,SHENGUAN HOLDINGS (GROUP) LIMITED,"140,448,000",4.34%
  832,CENTRAL CHINA REAL ESTATE LIMITED,"129,624,000",4.58%
  836,CHINA RESOURCES POWER HOLDINGS COMPANY LIMITED,"223,974,335",4.65%
  839,CHINA EDUCATION GROUP HOLDINGS LIMITED,"100,595,655",4.66%
  845,GLORIOUS PROPERTY HOLDINGS LIMITED,"22,344,000",0.28%
  846,MINGFA GROUP (INTERNATIONAL) COMPANY LIMITED,"5,261,000",0.08%
  853,MICROPORT SCIENTIFIC CORPORATION,"228,886,375",12.67%
  855,CHINA WATER AFFAIRS GROUP LIMITED,"169,673,357",10.65%
  856,VSTECS HOLDINGS LIMITED,"16,184,000",1.11%
  857,PETROCHINA COMPANY LIMITED,"1,769,942,455",8.38%
  860,APOLLO FUTURE MOBILITY GROUP LIMITED,"29,552,000",0.41%
  861,DIGITAL CHINA HOLDINGS LIMITED,"659,821,900",39.45%
  867,CHINA MEDICAL SYSTEM HOLDINGS LIMITED,"33,171,618",1.33%
  868,XINYI GLASS HOLDINGS LIMITED,"228,357,443",5.65%
  874,"GUANGZHOU BAIYUNSHAN PHARMACEUTICAL HOLDINGS CO., LTD.","69,688,100",31.68%
  880,SJM HOLDINGS LIMITED,"268,045,700",4.71%
  881,ZHONGSHENG GROUP HOLDINGS LIMITED,"44,175,500",1.93%
  883,CNOOC LIMITED,"410,647,543",0.91%
  884,CIFI HOLDINGS (GROUP) CO. LTD.,"376,930,542",4.58%
  885,RENTIAN TECHNOLOGY HOLDINGS LIMITED,"1,110,000",0.01%
  895,DONGJIANG ENVIRONMENTAL COMPANY LIMITED,"66,524,200",33.23%
  902,"HUANENG POWER INTERNATIONAL, INC.","2,050,427,004",43.61%
  906,CPMC HOLDINGS LIMITED,"15,335,000",1.37%
  911,QIANHAI HEALTH HOLDINGS LIMITED,"90,782,500",5.35%
  914,ANHUI CONCH CEMENT COMPANY LIMITED,"48,638,789",3.73%
  916,CHINA LONGYUAN POWER GROUP CORPORATION LIMITED,"220,240,000",6.58%
  921,"HISENSE HOME APPLIANCES GROUP CO., LTD.","41,690,459",9.07%
  931,CHINA LNG GROUP LIMITED,"168,753,000",2.98%
  933,BRIGHTOIL PETROLEUM (HOLDINGS) LIMITED,"25,254,000",0.24%
  934,SINOPEC KANTONS HOLDINGS LIMITED,"156,946,000",6.31%
  939,CHINA CONSTRUCTION BANK CORPORATION,"25,931,544,059",10.78%
  941,CHINA MOBILE LIMITED,"94,411,224",0.45%
  950,LEE'S PHARMACEUTICAL HOLDINGS LIMITED,"1,356,500",0.23%
  951,CHAOWEI POWER HOLDINGS LIMITED,"100,350,000",9.08%
  956,CHINA SUNTIEN GREEN ENERGY CORPORATION LIMITED,"224,981,000",12.23%
  960,LONGFOR GROUP HOLDINGS LIMITED,"170,331,993",2.83%
  966,CHINA TAIPING INSURANCE HOLDINGS COMPANY LIMITED,"483,513,174",13.44%
  967,SOUND GLOBAL LTD.,"289,000",0.01%
  968,XINYI SOLAR HOLDINGS LIMITED,"1,026,267,958",12.14%
  976,CHIHO ENVIRONMENTAL GROUP LIMITED,"214,080,000",13.33%
  978,CHINA MERCHANTS LAND LIMITED,"179,662,000",3.66%
  981,SEMICONDUCTOR MANUFACTURING INTERNATIONAL CORPORATION,"1,034,183,340",13.43%
  989,GROUND INTERNATIONAL DEVELOPMENT LIMITED,"136,875,000",2.29%
  991,"DATANG INTERNATIONAL POWER GENERATION CO.,LTD.","354,182,000",5.79%
  992,LENOVO GROUP LIMITED,"107,021,882",0.88%
  995,ANHUI EXPRESSWAY COMPANY LIMITED,"114,292,000",23.18%
  996,CARNIVAL GROUP INTERNATIONAL HOLDINGS LIMITED,"6,099,442,500",25.73%
  998,CHINA CITIC BANK CORPORATION LIMITED,"2,524,254,758",16.95%
 1028,C.BANNER INTERNATIONAL HOLDINGS LIMITED,"143,877,000",6.92%
 1030,SEAZEN GROUP LIMITED,"289,043,127",4.65%
 1031,KINGSTON FINANCIAL GROUP LIMITED,"548,000",0.00%
 1033,SINOPEC OILFIELD SERVICE CORPORATION,"377,690,000",6.96%
 1038,CK INFRASTRUCTURE HOLDINGS LIMITED,"10,799,000",0.40%
 1044,HENGAN INTERNATIONAL GROUP COMPANY LIMITED,"20,145,605",1.69%
 1052,YUEXIU TRANSPORT INFRASTRUCTURE LIMITED,"76,327,238",4.56%
 1053,CHONGQING IRON & STEEL COMPANY LIMITED,"98,338,000",18.27%
 1055,CHINA SOUTHERN AIRLINES COMPANY LIMITED,"305,772,470",7.14%
 1057,ZHEJIANG SHIBAO COMPANY LIMITED,"54,226,000",25.01%
 1060,ALIBABA PICTURES GROUP LIMITED,"3,488,468,620",12.99%
 1065,TIANJIN CAPITAL ENVIRONMENTAL PROTECTION GROUP COMPANY LIMITED,"113,292,100",33.31%
 1066,SHANDONG WEIGAO GROUP MEDICAL POLYMER COMPANY LIMITED,"738,007,417",16.31%
 1068,CHINA YURUN FOOD GROUP LIMITED,"18,055,000",0.99%
 1070,TCL ELECTRONICS HOLDINGS LIMITED,"129,527,666",5.33%
 1071,HUADIAN POWER INTERNATIONAL CORPORATION LIMITED,"781,405,855",45.49%
 1072,DONGFANG ELECTRIC CORPORATION LIMITED,"96,297,716",28.32%
 1076,IMPERIAL PACIFIC INTERNATIONAL HOLDINGS LIMITED,"387,060,000",0.27%
 1083,TOWNGAS CHINA COMPANY LIMITED,"18,180,481",0.60%
 1086,GOODBABY INTERNATIONAL HOLDINGS LIMITED,"23,077,000",1.38%
 1088,CHINA SHENHUA ENERGY COMPANY LIMITED,"921,015,813",27.09%
 1089,LEYOU TECHNOLOGIES HOLDINGS LIMITED,"9,545,000",0.30%
 1093,CSPC PHARMACEUTICAL GROUP LIMITED,"476,632,955",6.36%
 1097,I-CABLE COMMUNICATIONS LIMITED,"81,191",0.00%
 1098,ROAD KING INFRASTRUCTURE LIMITED,"11,580,000",1.54%
 1099,SINOPHARM GROUP CO. LTD.,"65,185,909",4.85%
 1108,LUOYANG GLASS COMPANY LIMITED,"94,492,000",37.78%
 1109,CHINA RESOURCES LAND LIMITED,"113,519,763",1.58%
 1111,CHONG HING BANK LIMITED,"1,022,500",0.10%
 1112,HEALTH AND HAPPINESS (H&H) INTERNATIONAL HOLDINGS LIMITED,"38,609,500",5.98%
 1113,CK ASSET HOLDINGS LIMITED,"12,343,543",0.33%
 1114,BRILLIANCE CHINA AUTOMOTIVE HOLDINGS LIMITED,"92,387,047",1.82%
 1115,TIBET WATER RESOURCES LTD.,"161,107,000",6.27%
 1117,CHINA MODERN DAIRY HOLDINGS LTD.,"256,887,000",3.97%
 1119,IDREAMSKY TECHNOLOGY HOLDINGS LIMITED,"37,173,200",2.92%
 1128,"WYNN MACAU, LIMITED","66,179,200",1.26%
 1131,AGRITRADE RESOURCES LIMITED,"583,090,000",9.14%
 1138,"COSCO SHIPPING ENERGY TRANSPORTATION CO., LTD.","185,960,003",14.34%
 1140,OP FINANCIAL LIMITED,"98,052,000",3.38%
 1141,CMBC CAPITAL HOLDINGS LIMITED,"601,350,000",1.25%
 1157,"ZOOMLION HEAVY INDUSTRY SCIENCE AND TECHNOLOGY CO., LTD.","36,582,922",2.63%
 1165,SHUNFENG INTERNATIONAL CLEAN ENERGY LIMITED,"325,510,000",6.53%
 1169,"HAIER ELECTRONICS GROUP CO., LTD.","113,048,382",4.00%
 1171,YANZHOU COAL MINING COMPANY LIMITED,"314,443,995",16.54%
 1176,ZHUGUANG HOLDINGS GROUP COMPANY LIMITED,"224,658,000",3.12%
 1177,SINO BIOPHARMACEUTICAL LIMITED,"1,632,769,412",8.64%
 1186,CHINA RAILWAY CONSTRUCTION CORPORATION LIMITED,"98,204,190",4.72%
 1188,HYBRID KINETIC GROUP LIMITED,"102,914,000",0.50%
 1193,CHINA RESOURCES GAS GROUP LIMITED,"8,332,000",0.35%
 1196,REALORD GROUP HOLDINGS LIMITED,"122,526,000",8.51%
 1199,COSCO SHIPPING PORTS LIMITED,"17,460,995",0.53%
 1205,CITIC RESOURCES HOLDINGS LIMITED,"166,058,100",2.10%
 1208,MMG LIMITED,"291,942,000",3.61%
 1211,BYD COMPANY LIMITED,"71,297,910",7.79%
 1212,LIFESTYLE INTERNATIONAL HOLDINGS LIMITED,"3,664,666",0.23%
 1230,YASHILI INTERNATIONAL HOLDINGS LTD,"78,686,000",1.65%
 1233,TIMES CHINA HOLDINGS LIMITED,"76,097,757",3.91%
 1234,CHINA LILANG LIMITED,"69,067,000",5.76%
 1238,POWERLONG REAL ESTATE HOLDINGS LIMITED,"128,577,116",3.09%
 1250,BEIJING ENTERPRISES CLEAN ENERGY GROUP LIMITED,"1,610,420,000",2.53%
 1253,CHINA GREENLAND BROAD GREENSTATE GROUP COMPANY LIMITED,"6,428,000",0.19%
 1257,CHINA EVERBRIGHT GREENTECH LIMITED,"148,748,000",7.19%
 1268,CHINA MEIDONG AUTO HOLDINGS LIMITED,"57,960,000",4.65%
 1269,CHINA FIRST CAPITAL GROUP LIMITED,"1,602,782,000",31.88%
 1282,GLORY SUN FINANCIAL GROUP LIMITED,"4,235,076,000",13.48%
 1286,IMPRO PRECISION INDUSTRIES LIMITED,"1,261,000",0.06%
 1288,AGRICULTURAL BANK OF CHINA LIMITED,"8,333,702,668",27.10%
 1293,GRAND BAOXIN AUTO GROUP LIMITED,"133,571,337",4.70%
 1299,AIA GROUP LIMITED,"85,250,826",0.69%
 1302,LIFETECH SCIENTIFIC CORPORATION,"724,106,000",16.72%
 1308,SITC INTERNATIONAL HOLDINGS COMPANY LIMITED,"40,414,000",1.50%
 1310,HKBN LTD.,"3,566,500",0.27%
 1313,CHINA RESOURCES CEMENT HOLDINGS LIMITED,"50,559,747",0.71%
 1315,VISION FAME INTERNATIONAL HOLDING LIMITED,"719,344,000",11.98%
 1316,NEXTEER AUTOMOTIVE GROUP LIMITED,"39,801,000",1.58%
 1317,CHINA MAPLE LEAF EDUCATIONAL SYSTEMS LIMITED,"437,383,230",14.60%
 1330,"DYNAGREEN ENVIRONMENTAL PROTECTION GROUP CO., LTD","149,474,000",36.95%
 1333,CHINA ZHONGWANG HOLDINGS LIMITED,"358,787,200",6.57%
 1336,NEW CHINA LIFE INSURANCE COMPANY LTD.,"331,186,840",32.02%
 1339,"PEOPLE'S INSURANCE COMPANY (GROUP) OF CHINA LIMITED, THE","1,710,363,987",19.59%
 1347,HUA HONG SEMICONDUCTOR LIMITED,"80,866,065",6.23%
 1357,"MEITU, INC.","325,576,100",7.54%
 1359,"CHINA CINDA ASSET MANAGEMENT CO., LTD.","2,412,192,457",17.77%
 1361,361 DEGREES INTERNATIONAL LIMITED,"28,708,000",1.38%
 1363,CT ENVIRONMENTAL GROUP LIMITED,"502,874,000",7.95%
 1368,XTEP INTERNATIONAL HOLDINGS LIMITED,"95,065,003",3.77%
 1375,"CENTRAL CHINA SECURITIES CO., LTD.","289,349,000",24.19%
 1378,CHINA HONGQIAO GROUP LIMITED,"498,892,910",5.81%
 1381,CANVEST ENVIRONMENTAL PROTECTION GROUP COMPANY LIMITED,"27,597,000",1.13%
 1382,PACIFIC TEXTILES HOLDINGS LIMITED,"29,416,000",2.07%
 1383,SUNCITY GROUP HOLDINGS LIMITED,"31,720,000",0.47%
 1387,CHINA DILI GROUP,"149,417,270",1.77%
 1398,INDUSTRIAL AND COMMERCIAL BANK OF CHINA LIMITED,"24,105,971,103",27.76%
 1432,CHINA SHENGMU ORGANIC MILK LIMITED,"96,268,000",1.13%
 1448,FU SHOU YUAN INTERNATIONAL GROUP LIMITED,"271,217,677",11.80%
 1456,"GUOLIAN SECURITIES CO., LTD.","25,014,500",5.65%
 1458,ZHOU HEI YA INTERNATIONAL HOLDINGS COMPANY LIMITED,"362,723,000",15.21%
 1475,NISSIN FOODS COMPANY LIMITED,"289,000",0.02%
 1478,Q TECHNOLOGY (GROUP) COMPANY LIMITED,"43,671,000",3.72%
 1508,CHINA REINSURANCE (GROUP) CORPORATION,"854,692,000",12.79%
 1513,LIVZON PHARMACEUTICAL GROUP INC.,"38,991,367",12.18%
 1515,CHINA RESOURCES MEDICAL HOLDINGS COMPANY LIMITED,"66,488,600",5.11%
 1521,FRONTAGE HOLDINGS CORPORATION,"241,822,000",11.89%
 1528,RED STAR MACALLINE GROUP CORPORATION LTD.,"132,388,336",17.85%
 1530,3SBIO INC.,"231,388,157",9.09%
 1533,"LANZHOU ZHUANGYUAN PASTURE CO., LTD.","7,931,500",22.57%
 1548,GENSCRIPT BIOTECH CORPORATION,"219,628,000",11.42%
 1551,"GUANGZHOU RURAL COMMERCIAL BANK CO., LTD","2,414,000",0.13%
 1558,"YICHANG HEC CHANGJIANG PHARMACEUTICAL CO., LTD.","175,742,200",26.88%
 1569,MINSHENG EDUCATION GROUP COMPANY LIMITED,"229,997,025",5.45%
 1573,SOUTHERN ENERGY HOLDINGS GROUP LIMITED,"126,862,000",17.66%
 1578,"BANK OF TIANJIN CO., LTD.","34,000",0.00%
 1579,YIHAI INTERNATIONAL HOLDING LTD.,"106,616,049",10.17%
 1583,QINQIN FOODSTUFFS GROUP (CAYMAN) COMPANY LIMITED,"24,400",0.00%
 1585,YADEA GROUP HOLDINGS LTD.,"265,584,000",8.86%
 1589,"CHINA LOGISTICS PROPERTY HOLDINGS CO., LTD","5,040,000",0.15%
 1600,CHINA TIAN LUN GAS HOLDINGS LIMITED,"16,495,000",1.64%
 1606,"CHINA DEVELOPMENT BANK FINANCIAL LEASING CO., LTD.","316,000",0.01%
 1608,VPOWER GROUP INTERNATIONAL HOLDINGS LIMITED,"4,410,000",0.16%
 1610,COFCO MEAT HOLDINGS LIMITED,"709,946,000",18.19%
 1618,METALLURGICAL CORPORATION OF CHINA LTD.,"470,124,000",16.36%
 1622,REDCO PROPERTIES GROUP LIMITED,"220,158,000",6.19%
 1628,YUZHOU GROUP HOLDINGS COMPANY LIMITED,"67,387,048",1.21%
 1635,"SHANGHAI DAZHONG PUBLIC UTILITIES (GROUP) CO., LTD.","82,371,000",15.42%
 1636,CHINA METAL RESOURCES UTILIZATION LIMITED,"34,616,000",1.31%
 1638,KAISA GROUP HOLDINGS LTD.,"533,535,619",8.70%
 1658,"POSTAL SAVINGS BANK OF CHINA CO., LTD.","305,930,845",1.53%
 1661,WISDOM SPORTS GROUP,"6,217,000",0.39%
 1666,TONG REN TANG TECHNOLOGIES CO LTD,"187,143,200",29.76%
 1668,CHINA SOUTH CITY HOLDINGS LIMITED,"826,429,543",10.20%
 1675,ASIAINFO TECHNOLOGIES LIMITED,"1,765,200",0.19%
 1680,MACAU LEGEND DEVELOPMENT LIMITED,"124,016,000",1.99%
 1681,CONSUN PHARMACEUTICAL GROUP LIMITED,"22,138,000",2.64%
 1685,BOER POWER HOLDINGS LIMITED,"2,195,000",0.28%
 1686,SUNEVISION HOLDINGS LIMITED,"2,471,000",0.10%
 1691,JS GLOBAL LIFESTYLE COMPANY LIMITED,"8,983,500",0.26%
 1717,AUSNUTRIA DAIRY CORPORATION LTD,"109,635,000",6.38%
 1728,CHINA ZHENGTONG AUTO SERVICES HOLDINGS LIMITED,"473,755,000",17.55%
 1761,BABYTREE GROUP,"5,895,500",0.35%
 1765,"HOPE EDUCATION GROUP CO., LTD.","839,642,580",
 1766,CRRC CORPORATION LIMITED,"351,456,370",8.03%
 1772,"GANFENG LITHIUM CO., LTD.","118,692,881",59.29%
 1773,TIANLI EDUCATION INTERNATIONAL HOLDINGS LIMITED,"136,126,000",6.56%
 1776,"GF SECURITIES CO., LTD.","525,262,100",30.86%
 1777,"FANTASIA HOLDINGS GROUP CO., LIMITED","409,882,000",7.10%
 1778,"COLOUR LIFE SERVICES GROUP CO., LIMITED","67,538,702",4.64%
 1787,"SHANDONG GOLD MINING CO., LTD.","182,583,948",26.09%
 1788,GUOTAI JUNAN INTERNATIONAL HOLDINGS LIMITED,"225,371,110",2.34%
 1789,AK MEDICAL HOLDINGS LIMITED,"109,500,000",9.82%
 1797,KOOLEARN TECHNOLOGY HOLDING LIMITED,"139,720,118",14.85%
 1800,CHINA COMMUNICATIONS CONSTRUCTION COMPANY LIMITED,"550,368,000",12.42%
 1801,"INNOVENT BIOLOGICS, INC.","56,233,500",4.00%
 1806,HUIFU PAYMENT LIMITED,"13,346,400",1.02%
 1810,XIAOMI CORPORATION,"2,218,100,446",9.18%
 1811,"CGN NEW ENERGY HOLDINGS CO., LTD.","61,272,000",1.42%
 1812,SHANDONG CHENMING PAPER HOLDINGS LIMITED,"105,255,950",19.92%
 1813,KWG GROUP HOLDINGS LIMITED,"154,058,165",4.84%
 1816,"CGN POWER CO., LTD","2,444,101,000",21.88%
 1817,MULSANNE GROUP HOLDING LIMITED,"19,500",0.00%
 1818,ZHAOJIN MINING INDUSTRY COMPANY LIMITED,"130,009,872",4.98%
 1829,CHINA MACHINERY ENGINEERING CORPORATION,"131,000",0.01%
 1833,PING AN HEALTHCARE AND TECHNOLOGY COMPANY LIMITED,"101,081,800",9.46%
 1836,STELLA INTERNATIONAL HOLDINGS LIMITED,"488,000",0.06%
 1848,CHINA AIRCRAFT LEASING GROUP HOLDINGS LIMITED,"12,905,549",1.82%
 1860,MOBVISTA INC.,"14,391,000",0.93%
 1873,VIVA BIOTECH HOLDINGS,"419,809,500",22.06%
 1876,BUDWEISER BREWING COMPANY APAC LIMITED,"15,556,416",0.11%
 1882,HAITIAN INTERNATIONAL HOLDINGS LIMITED,"32,691,000",2.04%
 1883,CITIC TELECOM INTERNATIONAL HOLDINGS LIMITED,"14,340,000",0.39%
 1886,CHINA HUIYUAN JUICE GROUP LIMITED,"125,355,500",4.69%
 1888,KINGBOARD LAMINATES HOLDINGS LIMITED,"14,400,435",0.45%
 1890,CHINA KEPEI EDUCATION GROUP LIMITED,"131,995,475",6.54%
 1896,MAOYAN ENTERTAINMENT,"34,052,400",2.99%
 1898,CHINA COAL ENERGY COMPANY LIMITED,"428,989,000",10.43%
 1905,"HAITONG UNITRUST INTERNATIONAL FINANCIAL LEASING CO., LTD.","40,990,000",0.70%
 1907,CHINA RISUN GROUP LIMITED,"28,392,000",0.69%
 1908,C&D INTERNATIONAL INVESTMENT GROUP LIMITED,"76,330,000",6.48%
 1911,CHINA RENAISSANCE HOLDINGS LIMITED,"15,835,400",2.96%
 1916,"JIANGXI BANK CO., LTD.","10,789,000",0.80%
 1918,SUNAC CHINA HOLDINGS LIMITED,"787,095,220",16.88%
 1919,"COSCO SHIPPING HOLDINGS CO., LTD.","463,821,500",17.97%
 1928,SANDS CHINA LTD.,"63,791,771",0.78%
 1929,CHOW TAI FOOK JEWELLERY GROUP LIMITED,"45,992,400",0.45%
 1951,JINXIN FERTILITY GROUP LIMITED,"427,943,600",17.60%
 1958,BAIC MOTOR CORPORATION LIMITED,"90,166,000",3.57%
 1963,"BANK OF CHONGQING CO., LTD.","116,957,000",7.40%
 1966,CHINA SCE GROUP HOLDINGS LIMITED,"166,354,054",3.95%
 1970,"IMAX CHINA HOLDING, INC.","8,027,600",2.29%
 1972,SWIRE PROPERTIES LIMITED,"2,027,400",0.03%
 1980,TIAN GE INTERACTIVE HOLDINGS LIMITED,"25,586,000",2.00%
 1988,"CHINA MINSHENG BANKING CORP., LTD.","1,114,161,969",13.38%
 1992,FOSUN TOURISM GROUP,"800,000",0.05%
 1995,EVER SUNSHINE LIFESTYLE SERVICES GROUP LIMITED,"46,864,000",2.80%
 1996,REDSUN PROPERTIES GROUP LIMITED,"68,292,000",2.05%
 1997,WHARF REAL ESTATE INVESTMENT COMPANY LIMITED,"5,037,425",0.15%
 1999,MAN WAH HOLDINGS LIMITED,"740,798,715",19.48%
 2001,CHINA NEW HIGHER EDUCATION GROUP LIMITED,"121,625,621",7.89%
 2003,VCREDIT HOLDINGS LIMITED,"2,141,800",0.43%
 2005,SSY GROUP LIMITED,"315,534,059",10.44%
 2007,COUNTRY GARDEN HOLDINGS COMPANY LIMITED,"265,851,055",1.20%
 2008,PHOENIX MEDIA INVESTMENT (HOLDINGS) LIMITED,"205,146,000",4.10%
 2009,BBMG CORPORATION,"291,276,500",12.45%
 2013,WEIMOB INC.,"495,878,416",21.99%
 2016,"CHINA ZHESHANG BANK CO., LTD.","17,953,000",0.38%
 2018,AAC TECHNOLOGIES HOLDINGS INC.,"72,966,773",6.03%
 2019,DEXIN CHINA HOLDINGS COMPANY LIMITED,"29,542,000",1.09%
 2020,ANTA SPORTS PRODUCTS LIMITED,"206,654,591",7.64%
 2038,FIH MOBILE LIMITED,"113,119,000",1.37%
 2039,"CHINA INTERNATIONAL MARINE CONTAINERS (GROUP) CO., LTD.","218,832,680",10.62%
 2048,E-HOUSE (CHINA) ENTERPRISE HOLDINGS LIMITED,"14,381,100",1.03%
 2051,51 CREDIT CARD INC.,"45,905,000",3.37%
 2066,"SHENGJING BANK CO., LTD.","195,000",0.00%
 2068,CHINA ALUMINUM INTERNATIONAL ENGINEERING CORPORATION LIMITED,"11,063,000",2.76%
 2098,ZALL SMART COMMERCE GROUP LTD.,"31,698,000",0.26%
 2099,CHINA GOLD INTERNATIONAL RESOURCES CORP. LTD.,"13,392,800",3.37%
 2103,SINIC HOLDINGS (GROUP) COMPANY LIMITED,"764,000",0.02%
 2111,BEST PACIFIC INTERNATIONAL HOLDINGS LIMITED,"1,392,000",0.13%
 2128,CHINA LESSO GROUP HOLDINGS LIMITED,"59,749,573",1.92%
 2136,LIFESTYLE CHINA GROUP LIMITED,"282,000",0.01%
 2186,LUYE PHARMA GROUP LTD.,"470,986,500",14.49%
 2196,"SHANGHAI FOSUN PHARMACEUTICAL (GROUP) CO., LTD.","198,521,857",35.96%
 2199,REGINA MIRACLE INTERNATIONAL (HOLDINGS) LIMITED,"2,902,000",0.23%
 2202,"CHINA VANKE CO., LTD.","239,664,247",12.65%
 2208,"XINJIANG GOLDWIND SCIENCE & TECHNOLOGY CO., LTD.","81,271,322",10.50%
 2232,CRYSTAL INTERNATIONAL GROUP LIMITED,"3,459,500",0.11%
 2233,WEST CHINA CEMENT LIMITED,"505,538,000",9.29%
 2238,"GUANGZHOU AUTOMOBILE GROUP CO., LTD.","1,090,764,558",35.20%
 2255,HAICHANG OCEAN PARK HOLDINGS LTD.,"349,510,000",8.73%
 2269,WUXI BIOLOGICS (CAYMAN) INC.,"103,149,385",7.59%
 2280,HC GROUP INC.,"104,522,500",7.97%
 2282,MGM CHINA HOLDINGS LIMITED,"26,409,896",0.68%
 2298,COSMO LADY (CHINA) HOLDINGS COMPANY LIMITED,"11,395,000",0.49%
 2313,SHENZHOU INTERNATIONAL GROUP HOLDINGS LIMITED,"53,209,962",3.53%
 2314,LEE & MAN PAPER MANUFACTURING LIMITED,"21,920,825",0.49%
 2318,"PING AN INSURANCE (GROUP) COMPANY OF CHINA, LTD.","143,318,877",1.91%
 2319,CHINA MENGNIU DAIRY COMPANY LIMITED,"73,726,994",1.86%
 2326,NEW PROVENANCE EVERLASTING HOLDINGS LIMITED,"55,940,000",0.25%
 2328,PICC PROPERTY AND CASUALTY COMPANY LIMITED,"496,926,169",7.20%
 2329,GUORUI PROPERTIES LIMITED,"155,841,000",3.50%
 2331,LI NING COMPANY LIMITED,"122,930,516",4.94%
 2333,GREAT WALL MOTOR COMPANY LIMITED,"1,115,271,704",35.97%
 2338,"WEICHAI POWER CO., LTD.","49,591,000",2.55%
 2342,COMBA TELECOM SYSTEMS HOLDINGS LIMITED,"780,000",0.02%
 2343,PACIFIC BASIN SHIPPING LIMITED,"7,919,000",0.16%
 2356,DAH SING BANKING GROUP LIMITED,"219,200",0.01%
 2357,AVICHINA INDUSTRY & TECHNOLOGY COMPANY LIMITED,"413,229,000",6.65%
 2359,"WUXI APPTEC CO., LTD.","22,720,554",7.39%
 2362,JINCHUAN GROUP INTERNATIONAL RESOURCES CO. LTD.,"74,742,000",0.59%
 2363,TONGDA HONG TAI HOLDINGS LIMITED,"341,212",0.17%
 2369,COOLPAD GROUP LIMITED,"38,820,000",0.64%
 2380,CHINA POWER INTERNATIONAL DEVELOPMENT LIMITED,"586,992,034",5.98%
 2382,SUNNY OPTICAL TECHNOLOGY (GROUP) COMPANY LIMITED,"102,871,805",9.37%
 2386,"SINOPEC ENGINEERING (GROUP) CO., LTD.","35,743,000",2.44%
 2388,BOC HONG KONG (HOLDINGS) LIMITED,"12,667,945",0.11%
 2400,XD INC.,"56,922,100",12.53%
 2588,BOC AVIATION LIMITED,"13,662,658",1.96%
 2600,ALUMINUM CORPORATION OF CHINA LIMITED,"278,194,000",7.05%
 2601,CHINA PACIFIC INSURANCE (GROUP) CO. LTD.,"755,243,231",27.20%
 2607,"SHANGHAI PHARMACEUTICALS HOLDING CO., LTD.","105,038,706",11.42%
 2611,"GUOTAI JUNAN SECURITIES CO., LTD.","110,059,000",7.89%
 2628,CHINA LIFE INSURANCE COMPANY LIMITED,"268,456,093",3.60%
 2662,CAMSING INTERNATIONAL HOLDING LIMITED,"132,096,000",12.26%
 2666,GENERTEC UNIVERSAL MEDICAL GROUP COMPANY LIMITED,"327,856,000",19.10%
 2669,CHINA OVERSEAS PROPERTY HOLDINGS LIMITED,"375,877,275",11.43%
 2678,TEXHONG TEXTILE GROUP LIMITED,"32,657,500",3.56%
 2688,ENN ENERGY HOLDINGS LIMITED,"13,079,061",1.15%
 2689,NINE DRAGONS PAPER (HOLDINGS) LIMITED,"72,694,410",1.54%
 2727,SHANGHAI ELECTRIC GROUP COMPANY LIMITED,"841,711,000",28.30%
 2768,JIAYUAN INTERNATIONAL GROUP LIMITED,"354,627,183",8.74%
 2772,ZHONGLIANG HOLDINGS GROUP COMPANY LIMITED,"37,044,000",1.02%
 2777,"GUANGZHOU R&F PROPERTIES CO., LTD.","93,542,544",7.25%
 2799,"CHINA HUARONG ASSET MANAGEMENT CO., LTD.","2,329,892,000",9.29%
 2858,YIXIN GROUP LIMITED,"43,137,000",0.67%
 2866,"COSCO SHIPPING DEVELOPMENT CO., LTD.","580,505,000",15.78%
 2869,GREENTOWN SERVICE GROUP CO. LTD.,"355,698,899",
 2877,CHINA SHINEWAY PHARMACEUTICAL GROUP LIMITED,"25,641,000",3.09%
 2880,DALIAN PORT (PDA) COMPANY LIMITED,"891,813,400",17.28%
 2883,CHINA OILFIELD SERVICES LIMITED,"200,607,627",11.07%
 2888,STANDARD CHARTERED PLC,"357,070",0.01%
 2899,"ZIJIN MINING GROUP CO., LTD.","1,491,796,000",26.00%
 3301,RONSHINE CHINA HOLDINGS LIMITED,"140,183,500",8.22%
 3306,JNBY DESIGN LIMITED,"22,438,000",4.32%
 3308,GOLDEN EAGLE RETAIL GROUP LIMITED,"86,182,000",5.15%
 3309,C-MER EYE CARE HOLDINGS LIMITED,"77,190,000",6.74%
 3311,CHINA STATE CONSTRUCTION INTERNATIONAL HOLDINGS LIMITED,"174,765,692",3.45%
 3319,"A-LIVING SERVICES CO., LTD.","8,139,500",0.61%
 3320,CHINA RESOURCES PHARMACEUTICAL GROUP LIMITED,"189,954,000",3.02%
 3323,CHINA NATIONAL BUILDING MATERIAL COMPANY LIMITED,"961,066,365",24.83%
 3328,"BANK OF COMMUNICATIONS CO., LTD.","770,445,069",2.19%
 3329,BOCOM INTERNATIONAL HOLDINGS COMPANY LIMITED,"15,590,000",0.57%
 3331,VINDA INTERNATIONAL HOLDINGS LIMITED,"10,168,000",0.83%
 3333,CHINA EVERGRANDE GROUP,"117,598,355",0.90%
 3339,LONKING HOLDINGS LIMITED,"26,034,000",0.60%
 3347,"HANGZHOU TIGERMED CONSULTING CO., LTD.","68,200",0.05%
 3360,FAR EAST HORIZON LIMITED,"120,156,000",3.02%
 3368,PARKSON RETAIL GROUP LIMITED,"5,669,500",0.21%
 3369,"QINHUANGDAO PORT CO., LTD.","80,143,000",9.65%
 3377,SINO-OCEAN GROUP HOLDING LIMITED,"147,733,310",1.93%
 3380,LOGAN GROUP COMPANY LIMITED,"150,650,528",2.71%
 3382,TIANJIN PORT DEVELOPMENT HOLDINGS LIMITED,"204,966,000",3.32%
 3383,AGILE GROUP HOLDINGS LIMITED,"40,003,548",1.01%
 3389,HENGDELI HOLDINGS LIMITED,"776,000",0.01%
 3393,WASION HOLDINGS LIMITED,"1,326,000",0.13%
 3396,LEGEND HOLDINGS CORPORATION,"81,915,000",6.43%
 3606,"FUYAO GLASS INDUSTRY GROUP CO., LTD","84,513,450",16.70%
 3613,BEIJING TONG REN TANG CHINESE MEDICINE COMPANY LIMITED,"71,534,000",8.54%
 3618,"CHONGQING RURAL COMMERCIAL BANK CO., LTD.","707,073,000",28.12%
 3633,ZHONGYU GAS HOLDINGS LIMITED,"16,944,000",0.64%
 3669,CHINA YONGDA AUTOMOBILES SERVICES HOLDINGS LIMITED,"117,967,000",
 3690,MEITUAN DIANPING,"336,261,240",5.71%
 3692,HANSOH PHARMACEUTICAL GROUP COMPANY LIMITED,"50,549,000",0.85%
 3698,HUISHANG BANK CORPORATION LIMITED,"4,764,200",0.12%
 3759,"PHARMARON BEIJING CO., LTD.","20,087,465",14.98%
 3788,CHINA HANKING HOLDINGS LIMITED,"16,380,000",0.90%
 3799,DALI FOODS GROUP COMPANY LIMITED,"402,147,500",2.92%
 3800,GCL-POLY ENERGY HOLDINGS LIMITED,"2,405,251,500",11.37%
 3808,SINOTRUK (HONG KONG) LIMITED,"121,873,366",4.40%
 3813,POU SHENG INTERNATIONAL (HOLDINGS) LIMITED,"9,891,000",0.18%
 3818,"CHINA DONGXIANG (GROUP) CO., LTD.","493,492,000",8.38%
 3836,CHINA HARMONY AUTO HOLDING LIMITED,"60,099,000",3.81%
 3866,"BANK OF QINGDAO CO., LTD.","1,098,000",0.06%
 3868,XINYI ENERGY HOLDINGS LIMITED,"92,018,000",1.36%
 3877,CSSC (HONG KONG) SHIPPING COMPANY LIMITED,"5,244,000",0.08%
 3883,CHINA AOYUAN GROUP LIMITED,"181,137,000",6.69%
 3886,TOWN HEALTH INTERNATIONAL MEDICAL GROUP LIMITED,"145,736,000",1.92%
 3888,KINGSOFT CORPORATION LIMITED,"374,608,169",27.28%
 3898,"ZHUZHOU CRRC TIMES ELECTRIC CO., LTD.","38,993,406",7.12%
 3899,CIMC ENRIC HOLDINGS LIMITED,"147,486,000",7.33%
 3900,GREENTOWN CHINA HOLDINGS LIMITED,"346,039,500",13.87%
 3908,CHINA INTERNATIONAL CAPITAL CORPORATION LIMITED,"311,664,081",16.36%
 3933,"UNITED LABORATORIES INTERNATIONAL HOLDINGS LIMITED, THE","184,985,948",10.05%
 3958,DFZQ,"399,972,385",38.93%
 3968,"CHINA MERCHANTS BANK CO., LTD.","185,856,070",4.04%
 3969,CHINA RAILWAY SIGNAL & COMMUNICATION CORPORATION LIMITED,"174,591,000",8.86%
 3988,BANK OF CHINA LIMITED,"7,765,066,215",9.28%
 3990,MIDEA REAL ESTATE HOLDING LIMITED,"75,400,800",6.11%
 3993,"CHINA MOLYBDENUM CO., LTD.","325,743,500",8.27%
 3996,CHINA ENERGY ENGINEERING CORPORATION LIMITED,"10,824,000",0.11%
 3998,BOSIDENG INTERNATIONAL HOLDINGS LIMITED,"679,016,000",6.30%
 6030,CITIC SECURITIES COMPANY LIMITED,"278,780,141",12.23%
 6049,"POLY PROPERTY SERVICES CO., LTD.","57,217,407",37.31%
 6055,CHINA TOBACCO INTERNATIONAL (HK) COMPANY LIMITED,"30,018,000",4.33%
 6060,"ZHONGAN ONLINE P & C INSURANCE CO., LTD.","36,317,400",7.72%
 6066,"CSC FINANCIAL CO., LTD.","316,396,500",25.08%
 6068,WISDOM EDUCATION INTERNATIONAL HOLDINGS COMPANY LIMITED,"170,942,000",7.85%
 6069,SHENG YE CAPITAL LIMITED,"19,249,500",2.18%
 6078,"HYGEIA HEALTHCARE HOLDINGS CO., LIMITED","17,013,200",2.75%
 6088,FIT HON TENG LIMITED,"411,323,000",5.96%
 6098,COUNTRY GARDEN SERVICES HOLDINGS COMPANY LIMITED,"222,148,133",8.04%
 6099,"CHINA MERCHANTS SECURITIES CO., LTD.","242,606,780",19.03%
 6100,TONGDAO LIEPIN GROUP,"84,800",0.01%
 6110,TOPSPORTS INTERNATIONAL HOLDINGS LIMITED,"24,011,000",0.38%
 6116,"XINJIANG LA CHAPELLE FASHION CO., LTD.","69,175,000",32.20%
 6158,ZHENRO PROPERTIES GROUP LIMITED,"67,590,000",1.54%
 6160,"BEIGENE, LTD.","1,047,000",0.08%
 6166,CHINA VAST INDUSTRIAL URBAN DEVELOPMENT COMPANY LIMITED,"55,568,000",3.36%
 6169,CHINA YUHUA EDUCATION CORPORATION LIMITED,"569,681,614",17.05%
 6178,EVERBRIGHT SECURITIES COMPANY LIMITED,"89,464,800",12.70%
 6186,CHINA FEIHE LIMITED,"843,620,048",9.43%
 6196,"BANK OF ZHENGZHOU CO., LTD.","282,139,500",16.89%
 6198,"QINGDAO PORT INTERNATIONAL CO., LTD.","9,996,000",0.90%
 6806,"SHENWAN HONGYUAN GROUP CO., LTD.","226,095,200",9.02%
 6808,SUN ART RETAIL GROUP LIMITED,"65,247,023",0.67%
 6818,CHINA EVERBRIGHT BANK COMPANY LIMITED,"884,155,992",6.96%
 6828,BEIJING GAS BLUE SKY HOLDINGS LIMITED,"233,624,000",1.79%
 6837,"HAITONG SECURITIES CO., LTD.","884,416,200",25.93%
 6862,HAIDILAO INTERNATIONAL HOLDING LTD.,"174,108,876",3.27%
 6865,"FLAT GLASS GROUP CO., LTD.","157,279,000",34.94%
 6869,YANGTZE OPTICAL FIBRE AND CABLE JOINT STOCK LIMITED COMPANY,"17,291,500",4.91%
 6881,"CHINA GALAXY SECURITIES CO., LTD.","832,768,882",22.55%
 6886,"HUATAI SECURITIES CO., LTD.","439,875,846",25.58%
 6969,SMOORE INTERNATIONAL HOLDINGS LIMITED,"232,841,082",3.98%
 8328,XINYI AUTOMOBILE GLASS HONG KONG ENTERPRISES LIMITED,"109,750",0.01%
 9909,POWERLONG COMMERCIAL MANAGEMENT HOLDINGS LIMITED,"10,845,500",1.74%
 9922,JIUMAOJIU INTERNATIONAL HOLDINGS LIMITED,"56,539,000",3.89%
 9923,YEAHKA LIMITED,"68,000",0.01%
 9928,TIMES NEIGHBORHOOD HOLDINGS LIMITED,"18,618,885",1.87%
 9968,HUIJING HOLDINGS COMPANY LIMITED,"2,194,000",0.04%
 9983,CENTRAL CHINA NEW LIFE LIMITED,"10,559,000",0.84%
 9989,"SHENZHEN HEPALINK PHARMACEUTICAL GROUP CO., LTD.","13,216,000",6.00%
 9997,KANGJI MEDICAL HOLDINGS LIMITED,"2,160,000",0.17%
