Stock Code,Stock Name,Shareholding in CCASS,Percentage of the total number of Issued Shares
    1,CK HUTCHISON HOLDINGS LIMITED,"28,426,971",0.73%
    2,CLP HOLDINGS LIMITED,"5,978,492",0.23%
    3,"HONG KONG AND CHINA GAS COMPANY LIMITED, THE","20,943,749",0.11%
    4,"WHARF (HOLDINGS) LIMITED, THE","4,405,979",0.13%
    5,HSBC HOLDINGS PLC,"1,785,723,653",8.62%
    6,POWER ASSETS HOLDINGS LIMITED,"4,311,922",0.19%
    8,PCCW LIMITED,"13,557,776",0.16%
   10,HANG LUNG GROUP LIMITED,"16,586,000",1.21%
   11,HANG SENG BANK LTD,"2,977,405",0.14%
   12,HENDERSON LAND DEVELOPMENT CO LTD,"5,496,173",0.11%
   14,HYSAN DEVELOPMENT COMPANY LIMITED,"969,000",0.08%
   16,SUN HUNG KAI PROPERTIES LIMITED,"8,363,904",0.28%
   19,SWIRE PACIFIC LTD 'A',"4,934,000",0.53%
   20,WHEELOCK AND COMPANY LIMITED,"402,467",0.01%
   23,BANK OF EAST ASIA LTD,"695,993",0.01%
   27,GALAXY ENTERTAINMENT GROUP LIMITED,"43,106,771",0.99%
   35,FAR EAST CONSORTIUM INTERNATIONAL LTD,"100,013",0.00%
   38,FIRST TRACTOR COMPANY LIMITED,"106,566,100",27.18%
   41,GREAT EAGLE HOLDINGS LIMITED,"1,428,511",0.19%
   42,NORTHEAST ELECTRIC DEVELOPMENT COMPANY LIMITED,"16,546,000",6.41%
   43,C.P. POKPHAND CO LTD,"852,000",0.00%
   45,"HONGKONG AND SHANGHAI HOTELS LTD,THE","42,513",0.00%
   59,SKYFAME REALTY (HOLDINGS) LIMITED,"63,308,000",0.79%
   66,MTR CORPORATION LIMITED,"5,703,683",0.08%
   69,SHANGRI-LA ASIA LIMITED,"15,886,000",0.43%
   78,REGAL HOTELS INTERNATIONAL HOLDINGS LIMITED,"14,000",0.00%
   81,CHINA OVERSEAS GRAND OCEANS GROUP LIMITED,"302,674,820",8.83%
   83,SINO LAND CO.LTD.,"8,707,976",0.12%
   86,SUN HUNG KAI & CO.LTD,"11,136,000",0.54%
   87,SWIRE PACIFIC LTD 'B',"16,575,000",0.54%
   95,LVGEM (CHINA) REAL ESTATE INVESTMENT COMPANY LIMITED,"160,716,000",3.17%
  101,HANG LUNG PROPERTIES LIMITED,"50,699,949",1.12%
  107,SICHUAN EXPRESSWAY COMPANY LIMITED,"217,030,000",24.23%
  109,GOOD RESOURCES HOLDINGS LIMITED,"44,710,000",0.62%
  116,CHOW SANG SANG HOLDINGS INTERNATIONAL LIMITED,"17,510,000",2.58%
  119,"POLY PROPERTY GROUP CO., LIMITED","353,824,748",9.66%
  120,COSMOPOLITAN INTERNATIONAL HOLDINGS LTD,"662,000",0.01%
  123,YUEXIU PROPERTY COMPANY LIMITED,"312,808,351",2.01%
  127,CHINESE ESTATES HOLDINGS LIMITED,"3,586,500",0.18%
  135,KUNLUN ENERGY COMPANY LIMITED,"139,035,000",1.59%
  136,HENGTEN NETWORKS GROUP LIMITED,"4,823,156,000",6.45%
  142,FIRST PACIFIC CO. LTD.,"9,252,000",0.21%
  144,CHINA MERCHANTS PORT HOLDINGS COMPANY LIMITED,"134,796,665",3.90%
  148,KINGBOARD HOLDINGS LIMITED,"16,923,136",1.53%
  151,WANT WANT CHINA HOLDINGS LIMITED,"35,955,871",0.28%
  152,SHENZHEN INTERNATIONAL HOLDINGS LIMITED,"64,267,626",2.92%
  163,EMPEROR INTERNATIONAL HOLDINGS LIMITED,"11,032,000",0.29%
  165,CHINA EVERBRIGHT LIMITED,"205,973,955",12.21%
  168,TSINGTAO BREWERY COMPANY LIMITED,"45,763,576",6.98%
  173,K. WAH INTERNATIONAL HOLDINGS LIMITED,"38,925,822",1.24%
  175,GEELY AUTOMOBILE HOLDINGS LIMITED,"696,114,227",7.08%
  177,JIANGSU EXPRESSWAY COMPANY LIMITED,"123,662,818",10.11%
  178,SA SA INTERNATIONAL HOLDINGS LIMITED,"12,857,268",0.40%
  179,JOHNSON ELECTRIC HOLDINGS LIMITED,"512,000",0.04%
  187,BEIJING JINGCHENG MACHINERY ELECTRIC COMPANY LIMITED,"28,620,000",28.62%
  189,DONGYUE GROUP LIMITED,"146,369,358",6.93%
  198,SMI HOLDINGS GROUP LIMITED,"70,340,800",2.59%
  200,MELCO INTERNATIONAL DEVELOPMENT LIMITED,"12,865,000",0.84%
  207,JOY CITY PROPERTY LIMITED,"5,564,000",0.03%
  215,HUTCHISON TELECOMMUNICATIONS HONG KONG HOLDINGS LIMITED,"7,810,000",0.15%
  220,UNI-PRESIDENT CHINA HOLDINGS LTD.,"7,221,000",0.15%
  241,ALIBABA HEALTH INFORMATION TECHNOLOGY LIMITED,"257,648,997",1.98%
  242,SHUN TAK HOLDINGS LIMITED,"83,972,000",2.77%
  245,CHINA MINSHENG FINANCIAL HOLDING CORPORATION LIMITED,"31,590,000",0.08%
  256,CITYCHAMP WATCH & JEWELLERY GROUP LIMITED,"332,242,000",7.63%
  257,CHINA EVERBRIGHT INTERNATIONAL LIMITED,"460,077,244",7.48%
  267,CITIC LIMITED,"114,730,916",0.39%
  268,KINGDEE INTERNATIONAL SOFTWARE GROUP COMPANY LIMITED,"362,431,838",10.88%
  270,GUANGDONG INVESTMENT LIMITED,"32,602,905",0.49%
  272,SHUI ON LAND LIMITED,"608,376,000",7.53%
  279,FREEMAN FINTECH CORPORATION LIMITED,"612,286,000",32.77%
  285,BYD ELECTRONIC (INTERNATIONAL) COMPANY LIMITED,"134,192,600",5.94%
  288,WH GROUP LIMITED,"1,182,455,283",8.02%
  291,CHINA RESOURCES BEER (HOLDINGS) COMPANY LIMITED,"252,948,403",7.78%
  293,CATHAY PACIFIC AIRWAYS LTD,"5,700,000",0.13%
  295,KONG SUN HOLDINGS LIMITED,"55,400,000",0.37%
  297,SINOFERT HOLDINGS LIMITED,"374,050,000",5.31%
  302,CMGE TECHNOLOGY GROUP LIMITED,"122,206,000",5.24%
  303,VTECH HOLDINGS LIMITED,"969,449",0.38%
  308,CHINA TRAVEL INTERNATIONAL INVESTMENT HONG KONG LIMITED,"177,970,439",3.21%
  315,SMARTONE TELECOMMUNICATIONS HOLDINGS LIMITED,"1,309,108",0.10%
  316,ORIENT OVERSEAS (INTERNATIONAL) LIMITED,"8,500",0.00%
  317,CSSC OFFSHORE & MARINE ENGINEERING (GROUP) COMPANY LIMITED,"17,270,200",2.91%
  321,TEXWINCA HOLDINGS LIMITED,"1,040,000",0.07%
  322,TINGYI (CAYMAN ISLANDS) HOLDING CORP.,"40,890,708",0.71%
  323,MAANSHAN IRON & STEEL COMPANY LIMITED,"19,468,000",1.12%
  327,PAX GLOBAL TECHNOLOGY LIMITED,"7,716,000",0.71%
  330,ESPRIT HOLDINGS LIMITED,"12,440,900",0.64%
  336,HUABAO INTERNATIONAL HOLDINGS LIMITED,"313,107,100",10.07%
  337,GREENLAND HONG KONG HOLDINGS LIMITED,"135,431,000",4.85%
  338,SINOPEC SHANGHAI PETROCHEMICAL COMPANY LIMITED,"289,290,375",8.26%
  341,CAFE DE CORAL HOLDINGS LTD,"3,206,000",0.54%
  345,VITASOY INTERNATIONAL HOLDINGS LTD,"7,354,011",0.68%
  347,ANGANG STEEL COMPANY LIMITED,"33,535,800",2.37%
  354,CHINASOFT INTERNATIONAL LIMITED,"384,293,152",14.64%
  358,JIANGXI COPPER COMPANY LIMITED,"49,262,219",3.54%
  363,SHANGHAI INDUSTRIAL HOLDINGS LIMITED,"21,060,100",1.93%
  371,BEIJING ENTERPRISES WATER GROUP LIMITED,"277,076,010",2.75%
  378,FDG KINETIC LIMITED,"183,718,000",2.72%
  384,CHINA GAS HOLDINGS LIMITED,"36,659,043",0.69%
  386,CHINA PETROLEUM & CHEMICAL CORPORATION,"1,470,356,498",5.75%
  388,HONG KONG EXCHANGES AND CLEARING LIMITED,"37,946,479",2.98%
  390,CHINA RAILWAY GROUP LIMITED,"273,316,030",6.48%
  392,BEIJING ENTERPRISES HOLDINGS LIMITED,"97,887,982",7.74%
  400,COGOBUY GROUP,"55,821,000",3.92%
  410,SOHO CHINA LIMITED,"336,260,500",6.46%
  412,CHINA SHANDONG HI-SPEED FINANCIAL GROUP LIMITED,"11,202,000",0.04%
  419,HUAYI TENCENT ENTERTAINMENT COMPANY LIMITED,"181,460,000",1.34%
  425,MINTH GROUP LIMITED,"82,927,597",
  439,KUANGCHI SCIENCE LIMITED,"314,050,000",5.09%
  440,DAH SING FINANCIAL HOLDINGS LTD,"1,719,266",0.52%
  451,GCL NEW ENERGY HOLDINGS LIMITED,"1,680,754,000",8.81%
  460,SIHUAN PHARMACEUTICAL HOLDINGS GROUP LTD.,"494,566,000",5.22%
  467,UNITED ENERGY GROUP LIMITED,"7,836,000",0.02%
  468,GREATVIEW ASEPTIC PACKAGING COMPANY LIMITED,"10,825,000",0.80%
  480,HKR INTERNATIONAL LTD,"261,680",0.01%
  488,LAI SUN DEVELOPMENT COMPANY LIMITED,"30,000",0.00%
  489,DONGFENG MOTOR GROUP COMPANY LIMITED,"177,038,000",6.19%
  493,GOME RETAIL HOLDINGS LIMITED,"2,481,387,000",11.50%
  496,KASEN INTERNATIONAL HOLDINGS LIMITED,"117,481,000",7.86%
  506,CHINA FOODS LIMITED,"44,626,100",1.59%
  508,DINGYI GROUP INVESTMENT LIMITED,"384,710,000",5.22%
  511,TELEVISION BROADCASTS LIMITED,"485,300",0.10%
  512,CHINA GRAND PHARMACEUTICAL AND HEALTHCARE HOLDINGS LIMITED,"104,319,200",3.08%
  517,"COSCO SHIPPING INTERNATIONAL (HONG KONG) CO., LTD.","422,000",0.02%
  520,"XIABUXIABU CATERING MANAGEMENT (CHINA) HOLDINGS CO., LTD.","102,394,500",9.46%
  522,ASM PACIFIC TECHNOLOGY LIMITED,"2,742,825",0.66%
  525,GUANGSHEN RAILWAY COMPANY LIMITED,"318,996,010",22.27%
  530,GOLDIN FINANCIAL HOLDINGS LIMITED,"2,920,000",0.04%
  535,GEMDALE PROPERTIES AND INVESTMENT CORPORATION LIMITED,"2,008,750,154",12.20%
  546,FUFENG GROUP LIMITED,"66,140,119",2.61%
  547,DIGITAL DOMAIN HOLDINGS LIMITED,"1,031,910,000",3.02%
  548,SHENZHEN EXPRESSWAY COMPANY LIMITED,"89,734,000",11.99%
  551,YUE YUEN INDUSTRIAL (HOLDINGS) LIMITED,"9,097,293",0.55%
  552,CHINA COMMUNICATIONS SERVICES CORPORATION LIMITED,"60,328,000",2.51%
  553,NANJING PANDA ELECTRONICS COMPANY LIMITED,"57,574,000",23.78%
  563,SHANGHAI INDUSTRIAL URBAN DEVELOPMENT GROUP LIMITED,"135,906,855",2.82%
  564,ZHENGZHOU COAL MINING MACHINERY GROUP COMPANY LIMITED,"67,384,204",27.69%
  568,SHANDONG MOLONG PETROLEUM MACHINERY COMPANY LIMITED,"55,059,200",21.49%
  570,CHINA TRADITIONAL CHINESE MEDICINE HOLDINGS CO LIMITED,"641,551,644",12.73%
  576,"ZHEJIANG EXPRESSWAY CO., LTD.","85,831,759",5.97%
  579,"BEIJING JINGNENG CLEAN ENERGY CO., LIMITED","172,262,000",6.08%
  581,CHINA ORIENTAL GROUP COMPANY LIMITED,"109,106,987",2.92%
  582,LANDING INTERNATIONAL DEVELOPMENT LIMITED,"112,298,400",3.18%
  586,CHINA CONCH VENTURE HOLDINGS LIMITED,"172,727,500",9.56%
  588,BEIJING NORTH STAR COMPANY LIMITED,"216,604,000",30.63%
  590,LUK FOOK HOLDINGS (INTERNATIONAL) LIMITED,"2,650,000",0.44%
  598,SINOTRANS LIMITED,"327,301,000",15.25%
  604,SHENZHEN INVESTMENT LIMITED,"43,579,461",0.49%
  607,FULLSHARE HOLDINGS LIMITED,"4,776,125,000",24.22%
  612,CHINA DING YI FENG HOLDINGS LIMITED,"2,384,000",0.18%
  631,SANY HEAVY EQUIPMENT INTERNATIONAL HOLDINGS COMPANY LIMITED,"220,681,000",7.09%
  636,KERRY LOGISTICS NETWORK LIMITED,"1,193,000",0.06%
  639,SHOUGANG FUSHAN RESOURCES GROUP LIMITED,"116,680,000",2.19%
  656,FOSUN INTERNATIONAL LIMITED,"943,236,320",11.08%
  658,"CHINA HIGH SPEED TRANSMISSION EQUIPMENT GROUP CO., LTD.","201,831,000",12.33%
  659,NWS HOLDINGS LIMITED,"3,788,719",0.09%
  665,HAITONG INTERNATIONAL SECURITIES GROUP LIMITED,"298,014,945",4.93%
  667,CHINA EAST EDUCATION HOLDINGS LIMITED,"103,193,500",4.70%
  669,TECHTRONIC INDUSTRIES CO. LTD.,"5,200,470",0.28%
  670,CHINA EASTERN AIRLINES CORPORATION LIMITED,"288,143,567",5.55%
  680,NAN HAI CORPORATION LIMITED,"539,600,000",0.78%
  683,KERRY PROPERTIES LIMITED,"3,054,624",0.20%
  686,PANDA GREEN ENERGY GROUP LIMITED,"298,112,000",1.32%
  687,TYSAN HOLDINGS LIMITED,"3,700,000",0.10%
  688,CHINA OVERSEAS LAND & INVESTMENT LIMITED,"72,132,639",0.65%
  691,CHINA SHANSHUI CEMENT GROUP LIMITED,"4,175,000",0.09%
  694,BEIJING CAPITAL INTERNATIONAL AIRPORT COMPANY LIMITED,"304,719,105",16.20%
  696,TRAVELSKY TECHNOLOGY LIMITED,"41,047,000",4.39%
  697,SHOUCHENG HOLDINGS LIMITED,"15,627,610",0.22%
  698,TONGDA GROUP HOLDINGS LIMITED,"165,220,000",2.54%
  699,CAR INC.,"166,816,001",7.86%
  700,TENCENT HOLDINGS LIMITED,"273,114,449",2.85%
  709,GIORDANO INTERNATIONAL LIMITED,"2,158,000",0.13%
  715,CHINA OCEANWIDE HOLDINGS LIMITED,"460,000",0.00%
  718,TAI UNITED HOLDINGS LIMITED,"20,050,000",0.38%
  719,SHANDONG XINHUA PHARMACEUTICAL COMPANY LIMITED,"73,243,784",37.56%
  721,CHINA FINANCIAL INTERNATIONAL INVESTMENTS LIMITED,"305,530,000",2.78%
  728,CHINA TELECOM CORPORATION LIMITED,"393,165,238",2.82%
  729,FDG ELECTRIC VEHICLES LIMITED,"70,209,000",2.80%
  732,TRULY INTERNATIONAL HOLDINGS LIMITED,"310,280,000",9.42%
  737,SZ INVESTMENT HLDGS BAY AREA DEV CO LTD -HKD TRADED SHARES,"1,870,500",0.05%
  743,ASIA CEMENT (CHINA) HOLDINGS CORPORATION,"15,051,500",0.96%
  751,SKYWORTH GROUP LIMITED,"170,241,919",5.55%
  753,AIR CHINA LIMITED,"260,618,923",5.70%
  754,HOPSON DEVELOPMENT HOLDINGS LIMITED,"60,868,000",2.73%
  762,CHINA UNICOM (HONG KONG) LIMITED,"168,612,000",0.54%
  763,ZTE CORPORATION,"200,093,726",26.48%
  772,CHINA LITERATURE LIMITED,"68,385,826",6.72%
  775,"CK LIFE SCIENCES INT'L., (HOLDINGS) INC.","18,716,000",0.19%
  777,NETDRAGON WEBSOFT HOLDINGS LIMITED,"26,011,000",4.60%
  780,TONGCHENG-ELONG HOLDINGS LIMITED,"17,439,600",0.81%
  787,GLOBAL BRANDS GROUP HOLDING LIMITED,"66,835,633",6.49%
  788,CHINA TOWER CORPORATION LIMITED,"1,984,381,384",4.24%
  799,IGG INC,"128,603,298",10.40%
  806,VALUE PARTNERS GROUP LIMITED,"69,363,405",3.72%
  811,"XINHUA WINSHARE PUBLISHING AND MEDIA CO., LTD.","69,767,000",15.78%
  813,SHIMAO GROUP HOLDINGS LIMITED,"93,429,641",2.63%
  816,HUADIAN FUXIN ENERGY CORPORATION LIMITED,"4,060,000",0.15%
  817,CHINA JINMAO HOLDINGS GROUP LIMITED,"794,205,172",6.74%
  819,TIANNENG POWER INTERNATIONAL LIMITED,"193,963,000",17.21%
  826,TIANGONG INTERNATIONAL COMPANY LIMITED,"52,320,000",2.03%
  829,SHENGUAN HOLDINGS (GROUP) LIMITED,"141,052,000",4.36%
  832,CENTRAL CHINA REAL ESTATE LIMITED,"106,161,000",3.82%
  836,CHINA RESOURCES POWER HOLDINGS COMPANY LIMITED,"188,632,335",3.91%
  839,CHINA EDUCATION GROUP HOLDINGS LIMITED,"99,590,655",4.92%
  845,GLORIOUS PROPERTY HOLDINGS LIMITED,"23,244,000",0.29%
  846,MINGFA GROUP (INTERNATIONAL) COMPANY LIMITED,"5,261,000",0.08%
  853,MICROPORT SCIENTIFIC CORPORATION,"243,214,682",14.00%
  855,CHINA WATER AFFAIRS GROUP LIMITED,"177,824,334",11.08%
  856,VSTECS HOLDINGS LIMITED,"2,740,000",0.18%
  857,PETROCHINA COMPANY LIMITED,"1,651,970,455",7.82%
  860,APOLLO FUTURE MOBILITY GROUP LIMITED,"30,964,000",0.43%
  861,DIGITAL CHINA HOLDINGS LIMITED,"760,906,400",45.52%
  867,CHINA MEDICAL SYSTEM HOLDINGS LIMITED,"20,016,618",0.80%
  868,XINYI GLASS HOLDINGS LIMITED,"215,745,053",5.35%
  874,"GUANGZHOU BAIYUNSHAN PHARMACEUTICAL HOLDINGS CO., LTD.","63,740,100",28.98%
  880,SJM HOLDINGS LIMITED,"192,726,700",3.39%
  881,ZHONGSHENG GROUP HOLDINGS LIMITED,"42,674,813",1.87%
  883,CNOOC LIMITED,"420,679,295",0.94%
  884,CIFI HOLDINGS (GROUP) CO. LTD.,"420,946,891",
  885,RENTIAN TECHNOLOGY HOLDINGS LIMITED,"1,110,000",0.01%
  895,DONGJIANG ENVIRONMENTAL COMPANY LIMITED,"60,468,000",30.21%
  902,"HUANENG POWER INTERNATIONAL, INC.","1,958,999,954",41.67%
  906,CPMC HOLDINGS LIMITED,"20,965,000",1.87%
  911,QIANHAI HEALTH HOLDINGS LIMITED,"92,445,250",5.45%
  914,ANHUI CONCH CEMENT COMPANY LIMITED,"44,273,789",3.40%
  916,CHINA LONGYUAN POWER GROUP CORPORATION LIMITED,"202,073,000",6.04%
  921,"HISENSE HOME APPLIANCES GROUP CO., LTD.","48,952,459",10.65%
  931,CHINA LNG GROUP LIMITED,"173,383,000",3.06%
  933,BRIGHTOIL PETROLEUM (HOLDINGS) LIMITED,"25,254,000",0.24%
  934,SINOPEC KANTONS HOLDINGS LIMITED,"155,186,000",6.23%
  939,CHINA CONSTRUCTION BANK CORPORATION,"25,292,394,220",10.51%
  941,CHINA MOBILE LIMITED,"77,724,624",0.37%
  950,LEE'S PHARMACEUTICAL HOLDINGS LIMITED,"1,585,000",0.26%
  951,CHAOWEI POWER HOLDINGS LIMITED,"105,022,000",9.51%
  960,LONGFOR GROUP HOLDINGS LIMITED,"164,662,993",2.74%
  966,CHINA TAIPING INSURANCE HOLDINGS COMPANY LIMITED,"474,812,974",13.20%
  967,SOUND GLOBAL LTD.,"289,000",0.01%
  968,XINYI SOLAR HOLDINGS LIMITED,"1,087,640,894",13.31%
  976,CHIHO ENVIRONMENTAL GROUP LIMITED,"219,740,000",13.68%
  978,CHINA MERCHANTS LAND LIMITED,"113,416,000",2.31%
  981,SEMICONDUCTOR MANUFACTURING INTERNATIONAL CORPORATION,"1,335,125,279",23.46%
  989,GROUND INTERNATIONAL DEVELOPMENT LIMITED,"187,570,000",3.55%
  991,"DATANG INTERNATIONAL POWER GENERATION CO.,LTD.","337,548,000",5.51%
  992,LENOVO GROUP LIMITED,"78,055,882",0.64%
  995,ANHUI EXPRESSWAY COMPANY LIMITED,"112,274,000",22.77%
  996,CARNIVAL GROUP INTERNATIONAL HOLDINGS LIMITED,"6,099,442,500",25.73%
  998,CHINA CITIC BANK CORPORATION LIMITED,"2,145,531,622",14.40%
 1028,C.BANNER INTERNATIONAL HOLDINGS LIMITED,"147,171,000",7.08%
 1030,SEAZEN GROUP LIMITED,"291,639,000",4.68%
 1031,KINGSTON FINANCIAL GROUP LIMITED,"550,000",0.00%
 1033,SINOPEC OILFIELD SERVICE CORPORATION,"363,182,000",6.70%
 1038,CK INFRASTRUCTURE HOLDINGS LIMITED,"11,290,500",0.41%
 1044,HENGAN INTERNATIONAL GROUP COMPANY LIMITED,"18,258,500",1.53%
 1052,YUEXIU TRANSPORT INFRASTRUCTURE LIMITED,"63,730,000",3.80%
 1053,CHONGQING IRON & STEEL COMPANY LIMITED,"91,954,000",17.08%
 1055,CHINA SOUTHERN AIRLINES COMPANY LIMITED,"272,743,105",6.36%
 1057,ZHEJIANG SHIBAO COMPANY LIMITED,"45,573,000",21.02%
 1060,ALIBABA PICTURES GROUP LIMITED,"3,344,388,620",12.46%
 1065,TIANJIN CAPITAL ENVIRONMENTAL PROTECTION GROUP COMPANY LIMITED,"97,184,100",28.58%
 1066,SHANDONG WEIGAO GROUP MEDICAL POLYMER COMPANY LIMITED,"426,233,415",9.41%
 1068,CHINA YURUN FOOD GROUP LIMITED,"18,267,000",1.00%
 1070,TCL ELECTRONICS HOLDINGS LIMITED,"60,735,666",2.56%
 1071,HUADIAN POWER INTERNATIONAL CORPORATION LIMITED,"666,072,683",38.78%
 1072,DONGFANG ELECTRIC CORPORATION LIMITED,"104,882,116",30.84%
 1076,IMPERIAL PACIFIC INTERNATIONAL HOLDINGS LIMITED,"390,980,000",0.27%
 1083,TOWNGAS CHINA COMPANY LIMITED,"17,354,007",0.59%
 1086,GOODBABY INTERNATIONAL HOLDINGS LIMITED,"25,564,000",1.53%
 1088,CHINA SHENHUA ENERGY COMPANY LIMITED,"885,369,153",26.04%
 1089,LEYOU TECHNOLOGIES HOLDINGS LIMITED,"71,230,000",2.31%
 1093,CSPC PHARMACEUTICAL GROUP LIMITED,"295,413,833",4.72%
 1097,I-CABLE COMMUNICATIONS LIMITED,"101,191",0.00%
 1098,ROAD KING INFRASTRUCTURE LIMITED,"10,168,000",1.35%
 1099,SINOPHARM GROUP CO. LTD.,"66,602,915",4.95%
 1108,LUOYANG GLASS COMPANY LIMITED,"93,676,000",37.46%
 1109,CHINA RESOURCES LAND LIMITED,"94,343,768",1.31%
 1111,CHONG HING BANK LIMITED,"1,028,500",0.10%
 1112,HEALTH AND HAPPINESS (H&H) INTERNATIONAL HOLDINGS LIMITED,"42,407,000",6.57%
 1113,CK ASSET HOLDINGS LIMITED,"11,812,595",0.31%
 1114,BRILLIANCE CHINA AUTOMOTIVE HOLDINGS LIMITED,"186,052,401",3.68%
 1115,TIBET WATER RESOURCES LTD.,"161,127,000",6.27%
 1117,CHINA MODERN DAIRY HOLDINGS LTD.,"175,050,000",2.72%
 1119,IDREAMSKY TECHNOLOGY HOLDINGS LIMITED,"27,193,200",2.14%
 1128,"WYNN MACAU, LIMITED","54,646,400",1.04%
 1131,AGRITRADE RESOURCES LIMITED,"557,015,000",8.73%
 1138,"COSCO SHIPPING ENERGY TRANSPORTATION CO., LTD.","208,400,003",16.07%
 1140,OP FINANCIAL LIMITED,"99,592,000",3.43%
 1141,CMBC CAPITAL HOLDINGS LIMITED,"493,550,000",1.03%
 1157,"ZOOMLION HEAVY INDUSTRY SCIENCE AND TECHNOLOGY CO., LTD.","32,896,522",2.36%
 1165,SHUNFENG INTERNATIONAL CLEAN ENERGY LIMITED,"335,674,000",6.73%
 1169,"HAIER ELECTRONICS GROUP CO., LTD.","34,181,382",1.21%
 1171,YANZHOU COAL MINING COMPANY LIMITED,"288,645,736",15.18%
 1176,ZHUGUANG HOLDINGS GROUP COMPANY LIMITED,"204,684,000",2.84%
 1177,SINO BIOPHARMACEUTICAL LIMITED,"1,254,022,462",9.95%
 1186,CHINA RAILWAY CONSTRUCTION CORPORATION LIMITED,"69,750,657",3.35%
 1188,HYBRID KINETIC GROUP LIMITED,"103,476,000",0.50%
 1193,CHINA RESOURCES GAS GROUP LIMITED,"15,949,000",0.68%
 1196,REALORD GROUP HOLDINGS LIMITED,"118,614,000",8.24%
 1199,COSCO SHIPPING PORTS LIMITED,"27,512,965",0.86%
 1205,CITIC RESOURCES HOLDINGS LIMITED,"173,762,100",2.20%
 1208,MMG LIMITED,"333,978,000",4.13%
 1211,BYD COMPANY LIMITED,"62,818,809",6.86%
 1212,LIFESTYLE INTERNATIONAL HOLDINGS LIMITED,"4,020,812",0.26%
 1230,YASHILI INTERNATIONAL HOLDINGS LTD,"78,979,000",1.65%
 1233,TIMES CHINA HOLDINGS LIMITED,"87,613,757",4.51%
 1234,CHINA LILANG LIMITED,"49,589,000",4.14%
 1238,POWERLONG REAL ESTATE HOLDINGS LIMITED,"116,905,000",2.82%
 1250,BEIJING ENTERPRISES CLEAN ENERGY GROUP LIMITED,"1,630,560,000",2.56%
 1253,CHINA GREENLAND BROAD GREENSTATE GROUP COMPANY LIMITED,"6,484,000",0.19%
 1257,CHINA EVERBRIGHT GREENTECH LIMITED,"131,896,000",6.38%
 1268,CHINA MEIDONG AUTO HOLDINGS LIMITED,"42,952,000",3.45%
 1269,CHINA FIRST CAPITAL GROUP LIMITED,"1,180,200,000",23.47%
 1282,GLORY SUN FINANCIAL GROUP LIMITED,"3,935,296,000",12.52%
 1286,IMPRO PRECISION INDUSTRIES LIMITED,"562,000",0.02%
 1288,AGRICULTURAL BANK OF CHINA LIMITED,"8,344,291,435",27.14%
 1293,GRAND BAOXIN AUTO GROUP LIMITED,"145,486,009",5.12%
 1299,AIA GROUP LIMITED,"71,690,979",0.59%
 1302,LIFETECH SCIENTIFIC CORPORATION,"572,310,000",13.23%
 1308,SITC INTERNATIONAL HOLDINGS COMPANY LIMITED,"65,490,000",2.43%
 1310,HKBN LTD.,"4,637,000",0.35%
 1313,CHINA RESOURCES CEMENT HOLDINGS LIMITED,"56,527,915",0.80%
 1315,VISION FAME INTERNATIONAL HOLDING LIMITED,"733,014,000",12.21%
 1316,NEXTEER AUTOMOTIVE GROUP LIMITED,"35,821,000",1.41%
 1317,CHINA MAPLE LEAF EDUCATIONAL SYSTEMS LIMITED,"305,905,230",10.21%
 1330,"DYNAGREEN ENVIRONMENTAL PROTECTION GROUP CO., LTD","131,480,000",32.50%
 1333,CHINA ZHONGWANG HOLDINGS LIMITED,"309,217,600",5.66%
 1336,NEW CHINA LIFE INSURANCE COMPANY LTD.,"321,963,574",31.12%
 1339,"PEOPLE'S INSURANCE COMPANY (GROUP) OF CHINA LIMITED, THE","1,552,882,987",17.78%
 1347,HUA HONG SEMICONDUCTOR LIMITED,"100,149,783",7.75%
 1357,"MEITU, INC.","307,742,100",7.12%
 1359,"CHINA CINDA ASSET MANAGEMENT CO., LTD.","2,092,778,457",15.42%
 1361,361 DEGREES INTERNATIONAL LIMITED,"29,945,000",1.44%
 1363,CT ENVIRONMENTAL GROUP LIMITED,"502,874,000",7.95%
 1368,XTEP INTERNATIONAL HOLDINGS LIMITED,"62,615,115",2.48%
 1375,"CENTRAL CHINA SECURITIES CO., LTD.","262,006,000",21.90%
 1378,CHINA HONGQIAO GROUP LIMITED,"509,533,410",5.93%
 1381,CANVEST ENVIRONMENTAL PROTECTION GROUP COMPANY LIMITED,"27,429,000",1.12%
 1382,PACIFIC TEXTILES HOLDINGS LIMITED,"18,427,000",1.29%
 1383,SUNCITY GROUP HOLDINGS LIMITED,"27,800,000",0.41%
 1387,CHINA DILI GROUP,"155,907,930",2.72%
 1398,INDUSTRIAL AND COMMERCIAL BANK OF CHINA LIMITED,"23,870,091,890",27.49%
 1432,CHINA SHENGMU ORGANIC MILK LIMITED,"163,110,000",2.31%
 1448,FU SHOU YUAN INTERNATIONAL GROUP LIMITED,"239,785,187",10.46%
 1458,ZHOU HEI YA INTERNATIONAL HOLDINGS COMPANY LIMITED,"382,602,000",16.05%
 1478,Q TECHNOLOGY (GROUP) COMPANY LIMITED,"39,841,000",3.39%
 1508,CHINA REINSURANCE (GROUP) CORPORATION,"672,568,000",10.06%
 1513,LIVZON PHARMACEUTICAL GROUP INC.,"36,823,843",11.51%
 1515,CHINA RESOURCES MEDICAL HOLDINGS COMPANY LIMITED,"54,661,100",4.21%
 1521,FRONTAGE HOLDINGS CORPORATION,"199,870,000",9.89%
 1528,RED STAR MACALLINE GROUP CORPORATION LTD.,"108,706,862",16.12%
 1530,3SBIO INC.,"217,551,500",8.56%
 1533,"LANZHOU ZHUANGYUAN PASTURE CO., LTD.","7,763,000",22.09%
 1548,GENSCRIPT BIOTECH CORPORATION,"191,052,000",9.96%
 1551,"GUANGZHOU RURAL COMMERCIAL BANK CO., LTD","2,415,000",0.13%
 1558,"YICHANG HEC CHANGJIANG PHARMACEUTICAL CO., LTD.","59,938,400",28.03%
 1569,MINSHENG EDUCATION GROUP COMPANY LIMITED,"163,147,025",3.86%
 1573,SOUTHERN ENERGY HOLDINGS GROUP LIMITED,"126,862,000",17.66%
 1578,"BANK OF TIANJIN CO., LTD.","34,000",0.00%
 1579,YIHAI INTERNATIONAL HOLDING LTD.,"83,257,245",7.95%
 1583,QINQIN FOODSTUFFS GROUP (CAYMAN) COMPANY LIMITED,"25,600",0.00%
 1585,YADEA GROUP HOLDINGS LTD.,"243,790,000",8.13%
 1589,"CHINA LOGISTICS PROPERTY HOLDINGS CO., LTD","4,395,000",0.13%
 1600,CHINA TIAN LUN GAS HOLDINGS LIMITED,"14,965,000",1.49%
 1606,"CHINA DEVELOPMENT BANK FINANCIAL LEASING CO., LTD.","316,000",0.01%
 1608,VPOWER GROUP INTERNATIONAL HOLDINGS LIMITED,"1,514,000",0.05%
 1610,COFCO MEAT HOLDINGS LIMITED,"312,769,000",8.01%
 1618,METALLURGICAL CORPORATION OF CHINA LTD.,"422,100,000",14.69%
 1622,REDCO PROPERTIES GROUP LIMITED,"212,526,000",5.98%
 1628,YUZHOU PROPERTIES COMPANY LIMITED,"66,070,024",1.26%
 1635,"SHANGHAI DAZHONG PUBLIC UTILITIES (GROUP) CO., LTD.","67,127,000",12.57%
 1636,CHINA METAL RESOURCES UTILIZATION LIMITED,"34,624,000",1.31%
 1638,KAISA GROUP HOLDINGS LTD.,"395,269,619",6.46%
 1658,"POSTAL SAVINGS BANK OF CHINA CO., LTD.","235,719,141",1.18%
 1661,WISDOM SPORTS GROUP,"6,425,000",0.40%
 1666,TONG REN TANG TECHNOLOGIES CO LTD,"178,713,200",28.42%
 1668,CHINA SOUTH CITY HOLDINGS LIMITED,"722,244,396",8.91%
 1680,MACAU LEGEND DEVELOPMENT LIMITED,"129,261,000",2.07%
 1681,CONSUN PHARMACEUTICAL GROUP LIMITED,"27,304,000",3.23%
 1685,BOER POWER HOLDINGS LIMITED,"2,240,000",0.28%
 1686,SUNEVISION HOLDINGS LIMITED,"2,550,000",0.10%
 1691,JS GLOBAL LIFESTYLE COMPANY LIMITED,"1,849,500",0.04%
 1717,AUSNUTRIA DAIRY CORPORATION LTD,"103,127,000",6.37%
 1728,CHINA ZHENGTONG AUTO SERVICES HOLDINGS LIMITED,"223,922,000",9.12%
 1761,BABYTREE GROUP,"6,105,500",0.36%
 1765,"HOPE EDUCATION GROUP CO., LTD.","541,530,580",8.06%
 1766,CRRC CORPORATION LIMITED,"327,940,570",7.49%
 1772,"GANFENG LITHIUM CO., LTD.","107,144,055",53.52%
 1776,"GF SECURITIES CO., LTD.","477,736,500",28.07%
 1777,"FANTASIA HOLDINGS GROUP CO., LIMITED","388,268,500",6.73%
 1778,"COLOUR LIFE SERVICES GROUP CO., LIMITED","72,219,000",5.07%
 1787,"SHANDONG GOLD MINING CO., LTD.","153,435,711",30.70%
 1788,GUOTAI JUNAN INTERNATIONAL HOLDINGS LIMITED,"240,125,110",2.49%
 1789,AK MEDICAL HOLDINGS LIMITED,"79,488,000",7.14%
 1797,KOOLEARN TECHNOLOGY HOLDING LIMITED,"120,773,220",12.85%
 1800,CHINA COMMUNICATIONS CONSTRUCTION COMPANY LIMITED,"411,335,000",9.28%
 1806,HUIFU PAYMENT LIMITED,"31,310,000",2.42%
 1810,XIAOMI CORPORATION,"1,551,856,837",6.44%
 1811,"CGN NEW ENERGY HOLDINGS CO., LTD.","43,318,000",1.00%
 1812,SHANDONG CHENMING PAPER HOLDINGS LIMITED,"97,491,450",18.45%
 1813,KWG GROUP HOLDINGS LIMITED,"198,897,540",6.25%
 1816,"CGN POWER CO., LTD","2,352,858,000",21.06%
 1818,ZHAOJIN MINING INDUSTRY COMPANY LIMITED,"120,720,372",11.50%
 1829,CHINA MACHINERY ENGINEERING CORPORATION,"141,000",0.01%
 1833,PING AN HEALTHCARE AND TECHNOLOGY COMPANY LIMITED,"95,457,900",8.94%
 1836,STELLA INTERNATIONAL HOLDINGS LIMITED,"329,500",0.04%
 1848,CHINA AIRCRAFT LEASING GROUP HOLDINGS LIMITED,"8,561,549",1.21%
 1860,MOBVISTA INC.,"19,230,000",1.25%
 1873,VIVA BIOTECH HOLDINGS,"193,938,500",11.70%
 1876,BUDWEISER BREWING COMPANY APAC LIMITED,"17,846,900",0.12%
 1882,HAITIAN INTERNATIONAL HOLDINGS LIMITED,"23,389,000",1.46%
 1883,CITIC TELECOM INTERNATIONAL HOLDINGS LIMITED,"35,752,000",0.97%
 1886,CHINA HUIYUAN JUICE GROUP LIMITED,"125,355,500",4.69%
 1888,KINGBOARD LAMINATES HOLDINGS LIMITED,"11,810,095",0.38%
 1890,CHINA KEPEI EDUCATION GROUP LIMITED,"137,119,275",6.85%
 1896,MAOYAN ENTERTAINMENT,"31,549,600",2.78%
 1898,CHINA COAL ENERGY COMPANY LIMITED,"366,237,000",8.91%
 1905,"HAITONG UNITRUST INTERNATIONAL LEASING CO., LTD.","39,024,000",0.67%
 1907,CHINA RISUN GROUP LIMITED,"17,369,000",0.42%
 1908,C&D INTERNATIONAL INVESTMENT GROUP LIMITED,"83,558,000",7.10%
 1911,CHINA RENAISSANCE HOLDINGS LIMITED,"9,617,100",1.80%
 1916,"JIANGXI BANK CO., LTD.","10,789,000",0.80%
 1918,SUNAC CHINA HOLDINGS LIMITED,"822,569,582",17.67%
 1919,"COSCO SHIPPING HOLDINGS CO., LTD.","296,789,000",11.49%
 1928,SANDS CHINA LTD.,"57,413,693",0.70%
 1929,CHOW TAI FOOK JEWELLERY GROUP LIMITED,"53,417,400",0.53%
 1951,JINXIN FERTILITY GROUP LIMITED,"206,763,600",8.50%
 1958,BAIC MOTOR CORPORATION LIMITED,"79,889,500",3.16%
 1963,"BANK OF CHONGQING CO., LTD.","117,354,500",7.43%
 1966,CHINA SCE GROUP HOLDINGS LIMITED,"155,244,054",3.71%
 1970,"IMAX CHINA HOLDING, INC.","4,660,300",1.33%
 1972,SWIRE PROPERTIES LIMITED,"2,757,200",0.04%
 1980,TIAN GE INTERACTIVE HOLDINGS LIMITED,"26,926,000",2.11%
 1988,"CHINA MINSHENG BANKING CORP., LTD.","790,810,349",9.50%
 1992,FOSUN TOURISM GROUP,"983,200",0.07%
 1996,REDSUN PROPERTIES GROUP LIMITED,"64,562,000",1.94%
 1997,WHARF REAL ESTATE INVESTMENT COMPANY LIMITED,"4,205,958",0.13%
 1999,MAN WAH HOLDINGS LIMITED,"580,974,128",15.28%
 2001,CHINA NEW HIGHER EDUCATION GROUP LIMITED,"163,914,621",10.63%
 2003,VCREDIT HOLDINGS LIMITED,"2,151,800",0.43%
 2005,SSY GROUP LIMITED,"281,708,059",9.28%
 2007,COUNTRY GARDEN HOLDINGS COMPANY LIMITED,"243,918,541",1.11%
 2008,PHOENIX MEDIA INVESTMENT (HOLDINGS) LIMITED,"208,276,000",4.17%
 2009,BBMG CORPORATION,"267,858,500",11.44%
 2013,WEIMOB INC.,"453,594,153",20.26%
 2016,"CHINA ZHESHANG BANK CO., LTD.","2,878,000",0.06%
 2018,AAC TECHNOLOGIES HOLDINGS INC.,"75,900,541",6.27%
 2019,DEXIN CHINA HOLDINGS COMPANY LIMITED,"19,408,000",0.71%
 2020,ANTA SPORTS PRODUCTS LIMITED,"190,693,049",7.04%
 2038,FIH MOBILE LIMITED,"101,997,000",1.23%
 2039,"CHINA INTERNATIONAL MARINE CONTAINERS (GROUP) CO., LTD.","191,632,400",9.30%
 2048,E-HOUSE (CHINA) ENTERPRISE HOLDINGS LIMITED,"34,800",0.00%
 2051,51 CREDIT CARD INC.,"55,892,000",4.69%
 2066,"SHENGJING BANK CO., LTD.","241,500",0.01%
 2068,CHINA ALUMINUM INTERNATIONAL ENGINEERING CORPORATION LIMITED,"12,777,000",3.19%
 2098,ZALL SMART COMMERCE GROUP LTD.,"31,698,000",0.26%
 2099,CHINA GOLD INTERNATIONAL RESOURCES CORP. LTD.,"15,535,000",3.91%
 2103,SINIC HOLDINGS (GROUP) COMPANY LIMITED,"1,376,000",0.03%
 2111,BEST PACIFIC INTERNATIONAL HOLDINGS LIMITED,"1,566,000",0.15%
 2128,CHINA LESSO GROUP HOLDINGS LIMITED,"30,806,000",0.99%
 2136,LIFESTYLE CHINA GROUP LIMITED,"284,000",0.01%
 2186,LUYE PHARMA GROUP LTD.,"471,533,000",14.51%
 2196,"SHANGHAI FOSUN PHARMACEUTICAL (GROUP) CO., LTD.","202,689,298",36.72%
 2199,REGINA MIRACLE INTERNATIONAL (HOLDINGS) LIMITED,"2,929,000",0.23%
 2202,"CHINA VANKE CO., LTD.","203,790,290",10.76%
 2208,"XINJIANG GOLDWIND SCIENCE & TECHNOLOGY CO., LTD.","82,173,551",10.62%
 2232,CRYSTAL INTERNATIONAL GROUP LIMITED,"3,777,000",0.13%
 2233,WEST CHINA CEMENT LIMITED,"421,858,000",7.75%
 2238,"GUANGZHOU AUTOMOBILE GROUP CO., LTD.","1,006,158,006",32.46%
 2255,HAICHANG OCEAN PARK HOLDINGS LTD.,"107,098,000",2.67%
 2269,WUXI BIOLOGICS (CAYMAN) INC.,"97,858,969",7.50%
 2280,HC GROUP INC.,"108,114,500",8.18%
 2282,MGM CHINA HOLDINGS LIMITED,"26,392,296",0.69%
 2298,COSMO LADY (CHINA) HOLDINGS COMPANY LIMITED,"11,631,000",0.50%
 2313,SHENZHOU INTERNATIONAL GROUP HOLDINGS LIMITED,"58,658,198",3.89%
 2314,LEE & MAN PAPER MANUFACTURING LIMITED,"26,205,825",0.60%
 2318,"PING AN INSURANCE (GROUP) COMPANY OF CHINA, LTD.","107,065,365",1.43%
 2319,CHINA MENGNIU DAIRY COMPANY LIMITED,"66,641,377",1.68%
 2326,NEW PROVENANCE EVERLASTING HOLDINGS LIMITED,"55,960,000",0.25%
 2328,PICC PROPERTY AND CASUALTY COMPANY LIMITED,"578,366,641",8.37%
 2329,GUORUI PROPERTIES LIMITED,"149,735,000",3.36%
 2331,LI NING COMPANY LIMITED,"138,979,325",5.61%
 2333,GREAT WALL MOTOR COMPANY LIMITED,"919,240,033",29.65%
 2338,"WEICHAI POWER CO., LTD.","101,050,000",5.20%
 2343,PACIFIC BASIN SHIPPING LIMITED,"7,223,000",0.15%
 2356,DAH SING BANKING GROUP LIMITED,"200,000",0.01%
 2357,AVICHINA INDUSTRY & TECHNOLOGY COMPANY LIMITED,"359,363,000",5.78%
 2359,"WUXI APPTEC CO., LTD.","15,876,838",6.64%
 2362,JINCHUAN GROUP INTERNATIONAL RESOURCES CO. LTD.,"100,305,000",0.79%
 2363,TONGDA HONG TAI HOLDINGS LIMITED,"377,462",0.19%
 2369,COOLPAD GROUP LIMITED,"46,260,000",0.79%
 2380,CHINA POWER INTERNATIONAL DEVELOPMENT LIMITED,"607,847,106",6.19%
 2382,SUNNY OPTICAL TECHNOLOGY (GROUP) COMPANY LIMITED,"85,662,308",7.80%
 2386,"SINOPEC ENGINEERING (GROUP) CO., LTD.","29,864,000",2.03%
 2388,BOC HONG KONG (HOLDINGS) LIMITED,"13,376,945",0.12%
 2400,XD INC.,"32,495,361",7.59%
 2588,BOC AVIATION LIMITED,"15,857,783",2.27%
 2600,ALUMINUM CORPORATION OF CHINA LIMITED,"276,348,000",7.00%
 2601,CHINA PACIFIC INSURANCE (GROUP) CO. LTD.,"696,309,947",25.08%
 2607,"SHANGHAI PHARMACEUTICALS HOLDING CO., LTD.","112,333,466",12.21%
 2611,"GUOTAI JUNAN SECURITIES CO., LTD.","82,808,200",5.94%
 2628,CHINA LIFE INSURANCE COMPANY LIMITED,"225,934,593",3.03%
 2662,CAMSING INTERNATIONAL HOLDING LIMITED,"132,096,000",12.26%
 2666,GENERTEC UNIVERSAL MEDICAL GROUP COMPANY LIMITED,"341,124,000",19.87%
 2669,CHINA OVERSEAS PROPERTY HOLDINGS LIMITED,"284,046,090",8.64%
 2678,TEXHONG TEXTILE GROUP LIMITED,"30,828,500",3.36%
 2688,ENN ENERGY HOLDINGS LIMITED,"17,702,090",1.56%
 2689,NINE DRAGONS PAPER (HOLDINGS) LIMITED,"59,301,000",1.25%
 2727,SHANGHAI ELECTRIC GROUP COMPANY LIMITED,"808,503,000",27.19%
 2768,JIAYUAN INTERNATIONAL GROUP LIMITED,"339,087,374",8.59%
 2772,ZHONGLIANG HOLDINGS GROUP COMPANY LIMITED,"17,692,500",0.49%
 2777,"GUANGZHOU R&F PROPERTIES CO., LTD.","88,185,423",6.83%
 2799,"CHINA HUARONG ASSET MANAGEMENT CO., LTD.","2,221,747,000",8.86%
 2858,YIXIN GROUP LIMITED,"52,856,000",0.82%
 2866,"COSCO SHIPPING DEVELOPMENT CO., LTD.","560,723,000",15.25%
 2869,GREENTOWN SERVICE GROUP CO. LTD.,"276,908,899",8.60%
 2877,CHINA SHINEWAY PHARMACEUTICAL GROUP LIMITED,"21,854,000",2.63%
 2880,DALIAN PORT (PDA) COMPANY LIMITED,"923,955,000",17.90%
 2883,CHINA OILFIELD SERVICES LIMITED,"178,917,627",9.87%
 2888,STANDARD CHARTERED PLC,"398,620",0.01%
 2899,"ZIJIN MINING GROUP CO., LTD.","1,341,508,000",23.37%
 2909,NEW WORLD DEVELOPMENT CO LTD - TEMPORARY COUNTER,"8,983,881",0.35%
 3301,RONSHINE CHINA HOLDINGS LIMITED,"128,177,500",7.50%
 3306,JNBY DESIGN LIMITED,"24,202,000",4.66%
 3308,GOLDEN EAGLE RETAIL GROUP LIMITED,"107,909,000",6.43%
 3309,C-MER EYE CARE HOLDINGS LIMITED,"45,352,000",4.21%
 3311,CHINA STATE CONSTRUCTION INTERNATIONAL HOLDINGS LIMITED,"23,328,192",0.45%
 3319,"A-LIVING SERVICES CO., LTD.","17,434,500",4.02%
 3320,CHINA RESOURCES PHARMACEUTICAL GROUP LIMITED,"139,426,000",2.21%
 3323,CHINA NATIONAL BUILDING MATERIAL COMPANY LIMITED,"919,535,064",23.76%
 3328,"BANK OF COMMUNICATIONS CO., LTD.","731,763,944",2.08%
 3329,BOCOM INTERNATIONAL HOLDINGS COMPANY LIMITED,"16,573,000",0.60%
 3331,VINDA INTERNATIONAL HOLDINGS LIMITED,"10,193,000",0.84%
 3333,CHINA EVERGRANDE GROUP,"176,893,355",1.34%
 3339,LONKING HOLDINGS LIMITED,"21,955,000",0.51%
 3360,FAR EAST HORIZON LIMITED,"121,438,000",3.05%
 3368,PARKSON RETAIL GROUP LIMITED,"5,669,500",0.21%
 3369,"QINHUANGDAO PORT CO., LTD.","74,484,500",8.96%
 3377,SINO-OCEAN GROUP HOLDING LIMITED,"149,926,310",1.96%
 3380,LOGAN GROUP COMPANY LIMITED,"161,330,871",2.91%
 3382,TIANJIN PORT DEVELOPMENT HOLDINGS LIMITED,"210,896,000",3.42%
 3383,AGILE GROUP HOLDINGS LIMITED,"41,013,548",1.04%
 3389,HENGDELI HOLDINGS LIMITED,"876,000",0.01%
 3393,WASION HOLDINGS LIMITED,"1,326,000",0.13%
 3396,LEGEND HOLDINGS CORPORATION,"64,948,800",5.09%
 3606,"FUYAO GLASS INDUSTRY GROUP CO., LTD","59,651,200",11.79%
 3613,BEIJING TONG REN TANG CHINESE MEDICINE COMPANY LIMITED,"83,235,000",9.94%
 3618,"CHONGQING RURAL COMMERCIAL BANK CO., LTD.","619,560,000",24.64%
 3633,ZHONGYU GAS HOLDINGS LIMITED,"16,045,000",0.60%
 3669,CHINA YONGDA AUTOMOBILES SERVICES HOLDINGS LIMITED,"101,441,000",5.15%
 3690,MEITUAN DIANPING,"259,909,208",4.43%
 3692,HANSOH PHARMACEUTICAL GROUP COMPANY LIMITED,"43,541,000",0.73%
 3698,HUISHANG BANK CORPORATION LIMITED,"4,770,800",0.12%
 3759,"PHARMARON BEIJING CO., LTD.","14,882,100",11.10%
 3788,CHINA HANKING HOLDINGS LIMITED,"16,439,000",0.90%
 3799,DALI FOODS GROUP COMPANY LIMITED,"401,500,000",2.92%
 3800,GCL-POLY ENERGY HOLDINGS LIMITED,"2,493,038,900",11.78%
 3808,SINOTRUK (HONG KONG) LIMITED,"141,484,866",5.12%
 3813,POU SHENG INTERNATIONAL (HOLDINGS) LIMITED,"6,092,000",0.11%
 3818,"CHINA DONGXIANG (GROUP) CO., LTD.","261,488,000",4.44%
 3836,CHINA HARMONY NEW ENERGY AUTO HOLDING LIMITED,"63,733,500",4.04%
 3866,"BANK OF QINGDAO CO., LTD.","769,000",0.04%
 3868,XINYI ENERGY HOLDINGS LIMITED,"12,020,000",0.17%
 3877,CSSC (HONG KONG) SHIPPING COMPANY LIMITED,"3,884,000",0.06%
 3883,CHINA AOYUAN GROUP LIMITED,"182,763,000",6.75%
 3886,TOWN HEALTH INTERNATIONAL MEDICAL GROUP LIMITED,"145,736,000",1.92%
 3888,KINGSOFT CORPORATION LIMITED,"346,935,991",25.26%
 3898,"ZHUZHOU CRRC TIMES ELECTRIC CO., LTD.","23,345,406",4.26%
 3899,CIMC ENRIC HOLDINGS LIMITED,"134,810,000",6.70%
 3900,GREENTOWN CHINA HOLDINGS LIMITED,"340,884,000",13.66%
 3908,CHINA INTERNATIONAL CAPITAL CORPORATION LIMITED,"266,441,281",13.98%
 3933,"UNITED LABORATORIES INTERNATIONAL HOLDINGS LIMITED, THE","151,318,181",8.34%
 3958,DFZQ,"386,002,739",37.57%
 3968,"CHINA MERCHANTS BANK CO., LTD.","176,582,091",3.84%
 3969,CHINA RAILWAY SIGNAL & COMMUNICATION CORPORATION LIMITED,"110,407,000",5.60%
 3988,BANK OF CHINA LIMITED,"8,263,110,858",9.88%
 3990,MIDEA REAL ESTATE HOLDING LIMITED,"36,998,600",3.00%
 3993,"CHINA MOLYBDENUM CO., LTD.","369,554,500",9.39%
 3996,CHINA ENERGY ENGINEERING CORPORATION LIMITED,"11,080,000",0.11%
 3998,BOSIDENG INTERNATIONAL HOLDINGS LIMITED,"686,234,000",6.38%
 6030,CITIC SECURITIES COMPANY LIMITED,"260,285,075",11.41%
 6049,"POLY PROPERTY DEVELOPMENT CO., LTD.","34,175,400",22.28%
 6055,CHINA TOBACCO INTERNATIONAL (HK) COMPANY LIMITED,"24,152,000",3.49%
 6060,"ZHONGAN ONLINE P & C INSURANCE CO., LTD.","23,354,400",4.96%
 6066,"CSC FINANCIAL CO., LTD.","298,089,000",23.63%
 6068,WISDOM EDUCATION INTERNATIONAL HOLDINGS COMPANY LIMITED,"101,872,000",4.97%
 6069,SHENG YE CAPITAL LIMITED,"7,766,000",0.88%
 6088,FIT HON TENG LIMITED,"246,979,000",3.58%
 6098,COUNTRY GARDEN SERVICES HOLDINGS COMPANY LIMITED,"191,432,423",6.94%
 6099,"CHINA MERCHANTS SECURITIES CO., LTD.","154,500,600",15.75%
 6100,"WISE TALENT INFORMATION TECHNOLOGY CO., LTD","85,600",0.01%
 6110,TOPSPORTS INTERNATIONAL HOLDINGS LIMITED,"21,029,000",0.32%
 6116,"SHANGHAI LA CHAPELLE FASHION CO., LTD.","70,072,400",32.62%
 6158,ZHENRO PROPERTIES GROUP LIMITED,"62,841,000",1.42%
 6166,CHINA VAST INDUSTRIAL URBAN DEVELOPMENT COMPANY LIMITED,"49,036,000",2.96%
 6169,CHINA YUHUA EDUCATION CORPORATION LIMITED,"543,903,614",16.28%
 6178,EVERBRIGHT SECURITIES COMPANY LIMITED,"105,529,600",14.97%
 6186,CHINA FEIHE LIMITED,"863,198,618",9.66%
 6196,"BANK OF ZHENGZHOU CO., LTD.","242,163,500",
 6198,"QINGDAO PORT INTERNATIONAL CO., LTD.","10,963,000",0.98%
 6806,"SHENWAN HONGYUAN GROUP CO., LTD.","103,974,400",4.15%
 6808,SUN ART RETAIL GROUP LIMITED,"61,036,523",0.63%
 6818,CHINA EVERBRIGHT BANK COMPANY LIMITED,"830,331,992",6.54%
 6828,BEIJING GAS BLUE SKY HOLDINGS LIMITED,"254,288,000",1.95%
 6837,"HAITONG SECURITIES CO., LTD.","692,629,800",20.30%
 6862,HAIDILAO INTERNATIONAL HOLDING LTD.,"140,682,526",2.65%
 6865,"FLAT GLASS GROUP CO., LTD.","201,680,000",44.80%
 6869,YANGTZE OPTICAL FIBRE AND CABLE JOINT STOCK LIMITED COMPANY,"20,648,000",5.86%
 6881,"CHINA GALAXY SECURITIES CO., LTD.","864,712,382",23.42%
 6886,"HUATAI SECURITIES CO., LTD.","430,759,609",25.04%
 8328,XINYI AUTOMOBILE GLASS HONG KONG ENTERPRISES LIMITED,"109,750",0.01%
 9928,TIMES NEIGHBORHOOD HOLDINGS LIMITED,"7,761,017",0.84%
