Stock Code,Stock Name,Shareholding in CCASS,Percentage of the total number of Issued Shares
    1,CK HUTCHISON HOLDINGS LIMITED,"28,149,919",0.72%
    2,CLP HOLDINGS LIMITED,"5,799,992",0.22%
    3,"HONG KONG AND CHINA GAS COMPANY LIMITED, THE","25,128,900",0.13%
    4,"WHARF (HOLDINGS) LIMITED, THE","9,198,450",0.29%
    5,HSBC HOLDINGS PLC,"1,853,810,070",8.95%
    6,POWER ASSETS HOLDINGS LIMITED,"4,277,422",0.19%
    8,PCCW LIMITED,"12,002,837",0.14%
   10,HANG LUNG GROUP LIMITED,"29,530,000",2.16%
   11,HANG SENG BANK LTD,"2,883,797",0.14%
   12,HENDERSON LAND DEVELOPMENT CO LTD,"4,219,636",0.08%
   14,HYSAN DEVELOPMENT COMPANY LIMITED,"1,073,000",0.09%
   16,SUN HUNG KAI PROPERTIES LIMITED,"7,776,904",0.26%
   17,NEW WORLD DEVELOPMENT CO LTD,"10,822,631",0.41%
   19,SWIRE PACIFIC LTD 'A',"3,430,000",0.37%
   23,BANK OF EAST ASIA LTD,"927,193",0.02%
   27,GALAXY ENTERTAINMENT GROUP LIMITED,"57,178,768",1.30%
   35,FAR EAST CONSORTIUM INTERNATIONAL LTD,"349,013",0.01%
   38,FIRST TRACTOR COMPANY LIMITED,"122,462,100",31.23%
   41,GREAT EAGLE HOLDINGS LIMITED,"1,638,511",0.22%
   42,NORTHEAST ELECTRIC DEVELOPMENT COMPANY LIMITED,"15,812,000",6.12%
   43,C.P. POKPHAND CO LTD,"840,000",0.00%
   45,"HONGKONG AND SHANGHAI HOTELS LTD,THE","42,013",0.00%
   59,SKYFAME REALTY (HOLDINGS) LIMITED,"63,852,000",0.80%
   66,MTR CORPORATION LIMITED,"6,302,668",0.09%
   69,SHANGRI-LA ASIA LIMITED,"19,680,000",0.54%
   78,REGAL HOTELS INTERNATIONAL HOLDINGS LIMITED,"12,000",0.00%
   81,CHINA OVERSEAS GRAND OCEANS GROUP LIMITED,"334,884,820",9.77%
   83,SINO LAND CO.LTD.,"3,909,976",0.05%
   86,SUN HUNG KAI & CO.LTD,"14,985,000",0.74%
   87,SWIRE PACIFIC LTD 'B',"29,607,500",0.98%
   95,LVGEM (CHINA) REAL ESTATE INVESTMENT COMPANY LIMITED,"184,162,000",3.61%
  101,HANG LUNG PROPERTIES LIMITED,"83,663,949",1.85%
  107,SICHUAN EXPRESSWAY COMPANY LIMITED,"228,508,000",25.51%
  109,GOOD RESOURCES HOLDINGS LIMITED,"44,440,000",0.62%
  116,CHOW SANG SANG HOLDINGS INTERNATIONAL LIMITED,"22,624,000",3.33%
  119,"POLY PROPERTY GROUP CO., LIMITED","396,602,748",10.82%
  120,COSMOPOLITAN INTERNATIONAL HOLDINGS LTD,"3,252,000",0.05%
  123,YUEXIU PROPERTY COMPANY LIMITED,"378,204,786",2.44%
  127,CHINESE ESTATES HOLDINGS LIMITED,"2,751,500",0.14%
  135,KUNLUN ENERGY COMPANY LIMITED,"109,747,534",1.25%
  136,HENGTEN NETWORKS GROUP LIMITED,"6,845,092,000",8.46%
  142,FIRST PACIFIC CO. LTD.,"8,296,000",0.18%
  144,CHINA MERCHANTS PORT HOLDINGS COMPANY LIMITED,"151,958,683",4.21%
  148,KINGBOARD HOLDINGS LIMITED,"14,791,636",1.32%
  151,WANT WANT CHINA HOLDINGS LIMITED,"23,288,871",0.18%
  152,SHENZHEN INTERNATIONAL HOLDINGS LIMITED,"75,807,453",3.44%
  163,EMPEROR INTERNATIONAL HOLDINGS LIMITED,"10,804,000",0.29%
  165,CHINA EVERBRIGHT LIMITED,"221,761,955",13.15%
  168,TSINGTAO BREWERY COMPANY LIMITED,"94,615,000",14.44%
  173,K. WAH INTERNATIONAL HOLDINGS LIMITED,"39,456,196",1.26%
  175,GEELY AUTOMOBILE HOLDINGS LIMITED,"866,957,940",8.83%
  177,JIANGSU EXPRESSWAY COMPANY LIMITED,"133,364,818",10.90%
  178,SA SA INTERNATIONAL HOLDINGS LIMITED,"14,983,268",0.47%
  179,JOHNSON ELECTRIC HOLDINGS LIMITED,"503,500",0.04%
  187,BEIJING JINGCHENG MACHINERY ELECTRIC COMPANY LIMITED,"27,052,000",27.05%
  189,DONGYUE GROUP LIMITED,"167,708,358",7.94%
  198,SMI HOLDINGS GROUP LIMITED,"70,340,800",2.59%
  200,MELCO INTERNATIONAL DEVELOPMENT LIMITED,"12,315,000",0.81%
  207,JOY CITY PROPERTY LIMITED,"4,364,000",0.03%
  215,HUTCHISON TELECOMMUNICATIONS HONG KONG HOLDINGS LIMITED,"12,376,000",0.25%
  220,UNI-PRESIDENT CHINA HOLDINGS LTD.,"8,997,000",0.20%
  241,ALIBABA HEALTH INFORMATION TECHNOLOGY LIMITED,"255,107,523",1.89%
  242,SHUN TAK HOLDINGS LIMITED,"92,206,000",3.04%
  245,CHINA VERED FINANCIAL HOLDING CORPORATION LIMITED,"25,120,000",0.06%
  256,CITYCHAMP WATCH & JEWELLERY GROUP LIMITED,"370,748,000",8.51%
  257,CHINA EVERBRIGHT ENVIRONMENT GROUP LIMITED,"555,684,021",9.03%
  267,CITIC LIMITED,"172,841,916",0.59%
  268,KINGDEE INTERNATIONAL SOFTWARE GROUP COMPANY LIMITED,"597,207,786",17.23%
  270,GUANGDONG INVESTMENT LIMITED,"36,388,905",0.54%
  272,SHUI ON LAND LIMITED,"790,818,500",9.80%
  279,FREEMAN FINTECH CORPORATION LIMITED,"612,286,000",32.77%
  285,BYD ELECTRONIC (INTERNATIONAL) COMPANY LIMITED,"178,510,387",7.91%
  288,WH GROUP LIMITED,"1,301,533,361",8.82%
  291,CHINA RESOURCES BEER (HOLDINGS) COMPANY LIMITED,"327,455,887",10.08%
  293,CATHAY PACIFIC AIRWAYS LTD,"24,460,299",0.37%
  295,KONG SUN HOLDINGS LIMITED,"52,325,000",0.34%
  297,SINOFERT HOLDINGS LIMITED,"368,498,000",5.24%
  302,CMGE TECHNOLOGY GROUP LIMITED,"178,866,000",7.67%
  303,VTECH HOLDINGS LIMITED,"1,463,401",0.57%
  308,CHINA TRAVEL INTERNATIONAL INVESTMENT HONG KONG LIMITED,"174,066,439",3.13%
  315,SMARTONE TELECOMMUNICATIONS HOLDINGS LIMITED,"1,696,108",0.14%
  316,ORIENT OVERSEAS (INTERNATIONAL) LIMITED,"8,500",0.00%
  317,CSSC OFFSHORE & MARINE ENGINEERING (GROUP) COMPANY LIMITED,"25,433,900",4.29%
  321,TEXWINCA HOLDINGS LIMITED,"1,004,000",0.07%
  322,TINGYI (CAYMAN ISLANDS) HOLDING CORP.,"21,776,708",0.37%
  323,MAANSHAN IRON & STEEL COMPANY LIMITED,"11,672,000",0.66%
  327,PAX GLOBAL TECHNOLOGY LIMITED,"6,321,000",0.58%
  330,ESPRIT HOLDINGS LIMITED,"11,002,800",0.57%
  336,HUABAO INTERNATIONAL HOLDINGS LIMITED,"420,158,100",13.51%
  337,GREENLAND HONG KONG HOLDINGS LIMITED,"114,046,000",4.08%
  338,SINOPEC SHANGHAI PETROCHEMICAL COMPANY LIMITED,"464,227,339",13.27%
  341,CAFE DE CORAL HOLDINGS LTD,"5,478,000",0.93%
  345,VITASOY INTERNATIONAL HOLDINGS LTD,"7,238,011",0.67%
  347,ANGANG STEEL COMPANY LIMITED,"18,539,200",1.31%
  354,CHINASOFT INTERNATIONAL LIMITED,"319,742,542",11.73%
  358,JIANGXI COPPER COMPANY LIMITED,"85,287,219",6.13%
  363,SHANGHAI INDUSTRIAL HOLDINGS LIMITED,"28,216,500",2.59%
  371,BEIJING ENTERPRISES WATER GROUP LIMITED,"270,628,010",2.69%
  378,FDG KINETIC LIMITED,"183,680,000",2.71%
  384,CHINA GAS HOLDINGS LIMITED,"44,423,043",0.84%
  386,CHINA PETROLEUM & CHEMICAL CORPORATION,"1,578,341,621",6.17%
  388,HONG KONG EXCHANGES AND CLEARING LIMITED,"55,788,792",4.39%
  390,CHINA RAILWAY GROUP LIMITED,"298,519,030",7.09%
  392,BEIJING ENTERPRISES HOLDINGS LIMITED,"87,225,982",6.90%
  400,COGOBUY GROUP,"50,334,000",3.54%
  410,SOHO CHINA LIMITED,"482,881,000",9.28%
  412,CHINA SHANDONG HI-SPEED FINANCIAL GROUP LIMITED,"9,888,000",0.04%
  419,HUAYI TENCENT ENTERTAINMENT COMPANY LIMITED,"165,140,000",1.22%
  425,MINTH GROUP LIMITED,"39,659,886",3.42%
  432,PACIFIC CENTURY PREMIUM DEVELOPMENTS LIMITED,"533,978",0.02%
  439,KUANGCHI SCIENCE LIMITED,"268,740,000",4.36%
  440,DAH SING FINANCIAL HOLDINGS LTD,"2,948,066",0.91%
  451,GCL NEW ENERGY HOLDINGS LIMITED,"1,327,732,000",6.96%
  460,SIHUAN PHARMACEUTICAL HOLDINGS GROUP LTD.,"533,387,000",5.63%
  467,UNITED ENERGY GROUP LIMITED,"233,228,000",0.88%
  468,GREATVIEW ASEPTIC PACKAGING COMPANY LIMITED,"6,770,000",0.50%
  480,HKR INTERNATIONAL LTD,"62,800",0.00%
  488,LAI SUN DEVELOPMENT COMPANY LIMITED,"30,000",0.00%
  489,DONGFENG MOTOR GROUP COMPANY LIMITED,"214,272,000",7.49%
  493,GOME RETAIL HOLDINGS LIMITED,"2,517,172,000",11.66%
  496,KASEN INTERNATIONAL HOLDINGS LIMITED,"136,631,000",9.14%
  506,CHINA FOODS LIMITED,"36,238,100",1.29%
  508,DINGYI GROUP INVESTMENT LIMITED,"380,225,000",5.16%
  511,TELEVISION BROADCASTS LIMITED,"454,000",0.09%
  512,CHINA GRAND PHARMACEUTICAL AND HEALTHCARE HOLDINGS LIMITED,"122,131,200",3.44%
  517,"COSCO SHIPPING INTERNATIONAL (HONG KONG) CO., LTD.","420,000",0.02%
  520,"XIABUXIABU CATERING MANAGEMENT (CHINA) HOLDINGS CO., LTD.","133,318,500",12.32%
  522,ASM PACIFIC TECHNOLOGY LIMITED,"13,328,525",3.25%
  525,GUANGSHEN RAILWAY COMPANY LIMITED,"390,772,010",27.29%
  530,GOLDIN FINANCIAL HOLDINGS LIMITED,"2,444,000",0.03%
  535,GEMDALE PROPERTIES AND INVESTMENT CORPORATION LIMITED,"2,013,340,154",12.19%
  546,FUFENG GROUP LIMITED,"76,736,119",3.02%
  547,DIGITAL DOMAIN HOLDINGS LIMITED,"1,017,020,000",2.98%
  548,SHENZHEN EXPRESSWAY COMPANY LIMITED,"118,436,000",15.83%
  551,YUE YUEN INDUSTRIAL (HOLDINGS) LIMITED,"5,631,793",0.34%
  552,CHINA COMMUNICATIONS SERVICES CORPORATION LIMITED,"35,592,000",1.48%
  553,NANJING PANDA ELECTRONICS COMPANY LIMITED,"61,548,000",25.42%
  563,SHANGHAI INDUSTRIAL URBAN DEVELOPMENT GROUP LIMITED,"114,822,755",2.37%
  564,ZHENGZHOU COAL MINING MACHINERY GROUP COMPANY LIMITED,"39,673,204",16.30%
  568,SHANDONG MOLONG PETROLEUM MACHINERY COMPANY LIMITED,"61,101,200",23.85%
  570,CHINA TRADITIONAL CHINESE MEDICINE HOLDINGS CO LIMITED,"659,896,938",13.09%
  576,"ZHEJIANG EXPRESSWAY CO., LTD.","69,447,759",4.83%
  579,"BEIJING JINGNENG CLEAN ENERGY CO., LIMITED","155,138,000",5.48%
  581,CHINA ORIENTAL GROUP COMPANY LIMITED,"147,942,987",3.96%
  582,LANDING INTERNATIONAL DEVELOPMENT LIMITED,"111,796,800",3.16%
  586,CHINA CONCH VENTURE HOLDINGS LIMITED,"161,774,000",8.95%
  588,BEIJING NORTH STAR COMPANY LIMITED,"230,682,000",32.62%
  590,LUK FOOK HOLDINGS (INTERNATIONAL) LIMITED,"2,427,000",0.40%
  598,SINOTRANS LIMITED,"313,293,000",14.59%
  604,SHENZHEN INVESTMENT LIMITED,"43,439,579",0.47%
  607,FULLSHARE HOLDINGS LIMITED,"4,492,787,500",22.79%
  612,CHINA DING YI FENG HOLDINGS LIMITED,"2,208,000",0.16%
  631,SANY HEAVY EQUIPMENT INTERNATIONAL HOLDINGS COMPANY LIMITED,"187,391,000",6.00%
  636,KERRY LOGISTICS NETWORK LIMITED,"1,291,500",0.07%
  639,SHOUGANG FUSHAN RESOURCES GROUP LIMITED,"84,369,594",1.66%
  656,FOSUN INTERNATIONAL LIMITED,"1,017,372,916",11.98%
  658,"CHINA HIGH SPEED TRANSMISSION EQUIPMENT GROUP CO., LTD.","155,995,000",9.53%
  659,NWS HOLDINGS LIMITED,"7,411,969",0.18%
  665,HAITONG INTERNATIONAL SECURITIES GROUP LIMITED,"270,910,840",4.48%
  667,CHINA EAST EDUCATION HOLDINGS LIMITED,"127,743,500",5.81%
  669,TECHTRONIC INDUSTRIES CO. LTD.,"6,922,470",0.37%
  670,CHINA EASTERN AIRLINES CORPORATION LIMITED,"273,615,567",5.27%
  680,NAN HAI CORPORATION LIMITED,"483,050,000",0.69%
  683,KERRY PROPERTIES LIMITED,"3,393,124",0.22%
  686,"BEIJING ENERGY INTERNATIONAL HOLDING CO., LTD","295,010,000",1.31%
  687,TYSAN HOLDINGS LIMITED,"25,250,000",0.75%
  688,CHINA OVERSEAS LAND & INVESTMENT LIMITED,"63,855,587",0.57%
  691,CHINA SHANSHUI CEMENT GROUP LIMITED,"4,061,000",0.09%
  694,BEIJING CAPITAL INTERNATIONAL AIRPORT COMPANY LIMITED,"366,367,672",19.48%
  696,TRAVELSKY TECHNOLOGY LIMITED,"35,627,000",3.81%
  697,SHOUCHENG HOLDINGS LIMITED,"53,714,010",0.75%
  698,TONGDA GROUP HOLDINGS LIMITED,"155,440,000",2.39%
  699,CAR INC.,"166,935,001",7.85%
  700,TENCENT HOLDINGS LIMITED,"347,874,577",3.61%
  709,GIORDANO INTERNATIONAL LIMITED,"2,100,000",0.13%
  715,CHINA OCEANWIDE HOLDINGS LIMITED,"456,000",0.00%
  718,TAI UNITED HOLDINGS LIMITED,"20,050,000",0.38%
  719,SHANDONG XINHUA PHARMACEUTICAL COMPANY LIMITED,"68,405,036",35.07%
  721,CHINA FINANCIAL INTERNATIONAL INVESTMENTS LIMITED,"304,790,000",2.77%
  728,CHINA TELECOM CORPORATION LIMITED,"353,909,238",2.54%
  729,FDG ELECTRIC VEHICLES LIMITED,"70,130,750",2.79%
  732,TRULY INTERNATIONAL HOLDINGS LIMITED,"299,746,000",9.10%
  737,SZ INVESTMENT HLDGS BAY AREA DEV CO LTD -HKD TRADED SHARES,"1,431,500",0.04%
  743,ASIA CEMENT (CHINA) HOLDINGS CORPORATION,"33,887,000",2.16%
  751,SKYWORTH GROUP LIMITED,"161,733,429",6.06%
  753,AIR CHINA LIMITED,"357,884,449",7.83%
  754,HOPSON DEVELOPMENT HOLDINGS LIMITED,"53,264,000",2.39%
  762,CHINA UNICOM (HONG KONG) LIMITED,"308,848,000",1.00%
  763,ZTE CORPORATION,"194,435,378",25.73%
  772,CHINA LITERATURE LIMITED,"81,453,218",8.01%
  775,"CK LIFE SCIENCES INT'L., (HOLDINGS) INC.","18,334,000",0.19%
  777,NETDRAGON WEBSOFT HOLDINGS LIMITED,"24,979,000",4.42%
  780,TONGCHENG-ELONG HOLDINGS LIMITED,"32,126,800",1.47%
  787,GLOBAL BRANDS GROUP HOLDING LIMITED,"66,223,233",6.43%
  788,CHINA TOWER CORPORATION LIMITED,"1,933,424,140",4.13%
  799,IGG INC,"92,209,298",7.48%
  806,VALUE PARTNERS GROUP LIMITED,"62,118,405",3.34%
  811,"XINHUA WINSHARE PUBLISHING AND MEDIA CO., LTD.","82,358,000",18.62%
  813,SHIMAO GROUP HOLDINGS LIMITED,"72,477,572",2.04%
  817,CHINA JINMAO HOLDINGS GROUP LIMITED,"1,015,863,130",7.96%
  819,TIANNENG POWER INTERNATIONAL LIMITED,"216,321,000",19.20%
  826,TIANGONG INTERNATIONAL COMPANY LIMITED,"75,198,000",2.93%
  829,SHENGUAN HOLDINGS (GROUP) LIMITED,"140,348,000",4.34%
  832,CENTRAL CHINA REAL ESTATE LIMITED,"128,921,000",4.55%
  836,CHINA RESOURCES POWER HOLDINGS COMPANY LIMITED,"218,072,335",4.52%
  839,CHINA EDUCATION GROUP HOLDINGS LIMITED,"94,922,655",4.40%
  845,GLORIOUS PROPERTY HOLDINGS LIMITED,"22,344,000",0.28%
  846,MINGFA GROUP (INTERNATIONAL) COMPANY LIMITED,"5,261,000",0.08%
  853,MICROPORT SCIENTIFIC CORPORATION,"239,022,299",13.23%
  855,CHINA WATER AFFAIRS GROUP LIMITED,"171,230,000",10.79%
  856,VSTECS HOLDINGS LIMITED,"16,374,000",1.12%
  857,PETROCHINA COMPANY LIMITED,"1,717,398,455",8.13%
  860,APOLLO FUTURE MOBILITY GROUP LIMITED,"28,832,000",0.40%
  861,DIGITAL CHINA HOLDINGS LIMITED,"613,271,400",36.66%
  867,CHINA MEDICAL SYSTEM HOLDINGS LIMITED,"35,526,618",1.43%
  868,XINYI GLASS HOLDINGS LIMITED,"205,097,053",5.07%
  874,"GUANGZHOU BAIYUNSHAN PHARMACEUTICAL HOLDINGS CO., LTD.","69,378,100",31.54%
  880,SJM HOLDINGS LIMITED,"249,750,700",4.39%
  881,ZHONGSHENG GROUP HOLDINGS LIMITED,"43,821,500",1.92%
  883,CNOOC LIMITED,"438,737,543",0.98%
  884,CIFI HOLDINGS (GROUP) CO. LTD.,"382,517,874",4.64%
  885,RENTIAN TECHNOLOGY HOLDINGS LIMITED,"1,110,000",0.01%
  895,DONGJIANG ENVIRONMENTAL COMPANY LIMITED,"55,795,800",27.87%
  902,"HUANENG POWER INTERNATIONAL, INC.","2,008,929,004",42.73%
  906,CPMC HOLDINGS LIMITED,"14,045,000",1.26%
  911,QIANHAI HEALTH HOLDINGS LIMITED,"90,766,000",5.35%
  914,ANHUI CONCH CEMENT COMPANY LIMITED,"51,642,289",3.96%
  916,CHINA LONGYUAN POWER GROUP CORPORATION LIMITED,"149,742,000",4.47%
  921,"HISENSE HOME APPLIANCES GROUP CO., LTD.","40,053,459",8.71%
  931,CHINA LNG GROUP LIMITED,"124,523,000",2.20%
  934,SINOPEC KANTONS HOLDINGS LIMITED,"192,172,000",7.72%
  939,CHINA CONSTRUCTION BANK CORPORATION,"26,815,040,450",11.14%
  941,CHINA MOBILE LIMITED,"93,861,124",0.44%
  950,LEE'S PHARMACEUTICAL HOLDINGS LIMITED,"1,356,500",0.23%
  951,CHAOWEI POWER HOLDINGS LIMITED,"100,295,000",9.08%
  956,CHINA SUNTIEN GREEN ENERGY CORPORATION LIMITED,"249,693,000",13.56%
  960,LONGFOR GROUP HOLDINGS LIMITED,"169,231,493",2.81%
  966,CHINA TAIPING INSURANCE HOLDINGS COMPANY LIMITED,"473,585,174",13.16%
  967,SOUND GLOBAL LTD.,"289,000",0.01%
  968,XINYI SOLAR HOLDINGS LIMITED,"819,448,132",9.62%
  976,CHIHO ENVIRONMENTAL GROUP LIMITED,"208,754,000",13.00%
  978,CHINA MERCHANTS LAND LIMITED,"187,010,000",3.81%
  981,SEMICONDUCTOR MANUFACTURING INTERNATIONAL CORPORATION,"1,068,121,645",13.86%
  989,GROUND INTERNATIONAL DEVELOPMENT LIMITED,"136,250,000",2.28%
  991,"DATANG INTERNATIONAL POWER GENERATION CO.,LTD.","377,150,000",6.16%
  992,LENOVO GROUP LIMITED,"96,233,882",0.79%
  995,ANHUI EXPRESSWAY COMPANY LIMITED,"119,040,000",24.14%
  996,CARNIVAL GROUP INTERNATIONAL HOLDINGS LIMITED,"6,099,442,500",25.73%
  998,CHINA CITIC BANK CORPORATION LIMITED,"2,778,833,758",18.67%
 1028,C.BANNER INTERNATIONAL HOLDINGS LIMITED,"143,864,000",6.92%
 1030,SEAZEN GROUP LIMITED,"303,472,000",4.87%
 1031,KINGSTON FINANCIAL GROUP LIMITED,"548,000",0.00%
 1033,SINOPEC OILFIELD SERVICE CORPORATION,"393,326,000",7.26%
 1038,CK INFRASTRUCTURE HOLDINGS LIMITED,"10,696,500",0.40%
 1044,HENGAN INTERNATIONAL GROUP COMPANY LIMITED,"18,657,605",1.56%
 1052,YUEXIU TRANSPORT INFRASTRUCTURE LIMITED,"81,565,238",4.87%
 1053,CHONGQING IRON & STEEL COMPANY LIMITED,"99,756,000",18.53%
 1055,CHINA SOUTHERN AIRLINES COMPANY LIMITED,"283,550,470",6.62%
 1057,ZHEJIANG SHIBAO COMPANY LIMITED,"56,008,000",25.83%
 1060,ALIBABA PICTURES GROUP LIMITED,"3,482,938,620",12.97%
 1065,TIANJIN CAPITAL ENVIRONMENTAL PROTECTION GROUP COMPANY LIMITED,"118,024,100",34.70%
 1066,SHANDONG WEIGAO GROUP MEDICAL POLYMER COMPANY LIMITED,"747,040,693",16.50%
 1068,CHINA YURUN FOOD GROUP LIMITED,"18,047,000",0.99%
 1070,TCL ELECTRONICS HOLDINGS LIMITED,"127,758,666",5.21%
 1071,HUADIAN POWER INTERNATIONAL CORPORATION LIMITED,"760,417,855",44.27%
 1072,DONGFANG ELECTRIC CORPORATION LIMITED,"78,323,116",23.03%
 1076,IMPERIAL PACIFIC INTERNATIONAL HOLDINGS LIMITED,"387,060,000",0.27%
 1083,TOWNGAS CHINA COMPANY LIMITED,"18,449,542",0.61%
 1086,GOODBABY INTERNATIONAL HOLDINGS LIMITED,"21,718,000",1.30%
 1088,CHINA SHENHUA ENERGY COMPANY LIMITED,"950,667,325",27.96%
 1089,LEYOU TECHNOLOGIES HOLDINGS LIMITED,"5,870,000",0.19%
 1093,CSPC PHARMACEUTICAL GROUP LIMITED,"766,807,023",
 1097,I-CABLE COMMUNICATIONS LIMITED,"81,191",0.00%
 1098,ROAD KING INFRASTRUCTURE LIMITED,"11,147,000",1.48%
 1099,SINOPHARM GROUP CO. LTD.,"74,217,109",5.52%
 1108,LUOYANG GLASS COMPANY LIMITED,"91,026,000",36.40%
 1109,CHINA RESOURCES LAND LIMITED,"120,541,763",1.68%
 1111,CHONG HING BANK LIMITED,"1,022,500",0.10%
 1112,HEALTH AND HAPPINESS (H&H) INTERNATIONAL HOLDINGS LIMITED,"37,200,000",5.76%
 1113,CK ASSET HOLDINGS LIMITED,"13,839,533",0.37%
 1114,BRILLIANCE CHINA AUTOMOTIVE HOLDINGS LIMITED,"80,377,386",1.59%
 1115,TIBET WATER RESOURCES LTD.,"161,107,000",6.27%
 1117,CHINA MODERN DAIRY HOLDINGS LTD.,"256,815,000",3.96%
 1119,IDREAMSKY TECHNOLOGY HOLDINGS LIMITED,"43,165,600",3.39%
 1128,"WYNN MACAU, LIMITED","55,548,800",1.06%
 1131,AGRITRADE RESOURCES LIMITED,"583,090,000",9.14%
 1138,"COSCO SHIPPING ENERGY TRANSPORTATION CO., LTD.","195,844,003",15.10%
 1140,OP FINANCIAL LIMITED,"97,520,000",3.36%
 1141,CMBC CAPITAL HOLDINGS LIMITED,"718,220,000",1.50%
 1157,"ZOOMLION HEAVY INDUSTRY SCIENCE AND TECHNOLOGY CO., LTD.","33,850,322",2.43%
 1165,SHUNFENG INTERNATIONAL CLEAN ENERGY LIMITED,"324,012,000",6.50%
 1169,"HAIER ELECTRONICS GROUP CO., LTD.","128,042,382",4.54%
 1171,YANZHOU COAL MINING COMPANY LIMITED,"318,535,995",16.75%
 1176,ZHUGUANG HOLDINGS GROUP COMPANY LIMITED,"235,912,000",3.27%
 1177,SINO BIOPHARMACEUTICAL LIMITED,"1,648,237,971",8.72%
 1186,CHINA RAILWAY CONSTRUCTION CORPORATION LIMITED,"118,205,690",5.69%
 1188,HYBRID KINETIC GROUP LIMITED,"102,914,000",0.50%
 1193,CHINA RESOURCES GAS GROUP LIMITED,"8,544,000",0.36%
 1196,REALORD GROUP HOLDINGS LIMITED,"124,160,000",8.63%
 1199,COSCO SHIPPING PORTS LIMITED,"17,632,272",0.52%
 1205,CITIC RESOURCES HOLDINGS LIMITED,"165,140,100",2.10%
 1208,MMG LIMITED,"305,922,000",3.79%
 1211,BYD COMPANY LIMITED,"64,830,473",7.08%
 1212,LIFESTYLE INTERNATIONAL HOLDINGS LIMITED,"3,740,666",0.24%
 1230,YASHILI INTERNATIONAL HOLDINGS LTD,"78,362,000",1.64%
 1233,TIMES CHINA HOLDINGS LIMITED,"86,268,757",4.43%
 1234,CHINA LILANG LIMITED,"74,036,000",6.18%
 1238,POWERLONG REAL ESTATE HOLDINGS LIMITED,"126,248,116",3.04%
 1250,BEIJING ENTERPRISES CLEAN ENERGY GROUP LIMITED,"1,610,300,000",2.53%
 1253,CHINA GREENLAND BROAD GREENSTATE GROUP COMPANY LIMITED,"6,428,000",0.19%
 1257,CHINA EVERBRIGHT GREENTECH LIMITED,"157,818,000",7.63%
 1268,CHINA MEIDONG AUTO HOLDINGS LIMITED,"55,092,000",4.42%
 1269,CHINA FIRST CAPITAL GROUP LIMITED,"1,488,350,000",29.60%
 1282,GLORY SUN FINANCIAL GROUP LIMITED,"4,348,104,000",13.84%
 1286,IMPRO PRECISION INDUSTRIES LIMITED,"1,140,000",0.06%
 1288,AGRICULTURAL BANK OF CHINA LIMITED,"8,487,290,058",27.60%
 1293,GRAND BAOXIN AUTO GROUP LIMITED,"132,084,337",4.65%
 1299,AIA GROUP LIMITED,"88,127,599",0.72%
 1302,LIFETECH SCIENTIFIC CORPORATION,"749,268,000",17.30%
 1308,SITC INTERNATIONAL HOLDINGS COMPANY LIMITED,"40,501,000",1.50%
 1310,HKBN LTD.,"4,277,000",0.32%
 1313,CHINA RESOURCES CEMENT HOLDINGS LIMITED,"44,955,747",0.64%
 1315,VISION FAME INTERNATIONAL HOLDING LIMITED,"713,010,000",11.88%
 1316,NEXTEER AUTOMOTIVE GROUP LIMITED,"43,770,000",1.73%
 1317,CHINA MAPLE LEAF EDUCATIONAL SYSTEMS LIMITED,"438,466,537",14.63%
 1330,"DYNAGREEN ENVIRONMENTAL PROTECTION GROUP CO., LTD","156,300,000",38.64%
 1333,CHINA ZHONGWANG HOLDINGS LIMITED,"369,537,200",6.77%
 1336,NEW CHINA LIFE INSURANCE COMPANY LTD.,"335,304,940",32.41%
 1339,"PEOPLE'S INSURANCE COMPANY (GROUP) OF CHINA LIMITED, THE","1,777,775,987",20.37%
 1347,HUA HONG SEMICONDUCTOR LIMITED,"83,047,681",6.40%
 1357,"MEITU, INC.","327,949,100",7.59%
 1359,"CHINA CINDA ASSET MANAGEMENT CO., LTD.","2,613,257,337",19.25%
 1361,361 DEGREES INTERNATIONAL LIMITED,"28,663,000",1.38%
 1363,CT ENVIRONMENTAL GROUP LIMITED,"502,874,000",7.95%
 1368,XTEP INTERNATIONAL HOLDINGS LIMITED,"88,438,003",3.50%
 1375,"CENTRAL CHINA SECURITIES CO., LTD.","303,702,000",25.40%
 1378,CHINA HONGQIAO GROUP LIMITED,"476,426,910",5.55%
 1381,CANVEST ENVIRONMENTAL PROTECTION GROUP COMPANY LIMITED,"28,153,000",1.15%
 1382,PACIFIC TEXTILES HOLDINGS LIMITED,"29,920,000",2.11%
 1383,SUNCITY GROUP HOLDINGS LIMITED,"34,290,000",0.51%
 1387,CHINA DILI GROUP,"149,107,670",1.76%
 1398,INDUSTRIAL AND COMMERCIAL BANK OF CHINA LIMITED,"24,813,504,103",28.58%
 1432,CHINA SHENGMU ORGANIC MILK LIMITED,"96,008,000",1.13%
 1448,FU SHOU YUAN INTERNATIONAL GROUP LIMITED,"281,926,677",12.26%
 1456,"GUOLIAN SECURITIES CO., LTD.","67,362,500",15.20%
 1458,ZHOU HEI YA INTERNATIONAL HOLDINGS COMPANY LIMITED,"368,485,000",15.45%
 1475,NISSIN FOODS COMPANY LIMITED,"276,000",0.02%
 1478,Q TECHNOLOGY (GROUP) COMPANY LIMITED,"45,260,000",3.86%
 1508,CHINA REINSURANCE (GROUP) CORPORATION,"886,992,000",13.27%
 1513,LIVZON PHARMACEUTICAL GROUP INC.,"40,994,765",12.81%
 1515,CHINA RESOURCES MEDICAL HOLDINGS COMPANY LIMITED,"68,348,100",5.26%
 1521,FRONTAGE HOLDINGS CORPORATION,"238,982,000",11.75%
 1528,RED STAR MACALLINE GROUP CORPORATION LTD.,"133,181,054",17.96%
 1530,3SBIO INC.,"238,393,539",9.36%
 1533,"LANZHOU ZHUANGYUAN PASTURE CO., LTD.","7,944,500",22.61%
 1548,GENSCRIPT BIOTECH CORPORATION,"233,188,000",12.12%
 1551,"GUANGZHOU RURAL COMMERCIAL BANK CO., LTD","2,414,000",0.13%
 1558,"YICHANG HEC CHANGJIANG PHARMACEUTICAL CO., LTD.","191,104,200",29.23%
 1569,MINSHENG EDUCATION GROUP COMPANY LIMITED,"234,453,025",5.55%
 1573,SOUTHERN ENERGY HOLDINGS GROUP LIMITED,"126,862,000",17.66%
 1578,"BANK OF TIANJIN CO., LTD.","34,000",0.00%
 1579,YIHAI INTERNATIONAL HOLDING LTD.,"106,059,402",10.12%
 1583,QINQIN FOODSTUFFS GROUP (CAYMAN) COMPANY LIMITED,"24,400",0.00%
 1585,YADEA GROUP HOLDINGS LTD.,"265,200,000",8.85%
 1589,"CHINA LOGISTICS PROPERTY HOLDINGS CO., LTD","3,542,000",0.10%
 1600,CHINA TIAN LUN GAS HOLDINGS LIMITED,"17,000,000",1.69%
 1606,"CHINA DEVELOPMENT BANK FINANCIAL LEASING CO., LTD.","316,000",0.01%
 1608,VPOWER GROUP INTERNATIONAL HOLDINGS LIMITED,"4,791,000",0.18%
 1610,COFCO JOYCOME FOODS LIMITED,"723,066,000",18.53%
 1618,METALLURGICAL CORPORATION OF CHINA LTD.,"475,002,000",16.54%
 1622,REDCO PROPERTIES GROUP LIMITED,"230,992,000",6.50%
 1628,YUZHOU GROUP HOLDINGS COMPANY LIMITED,"74,740,271",1.34%
 1635,"SHANGHAI DAZHONG PUBLIC UTILITIES (GROUP) CO., LTD.","82,559,000",15.46%
 1636,CHINA METAL RESOURCES UTILIZATION LIMITED,"34,616,000",1.31%
 1638,KAISA GROUP HOLDINGS LTD.,"525,039,619",8.55%
 1658,"POSTAL SAVINGS BANK OF CHINA CO., LTD.","658,408,845",3.31%
 1661,WISDOM SPORTS GROUP,"6,217,000",0.39%
 1666,TONG REN TANG TECHNOLOGIES CO LTD,"163,596,200",26.02%
 1668,CHINA SOUTH CITY HOLDINGS LIMITED,"852,915,543",10.53%
 1675,ASIAINFO TECHNOLOGIES LIMITED,"1,982,000",0.21%
 1680,MACAU LEGEND DEVELOPMENT LIMITED,"114,133,000",1.83%
 1681,CONSUN PHARMACEUTICAL GROUP LIMITED,"21,311,000",2.55%
 1685,BOER POWER HOLDINGS LIMITED,"2,195,000",0.28%
 1686,SUNEVISION HOLDINGS LIMITED,"2,314,000",0.09%
 1691,JS GLOBAL LIFESTYLE COMPANY LIMITED,"41,189,500",1.17%
 1717,AUSNUTRIA DAIRY CORPORATION LTD,"109,857,000",6.39%
 1728,CHINA ZHENGTONG AUTO SERVICES HOLDINGS LIMITED,"392,646,000",14.55%
 1761,BABYTREE GROUP,"5,792,000",0.34%
 1765,"HOPE EDUCATION GROUP CO., LTD.","855,688,580",11.82%
 1766,CRRC CORPORATION LIMITED,"371,747,770",8.49%
 1772,"GANFENG LITHIUM CO., LTD.","129,925,810",54.08%
 1773,TIANLI EDUCATION INTERNATIONAL HOLDINGS LIMITED,"208,616,000",10.05%
 1776,"GF SECURITIES CO., LTD.","525,503,900",30.87%
 1777,"FANTASIA HOLDINGS GROUP CO., LIMITED","401,293,000",6.95%
 1778,"COLOUR LIFE SERVICES GROUP CO., LIMITED","67,639,250",4.64%
 1787,"SHANDONG GOLD MINING CO., LTD.","149,416,768",21.35%
 1788,GUOTAI JUNAN INTERNATIONAL HOLDINGS LIMITED,"233,055,110",2.41%
 1789,AK MEDICAL HOLDINGS LIMITED,"107,836,000",9.67%
 1797,KOOLEARN TECHNOLOGY HOLDING LIMITED,"142,532,804",15.15%
 1800,CHINA COMMUNICATIONS CONSTRUCTION COMPANY LIMITED,"627,337,000",14.19%
 1801,"INNOVENT BIOLOGICS, INC.","97,409,500",6.95%
 1806,HUIFU PAYMENT LIMITED,"13,333,200",1.02%
 1810,XIAOMI CORPORATION,"2,369,820,919",9.81%
 1811,"CGN NEW ENERGY HOLDINGS CO., LTD.","115,314,000",2.68%
 1812,SHANDONG CHENMING PAPER HOLDINGS LIMITED,"107,384,950",20.32%
 1813,KWG GROUP HOLDINGS LIMITED,"144,418,665",4.53%
 1816,"CGN POWER CO., LTD","2,481,648,000",22.22%
 1817,MULSANNE GROUP HOLDING LIMITED,"113,000",0.01%
 1818,ZHAOJIN MINING INDUSTRY COMPANY LIMITED,"126,183,872",4.83%
 1829,CHINA MACHINERY ENGINEERING CORPORATION,"131,000",0.01%
 1833,PING AN HEALTHCARE AND TECHNOLOGY COMPANY LIMITED,"109,321,100",9.51%
 1836,STELLA INTERNATIONAL HOLDINGS LIMITED,"462,500",0.05%
 1848,CHINA AIRCRAFT LEASING GROUP HOLDINGS LIMITED,"13,182,921",1.86%
 1860,MOBVISTA INC.,"16,663,000",1.08%
 1873,VIVA BIOTECH HOLDINGS,"426,144,500",22.30%
 1876,BUDWEISER BREWING COMPANY APAC LIMITED,"11,247,316",0.08%
 1882,HAITIAN INTERNATIONAL HOLDINGS LIMITED,"32,446,000",2.02%
 1883,CITIC TELECOM INTERNATIONAL HOLDINGS LIMITED,"13,069,000",0.35%
 1886,CHINA HUIYUAN JUICE GROUP LIMITED,"125,355,500",4.69%
 1888,KINGBOARD LAMINATES HOLDINGS LIMITED,"17,565,435",0.55%
 1890,CHINA KEPEI EDUCATION GROUP LIMITED,"130,982,054",6.49%
 1896,MAOYAN ENTERTAINMENT,"30,674,000",2.69%
 1898,CHINA COAL ENERGY COMPANY LIMITED,"439,085,000",10.68%
 1905,"HAITONG UNITRUST INTERNATIONAL FINANCIAL LEASING CO., LTD.","39,750,000",0.68%
 1907,CHINA RISUN GROUP LIMITED,"31,381,000",0.76%
 1908,C&D INTERNATIONAL INVESTMENT GROUP LIMITED,"79,379,000",6.74%
 1911,CHINA RENAISSANCE HOLDINGS LIMITED,"16,396,100",3.06%
 1916,"JIANGXI BANK CO., LTD.","10,788,500",0.80%
 1918,SUNAC CHINA HOLDINGS LIMITED,"782,774,992",16.79%
 1919,"COSCO SHIPPING HOLDINGS CO., LTD.","454,904,000",17.62%
 1928,SANDS CHINA LTD.,"66,432,532",0.81%
 1929,CHOW TAI FOOK JEWELLERY GROUP LIMITED,"47,971,600",0.47%
 1951,JINXIN FERTILITY GROUP LIMITED,"418,464,000",17.21%
 1958,BAIC MOTOR CORPORATION LIMITED,"100,035,500",3.96%
 1963,"BANK OF CHONGQING CO., LTD.","117,481,500",7.44%
 1966,CHINA SCE GROUP HOLDINGS LIMITED,"157,290,054",3.72%
 1970,"IMAX CHINA HOLDING, INC.","7,379,200",2.11%
 1972,SWIRE PROPERTIES LIMITED,"1,698,400",0.02%
 1980,TIAN GE INTERACTIVE HOLDINGS LIMITED,"24,054,000",1.88%
 1988,"CHINA MINSHENG BANKING CORP., LTD.","1,276,058,769",15.33%
 1992,FOSUN TOURISM GROUP,"799,400",0.05%
 1995,EVER SUNSHINE LIFESTYLE SERVICES GROUP LIMITED,"64,168,000",3.84%
 1996,REDSUN PROPERTIES GROUP LIMITED,"68,597,000",2.06%
 1997,WHARF REAL ESTATE INVESTMENT COMPANY LIMITED,"4,590,425",0.14%
 1999,MAN WAH HOLDINGS LIMITED,"774,253,764",20.35%
 2001,CHINA NEW HIGHER EDUCATION GROUP LIMITED,"115,020,621",7.25%
 2003,VCREDIT HOLDINGS LIMITED,"2,141,000",0.43%
 2005,SSY GROUP LIMITED,"317,752,059",10.44%
 2007,COUNTRY GARDEN HOLDINGS COMPANY LIMITED,"272,383,539",1.23%
 2008,PHOENIX MEDIA INVESTMENT (HOLDINGS) LIMITED,"205,012,000",4.10%
 2009,BBMG CORPORATION,"309,918,500",13.24%
 2013,WEIMOB INC.,"482,292,416",21.38%
 2016,"CHINA ZHESHANG BANK CO., LTD.","91,973,000",2.01%
 2018,AAC TECHNOLOGIES HOLDINGS INC.,"70,850,332",5.86%
 2019,DEXIN CHINA HOLDINGS COMPANY LIMITED,"28,400,000",1.05%
 2020,ANTA SPORTS PRODUCTS LIMITED,"218,364,596",8.06%
 2038,FIH MOBILE LIMITED,"114,593,000",1.39%
 2039,"CHINA INTERNATIONAL MARINE CONTAINERS (GROUP) CO., LTD.","223,622,640",10.85%
 2048,E-HOUSE (CHINA) ENTERPRISE HOLDINGS LIMITED,"9,558,600",0.69%
 2051,51 CREDIT CARD INC.,"45,661,000",3.36%
 2066,"SHENGJING BANK CO., LTD.","195,000",0.00%
 2068,CHINA ALUMINUM INTERNATIONAL ENGINEERING CORPORATION LIMITED,"11,095,000",2.76%
 2098,ZALL SMART COMMERCE GROUP LTD.,"31,698,000",0.26%
 2099,CHINA GOLD INTERNATIONAL RESOURCES CORP. LTD.,"12,784,800",3.22%
 2103,SINIC HOLDINGS (GROUP) COMPANY LIMITED,"417,000",0.01%
 2111,BEST PACIFIC INTERNATIONAL HOLDINGS LIMITED,"1,340,000",0.12%
 2128,CHINA LESSO GROUP HOLDINGS LIMITED,"64,438,573",2.07%
 2136,LIFESTYLE CHINA GROUP LIMITED,"282,000",0.01%
 2186,LUYE PHARMA GROUP LTD.,"481,790,500",14.82%
 2196,"SHANGHAI FOSUN PHARMACEUTICAL (GROUP) CO., LTD.","199,278,857",36.10%
 2199,REGINA MIRACLE INTERNATIONAL (HOLDINGS) LIMITED,"2,882,000",0.23%
 2202,"CHINA VANKE CO., LTD.","267,305,528",14.11%
 2208,"XINJIANG GOLDWIND SCIENCE & TECHNOLOGY CO., LTD.","70,276,204",9.08%
 2218,"YANTAI NORTH ANDRE JUICE CO., LTD.","1,212,000",1.11%
 2232,CRYSTAL INTERNATIONAL GROUP LIMITED,"3,448,500",0.11%
 2233,WEST CHINA CEMENT LIMITED,"570,076,000",10.48%
 2238,"GUANGZHOU AUTOMOBILE GROUP CO., LTD.","1,087,975,358",35.10%
 2255,HAICHANG OCEAN PARK HOLDINGS LTD.,"329,322,000",8.23%
 2269,WUXI BIOLOGICS (CAYMAN) INC.,"101,598,295",7.46%
 2280,HC GROUP INC.,"97,982,000",7.47%
 2282,MGM CHINA HOLDINGS LIMITED,"25,758,696",0.66%
 2298,COSMO LADY (CHINA) HOLDINGS COMPANY LIMITED,"10,394,000",0.45%
 2313,SHENZHOU INTERNATIONAL GROUP HOLDINGS LIMITED,"53,787,053",3.57%
 2314,LEE & MAN PAPER MANUFACTURING LIMITED,"19,438,825",0.44%
 2318,"PING AN INSURANCE (GROUP) COMPANY OF CHINA, LTD.","179,471,877",2.40%
 2319,CHINA MENGNIU DAIRY COMPANY LIMITED,"69,155,994",1.74%
 2326,NEW PROVENANCE EVERLASTING HOLDINGS LIMITED,"55,940,000",0.25%
 2328,PICC PROPERTY AND CASUALTY COMPANY LIMITED,"526,735,169",7.63%
 2329,GUORUI PROPERTIES LIMITED,"156,005,000",3.50%
 2331,LI NING COMPANY LIMITED,"128,790,016",5.16%
 2333,GREAT WALL MOTOR COMPANY LIMITED,"1,139,102,054",36.74%
 2338,"WEICHAI POWER CO., LTD.","43,053,000",2.21%
 2342,COMBA TELECOM SYSTEMS HOLDINGS LIMITED,"2,198,000",0.07%
 2343,PACIFIC BASIN SHIPPING LIMITED,"7,392,000",0.15%
 2356,DAH SING BANKING GROUP LIMITED,"232,000",0.01%
 2357,AVICHINA INDUSTRY & TECHNOLOGY COMPANY LIMITED,"407,898,000",6.56%
 2359,"WUXI APPTEC CO., LTD.","22,426,766",7.30%
 2362,JINCHUAN GROUP INTERNATIONAL RESOURCES CO. LTD.,"66,465,000",0.52%
 2363,TONGDA HONG TAI HOLDINGS LIMITED,"340,962",0.17%
 2369,COOLPAD GROUP LIMITED,"37,756,000",0.62%
 2380,CHINA POWER INTERNATIONAL DEVELOPMENT LIMITED,"558,925,701",5.69%
 2382,SUNNY OPTICAL TECHNOLOGY (GROUP) COMPANY LIMITED,"110,721,105",10.08%
 2386,"SINOPEC ENGINEERING (GROUP) CO., LTD.","39,978,000",2.73%
 2388,BOC HONG KONG (HOLDINGS) LIMITED,"13,608,945",0.12%
 2400,XD INC.,"57,725,596",12.71%
 2588,BOC AVIATION LIMITED,"11,009,658",1.57%
 2600,ALUMINUM CORPORATION OF CHINA LIMITED,"285,944,000",7.24%
 2601,CHINA PACIFIC INSURANCE (GROUP) CO. LTD.,"811,047,234",29.21%
 2607,"SHANGHAI PHARMACEUTICALS HOLDING CO., LTD.","107,377,506",11.67%
 2611,"GUOTAI JUNAN SECURITIES CO., LTD.","132,626,000",9.52%
 2628,CHINA LIFE INSURANCE COMPANY LIMITED,"320,600,093",4.30%
 2662,CAMSING INTERNATIONAL HOLDING LIMITED,"132,096,000",12.26%
 2666,GENERTEC UNIVERSAL MEDICAL GROUP COMPANY LIMITED,"313,899,500",18.28%
 2669,CHINA OVERSEAS PROPERTY HOLDINGS LIMITED,"384,837,275",11.70%
 2678,TEXHONG TEXTILE GROUP LIMITED,"31,677,000",3.46%
 2688,ENN ENERGY HOLDINGS LIMITED,"14,786,061",1.30%
 2689,NINE DRAGONS PAPER (HOLDINGS) LIMITED,"68,205,410",1.44%
 2727,SHANGHAI ELECTRIC GROUP COMPANY LIMITED,"890,199,000",29.93%
 2768,JIAYUAN INTERNATIONAL GROUP LIMITED,"357,989,183",8.81%
 2772,ZHONGLIANG HOLDINGS GROUP COMPANY LIMITED,"38,408,500",1.07%
 2777,"GUANGZHOU R&F PROPERTIES CO., LTD.","92,650,944",2.46%
 2799,"CHINA HUARONG ASSET MANAGEMENT CO., LTD.","2,342,037,000",9.34%
 2858,YIXIN GROUP LIMITED,"42,209,500",0.65%
 2866,"COSCO SHIPPING DEVELOPMENT CO., LTD.","600,019,000",16.32%
 2869,GREENTOWN SERVICE GROUP CO. LTD.,"325,782,899",
 2877,CHINA SHINEWAY PHARMACEUTICAL GROUP LIMITED,"27,149,000",3.27%
 2880,DALIAN PORT (PDA) COMPANY LIMITED,"895,636,200",17.35%
 2883,CHINA OILFIELD SERVICES LIMITED,"241,685,627",13.34%
 2888,STANDARD CHARTERED PLC,"349,020",0.00%
 2899,"ZIJIN MINING GROUP CO., LTD.","1,569,764,000",27.35%
 3301,RONSHINE CHINA HOLDINGS LIMITED,"134,167,500",7.87%
 3306,JNBY DESIGN LIMITED,"20,899,000",4.02%
 3308,GOLDEN EAGLE RETAIL GROUP LIMITED,"86,164,000",5.15%
 3309,C-MER EYE CARE HOLDINGS LIMITED,"78,280,000",6.83%
 3311,CHINA STATE CONSTRUCTION INTERNATIONAL HOLDINGS LIMITED,"203,235,692",4.01%
 3319,"A-LIVING SERVICES CO., LTD.","6,108,250",0.45%
 3320,CHINA RESOURCES PHARMACEUTICAL GROUP LIMITED,"214,093,000",3.40%
 3323,CHINA NATIONAL BUILDING MATERIAL COMPANY LIMITED,"947,937,365",24.49%
 3328,"BANK OF COMMUNICATIONS CO., LTD.","810,983,595",2.31%
 3329,BOCOM INTERNATIONAL HOLDINGS COMPANY LIMITED,"15,001,000",0.54%
 3331,VINDA INTERNATIONAL HOLDINGS LIMITED,"15,557,000",1.29%
 3333,CHINA EVERGRANDE GROUP,"138,134,355",1.03%
 3339,LONKING HOLDINGS LIMITED,"26,250,000",0.61%
 3347,"HANGZHOU TIGERMED CONSULTING CO., LTD.","122,600",0.09%
 3360,FAR EAST HORIZON LIMITED,"109,723,000",2.76%
 3368,PARKSON RETAIL GROUP LIMITED,"5,669,500",0.21%
 3369,"QINHUANGDAO PORT CO., LTD.","82,100,000",9.88%
 3377,SINO-OCEAN GROUP HOLDING LIMITED,"173,262,810",2.27%
 3380,LOGAN GROUP COMPANY LIMITED,"153,246,528",2.76%
 3382,TIANJIN PORT DEVELOPMENT HOLDINGS LIMITED,"203,482,000",3.30%
 3383,AGILE GROUP HOLDINGS LIMITED,"41,989,548",1.06%
 3389,HENGDELI HOLDINGS LIMITED,"776,000",0.01%
 3393,WASION HOLDINGS LIMITED,"1,326,000",0.13%
 3396,LEGEND HOLDINGS CORPORATION,"84,434,100",6.63%
 3606,"FUYAO GLASS INDUSTRY GROUP CO., LTD","88,209,850",17.43%
 3613,BEIJING TONG REN TANG CHINESE MEDICINE COMPANY LIMITED,"71,132,000",8.49%
 3618,"CHONGQING RURAL COMMERCIAL BANK CO., LTD.","727,243,000",28.93%
 3633,ZHONGYU GAS HOLDINGS LIMITED,"17,063,000",0.64%
 3669,CHINA YONGDA AUTOMOBILES SERVICES HOLDINGS LIMITED,"111,677,500",
 3690,MEITUAN,"349,641,592",5.93%
 3692,HANSOH PHARMACEUTICAL GROUP COMPANY LIMITED,"44,961,000",0.75%
 3698,HUISHANG BANK CORPORATION LIMITED,"4,759,200",0.12%
 3759,"PHARMARON BEIJING CO., LTD.","19,825,565",14.79%
 3788,CHINA HANKING HOLDINGS LIMITED,"15,956,000",0.87%
 3799,DALI FOODS GROUP COMPANY LIMITED,"415,220,000",3.02%
 3800,GCL-POLY ENERGY HOLDINGS LIMITED,"3,005,283,500",14.20%
 3808,SINOTRUK (HONG KONG) LIMITED,"115,288,866",4.16%
 3813,POU SHENG INTERNATIONAL (HOLDINGS) LIMITED,"20,646,000",0.38%
 3818,"CHINA DONGXIANG (GROUP) CO., LTD.","479,326,000",8.14%
 3836,CHINA HARMONY AUTO HOLDING LIMITED,"70,748,000",4.49%
 3866,"BANK OF QINGDAO CO., LTD.","1,145,500",0.06%
 3868,XINYI ENERGY HOLDINGS LIMITED,"103,210,000",1.45%
 3877,CSSC (HONG KONG) SHIPPING COMPANY LIMITED,"4,878,000",0.07%
 3883,CHINA AOYUAN GROUP LIMITED,"180,492,000",6.67%
 3886,TOWN HEALTH INTERNATIONAL MEDICAL GROUP LIMITED,"145,736,000",1.92%
 3888,KINGSOFT CORPORATION LIMITED,"370,887,169",27.01%
 3898,"ZHUZHOU CRRC TIMES ELECTRIC CO., LTD.","40,325,506",7.36%
 3899,CIMC ENRIC HOLDINGS LIMITED,"137,142,000",6.82%
 3900,GREENTOWN CHINA HOLDINGS LIMITED,"327,893,000",13.13%
 3908,CHINA INTERNATIONAL CAPITAL CORPORATION LIMITED,"334,714,081",17.57%
 3933,"UNITED LABORATORIES INTERNATIONAL HOLDINGS LIMITED, THE","182,639,948",9.92%
 3958,DFZQ,"404,193,185",39.34%
 3968,"CHINA MERCHANTS BANK CO., LTD.","204,582,570",4.44%
 3969,CHINA RAILWAY SIGNAL & COMMUNICATION CORPORATION LIMITED,"223,464,000",11.34%
 3988,BANK OF CHINA LIMITED,"7,789,912,615",9.31%
 3990,MIDEA REAL ESTATE HOLDING LIMITED,"77,231,400",6.27%
 3993,"CHINA MOLYBDENUM CO., LTD.","311,631,500",7.92%
 3996,CHINA ENERGY ENGINEERING CORPORATION LIMITED,"10,824,000",0.11%
 3998,BOSIDENG INTERNATIONAL HOLDINGS LIMITED,"693,942,000",6.44%
 6030,CITIC SECURITIES COMPANY LIMITED,"302,084,641",13.24%
 6049,"POLY PROPERTY SERVICES CO., LTD.","62,005,066",40.43%
 6055,CHINA TOBACCO INTERNATIONAL (HK) COMPANY LIMITED,"29,895,000",4.32%
 6060,"ZHONGAN ONLINE P & C INSURANCE CO., LTD.","34,746,300",7.38%
 6066,"CSC FINANCIAL CO., LTD.","312,963,000",24.81%
 6068,WISDOM EDUCATION INTERNATIONAL HOLDINGS COMPANY LIMITED,"180,606,000",8.29%
 6069,SHENG YE CAPITAL LIMITED,"26,575,000",2.83%
 6078,"HYGEIA HEALTHCARE HOLDINGS CO., LIMITED","20,847,400",3.37%
 6088,FIT HON TENG LIMITED,"400,919,000",5.81%
 6098,COUNTRY GARDEN SERVICES HOLDINGS COMPANY LIMITED,"216,558,144",7.84%
 6099,"CHINA MERCHANTS SECURITIES CO., LTD.","250,038,060",19.61%
 6100,TONGDAO LIEPIN GROUP,"84,800",0.01%
 6110,TOPSPORTS INTERNATIONAL HOLDINGS LIMITED,"12,528,020",0.19%
 6116,"XINJIANG LA CHAPELLE FASHION CO., LTD.","68,299,600",31.79%
 6158,ZHENRO PROPERTIES GROUP LIMITED,"69,189,000",1.57%
 6160,"BEIGENE, LTD.","2,329,800",0.19%
 6166,CHINA VAST INDUSTRIAL URBAN DEVELOPMENT COMPANY LIMITED,"78,026,000",4.72%
 6169,CHINA YUHUA EDUCATION CORPORATION LIMITED,"576,666,528",17.26%
 6178,EVERBRIGHT SECURITIES COMPANY LIMITED,"91,498,000",12.99%
 6186,CHINA FEIHE LIMITED,"842,884,048",9.43%
 6196,"BANK OF ZHENGZHOU CO., LTD.","304,297,500",18.22%
 6198,"QINGDAO PORT INTERNATIONAL CO., LTD.","10,339,000",0.93%
 6806,"SHENWAN HONGYUAN GROUP CO., LTD.","252,853,600",10.09%
 6808,SUN ART RETAIL GROUP LIMITED,"67,987,023",0.70%
 6818,CHINA EVERBRIGHT BANK COMPANY LIMITED,"967,706,992",7.62%
 6828,BEIJING GAS BLUE SKY HOLDINGS LIMITED,"232,720,000",1.79%
 6837,"HAITONG SECURITIES CO., LTD.","835,806,600",24.50%
 6862,HAIDILAO INTERNATIONAL HOLDING LTD.,"147,362,784",2.77%
 6865,"FLAT GLASS GROUP CO., LTD.","146,809,760",32.61%
 6869,YANGTZE OPTICAL FIBRE AND CABLE JOINT STOCK LIMITED COMPANY,"18,871,500",5.36%
 6881,"CHINA GALAXY SECURITIES CO., LTD.","845,526,882",22.90%
 6886,"HUATAI SECURITIES CO., LTD.","453,355,046",26.36%
 6969,SMOORE INTERNATIONAL HOLDINGS LIMITED,"264,867,772",4.53%
 8328,XINYI AUTOMOBILE GLASS HONG KONG ENTERPRISES LIMITED,"93,750",0.01%
 9633,"NONGFU SPRING CO., LTD.","45,243,200",0.89%
 9909,POWERLONG COMMERCIAL MANAGEMENT HOLDINGS LIMITED,"16,378,000",2.63%
 9922,JIUMAOJIU INTERNATIONAL HOLDINGS LIMITED,"93,557,295",6.43%
 9923,YEAHKA LIMITED,"113,600",0.02%
 9928,TIMES NEIGHBORHOOD HOLDINGS LIMITED,"20,653,330",2.08%
 9968,HUIJING HOLDINGS COMPANY LIMITED,"4,758,000",0.09%
 9983,CENTRAL CHINA NEW LIFE LIMITED,"18,376,000",1.47%
 9989,"SHENZHEN HEPALINK PHARMACEUTICAL GROUP CO., LTD.","15,830,500",7.19%
 9997,KANGJI MEDICAL HOLDINGS LIMITED,"6,208,000",0.48%
