Stock Code,Stock Name,Shareholding in CCASS,Percentage of the total number of Issued Shares
    1,CK HUTCHISON HOLDINGS LIMITED,"31,617,211",0.81%
    2,CLP HOLDINGS LIMITED,"3,776,452",0.14%
    3,"HONG KONG AND CHINA GAS COMPANY LIMITED, THE","22,154,983",0.12%
    4,"WHARF (HOLDINGS) LIMITED, THE","4,078,979",0.12%
    5,HSBC HOLDINGS PLC,"1,590,090,251",7.68%
    6,POWER ASSETS HOLDINGS LIMITED,"6,464,922",0.29%
    8,PCCW LIMITED,"10,887,776",0.13%
   10,HANG LUNG GROUP LIMITED,"9,356,000",0.68%
   11,HANG SENG BANK LTD,"3,172,788",0.16%
   12,HENDERSON LAND DEVELOPMENT CO LTD,"4,820,773",0.09%
   14,HYSAN DEVELOPMENT COMPANY LIMITED,"1,120,989",0.10%
   16,SUN HUNG KAI PROPERTIES LIMITED,"9,354,404",0.31%
   17,NEW WORLD DEVELOPMENT CO LTD,"27,756,528",0.26%
   19,SWIRE PACIFIC LTD 'A',"1,068,000",0.10%
   20,WHEELOCK AND COMPANY LIMITED,"474,467",0.02%
   23,BANK OF EAST ASIA LTD,"434,393",0.01%
   27,GALAXY ENTERTAINMENT GROUP LIMITED,"44,629,357",1.02%
   35,FAR EAST CONSORTIUM INTERNATIONAL LTD,"100,013",0.00%
   38,FIRST TRACTOR COMPANY LIMITED,"100,998,100",25.76%
   41,GREAT EAGLE HOLDINGS LIMITED,"1,449,511",0.20%
   42,NORTHEAST ELECTRIC DEVELOPMENT COMPANY LIMITED,"16,946,000",6.56%
   43,C.P. POKPHAND CO LTD,"854,000",0.00%
   45,"HONGKONG AND SHANGHAI HOTELS LTD,THE","46,013",0.00%
   59,SKYFAME REALTY (HOLDINGS) LIMITED,"35,206,000",0.44%
   66,MTR CORPORATION LIMITED,"7,466,923",0.11%
   69,SHANGRI-LA ASIA LIMITED,"12,722,000",0.34%
   78,REGAL HOTELS INTERNATIONAL HOLDINGS LIMITED,"16,000",0.00%
   81,CHINA OVERSEAS GRAND OCEANS GROUP LIMITED,"265,152,820",7.74%
   83,SINO LAND CO.LTD.,"9,469,929",0.13%
   86,SUN HUNG KAI & CO.LTD,"9,617,000",0.47%
   87,SWIRE PACIFIC LTD 'B',"13,440,000",0.44%
   95,LVGEM (CHINA) REAL ESTATE INVESTMENT COMPANY LIMITED,"147,706,000",2.91%
  101,HANG LUNG PROPERTIES LIMITED,"5,610,949",0.12%
  107,SICHUAN EXPRESSWAY COMPANY LIMITED,"206,534,000",23.06%
  109,GOOD RESOURCES HOLDINGS LIMITED,"46,150,000",0.64%
  116,CHOW SANG SANG HOLDINGS INTERNATIONAL LIMITED,"3,613,000",0.53%
  119,"POLY PROPERTY GROUP CO., LIMITED","309,899,748",8.46%
  123,YUEXIU PROPERTY COMPANY LIMITED,"246,898,351",1.58%
  127,CHINESE ESTATES HOLDINGS LIMITED,"4,696,000",0.23%
  135,KUNLUN ENERGY COMPANY LIMITED,"132,509,000",1.52%
  136,HENGTEN NETWORKS GROUP LIMITED,"4,768,492,000",6.39%
  142,FIRST PACIFIC CO. LTD.,"51,516,000",1.18%
  144,CHINA MERCHANTS PORT HOLDINGS COMPANY LIMITED,"84,562,637",2.44%
  148,KINGBOARD HOLDINGS LIMITED,"18,631,136",1.67%
  151,WANT WANT CHINA HOLDINGS LIMITED,"17,365,871",0.13%
  152,SHENZHEN INTERNATIONAL HOLDINGS LIMITED,"53,949,957",2.48%
  163,EMPEROR INTERNATIONAL HOLDINGS LIMITED,"11,612,000",0.31%
  165,CHINA EVERBRIGHT LIMITED,"136,285,955",8.08%
  168,TSINGTAO BREWERY COMPANY LIMITED,"49,484,000",7.55%
  173,K. WAH INTERNATIONAL HOLDINGS LIMITED,"37,180,965",1.18%
  175,GEELY AUTOMOBILE HOLDINGS LIMITED,"739,406,373",8.02%
  177,JIANGSU EXPRESSWAY COMPANY LIMITED,"107,464,818",8.78%
  178,SA SA INTERNATIONAL HOLDINGS LIMITED,"15,479,268",0.48%
  179,JOHNSON ELECTRIC HOLDINGS LIMITED,"430,000",0.04%
  187,BEIJING JINGCHENG MACHINERY ELECTRIC COMPANY LIMITED,"28,072,000",28.07%
  189,DONGYUE GROUP LIMITED,"117,749,358",5.57%
  198,SMI HOLDINGS GROUP LIMITED,"70,340,800",2.59%
  200,MELCO INTERNATIONAL DEVELOPMENT LIMITED,"5,519,000",0.36%
  207,JOY CITY PROPERTY LIMITED,"5,564,000",0.03%
  215,HUTCHISON TELECOMMUNICATIONS HONG KONG HOLDINGS LIMITED,"6,942,000",0.13%
  220,UNI-PRESIDENT CHINA HOLDINGS LTD.,"5,168,000",0.11%
  241,ALIBABA HEALTH INFORMATION TECHNOLOGY LIMITED,"317,198,021",2.62%
  242,SHUN TAK HOLDINGS LIMITED,"80,344,000",2.64%
  245,CHINA MINSHENG FINANCIAL HOLDING CORPORATION LIMITED,"31,600,000",0.08%
  256,CITYCHAMP WATCH & JEWELLERY GROUP LIMITED,"318,958,000",7.32%
  257,CHINA EVERBRIGHT INTERNATIONAL LIMITED,"286,089,503",4.65%
  267,CITIC LIMITED,"49,123,916",0.16%
  268,KINGDEE INTERNATIONAL SOFTWARE GROUP COMPANY LIMITED,"333,055,580",10.01%
  270,GUANGDONG INVESTMENT LIMITED,"29,717,333",0.44%
  272,SHUI ON LAND LIMITED,"565,245,846",7.00%
  279,FREEMAN FINTECH CORPORATION LIMITED,"612,286,000",32.77%
  285,BYD ELECTRONIC (INTERNATIONAL) COMPANY LIMITED,"120,636,000",5.34%
  288,WH GROUP LIMITED,"1,149,766,351",7.79%
  291,CHINA RESOURCES BEER (HOLDINGS) COMPANY LIMITED,"144,457,615",4.44%
  293,CATHAY PACIFIC AIRWAYS LTD,"3,268,000",0.07%
  295,KONG SUN HOLDINGS LIMITED,"59,100,000",0.39%
  297,SINOFERT HOLDINGS LIMITED,"348,798,000",4.96%
  302,CMGE TECHNOLOGY GROUP LIMITED,"4,932,000",0.21%
  303,VTECH HOLDINGS LIMITED,"658,249",0.25%
  308,CHINA TRAVEL INTERNATIONAL INVESTMENT HONG KONG LIMITED,"192,604,439",3.47%
  315,SMARTONE TELECOMMUNICATIONS HOLDINGS LIMITED,"881,034",0.07%
  316,ORIENT OVERSEAS (INTERNATIONAL) LIMITED,"10,500",0.00%
  317,CSSC OFFSHORE & MARINE ENGINEERING (GROUP) COMPANY LIMITED,"15,560,200",2.62%
  321,TEXWINCA HOLDINGS LIMITED,"1,076,000",0.07%
  322,TINGYI (CAYMAN ISLANDS) HOLDING CORP.,"24,958,708",0.43%
  323,MAANSHAN IRON & STEEL COMPANY LIMITED,"26,416,000",1.52%
  327,PAX GLOBAL TECHNOLOGY LIMITED,"7,778,000",0.71%
  330,ESPRIT HOLDINGS LIMITED,"22,743,900",1.19%
  336,HUABAO INTERNATIONAL HOLDINGS LIMITED,"277,697,100",8.93%
  337,GREENLAND HONG KONG HOLDINGS LIMITED,"129,827,000",4.65%
  338,SINOPEC SHANGHAI PETROCHEMICAL COMPANY LIMITED,"177,428,375",5.07%
  341,CAFE DE CORAL HOLDINGS LTD,"1,834,000",0.31%
  345,VITASOY INTERNATIONAL HOLDINGS LTD,"12,302,011",1.15%
  347,ANGANG STEEL COMPANY LIMITED,"16,298,200",1.15%
  354,CHINASOFT INTERNATIONAL LIMITED,"401,272,460",15.28%
  358,JIANGXI COPPER COMPANY LIMITED,"39,243,219",2.81%
  363,SHANGHAI INDUSTRIAL HOLDINGS LIMITED,"19,335,100",1.77%
  371,BEIJING ENTERPRISES WATER GROUP LIMITED,"277,182,010",2.76%
  378,FDG KINETIC LIMITED,"185,364,000",2.74%
  384,CHINA GAS HOLDINGS LIMITED,"23,555,443",0.45%
  386,CHINA PETROLEUM & CHEMICAL CORPORATION,"1,076,447,595",4.21%
  388,HONG KONG EXCHANGES AND CLEARING LIMITED,"24,836,148",1.96%
  390,CHINA RAILWAY GROUP LIMITED,"246,151,030",5.84%
  392,BEIJING ENTERPRISES HOLDINGS LIMITED,"88,223,121",6.98%
  400,COGOBUY GROUP,"63,478,000",4.44%
  410,SOHO CHINA LIMITED,"260,064,000",4.99%
  412,CHINA SHANDONG HI-SPEED FINANCIAL GROUP LIMITED,"20,598,000",0.07%
  419,HUAYI TENCENT ENTERTAINMENT COMPANY LIMITED,"188,970,000",1.39%
  425,MINTH GROUP LIMITED,"98,525,626",
  439,KUANGCHI SCIENCE LIMITED,"327,223,000",5.30%
  440,DAH SING FINANCIAL HOLDINGS LTD,"1,322,466",0.41%
  451,GCL NEW ENERGY HOLDINGS LIMITED,"1,295,072,000",6.78%
  460,SIHUAN PHARMACEUTICAL HOLDINGS GROUP LTD.,"452,752,000",4.77%
  467,UNITED ENERGY GROUP LIMITED,"10,608,000",0.03%
  468,GREATVIEW ASEPTIC PACKAGING COMPANY LIMITED,"4,200,000",0.31%
  480,HKR INTERNATIONAL LTD,"261,680",0.01%
  488,LAI SUN DEVELOPMENT COMPANY LIMITED,"30,000",0.00%
  489,DONGFENG MOTOR GROUP COMPANY LIMITED,"198,953,000",6.96%
  493,GOME RETAIL HOLDINGS LIMITED,"2,192,322,000",10.16%
  494,LI & FUNG LIMITED,"49,416,000",0.57%
  496,KASEN INTERNATIONAL HOLDINGS LIMITED,"112,101,000",7.50%
  506,CHINA FOODS LIMITED,"51,414,100",1.83%
  508,DINGYI GROUP INVESTMENT LIMITED,"403,805,000",5.48%
  511,TELEVISION BROADCASTS LIMITED,"635,700",0.14%
  512,CHINA GRAND PHARMACEUTICAL AND HEALTHCARE HOLDINGS LIMITED,"93,503,200",2.76%
  517,"COSCO SHIPPING INTERNATIONAL (HONG KONG) CO., LTD.","728,000",0.04%
  520,"XIABUXIABU CATERING MANAGEMENT (CHINA) HOLDINGS CO., LTD.","51,922,000",4.80%
  522,ASM PACIFIC TECHNOLOGY LIMITED,"6,412,525",1.56%
  525,GUANGSHEN RAILWAY COMPANY LIMITED,"290,202,010",20.26%
  530,GOLDIN FINANCIAL HOLDINGS LIMITED,"2,936,000",0.04%
  535,GEMDALE PROPERTIES AND INVESTMENT CORPORATION LIMITED,"1,900,496,154",11.95%
  546,FUFENG GROUP LIMITED,"65,887,119",2.60%
  547,DIGITAL DOMAIN HOLDINGS LIMITED,"1,052,440,000",3.08%
  548,SHENZHEN EXPRESSWAY COMPANY LIMITED,"100,670,000",13.46%
  551,YUE YUEN INDUSTRIAL (HOLDINGS) LIMITED,"2,272,793",0.13%
  552,CHINA COMMUNICATIONS SERVICES CORPORATION LIMITED,"111,186,000",4.64%
  553,NANJING PANDA ELECTRONICS COMPANY LIMITED,"43,706,000",18.05%
  563,SHANGHAI INDUSTRIAL URBAN DEVELOPMENT GROUP LIMITED,"152,899,855",3.17%
  564,ZHENGZHOU COAL MINING MACHINERY GROUP COMPANY LIMITED,"65,053,200",26.73%
  568,SHANDONG MOLONG PETROLEUM MACHINERY COMPANY LIMITED,"52,415,200",20.46%
  570,CHINA TRADITIONAL CHINESE MEDICINE HOLDINGS CO LIMITED,"613,377,486",12.17%
  576,"ZHEJIANG EXPRESSWAY CO., LTD.","75,473,759",5.25%
  579,"BEIJING JINGNENG CLEAN ENERGY CO., LIMITED","181,952,000",6.43%
  581,CHINA ORIENTAL GROUP COMPANY LIMITED,"84,154,987",2.25%
  582,LANDING INTERNATIONAL DEVELOPMENT LIMITED,"119,805,600",4.08%
  586,CHINA CONCH VENTURE HOLDINGS LIMITED,"164,690,953",9.12%
  588,BEIJING NORTH STAR COMPANY LIMITED,"173,578,000",24.54%
  590,LUK FOOK HOLDINGS (INTERNATIONAL) LIMITED,"909,000",0.15%
  598,SINOTRANS LIMITED,"193,730,000",9.02%
  604,SHENZHEN INVESTMENT LIMITED,"63,203,461",0.71%
  606,CHINA AGRI-INDUSTRIES HOLDINGS LIMITED,"10,524,000",0.19%
  607,FULLSHARE HOLDINGS LIMITED,"5,074,347,500",25.74%
  612,CHINA DING YI FENG HOLDINGS LIMITED,"2,816,000",0.22%
  631,SANY HEAVY EQUIPMENT INTERNATIONAL HOLDINGS COMPANY LIMITED,"178,837,000",5.76%
  636,KERRY LOGISTICS NETWORK LIMITED,"1,001,000",0.05%
  639,SHOUGANG FUSHAN RESOURCES GROUP LIMITED,"120,908,000",2.27%
  656,FOSUN INTERNATIONAL LIMITED,"672,907,726",7.88%
  658,"CHINA HIGH SPEED TRANSMISSION EQUIPMENT GROUP CO., LTD.","211,528,000",12.93%
  659,NWS HOLDINGS LIMITED,"2,338,719",0.05%
  665,HAITONG INTERNATIONAL SECURITIES GROUP LIMITED,"301,349,456",5.06%
  667,CHINA EAST EDUCATION HOLDINGS LIMITED,"57,394,000",2.61%
  669,TECHTRONIC INDUSTRIES CO. LTD.,"7,060,470",0.37%
  670,CHINA EASTERN AIRLINES CORPORATION LIMITED,"491,666,231",9.49%
  680,NAN HAI CORPORATION LIMITED,"812,300,000",1.17%
  683,KERRY PROPERTIES LIMITED,"3,660,624",0.25%
  686,PANDA GREEN ENERGY GROUP LIMITED,"302,312,000",1.34%
  687,TYSAN HOLDINGS LIMITED,"2,846,000",0.08%
  688,CHINA OVERSEAS LAND & INVESTMENT LIMITED,"68,601,639",0.61%
  691,CHINA SHANSHUI CEMENT GROUP LIMITED,"4,439,000",0.09%
  694,BEIJING CAPITAL INTERNATIONAL AIRPORT COMPANY LIMITED,"247,022,949",13.13%
  696,TRAVELSKY TECHNOLOGY LIMITED,"41,796,000",4.47%
  697,SHOUGANG CONCORD INTERNATIONAL ENTERPRISES COMPANY LIMITED,"1,202,000",0.00%
  698,TONGDA GROUP HOLDINGS LIMITED,"439,280,000",6.77%
  699,CAR INC.,"178,968,001",8.43%
  700,TENCENT HOLDINGS LIMITED,"221,418,464",2.31%
  709,GIORDANO INTERNATIONAL LIMITED,"3,734,000",0.23%
  715,CHINA OCEANWIDE HOLDINGS LIMITED,"488,000",0.00%
  718,TAI UNITED HOLDINGS LIMITED,"20,150,000",0.38%
  719,SHANDONG XINHUA PHARMACEUTICAL COMPANY LIMITED,"70,973,723",36.39%
  721,CHINA FINANCIAL INTERNATIONAL INVESTMENTS LIMITED,"307,160,000",2.79%
  728,CHINA TELECOM CORPORATION LIMITED,"300,723,238",2.16%
  729,FDG ELECTRIC VEHICLES LIMITED,"72,353,750",2.88%
  732,TRULY INTERNATIONAL HOLDINGS LIMITED,"317,256,000",9.64%
  737,SZ INVESTMENT HLDGS BAY AREA DEV CO LTD -HKD TRADED SHARES,"1,883,500",0.05%
  743,ASIA CEMENT (CHINA) HOLDINGS CORPORATION,"3,944,500",0.25%
  751,SKYWORTH GROUP LIMITED,"118,398,311",3.86%
  753,AIR CHINA LIMITED,"351,269,936",7.69%
  754,HOPSON DEVELOPMENT HOLDINGS LIMITED,"77,450,000",3.47%
  762,CHINA UNICOM (HONG KONG) LIMITED,"93,678,000",0.30%
  763,ZTE CORPORATION,"259,737,004",34.37%
  772,CHINA LITERATURE LIMITED,"40,576,000",4.00%
  775,"CK LIFE SCIENCES INT'L., (HOLDINGS) INC.","26,500,000",0.27%
  777,NETDRAGON WEBSOFT HOLDINGS LIMITED,"29,060,500",5.15%
  780,TONGCHENG-ELONG HOLDINGS LIMITED,"26,289,600",1.22%
  787,GLOBAL BRANDS GROUP HOLDING LIMITED,"67,959,875",6.60%
  788,CHINA TOWER CORPORATION LIMITED,"2,114,783,916",4.52%
  799,IGG INC,"130,996,298",10.50%
  806,VALUE PARTNERS GROUP LIMITED,"50,275,405",2.70%
  811,"XINHUA WINSHARE PUBLISHING AND MEDIA CO., LTD.","53,766,000",12.16%
  813,SHIMAO PROPERTY HOLDINGS LIMITED,"92,473,641",2.67%
  816,HUADIAN FUXIN ENERGY CORPORATION LIMITED,"15,600,000",0.60%
  817,CHINA JINMAO HOLDINGS GROUP LIMITED,"740,210,947",6.28%
  819,TIANNENG POWER INTERNATIONAL LIMITED,"110,814,000",9.83%
  826,TIANGONG INTERNATIONAL COMPANY LIMITED,"2,488,000",0.09%
  829,SHENGUAN HOLDINGS (GROUP) LIMITED,"144,632,000",4.47%
  832,CENTRAL CHINA REAL ESTATE LIMITED,"69,231,000",2.52%
  836,CHINA RESOURCES POWER HOLDINGS COMPANY LIMITED,"136,948,627",2.84%
  839,CHINA EDUCATION GROUP HOLDINGS LIMITED,"118,408,593",5.85%
  845,GLORIOUS PROPERTY HOLDINGS LIMITED,"23,371,000",0.29%
  846,MINGFA GROUP (INTERNATIONAL) COMPANY LIMITED,"5,261,000",0.08%
  853,MICROPORT SCIENTIFIC CORPORATION,"124,404,036",7.20%
  855,CHINA WATER AFFAIRS GROUP LIMITED,"185,216,334",11.54%
  856,VSTECS HOLDINGS LIMITED,"3,820,000",0.26%
  857,PETROCHINA COMPANY LIMITED,"1,388,459,455",6.58%
  860,WE SOLUTIONS LIMITED,"32,292,000",0.45%
  861,DIGITAL CHINA HOLDINGS LIMITED,"758,549,400",45.38%
  867,CHINA MEDICAL SYSTEM HOLDINGS LIMITED,"12,116,618",0.48%
  868,XINYI GLASS HOLDINGS LIMITED,"183,607,053",4.57%
  874,"GUANGZHOU BAIYUNSHAN PHARMACEUTICAL HOLDINGS CO., LTD.","61,280,000",27.85%
  880,SJM HOLDINGS LIMITED,"178,187,700",3.14%
  881,ZHONGSHENG GROUP HOLDINGS LIMITED,"49,458,813",2.17%
  883,CNOOC LIMITED,"147,795,995",0.32%
  884,CIFI HOLDINGS (GROUP) CO. LTD.,"429,242,611",5.42%
  885,RENTIAN TECHNOLOGY HOLDINGS LIMITED,"1,110,000",0.01%
  895,DONGJIANG ENVIRONMENTAL COMPANY LIMITED,"55,318,200",27.64%
  902,"HUANENG POWER INTERNATIONAL, INC.","1,874,209,624",39.87%
  906,CPMC HOLDINGS LIMITED,"36,770,000",3.16%
  911,QIANHAI HEALTH HOLDINGS LIMITED,"93,578,000",5.52%
  914,ANHUI CONCH CEMENT COMPANY LIMITED,"26,400,789",2.02%
  916,CHINA LONGYUAN POWER GROUP CORPORATION LIMITED,"209,285,077",6.26%
  921,"HISENSE HOME APPLIANCES GROUP CO., LTD.","57,650,300",12.54%
  931,CHINA LNG GROUP LIMITED,"181,841,000",3.22%
  933,BRIGHTOIL PETROLEUM (HOLDINGS) LIMITED,"25,254,000",0.24%
  934,SINOPEC KANTONS HOLDINGS LIMITED,"122,528,000",4.92%
  939,CHINA CONSTRUCTION BANK CORPORATION,"20,123,820,565",8.36%
  941,CHINA MOBILE LIMITED,"77,963,190",0.37%
  950,LEE'S PHARMACEUTICAL HOLDINGS LIMITED,"2,318,500",0.39%
  951,CHAOWEI POWER HOLDINGS LIMITED,"107,823,000",9.76%
  960,LONGFOR GROUP HOLDINGS LIMITED,"154,942,993",2.58%
  966,CHINA TAIPING INSURANCE HOLDINGS COMPANY LIMITED,"457,093,770",12.70%
  967,SOUND GLOBAL LTD.,"289,000",0.01%
  968,XINYI SOLAR HOLDINGS LIMITED,"943,879,281",11.67%
  976,CHIHO ENVIRONMENTAL GROUP LIMITED,"233,226,000",14.52%
  978,CHINA MERCHANTS LAND LIMITED,"48,292,000",0.98%
  981,SEMICONDUCTOR MANUFACTURING INTERNATIONAL CORPORATION,"1,247,541,898",24.33%
  989,GROUND INTERNATIONAL DEVELOPMENT LIMITED,"189,325,000",3.59%
  991,"DATANG INTERNATIONAL POWER GENERATION CO.,LTD.","188,654,000",3.08%
  992,LENOVO GROUP LIMITED,"37,854,476",0.30%
  995,ANHUI EXPRESSWAY COMPANY LIMITED,"91,780,000",18.60%
  996,CARNIVAL GROUP INTERNATIONAL HOLDINGS LIMITED,"6,110,842,500",25.77%
  998,CHINA CITIC BANK CORPORATION LIMITED,"2,035,027,901",13.67%
 1028,C.BANNER INTERNATIONAL HOLDINGS LIMITED,"150,488,000",7.24%
 1030,SEAZEN GROUP LIMITED,"316,654,500",5.09%
 1031,KINGSTON FINANCIAL GROUP LIMITED,"550,000",0.00%
 1033,SINOPEC OILFIELD SERVICE CORPORATION,"343,064,000",6.32%
 1038,CK INFRASTRUCTURE HOLDINGS LIMITED,"10,590,500",0.39%
 1044,HENGAN INTERNATIONAL GROUP COMPANY LIMITED,"14,223,500",1.18%
 1052,YUEXIU TRANSPORT INFRASTRUCTURE LIMITED,"38,220,000",2.28%
 1053,CHONGQING IRON & STEEL COMPANY LIMITED,"92,410,000",17.16%
 1055,CHINA SOUTHERN AIRLINES COMPANY LIMITED,"419,166,861",11.42%
 1057,ZHEJIANG SHIBAO COMPANY LIMITED,"40,782,000",18.81%
 1060,ALIBABA PICTURES GROUP LIMITED,"2,748,258,620",10.31%
 1065,TIANJIN CAPITAL ENVIRONMENTAL PROTECTION GROUP COMPANY LIMITED,"90,466,100",26.60%
 1066,SHANDONG WEIGAO GROUP MEDICAL POLYMER COMPANY LIMITED,"115,207,094",2.53%
 1068,CHINA YURUN FOOD GROUP LIMITED,"18,568,000",1.01%
 1070,TCL ELECTRONICS HOLDINGS LIMITED,"51,113,666",2.15%
 1071,HUADIAN POWER INTERNATIONAL CORPORATION LIMITED,"460,300,683",26.79%
 1072,DONGFANG ELECTRIC CORPORATION LIMITED,"99,849,046",29.36%
 1076,IMPERIAL PACIFIC INTERNATIONAL HOLDINGS LIMITED,"391,480,000",0.27%
 1083,TOWNGAS CHINA COMPANY LIMITED,"3,750,007",0.12%
 1086,GOODBABY INTERNATIONAL HOLDINGS LIMITED,"29,021,000",1.73%
 1088,CHINA SHENHUA ENERGY COMPANY LIMITED,"771,026,020",22.68%
 1089,LEYOU TECHNOLOGIES HOLDINGS LIMITED,"74,985,000",2.43%
 1093,CSPC PHARMACEUTICAL GROUP LIMITED,"308,612,867",4.94%
 1097,I-CABLE COMMUNICATIONS LIMITED,"102,723",0.00%
 1098,ROAD KING INFRASTRUCTURE LIMITED,"8,528,000",1.13%
 1099,SINOPHARM GROUP CO. LTD.,"42,398,576",3.15%
 1108,LUOYANG GLASS COMPANY LIMITED,"91,636,000",36.65%
 1109,CHINA RESOURCES LAND LIMITED,"93,111,683",1.30%
 1111,CHONG HING BANK LIMITED,"1,054,500",0.10%
 1112,HEALTH AND HAPPINESS (H&H) INTERNATIONAL HOLDINGS LIMITED,"52,714,500",8.18%
 1113,CK ASSET HOLDINGS LIMITED,"10,254,463",0.27%
 1114,BRILLIANCE CHINA AUTOMOTIVE HOLDINGS LIMITED,"200,605,080",3.96%
 1115,TIBET WATER RESOURCES LTD.,"161,127,000",6.27%
 1117,CHINA MODERN DAIRY HOLDINGS LTD.,"132,893,000",2.06%
 1119,IDREAMSKY TECHNOLOGY HOLDINGS LIMITED,"25,034,400",1.97%
 1128,"WYNN MACAU, LIMITED","14,659,759",0.27%
 1131,AGRITRADE RESOURCES LIMITED,"270,055,000",4.23%
 1138,"COSCO SHIPPING ENERGY TRANSPORTATION CO., LTD.","204,752,000",15.79%
 1140,OP FINANCIAL LIMITED,"102,832,000",3.54%
 1141,CMBC CAPITAL HOLDINGS LIMITED,"566,590,000",1.18%
 1157,"ZOOMLION HEAVY INDUSTRY SCIENCE AND TECHNOLOGY CO., LTD.","59,124,411",4.25%
 1165,SHUNFENG INTERNATIONAL CLEAN ENERGY LIMITED,"338,122,000",6.78%
 1169,"HAIER ELECTRONICS GROUP CO., LTD.","60,627,929",2.14%
 1171,YANZHOU COAL MINING COMPANY LIMITED,"334,045,000",17.10%
 1176,ZHUGUANG HOLDINGS GROUP COMPANY LIMITED,"147,266,000",2.04%
 1177,SINO BIOPHARMACEUTICAL LIMITED,"939,520,409",7.45%
 1186,CHINA RAILWAY CONSTRUCTION CORPORATION LIMITED,"66,557,657",3.19%
 1188,HYBRID KINETIC GROUP LIMITED,"118,550,000",0.58%
 1193,CHINA RESOURCES GAS GROUP LIMITED,"13,292,000",0.59%
 1196,REALORD GROUP HOLDINGS LIMITED,"113,092,000",7.86%
 1199,COSCO SHIPPING PORTS LIMITED,"7,122,965",0.21%
 1205,CITIC RESOURCES HOLDINGS LIMITED,"185,574,100",2.35%
 1208,MMG LIMITED,"228,682,000",2.83%
 1211,BYD COMPANY LIMITED,"46,427,331",5.07%
 1212,LIFESTYLE INTERNATIONAL HOLDINGS LIMITED,"1,390,812",0.08%
 1230,YASHILI INTERNATIONAL HOLDINGS LTD,"79,845,000",1.68%
 1233,TIMES CHINA HOLDINGS LIMITED,"122,140,757",6.28%
 1234,CHINA LILANG LIMITED,"37,010,000",3.09%
 1238,POWERLONG REAL ESTATE HOLDINGS LIMITED,"93,173,000",2.24%
 1250,BEIJING ENTERPRISES CLEAN ENERGY GROUP LIMITED,"1,870,900,000",2.94%
 1253,CHINA GREENLAND BROAD GREENSTATE GROUP COMPANY LIMITED,"6,840,000",0.20%
 1257,CHINA EVERBRIGHT GREENTECH LIMITED,"64,438,000",3.11%
 1268,CHINA MEIDONG AUTO HOLDINGS LIMITED,"1,352,000",0.11%
 1269,CHINA FIRST CAPITAL GROUP LIMITED,"1,356,146,000",26.97%
 1282,GLORY SUN FINANCIAL GROUP LIMITED,"2,034,624,000",6.82%
 1286,IMPRO PRECISION INDUSTRIES LIMITED,"7,000",0.00%
 1288,AGRICULTURAL BANK OF CHINA LIMITED,"6,790,976,435",22.08%
 1293,GRAND BAOXIN AUTO GROUP LIMITED,"136,829,466",4.81%
 1299,AIA GROUP LIMITED,"81,930,114",0.67%
 1302,LIFETECH SCIENTIFIC CORPORATION,"616,196,000",14.26%
 1308,SITC INTERNATIONAL HOLDINGS COMPANY LIMITED,"57,006,000",2.11%
 1310,HKBN LTD.,"3,995,000",0.30%
 1313,CHINA RESOURCES CEMENT HOLDINGS LIMITED,"63,647,915",0.90%
 1315,VISION FAME INTERNATIONAL HOLDING LIMITED,"733,014,000",12.21%
 1316,NEXTEER AUTOMOTIVE GROUP LIMITED,"30,999,000",1.22%
 1317,CHINA MAPLE LEAF EDUCATIONAL SYSTEMS LIMITED,"271,278,537",9.05%
 1330,"DYNAGREEN ENVIRONMENTAL PROTECTION GROUP CO., LTD","105,951,000",26.20%
 1333,CHINA ZHONGWANG HOLDINGS LIMITED,"244,659,200",4.48%
 1336,NEW CHINA LIFE INSURANCE COMPANY LTD.,"336,937,235",32.57%
 1339,"PEOPLE'S INSURANCE COMPANY (GROUP) OF CHINA LIMITED, THE","1,331,566,987",15.25%
 1347,HUA HONG SEMICONDUCTOR LIMITED,"60,672,984",4.69%
 1357,"MEITU, INC.","301,263,600",6.98%
 1359,"CHINA CINDA ASSET MANAGEMENT CO., LTD.","1,949,307,457",14.36%
 1361,361 DEGREES INTERNATIONAL LIMITED,"33,479,000",1.61%
 1363,CT ENVIRONMENTAL GROUP LIMITED,"502,874,000",7.95%
 1368,XTEP INTERNATIONAL HOLDINGS LIMITED,"35,785,396",1.42%
 1375,"CENTRAL CHINA SECURITIES CO., LTD.","187,577,000",15.68%
 1378,CHINA HONGQIAO GROUP LIMITED,"494,629,410",5.76%
 1381,CANVEST ENVIRONMENTAL PROTECTION GROUP COMPANY LIMITED,"27,911,000",1.14%
 1382,PACIFIC TEXTILES HOLDINGS LIMITED,"13,464,000",0.92%
 1383,SUNCITY GROUP HOLDINGS LIMITED,"13,510,000",0.20%
 1387,CHINA DILI GROUP,"158,782,730",2.77%
 1398,INDUSTRIAL AND COMMERCIAL BANK OF CHINA LIMITED,"21,681,412,634",24.97%
 1432,CHINA SHENGMU ORGANIC MILK LIMITED,"167,678,000",2.63%
 1448,FU SHOU YUAN INTERNATIONAL GROUP LIMITED,"201,273,000",8.87%
 1458,ZHOU HEI YA INTERNATIONAL HOLDINGS COMPANY LIMITED,"319,022,000",13.38%
 1478,Q TECHNOLOGY (GROUP) COMPANY LIMITED,"45,286,000",3.91%
 1508,CHINA REINSURANCE (GROUP) CORPORATION,"520,566,000",7.79%
 1513,LIVZON PHARMACEUTICAL GROUP INC.,"33,145,896",10.36%
 1515,CHINA RESOURCES MEDICAL HOLDINGS COMPANY LIMITED,"40,943,600",3.15%
 1521,FRONTAGE HOLDINGS CORPORATION,"107,454,000",5.32%
 1528,RED STAR MACALLINE GROUP CORPORATION LTD.,"102,167,389",15.15%
 1530,3SBIO INC.,"90,104,500",3.54%
 1533,"LANZHOU ZHUANGYUAN PASTURE CO., LTD.","4,646,500",13.22%
 1548,GENSCRIPT BIOTECH CORPORATION,"194,152,000",10.31%
 1551,"GUANGZHOU RURAL COMMERCIAL BANK CO., LTD","2,415,000",0.13%
 1558,"YICHANG HEC CHANGJIANG PHARMACEUTICAL CO., LTD.","54,803,000",24.61%
 1569,MINSHENG EDUCATION GROUP COMPANY LIMITED,"84,456,000",2.10%
 1573,SOUTHERN ENERGY HOLDINGS GROUP LIMITED,"108,526,000",15.11%
 1578,"BANK OF TIANJIN CO., LTD.","39,000",0.00%
 1579,YIHAI INTERNATIONAL HOLDING LTD.,"45,543,748",4.34%
 1583,QINQIN FOODSTUFFS GROUP (CAYMAN) COMPANY LIMITED,"25,700",0.00%
 1585,YADEA GROUP HOLDINGS LTD.,"254,482,000",8.49%
 1589,"CHINA LOGISTICS PROPERTY HOLDINGS CO., LTD","262,000",0.00%
 1600,CHINA TIAN LUN GAS HOLDINGS LIMITED,"9,638,000",0.96%
 1606,"CHINA DEVELOPMENT BANK FINANCIAL LEASING CO., LTD.","546,000",0.01%
 1608,VPOWER GROUP INTERNATIONAL HOLDINGS LIMITED,"1,366,000",0.05%
 1610,COFCO MEAT HOLDINGS LIMITED,"229,178,489",5.87%
 1618,METALLURGICAL CORPORATION OF CHINA LTD.,"270,276,000",9.40%
 1619,TIANHE CHEMICALS GROUP LIMITED,"193,880,000",0.78%
 1622,REDCO PROPERTIES GROUP LIMITED,"77,408,000",2.17%
 1628,YUZHOU PROPERTIES COMPANY LIMITED,"56,098,469",1.06%
 1635,"SHANGHAI DAZHONG PUBLIC UTILITIES (GROUP) CO., LTD.","69,472,000",13.01%
 1636,CHINA METAL RESOURCES UTILIZATION LIMITED,"39,848,000",1.51%
 1638,KAISA GROUP HOLDINGS LTD.,"333,284,619",5.45%
 1658,"POSTAL SAVINGS BANK OF CHINA CO., LTD.","311,128,000",1.56%
 1661,WISDOM SPORTS GROUP,"6,451,000",0.40%
 1666,TONG REN TANG TECHNOLOGIES CO LTD,"151,635,200",24.11%
 1668,CHINA SOUTH CITY HOLDINGS LIMITED,"752,680,396",9.27%
 1680,MACAU LEGEND DEVELOPMENT LIMITED,"133,803,000",2.15%
 1681,CONSUN PHARMACEUTICAL GROUP LIMITED,"33,663,000",3.88%
 1685,BOER POWER HOLDINGS LIMITED,"2,255,000",0.29%
 1686,SUNEVISION HOLDINGS LIMITED,"2,902,000",0.12%
 1691,JS GLOBAL LIFESTYLE COMPANY LIMITED,"246,000",0.00%
 1717,AUSNUTRIA DAIRY CORPORATION LTD,"55,636,000",3.45%
 1728,CHINA ZHENGTONG AUTO SERVICES HOLDINGS LIMITED,"164,881,000",6.72%
 1761,BABYTREE GROUP,"6,859,000",0.41%
 1765,"HOPE EDUCATION GROUP CO., LTD.","414,464,000",6.21%
 1766,CRRC CORPORATION LIMITED,"242,379,570",5.54%
 1772,"GANFENG LITHIUM CO., LTD.","96,382,200",48.14%
 1776,"GF SECURITIES CO., LTD.","417,744,300",24.54%
 1777,"FANTASIA HOLDINGS GROUP CO., LIMITED","344,050,000",5.96%
 1778,"COLOUR LIFE SERVICES GROUP CO., LIMITED","70,010,000",4.92%
 1787,"SHANDONG GOLD MINING CO., LTD.","97,082,911",19.42%
 1788,GUOTAI JUNAN INTERNATIONAL HOLDINGS LIMITED,"198,105,000",2.56%
 1789,AK MEDICAL HOLDINGS LIMITED,"11,890,000",1.07%
 1797,KOOLEARN TECHNOLOGY HOLDING LIMITED,"131,858,237",14.04%
 1800,CHINA COMMUNICATIONS CONSTRUCTION COMPANY LIMITED,"316,808,000",7.15%
 1806,HUIFU PAYMENT LIMITED,"40,657,200",3.14%
 1810,XIAOMI CORPORATION,"1,311,572,037",5.45%
 1811,"CGN NEW ENERGY HOLDINGS CO., LTD.","132,384,000",3.08%
 1812,SHANDONG CHENMING PAPER HOLDINGS LIMITED,"94,551,700",17.89%
 1813,KWG GROUP HOLDINGS LIMITED,"200,404,793",6.30%
 1816,"CGN POWER CO., LTD","2,135,312,000",19.12%
 1818,ZHAOJIN MINING INDUSTRY COMPANY LIMITED,"92,460,872",8.81%
 1829,CHINA MACHINERY ENGINEERING CORPORATION,"143,000",0.01%
 1833,PING AN HEALTHCARE AND TECHNOLOGY COMPANY LIMITED,"39,271,200",3.66%
 1848,CHINA AIRCRAFT LEASING GROUP HOLDINGS LIMITED,"6,599,000",0.97%
 1860,MOBVISTA INC.,"2,714,000",0.17%
 1873,VIVA BIOTECH HOLDINGS,"10,504,000",0.67%
 1876,BUDWEISER BREWING COMPANY APAC LIMITED,"15,327,900",0.10%
 1882,HAITIAN INTERNATIONAL HOLDINGS LIMITED,"20,719,000",1.28%
 1883,CITIC TELECOM INTERNATIONAL HOLDINGS LIMITED,"20,338,000",0.55%
 1886,CHINA HUIYUAN JUICE GROUP LIMITED,"125,355,500",4.69%
 1888,KINGBOARD LAMINATES HOLDINGS LIMITED,"23,684,095",0.76%
 1890,CHINA KEPEI EDUCATION GROUP LIMITED,"85,960,000",4.29%
 1896,MAOYAN ENTERTAINMENT,"23,826,200",2.10%
 1898,CHINA COAL ENERGY COMPANY LIMITED,"255,837,000",6.22%
 1905,"HAITONG UNITRUST INTERNATIONAL LEASING CO., LTD.","1,284,000",0.02%
 1907,CHINA RISUN GROUP LIMITED,"8,715,000",0.21%
 1908,C&D INTERNATIONAL INVESTMENT GROUP LIMITED,"60,250,000",5.12%
 1911,CHINA RENAISSANCE HOLDINGS LIMITED,"5,302,800",0.99%
 1916,"JIANGXI BANK CO., LTD.","11,701,500",0.86%
 1918,SUNAC CHINA HOLDINGS LIMITED,"885,219,126",19.04%
 1919,"COSCO SHIPPING HOLDINGS CO., LTD.","290,467,500",11.24%
 1928,SANDS CHINA LTD.,"43,837,341",0.53%
 1929,CHOW TAI FOOK JEWELLERY GROUP LIMITED,"43,359,400",0.42%
 1951,JINXIN FERTILITY GROUP LIMITED,"122,478,930",5.02%
 1958,BAIC MOTOR CORPORATION LIMITED,"88,586,500",3.50%
 1963,"BANK OF CHONGQING CO., LTD.","107,892,500",6.83%
 1966,CHINA SCE GROUP HOLDINGS LIMITED,"132,040,054",3.15%
 1970,"IMAX CHINA HOLDING, INC.","3,206,400",0.91%
 1972,SWIRE PROPERTIES LIMITED,"1,855,600",0.02%
 1980,TIAN GE INTERACTIVE HOLDINGS LIMITED,"28,414,000",2.25%
 1988,"CHINA MINSHENG BANKING CORP., LTD.","879,537,649",10.56%
 1992,FOSUN TOURISM GROUP,"1,165,800",0.09%
 1996,REDSUN PROPERTIES GROUP LIMITED,"6,719,000",0.20%
 1997,WHARF REAL ESTATE INVESTMENT COMPANY LIMITED,"3,913,958",0.12%
 1999,MAN WAH HOLDINGS LIMITED,"569,099,371",14.91%
 2001,CHINA NEW HIGHER EDUCATION GROUP LIMITED,"187,672,000",12.17%
 2003,VCREDIT HOLDINGS LIMITED,"3,683,800",0.73%
 2005,SSY GROUP LIMITED,"254,714,059",8.39%
 2007,COUNTRY GARDEN HOLDINGS COMPANY LIMITED,"235,896,423",1.07%
 2008,PHOENIX MEDIA INVESTMENT (HOLDINGS) LIMITED,"213,004,000",4.26%
 2009,BBMG CORPORATION,"202,895,500",8.67%
 2013,WEIMOB INC.,"214,844,432",9.59%
 2016,"CHINA ZHESHANG BANK CO., LTD.","2,891,000",0.06%
 2018,AAC TECHNOLOGIES HOLDINGS INC.,"48,484,551",4.00%
 2019,DEXIN CHINA HOLDINGS COMPANY LIMITED,"13,112,000",0.48%
 2020,ANTA SPORTS PRODUCTS LIMITED,"112,248,961",4.14%
 2038,FIH MOBILE LIMITED,"99,902,000",1.21%
 2039,"CHINA INTERNATIONAL MARINE CONTAINERS (GROUP) CO., LTD.","161,380,500",7.83%
 2048,E-HOUSE (CHINA) ENTERPRISE HOLDINGS LIMITED,"16,500",0.00%
 2051,51 CREDIT CARD INC.,"63,332,000",5.31%
 2066,"SHENGJING BANK CO., LTD.","284,500",0.01%
 2068,CHINA ALUMINUM INTERNATIONAL ENGINEERING CORPORATION LIMITED,"3,045,000",0.76%
 2098,ZALL SMART COMMERCE GROUP LTD.,"47,925,000",0.40%
 2099,CHINA GOLD INTERNATIONAL RESOURCES CORP. LTD.,"17,556,300",4.42%
 2103,SINIC HOLDINGS (GROUP) COMPANY LIMITED,"833,000",0.02%
 2111,BEST PACIFIC INTERNATIONAL HOLDINGS LIMITED,"1,678,000",0.16%
 2128,CHINA LESSO GROUP HOLDINGS LIMITED,"21,238,000",0.67%
 2136,LIFESTYLE CHINA GROUP LIMITED,"284,000",0.01%
 2186,LUYE PHARMA GROUP LTD.,"521,035,000",15.93%
 2196,"SHANGHAI FOSUN PHARMACEUTICAL (GROUP) CO., LTD.","173,510,825",31.42%
 2199,REGINA MIRACLE INTERNATIONAL (HOLDINGS) LIMITED,"2,987,000",0.23%
 2202,"CHINA VANKE CO., LTD.","164,019,490",10.39%
 2208,"XINJIANG GOLDWIND SCIENCE & TECHNOLOGY CO., LTD.","97,728,976",12.63%
 2232,CRYSTAL INTERNATIONAL GROUP LIMITED,"4,796,000",0.16%
 2233,WEST CHINA CEMENT LIMITED,"231,712,000",4.26%
 2238,"GUANGZHOU AUTOMOBILE GROUP CO., LTD.","1,169,695,948",37.74%
 2255,HAICHANG OCEAN PARK HOLDINGS LTD.,"50,300,000",1.25%
 2269,WUXI BIOLOGICS (CAYMAN) INC.,"103,998,912",8.01%
 2280,HC GROUP INC.,"126,924,000",11.32%
 2282,MGM CHINA HOLDINGS LIMITED,"24,535,896",0.64%
 2298,COSMO LADY (CHINA) HOLDINGS COMPANY LIMITED,"11,895,000",0.51%
 2313,SHENZHOU INTERNATIONAL GROUP HOLDINGS LIMITED,"55,874,438",3.71%
 2314,LEE & MAN PAPER MANUFACTURING LIMITED,"49,226,825",1.12%
 2318,"PING AN INSURANCE (GROUP) COMPANY OF CHINA, LTD.","126,756,453",1.70%
 2319,CHINA MENGNIU DAIRY COMPANY LIMITED,"58,737,919",1.48%
 2326,NEW PROVENANCE EVERLASTING HOLDINGS LIMITED,"56,120,000",0.25%
 2328,PICC PROPERTY AND CASUALTY COMPANY LIMITED,"563,799,641",8.16%
 2329,GUORUI PROPERTIES LIMITED,"149,227,000",3.35%
 2331,LI NING COMPANY LIMITED,"112,687,227",4.58%
 2333,GREAT WALL MOTOR COMPANY LIMITED,"873,682,786",28.18%
 2338,"WEICHAI POWER CO., LTD.","109,362,600",5.62%
 2343,PACIFIC BASIN SHIPPING LIMITED,"5,558,000",0.11%
 2356,DAH SING BANKING GROUP LIMITED,"200,000",0.01%
 2357,AVICHINA INDUSTRY & TECHNOLOGY COMPANY LIMITED,"335,051,000",5.36%
 2359,"WUXI APPTEC CO., LTD.","9,929,180",5.81%
 2362,JINCHUAN GROUP INTERNATIONAL RESOURCES CO. LTD.,"95,910,000",0.76%
 2363,TONGDA HONG TAI HOLDINGS LIMITED,"379,462",0.19%
 2369,COOLPAD GROUP LIMITED,"47,724,000",0.81%
 2380,CHINA POWER INTERNATIONAL DEVELOPMENT LIMITED,"723,384,436",7.37%
 2382,SUNNY OPTICAL TECHNOLOGY (GROUP) COMPANY LIMITED,"97,694,730",8.89%
 2386,"SINOPEC ENGINEERING (GROUP) CO., LTD.","19,207,500",1.31%
 2388,BOC HONG KONG (HOLDINGS) LIMITED,"28,905,945",0.27%
 2400,XD INC.,"4,467,000",1.04%
 2588,BOC AVIATION LIMITED,"12,957,300",1.86%
 2600,ALUMINUM CORPORATION OF CHINA LIMITED,"239,622,000",6.07%
 2601,CHINA PACIFIC INSURANCE (GROUP) CO. LTD.,"665,175,568",23.96%
 2607,"SHANGHAI PHARMACEUTICALS HOLDING CO., LTD.","112,604,166",12.25%
 2611,"GUOTAI JUNAN SECURITIES CO., LTD.","42,459,200",3.04%
 2628,CHINA LIFE INSURANCE COMPANY LIMITED,"211,784,593",2.84%
 2662,CAMSING INTERNATIONAL HOLDING LIMITED,"132,096,000",12.26%
 2666,GENERTEC UNIVERSAL MEDICAL GROUP COMPANY LIMITED,"305,640,000",17.80%
 2669,CHINA OVERSEAS PROPERTY HOLDINGS LIMITED,"273,754,682",8.32%
 2678,TEXHONG TEXTILE GROUP LIMITED,"27,607,000",3.01%
 2688,ENN ENERGY HOLDINGS LIMITED,"10,456,890",0.92%
 2689,NINE DRAGONS PAPER (HOLDINGS) LIMITED,"73,112,000",1.55%
 2727,SHANGHAI ELECTRIC GROUP COMPANY LIMITED,"687,299,000",23.11%
 2768,JIAYUAN INTERNATIONAL GROUP LIMITED,"317,983,577",8.05%
 2772,ZHONGLIANG HOLDINGS GROUP COMPANY LIMITED,"7,047,500",0.18%
 2777,"GUANGZHOU R&F PROPERTIES CO., LTD.","78,225,623",6.06%
 2799,"CHINA HUARONG ASSET MANAGEMENT CO., LTD.","1,858,334,000",7.41%
 2858,YIXIN GROUP LIMITED,"58,512,500",0.91%
 2866,"COSCO SHIPPING DEVELOPMENT CO., LTD.","512,305,000",13.93%
 2869,GREENTOWN SERVICE GROUP CO. LTD.,"205,835,899",7.36%
 2877,CHINA SHINEWAY PHARMACEUTICAL GROUP LIMITED,"10,985,000",1.32%
 2880,DALIAN PORT (PDA) COMPANY LIMITED,"906,976,400",17.57%
 2883,CHINA OILFIELD SERVICES LIMITED,"156,179,627",8.61%
 2888,STANDARD CHARTERED PLC,"427,970",0.01%
 2899,"ZIJIN MINING GROUP CO., LTD.","1,299,998,000",22.65%
 3301,RONSHINE CHINA HOLDINGS LIMITED,"150,871,000",8.78%
 3306,JNBY DESIGN LIMITED,"17,398,500",3.35%
 3308,GOLDEN EAGLE RETAIL GROUP LIMITED,"115,197,000",6.85%
 3309,C-MER EYE CARE HOLDINGS LIMITED,"14,310,000",1.35%
 3311,CHINA STATE CONSTRUCTION INTERNATIONAL HOLDINGS LIMITED,"19,676,192",0.38%
 3319,"A-LIVING SERVICES CO., LTD.","1,944,750",0.44%
 3320,CHINA RESOURCES PHARMACEUTICAL GROUP LIMITED,"93,427,500",1.48%
 3323,CHINA NATIONAL BUILDING MATERIAL COMPANY LIMITED,"797,013,801",20.59%
 3328,"BANK OF COMMUNICATIONS CO., LTD.","578,917,944",1.64%
 3329,BOCOM INTERNATIONAL HOLDINGS COMPANY LIMITED,"18,678,000",0.68%
 3331,VINDA INTERNATIONAL HOLDINGS LIMITED,"556,000",0.03%
 3333,CHINA EVERGRANDE GROUP,"183,655,355",1.38%
 3339,LONKING HOLDINGS LIMITED,"11,597,000",0.27%
 3360,FAR EAST HORIZON LIMITED,"93,213,000",2.34%
 3368,PARKSON RETAIL GROUP LIMITED,"5,709,500",0.21%
 3369,"QINHUANGDAO PORT CO., LTD.","68,834,000",8.29%
 3377,SINO-OCEAN GROUP HOLDING LIMITED,"128,438,310",1.67%
 3380,LOGAN PROPERTY HOLDINGS COMPANY LIMITED,"138,340,871",2.50%
 3382,TIANJIN PORT DEVELOPMENT HOLDINGS LIMITED,"218,256,000",3.54%
 3383,AGILE GROUP HOLDINGS LIMITED,"31,354,548",0.79%
 3389,HENGDELI HOLDINGS LIMITED,"920,000",0.01%
 3393,WASION HOLDINGS LIMITED,"1,326,000",0.13%
 3396,LEGEND HOLDINGS CORPORATION,"73,160,000",5.74%
 3606,"FUYAO GLASS INDUSTRY GROUP CO., LTD","29,897,600",5.90%
 3613,BEIJING TONG REN TANG CHINESE MEDICINE COMPANY LIMITED,"72,800,000",8.69%
 3618,"CHONGQING RURAL COMMERCIAL BANK CO., LTD.","533,786,127",21.22%
 3633,ZHONGYU GAS HOLDINGS LIMITED,"13,206,000",0.48%
 3669,CHINA YONGDA AUTOMOBILES SERVICES HOLDINGS LIMITED,"15,242,500",0.82%
 3690,MEITUAN DIANPING,"212,809,218",3.64%
 3692,HANSOH PHARMACEUTICAL GROUP COMPANY LIMITED,"44,793,000",0.77%
 3698,HUISHANG BANK CORPORATION LIMITED,"4,801,800",0.13%
 3759,"PHARMARON BEIJING CO., LTD.","7,294,300",5.44%
 3788,CHINA HANKING HOLDINGS LIMITED,"16,444,000",0.90%
 3799,DALI FOODS GROUP COMPANY LIMITED,"337,312,500",2.46%
 3800,GCL-POLY ENERGY HOLDINGS LIMITED,"2,443,553,900",12.30%
 3808,SINOTRUK (HONG KONG) LIMITED,"83,957,500",3.03%
 3813,POU SHENG INTERNATIONAL (HOLDINGS) LIMITED,"6,797,000",0.12%
 3818,"CHINA DONGXIANG (GROUP) CO., LTD.","160,050,000",2.71%
 3836,CHINA HARMONY NEW ENERGY AUTO HOLDING LIMITED,"65,021,500",4.12%
 3866,"BANK OF QINGDAO CO., LTD.","860,000",0.04%
 3868,XINYI ENERGY HOLDINGS LIMITED,"8,414,000",0.12%
 3877,CSSC (HONG KONG) SHIPPING COMPANY LIMITED,"2,960,000",0.04%
 3883,CHINA AOYUAN GROUP LIMITED,"167,392,000",6.21%
 3886,TOWN HEALTH INTERNATIONAL MEDICAL GROUP LIMITED,"145,736,000",1.92%
 3888,KINGSOFT CORPORATION LIMITED,"341,063,328",24.84%
 3898,"ZHUZHOU CRRC TIMES ELECTRIC CO., LTD.","18,627,206",3.39%
 3899,CIMC ENRIC HOLDINGS LIMITED,"126,350,000",6.28%
 3900,GREENTOWN CHINA HOLDINGS LIMITED,"370,957,000",17.08%
 3908,CHINA INTERNATIONAL CAPITAL CORPORATION LIMITED,"300,071,696",15.76%
 3933,"UNITED LABORATORIES INTERNATIONAL HOLDINGS LIMITED, THE","138,504,181",8.41%
 3958,DFZQ,"369,194,334",35.93%
 3968,"CHINA MERCHANTS BANK CO., LTD.","235,593,881",5.12%
 3969,CHINA RAILWAY SIGNAL & COMMUNICATION CORPORATION LIMITED,"97,930,000",4.96%
 3988,BANK OF CHINA LIMITED,"7,424,479,376",8.87%
 3990,MIDEA REAL ESTATE HOLDING LIMITED,"25,660,200",2.08%
 3993,"CHINA MOLYBDENUM CO., LTD.","480,473,500",12.20%
 3996,CHINA ENERGY ENGINEERING CORPORATION LIMITED,"11,286,000",0.12%
 3998,BOSIDENG INTERNATIONAL HOLDINGS LIMITED,"552,260,000",5.11%
 6030,CITIC SECURITIES COMPANY LIMITED,"287,383,600",12.60%
 6049,"POLY PROPERTY DEVELOPMENT CO., LTD.","2,916,800",1.90%
 6055,CHINA TOBACCO INTERNATIONAL (HK) COMPANY LIMITED,"18,738,000",2.70%
 6060,"ZHONGAN ONLINE P & C INSURANCE CO., LTD.","20,805,800",4.42%
 6066,"CSC FINANCIAL CO., LTD.","274,525,000",21.76%
 6068,WISDOM EDUCATION INTERNATIONAL HOLDINGS COMPANY LIMITED,"100,602,000",4.91%
 6069,SHENG YE CAPITAL LIMITED,"4,000",0.00%
 6088,FIT HON TENG LIMITED,"117,537,000",1.69%
 6098,COUNTRY GARDEN SERVICES HOLDINGS COMPANY LIMITED,"132,705,314",4.88%
 6099,"CHINA MERCHANTS SECURITIES CO., LTD.","110,495,800",11.26%
 6100,"WISE TALENT INFORMATION TECHNOLOGY CO., LTD","195,200",0.03%
 6110,TOPSPORTS INTERNATIONAL HOLDINGS LIMITED,"259,000",0.00%
 6116,"SHANGHAI LA CHAPELLE FASHION CO., LTD.","60,967,000",28.38%
 6158,ZHENRO PROPERTIES GROUP LIMITED,"53,256,000",1.21%
 6166,CHINA VAST INDUSTRIAL URBAN DEVELOPMENT COMPANY LIMITED,"27,617,000",1.67%
 6169,CHINA YUHUA EDUCATION CORPORATION LIMITED,"430,782,050",12.89%
 6178,EVERBRIGHT SECURITIES COMPANY LIMITED,"86,396,400",12.26%
 6186,CHINA FEIHE LIMITED,"36,737,000",0.41%
 6196,"BANK OF ZHENGZHOU CO., LTD.","190,512,000",12.55%
 6198,"QINGDAO PORT INTERNATIONAL CO., LTD.","4,700,000",0.41%
 6806,"SHENWAN HONGYUAN GROUP CO., LTD.","78,446,400",3.13%
 6808,SUN ART RETAIL GROUP LIMITED,"64,881,007",0.67%
 6818,CHINA EVERBRIGHT BANK COMPANY LIMITED,"786,272,992",6.19%
 6828,BEIJING GAS BLUE SKY HOLDINGS LIMITED,"335,600,000",2.58%
 6837,"HAITONG SECURITIES CO., LTD.","538,183,800",15.77%
 6862,HAIDILAO INTERNATIONAL HOLDING LTD.,"123,500,147",2.32%
 6865,"FLAT GLASS GROUP CO., LTD.","151,950,000",33.76%
 6869,YANGTZE OPTICAL FIBRE AND CABLE JOINT STOCK LIMITED COMPANY,"23,857,500",6.78%
 6881,"CHINA GALAXY SECURITIES CO., LTD.","809,917,882",21.93%
 6886,"HUATAI SECURITIES CO., LTD.","395,790,800",23.01%
 8328,XINYI AUTOMOBILE GLASS HONG KONG ENTERPRISES LIMITED,"109,750",0.01%
 9928,TIMES NEIGHBORHOOD HOLDINGS LIMITED,"10,679,407",1.17%
