Stock Code,Stock Name,Shareholding in CCASS,Percentage of the total number of Issued Shares
    1,CK HUTCHISON HOLDINGS LIMITED,"27,809,819",0.71%
    2,CLP HOLDINGS LIMITED,"5,811,492",0.22%
    3,"HONG KONG AND CHINA GAS COMPANY LIMITED, THE","25,287,900",0.13%
    4,"WHARF (HOLDINGS) LIMITED, THE","9,348,450",0.29%
    5,HSBC HOLDINGS PLC,"1,847,179,670",8.91%
    6,POWER ASSETS HOLDINGS LIMITED,"4,282,422",0.19%
    8,PCCW LIMITED,"11,274,772",0.14%
   10,HANG LUNG GROUP LIMITED,"29,377,000",2.15%
   11,HANG SENG BANK LTD,"2,416,497",0.12%
   12,HENDERSON LAND DEVELOPMENT CO LTD,"4,217,636",0.08%
   14,HYSAN DEVELOPMENT COMPANY LIMITED,"1,084,000",0.10%
   16,SUN HUNG KAI PROPERTIES LIMITED,"7,172,404",0.24%
   17,NEW WORLD DEVELOPMENT CO LTD,"10,836,131",0.41%
   19,SWIRE PACIFIC LTD 'A',"3,407,500",0.36%
   23,BANK OF EAST ASIA LTD,"901,593",0.02%
   27,GALAXY ENTERTAINMENT GROUP LIMITED,"57,445,768",1.31%
   35,FAR EAST CONSORTIUM INTERNATIONAL LTD,"369,013",0.01%
   38,FIRST TRACTOR COMPANY LIMITED,"120,750,100",30.79%
   41,GREAT EAGLE HOLDINGS LIMITED,"1,400,511",0.18%
   42,NORTHEAST ELECTRIC DEVELOPMENT COMPANY LIMITED,"15,812,000",6.12%
   43,C.P. POKPHAND CO LTD,"840,000",0.00%
   45,"HONGKONG AND SHANGHAI HOTELS LTD,THE","42,013",0.00%
   59,SKYFAME REALTY (HOLDINGS) LIMITED,"63,878,000",0.80%
   66,MTR CORPORATION LIMITED,"6,305,116",0.09%
   69,SHANGRI-LA ASIA LIMITED,"20,032,000",0.54%
   78,REGAL HOTELS INTERNATIONAL HOLDINGS LIMITED,"12,000",0.00%
   81,CHINA OVERSEAS GRAND OCEANS GROUP LIMITED,"332,723,820",9.71%
   83,SINO LAND CO.LTD.,"3,911,976",0.05%
   86,SUN HUNG KAI & CO.LTD,"14,672,000",0.73%
   87,SWIRE PACIFIC LTD 'B',"29,157,500",0.97%
   95,LVGEM (CHINA) REAL ESTATE INVESTMENT COMPANY LIMITED,"184,582,000",3.62%
  101,HANG LUNG PROPERTIES LIMITED,"78,531,949",1.74%
  107,SICHUAN EXPRESSWAY COMPANY LIMITED,"227,336,000",25.38%
  109,GOOD RESOURCES HOLDINGS LIMITED,"44,440,000",0.62%
  116,CHOW SANG SANG HOLDINGS INTERNATIONAL LIMITED,"23,004,000",3.39%
  119,"POLY PROPERTY GROUP CO., LIMITED","391,925,748",10.70%
  120,COSMOPOLITAN INTERNATIONAL HOLDINGS LTD,"3,558,000",0.06%
  123,YUEXIU PROPERTY COMPANY LIMITED,"373,382,786",2.40%
  127,CHINESE ESTATES HOLDINGS LIMITED,"2,751,500",0.14%
  135,KUNLUN ENERGY COMPANY LIMITED,"107,015,534",1.23%
  136,HENGTEN NETWORKS GROUP LIMITED,"6,856,460,000",9.17%
  142,FIRST PACIFIC CO. LTD.,"7,078,000",0.16%
  144,CHINA MERCHANTS PORT HOLDINGS COMPANY LIMITED,"152,478,683",4.21%
  148,KINGBOARD HOLDINGS LIMITED,"14,798,136",1.33%
  151,WANT WANT CHINA HOLDINGS LIMITED,"25,337,871",0.19%
  152,SHENZHEN INTERNATIONAL HOLDINGS LIMITED,"75,533,953",3.43%
  163,EMPEROR INTERNATIONAL HOLDINGS LIMITED,"10,806,000",0.29%
  165,CHINA EVERBRIGHT LIMITED,"219,937,955",13.04%
  168,TSINGTAO BREWERY COMPANY LIMITED,"94,457,000",14.41%
  173,K. WAH INTERNATIONAL HOLDINGS LIMITED,"39,474,196",1.26%
  175,GEELY AUTOMOBILE HOLDINGS LIMITED,"853,680,940",8.69%
  177,JIANGSU EXPRESSWAY COMPANY LIMITED,"132,020,818",10.79%
  178,SA SA INTERNATIONAL HOLDINGS LIMITED,"15,043,268",0.47%
  179,JOHNSON ELECTRIC HOLDINGS LIMITED,"531,000",0.04%
  187,BEIJING JINGCHENG MACHINERY ELECTRIC COMPANY LIMITED,"27,052,000",27.05%
  189,DONGYUE GROUP LIMITED,"166,104,358",7.86%
  198,SMI HOLDINGS GROUP LIMITED,"70,340,800",2.59%
  200,MELCO INTERNATIONAL DEVELOPMENT LIMITED,"12,242,000",0.80%
  207,JOY CITY PROPERTY LIMITED,"4,364,000",0.03%
  215,HUTCHISON TELECOMMUNICATIONS HONG KONG HOLDINGS LIMITED,"12,392,000",0.25%
  220,UNI-PRESIDENT CHINA HOLDINGS LTD.,"8,914,000",0.19%
  241,ALIBABA HEALTH INFORMATION TECHNOLOGY LIMITED,"255,891,523",1.89%
  242,SHUN TAK HOLDINGS LIMITED,"91,806,000",3.03%
  245,CHINA VERED FINANCIAL HOLDING CORPORATION LIMITED,"25,120,000",0.06%
  256,CITYCHAMP WATCH & JEWELLERY GROUP LIMITED,"370,748,000",8.51%
  257,CHINA EVERBRIGHT ENVIRONMENT GROUP LIMITED,"550,207,021",8.94%
  267,CITIC LIMITED,"167,665,916",0.56%
  268,KINGDEE INTERNATIONAL SOFTWARE GROUP COMPANY LIMITED,"583,278,786",16.82%
  270,GUANGDONG INVESTMENT LIMITED,"36,610,905",0.55%
  272,SHUI ON LAND LIMITED,"787,375,500",9.76%
  279,FREEMAN FINTECH CORPORATION LIMITED,"612,286,000",32.77%
  285,BYD ELECTRONIC (INTERNATIONAL) COMPANY LIMITED,"184,790,987",8.19%
  288,WH GROUP LIMITED,"1,311,720,861",8.89%
  291,CHINA RESOURCES BEER (HOLDINGS) COMPANY LIMITED,"328,260,782",10.11%
  293,CATHAY PACIFIC AIRWAYS LTD,"23,591,026",0.36%
  295,KONG SUN HOLDINGS LIMITED,"52,325,000",0.34%
  297,SINOFERT HOLDINGS LIMITED,"365,104,000",5.19%
  302,CMGE TECHNOLOGY GROUP LIMITED,"190,586,000",8.17%
  303,VTECH HOLDINGS LIMITED,"1,385,301",0.54%
  308,CHINA TRAVEL INTERNATIONAL INVESTMENT HONG KONG LIMITED,"172,322,439",3.11%
  315,SMARTONE TELECOMMUNICATIONS HOLDINGS LIMITED,"1,709,608",0.14%
  316,ORIENT OVERSEAS (INTERNATIONAL) LIMITED,"8,500",0.00%
  317,CSSC OFFSHORE & MARINE ENGINEERING (GROUP) COMPANY LIMITED,"25,411,900",4.28%
  321,TEXWINCA HOLDINGS LIMITED,"1,004,000",0.07%
  322,TINGYI (CAYMAN ISLANDS) HOLDING CORP.,"21,996,708",0.38%
  323,MAANSHAN IRON & STEEL COMPANY LIMITED,"11,278,000",0.64%
  327,PAX GLOBAL TECHNOLOGY LIMITED,"6,321,000",0.58%
  330,ESPRIT HOLDINGS LIMITED,"11,002,900",0.57%
  336,HUABAO INTERNATIONAL HOLDINGS LIMITED,"417,324,100",13.42%
  337,GREENLAND HONG KONG HOLDINGS LIMITED,"112,252,000",4.02%
  338,SINOPEC SHANGHAI PETROCHEMICAL COMPANY LIMITED,"449,285,339",12.85%
  341,CAFE DE CORAL HOLDINGS LTD,"5,480,000",0.93%
  345,VITASOY INTERNATIONAL HOLDINGS LTD,"7,246,011",0.67%
  347,ANGANG STEEL COMPANY LIMITED,"19,625,200",1.39%
  354,CHINASOFT INTERNATIONAL LIMITED,"326,138,542",11.96%
  358,JIANGXI COPPER COMPANY LIMITED,"85,215,219",6.13%
  363,SHANGHAI INDUSTRIAL HOLDINGS LIMITED,"26,461,500",2.42%
  371,BEIJING ENTERPRISES WATER GROUP LIMITED,"269,612,010",2.69%
  378,FDG KINETIC LIMITED,"183,710,000",2.72%
  384,CHINA GAS HOLDINGS LIMITED,"43,786,843",0.83%
  386,CHINA PETROLEUM & CHEMICAL CORPORATION,"1,587,343,621",6.21%
  388,HONG KONG EXCHANGES AND CLEARING LIMITED,"53,551,592",4.21%
  390,CHINA RAILWAY GROUP LIMITED,"288,108,030",6.83%
  392,BEIJING ENTERPRISES HOLDINGS LIMITED,"86,010,482",6.80%
  400,COGOBUY GROUP,"50,462,000",3.55%
  410,SOHO CHINA LIMITED,"475,323,000",9.13%
  412,CHINA SHANDONG HI-SPEED FINANCIAL GROUP LIMITED,"9,900,000",0.04%
  419,HUAYI TENCENT ENTERTAINMENT COMPANY LIMITED,"165,140,000",1.22%
  425,MINTH GROUP LIMITED,"42,769,886",
  432,PACIFIC CENTURY PREMIUM DEVELOPMENTS LIMITED,"542,566",0.02%
  439,KUANGCHI SCIENCE LIMITED,"268,740,000",4.36%
  440,DAH SING FINANCIAL HOLDINGS LTD,"2,932,466",0.90%
  451,GCL NEW ENERGY HOLDINGS LIMITED,"1,337,858,000",7.01%
  460,SIHUAN PHARMACEUTICAL HOLDINGS GROUP LTD.,"533,146,000",5.63%
  467,UNITED ENERGY GROUP LIMITED,"179,992,000",0.67%
  468,GREATVIEW ASEPTIC PACKAGING COMPANY LIMITED,"7,342,000",0.54%
  480,HKR INTERNATIONAL LTD,"62,800",0.00%
  488,LAI SUN DEVELOPMENT COMPANY LIMITED,"30,000",0.00%
  489,DONGFENG MOTOR GROUP COMPANY LIMITED,"204,820,000",7.16%
  493,GOME RETAIL HOLDINGS LIMITED,"2,543,194,000",11.79%
  496,KASEN INTERNATIONAL HOLDINGS LIMITED,"135,754,000",9.08%
  506,CHINA FOODS LIMITED,"36,892,100",1.31%
  508,DINGYI GROUP INVESTMENT LIMITED,"381,175,000",5.18%
  511,TELEVISION BROADCASTS LIMITED,"454,000",0.09%
  512,CHINA GRAND PHARMACEUTICAL AND HEALTHCARE HOLDINGS LIMITED,"121,839,200",3.43%
  517,"COSCO SHIPPING INTERNATIONAL (HONG KONG) CO., LTD.","420,000",0.02%
  520,"XIABUXIABU CATERING MANAGEMENT (CHINA) HOLDINGS CO., LTD.","121,232,000",11.20%
  522,ASM PACIFIC TECHNOLOGY LIMITED,"12,758,725",3.11%
  525,GUANGSHEN RAILWAY COMPANY LIMITED,"388,640,010",27.14%
  530,GOLDIN FINANCIAL HOLDINGS LIMITED,"2,468,000",0.03%
  535,GEMDALE PROPERTIES AND INVESTMENT CORPORATION LIMITED,"2,004,782,154",12.14%
  546,FUFENG GROUP LIMITED,"73,238,119",2.89%
  547,DIGITAL DOMAIN HOLDINGS LIMITED,"1,017,020,000",2.98%
  548,SHENZHEN EXPRESSWAY COMPANY LIMITED,"118,450,000",15.83%
  551,YUE YUEN INDUSTRIAL (HOLDINGS) LIMITED,"5,373,793",0.32%
  552,CHINA COMMUNICATIONS SERVICES CORPORATION LIMITED,"35,300,000",1.47%
  553,NANJING PANDA ELECTRONICS COMPANY LIMITED,"61,120,000",25.25%
  563,SHANGHAI INDUSTRIAL URBAN DEVELOPMENT GROUP LIMITED,"110,845,855",2.30%
  564,ZHENGZHOU COAL MINING MACHINERY GROUP COMPANY LIMITED,"38,728,204",15.92%
  568,SHANDONG MOLONG PETROLEUM MACHINERY COMPANY LIMITED,"60,990,800",23.81%
  570,CHINA TRADITIONAL CHINESE MEDICINE HOLDINGS CO LIMITED,"658,746,938",13.07%
  576,"ZHEJIANG EXPRESSWAY CO., LTD.","71,241,759",4.96%
  579,"BEIJING JINGNENG CLEAN ENERGY CO., LIMITED","156,758,000",5.53%
  581,CHINA ORIENTAL GROUP COMPANY LIMITED,"145,862,987",3.91%
  582,LANDING INTERNATIONAL DEVELOPMENT LIMITED,"111,918,000",3.16%
  586,CHINA CONCH VENTURE HOLDINGS LIMITED,"165,573,000",9.17%
  588,BEIJING NORTH STAR COMPANY LIMITED,"231,134,000",32.68%
  590,LUK FOOK HOLDINGS (INTERNATIONAL) LIMITED,"2,518,000",0.42%
  598,SINOTRANS LIMITED,"317,707,000",14.81%
  604,SHENZHEN INVESTMENT LIMITED,"43,593,579",0.48%
  607,FULLSHARE HOLDINGS LIMITED,"4,532,597,500",22.99%
  612,CHINA DING YI FENG HOLDINGS LIMITED,"2,208,000",0.16%
  631,SANY HEAVY EQUIPMENT INTERNATIONAL HOLDINGS COMPANY LIMITED,"186,474,000",5.97%
  636,KERRY LOGISTICS NETWORK LIMITED,"1,453,500",0.08%
  639,SHOUGANG FUSHAN RESOURCES GROUP LIMITED,"82,598,875",1.63%
  656,FOSUN INTERNATIONAL LIMITED,"1,003,564,424",11.81%
  658,"CHINA HIGH SPEED TRANSMISSION EQUIPMENT GROUP CO., LTD.","159,646,000",9.75%
  659,NWS HOLDINGS LIMITED,"6,981,969",0.16%
  665,HAITONG INTERNATIONAL SECURITIES GROUP LIMITED,"269,830,840",4.46%
  667,CHINA EAST EDUCATION HOLDINGS LIMITED,"126,912,500",5.78%
  669,TECHTRONIC INDUSTRIES CO. LTD.,"6,973,470",0.37%
  670,CHINA EASTERN AIRLINES CORPORATION LIMITED,"281,549,567",5.42%
  680,NAN HAI CORPORATION LIMITED,"483,100,000",0.69%
  683,KERRY PROPERTIES LIMITED,"3,403,124",0.22%
  686,"BEIJING ENERGY INTERNATIONAL HOLDING CO., LTD","295,010,000",1.31%
  687,TYSAN HOLDINGS LIMITED,"26,470,000",0.78%
  688,CHINA OVERSEAS LAND & INVESTMENT LIMITED,"61,579,087",0.55%
  691,CHINA SHANSHUI CEMENT GROUP LIMITED,"4,078,000",0.09%
  694,BEIJING CAPITAL INTERNATIONAL AIRPORT COMPANY LIMITED,"368,005,672",19.57%
  696,TRAVELSKY TECHNOLOGY LIMITED,"35,554,000",3.80%
  697,SHOUCHENG HOLDINGS LIMITED,"53,450,010",0.75%
  698,TONGDA GROUP HOLDINGS LIMITED,"156,120,000",2.40%
  699,CAR INC.,"166,171,001",7.82%
  700,TENCENT HOLDINGS LIMITED,"339,163,533",3.53%
  709,GIORDANO INTERNATIONAL LIMITED,"2,100,000",0.13%
  715,CHINA OCEANWIDE HOLDINGS LIMITED,"456,000",0.00%
  718,TAI UNITED HOLDINGS LIMITED,"20,050,000",0.38%
  719,SHANDONG XINHUA PHARMACEUTICAL COMPANY LIMITED,"68,707,036",35.23%
  721,CHINA FINANCIAL INTERNATIONAL INVESTMENTS LIMITED,"304,790,000",2.77%
  728,CHINA TELECOM CORPORATION LIMITED,"295,721,238",2.12%
  729,FDG ELECTRIC VEHICLES LIMITED,"70,130,750",2.79%
  732,TRULY INTERNATIONAL HOLDINGS LIMITED,"299,822,000",9.11%
  737,SZ INVESTMENT HLDGS BAY AREA DEV CO LTD -HKD TRADED SHARES,"1,431,500",0.04%
  743,ASIA CEMENT (CHINA) HOLDINGS CORPORATION,"32,571,500",2.07%
  751,SKYWORTH GROUP LIMITED,"163,361,429",6.11%
  753,AIR CHINA LIMITED,"354,920,449",7.76%
  754,HOPSON DEVELOPMENT HOLDINGS LIMITED,"54,014,000",2.43%
  762,CHINA UNICOM (HONG KONG) LIMITED,"310,368,000",1.01%
  763,ZTE CORPORATION,"190,595,178",25.22%
  772,CHINA LITERATURE LIMITED,"77,671,018",7.63%
  775,"CK LIFE SCIENCES INT'L., (HOLDINGS) INC.","18,334,000",0.19%
  777,NETDRAGON WEBSOFT HOLDINGS LIMITED,"24,987,000",4.42%
  780,TONGCHENG-ELONG HOLDINGS LIMITED,"21,233,600",0.97%
  787,GLOBAL BRANDS GROUP HOLDING LIMITED,"66,332,633",6.44%
  788,CHINA TOWER CORPORATION LIMITED,"1,956,506,140",4.19%
  799,IGG INC,"93,868,298",7.62%
  806,VALUE PARTNERS GROUP LIMITED,"64,604,405",3.48%
  811,"XINHUA WINSHARE PUBLISHING AND MEDIA CO., LTD.","81,521,000",18.44%
  813,SHIMAO GROUP HOLDINGS LIMITED,"73,117,572",2.05%
  817,CHINA JINMAO HOLDINGS GROUP LIMITED,"1,012,325,130",7.94%
  819,TIANNENG POWER INTERNATIONAL LIMITED,"217,911,000",19.35%
  826,TIANGONG INTERNATIONAL COMPANY LIMITED,"74,254,000",2.89%
  829,SHENGUAN HOLDINGS (GROUP) LIMITED,"140,358,000",4.34%
  832,CENTRAL CHINA REAL ESTATE LIMITED,"129,054,000",4.56%
  836,CHINA RESOURCES POWER HOLDINGS COMPANY LIMITED,"224,354,335",4.66%
  839,CHINA EDUCATION GROUP HOLDINGS LIMITED,"98,410,655",4.57%
  845,GLORIOUS PROPERTY HOLDINGS LIMITED,"22,344,000",0.28%
  846,MINGFA GROUP (INTERNATIONAL) COMPANY LIMITED,"5,261,000",0.08%
  853,MICROPORT SCIENTIFIC CORPORATION,"238,275,419",13.19%
  855,CHINA WATER AFFAIRS GROUP LIMITED,"170,837,357",10.77%
  856,VSTECS HOLDINGS LIMITED,"16,144,000",1.11%
  857,PETROCHINA COMPANY LIMITED,"1,707,228,455",8.09%
  860,APOLLO FUTURE MOBILITY GROUP LIMITED,"28,832,000",0.40%
  861,DIGITAL CHINA HOLDINGS LIMITED,"617,211,150",36.90%
  867,CHINA MEDICAL SYSTEM HOLDINGS LIMITED,"34,803,474",1.39%
  868,XINYI GLASS HOLDINGS LIMITED,"204,467,443",5.05%
  874,"GUANGZHOU BAIYUNSHAN PHARMACEUTICAL HOLDINGS CO., LTD.","69,110,100",31.42%
  880,SJM HOLDINGS LIMITED,"243,438,700",4.28%
  881,ZHONGSHENG GROUP HOLDINGS LIMITED,"46,531,500",2.04%
  883,CNOOC LIMITED,"444,446,543",0.98%
  884,CIFI HOLDINGS (GROUP) CO. LTD.,"381,836,009",4.64%
  885,RENTIAN TECHNOLOGY HOLDINGS LIMITED,"1,110,000",0.01%
  895,DONGJIANG ENVIRONMENTAL COMPANY LIMITED,"57,903,600",28.93%
  902,"HUANENG POWER INTERNATIONAL, INC.","2,019,515,004",42.95%
  906,CPMC HOLDINGS LIMITED,"14,685,000",1.31%
  911,QIANHAI HEALTH HOLDINGS LIMITED,"90,771,000",5.35%
  914,ANHUI CONCH CEMENT COMPANY LIMITED,"53,211,789",4.08%
  916,CHINA LONGYUAN POWER GROUP CORPORATION LIMITED,"158,952,000",4.75%
  921,"HISENSE HOME APPLIANCES GROUP CO., LTD.","41,239,459",8.97%
  931,CHINA LNG GROUP LIMITED,"167,965,000",2.97%
  934,SINOPEC KANTONS HOLDINGS LIMITED,"186,864,000",7.50%
  939,CHINA CONSTRUCTION BANK CORPORATION,"26,594,334,450",11.05%
  941,CHINA MOBILE LIMITED,"86,258,224",0.41%
  950,LEE'S PHARMACEUTICAL HOLDINGS LIMITED,"1,356,500",0.23%
  951,CHAOWEI POWER HOLDINGS LIMITED,"100,306,000",9.08%
  956,CHINA SUNTIEN GREEN ENERGY CORPORATION LIMITED,"235,669,000",12.80%
  960,LONGFOR GROUP HOLDINGS LIMITED,"168,132,493",2.79%
  966,CHINA TAIPING INSURANCE HOLDINGS COMPANY LIMITED,"507,210,374",14.11%
  967,SOUND GLOBAL LTD.,"289,000",0.01%
  968,XINYI SOLAR HOLDINGS LIMITED,"888,442,640",10.43%
  976,CHIHO ENVIRONMENTAL GROUP LIMITED,"210,632,000",13.12%
  978,CHINA MERCHANTS LAND LIMITED,"184,840,000",3.76%
  981,SEMICONDUCTOR MANUFACTURING INTERNATIONAL CORPORATION,"1,040,560,199",13.51%
  989,GROUND INTERNATIONAL DEVELOPMENT LIMITED,"136,250,000",2.28%
  991,"DATANG INTERNATIONAL POWER GENERATION CO.,LTD.","372,130,000",6.08%
  992,LENOVO GROUP LIMITED,"97,725,882",0.80%
  995,ANHUI EXPRESSWAY COMPANY LIMITED,"115,876,000",23.49%
  996,CARNIVAL GROUP INTERNATIONAL HOLDINGS LIMITED,"6,099,442,500",25.73%
  998,CHINA CITIC BANK CORPORATION LIMITED,"2,767,447,758",18.59%
 1028,C.BANNER INTERNATIONAL HOLDINGS LIMITED,"143,864,000",6.92%
 1030,SEAZEN GROUP LIMITED,"297,988,000",4.79%
 1031,KINGSTON FINANCIAL GROUP LIMITED,"548,000",0.00%
 1033,SINOPEC OILFIELD SERVICE CORPORATION,"393,894,000",7.26%
 1038,CK INFRASTRUCTURE HOLDINGS LIMITED,"10,684,500",0.40%
 1044,HENGAN INTERNATIONAL GROUP COMPANY LIMITED,"19,378,605",1.62%
 1052,YUEXIU TRANSPORT INFRASTRUCTURE LIMITED,"80,213,238",4.79%
 1053,CHONGQING IRON & STEEL COMPANY LIMITED,"99,718,000",18.52%
 1055,CHINA SOUTHERN AIRLINES COMPANY LIMITED,"287,610,470",6.72%
 1057,ZHEJIANG SHIBAO COMPANY LIMITED,"55,804,000",25.74%
 1060,ALIBABA PICTURES GROUP LIMITED,"3,476,518,620",12.95%
 1065,TIANJIN CAPITAL ENVIRONMENTAL PROTECTION GROUP COMPANY LIMITED,"116,552,100",34.27%
 1066,SHANDONG WEIGAO GROUP MEDICAL POLYMER COMPANY LIMITED,"743,402,050",16.42%
 1068,CHINA YURUN FOOD GROUP LIMITED,"18,047,000",0.99%
 1070,TCL ELECTRONICS HOLDINGS LIMITED,"131,995,666",5.39%
 1071,HUADIAN POWER INTERNATIONAL CORPORATION LIMITED,"768,847,855",44.76%
 1072,DONGFANG ELECTRIC CORPORATION LIMITED,"77,439,716",22.77%
 1076,IMPERIAL PACIFIC INTERNATIONAL HOLDINGS LIMITED,"387,060,000",0.27%
 1083,TOWNGAS CHINA COMPANY LIMITED,"18,601,542",0.61%
 1086,GOODBABY INTERNATIONAL HOLDINGS LIMITED,"22,386,000",1.34%
 1088,CHINA SHENHUA ENERGY COMPANY LIMITED,"952,076,325",28.00%
 1089,LEYOU TECHNOLOGIES HOLDINGS LIMITED,"6,915,000",0.22%
 1093,CSPC PHARMACEUTICAL GROUP LIMITED,"483,582,055",6.45%
 1097,I-CABLE COMMUNICATIONS LIMITED,"81,191",0.00%
 1098,ROAD KING INFRASTRUCTURE LIMITED,"11,087,000",1.47%
 1099,SINOPHARM GROUP CO. LTD.,"72,060,309",5.36%
 1108,LUOYANG GLASS COMPANY LIMITED,"95,300,000",38.11%
 1109,CHINA RESOURCES LAND LIMITED,"118,735,763",1.66%
 1111,CHONG HING BANK LIMITED,"1,022,500",0.10%
 1112,HEALTH AND HAPPINESS (H&H) INTERNATIONAL HOLDINGS LIMITED,"37,553,000",5.82%
 1113,CK ASSET HOLDINGS LIMITED,"13,533,033",0.36%
 1114,BRILLIANCE CHINA AUTOMOTIVE HOLDINGS LIMITED,"90,125,386",1.78%
 1115,TIBET WATER RESOURCES LTD.,"161,107,000",6.27%
 1117,CHINA MODERN DAIRY HOLDINGS LTD.,"252,344,000",3.89%
 1119,IDREAMSKY TECHNOLOGY HOLDINGS LIMITED,"42,555,600",3.35%
 1128,"WYNN MACAU, LIMITED","59,360,000",1.13%
 1131,AGRITRADE RESOURCES LIMITED,"583,090,000",9.14%
 1138,"COSCO SHIPPING ENERGY TRANSPORTATION CO., LTD.","193,272,003",14.90%
 1140,OP FINANCIAL LIMITED,"97,520,000",3.36%
 1141,CMBC CAPITAL HOLDINGS LIMITED,"682,800,000",1.43%
 1157,"ZOOMLION HEAVY INDUSTRY SCIENCE AND TECHNOLOGY CO., LTD.","35,944,522",2.58%
 1165,SHUNFENG INTERNATIONAL CLEAN ENERGY LIMITED,"324,036,000",6.50%
 1169,"HAIER ELECTRONICS GROUP CO., LTD.","122,844,382",4.35%
 1171,YANZHOU COAL MINING COMPANY LIMITED,"328,039,995",17.25%
 1176,ZHUGUANG HOLDINGS GROUP COMPANY LIMITED,"235,932,000",3.27%
 1177,SINO BIOPHARMACEUTICAL LIMITED,"1,656,682,471",8.77%
 1186,CHINA RAILWAY CONSTRUCTION CORPORATION LIMITED,"113,691,190",5.47%
 1188,HYBRID KINETIC GROUP LIMITED,"102,914,000",0.50%
 1193,CHINA RESOURCES GAS GROUP LIMITED,"8,906,000",0.38%
 1196,REALORD GROUP HOLDINGS LIMITED,"124,106,000",8.62%
 1199,COSCO SHIPPING PORTS LIMITED,"17,296,995",0.52%
 1205,CITIC RESOURCES HOLDINGS LIMITED,"165,902,100",2.10%
 1208,MMG LIMITED,"305,654,000",3.78%
 1211,BYD COMPANY LIMITED,"66,385,473",7.25%
 1212,LIFESTYLE INTERNATIONAL HOLDINGS LIMITED,"3,731,666",0.24%
 1230,YASHILI INTERNATIONAL HOLDINGS LTD,"78,412,000",1.64%
 1233,TIMES CHINA HOLDINGS LIMITED,"85,595,757",4.39%
 1234,CHINA LILANG LIMITED,"75,848,000",6.33%
 1238,POWERLONG REAL ESTATE HOLDINGS LIMITED,"127,424,116",3.07%
 1250,BEIJING ENTERPRISES CLEAN ENERGY GROUP LIMITED,"1,610,320,000",2.53%
 1253,CHINA GREENLAND BROAD GREENSTATE GROUP COMPANY LIMITED,"6,428,000",0.19%
 1257,CHINA EVERBRIGHT GREENTECH LIMITED,"156,805,000",7.58%
 1268,CHINA MEIDONG AUTO HOLDINGS LIMITED,"56,586,000",4.54%
 1269,CHINA FIRST CAPITAL GROUP LIMITED,"1,560,012,000",31.03%
 1282,GLORY SUN FINANCIAL GROUP LIMITED,"4,301,576,000",13.69%
 1286,IMPRO PRECISION INDUSTRIES LIMITED,"1,146,000",0.06%
 1288,AGRICULTURAL BANK OF CHINA LIMITED,"8,448,775,058",27.47%
 1293,GRAND BAOXIN AUTO GROUP LIMITED,"132,827,337",4.67%
 1299,AIA GROUP LIMITED,"87,800,799",0.71%
 1302,LIFETECH SCIENTIFIC CORPORATION,"746,516,000",17.23%
 1308,SITC INTERNATIONAL HOLDINGS COMPANY LIMITED,"40,744,000",1.51%
 1310,HKBN LTD.,"4,412,500",0.33%
 1313,CHINA RESOURCES CEMENT HOLDINGS LIMITED,"48,953,747",0.69%
 1315,VISION FAME INTERNATIONAL HOLDING LIMITED,"714,676,000",11.90%
 1316,NEXTEER AUTOMOTIVE GROUP LIMITED,"41,783,000",1.65%
 1317,CHINA MAPLE LEAF EDUCATIONAL SYSTEMS LIMITED,"435,176,537",14.52%
 1330,"DYNAGREEN ENVIRONMENTAL PROTECTION GROUP CO., LTD","156,860,000",38.78%
 1333,CHINA ZHONGWANG HOLDINGS LIMITED,"373,442,000",6.85%
 1336,NEW CHINA LIFE INSURANCE COMPANY LTD.,"330,586,540",31.96%
 1339,"PEOPLE'S INSURANCE COMPANY (GROUP) OF CHINA LIMITED, THE","1,765,964,987",20.22%
 1347,HUA HONG SEMICONDUCTOR LIMITED,"80,689,681",6.22%
 1357,"MEITU, INC.","327,614,100",7.58%
 1359,"CHINA CINDA ASSET MANAGEMENT CO., LTD.","2,609,458,337",19.22%
 1361,361 DEGREES INTERNATIONAL LIMITED,"28,663,000",1.38%
 1363,CT ENVIRONMENTAL GROUP LIMITED,"502,874,000",7.95%
 1368,XTEP INTERNATIONAL HOLDINGS LIMITED,"88,723,503",3.52%
 1375,"CENTRAL CHINA SECURITIES CO., LTD.","302,576,000",25.31%
 1378,CHINA HONGQIAO GROUP LIMITED,"481,824,910",5.61%
 1381,CANVEST ENVIRONMENTAL PROTECTION GROUP COMPANY LIMITED,"27,536,000",1.12%
 1382,PACIFIC TEXTILES HOLDINGS LIMITED,"29,792,000",2.10%
 1383,SUNCITY GROUP HOLDINGS LIMITED,"32,460,000",0.48%
 1387,CHINA DILI GROUP,"149,107,670",1.76%
 1398,INDUSTRIAL AND COMMERCIAL BANK OF CHINA LIMITED,"24,571,950,103",28.30%
 1432,CHINA SHENGMU ORGANIC MILK LIMITED,"96,008,000",1.13%
 1448,FU SHOU YUAN INTERNATIONAL GROUP LIMITED,"277,970,677",12.09%
 1456,"GUOLIAN SECURITIES CO., LTD.","64,351,500",14.53%
 1458,ZHOU HEI YA INTERNATIONAL HOLDINGS COMPANY LIMITED,"365,405,500",15.32%
 1475,NISSIN FOODS COMPANY LIMITED,"233,000",0.02%
 1478,Q TECHNOLOGY (GROUP) COMPANY LIMITED,"44,947,000",3.83%
 1508,CHINA REINSURANCE (GROUP) CORPORATION,"900,841,000",13.48%
 1513,LIVZON PHARMACEUTICAL GROUP INC.,"41,359,038",12.93%
 1515,CHINA RESOURCES MEDICAL HOLDINGS COMPANY LIMITED,"66,756,600",5.14%
 1521,FRONTAGE HOLDINGS CORPORATION,"241,502,000",11.87%
 1528,RED STAR MACALLINE GROUP CORPORATION LTD.,"132,715,282",17.89%
 1530,3SBIO INC.,"234,149,539",9.20%
 1533,"LANZHOU ZHUANGYUAN PASTURE CO., LTD.","7,945,000",22.61%
 1548,GENSCRIPT BIOTECH CORPORATION,"233,882,000",12.15%
 1551,"GUANGZHOU RURAL COMMERCIAL BANK CO., LTD","2,414,000",0.13%
 1558,"YICHANG HEC CHANGJIANG PHARMACEUTICAL CO., LTD.","187,817,800",28.72%
 1569,MINSHENG EDUCATION GROUP COMPANY LIMITED,"231,303,025",5.48%
 1573,SOUTHERN ENERGY HOLDINGS GROUP LIMITED,"126,862,000",17.66%
 1578,"BANK OF TIANJIN CO., LTD.","34,000",0.00%
 1579,YIHAI INTERNATIONAL HOLDING LTD.,"106,301,402",10.14%
 1583,QINQIN FOODSTUFFS GROUP (CAYMAN) COMPANY LIMITED,"24,400",0.00%
 1585,YADEA GROUP HOLDINGS LTD.,"267,626,000",8.93%
 1589,"CHINA LOGISTICS PROPERTY HOLDINGS CO., LTD","1,372,000",0.04%
 1600,CHINA TIAN LUN GAS HOLDINGS LIMITED,"16,892,000",1.68%
 1606,"CHINA DEVELOPMENT BANK FINANCIAL LEASING CO., LTD.","316,000",0.01%
 1608,VPOWER GROUP INTERNATIONAL HOLDINGS LIMITED,"4,844,000",0.18%
 1610,COFCO MEAT HOLDINGS LIMITED,"722,654,000",18.52%
 1618,METALLURGICAL CORPORATION OF CHINA LTD.,"472,202,000",16.44%
 1622,REDCO PROPERTIES GROUP LIMITED,"228,564,000",6.43%
 1628,YUZHOU GROUP HOLDINGS COMPANY LIMITED,"73,864,271",1.32%
 1635,"SHANGHAI DAZHONG PUBLIC UTILITIES (GROUP) CO., LTD.","82,505,000",15.45%
 1636,CHINA METAL RESOURCES UTILIZATION LIMITED,"34,616,000",1.31%
 1638,KAISA GROUP HOLDINGS LTD.,"560,922,619",9.14%
 1658,"POSTAL SAVINGS BANK OF CHINA CO., LTD.","587,827,845",2.95%
 1661,WISDOM SPORTS GROUP,"6,217,000",0.39%
 1666,TONG REN TANG TECHNOLOGIES CO LTD,"172,207,540",27.39%
 1668,CHINA SOUTH CITY HOLDINGS LIMITED,"846,019,543",10.45%
 1675,ASIAINFO TECHNOLOGIES LIMITED,"1,779,600",0.19%
 1680,MACAU LEGEND DEVELOPMENT LIMITED,"114,133,000",1.83%
 1681,CONSUN PHARMACEUTICAL GROUP LIMITED,"21,486,000",2.57%
 1685,BOER POWER HOLDINGS LIMITED,"2,195,000",0.28%
 1686,SUNEVISION HOLDINGS LIMITED,"2,590,000",0.11%
 1691,JS GLOBAL LIFESTYLE COMPANY LIMITED,"32,258,000",0.92%
 1717,AUSNUTRIA DAIRY CORPORATION LTD,"111,259,000",6.48%
 1728,CHINA ZHENGTONG AUTO SERVICES HOLDINGS LIMITED,"392,646,000",14.55%
 1761,BABYTREE GROUP,"5,895,000",0.35%
 1765,"HOPE EDUCATION GROUP CO., LTD.","872,488,580",12.06%
 1766,CRRC CORPORATION LIMITED,"362,879,770",8.29%
 1772,"GANFENG LITHIUM CO., LTD.","128,106,097",53.32%
 1773,TIANLI EDUCATION INTERNATIONAL HOLDINGS LIMITED,"205,884,000",9.92%
 1776,"GF SECURITIES CO., LTD.","529,795,900",31.13%
 1777,"FANTASIA HOLDINGS GROUP CO., LIMITED","406,322,500",7.04%
 1778,"COLOUR LIFE SERVICES GROUP CO., LIMITED","67,780,702",4.65%
 1787,"SHANDONG GOLD MINING CO., LTD.","152,769,898",21.83%
 1788,GUOTAI JUNAN INTERNATIONAL HOLDINGS LIMITED,"231,434,110",2.40%
 1789,AK MEDICAL HOLDINGS LIMITED,"107,964,000",9.68%
 1797,KOOLEARN TECHNOLOGY HOLDING LIMITED,"137,671,804",14.64%
 1800,CHINA COMMUNICATIONS CONSTRUCTION COMPANY LIMITED,"624,628,000",14.10%
 1801,"INNOVENT BIOLOGICS, INC.","83,149,000",5.93%
 1806,HUIFU PAYMENT LIMITED,"13,333,200",1.02%
 1810,XIAOMI CORPORATION,"2,390,468,942",9.89%
 1811,"CGN NEW ENERGY HOLDINGS CO., LTD.","103,054,000",2.40%
 1812,SHANDONG CHENMING PAPER HOLDINGS LIMITED,"106,791,950",20.21%
 1813,KWG GROUP HOLDINGS LIMITED,"143,819,665",4.51%
 1816,"CGN POWER CO., LTD","2,476,724,000",22.18%
 1817,MULSANNE GROUP HOLDING LIMITED,"103,500",0.01%
 1818,ZHAOJIN MINING INDUSTRY COMPANY LIMITED,"126,071,872",4.83%
 1829,CHINA MACHINERY ENGINEERING CORPORATION,"131,000",0.01%
 1833,PING AN HEALTHCARE AND TECHNOLOGY COMPANY LIMITED,"108,359,400",9.43%
 1836,STELLA INTERNATIONAL HOLDINGS LIMITED,"463,000",0.05%
 1848,CHINA AIRCRAFT LEASING GROUP HOLDINGS LIMITED,"13,135,049",1.86%
 1860,MOBVISTA INC.,"16,228,000",1.05%
 1873,VIVA BIOTECH HOLDINGS,"428,868,500",22.44%
 1876,BUDWEISER BREWING COMPANY APAC LIMITED,"12,892,816",0.09%
 1882,HAITIAN INTERNATIONAL HOLDINGS LIMITED,"32,526,000",2.02%
 1883,CITIC TELECOM INTERNATIONAL HOLDINGS LIMITED,"13,966,000",0.38%
 1886,CHINA HUIYUAN JUICE GROUP LIMITED,"125,355,500",4.69%
 1888,KINGBOARD LAMINATES HOLDINGS LIMITED,"16,111,935",0.50%
 1890,CHINA KEPEI EDUCATION GROUP LIMITED,"132,853,127",6.59%
 1896,MAOYAN ENTERTAINMENT,"32,453,800",2.85%
 1898,CHINA COAL ENERGY COMPANY LIMITED,"433,723,000",10.56%
 1905,"HAITONG UNITRUST INTERNATIONAL FINANCIAL LEASING CO., LTD.","39,796,000",0.68%
 1907,CHINA RISUN GROUP LIMITED,"30,619,000",0.74%
 1908,C&D INTERNATIONAL INVESTMENT GROUP LIMITED,"79,960,000",6.79%
 1911,CHINA RENAISSANCE HOLDINGS LIMITED,"16,413,900",3.06%
 1916,"JIANGXI BANK CO., LTD.","10,788,500",0.80%
 1918,SUNAC CHINA HOLDINGS LIMITED,"777,305,004",16.66%
 1919,"COSCO SHIPPING HOLDINGS CO., LTD.","455,284,000",17.63%
 1928,SANDS CHINA LTD.,"64,646,532",0.79%
 1929,CHOW TAI FOOK JEWELLERY GROUP LIMITED,"48,167,800",0.47%
 1951,JINXIN FERTILITY GROUP LIMITED,"422,649,600",17.39%
 1958,BAIC MOTOR CORPORATION LIMITED,"97,547,500",3.86%
 1963,"BANK OF CHONGQING CO., LTD.","116,705,000",7.39%
 1966,CHINA SCE GROUP HOLDINGS LIMITED,"162,198,054",3.84%
 1970,"IMAX CHINA HOLDING, INC.","7,346,900",2.10%
 1972,SWIRE PROPERTIES LIMITED,"1,722,600",0.02%
 1980,TIAN GE INTERACTIVE HOLDINGS LIMITED,"24,392,000",1.90%
 1988,"CHINA MINSHENG BANKING CORP., LTD.","1,250,973,969",15.02%
 1992,FOSUN TOURISM GROUP,"800,000",0.05%
 1995,EVER SUNSHINE LIFESTYLE SERVICES GROUP LIMITED,"59,158,000",3.54%
 1996,REDSUN PROPERTIES GROUP LIMITED,"68,826,000",2.07%
 1997,WHARF REAL ESTATE INVESTMENT COMPANY LIMITED,"4,598,425",0.14%
 1999,MAN WAH HOLDINGS LIMITED,"768,111,515",20.18%
 2001,CHINA NEW HIGHER EDUCATION GROUP LIMITED,"118,261,621",7.45%
 2003,VCREDIT HOLDINGS LIMITED,"2,141,000",0.43%
 2005,SSY GROUP LIMITED,"317,890,059",10.48%
 2007,COUNTRY GARDEN HOLDINGS COMPANY LIMITED,"273,990,539",1.24%
 2008,PHOENIX MEDIA INVESTMENT (HOLDINGS) LIMITED,"205,012,000",4.10%
 2009,BBMG CORPORATION,"305,866,500",13.07%
 2013,WEIMOB INC.,"487,495,416",21.61%
 2016,"CHINA ZHESHANG BANK CO., LTD.","76,137,000",1.67%
 2018,AAC TECHNOLOGIES HOLDINGS INC.,"74,571,832",6.16%
 2019,DEXIN CHINA HOLDINGS COMPANY LIMITED,"29,696,000",1.09%
 2020,ANTA SPORTS PRODUCTS LIMITED,"212,260,253",7.84%
 2038,FIH MOBILE LIMITED,"113,156,000",1.38%
 2039,"CHINA INTERNATIONAL MARINE CONTAINERS (GROUP) CO., LTD.","222,218,740",10.78%
 2048,E-HOUSE (CHINA) ENTERPRISE HOLDINGS LIMITED,"9,472,800",0.68%
 2051,51 CREDIT CARD INC.,"45,713,000",3.36%
 2066,"SHENGJING BANK CO., LTD.","195,000",0.00%
 2068,CHINA ALUMINUM INTERNATIONAL ENGINEERING CORPORATION LIMITED,"11,102,000",2.77%
 2098,ZALL SMART COMMERCE GROUP LTD.,"31,698,000",0.26%
 2099,CHINA GOLD INTERNATIONAL RESOURCES CORP. LTD.,"13,201,800",3.33%
 2103,SINIC HOLDINGS (GROUP) COMPANY LIMITED,"683,000",0.01%
 2111,BEST PACIFIC INTERNATIONAL HOLDINGS LIMITED,"1,378,000",0.13%
 2128,CHINA LESSO GROUP HOLDINGS LIMITED,"64,701,573",2.08%
 2136,LIFESTYLE CHINA GROUP LIMITED,"282,000",0.01%
 2186,LUYE PHARMA GROUP LTD.,"481,008,500",14.80%
 2196,"SHANGHAI FOSUN PHARMACEUTICAL (GROUP) CO., LTD.","198,854,857",36.02%
 2199,REGINA MIRACLE INTERNATIONAL (HOLDINGS) LIMITED,"2,892,000",0.23%
 2202,"CHINA VANKE CO., LTD.","267,187,328",14.11%
 2208,"XINJIANG GOLDWIND SCIENCE & TECHNOLOGY CO., LTD.","66,569,442",8.60%
 2218,"YANTAI NORTH ANDRE JUICE CO., LTD.","1,304,000",1.21%
 2232,CRYSTAL INTERNATIONAL GROUP LIMITED,"3,457,500",0.11%
 2233,WEST CHINA CEMENT LIMITED,"531,950,000",9.78%
 2238,"GUANGZHOU AUTOMOBILE GROUP CO., LTD.","1,054,996,958",34.04%
 2255,HAICHANG OCEAN PARK HOLDINGS LTD.,"331,886,000",8.29%
 2269,WUXI BIOLOGICS (CAYMAN) INC.,"102,578,998",7.55%
 2280,HC GROUP INC.,"101,944,000",7.78%
 2282,MGM CHINA HOLDINGS LIMITED,"26,203,496",0.68%
 2298,COSMO LADY (CHINA) HOLDINGS COMPANY LIMITED,"10,395,000",0.45%
 2313,SHENZHOU INTERNATIONAL GROUP HOLDINGS LIMITED,"53,305,662",3.54%
 2314,LEE & MAN PAPER MANUFACTURING LIMITED,"20,155,825",0.46%
 2318,"PING AN INSURANCE (GROUP) COMPANY OF CHINA, LTD.","169,842,377",2.27%
 2319,CHINA MENGNIU DAIRY COMPANY LIMITED,"69,901,994",1.76%
 2326,NEW PROVENANCE EVERLASTING HOLDINGS LIMITED,"55,940,000",0.25%
 2328,PICC PROPERTY AND CASUALTY COMPANY LIMITED,"519,895,169",7.53%
 2329,GUORUI PROPERTIES LIMITED,"155,925,000",3.50%
 2331,LI NING COMPANY LIMITED,"125,875,016",5.05%
 2333,GREAT WALL MOTOR COMPANY LIMITED,"1,162,940,054",37.51%
 2338,"WEICHAI POWER CO., LTD.","44,313,000",2.28%
 2342,COMBA TELECOM SYSTEMS HOLDINGS LIMITED,"2,174,000",0.07%
 2343,PACIFIC BASIN SHIPPING LIMITED,"8,405,000",0.17%
 2356,DAH SING BANKING GROUP LIMITED,"232,000",0.01%
 2357,AVICHINA INDUSTRY & TECHNOLOGY COMPANY LIMITED,"409,712,000",6.59%
 2359,"WUXI APPTEC CO., LTD.","22,307,706",7.26%
 2362,JINCHUAN GROUP INTERNATIONAL RESOURCES CO. LTD.,"67,831,000",0.53%
 2363,TONGDA HONG TAI HOLDINGS LIMITED,"340,962",0.17%
 2369,COOLPAD GROUP LIMITED,"38,732,000",0.64%
 2380,CHINA POWER INTERNATIONAL DEVELOPMENT LIMITED,"562,577,367",5.73%
 2382,SUNNY OPTICAL TECHNOLOGY (GROUP) COMPANY LIMITED,"107,013,705",9.75%
 2386,"SINOPEC ENGINEERING (GROUP) CO., LTD.","39,802,500",2.71%
 2388,BOC HONG KONG (HOLDINGS) LIMITED,"12,856,445",0.11%
 2400,XD INC.,"58,456,500",12.87%
 2588,BOC AVIATION LIMITED,"11,254,858",1.61%
 2600,ALUMINUM CORPORATION OF CHINA LIMITED,"288,830,000",7.31%
 2601,CHINA PACIFIC INSURANCE (GROUP) CO. LTD.,"805,417,031",29.02%
 2607,"SHANGHAI PHARMACEUTICALS HOLDING CO., LTD.","107,966,406",11.74%
 2611,"GUOTAI JUNAN SECURITIES CO., LTD.","129,223,600",9.27%
 2628,CHINA LIFE INSURANCE COMPANY LIMITED,"271,550,093",3.64%
 2662,CAMSING INTERNATIONAL HOLDING LIMITED,"132,096,000",12.26%
 2666,GENERTEC UNIVERSAL MEDICAL GROUP COMPANY LIMITED,"317,080,500",18.47%
 2669,CHINA OVERSEAS PROPERTY HOLDINGS LIMITED,"388,897,275",11.82%
 2678,TEXHONG TEXTILE GROUP LIMITED,"31,856,000",3.48%
 2688,ENN ENERGY HOLDINGS LIMITED,"14,567,961",1.28%
 2689,NINE DRAGONS PAPER (HOLDINGS) LIMITED,"70,166,410",1.49%
 2727,SHANGHAI ELECTRIC GROUP COMPANY LIMITED,"878,731,000",29.55%
 2768,JIAYUAN INTERNATIONAL GROUP LIMITED,"359,275,183",8.85%
 2772,ZHONGLIANG HOLDINGS GROUP COMPANY LIMITED,"39,394,000",1.09%
 2777,"GUANGZHOU R&F PROPERTIES CO., LTD.","93,051,744",2.47%
 2799,"CHINA HUARONG ASSET MANAGEMENT CO., LTD.","2,346,955,000",9.36%
 2858,YIXIN GROUP LIMITED,"42,134,500",0.65%
 2866,"COSCO SHIPPING DEVELOPMENT CO., LTD.","587,504,000",15.98%
 2869,GREENTOWN SERVICE GROUP CO. LTD.,"337,774,899",
 2877,CHINA SHINEWAY PHARMACEUTICAL GROUP LIMITED,"26,186,000",3.15%
 2880,DALIAN PORT (PDA) COMPANY LIMITED,"894,138,200",17.32%
 2883,CHINA OILFIELD SERVICES LIMITED,"225,745,627",12.46%
 2888,STANDARD CHARTERED PLC,"349,020",0.00%
 2899,"ZIJIN MINING GROUP CO., LTD.","1,552,328,000",27.05%
 3301,RONSHINE CHINA HOLDINGS LIMITED,"133,894,000",7.85%
 3306,JNBY DESIGN LIMITED,"21,189,500",4.08%
 3308,GOLDEN EAGLE RETAIL GROUP LIMITED,"86,164,000",5.15%
 3309,C-MER EYE CARE HOLDINGS LIMITED,"78,564,000",6.85%
 3311,CHINA STATE CONSTRUCTION INTERNATIONAL HOLDINGS LIMITED,"199,063,692",3.93%
 3319,"A-LIVING SERVICES CO., LTD.","6,450,500",0.48%
 3320,CHINA RESOURCES PHARMACEUTICAL GROUP LIMITED,"211,761,500",3.36%
 3323,CHINA NATIONAL BUILDING MATERIAL COMPANY LIMITED,"951,507,365",24.59%
 3328,"BANK OF COMMUNICATIONS CO., LTD.","787,444,069",2.24%
 3329,BOCOM INTERNATIONAL HOLDINGS COMPANY LIMITED,"15,021,000",0.54%
 3331,VINDA INTERNATIONAL HOLDINGS LIMITED,"11,925,000",0.99%
 3333,CHINA EVERGRANDE GROUP,"131,245,355",0.98%
 3339,LONKING HOLDINGS LIMITED,"24,831,000",0.58%
 3347,"HANGZHOU TIGERMED CONSULTING CO., LTD.","82,400",0.06%
 3360,FAR EAST HORIZON LIMITED,"119,088,000",2.99%
 3368,PARKSON RETAIL GROUP LIMITED,"5,669,500",0.21%
 3369,"QINHUANGDAO PORT CO., LTD.","81,461,500",9.80%
 3377,SINO-OCEAN GROUP HOLDING LIMITED,"162,391,810",2.12%
 3380,LOGAN GROUP COMPANY LIMITED,"151,661,528",2.74%
 3382,TIANJIN PORT DEVELOPMENT HOLDINGS LIMITED,"204,060,000",3.31%
 3383,AGILE GROUP HOLDINGS LIMITED,"40,857,548",1.04%
 3389,HENGDELI HOLDINGS LIMITED,"776,000",0.01%
 3393,WASION HOLDINGS LIMITED,"1,326,000",0.13%
 3396,LEGEND HOLDINGS CORPORATION,"84,153,600",6.60%
 3606,"FUYAO GLASS INDUSTRY GROUP CO., LTD","88,285,050",17.45%
 3613,BEIJING TONG REN TANG CHINESE MEDICINE COMPANY LIMITED,"70,238,000",8.39%
 3618,"CHONGQING RURAL COMMERCIAL BANK CO., LTD.","728,905,000",28.99%
 3633,ZHONGYU GAS HOLDINGS LIMITED,"17,064,000",0.64%
 3669,CHINA YONGDA AUTOMOBILES SERVICES HOLDINGS LIMITED,"115,503,000",
 3690,MEITUAN DIANPING,"346,003,319",5.88%
 3692,HANSOH PHARMACEUTICAL GROUP COMPANY LIMITED,"45,511,000",0.75%
 3698,HUISHANG BANK CORPORATION LIMITED,"4,759,200",0.12%
 3759,"PHARMARON BEIJING CO., LTD.","19,506,065",14.55%
 3788,CHINA HANKING HOLDINGS LIMITED,"16,380,000",0.90%
 3799,DALI FOODS GROUP COMPANY LIMITED,"408,518,500",2.97%
 3800,GCL-POLY ENERGY HOLDINGS LIMITED,"2,788,833,500",13.18%
 3808,SINOTRUK (HONG KONG) LIMITED,"113,455,866",4.10%
 3813,POU SHENG INTERNATIONAL (HOLDINGS) LIMITED,"19,721,000",0.36%
 3818,"CHINA DONGXIANG (GROUP) CO., LTD.","482,777,000",8.20%
 3836,CHINA HARMONY AUTO HOLDING LIMITED,"68,705,500",4.36%
 3866,"BANK OF QINGDAO CO., LTD.","1,137,000",0.06%
 3868,XINYI ENERGY HOLDINGS LIMITED,"97,530,000",1.37%
 3877,CSSC (HONG KONG) SHIPPING COMPANY LIMITED,"4,898,000",0.07%
 3883,CHINA AOYUAN GROUP LIMITED,"181,882,000",6.72%
 3886,TOWN HEALTH INTERNATIONAL MEDICAL GROUP LIMITED,"145,736,000",1.92%
 3888,KINGSOFT CORPORATION LIMITED,"372,417,169",27.12%
 3898,"ZHUZHOU CRRC TIMES ELECTRIC CO., LTD.","38,756,406",7.08%
 3899,CIMC ENRIC HOLDINGS LIMITED,"139,400,000",6.92%
 3900,GREENTOWN CHINA HOLDINGS LIMITED,"328,942,500",13.18%
 3908,CHINA INTERNATIONAL CAPITAL CORPORATION LIMITED,"316,829,281",16.63%
 3933,"UNITED LABORATORIES INTERNATIONAL HOLDINGS LIMITED, THE","182,669,948",9.92%
 3958,DFZQ,"403,732,785",39.29%
 3968,"CHINA MERCHANTS BANK CO., LTD.","198,485,070",4.31%
 3969,CHINA RAILWAY SIGNAL & COMMUNICATION CORPORATION LIMITED,"211,952,000",10.75%
 3988,BANK OF CHINA LIMITED,"7,790,169,615",9.31%
 3990,MIDEA REAL ESTATE HOLDING LIMITED,"76,000,000",6.17%
 3993,"CHINA MOLYBDENUM CO., LTD.","315,456,500",8.01%
 3996,CHINA ENERGY ENGINEERING CORPORATION LIMITED,"10,824,000",0.11%
 3998,BOSIDENG INTERNATIONAL HOLDINGS LIMITED,"692,070,000",6.42%
 6030,CITIC SECURITIES COMPANY LIMITED,"289,992,141",12.72%
 6049,"POLY PROPERTY SERVICES CO., LTD.","62,367,666",40.67%
 6055,CHINA TOBACCO INTERNATIONAL (HK) COMPANY LIMITED,"30,121,000",4.35%
 6060,"ZHONGAN ONLINE P & C INSURANCE CO., LTD.","33,853,200",7.20%
 6066,"CSC FINANCIAL CO., LTD.","313,037,000",24.82%
 6068,WISDOM EDUCATION INTERNATIONAL HOLDINGS COMPANY LIMITED,"180,020,000",8.26%
 6069,SHENG YE CAPITAL LIMITED,"24,686,500",2.63%
 6078,"HYGEIA HEALTHCARE HOLDINGS CO., LIMITED","19,785,200",3.20%
 6088,FIT HON TENG LIMITED,"408,859,000",5.93%
 6098,COUNTRY GARDEN SERVICES HOLDINGS COMPANY LIMITED,"220,177,066",7.97%
 6099,"CHINA MERCHANTS SECURITIES CO., LTD.","248,321,560",19.48%
 6100,TONGDAO LIEPIN GROUP,"84,800",0.01%
 6110,TOPSPORTS INTERNATIONAL HOLDINGS LIMITED,"20,370,020",0.32%
 6116,"XINJIANG LA CHAPELLE FASHION CO., LTD.","68,853,200",32.05%
 6158,ZHENRO PROPERTIES GROUP LIMITED,"65,814,000",1.50%
 6160,"BEIGENE, LTD.","2,130,500",0.17%
 6166,CHINA VAST INDUSTRIAL URBAN DEVELOPMENT COMPANY LIMITED,"72,497,000",4.39%
 6169,CHINA YUHUA EDUCATION CORPORATION LIMITED,"576,316,528",17.24%
 6178,EVERBRIGHT SECURITIES COMPANY LIMITED,"89,535,200",12.71%
 6186,CHINA FEIHE LIMITED,"830,237,048",9.28%
 6196,"BANK OF ZHENGZHOU CO., LTD.","304,644,500",18.24%
 6198,"QINGDAO PORT INTERNATIONAL CO., LTD.","10,150,000",0.91%
 6806,"SHENWAN HONGYUAN GROUP CO., LTD.","252,973,600",10.10%
 6808,SUN ART RETAIL GROUP LIMITED,"65,358,023",0.68%
 6818,CHINA EVERBRIGHT BANK COMPANY LIMITED,"945,994,992",7.45%
 6828,BEIJING GAS BLUE SKY HOLDINGS LIMITED,"233,512,000",1.79%
 6837,"HAITONG SECURITIES CO., LTD.","853,623,000",25.02%
 6862,HAIDILAO INTERNATIONAL HOLDING LTD.,"150,791,784",2.83%
 6865,"FLAT GLASS GROUP CO., LTD.","148,515,760",32.99%
 6869,YANGTZE OPTICAL FIBRE AND CABLE JOINT STOCK LIMITED COMPANY,"18,434,500",5.24%
 6881,"CHINA GALAXY SECURITIES CO., LTD.","836,397,382",22.65%
 6886,"HUATAI SECURITIES CO., LTD.","443,555,246",25.79%
 6969,SMOORE INTERNATIONAL HOLDINGS LIMITED,"259,613,782",4.44%
 8328,XINYI AUTOMOBILE GLASS HONG KONG ENTERPRISES LIMITED,"93,750",0.01%
 9633,"NONGFU SPRING CO., LTD.","40,935,000",0.81%
 9909,POWERLONG COMMERCIAL MANAGEMENT HOLDINGS LIMITED,"14,358,000",2.31%
 9922,JIUMAOJIU INTERNATIONAL HOLDINGS LIMITED,"88,467,295",6.08%
 9923,YEAHKA LIMITED,"72,800",0.01%
 9928,TIMES NEIGHBORHOOD HOLDINGS LIMITED,"21,439,054",2.16%
 9968,HUIJING HOLDINGS COMPANY LIMITED,"3,824,000",0.07%
 9983,CENTRAL CHINA NEW LIFE LIMITED,"15,554,000",1.24%
 9989,"SHENZHEN HEPALINK PHARMACEUTICAL GROUP CO., LTD.","15,445,000",7.01%
 9997,KANGJI MEDICAL HOLDINGS LIMITED,"5,603,000",0.44%
