Stock Code,Stock Name,Shareholding in CCASS,Percentage of the total number of Issued Shares
    1,CK HUTCHISON HOLDINGS LIMITED,"27,016,287",0.69%
    2,CLP HOLDINGS LIMITED,"6,077,492",0.23%
    3,"HONG KONG AND CHINA GAS COMPANY LIMITED, THE","24,021,039",0.12%
    4,"WHARF (HOLDINGS) LIMITED, THE","5,002,979",0.15%
    5,HSBC HOLDINGS PLC,"1,802,379,610",8.70%
    6,POWER ASSETS HOLDINGS LIMITED,"4,292,422",0.20%
    8,PCCW LIMITED,"8,799,776",0.10%
   10,HANG LUNG GROUP LIMITED,"21,269,000",1.55%
   11,HANG SENG BANK LTD,"2,973,005",0.14%
   12,HENDERSON LAND DEVELOPMENT CO LTD,"4,552,673",0.08%
   14,HYSAN DEVELOPMENT COMPANY LIMITED,"1,133,000",0.10%
   16,SUN HUNG KAI PROPERTIES LIMITED,"9,748,404",0.33%
   17,NEW WORLD DEVELOPMENT CO LTD- NEW,"7,817,131",0.29%
   19,SWIRE PACIFIC LTD 'A',"3,082,000",0.33%
   20,WHEELOCK AND COMPANY LIMITED,"402,467",0.01%
   23,BANK OF EAST ASIA LTD,"790,593",0.02%
   27,GALAXY ENTERTAINMENT GROUP LIMITED,"47,648,771",1.09%
   35,FAR EAST CONSORTIUM INTERNATIONAL LTD,"100,013",0.00%
   38,FIRST TRACTOR COMPANY LIMITED,"104,836,100",26.74%
   41,GREAT EAGLE HOLDINGS LIMITED,"1,426,511",0.19%
   42,NORTHEAST ELECTRIC DEVELOPMENT COMPANY LIMITED,"16,546,000",6.41%
   43,C.P. POKPHAND CO LTD,"852,000",0.00%
   45,"HONGKONG AND SHANGHAI HOTELS LTD,THE","42,513",0.00%
   59,SKYFAME REALTY (HOLDINGS) LIMITED,"64,276,000",0.81%
   66,MTR CORPORATION LIMITED,"5,566,523",0.08%
   69,SHANGRI-LA ASIA LIMITED,"17,592,000",0.48%
   78,REGAL HOTELS INTERNATIONAL HOLDINGS LIMITED,"14,000",0.00%
   81,CHINA OVERSEAS GRAND OCEANS GROUP LIMITED,"312,979,820",9.14%
   83,SINO LAND CO.LTD.,"9,269,976",0.12%
   86,SUN HUNG KAI & CO.LTD,"12,709,000",0.62%
   87,SWIRE PACIFIC LTD 'B',"19,710,000",0.65%
   95,LVGEM (CHINA) REAL ESTATE INVESTMENT COMPANY LIMITED,"163,868,000",3.23%
  101,HANG LUNG PROPERTIES LIMITED,"50,875,949",1.12%
  107,SICHUAN EXPRESSWAY COMPANY LIMITED,"221,894,000",24.77%
  109,GOOD RESOURCES HOLDINGS LIMITED,"44,670,000",0.62%
  116,CHOW SANG SANG HOLDINGS INTERNATIONAL LIMITED,"18,718,000",2.76%
  119,"POLY PROPERTY GROUP CO., LIMITED","354,313,748",9.67%
  120,COSMOPOLITAN INTERNATIONAL HOLDINGS LTD,"992,000",0.01%
  123,YUEXIU PROPERTY COMPANY LIMITED,"365,766,351",2.36%
  127,CHINESE ESTATES HOLDINGS LIMITED,"3,388,000",0.17%
  135,KUNLUN ENERGY COMPANY LIMITED,"141,215,000",1.62%
  136,HENGTEN NETWORKS GROUP LIMITED,"5,125,324,000",6.86%
  142,FIRST PACIFIC CO. LTD.,"9,914,000",0.22%
  144,CHINA MERCHANTS PORT HOLDINGS COMPANY LIMITED,"146,344,665",4.24%
  148,KINGBOARD HOLDINGS LIMITED,"16,448,136",1.48%
  151,WANT WANT CHINA HOLDINGS LIMITED,"35,769,871",0.28%
  152,SHENZHEN INTERNATIONAL HOLDINGS LIMITED,"63,322,631",2.88%
  163,EMPEROR INTERNATIONAL HOLDINGS LIMITED,"10,936,000",0.29%
  165,CHINA EVERBRIGHT LIMITED,"211,009,955",12.52%
  168,TSINGTAO BREWERY COMPANY LIMITED,"62,954,776",9.60%
  173,K. WAH INTERNATIONAL HOLDINGS LIMITED,"38,762,264",1.23%
  175,GEELY AUTOMOBILE HOLDINGS LIMITED,"680,180,116",6.92%
  177,JIANGSU EXPRESSWAY COMPANY LIMITED,"122,398,818",10.01%
  178,SA SA INTERNATIONAL HOLDINGS LIMITED,"18,329,268",0.58%
  179,JOHNSON ELECTRIC HOLDINGS LIMITED,"639,000",0.06%
  187,BEIJING JINGCHENG MACHINERY ELECTRIC COMPANY LIMITED,"28,292,000",28.28%
  189,DONGYUE GROUP LIMITED,"151,307,358",7.16%
  198,SMI HOLDINGS GROUP LIMITED,"70,340,800",2.59%
  200,MELCO INTERNATIONAL DEVELOPMENT LIMITED,"16,179,000",1.06%
  207,JOY CITY PROPERTY LIMITED,"5,564,000",0.03%
  215,HUTCHISON TELECOMMUNICATIONS HONG KONG HOLDINGS LIMITED,"9,452,000",0.19%
  220,UNI-PRESIDENT CHINA HOLDINGS LTD.,"7,063,000",0.15%
  241,ALIBABA HEALTH INFORMATION TECHNOLOGY LIMITED,"248,518,997",1.91%
  242,SHUN TAK HOLDINGS LIMITED,"93,020,000",3.07%
  245,CHINA MINSHENG FINANCIAL HOLDING CORPORATION LIMITED,"31,550,000",0.08%
  256,CITYCHAMP WATCH & JEWELLERY GROUP LIMITED,"336,186,000",7.72%
  257,CHINA EVERBRIGHT INTERNATIONAL LIMITED,"488,015,540",7.94%
  267,CITIC LIMITED,"140,903,916",0.47%
  268,KINGDEE INTERNATIONAL SOFTWARE GROUP COMPANY LIMITED,"452,746,172",13.58%
  270,GUANGDONG INVESTMENT LIMITED,"35,568,905",0.54%
  272,SHUI ON LAND LIMITED,"601,910,500",7.45%
  279,FREEMAN FINTECH CORPORATION LIMITED,"612,286,000",32.77%
  285,BYD ELECTRONIC (INTERNATIONAL) COMPANY LIMITED,"160,764,000",7.12%
  288,WH GROUP LIMITED,"1,321,992,427",8.96%
  291,CHINA RESOURCES BEER (HOLDINGS) COMPANY LIMITED,"288,309,603",8.88%
  293,CATHAY PACIFIC AIRWAYS LTD,"11,423,000",0.28%
  295,KONG SUN HOLDINGS LIMITED,"55,400,000",0.37%
  297,SINOFERT HOLDINGS LIMITED,"345,180,000",4.90%
  302,CMGE TECHNOLOGY GROUP LIMITED,"154,912,000",6.64%
  303,VTECH HOLDINGS LIMITED,"1,121,749",0.44%
  308,CHINA TRAVEL INTERNATIONAL INVESTMENT HONG KONG LIMITED,"176,416,439",3.18%
  315,SMARTONE TELECOMMUNICATIONS HOLDINGS LIMITED,"1,893,108",0.16%
  316,ORIENT OVERSEAS (INTERNATIONAL) LIMITED,"8,500",0.00%
  317,CSSC OFFSHORE & MARINE ENGINEERING (GROUP) COMPANY LIMITED,"25,075,200",4.23%
  321,TEXWINCA HOLDINGS LIMITED,"1,004,000",0.07%
  322,TINGYI (CAYMAN ISLANDS) HOLDING CORP.,"36,852,708",0.65%
  323,MAANSHAN IRON & STEEL COMPANY LIMITED,"19,580,000",1.12%
  327,PAX GLOBAL TECHNOLOGY LIMITED,"7,673,000",0.70%
  330,ESPRIT HOLDINGS LIMITED,"11,169,000",0.58%
  336,HUABAO INTERNATIONAL HOLDINGS LIMITED,"348,617,100",11.20%
  337,GREENLAND HONG KONG HOLDINGS LIMITED,"118,704,000",4.25%
  338,SINOPEC SHANGHAI PETROCHEMICAL COMPANY LIMITED,"289,590,375",8.28%
  341,CAFE DE CORAL HOLDINGS LTD,"5,792,000",0.98%
  345,VITASOY INTERNATIONAL HOLDINGS LTD,"7,838,011",0.73%
  347,ANGANG STEEL COMPANY LIMITED,"31,025,800",2.19%
  354,CHINASOFT INTERNATIONAL LIMITED,"361,551,152",13.77%
  358,JIANGXI COPPER COMPANY LIMITED,"82,540,219",5.94%
  363,SHANGHAI INDUSTRIAL HOLDINGS LIMITED,"21,983,100",2.01%
  371,BEIJING ENTERPRISES WATER GROUP LIMITED,"268,012,010",2.66%
  378,FDG KINETIC LIMITED,"183,718,000",2.72%
  384,CHINA GAS HOLDINGS LIMITED,"30,836,243",0.58%
  386,CHINA PETROLEUM & CHEMICAL CORPORATION,"1,627,508,498",6.37%
  388,HONG KONG EXCHANGES AND CLEARING LIMITED,"49,640,285",3.91%
  390,CHINA RAILWAY GROUP LIMITED,"272,535,030",6.47%
  392,BEIJING ENTERPRISES HOLDINGS LIMITED,"98,721,482",7.82%
  400,COGOBUY GROUP,"53,300,000",3.75%
  410,SOHO CHINA LIMITED,"380,945,500",7.32%
  412,CHINA SHANDONG HI-SPEED FINANCIAL GROUP LIMITED,"10,146,000",0.04%
  419,HUAYI TENCENT ENTERTAINMENT COMPANY LIMITED,"168,940,000",1.25%
  425,MINTH GROUP LIMITED,"72,097,189",
  439,KUANGCHI SCIENCE LIMITED,"304,388,000",4.93%
  440,DAH SING FINANCIAL HOLDINGS LTD,"2,506,066",0.78%
  451,GCL NEW ENERGY HOLDINGS LIMITED,"1,694,120,000",8.88%
  460,SIHUAN PHARMACEUTICAL HOLDINGS GROUP LTD.,"509,820,000",5.38%
  467,UNITED ENERGY GROUP LIMITED,"7,818,000",0.02%
  468,GREATVIEW ASEPTIC PACKAGING COMPANY LIMITED,"11,492,000",0.85%
  480,HKR INTERNATIONAL LTD,"261,680",0.01%
  488,LAI SUN DEVELOPMENT COMPANY LIMITED,"30,000",0.00%
  489,DONGFENG MOTOR GROUP COMPANY LIMITED,"192,900,000",6.74%
  493,GOME RETAIL HOLDINGS LIMITED,"2,527,804,000",11.72%
  496,KASEN INTERNATIONAL HOLDINGS LIMITED,"120,346,000",8.05%
  506,CHINA FOODS LIMITED,"44,566,100",1.59%
  508,DINGYI GROUP INVESTMENT LIMITED,"382,685,000",5.20%
  511,TELEVISION BROADCASTS LIMITED,"475,600",0.09%
  512,CHINA GRAND PHARMACEUTICAL AND HEALTHCARE HOLDINGS LIMITED,"108,347,200",3.20%
  517,"COSCO SHIPPING INTERNATIONAL (HONG KONG) CO., LTD.","420,000",0.02%
  520,"XIABUXIABU CATERING MANAGEMENT (CHINA) HOLDINGS CO., LTD.","106,251,500",9.82%
  522,ASM PACIFIC TECHNOLOGY LIMITED,"11,584,325",2.83%
  525,GUANGSHEN RAILWAY COMPANY LIMITED,"314,034,010",21.93%
  530,GOLDIN FINANCIAL HOLDINGS LIMITED,"2,906,000",0.04%
  535,GEMDALE PROPERTIES AND INVESTMENT CORPORATION LIMITED,"1,963,342,154",11.92%
  546,FUFENG GROUP LIMITED,"66,851,119",2.63%
  547,DIGITAL DOMAIN HOLDINGS LIMITED,"1,028,400,000",3.01%
  548,SHENZHEN EXPRESSWAY COMPANY LIMITED,"96,230,000",12.86%
  551,YUE YUEN INDUSTRIAL (HOLDINGS) LIMITED,"8,212,293",0.50%
  552,CHINA COMMUNICATIONS SERVICES CORPORATION LIMITED,"44,038,000",1.83%
  553,NANJING PANDA ELECTRONICS COMPANY LIMITED,"57,114,000",23.59%
  563,SHANGHAI INDUSTRIAL URBAN DEVELOPMENT GROUP LIMITED,"137,798,855",2.86%
  564,ZHENGZHOU COAL MINING MACHINERY GROUP COMPANY LIMITED,"60,683,204",24.94%
  568,SHANDONG MOLONG PETROLEUM MACHINERY COMPANY LIMITED,"57,309,600",22.37%
  570,CHINA TRADITIONAL CHINESE MEDICINE HOLDINGS CO LIMITED,"641,756,938",12.73%
  576,"ZHEJIANG EXPRESSWAY CO., LTD.","80,821,759",5.62%
  579,"BEIJING JINGNENG CLEAN ENERGY CO., LIMITED","162,150,000",5.73%
  581,CHINA ORIENTAL GROUP COMPANY LIMITED,"116,580,987",3.13%
  582,LANDING INTERNATIONAL DEVELOPMENT LIMITED,"112,174,800",3.18%
  586,CHINA CONCH VENTURE HOLDINGS LIMITED,"161,534,500",8.94%
  588,BEIJING NORTH STAR COMPANY LIMITED,"224,210,000",31.70%
  590,LUK FOOK HOLDINGS (INTERNATIONAL) LIMITED,"2,682,000",0.45%
  598,SINOTRANS LIMITED,"362,982,000",16.92%
  604,SHENZHEN INVESTMENT LIMITED,"43,899,461",0.49%
  607,FULLSHARE HOLDINGS LIMITED,"5,213,707,500",26.45%
  612,CHINA DING YI FENG HOLDINGS LIMITED,"2,264,000",0.17%
  631,SANY HEAVY EQUIPMENT INTERNATIONAL HOLDINGS COMPANY LIMITED,"213,399,000",6.85%
  636,KERRY LOGISTICS NETWORK LIMITED,"1,158,000",0.05%
  639,SHOUGANG FUSHAN RESOURCES GROUP LIMITED,"118,146,000",2.22%
  656,FOSUN INTERNATIONAL LIMITED,"948,030,284",11.14%
  658,"CHINA HIGH SPEED TRANSMISSION EQUIPMENT GROUP CO., LTD.","208,176,000",12.72%
  659,NWS HOLDINGS LIMITED,"5,982,719",0.14%
  665,HAITONG INTERNATIONAL SECURITIES GROUP LIMITED,"283,625,031",4.69%
  667,CHINA EAST EDUCATION HOLDINGS LIMITED,"114,838,000",5.23%
  669,TECHTRONIC INDUSTRIES CO. LTD.,"5,185,470",0.27%
  670,CHINA EASTERN AIRLINES CORPORATION LIMITED,"297,235,567",5.74%
  680,NAN HAI CORPORATION LIMITED,"518,750,000",0.75%
  683,KERRY PROPERTIES LIMITED,"3,653,124",0.24%
  686,PANDA GREEN ENERGY GROUP LIMITED,"296,710,000",1.32%
  687,TYSAN HOLDINGS LIMITED,"4,686,000",0.13%
  688,CHINA OVERSEAS LAND & INVESTMENT LIMITED,"60,007,667",0.54%
  691,CHINA SHANSHUI CEMENT GROUP LIMITED,"4,136,000",0.09%
  694,BEIJING CAPITAL INTERNATIONAL AIRPORT COMPANY LIMITED,"329,731,953",17.53%
  696,TRAVELSKY TECHNOLOGY LIMITED,"41,374,000",4.42%
  697,SHOUCHENG HOLDINGS LIMITED,"21,158,010",0.30%
  698,TONGDA GROUP HOLDINGS LIMITED,"161,930,000",2.49%
  699,CAR INC.,"165,855,001",7.81%
  700,TENCENT HOLDINGS LIMITED,"297,907,171",3.11%
  709,GIORDANO INTERNATIONAL LIMITED,"2,156,000",0.13%
  715,CHINA OCEANWIDE HOLDINGS LIMITED,"456,000",0.00%
  718,TAI UNITED HOLDINGS LIMITED,"20,050,000",0.38%
  719,SHANDONG XINHUA PHARMACEUTICAL COMPANY LIMITED,"67,717,436",34.72%
  721,CHINA FINANCIAL INTERNATIONAL INVESTMENTS LIMITED,"305,110,000",2.78%
  728,CHINA TELECOM CORPORATION LIMITED,"356,743,238",2.56%
  729,FDG ELECTRIC VEHICLES LIMITED,"70,130,750",2.79%
  732,TRULY INTERNATIONAL HOLDINGS LIMITED,"307,448,000",9.34%
  737,SZ INVESTMENT HLDGS BAY AREA DEV CO LTD -HKD TRADED SHARES,"1,870,500",0.05%
  743,ASIA CEMENT (CHINA) HOLDINGS CORPORATION,"19,190,000",1.22%
  751,SKYWORTH GROUP LIMITED,"155,061,919",5.05%
  753,AIR CHINA LIMITED,"269,892,923",5.91%
  754,HOPSON DEVELOPMENT HOLDINGS LIMITED,"61,480,000",2.75%
  762,CHINA UNICOM (HONG KONG) LIMITED,"193,438,000",0.63%
  763,ZTE CORPORATION,"216,016,726",28.59%
  772,CHINA LITERATURE LIMITED,"82,987,826",8.16%
  775,"CK LIFE SCIENCES INT'L., (HOLDINGS) INC.","18,716,000",0.19%
  777,NETDRAGON WEBSOFT HOLDINGS LIMITED,"24,121,500",4.27%
  780,TONGCHENG-ELONG HOLDINGS LIMITED,"14,996,400",0.69%
  787,GLOBAL BRANDS GROUP HOLDING LIMITED,"66,791,833",6.49%
  788,CHINA TOWER CORPORATION LIMITED,"2,008,143,384",4.29%
  799,IGG INC,"126,735,298",10.31%
  806,VALUE PARTNERS GROUP LIMITED,"76,250,405",4.10%
  811,"XINHUA WINSHARE PUBLISHING AND MEDIA CO., LTD.","77,359,000",17.50%
  813,SHIMAO GROUP HOLDINGS LIMITED,"85,785,641",2.41%
  816,HUADIAN FUXIN ENERGY CORPORATION LIMITED,"2,550,000",0.09%
  817,CHINA JINMAO HOLDINGS GROUP LIMITED,"962,358,094",8.16%
  819,TIANNENG POWER INTERNATIONAL LIMITED,"233,689,000",20.75%
  826,TIANGONG INTERNATIONAL COMPANY LIMITED,"59,426,000",2.31%
  829,SHENGUAN HOLDINGS (GROUP) LIMITED,"140,700,000",4.35%
  832,CENTRAL CHINA REAL ESTATE LIMITED,"115,352,000",
  836,CHINA RESOURCES POWER HOLDINGS COMPANY LIMITED,"214,380,335",4.45%
  839,CHINA EDUCATION GROUP HOLDINGS LIMITED,"96,513,655",4.77%
  845,GLORIOUS PROPERTY HOLDINGS LIMITED,"23,244,000",0.29%
  846,MINGFA GROUP (INTERNATIONAL) COMPANY LIMITED,"5,261,000",0.08%
  853,MICROPORT SCIENTIFIC CORPORATION,"248,040,877",13.76%
  855,CHINA WATER AFFAIRS GROUP LIMITED,"181,970,334",11.34%
  856,VSTECS HOLDINGS LIMITED,"12,678,000",0.87%
  857,PETROCHINA COMPANY LIMITED,"1,699,696,455",8.04%
  860,APOLLO FUTURE MOBILITY GROUP LIMITED,"30,240,000",0.42%
  861,DIGITAL CHINA HOLDINGS LIMITED,"714,128,400",42.71%
  867,CHINA MEDICAL SYSTEM HOLDINGS LIMITED,"18,614,618",0.74%
  868,XINYI GLASS HOLDINGS LIMITED,"218,453,053",5.42%
  874,"GUANGZHOU BAIYUNSHAN PHARMACEUTICAL HOLDINGS CO., LTD.","64,982,100",29.54%
  880,SJM HOLDINGS LIMITED,"208,548,700",3.67%
  881,ZHONGSHENG GROUP HOLDINGS LIMITED,"40,317,813",1.77%
  883,CNOOC LIMITED,"410,662,543",0.91%
  884,CIFI HOLDINGS (GROUP) CO. LTD.,"419,826,579",5.15%
  885,RENTIAN TECHNOLOGY HOLDINGS LIMITED,"1,110,000",0.01%
  895,DONGJIANG ENVIRONMENTAL COMPANY LIMITED,"62,900,800",31.42%
  902,"HUANENG POWER INTERNATIONAL, INC.","2,047,495,624",43.55%
  906,CPMC HOLDINGS LIMITED,"19,429,000",1.73%
  911,QIANHAI HEALTH HOLDINGS LIMITED,"91,885,250",5.42%
  914,ANHUI CONCH CEMENT COMPANY LIMITED,"56,195,289",4.32%
  916,CHINA LONGYUAN POWER GROUP CORPORATION LIMITED,"195,393,000",5.84%
  921,"HISENSE HOME APPLIANCES GROUP CO., LTD.","46,817,459",10.18%
  931,CHINA LNG GROUP LIMITED,"172,419,000",3.04%
  933,BRIGHTOIL PETROLEUM (HOLDINGS) LIMITED,"25,254,000",0.24%
  934,SINOPEC KANTONS HOLDINGS LIMITED,"188,002,000",7.55%
  939,CHINA CONSTRUCTION BANK CORPORATION,"26,001,527,664",10.81%
  941,CHINA MOBILE LIMITED,"90,437,224",0.43%
  950,LEE'S PHARMACEUTICAL HOLDINGS LIMITED,"1,432,000",0.24%
  951,CHAOWEI POWER HOLDINGS LIMITED,"102,248,000",9.26%
  956,CHINA SUNTIEN GREEN ENERGY CORPORATION LIMITED,"102,378,000",5.56%
  960,LONGFOR GROUP HOLDINGS LIMITED,"162,742,993",2.71%
  966,CHINA TAIPING INSURANCE HOLDINGS COMPANY LIMITED,"464,489,574",12.91%
  967,SOUND GLOBAL LTD.,"289,000",0.01%
  968,XINYI SOLAR HOLDINGS LIMITED,"1,051,402,258",12.87%
  976,CHIHO ENVIRONMENTAL GROUP LIMITED,"217,872,000",13.57%
  978,CHINA MERCHANTS LAND LIMITED,"158,154,000",3.22%
  981,SEMICONDUCTOR MANUFACTURING INTERNATIONAL CORPORATION,"1,254,820,301",16.91%
  989,GROUND INTERNATIONAL DEVELOPMENT LIMITED,"186,385,000",3.53%
  991,"DATANG INTERNATIONAL POWER GENERATION CO.,LTD.","346,024,000",5.65%
  992,LENOVO GROUP LIMITED,"129,859,882",1.08%
  995,ANHUI EXPRESSWAY COMPANY LIMITED,"113,686,000",23.05%
  996,CARNIVAL GROUP INTERNATIONAL HOLDINGS LIMITED,"6,099,442,500",25.73%
  998,CHINA CITIC BANK CORPORATION LIMITED,"2,252,993,622",15.13%
 1028,C.BANNER INTERNATIONAL HOLDINGS LIMITED,"147,012,000",7.07%
 1030,SEAZEN GROUP LIMITED,"274,433,000",4.41%
 1031,KINGSTON FINANCIAL GROUP LIMITED,"548,000",0.00%
 1033,SINOPEC OILFIELD SERVICE CORPORATION,"353,598,000",6.52%
 1038,CK INFRASTRUCTURE HOLDINGS LIMITED,"11,114,000",0.41%
 1044,HENGAN INTERNATIONAL GROUP COMPANY LIMITED,"18,021,105",1.51%
 1052,YUEXIU TRANSPORT INFRASTRUCTURE LIMITED,"70,974,000",4.24%
 1053,CHONGQING IRON & STEEL COMPANY LIMITED,"94,668,000",17.59%
 1055,CHINA SOUTHERN AIRLINES COMPANY LIMITED,"289,632,370",6.76%
 1057,ZHEJIANG SHIBAO COMPANY LIMITED,"44,312,000",20.44%
 1060,ALIBABA PICTURES GROUP LIMITED,"3,417,998,620",12.73%
 1065,TIANJIN CAPITAL ENVIRONMENTAL PROTECTION GROUP COMPANY LIMITED,"98,150,100",28.85%
 1066,SHANDONG WEIGAO GROUP MEDICAL POLYMER COMPANY LIMITED,"584,218,858",12.91%
 1068,CHINA YURUN FOOD GROUP LIMITED,"18,172,000",0.99%
 1070,TCL ELECTRONICS HOLDINGS LIMITED,"66,385,666",2.79%
 1071,HUADIAN POWER INTERNATIONAL CORPORATION LIMITED,"693,886,683",40.39%
 1072,DONGFANG ELECTRIC CORPORATION LIMITED,"101,021,316",29.70%
 1076,IMPERIAL PACIFIC INTERNATIONAL HOLDINGS LIMITED,"388,440,000",0.27%
 1083,TOWNGAS CHINA COMPANY LIMITED,"18,511,481",0.62%
 1086,GOODBABY INTERNATIONAL HOLDINGS LIMITED,"25,546,000",1.53%
 1088,CHINA SHENHUA ENERGY COMPANY LIMITED,"914,101,506",26.89%
 1089,LEYOU TECHNOLOGIES HOLDINGS LIMITED,"84,700,000",2.74%
 1093,CSPC PHARMACEUTICAL GROUP LIMITED,"431,682,001",5.75%
 1097,I-CABLE COMMUNICATIONS LIMITED,"101,191",0.00%
 1098,ROAD KING INFRASTRUCTURE LIMITED,"11,252,000",1.50%
 1099,SINOPHARM GROUP CO. LTD.,"70,436,309",5.24%
 1108,LUOYANG GLASS COMPANY LIMITED,"88,178,000",35.26%
 1109,CHINA RESOURCES LAND LIMITED,"88,739,243",1.23%
 1111,CHONG HING BANK LIMITED,"1,023,500",0.10%
 1112,HEALTH AND HAPPINESS (H&H) INTERNATIONAL HOLDINGS LIMITED,"40,687,000",6.31%
 1113,CK ASSET HOLDINGS LIMITED,"12,009,043",0.31%
 1114,BRILLIANCE CHINA AUTOMOTIVE HOLDINGS LIMITED,"153,703,899",3.03%
 1115,TIBET WATER RESOURCES LTD.,"161,112,000",6.27%
 1117,CHINA MODERN DAIRY HOLDINGS LTD.,"224,426,000",3.49%
 1119,IDREAMSKY TECHNOLOGY HOLDINGS LIMITED,"38,573,600",3.03%
 1128,"WYNN MACAU, LIMITED","64,501,200",1.23%
 1131,AGRITRADE RESOURCES LIMITED,"583,090,000",9.14%
 1138,"COSCO SHIPPING ENERGY TRANSPORTATION CO., LTD.","197,380,003",15.22%
 1140,OP FINANCIAL LIMITED,"99,372,000",3.42%
 1141,CMBC CAPITAL HOLDINGS LIMITED,"442,060,000",0.92%
 1157,"ZOOMLION HEAVY INDUSTRY SCIENCE AND TECHNOLOGY CO., LTD.","46,865,322",3.37%
 1165,SHUNFENG INTERNATIONAL CLEAN ENERGY LIMITED,"328,246,000",6.58%
 1169,"HAIER ELECTRONICS GROUP CO., LTD.","33,487,382",1.18%
 1171,YANZHOU COAL MINING COMPANY LIMITED,"303,189,736",15.95%
 1176,ZHUGUANG HOLDINGS GROUP COMPANY LIMITED,"205,936,000",2.86%
 1177,SINO BIOPHARMACEUTICAL LIMITED,"1,236,243,876",9.82%
 1186,CHINA RAILWAY CONSTRUCTION CORPORATION LIMITED,"74,845,190",3.60%
 1188,HYBRID KINETIC GROUP LIMITED,"103,190,000",0.50%
 1193,CHINA RESOURCES GAS GROUP LIMITED,"14,644,000",0.63%
 1196,REALORD GROUP HOLDINGS LIMITED,"122,650,000",8.52%
 1199,COSCO SHIPPING PORTS LIMITED,"28,862,995",0.90%
 1205,CITIC RESOURCES HOLDINGS LIMITED,"168,806,100",2.14%
 1208,MMG LIMITED,"303,894,000",3.76%
 1211,BYD COMPANY LIMITED,"62,299,743",6.80%
 1212,LIFESTYLE INTERNATIONAL HOLDINGS LIMITED,"3,921,312",0.25%
 1230,YASHILI INTERNATIONAL HOLDINGS LTD,"78,805,000",1.65%
 1233,TIMES CHINA HOLDINGS LIMITED,"82,391,757",4.23%
 1234,CHINA LILANG LIMITED,"54,999,000",4.59%
 1238,POWERLONG REAL ESTATE HOLDINGS LIMITED,"121,060,000",2.92%
 1250,BEIJING ENTERPRISES CLEAN ENERGY GROUP LIMITED,"1,624,520,000",2.55%
 1253,CHINA GREENLAND BROAD GREENSTATE GROUP COMPANY LIMITED,"6,484,000",0.19%
 1257,CHINA EVERBRIGHT GREENTECH LIMITED,"137,031,000",6.63%
 1268,CHINA MEIDONG AUTO HOLDINGS LIMITED,"44,740,000",3.59%
 1269,CHINA FIRST CAPITAL GROUP LIMITED,"1,077,258,000",21.42%
 1282,GLORY SUN FINANCIAL GROUP LIMITED,"4,138,088,000",13.18%
 1286,IMPRO PRECISION INDUSTRIES LIMITED,"2,009,000",0.10%
 1288,AGRICULTURAL BANK OF CHINA LIMITED,"8,317,920,435",27.05%
 1293,GRAND BAOXIN AUTO GROUP LIMITED,"138,544,009",4.88%
 1299,AIA GROUP LIMITED,"74,321,616",0.61%
 1302,LIFETECH SCIENTIFIC CORPORATION,"600,154,000",13.87%
 1308,SITC INTERNATIONAL HOLDINGS COMPANY LIMITED,"60,536,000",2.25%
 1310,HKBN LTD.,"4,594,000",0.35%
 1313,CHINA RESOURCES CEMENT HOLDINGS LIMITED,"55,679,915",0.79%
 1315,VISION FAME INTERNATIONAL HOLDING LIMITED,"733,014,000",12.21%
 1316,NEXTEER AUTOMOTIVE GROUP LIMITED,"45,459,000",1.81%
 1317,CHINA MAPLE LEAF EDUCATIONAL SYSTEMS LIMITED,"357,823,230",11.94%
 1330,"DYNAGREEN ENVIRONMENTAL PROTECTION GROUP CO., LTD","134,030,000",33.14%
 1333,CHINA ZHONGWANG HOLDINGS LIMITED,"311,830,400",5.71%
 1336,NEW CHINA LIFE INSURANCE COMPANY LTD.,"331,304,174",32.03%
 1339,"PEOPLE'S INSURANCE COMPANY (GROUP) OF CHINA LIMITED, THE","1,570,988,987",18.00%
 1347,HUA HONG SEMICONDUCTOR LIMITED,"80,369,065",6.20%
 1357,"MEITU, INC.","309,927,600",7.18%
 1359,"CHINA CINDA ASSET MANAGEMENT CO., LTD.","2,121,422,457",15.63%
 1361,361 DEGREES INTERNATIONAL LIMITED,"29,085,000",1.40%
 1363,CT ENVIRONMENTAL GROUP LIMITED,"502,874,000",7.95%
 1368,XTEP INTERNATIONAL HOLDINGS LIMITED,"84,644,115",3.35%
 1375,"CENTRAL CHINA SECURITIES CO., LTD.","259,580,000",21.71%
 1378,CHINA HONGQIAO GROUP LIMITED,"517,575,910",6.03%
 1381,CANVEST ENVIRONMENTAL PROTECTION GROUP COMPANY LIMITED,"27,294,000",1.11%
 1382,PACIFIC TEXTILES HOLDINGS LIMITED,"19,783,000",1.39%
 1383,SUNCITY GROUP HOLDINGS LIMITED,"28,380,000",0.42%
 1387,CHINA DILI GROUP,"153,612,330",2.68%
 1398,INDUSTRIAL AND COMMERCIAL BANK OF CHINA LIMITED,"23,870,251,280",27.49%
 1432,CHINA SHENGMU ORGANIC MILK LIMITED,"162,550,000",2.29%
 1448,FU SHOU YUAN INTERNATIONAL GROUP LIMITED,"251,414,000",10.97%
 1458,ZHOU HEI YA INTERNATIONAL HOLDINGS COMPANY LIMITED,"354,722,500",14.87%
 1478,Q TECHNOLOGY (GROUP) COMPANY LIMITED,"40,236,000",3.43%
 1508,CHINA REINSURANCE (GROUP) CORPORATION,"741,974,000",11.09%
 1513,LIVZON PHARMACEUTICAL GROUP INC.,"38,378,045",11.99%
 1515,CHINA RESOURCES MEDICAL HOLDINGS COMPANY LIMITED,"61,106,100",4.70%
 1521,FRONTAGE HOLDINGS CORPORATION,"210,266,000",10.36%
 1528,RED STAR MACALLINE GROUP CORPORATION LTD.,"111,838,922",16.59%
 1530,3SBIO INC.,"292,376,500",11.51%
 1533,"LANZHOU ZHUANGYUAN PASTURE CO., LTD.","7,818,500",22.25%
 1548,GENSCRIPT BIOTECH CORPORATION,"199,342,000",10.38%
 1551,"GUANGZHOU RURAL COMMERCIAL BANK CO., LTD","2,415,000",0.13%
 1558,"YICHANG HEC CHANGJIANG PHARMACEUTICAL CO., LTD.","124,717,800",29.16%
 1569,MINSHENG EDUCATION GROUP COMPANY LIMITED,"178,751,025",4.23%
 1573,SOUTHERN ENERGY HOLDINGS GROUP LIMITED,"126,862,000",17.66%
 1578,"BANK OF TIANJIN CO., LTD.","34,000",0.00%
 1579,YIHAI INTERNATIONAL HOLDING LTD.,"89,016,392",8.49%
 1583,QINQIN FOODSTUFFS GROUP (CAYMAN) COMPANY LIMITED,"25,400",0.00%
 1585,YADEA GROUP HOLDINGS LTD.,"246,042,000",8.21%
 1589,"CHINA LOGISTICS PROPERTY HOLDINGS CO., LTD","3,200,000",0.09%
 1600,CHINA TIAN LUN GAS HOLDINGS LIMITED,"14,892,500",1.48%
 1606,"CHINA DEVELOPMENT BANK FINANCIAL LEASING CO., LTD.","316,000",0.01%
 1608,VPOWER GROUP INTERNATIONAL HOLDINGS LIMITED,"2,173,000",0.08%
 1610,COFCO MEAT HOLDINGS LIMITED,"454,626,000",11.65%
 1618,METALLURGICAL CORPORATION OF CHINA LTD.,"406,433,000",14.15%
 1622,REDCO PROPERTIES GROUP LIMITED,"212,614,000",5.98%
 1628,YUZHOU GROUP HOLDINGS COMPANY LIMITED,"67,757,024",1.28%
 1635,"SHANGHAI DAZHONG PUBLIC UTILITIES (GROUP) CO., LTD.","72,385,000",13.55%
 1636,CHINA METAL RESOURCES UTILIZATION LIMITED,"34,624,000",1.31%
 1638,KAISA GROUP HOLDINGS LTD.,"437,652,619",7.15%
 1658,"POSTAL SAVINGS BANK OF CHINA CO., LTD.","232,960,141",1.16%
 1661,WISDOM SPORTS GROUP,"6,419,000",0.40%
 1666,TONG REN TANG TECHNOLOGIES CO LTD,"182,595,200",29.04%
 1668,CHINA SOUTH CITY HOLDINGS LIMITED,"750,340,396",9.26%
 1680,MACAU LEGEND DEVELOPMENT LIMITED,"128,065,000",2.06%
 1681,CONSUN PHARMACEUTICAL GROUP LIMITED,"26,052,000",3.08%
 1685,BOER POWER HOLDINGS LIMITED,"2,216,000",0.28%
 1686,SUNEVISION HOLDINGS LIMITED,"2,655,000",0.11%
 1691,JS GLOBAL LIFESTYLE COMPANY LIMITED,"1,816,500",0.04%
 1717,AUSNUTRIA DAIRY CORPORATION LTD,"104,468,000",6.46%
 1728,CHINA ZHENGTONG AUTO SERVICES HOLDINGS LIMITED,"225,351,000",9.18%
 1761,BABYTREE GROUP,"6,083,500",0.36%
 1765,"HOPE EDUCATION GROUP CO., LTD.","631,358,580",9.35%
 1766,CRRC CORPORATION LIMITED,"342,919,220",7.84%
 1772,"GANFENG LITHIUM CO., LTD.","111,938,455",55.91%
 1776,"GF SECURITIES CO., LTD.","501,944,700",29.49%
 1777,"FANTASIA HOLDINGS GROUP CO., LIMITED","387,767,500",6.72%
 1778,"COLOUR LIFE SERVICES GROUP CO., LIMITED","74,413,147",5.23%
 1787,"SHANDONG GOLD MINING CO., LTD.","154,693,861",30.95%
 1788,GUOTAI JUNAN INTERNATIONAL HOLDINGS LIMITED,"255,402,110",2.65%
 1789,AK MEDICAL HOLDINGS LIMITED,"77,121,955",6.92%
 1797,KOOLEARN TECHNOLOGY HOLDING LIMITED,"133,012,261",14.15%
 1800,CHINA COMMUNICATIONS CONSTRUCTION COMPANY LIMITED,"433,010,000",9.77%
 1806,HUIFU PAYMENT LIMITED,"23,231,200",1.79%
 1810,XIAOMI CORPORATION,"1,970,718,017",8.17%
 1811,"CGN NEW ENERGY HOLDINGS CO., LTD.","41,048,000",0.95%
 1812,SHANDONG CHENMING PAPER HOLDINGS LIMITED,"102,419,950",19.38%
 1813,KWG GROUP HOLDINGS LIMITED,"172,707,540",5.42%
 1816,"CGN POWER CO., LTD","2,389,207,000",21.39%
 1818,ZHAOJIN MINING INDUSTRY COMPANY LIMITED,"125,943,372",12.00%
 1829,CHINA MACHINERY ENGINEERING CORPORATION,"131,000",0.01%
 1833,PING AN HEALTHCARE AND TECHNOLOGY COMPANY LIMITED,"101,973,500",9.54%
 1836,STELLA INTERNATIONAL HOLDINGS LIMITED,"479,500",0.06%
 1848,CHINA AIRCRAFT LEASING GROUP HOLDINGS LIMITED,"10,278,549",1.45%
 1860,MOBVISTA INC.,"18,946,000",1.23%
 1873,VIVA BIOTECH HOLDINGS,"307,020,500",16.70%
 1876,BUDWEISER BREWING COMPANY APAC LIMITED,"13,521,500",0.09%
 1882,HAITIAN INTERNATIONAL HOLDINGS LIMITED,"23,633,000",1.47%
 1883,CITIC TELECOM INTERNATIONAL HOLDINGS LIMITED,"31,216,000",0.85%
 1886,CHINA HUIYUAN JUICE GROUP LIMITED,"125,355,500",4.69%
 1888,KINGBOARD LAMINATES HOLDINGS LIMITED,"9,111,595",0.28%
 1890,CHINA KEPEI EDUCATION GROUP LIMITED,"128,521,275",6.42%
 1896,MAOYAN ENTERTAINMENT,"30,701,000",2.71%
 1898,CHINA COAL ENERGY COMPANY LIMITED,"400,352,000",9.73%
 1905,"HAITONG UNITRUST INTERNATIONAL LEASING CO., LTD.","38,506,000",0.66%
 1907,CHINA RISUN GROUP LIMITED,"19,944,000",0.48%
 1908,C&D INTERNATIONAL INVESTMENT GROUP LIMITED,"80,098,000",6.80%
 1911,CHINA RENAISSANCE HOLDINGS LIMITED,"10,576,600",1.97%
 1916,"JIANGXI BANK CO., LTD.","10,789,000",0.80%
 1918,SUNAC CHINA HOLDINGS LIMITED,"802,994,458",17.22%
 1919,"COSCO SHIPPING HOLDINGS CO., LTD.","312,223,500",12.08%
 1928,SANDS CHINA LTD.,"60,544,093",0.74%
 1929,CHOW TAI FOOK JEWELLERY GROUP LIMITED,"52,469,400",0.52%
 1951,JINXIN FERTILITY GROUP LIMITED,"308,695,600",12.69%
 1958,BAIC MOTOR CORPORATION LIMITED,"77,952,000",3.08%
 1963,"BANK OF CHONGQING CO., LTD.","117,407,000",7.43%
 1966,CHINA SCE GROUP HOLDINGS LIMITED,"178,824,054",4.27%
 1970,"IMAX CHINA HOLDING, INC.","6,477,600",1.86%
 1972,SWIRE PROPERTIES LIMITED,"2,823,800",0.04%
 1980,TIAN GE INTERACTIVE HOLDINGS LIMITED,"26,829,000",2.10%
 1988,"CHINA MINSHENG BANKING CORP., LTD.","865,749,349",10.39%
 1992,FOSUN TOURISM GROUP,"910,200",0.07%
 1996,REDSUN PROPERTIES GROUP LIMITED,"70,245,000",2.11%
 1997,WHARF REAL ESTATE INVESTMENT COMPANY LIMITED,"3,482,958",0.10%
 1999,MAN WAH HOLDINGS LIMITED,"590,430,715",15.53%
 2001,CHINA NEW HIGHER EDUCATION GROUP LIMITED,"128,447,621",8.33%
 2003,VCREDIT HOLDINGS LIMITED,"2,151,800",0.43%
 2005,SSY GROUP LIMITED,"261,744,059",8.62%
 2007,COUNTRY GARDEN HOLDINGS COMPANY LIMITED,"258,644,541",1.17%
 2008,PHOENIX MEDIA INVESTMENT (HOLDINGS) LIMITED,"207,946,000",4.16%
 2009,BBMG CORPORATION,"285,758,500",12.20%
 2013,WEIMOB INC.,"471,890,213",
 2016,"CHINA ZHESHANG BANK CO., LTD.","7,966,000",0.16%
 2018,AAC TECHNOLOGIES HOLDINGS INC.,"88,335,871",7.30%
 2019,DEXIN CHINA HOLDINGS COMPANY LIMITED,"26,601,000",0.98%
 2020,ANTA SPORTS PRODUCTS LIMITED,"188,356,635",6.96%
 2038,FIH MOBILE LIMITED,"102,233,000",1.23%
 2039,"CHINA INTERNATIONAL MARINE CONTAINERS (GROUP) CO., LTD.","200,139,680",9.71%
 2048,E-HOUSE (CHINA) ENTERPRISE HOLDINGS LIMITED,"297,600",0.02%
 2051,51 CREDIT CARD INC.,"50,999,500",4.27%
 2066,"SHENGJING BANK CO., LTD.","239,500",0.01%
 2068,CHINA ALUMINUM INTERNATIONAL ENGINEERING CORPORATION LIMITED,"11,783,000",2.94%
 2098,ZALL SMART COMMERCE GROUP LTD.,"31,698,000",0.26%
 2099,CHINA GOLD INTERNATIONAL RESOURCES CORP. LTD.,"15,302,600",3.86%
 2103,SINIC HOLDINGS (GROUP) COMPANY LIMITED,"1,358,000",0.03%
 2111,BEST PACIFIC INTERNATIONAL HOLDINGS LIMITED,"1,558,000",0.14%
 2128,CHINA LESSO GROUP HOLDINGS LIMITED,"39,756,000",1.27%
 2136,LIFESTYLE CHINA GROUP LIMITED,"284,000",0.01%
 2186,LUYE PHARMA GROUP LTD.,"463,455,000",14.25%
 2196,"SHANGHAI FOSUN PHARMACEUTICAL (GROUP) CO., LTD.","194,560,698",35.24%
 2199,REGINA MIRACLE INTERNATIONAL (HOLDINGS) LIMITED,"2,914,000",0.23%
 2202,"CHINA VANKE CO., LTD.","209,591,590",11.06%
 2208,"XINJIANG GOLDWIND SCIENCE & TECHNOLOGY CO., LTD.","90,419,938",11.68%
 2232,CRYSTAL INTERNATIONAL GROUP LIMITED,"3,548,500",0.12%
 2233,WEST CHINA CEMENT LIMITED,"453,622,000",8.34%
 2238,"GUANGZHOU AUTOMOBILE GROUP CO., LTD.","1,013,614,842",32.70%
 2255,HAICHANG OCEAN PARK HOLDINGS LTD.,"269,060,000",6.72%
 2269,WUXI BIOLOGICS (CAYMAN) INC.,"100,065,107",7.36%
 2280,HC GROUP INC.,"107,885,500",8.16%
 2282,MGM CHINA HOLDINGS LIMITED,"27,007,896",0.70%
 2298,COSMO LADY (CHINA) HOLDINGS COMPANY LIMITED,"11,511,000",0.50%
 2313,SHENZHOU INTERNATIONAL GROUP HOLDINGS LIMITED,"48,661,248",3.23%
 2314,LEE & MAN PAPER MANUFACTURING LIMITED,"27,150,825",0.62%
 2318,"PING AN INSURANCE (GROUP) COMPANY OF CHINA, LTD.","112,498,736",1.50%
 2319,CHINA MENGNIU DAIRY COMPANY LIMITED,"70,574,377",1.78%
 2326,NEW PROVENANCE EVERLASTING HOLDINGS LIMITED,"55,960,000",0.25%
 2328,PICC PROPERTY AND CASUALTY COMPANY LIMITED,"546,583,341",7.91%
 2329,GUORUI PROPERTIES LIMITED,"152,793,000",3.43%
 2331,LI NING COMPANY LIMITED,"121,538,016",4.90%
 2333,GREAT WALL MOTOR COMPANY LIMITED,"1,045,546,596",33.73%
 2338,"WEICHAI POWER CO., LTD.","93,847,000",4.82%
 2343,PACIFIC BASIN SHIPPING LIMITED,"5,949,000",0.12%
 2356,DAH SING BANKING GROUP LIMITED,"200,000",0.01%
 2357,AVICHINA INDUSTRY & TECHNOLOGY COMPANY LIMITED,"374,849,000",6.02%
 2359,"WUXI APPTEC CO., LTD.","16,042,330",6.71%
 2362,JINCHUAN GROUP INTERNATIONAL RESOURCES CO. LTD.,"86,064,000",0.68%
 2363,TONGDA HONG TAI HOLDINGS LIMITED,"371,962",0.19%
 2369,COOLPAD GROUP LIMITED,"45,084,000",0.74%
 2380,CHINA POWER INTERNATIONAL DEVELOPMENT LIMITED,"616,154,771",6.27%
 2382,SUNNY OPTICAL TECHNOLOGY (GROUP) COMPANY LIMITED,"94,946,792",8.64%
 2386,"SINOPEC ENGINEERING (GROUP) CO., LTD.","31,816,000",2.16%
 2388,BOC HONG KONG (HOLDINGS) LIMITED,"14,713,445",0.13%
 2400,XD INC.,"49,201,961",10.83%
 2588,BOC AVIATION LIMITED,"11,959,383",1.71%
 2600,ALUMINUM CORPORATION OF CHINA LIMITED,"255,846,000",6.47%
 2601,CHINA PACIFIC INSURANCE (GROUP) CO. LTD.,"698,478,869",25.15%
 2607,"SHANGHAI PHARMACEUTICALS HOLDING CO., LTD.","104,192,566",11.32%
 2611,"GUOTAI JUNAN SECURITIES CO., LTD.","95,328,000",6.84%
 2628,CHINA LIFE INSURANCE COMPANY LIMITED,"292,531,093",3.93%
 2662,CAMSING INTERNATIONAL HOLDING LIMITED,"132,096,000",12.26%
 2666,GENERTEC UNIVERSAL MEDICAL GROUP COMPANY LIMITED,"338,378,000",19.71%
 2669,CHINA OVERSEAS PROPERTY HOLDINGS LIMITED,"289,336,090",8.80%
 2678,TEXHONG TEXTILE GROUP LIMITED,"31,212,500",3.41%
 2688,ENN ENERGY HOLDINGS LIMITED,"16,189,361",1.43%
 2689,NINE DRAGONS PAPER (HOLDINGS) LIMITED,"63,549,000",1.35%
 2727,SHANGHAI ELECTRIC GROUP COMPANY LIMITED,"804,127,000",27.04%
 2768,JIAYUAN INTERNATIONAL GROUP LIMITED,"344,179,374",8.72%
 2772,ZHONGLIANG HOLDINGS GROUP COMPANY LIMITED,"25,553,500",0.71%
 2777,"GUANGZHOU R&F PROPERTIES CO., LTD.","99,449,023",7.71%
 2799,"CHINA HUARONG ASSET MANAGEMENT CO., LTD.","2,210,737,000",8.82%
 2858,YIXIN GROUP LIMITED,"53,063,500",0.82%
 2866,"COSCO SHIPPING DEVELOPMENT CO., LTD.","571,689,000",15.54%
 2869,GREENTOWN SERVICE GROUP CO. LTD.,"288,594,899",8.96%
 2877,CHINA SHINEWAY PHARMACEUTICAL GROUP LIMITED,"24,148,000",2.91%
 2880,DALIAN PORT (PDA) COMPANY LIMITED,"903,973,000",17.51%
 2883,CHINA OILFIELD SERVICES LIMITED,"123,875,627",6.83%
 2888,STANDARD CHARTERED PLC,"397,770",0.01%
 2899,"ZIJIN MINING GROUP CO., LTD.","1,453,990,000",25.33%
 2909,NEW WORLD DEVELOPMENT CO LTD - OLD,"5,250",0.00%
 3301,RONSHINE CHINA HOLDINGS LIMITED,"129,933,500",7.63%
 3306,JNBY DESIGN LIMITED,"20,319,000",3.91%
 3308,GOLDEN EAGLE RETAIL GROUP LIMITED,"94,566,000",5.65%
 3309,C-MER EYE CARE HOLDINGS LIMITED,"74,060,000",6.47%
 3311,CHINA STATE CONSTRUCTION INTERNATIONAL HOLDINGS LIMITED,"26,560,192",0.52%
 3319,"A-LIVING SERVICES CO., LTD.","13,735,500",3.16%
 3320,CHINA RESOURCES PHARMACEUTICAL GROUP LIMITED,"147,474,500",2.34%
 3323,CHINA NATIONAL BUILDING MATERIAL COMPANY LIMITED,"905,997,064",23.41%
 3328,"BANK OF COMMUNICATIONS CO., LTD.","755,723,944",2.15%
 3329,BOCOM INTERNATIONAL HOLDINGS COMPANY LIMITED,"15,667,000",0.57%
 3331,VINDA INTERNATIONAL HOLDINGS LIMITED,"12,208,000",1.01%
 3333,CHINA EVERGRANDE GROUP,"134,265,355",1.01%
 3339,LONKING HOLDINGS LIMITED,"22,163,000",0.51%
 3360,FAR EAST HORIZON LIMITED,"120,668,000",3.03%
 3368,PARKSON RETAIL GROUP LIMITED,"5,669,500",0.21%
 3369,"QINHUANGDAO PORT CO., LTD.","77,700,000",9.36%
 3377,SINO-OCEAN GROUP HOLDING LIMITED,"146,688,810",1.91%
 3380,LOGAN GROUP COMPANY LIMITED,"159,891,871",2.89%
 3382,TIANJIN PORT DEVELOPMENT HOLDINGS LIMITED,"208,620,000",3.38%
 3383,AGILE GROUP HOLDINGS LIMITED,"41,773,548",1.06%
 3389,HENGDELI HOLDINGS LIMITED,"876,000",0.01%
 3393,WASION HOLDINGS LIMITED,"1,326,000",0.13%
 3396,LEGEND HOLDINGS CORPORATION,"74,686,600",5.86%
 3606,"FUYAO GLASS INDUSTRY GROUP CO., LTD","69,052,650",13.64%
 3613,BEIJING TONG REN TANG CHINESE MEDICINE COMPANY LIMITED,"82,857,000",9.89%
 3618,"CHONGQING RURAL COMMERCIAL BANK CO., LTD.","636,084,000",25.30%
 3633,ZHONGYU GAS HOLDINGS LIMITED,"18,316,000",0.69%
 3669,CHINA YONGDA AUTOMOBILES SERVICES HOLDINGS LIMITED,"114,572,500",
 3690,MEITUAN DIANPING,"264,293,633",4.49%
 3692,HANSOH PHARMACEUTICAL GROUP COMPANY LIMITED,"48,263,000",0.80%
 3698,HUISHANG BANK CORPORATION LIMITED,"4,766,600",0.12%
 3759,"PHARMARON BEIJING CO., LTD.","17,233,700",12.85%
 3788,CHINA HANKING HOLDINGS LIMITED,"16,435,000",0.90%
 3799,DALI FOODS GROUP COMPANY LIMITED,"400,154,500",2.91%
 3800,GCL-POLY ENERGY HOLDINGS LIMITED,"2,398,735,900",11.34%
 3808,SINOTRUK (HONG KONG) LIMITED,"137,868,866",4.99%
 3813,POU SHENG INTERNATIONAL (HOLDINGS) LIMITED,"5,325,000",0.09%
 3818,"CHINA DONGXIANG (GROUP) CO., LTD.","254,419,000",4.32%
 3836,CHINA HARMONY AUTO HOLDING LIMITED,"62,008,500",3.93%
 3866,"BANK OF QINGDAO CO., LTD.","1,135,500",0.06%
 3868,XINYI ENERGY HOLDINGS LIMITED,"15,044,000",0.22%
 3877,CSSC (HONG KONG) SHIPPING COMPANY LIMITED,"4,786,000",0.07%
 3883,CHINA AOYUAN GROUP LIMITED,"175,872,000",6.50%
 3886,TOWN HEALTH INTERNATIONAL MEDICAL GROUP LIMITED,"145,736,000",1.92%
 3888,KINGSOFT CORPORATION LIMITED,"371,955,273",27.08%
 3898,"ZHUZHOU CRRC TIMES ELECTRIC CO., LTD.","40,509,906",7.39%
 3899,CIMC ENRIC HOLDINGS LIMITED,"133,652,000",6.64%
 3900,GREENTOWN CHINA HOLDINGS LIMITED,"342,149,500",13.71%
 3908,CHINA INTERNATIONAL CAPITAL CORPORATION LIMITED,"321,718,881",16.89%
 3933,"UNITED LABORATORIES INTERNATIONAL HOLDINGS LIMITED, THE","181,372,181",9.95%
 3958,DFZQ,"384,500,785",37.42%
 3968,"CHINA MERCHANTS BANK CO., LTD.","172,497,090",3.74%
 3969,CHINA RAILWAY SIGNAL & COMMUNICATION CORPORATION LIMITED,"115,947,000",5.88%
 3988,BANK OF CHINA LIMITED,"8,313,901,858",9.93%
 3990,MIDEA REAL ESTATE HOLDING LIMITED,"45,739,200",3.71%
 3993,"CHINA MOLYBDENUM CO., LTD.","372,742,500",9.46%
 3996,CHINA ENERGY ENGINEERING CORPORATION LIMITED,"10,860,000",0.11%
 3998,BOSIDENG INTERNATIONAL HOLDINGS LIMITED,"720,710,000",6.70%
 6030,CITIC SECURITIES COMPANY LIMITED,"271,897,075",11.92%
 6049,"POLY PROPERTY DEVELOPMENT CO., LTD.","49,710,407",32.41%
 6055,CHINA TOBACCO INTERNATIONAL (HK) COMPANY LIMITED,"28,691,000",4.14%
 6060,"ZHONGAN ONLINE P & C INSURANCE CO., LTD.","26,611,000",5.66%
 6066,"CSC FINANCIAL CO., LTD.","319,360,000",25.31%
 6068,WISDOM EDUCATION INTERNATIONAL HOLDINGS COMPANY LIMITED,"105,780,000",5.16%
 6069,SHENG YE CAPITAL LIMITED,"10,014,000",1.13%
 6088,FIT HON TENG LIMITED,"354,183,000",5.14%
 6098,COUNTRY GARDEN SERVICES HOLDINGS COMPANY LIMITED,"204,710,159",7.41%
 6099,"CHINA MERCHANTS SECURITIES CO., LTD.","142,772,800",14.56%
 6100,"WISE TALENT INFORMATION TECHNOLOGY CO., LTD","85,600",0.01%
 6110,TOPSPORTS INTERNATIONAL HOLDINGS LIMITED,"19,478,000",0.30%
 6116,"SHANGHAI LA CHAPELLE FASHION CO., LTD.","71,435,800",33.25%
 6158,ZHENRO PROPERTIES GROUP LIMITED,"62,215,000",1.41%
 6166,CHINA VAST INDUSTRIAL URBAN DEVELOPMENT COMPANY LIMITED,"52,474,000",3.17%
 6169,CHINA YUHUA EDUCATION CORPORATION LIMITED,"539,841,614",16.16%
 6178,EVERBRIGHT SECURITIES COMPANY LIMITED,"81,967,400",11.63%
 6186,CHINA FEIHE LIMITED,"803,620,796",8.98%
 6196,"BANK OF ZHENGZHOU CO., LTD.","252,334,700",15.11%
 6198,"QINGDAO PORT INTERNATIONAL CO., LTD.","8,964,000",0.81%
 6806,"SHENWAN HONGYUAN GROUP CO., LTD.","162,138,400",6.47%
 6808,SUN ART RETAIL GROUP LIMITED,"69,568,023",0.71%
 6818,CHINA EVERBRIGHT BANK COMPANY LIMITED,"830,247,992",6.54%
 6828,BEIJING GAS BLUE SKY HOLDINGS LIMITED,"244,904,000",1.88%
 6837,"HAITONG SECURITIES CO., LTD.","737,989,400",21.63%
 6862,HAIDILAO INTERNATIONAL HOLDING LTD.,"143,007,394",2.69%
 6865,"FLAT GLASS GROUP CO., LTD.","178,887,000",39.74%
 6869,YANGTZE OPTICAL FIBRE AND CABLE JOINT STOCK LIMITED COMPANY,"18,193,500",5.16%
 6881,"CHINA GALAXY SECURITIES CO., LTD.","862,239,882",23.35%
 6886,"HUATAI SECURITIES CO., LTD.","427,993,409",24.89%
 8328,XINYI AUTOMOBILE GLASS HONG KONG ENTERPRISES LIMITED,"109,750",0.01%
 9928,TIMES NEIGHBORHOOD HOLDINGS LIMITED,"7,483,171",0.81%
