Stock Code,Stock Name,Shareholding in CCASS,Percentage of the total number of Issued Shares
    1,CK HUTCHISON HOLDINGS LIMITED,"27,580,319",0.71%
    2,CLP HOLDINGS LIMITED,"5,839,492",0.22%
    3,"HONG KONG AND CHINA GAS COMPANY LIMITED, THE","24,445,520",0.13%
    4,"WHARF (HOLDINGS) LIMITED, THE","9,361,446",0.30%
    5,HSBC HOLDINGS PLC,"1,789,706,303",8.64%
    6,POWER ASSETS HOLDINGS LIMITED,"4,598,922",0.21%
    8,PCCW LIMITED,"11,408,843",0.14%
   10,HANG LUNG GROUP LIMITED,"28,562,000",2.09%
   11,HANG SENG BANK LTD,"2,378,897",0.12%
   12,HENDERSON LAND DEVELOPMENT CO LTD,"4,216,746",0.08%
   14,HYSAN DEVELOPMENT COMPANY LIMITED,"1,117,000",0.10%
   16,SUN HUNG KAI PROPERTIES LIMITED,"7,953,904",0.27%
   17,NEW WORLD DEVELOPMENT CO LTD,"10,948,631",0.42%
   19,SWIRE PACIFIC LTD 'A',"3,549,500",0.38%
   23,BANK OF EAST ASIA LTD,"853,593",0.02%
   27,GALAXY ENTERTAINMENT GROUP LIMITED,"64,746,146",1.48%
   35,FAR EAST CONSORTIUM INTERNATIONAL LTD,"162,013",0.00%
   38,FIRST TRACTOR COMPANY LIMITED,"124,284,100",31.70%
   41,GREAT EAGLE HOLDINGS LIMITED,"1,302,511",0.17%
   42,NORTHEAST ELECTRIC DEVELOPMENT COMPANY LIMITED,"15,812,000",6.12%
   43,C.P. POKPHAND CO LTD,"840,000",0.00%
   45,"HONGKONG AND SHANGHAI HOTELS LTD,THE","42,513",0.00%
   59,SKYFAME REALTY (HOLDINGS) LIMITED,"64,008,000",
   66,MTR CORPORATION LIMITED,"6,253,580",0.09%
   69,SHANGRI-LA ASIA LIMITED,"20,018,000",0.54%
   78,REGAL HOTELS INTERNATIONAL HOLDINGS LIMITED,"12,000",0.00%
   81,CHINA OVERSEAS GRAND OCEANS GROUP LIMITED,"334,507,820",9.77%
   83,SINO LAND CO.LTD.,"3,919,976",0.05%
   86,SUN HUNG KAI & CO.LTD,"15,047,000",0.74%
   87,SWIRE PACIFIC LTD 'B',"29,262,500",0.97%
   95,LVGEM (CHINA) REAL ESTATE INVESTMENT COMPANY LIMITED,"184,738,000",3.62%
  101,HANG LUNG PROPERTIES LIMITED,"69,678,949",1.53%
  107,SICHUAN EXPRESSWAY COMPANY LIMITED,"227,316,000",25.37%
  109,GOOD RESOURCES HOLDINGS LIMITED,"44,440,000",0.62%
  116,CHOW SANG SANG HOLDINGS INTERNATIONAL LIMITED,"22,383,000",3.30%
  119,"POLY PROPERTY GROUP CO., LIMITED","389,984,748",10.64%
  120,COSMOPOLITAN INTERNATIONAL HOLDINGS LTD,"3,460,000",0.05%
  123,YUEXIU PROPERTY COMPANY LIMITED,"392,252,786",2.53%
  127,CHINESE ESTATES HOLDINGS LIMITED,"2,760,500",0.14%
  135,KUNLUN ENERGY COMPANY LIMITED,"112,739,534",1.29%
  136,HENGTEN NETWORKS GROUP LIMITED,"6,883,908,000",9.21%
  142,FIRST PACIFIC CO. LTD.,"6,936,000",0.15%
  144,CHINA MERCHANTS PORT HOLDINGS COMPANY LIMITED,"152,440,683",4.21%
  148,KINGBOARD HOLDINGS LIMITED,"14,719,636",1.32%
  151,WANT WANT CHINA HOLDINGS LIMITED,"25,399,871",0.19%
  152,SHENZHEN INTERNATIONAL HOLDINGS LIMITED,"74,361,953",3.38%
  163,EMPEROR INTERNATIONAL HOLDINGS LIMITED,"10,806,000",0.29%
  165,CHINA EVERBRIGHT LIMITED,"211,557,955",12.54%
  168,TSINGTAO BREWERY COMPANY LIMITED,"95,719,000",14.60%
  173,K. WAH INTERNATIONAL HOLDINGS LIMITED,"39,750,196",1.27%
  175,GEELY AUTOMOBILE HOLDINGS LIMITED,"727,095,940",7.40%
  177,JIANGSU EXPRESSWAY COMPANY LIMITED,"131,402,818",10.74%
  178,SA SA INTERNATIONAL HOLDINGS LIMITED,"15,103,268",0.48%
  179,JOHNSON ELECTRIC HOLDINGS LIMITED,"556,000",0.05%
  187,BEIJING JINGCHENG MACHINERY ELECTRIC COMPANY LIMITED,"27,148,000",27.14%
  189,DONGYUE GROUP LIMITED,"166,184,358",7.86%
  198,SMI HOLDINGS GROUP LIMITED,"70,340,800",2.59%
  200,MELCO INTERNATIONAL DEVELOPMENT LIMITED,"10,602,000",0.69%
  207,JOY CITY PROPERTY LIMITED,"4,364,000",0.03%
  215,HUTCHISON TELECOMMUNICATIONS HONG KONG HOLDINGS LIMITED,"11,010,000",0.22%
  220,UNI-PRESIDENT CHINA HOLDINGS LTD.,"8,800,000",0.19%
  241,ALIBABA HEALTH INFORMATION TECHNOLOGY LIMITED,"270,755,523",2.00%
  242,SHUN TAK HOLDINGS LIMITED,"87,420,000",2.88%
  245,CHINA VERED FINANCIAL HOLDING CORPORATION LIMITED,"25,120,000",0.06%
  256,CITYCHAMP WATCH & JEWELLERY GROUP LIMITED,"357,942,000",8.22%
  257,CHINA EVERBRIGHT ENVIRONMENT GROUP LIMITED,"546,406,021",8.88%
  267,CITIC LIMITED,"159,185,916",0.54%
  268,KINGDEE INTERNATIONAL SOFTWARE GROUP COMPANY LIMITED,"563,901,462",16.26%
  270,GUANGDONG INVESTMENT LIMITED,"36,714,905",0.55%
  272,SHUI ON LAND LIMITED,"764,286,000",9.47%
  279,FREEMAN FINTECH CORPORATION LIMITED,"612,286,000",32.77%
  285,BYD ELECTRONIC (INTERNATIONAL) COMPANY LIMITED,"189,565,662",8.40%
  288,WH GROUP LIMITED,"1,329,170,461",9.01%
  291,CHINA RESOURCES BEER (HOLDINGS) COMPANY LIMITED,"336,491,445",10.37%
  293,CATHAY PACIFIC AIRWAYS LTD,"24,886,026",0.37%
  295,KONG SUN HOLDINGS LIMITED,"52,325,000",0.34%
  297,SINOFERT HOLDINGS LIMITED,"357,358,000",5.08%
  302,CMGE TECHNOLOGY GROUP LIMITED,"187,222,000",8.03%
  303,VTECH HOLDINGS LIMITED,"1,489,701",0.58%
  308,CHINA TRAVEL INTERNATIONAL INVESTMENT HONG KONG LIMITED,"171,220,439",3.08%
  315,SMARTONE TELECOMMUNICATIONS HOLDINGS LIMITED,"1,628,608",0.14%
  316,ORIENT OVERSEAS (INTERNATIONAL) LIMITED,"8,500",0.00%
  317,CSSC OFFSHORE & MARINE ENGINEERING (GROUP) COMPANY LIMITED,"25,987,900",4.38%
  321,TEXWINCA HOLDINGS LIMITED,"1,004,000",0.07%
  322,TINGYI (CAYMAN ISLANDS) HOLDING CORP.,"24,852,708",0.43%
  323,MAANSHAN IRON & STEEL COMPANY LIMITED,"11,332,000",0.64%
  327,PAX GLOBAL TECHNOLOGY LIMITED,"6,400,000",0.59%
  330,ESPRIT HOLDINGS LIMITED,"11,017,900",0.57%
  336,HUABAO INTERNATIONAL HOLDINGS LIMITED,"416,186,100",13.38%
  337,GREENLAND HONG KONG HOLDINGS LIMITED,"110,670,000",3.96%
  338,SINOPEC SHANGHAI PETROCHEMICAL COMPANY LIMITED,"434,855,339",12.43%
  341,CAFE DE CORAL HOLDINGS LTD,"5,474,000",0.93%
  345,VITASOY INTERNATIONAL HOLDINGS LTD,"7,596,011",0.71%
  347,ANGANG STEEL COMPANY LIMITED,"19,377,000",1.37%
  354,CHINASOFT INTERNATIONAL LIMITED,"311,962,542",11.49%
  358,JIANGXI COPPER COMPANY LIMITED,"85,256,219",6.14%
  363,SHANGHAI INDUSTRIAL HOLDINGS LIMITED,"25,688,500",2.35%
  371,BEIJING ENTERPRISES WATER GROUP LIMITED,"270,148,010",2.69%
  378,FDG KINETIC LIMITED,"183,718,000",2.72%
  384,CHINA GAS HOLDINGS LIMITED,"34,340,243",0.65%
  386,CHINA PETROLEUM & CHEMICAL CORPORATION,"1,567,595,621",6.14%
  388,HONG KONG EXCHANGES AND CLEARING LIMITED,"54,019,161",4.25%
  390,CHINA RAILWAY GROUP LIMITED,"277,923,030",6.59%
  392,BEIJING ENTERPRISES HOLDINGS LIMITED,"82,523,982",6.53%
  400,COGOBUY GROUP,"51,318,000",3.61%
  410,SOHO CHINA LIMITED,"469,540,500",9.02%
  412,CHINA SHANDONG HI-SPEED FINANCIAL GROUP LIMITED,"9,900,000",0.04%
  419,HUAYI TENCENT ENTERTAINMENT COMPANY LIMITED,"165,640,000",1.22%
  425,MINTH GROUP LIMITED,"47,059,336",4.07%
  439,KUANGCHI SCIENCE LIMITED,"268,762,000",4.36%
  440,DAH SING FINANCIAL HOLDINGS LTD,"2,916,866",0.91%
  451,GCL NEW ENERGY HOLDINGS LIMITED,"1,426,774,000",7.48%
  460,SIHUAN PHARMACEUTICAL HOLDINGS GROUP LTD.,"518,354,000",5.47%
  467,UNITED ENERGY GROUP LIMITED,"127,748,000",0.48%
  468,GREATVIEW ASEPTIC PACKAGING COMPANY LIMITED,"7,733,000",0.57%
  480,HKR INTERNATIONAL LTD,"62,800",0.00%
  488,LAI SUN DEVELOPMENT COMPANY LIMITED,"30,000",0.00%
  489,DONGFENG MOTOR GROUP COMPANY LIMITED,"191,404,000",6.69%
  493,GOME RETAIL HOLDINGS LIMITED,"2,557,931,000",11.86%
  496,KASEN INTERNATIONAL HOLDINGS LIMITED,"129,950,000",8.70%
  506,CHINA FOODS LIMITED,"40,234,100",1.42%
  508,DINGYI GROUP INVESTMENT LIMITED,"381,195,000",5.18%
  511,TELEVISION BROADCASTS LIMITED,"459,500",0.09%
  512,CHINA GRAND PHARMACEUTICAL AND HEALTHCARE HOLDINGS LIMITED,"122,851,200",3.46%
  517,"COSCO SHIPPING INTERNATIONAL (HONG KONG) CO., LTD.","420,000",0.02%
  520,"XIABUXIABU CATERING MANAGEMENT (CHINA) HOLDINGS CO., LTD.","118,048,000",10.91%
  522,ASM PACIFIC TECHNOLOGY LIMITED,"13,269,925",3.24%
  525,GUANGSHEN RAILWAY COMPANY LIMITED,"378,208,010",26.41%
  530,GOLDIN FINANCIAL HOLDINGS LIMITED,"2,468,000",0.03%
  535,GEMDALE PROPERTIES AND INVESTMENT CORPORATION LIMITED,"1,994,138,154",12.09%
  546,FUFENG GROUP LIMITED,"72,007,119",2.84%
  547,DIGITAL DOMAIN HOLDINGS LIMITED,"1,017,030,000",2.98%
  548,SHENZHEN EXPRESSWAY COMPANY LIMITED,"121,208,000",16.21%
  551,YUE YUEN INDUSTRIAL (HOLDINGS) LIMITED,"5,471,793",0.33%
  552,CHINA COMMUNICATIONS SERVICES CORPORATION LIMITED,"34,042,000",1.41%
  553,NANJING PANDA ELECTRONICS COMPANY LIMITED,"60,086,000",24.82%
  563,SHANGHAI INDUSTRIAL URBAN DEVELOPMENT GROUP LIMITED,"111,085,855",2.30%
  564,ZHENGZHOU COAL MINING MACHINERY GROUP COMPANY LIMITED,"39,820,404",16.37%
  568,SHANDONG MOLONG PETROLEUM MACHINERY COMPANY LIMITED,"59,888,000",23.38%
  570,CHINA TRADITIONAL CHINESE MEDICINE HOLDINGS CO LIMITED,"642,666,938",12.75%
  576,"ZHEJIANG EXPRESSWAY CO., LTD.","72,691,759",5.06%
  579,"BEIJING JINGNENG CLEAN ENERGY CO., LIMITED","156,804,000",5.54%
  581,CHINA ORIENTAL GROUP COMPANY LIMITED,"140,790,987",3.77%
  582,LANDING INTERNATIONAL DEVELOPMENT LIMITED,"111,949,200",3.17%
  586,CHINA CONCH VENTURE HOLDINGS LIMITED,"165,007,500",9.13%
  588,BEIJING NORTH STAR COMPANY LIMITED,"226,422,000",32.02%
  590,LUK FOOK HOLDINGS (INTERNATIONAL) LIMITED,"2,607,000",0.44%
  598,SINOTRANS LIMITED,"327,807,000",15.28%
  604,SHENZHEN INVESTMENT LIMITED,"44,381,579",0.49%
  607,FULLSHARE HOLDINGS LIMITED,"4,754,777,500",24.12%
  612,CHINA DING YI FENG HOLDINGS LIMITED,"2,216,000",0.17%
  631,SANY HEAVY EQUIPMENT INTERNATIONAL HOLDINGS COMPANY LIMITED,"190,742,000",6.12%
  636,KERRY LOGISTICS NETWORK LIMITED,"1,161,500",0.05%
  639,SHOUGANG FUSHAN RESOURCES GROUP LIMITED,"84,381,273",1.66%
  656,FOSUN INTERNATIONAL LIMITED,"999,393,424",11.73%
  658,"CHINA HIGH SPEED TRANSMISSION EQUIPMENT GROUP CO., LTD.","177,057,000",10.82%
  659,NWS HOLDINGS LIMITED,"7,736,471",0.18%
  665,HAITONG INTERNATIONAL SECURITIES GROUP LIMITED,"269,892,840",4.46%
  667,CHINA EAST EDUCATION HOLDINGS LIMITED,"127,895,000",5.82%
  669,TECHTRONIC INDUSTRIES CO. LTD.,"7,155,970",0.38%
  670,CHINA EASTERN AIRLINES CORPORATION LIMITED,"286,013,567",5.51%
  680,NAN HAI CORPORATION LIMITED,"485,600,000",0.70%
  683,KERRY PROPERTIES LIMITED,"3,375,124",0.22%
  686,"BEIJING ENERGY INTERNATIONAL HOLDING CO., LTD","295,010,000",1.31%
  687,TYSAN HOLDINGS LIMITED,"29,148,000",0.86%
  688,CHINA OVERSEAS LAND & INVESTMENT LIMITED,"59,757,587",0.54%
  691,CHINA SHANSHUI CEMENT GROUP LIMITED,"4,078,000",0.09%
  694,BEIJING CAPITAL INTERNATIONAL AIRPORT COMPANY LIMITED,"364,673,672",19.39%
  696,TRAVELSKY TECHNOLOGY LIMITED,"37,024,000",3.96%
  697,SHOUCHENG HOLDINGS LIMITED,"43,874,010",0.62%
  698,TONGDA GROUP HOLDINGS LIMITED,"156,160,000",2.40%
  699,CAR INC.,"163,563,001",7.70%
  700,TENCENT HOLDINGS LIMITED,"327,714,475",3.41%
  709,GIORDANO INTERNATIONAL LIMITED,"2,100,000",0.13%
  715,CHINA OCEANWIDE HOLDINGS LIMITED,"456,000",0.00%
  718,TAI UNITED HOLDINGS LIMITED,"20,050,000",0.38%
  719,SHANDONG XINHUA PHARMACEUTICAL COMPANY LIMITED,"68,427,036",35.09%
  721,CHINA FINANCIAL INTERNATIONAL INVESTMENTS LIMITED,"304,790,000",2.77%
  728,CHINA TELECOM CORPORATION LIMITED,"316,081,238",2.26%
  729,FDG ELECTRIC VEHICLES LIMITED,"70,130,750",2.79%
  732,TRULY INTERNATIONAL HOLDINGS LIMITED,"300,086,000",9.11%
  737,SZ INVESTMENT HLDGS BAY AREA DEV CO LTD -HKD TRADED SHARES,"1,431,500",0.04%
  743,ASIA CEMENT (CHINA) HOLDINGS CORPORATION,"32,349,000",2.06%
  751,SKYWORTH GROUP LIMITED,"163,261,429",6.11%
  753,AIR CHINA LIMITED,"365,984,449",8.01%
  754,HOPSON DEVELOPMENT HOLDINGS LIMITED,"53,864,000",2.42%
  762,CHINA UNICOM (HONG KONG) LIMITED,"326,462,000",1.05%
  763,ZTE CORPORATION,"191,924,778",25.40%
  772,CHINA LITERATURE LIMITED,"68,144,618",6.70%
  775,"CK LIFE SCIENCES INT'L., (HOLDINGS) INC.","18,388,000",0.19%
  777,NETDRAGON WEBSOFT HOLDINGS LIMITED,"25,124,000",4.45%
  780,TONGCHENG-ELONG HOLDINGS LIMITED,"19,121,200",0.88%
  787,GLOBAL BRANDS GROUP HOLDING LIMITED,"66,332,633",6.44%
  788,CHINA TOWER CORPORATION LIMITED,"1,997,874,140",4.27%
  799,IGG INC,"95,020,298",7.72%
  806,VALUE PARTNERS GROUP LIMITED,"61,605,405",3.31%
  811,"XINHUA WINSHARE PUBLISHING AND MEDIA CO., LTD.","81,283,000",18.38%
  813,SHIMAO GROUP HOLDINGS LIMITED,"77,457,572",2.18%
  817,CHINA JINMAO HOLDINGS GROUP LIMITED,"992,953,130",7.78%
  819,TIANNENG POWER INTERNATIONAL LIMITED,"226,937,000",20.15%
  826,TIANGONG INTERNATIONAL COMPANY LIMITED,"74,072,000",2.88%
  829,SHENGUAN HOLDINGS (GROUP) LIMITED,"140,358,000",4.34%
  832,CENTRAL CHINA REAL ESTATE LIMITED,"130,834,000",4.62%
  836,CHINA RESOURCES POWER HOLDINGS COMPANY LIMITED,"223,508,335",4.64%
  839,CHINA EDUCATION GROUP HOLDINGS LIMITED,"100,700,655",4.67%
  845,GLORIOUS PROPERTY HOLDINGS LIMITED,"22,344,000",0.28%
  846,MINGFA GROUP (INTERNATIONAL) COMPANY LIMITED,"5,261,000",0.08%
  853,MICROPORT SCIENTIFIC CORPORATION,"230,550,375",12.76%
  855,CHINA WATER AFFAIRS GROUP LIMITED,"170,113,357",10.68%
  856,VSTECS HOLDINGS LIMITED,"16,092,000",1.10%
  857,PETROCHINA COMPANY LIMITED,"1,665,994,455",7.88%
  860,APOLLO FUTURE MOBILITY GROUP LIMITED,"28,832,000",0.40%
  861,DIGITAL CHINA HOLDINGS LIMITED,"657,631,150",39.32%
  867,CHINA MEDICAL SYSTEM HOLDINGS LIMITED,"34,443,618",1.38%
  868,XINYI GLASS HOLDINGS LIMITED,"219,269,443",5.43%
  874,"GUANGZHOU BAIYUNSHAN PHARMACEUTICAL HOLDINGS CO., LTD.","69,628,100",31.66%
  880,SJM HOLDINGS LIMITED,"256,713,700",4.52%
  881,ZHONGSHENG GROUP HOLDINGS LIMITED,"45,933,000",2.01%
  883,CNOOC LIMITED,"431,023,543",0.96%
  884,CIFI HOLDINGS (GROUP) CO. LTD.,"378,408,542",4.59%
  885,RENTIAN TECHNOLOGY HOLDINGS LIMITED,"1,110,000",0.01%
  895,DONGJIANG ENVIRONMENTAL COMPANY LIMITED,"62,932,400",31.44%
  902,"HUANENG POWER INTERNATIONAL, INC.","2,051,075,004",43.62%
  906,CPMC HOLDINGS LIMITED,"14,914,000",1.33%
  911,QIANHAI HEALTH HOLDINGS LIMITED,"90,780,750",5.35%
  914,ANHUI CONCH CEMENT COMPANY LIMITED,"49,105,289",3.76%
  916,CHINA LONGYUAN POWER GROUP CORPORATION LIMITED,"205,217,000",6.13%
  921,"HISENSE HOME APPLIANCES GROUP CO., LTD.","41,743,459",9.08%
  931,CHINA LNG GROUP LIMITED,"168,729,000",2.98%
  933,BRIGHTOIL PETROLEUM (HOLDINGS) LIMITED,"25,254,000",0.24%
  934,SINOPEC KANTONS HOLDINGS LIMITED,"173,550,000",6.97%
  939,CHINA CONSTRUCTION BANK CORPORATION,"26,015,818,450",10.81%
  941,CHINA MOBILE LIMITED,"81,688,724",0.39%
  950,LEE'S PHARMACEUTICAL HOLDINGS LIMITED,"1,356,500",0.23%
  951,CHAOWEI POWER HOLDINGS LIMITED,"100,350,000",9.08%
  956,CHINA SUNTIEN GREEN ENERGY CORPORATION LIMITED,"227,644,000",12.37%
  960,LONGFOR GROUP HOLDINGS LIMITED,"169,569,493",2.81%
  966,CHINA TAIPING INSURANCE HOLDINGS COMPANY LIMITED,"506,269,974",14.07%
  967,SOUND GLOBAL LTD.,"289,000",0.01%
  968,XINYI SOLAR HOLDINGS LIMITED,"1,026,667,640",12.05%
  976,CHIHO ENVIRONMENTAL GROUP LIMITED,"213,502,000",13.30%
  978,CHINA MERCHANTS LAND LIMITED,"181,310,000",3.69%
  981,SEMICONDUCTOR MANUFACTURING INTERNATIONAL CORPORATION,"1,028,746,633",13.36%
  989,GROUND INTERNATIONAL DEVELOPMENT LIMITED,"136,825,000",2.29%
  991,"DATANG INTERNATIONAL POWER GENERATION CO.,LTD.","362,558,000",5.92%
  992,LENOVO GROUP LIMITED,"99,399,882",0.81%
  995,ANHUI EXPRESSWAY COMPANY LIMITED,"113,990,000",23.11%
  996,CARNIVAL GROUP INTERNATIONAL HOLDINGS LIMITED,"6,099,442,500",25.73%
  998,CHINA CITIC BANK CORPORATION LIMITED,"2,639,840,758",17.73%
 1028,C.BANNER INTERNATIONAL HOLDINGS LIMITED,"143,864,000",6.92%
 1030,SEAZEN GROUP LIMITED,"296,493,127",4.77%
 1031,KINGSTON FINANCIAL GROUP LIMITED,"548,000",0.00%
 1033,SINOPEC OILFIELD SERVICE CORPORATION,"388,780,000",7.17%
 1038,CK INFRASTRUCTURE HOLDINGS LIMITED,"10,711,000",0.39%
 1044,HENGAN INTERNATIONAL GROUP COMPANY LIMITED,"19,618,105",1.63%
 1052,YUEXIU TRANSPORT INFRASTRUCTURE LIMITED,"78,647,238",4.70%
 1053,CHONGQING IRON & STEEL COMPANY LIMITED,"98,916,000",18.37%
 1055,CHINA SOUTHERN AIRLINES COMPANY LIMITED,"293,958,470",6.86%
 1057,ZHEJIANG SHIBAO COMPANY LIMITED,"55,340,000",25.52%
 1060,ALIBABA PICTURES GROUP LIMITED,"3,485,518,620",12.98%
 1065,TIANJIN CAPITAL ENVIRONMENTAL PROTECTION GROUP COMPANY LIMITED,"114,678,100",33.72%
 1066,SHANDONG WEIGAO GROUP MEDICAL POLYMER COMPANY LIMITED,"738,804,375",16.32%
 1068,CHINA YURUN FOOD GROUP LIMITED,"18,055,000",0.99%
 1070,TCL ELECTRONICS HOLDINGS LIMITED,"128,958,666",5.31%
 1071,HUADIAN POWER INTERNATIONAL CORPORATION LIMITED,"777,529,855",45.27%
 1072,DONGFANG ELECTRIC CORPORATION LIMITED,"90,152,316",26.50%
 1076,IMPERIAL PACIFIC INTERNATIONAL HOLDINGS LIMITED,"387,060,000",0.27%
 1083,TOWNGAS CHINA COMPANY LIMITED,"19,326,481",0.64%
 1086,GOODBABY INTERNATIONAL HOLDINGS LIMITED,"22,726,000",1.36%
 1088,CHINA SHENHUA ENERGY COMPANY LIMITED,"930,481,325",27.37%
 1089,LEYOU TECHNOLOGIES HOLDINGS LIMITED,"9,005,000",0.29%
 1093,CSPC PHARMACEUTICAL GROUP LIMITED,"476,177,455",6.35%
 1097,I-CABLE COMMUNICATIONS LIMITED,"81,191",0.00%
 1098,ROAD KING INFRASTRUCTURE LIMITED,"11,517,000",1.53%
 1099,SINOPHARM GROUP CO. LTD.,"68,182,309",5.07%
 1108,LUOYANG GLASS COMPANY LIMITED,"95,026,000",38.00%
 1109,CHINA RESOURCES LAND LIMITED,"115,135,763",1.61%
 1111,CHONG HING BANK LIMITED,"1,022,500",0.10%
 1112,HEALTH AND HAPPINESS (H&H) INTERNATIONAL HOLDINGS LIMITED,"38,606,000",5.98%
 1113,CK ASSET HOLDINGS LIMITED,"13,005,033",0.34%
 1114,BRILLIANCE CHINA AUTOMOTIVE HOLDINGS LIMITED,"94,515,386",1.86%
 1115,TIBET WATER RESOURCES LTD.,"161,107,000",6.27%
 1117,CHINA MODERN DAIRY HOLDINGS LTD.,"254,778,000",3.94%
 1119,IDREAMSKY TECHNOLOGY HOLDINGS LIMITED,"38,064,000",2.99%
 1128,"WYNN MACAU, LIMITED","64,863,200",1.23%
 1131,AGRITRADE RESOURCES LIMITED,"583,090,000",9.14%
 1138,"COSCO SHIPPING ENERGY TRANSPORTATION CO., LTD.","187,872,003",14.48%
 1140,OP FINANCIAL LIMITED,"97,520,000",3.36%
 1141,CMBC CAPITAL HOLDINGS LIMITED,"645,190,000",1.35%
 1157,"ZOOMLION HEAVY INDUSTRY SCIENCE AND TECHNOLOGY CO., LTD.","36,355,922",2.61%
 1165,SHUNFENG INTERNATIONAL CLEAN ENERGY LIMITED,"324,796,000",6.51%
 1169,"HAIER ELECTRONICS GROUP CO., LTD.","121,418,382",4.30%
 1171,YANZHOU COAL MINING COMPANY LIMITED,"315,835,995",16.62%
 1176,ZHUGUANG HOLDINGS GROUP COMPANY LIMITED,"235,284,000",3.27%
 1177,SINO BIOPHARMACEUTICAL LIMITED,"1,670,344,412",8.84%
 1186,CHINA RAILWAY CONSTRUCTION CORPORATION LIMITED,"102,945,190",4.95%
 1188,HYBRID KINETIC GROUP LIMITED,"102,914,000",0.50%
 1193,CHINA RESOURCES GAS GROUP LIMITED,"8,628,000",0.36%
 1196,REALORD GROUP HOLDINGS LIMITED,"123,166,000",8.56%
 1199,COSCO SHIPPING PORTS LIMITED,"18,324,995",0.55%
 1205,CITIC RESOURCES HOLDINGS LIMITED,"165,938,100",2.10%
 1208,MMG LIMITED,"307,742,000",3.81%
 1211,BYD COMPANY LIMITED,"71,073,910",7.76%
 1212,LIFESTYLE INTERNATIONAL HOLDINGS LIMITED,"3,714,666",0.24%
 1230,YASHILI INTERNATIONAL HOLDINGS LTD,"78,586,000",1.65%
 1233,TIMES CHINA HOLDINGS LIMITED,"79,701,757",4.10%
 1234,CHINA LILANG LIMITED,"69,802,000",5.82%
 1238,POWERLONG REAL ESTATE HOLDINGS LIMITED,"128,330,116",3.09%
 1250,BEIJING ENTERPRISES CLEAN ENERGY GROUP LIMITED,"1,610,420,000",2.53%
 1253,CHINA GREENLAND BROAD GREENSTATE GROUP COMPANY LIMITED,"6,428,000",0.19%
 1257,CHINA EVERBRIGHT GREENTECH LIMITED,"154,389,000",7.47%
 1268,CHINA MEIDONG AUTO HOLDINGS LIMITED,"59,570,000",4.78%
 1269,CHINA FIRST CAPITAL GROUP LIMITED,"1,758,350,000",34.97%
 1282,GLORY SUN FINANCIAL GROUP LIMITED,"4,232,212,000",13.47%
 1286,IMPRO PRECISION INDUSTRIES LIMITED,"1,156,000",0.06%
 1288,AGRICULTURAL BANK OF CHINA LIMITED,"8,336,882,668",27.11%
 1293,GRAND BAOXIN AUTO GROUP LIMITED,"133,263,337",4.69%
 1299,AIA GROUP LIMITED,"87,060,199",0.71%
 1302,LIFETECH SCIENTIFIC CORPORATION,"729,226,000",16.84%
 1308,SITC INTERNATIONAL HOLDINGS COMPANY LIMITED,"38,658,000",1.44%
 1310,HKBN LTD.,"3,988,500",0.29%
 1313,CHINA RESOURCES CEMENT HOLDINGS LIMITED,"49,635,747",0.70%
 1315,VISION FAME INTERNATIONAL HOLDING LIMITED,"716,500,000",11.93%
 1316,NEXTEER AUTOMOTIVE GROUP LIMITED,"40,615,000",1.61%
 1317,CHINA MAPLE LEAF EDUCATIONAL SYSTEMS LIMITED,"421,815,230",14.08%
 1330,"DYNAGREEN ENVIRONMENTAL PROTECTION GROUP CO., LTD","155,183,000",38.37%
 1333,CHINA ZHONGWANG HOLDINGS LIMITED,"370,780,800",6.80%
 1336,NEW CHINA LIFE INSURANCE COMPANY LTD.,"330,778,840",31.98%
 1339,"PEOPLE'S INSURANCE COMPANY (GROUP) OF CHINA LIMITED, THE","1,749,729,987",20.04%
 1347,HUA HONG SEMICONDUCTOR LIMITED,"82,583,065",6.37%
 1357,"MEITU, INC.","326,101,600",7.55%
 1359,"CHINA CINDA ASSET MANAGEMENT CO., LTD.","2,592,708,457",19.10%
 1361,361 DEGREES INTERNATIONAL LIMITED,"28,688,000",1.38%
 1363,CT ENVIRONMENTAL GROUP LIMITED,"502,874,000",7.95%
 1368,XTEP INTERNATIONAL HOLDINGS LIMITED,"97,179,503",3.85%
 1375,"CENTRAL CHINA SECURITIES CO., LTD.","301,902,000",25.25%
 1378,CHINA HONGQIAO GROUP LIMITED,"493,955,910",5.75%
 1381,CANVEST ENVIRONMENTAL PROTECTION GROUP COMPANY LIMITED,"27,513,000",1.12%
 1382,PACIFIC TEXTILES HOLDINGS LIMITED,"29,059,000",2.05%
 1383,SUNCITY GROUP HOLDINGS LIMITED,"31,070,000",0.46%
 1387,CHINA DILI GROUP,"149,127,070",1.76%
 1398,INDUSTRIAL AND COMMERCIAL BANK OF CHINA LIMITED,"24,178,757,103",27.84%
 1432,CHINA SHENGMU ORGANIC MILK LIMITED,"96,132,000",1.13%
 1448,FU SHOU YUAN INTERNATIONAL GROUP LIMITED,"273,054,677",11.88%
 1456,"GUOLIAN SECURITIES CO., LTD.","48,675,000",10.99%
 1458,ZHOU HEI YA INTERNATIONAL HOLDINGS COMPANY LIMITED,"370,982,000",15.56%
 1475,NISSIN FOODS COMPANY LIMITED,"376,000",0.03%
 1478,Q TECHNOLOGY (GROUP) COMPANY LIMITED,"44,714,000",3.81%
 1508,CHINA REINSURANCE (GROUP) CORPORATION,"895,716,000",13.40%
 1513,LIVZON PHARMACEUTICAL GROUP INC.,"40,511,888",12.66%
 1515,CHINA RESOURCES MEDICAL HOLDINGS COMPANY LIMITED,"65,876,600",5.07%
 1521,FRONTAGE HOLDINGS CORPORATION,"241,844,000",11.89%
 1528,RED STAR MACALLINE GROUP CORPORATION LTD.,"133,137,211",17.95%
 1530,3SBIO INC.,"230,907,157",9.07%
 1533,"LANZHOU ZHUANGYUAN PASTURE CO., LTD.","7,929,000",22.57%
 1548,GENSCRIPT BIOTECH CORPORATION,"239,604,000",12.47%
 1551,"GUANGZHOU RURAL COMMERCIAL BANK CO., LTD","2,414,000",0.13%
 1558,"YICHANG HEC CHANGJIANG PHARMACEUTICAL CO., LTD.","180,444,800",27.60%
 1569,MINSHENG EDUCATION GROUP COMPANY LIMITED,"230,085,025",5.45%
 1573,SOUTHERN ENERGY HOLDINGS GROUP LIMITED,"126,862,000",17.66%
 1578,"BANK OF TIANJIN CO., LTD.","34,000",0.00%
 1579,YIHAI INTERNATIONAL HOLDING LTD.,"108,008,049",10.31%
 1583,QINQIN FOODSTUFFS GROUP (CAYMAN) COMPANY LIMITED,"24,400",0.00%
 1585,YADEA GROUP HOLDINGS LTD.,"254,502,000",8.49%
 1589,"CHINA LOGISTICS PROPERTY HOLDINGS CO., LTD","4,219,000",0.13%
 1600,CHINA TIAN LUN GAS HOLDINGS LIMITED,"16,839,000",1.67%
 1606,"CHINA DEVELOPMENT BANK FINANCIAL LEASING CO., LTD.","316,000",0.01%
 1608,VPOWER GROUP INTERNATIONAL HOLDINGS LIMITED,"5,101,000",0.19%
 1610,COFCO MEAT HOLDINGS LIMITED,"704,797,000",18.06%
 1618,METALLURGICAL CORPORATION OF CHINA LTD.,"475,969,000",16.56%
 1622,REDCO PROPERTIES GROUP LIMITED,"225,228,000",6.34%
 1628,YUZHOU GROUP HOLDINGS COMPANY LIMITED,"70,810,271",1.26%
 1635,"SHANGHAI DAZHONG PUBLIC UTILITIES (GROUP) CO., LTD.","82,448,000",15.44%
 1636,CHINA METAL RESOURCES UTILIZATION LIMITED,"34,616,000",1.31%
 1638,KAISA GROUP HOLDINGS LTD.,"539,734,764",8.81%
 1658,"POSTAL SAVINGS BANK OF CHINA CO., LTD.","405,459,845",2.03%
 1661,WISDOM SPORTS GROUP,"6,217,000",0.39%
 1666,TONG REN TANG TECHNOLOGIES CO LTD,"181,283,200",28.83%
 1668,CHINA SOUTH CITY HOLDINGS LIMITED,"836,885,543",10.33%
 1675,ASIAINFO TECHNOLOGIES LIMITED,"1,749,200",0.19%
 1680,MACAU LEGEND DEVELOPMENT LIMITED,"117,551,000",1.88%
 1681,CONSUN PHARMACEUTICAL GROUP LIMITED,"21,767,000",2.60%
 1685,BOER POWER HOLDINGS LIMITED,"2,195,000",0.28%
 1686,SUNEVISION HOLDINGS LIMITED,"2,572,000",0.11%
 1691,JS GLOBAL LIFESTYLE COMPANY LIMITED,"21,948,000",0.63%
 1717,AUSNUTRIA DAIRY CORPORATION LTD,"111,124,000",6.47%
 1728,CHINA ZHENGTONG AUTO SERVICES HOLDINGS LIMITED,"448,175,000",16.60%
 1761,BABYTREE GROUP,"5,895,500",0.35%
 1765,"HOPE EDUCATION GROUP CO., LTD.","841,366,580",
 1766,CRRC CORPORATION LIMITED,"363,966,070",8.32%
 1772,"GANFENG LITHIUM CO., LTD.","126,875,697",52.81%
 1773,TIANLI EDUCATION INTERNATIONAL HOLDINGS LIMITED,"172,490,000",8.31%
 1776,"GF SECURITIES CO., LTD.","532,969,900",31.31%
 1777,"FANTASIA HOLDINGS GROUP CO., LIMITED","411,449,500",7.13%
 1778,"COLOUR LIFE SERVICES GROUP CO., LIMITED","68,123,702",4.68%
 1787,"SHANDONG GOLD MINING CO., LTD.","166,001,768",23.72%
 1788,GUOTAI JUNAN INTERNATIONAL HOLDINGS LIMITED,"227,660,110",2.35%
 1789,AK MEDICAL HOLDINGS LIMITED,"109,692,000",
 1797,KOOLEARN TECHNOLOGY HOLDING LIMITED,"139,771,118",14.86%
 1800,CHINA COMMUNICATIONS CONSTRUCTION COMPANY LIMITED,"591,993,000",13.36%
 1801,"INNOVENT BIOLOGICS, INC.","67,449,500",4.81%
 1806,HUIFU PAYMENT LIMITED,"13,333,200",1.02%
 1810,XIAOMI CORPORATION,"2,210,042,446",9.15%
 1811,"CGN NEW ENERGY HOLDINGS CO., LTD.","80,742,000",1.88%
 1812,SHANDONG CHENMING PAPER HOLDINGS LIMITED,"106,476,450",20.15%
 1813,KWG GROUP HOLDINGS LIMITED,"159,347,665",5.00%
 1816,"CGN POWER CO., LTD","2,458,922,000",22.02%
 1817,MULSANNE GROUP HOLDING LIMITED,"22,500",0.00%
 1818,ZHAOJIN MINING INDUSTRY COMPANY LIMITED,"127,287,872",4.87%
 1829,CHINA MACHINERY ENGINEERING CORPORATION,"131,000",0.01%
 1833,PING AN HEALTHCARE AND TECHNOLOGY COMPANY LIMITED,"93,888,900",8.79%
 1836,STELLA INTERNATIONAL HOLDINGS LIMITED,"487,000",0.06%
 1848,CHINA AIRCRAFT LEASING GROUP HOLDINGS LIMITED,"13,045,049",1.84%
 1860,MOBVISTA INC.,"14,767,000",0.96%
 1873,VIVA BIOTECH HOLDINGS,"428,774,000",22.53%
 1876,BUDWEISER BREWING COMPANY APAC LIMITED,"12,819,816",0.08%
 1882,HAITIAN INTERNATIONAL HOLDINGS LIMITED,"32,451,000",2.02%
 1883,CITIC TELECOM INTERNATIONAL HOLDINGS LIMITED,"13,383,000",0.36%
 1886,CHINA HUIYUAN JUICE GROUP LIMITED,"125,355,500",4.69%
 1888,KINGBOARD LAMINATES HOLDINGS LIMITED,"14,420,435",0.46%
 1890,CHINA KEPEI EDUCATION GROUP LIMITED,"133,219,475",6.61%
 1896,MAOYAN ENTERTAINMENT,"35,886,400",3.15%
 1898,CHINA COAL ENERGY COMPANY LIMITED,"429,992,000",10.46%
 1905,"HAITONG UNITRUST INTERNATIONAL FINANCIAL LEASING CO., LTD.","39,820,000",0.68%
 1907,CHINA RISUN GROUP LIMITED,"29,332,000",0.71%
 1908,C&D INTERNATIONAL INVESTMENT GROUP LIMITED,"77,206,000",6.56%
 1911,CHINA RENAISSANCE HOLDINGS LIMITED,"16,218,100",3.03%
 1916,"JIANGXI BANK CO., LTD.","10,789,000",0.80%
 1918,SUNAC CHINA HOLDINGS LIMITED,"787,683,120",16.89%
 1919,"COSCO SHIPPING HOLDINGS CO., LTD.","460,183,000",17.82%
 1928,SANDS CHINA LTD.,"65,719,332",0.80%
 1929,CHOW TAI FOOK JEWELLERY GROUP LIMITED,"46,831,000",0.46%
 1951,JINXIN FERTILITY GROUP LIMITED,"428,439,600",17.63%
 1958,BAIC MOTOR CORPORATION LIMITED,"93,444,000",3.69%
 1963,"BANK OF CHONGQING CO., LTD.","118,268,000",7.48%
 1966,CHINA SCE GROUP HOLDINGS LIMITED,"165,697,054",3.92%
 1970,"IMAX CHINA HOLDING, INC.","8,053,200",2.30%
 1972,SWIRE PROPERTIES LIMITED,"2,010,800",0.02%
 1980,TIAN GE INTERACTIVE HOLDINGS LIMITED,"25,287,000",1.97%
 1988,"CHINA MINSHENG BANKING CORP., LTD.","1,159,496,569",13.93%
 1992,FOSUN TOURISM GROUP,"800,000",0.05%
 1995,EVER SUNSHINE LIFESTYLE SERVICES GROUP LIMITED,"50,854,000",3.04%
 1996,REDSUN PROPERTIES GROUP LIMITED,"70,062,000",2.10%
 1997,WHARF REAL ESTATE INVESTMENT COMPANY LIMITED,"5,038,425",0.15%
 1999,MAN WAH HOLDINGS LIMITED,"757,619,515",19.91%
 2001,CHINA NEW HIGHER EDUCATION GROUP LIMITED,"124,167,621",7.83%
 2003,VCREDIT HOLDINGS LIMITED,"2,141,000",0.43%
 2005,SSY GROUP LIMITED,"316,190,059",10.47%
 2007,COUNTRY GARDEN HOLDINGS COMPANY LIMITED,"264,114,055",1.19%
 2008,PHOENIX MEDIA INVESTMENT (HOLDINGS) LIMITED,"205,018,000",4.10%
 2009,BBMG CORPORATION,"304,122,500",12.99%
 2013,WEIMOB INC.,"486,388,416",21.56%
 2016,"CHINA ZHESHANG BANK CO., LTD.","35,704,000",0.78%
 2018,AAC TECHNOLOGIES HOLDINGS INC.,"73,464,773",6.07%
 2019,DEXIN CHINA HOLDINGS COMPANY LIMITED,"31,236,000",1.15%
 2020,ANTA SPORTS PRODUCTS LIMITED,"209,597,591",7.75%
 2038,FIH MOBILE LIMITED,"122,250,000",1.48%
 2039,"CHINA INTERNATIONAL MARINE CONTAINERS (GROUP) CO., LTD.","218,856,180",10.62%
 2048,E-HOUSE (CHINA) ENTERPRISE HOLDINGS LIMITED,"13,817,400",0.99%
 2051,51 CREDIT CARD INC.,"45,713,000",3.36%
 2066,"SHENGJING BANK CO., LTD.","195,000",0.00%
 2068,CHINA ALUMINUM INTERNATIONAL ENGINEERING CORPORATION LIMITED,"11,093,000",2.77%
 2098,ZALL SMART COMMERCE GROUP LTD.,"31,698,000",0.26%
 2099,CHINA GOLD INTERNATIONAL RESOURCES CORP. LTD.,"13,229,600",3.33%
 2103,SINIC HOLDINGS (GROUP) COMPANY LIMITED,"751,000",0.02%
 2111,BEST PACIFIC INTERNATIONAL HOLDINGS LIMITED,"1,378,000",0.13%
 2128,CHINA LESSO GROUP HOLDINGS LIMITED,"61,987,573",1.99%
 2136,LIFESTYLE CHINA GROUP LIMITED,"282,000",0.01%
 2186,LUYE PHARMA GROUP LTD.,"470,779,500",14.48%
 2196,"SHANGHAI FOSUN PHARMACEUTICAL (GROUP) CO., LTD.","198,271,857",35.91%
 2199,REGINA MIRACLE INTERNATIONAL (HOLDINGS) LIMITED,"2,902,000",0.23%
 2202,"CHINA VANKE CO., LTD.","247,332,847",13.06%
 2208,"XINJIANG GOLDWIND SCIENCE & TECHNOLOGY CO., LTD.","80,822,322",10.44%
 2232,CRYSTAL INTERNATIONAL GROUP LIMITED,"3,459,500",0.11%
 2233,WEST CHINA CEMENT LIMITED,"511,782,000",9.40%
 2238,"GUANGZHOU AUTOMOBILE GROUP CO., LTD.","1,062,038,958",34.26%
 2255,HAICHANG OCEAN PARK HOLDINGS LTD.,"347,157,000",8.67%
 2269,WUXI BIOLOGICS (CAYMAN) INC.,"101,201,245",7.44%
 2280,HC GROUP INC.,"104,273,500",7.96%
 2282,MGM CHINA HOLDINGS LIMITED,"26,339,496",0.68%
 2298,COSMO LADY (CHINA) HOLDINGS COMPANY LIMITED,"11,330,000",0.49%
 2313,SHENZHOU INTERNATIONAL GROUP HOLDINGS LIMITED,"52,851,062",3.51%
 2314,LEE & MAN PAPER MANUFACTURING LIMITED,"20,272,825",0.46%
 2318,"PING AN INSURANCE (GROUP) COMPANY OF CHINA, LTD.","151,152,377",2.02%
 2319,CHINA MENGNIU DAIRY COMPANY LIMITED,"71,068,994",1.79%
 2326,NEW PROVENANCE EVERLASTING HOLDINGS LIMITED,"55,940,000",0.25%
 2328,PICC PROPERTY AND CASUALTY COMPANY LIMITED,"498,776,169",7.22%
 2329,GUORUI PROPERTIES LIMITED,"156,108,000",3.50%
 2331,LI NING COMPANY LIMITED,"124,356,516",4.99%
 2333,GREAT WALL MOTOR COMPANY LIMITED,"1,117,863,665",36.05%
 2338,"WEICHAI POWER CO., LTD.","48,077,000",2.47%
 2342,COMBA TELECOM SYSTEMS HOLDINGS LIMITED,"2,006,000",0.07%
 2343,PACIFIC BASIN SHIPPING LIMITED,"8,220,000",0.17%
 2356,DAH SING BANKING GROUP LIMITED,"232,000",0.01%
 2357,AVICHINA INDUSTRY & TECHNOLOGY COMPANY LIMITED,"414,017,000",6.66%
 2359,"WUXI APPTEC CO., LTD.","22,536,114",7.34%
 2362,JINCHUAN GROUP INTERNATIONAL RESOURCES CO. LTD.,"68,483,000",0.54%
 2363,TONGDA HONG TAI HOLDINGS LIMITED,"340,962",0.17%
 2369,COOLPAD GROUP LIMITED,"38,772,000",0.64%
 2380,CHINA POWER INTERNATIONAL DEVELOPMENT LIMITED,"579,278,034",5.90%
 2382,SUNNY OPTICAL TECHNOLOGY (GROUP) COMPANY LIMITED,"103,082,705",9.38%
 2386,"SINOPEC ENGINEERING (GROUP) CO., LTD.","36,573,500",2.49%
 2388,BOC HONG KONG (HOLDINGS) LIMITED,"13,108,945",0.11%
 2400,XD INC.,"59,167,300",13.02%
 2588,BOC AVIATION LIMITED,"12,954,858",1.86%
 2600,ALUMINUM CORPORATION OF CHINA LIMITED,"287,970,000",7.29%
 2601,CHINA PACIFIC INSURANCE (GROUP) CO. LTD.,"774,012,031",27.88%
 2607,"SHANGHAI PHARMACEUTICALS HOLDING CO., LTD.","104,188,306",11.32%
 2611,"GUOTAI JUNAN SECURITIES CO., LTD.","114,693,400",8.23%
 2628,CHINA LIFE INSURANCE COMPANY LIMITED,"261,137,093",3.50%
 2662,CAMSING INTERNATIONAL HOLDING LIMITED,"132,096,000",12.26%
 2666,GENERTEC UNIVERSAL MEDICAL GROUP COMPANY LIMITED,"326,531,000",19.02%
 2669,CHINA OVERSEAS PROPERTY HOLDINGS LIMITED,"379,872,275",11.55%
 2678,TEXHONG TEXTILE GROUP LIMITED,"32,762,000",3.58%
 2688,ENN ENERGY HOLDINGS LIMITED,"13,393,561",1.18%
 2689,NINE DRAGONS PAPER (HOLDINGS) LIMITED,"69,821,410",1.47%
 2727,SHANGHAI ELECTRIC GROUP COMPANY LIMITED,"848,255,000",28.52%
 2768,JIAYUAN INTERNATIONAL GROUP LIMITED,"359,851,183",8.86%
 2772,ZHONGLIANG HOLDINGS GROUP COMPANY LIMITED,"39,498,500",1.09%
 2777,"GUANGZHOU R&F PROPERTIES CO., LTD.","94,989,744",2.71%
 2799,"CHINA HUARONG ASSET MANAGEMENT CO., LTD.","2,353,131,000",9.39%
 2858,YIXIN GROUP LIMITED,"42,886,000",0.66%
 2866,"COSCO SHIPPING DEVELOPMENT CO., LTD.","587,230,000",15.97%
 2869,GREENTOWN SERVICE GROUP CO. LTD.,"348,148,899",
 2877,CHINA SHINEWAY PHARMACEUTICAL GROUP LIMITED,"25,870,000",3.11%
 2880,DALIAN PORT (PDA) COMPANY LIMITED,"894,456,200",17.33%
 2883,CHINA OILFIELD SERVICES LIMITED,"213,677,627",11.79%
 2888,STANDARD CHARTERED PLC,"349,070",0.00%
 2899,"ZIJIN MINING GROUP CO., LTD.","1,513,210,000",26.37%
 3301,RONSHINE CHINA HOLDINGS LIMITED,"142,459,500",8.36%
 3306,JNBY DESIGN LIMITED,"22,205,500",4.28%
 3308,GOLDEN EAGLE RETAIL GROUP LIMITED,"86,164,000",5.15%
 3309,C-MER EYE CARE HOLDINGS LIMITED,"78,064,000",6.81%
 3311,CHINA STATE CONSTRUCTION INTERNATIONAL HOLDINGS LIMITED,"178,111,692",3.51%
 3319,"A-LIVING SERVICES CO., LTD.","7,973,500",0.59%
 3320,CHINA RESOURCES PHARMACEUTICAL GROUP LIMITED,"205,308,000",3.26%
 3323,CHINA NATIONAL BUILDING MATERIAL COMPANY LIMITED,"955,153,365",24.68%
 3328,"BANK OF COMMUNICATIONS CO., LTD.","771,066,069",2.19%
 3329,BOCOM INTERNATIONAL HOLDINGS COMPANY LIMITED,"15,021,000",0.54%
 3331,VINDA INTERNATIONAL HOLDINGS LIMITED,"10,150,000",0.83%
 3333,CHINA EVERGRANDE GROUP,"117,388,355",0.89%
 3339,LONKING HOLDINGS LIMITED,"28,134,000",0.65%
 3347,"HANGZHOU TIGERMED CONSULTING CO., LTD.","79,000",0.06%
 3360,FAR EAST HORIZON LIMITED,"120,536,000",3.03%
 3368,PARKSON RETAIL GROUP LIMITED,"5,669,500",0.21%
 3369,"QINHUANGDAO PORT CO., LTD.","80,810,000",9.72%
 3377,SINO-OCEAN GROUP HOLDING LIMITED,"157,038,810",2.06%
 3380,LOGAN GROUP COMPANY LIMITED,"151,536,528",2.74%
 3382,TIANJIN PORT DEVELOPMENT HOLDINGS LIMITED,"204,298,000",3.31%
 3383,AGILE GROUP HOLDINGS LIMITED,"40,211,548",1.02%
 3389,HENGDELI HOLDINGS LIMITED,"776,000",0.01%
 3393,WASION HOLDINGS LIMITED,"1,326,000",0.13%
 3396,LEGEND HOLDINGS CORPORATION,"83,882,200",6.58%
 3606,"FUYAO GLASS INDUSTRY GROUP CO., LTD","88,756,650",17.55%
 3613,BEIJING TONG REN TANG CHINESE MEDICINE COMPANY LIMITED,"70,939,000",8.47%
 3618,"CHONGQING RURAL COMMERCIAL BANK CO., LTD.","723,726,000",28.78%
 3633,ZHONGYU GAS HOLDINGS LIMITED,"17,068,000",0.64%
 3669,CHINA YONGDA AUTOMOBILES SERVICES HOLDINGS LIMITED,"117,814,000",
 3690,MEITUAN DIANPING,"335,503,825",5.69%
 3692,HANSOH PHARMACEUTICAL GROUP COMPANY LIMITED,"49,141,000",0.83%
 3698,HUISHANG BANK CORPORATION LIMITED,"4,764,200",0.12%
 3759,"PHARMARON BEIJING CO., LTD.","19,405,865",14.48%
 3788,CHINA HANKING HOLDINGS LIMITED,"16,380,000",0.90%
 3799,DALI FOODS GROUP COMPANY LIMITED,"404,984,000",2.95%
 3800,GCL-POLY ENERGY HOLDINGS LIMITED,"2,480,031,500",11.73%
 3808,SINOTRUK (HONG KONG) LIMITED,"119,841,366",4.33%
 3813,POU SHENG INTERNATIONAL (HOLDINGS) LIMITED,"19,724,000",0.36%
 3818,"CHINA DONGXIANG (GROUP) CO., LTD.","490,895,000",8.33%
 3836,CHINA HARMONY AUTO HOLDING LIMITED,"62,837,000",3.99%
 3866,"BANK OF QINGDAO CO., LTD.","1,138,000",0.06%
 3868,XINYI ENERGY HOLDINGS LIMITED,"94,358,000",1.32%
 3877,CSSC (HONG KONG) SHIPPING COMPANY LIMITED,"5,310,000",0.08%
 3883,CHINA AOYUAN GROUP LIMITED,"180,561,000",6.67%
 3886,TOWN HEALTH INTERNATIONAL MEDICAL GROUP LIMITED,"145,736,000",1.92%
 3888,KINGSOFT CORPORATION LIMITED,"374,112,169",27.24%
 3898,"ZHUZHOU CRRC TIMES ELECTRIC CO., LTD.","38,483,706",7.02%
 3899,CIMC ENRIC HOLDINGS LIMITED,"146,250,000",7.27%
 3900,GREENTOWN CHINA HOLDINGS LIMITED,"347,749,500",13.94%
 3908,CHINA INTERNATIONAL CAPITAL CORPORATION LIMITED,"314,240,081",16.50%
 3933,"UNITED LABORATORIES INTERNATIONAL HOLDINGS LIMITED, THE","180,373,948",9.80%
 3958,DFZQ,"405,371,985",39.46%
 3968,"CHINA MERCHANTS BANK CO., LTD.","187,604,570",4.08%
 3969,CHINA RAILWAY SIGNAL & COMMUNICATION CORPORATION LIMITED,"193,079,000",9.80%
 3988,BANK OF CHINA LIMITED,"7,802,395,615",9.32%
 3990,MIDEA REAL ESTATE HOLDING LIMITED,"75,823,400",6.15%
 3993,"CHINA MOLYBDENUM CO., LTD.","321,498,500",8.17%
 3996,CHINA ENERGY ENGINEERING CORPORATION LIMITED,"10,824,000",0.11%
 3998,BOSIDENG INTERNATIONAL HOLDINGS LIMITED,"673,720,000",6.24%
 6030,CITIC SECURITIES COMPANY LIMITED,"285,692,641",12.53%
 6049,"POLY PROPERTY SERVICES CO., LTD.","58,539,607",38.17%
 6055,CHINA TOBACCO INTERNATIONAL (HK) COMPANY LIMITED,"29,687,000",4.29%
 6060,"ZHONGAN ONLINE P & C INSURANCE CO., LTD.","34,522,100",7.34%
 6066,"CSC FINANCIAL CO., LTD.","314,295,000",24.91%
 6068,WISDOM EDUCATION INTERNATIONAL HOLDINGS COMPANY LIMITED,"175,586,000",8.06%
 6069,SHENG YE CAPITAL LIMITED,"23,928,500",2.55%
 6078,"HYGEIA HEALTHCARE HOLDINGS CO., LIMITED","17,553,600",2.84%
 6088,FIT HON TENG LIMITED,"417,645,000",6.06%
 6098,COUNTRY GARDEN SERVICES HOLDINGS COMPANY LIMITED,"221,308,122",8.01%
 6099,"CHINA MERCHANTS SECURITIES CO., LTD.","248,958,680",19.52%
 6100,TONGDAO LIEPIN GROUP,"84,800",0.01%
 6110,TOPSPORTS INTERNATIONAL HOLDINGS LIMITED,"24,452,000",0.38%
 6116,"XINJIANG LA CHAPELLE FASHION CO., LTD.","69,174,200",32.19%
 6158,ZHENRO PROPERTIES GROUP LIMITED,"65,819,000",1.50%
 6160,"BEIGENE, LTD.","1,670,300",0.13%
 6166,CHINA VAST INDUSTRIAL URBAN DEVELOPMENT COMPANY LIMITED,"60,406,000",3.65%
 6169,CHINA YUHUA EDUCATION CORPORATION LIMITED,"573,405,598",17.16%
 6178,EVERBRIGHT SECURITIES COMPANY LIMITED,"91,590,800",13.00%
 6186,CHINA FEIHE LIMITED,"831,478,048",9.29%
 6196,"BANK OF ZHENGZHOU CO., LTD.","285,519,500",17.09%
 6198,"QINGDAO PORT INTERNATIONAL CO., LTD.","10,028,000",0.90%
 6806,"SHENWAN HONGYUAN GROUP CO., LTD.","239,222,400",9.55%
 6808,SUN ART RETAIL GROUP LIMITED,"66,215,023",0.68%
 6818,CHINA EVERBRIGHT BANK COMPANY LIMITED,"896,118,992",7.06%
 6828,BEIJING GAS BLUE SKY HOLDINGS LIMITED,"233,560,000",1.79%
 6837,"HAITONG SECURITIES CO., LTD.","857,056,600",25.12%
 6862,HAIDILAO INTERNATIONAL HOLDING LTD.,"161,654,848",3.04%
 6865,"FLAT GLASS GROUP CO., LTD.","158,516,000",35.21%
 6869,YANGTZE OPTICAL FIBRE AND CABLE JOINT STOCK LIMITED COMPANY,"18,141,500",5.15%
 6881,"CHINA GALAXY SECURITIES CO., LTD.","843,898,882",22.86%
 6886,"HUATAI SECURITIES CO., LTD.","443,824,046",25.81%
 6969,SMOORE INTERNATIONAL HOLDINGS LIMITED,"239,074,782",4.09%
 8328,XINYI AUTOMOBILE GLASS HONG KONG ENTERPRISES LIMITED,"109,750",0.01%
 9633,"NONGFU SPRING CO., LTD.","25,941,800",0.52%
 9909,POWERLONG COMMERCIAL MANAGEMENT HOLDINGS LIMITED,"11,946,000",1.92%
 9922,JIUMAOJIU INTERNATIONAL HOLDINGS LIMITED,"70,166,000",4.82%
 9923,YEAHKA LIMITED,"69,200",0.01%
 9928,TIMES NEIGHBORHOOD HOLDINGS LIMITED,"20,601,039",2.08%
 9968,HUIJING HOLDINGS COMPANY LIMITED,"2,760,000",0.05%
 9983,CENTRAL CHINA NEW LIFE LIMITED,"13,961,000",1.12%
 9989,"SHENZHEN HEPALINK PHARMACEUTICAL GROUP CO., LTD.","14,913,500",6.77%
 9997,KANGJI MEDICAL HOLDINGS LIMITED,"4,881,500",0.38%
