Stock Code,Stock Name,Shareholding in CCASS,Percentage of the total number of Issued Shares
    1,CK HUTCHISON HOLDINGS LIMITED,"27,837,919",0.71%
    2,CLP HOLDINGS LIMITED,"4,132,492",0.15%
    3,"HONG KONG AND CHINA GAS COMPANY LIMITED, THE","24,284,900",0.13%
    4,"WHARF (HOLDINGS) LIMITED, THE","8,955,450",0.28%
    5,HSBC HOLDINGS PLC,"1,923,764,387",9.29%
    6,POWER ASSETS HOLDINGS LIMITED,"4,243,422",0.19%
    8,PCCW LIMITED,"11,882,306",0.14%
   10,HANG LUNG GROUP LIMITED,"30,031,000",2.19%
   11,HANG SENG BANK LTD,"3,365,097",0.17%
   12,HENDERSON LAND DEVELOPMENT CO LTD,"4,220,732",0.08%
   14,HYSAN DEVELOPMENT COMPANY LIMITED,"897,000",0.08%
   16,SUN HUNG KAI PROPERTIES LIMITED,"14,156,404",0.48%
   17,NEW WORLD DEVELOPMENT CO LTD,"10,738,381",0.41%
   19,SWIRE PACIFIC LTD 'A',"3,408,000",0.37%
   23,BANK OF EAST ASIA LTD,"993,793",0.02%
   27,GALAXY ENTERTAINMENT GROUP LIMITED,"59,391,635",1.35%
   35,FAR EAST CONSORTIUM INTERNATIONAL LTD,"562,013",0.02%
   38,FIRST TRACTOR COMPANY LIMITED,"114,814,100",29.28%
   41,GREAT EAGLE HOLDINGS LIMITED,"1,574,511",0.21%
   42,NORTHEAST ELECTRIC DEVELOPMENT COMPANY LIMITED,"15,812,000",6.12%
   43,C.P. POKPHAND CO LTD,"840,000",0.00%
   45,"HONGKONG AND SHANGHAI HOTELS LTD,THE","41,513",0.00%
   59,SKYFAME REALTY (HOLDINGS) LIMITED,"63,852,000",0.80%
   66,MTR CORPORATION LIMITED,"7,009,481",0.10%
   69,SHANGRI-LA ASIA LIMITED,"19,320,000",0.53%
   78,REGAL HOTELS INTERNATIONAL HOLDINGS LIMITED,"12,000",0.00%
   81,CHINA OVERSEAS GRAND OCEANS GROUP LIMITED,"325,530,820",9.50%
   83,SINO LAND CO.LTD.,"3,903,976",0.05%
   86,SUN HUNG KAI & CO.LTD,"15,367,000",0.76%
   87,SWIRE PACIFIC LTD 'B',"29,262,500",0.98%
   95,LVGEM (CHINA) REAL ESTATE INVESTMENT COMPANY LIMITED,"179,960,000",3.53%
  101,HANG LUNG PROPERTIES LIMITED,"87,473,099",1.93%
  107,SICHUAN EXPRESSWAY COMPANY LIMITED,"228,354,000",25.50%
  109,GOOD RESOURCES HOLDINGS LIMITED,"44,440,000",0.62%
  116,CHOW SANG SANG HOLDINGS INTERNATIONAL LIMITED,"22,765,000",3.36%
  119,"POLY PROPERTY GROUP CO., LIMITED","394,975,748",10.78%
  120,COSMOPOLITAN INTERNATIONAL HOLDINGS LTD,"2,854,000",0.04%
  123,YUEXIU PROPERTY COMPANY LIMITED,"371,664,795",2.39%
  127,CHINESE ESTATES HOLDINGS LIMITED,"2,751,500",0.14%
  135,KUNLUN ENERGY COMPANY LIMITED,"134,695,534",1.55%
  136,HENGTEN NETWORKS GROUP LIMITED,"6,634,648,000",8.20%
  142,FIRST PACIFIC CO. LTD.,"7,650,000",0.17%
  144,CHINA MERCHANTS PORT HOLDINGS COMPANY LIMITED,"149,274,233",4.06%
  148,KINGBOARD HOLDINGS LIMITED,"14,776,636",1.33%
  151,WANT WANT CHINA HOLDINGS LIMITED,"23,659,871",0.18%
  152,SHENZHEN INTERNATIONAL HOLDINGS LIMITED,"76,958,453",3.50%
  163,EMPEROR INTERNATIONAL HOLDINGS LIMITED,"10,788,000",0.29%
  165,CHINA EVERBRIGHT LIMITED,"222,689,955",13.20%
  168,TSINGTAO BREWERY COMPANY LIMITED,"93,602,000",14.28%
  173,K. WAH INTERNATIONAL HOLDINGS LIMITED,"37,536,196",1.19%
  175,GEELY AUTOMOBILE HOLDINGS LIMITED,"1,142,021,194",11.62%
  177,JIANGSU EXPRESSWAY COMPANY LIMITED,"131,966,818",10.78%
  178,SA SA INTERNATIONAL HOLDINGS LIMITED,"14,837,268",0.47%
  179,JOHNSON ELECTRIC HOLDINGS LIMITED,"1,290,000",0.14%
  187,BEIJING JINGCHENG MACHINERY ELECTRIC COMPANY LIMITED,"27,020,000",27.02%
  189,DONGYUE GROUP LIMITED,"178,225,358",8.43%
  198,SMI HOLDINGS GROUP LIMITED,"70,340,800",2.59%
  200,MELCO INTERNATIONAL DEVELOPMENT LIMITED,"12,612,000",0.82%
  207,JOY CITY PROPERTY LIMITED,"4,364,000",0.03%
  215,HUTCHISON TELECOMMUNICATIONS HONG KONG HOLDINGS LIMITED,"11,850,000",0.23%
  220,UNI-PRESIDENT CHINA HOLDINGS LTD.,"8,823,000",0.20%
  241,ALIBABA HEALTH INFORMATION TECHNOLOGY LIMITED,"241,720,414",1.78%
  242,SHUN TAK HOLDINGS LIMITED,"91,404,000",3.02%
  245,CHINA VERED FINANCIAL HOLDING CORPORATION LIMITED,"25,120,000",0.06%
  256,CITYCHAMP WATCH & JEWELLERY GROUP LIMITED,"370,816,000",8.52%
  257,CHINA EVERBRIGHT ENVIRONMENT GROUP LIMITED,"584,482,910",9.50%
  267,CITIC LIMITED,"177,753,916",0.61%
  268,KINGDEE INTERNATIONAL SOFTWARE GROUP COMPANY LIMITED,"612,554,786",17.67%
  270,GUANGDONG INVESTMENT LIMITED,"39,018,905",0.59%
  272,SHUI ON LAND LIMITED,"804,093,500",9.96%
  279,FREEMAN FINTECH CORPORATION LIMITED,"612,286,000",32.77%
  285,BYD ELECTRONIC (INTERNATIONAL) COMPANY LIMITED,"185,831,887",8.24%
  288,WH GROUP LIMITED,"1,164,779,861",7.90%
  291,CHINA RESOURCES BEER (HOLDINGS) COMPANY LIMITED,"343,483,339",10.58%
  293,CATHAY PACIFIC AIRWAYS LTD,"20,384,117",0.31%
  295,KONG SUN HOLDINGS LIMITED,"52,325,000",0.34%
  297,SINOFERT HOLDINGS LIMITED,"372,142,000",5.29%
  302,CMGE TECHNOLOGY GROUP LIMITED,"175,076,000",7.51%
  303,VTECH HOLDINGS LIMITED,"1,277,301",0.50%
  308,CHINA TRAVEL INTERNATIONAL INVESTMENT HONG KONG LIMITED,"177,206,439",3.19%
  315,SMARTONE TELECOMMUNICATIONS HOLDINGS LIMITED,"2,118,108",0.18%
  316,ORIENT OVERSEAS (INTERNATIONAL) LIMITED,"8,000",0.00%
  317,CSSC OFFSHORE & MARINE ENGINEERING (GROUP) COMPANY LIMITED,"25,477,900",4.29%
  321,TEXWINCA HOLDINGS LIMITED,"1,004,000",0.07%
  322,TINGYI (CAYMAN ISLANDS) HOLDING CORP.,"24,759,308",0.44%
  323,MAANSHAN IRON & STEEL COMPANY LIMITED,"11,292,000",0.64%
  327,PAX GLOBAL TECHNOLOGY LIMITED,"6,234,000",0.57%
  330,ESPRIT HOLDINGS LIMITED,"8,375,200",0.43%
  336,HUABAO INTERNATIONAL HOLDINGS LIMITED,"417,634,100",13.43%
  337,GREENLAND HONG KONG HOLDINGS LIMITED,"117,041,000",4.19%
  338,SINOPEC SHANGHAI PETROCHEMICAL COMPANY LIMITED,"497,685,339",14.23%
  341,CAFE DE CORAL HOLDINGS LTD,"6,560,000",1.11%
  345,VITASOY INTERNATIONAL HOLDINGS LTD,"6,930,011",0.64%
  347,ANGANG STEEL COMPANY LIMITED,"16,178,000",1.14%
  354,CHINASOFT INTERNATIONAL LIMITED,"343,261,622",12.59%
  358,JIANGXI COPPER COMPANY LIMITED,"90,492,219",6.51%
  363,SHANGHAI INDUSTRIAL HOLDINGS LIMITED,"28,014,500",2.57%
  371,BEIJING ENTERPRISES WATER GROUP LIMITED,"263,544,010",2.62%
  378,FDG KINETIC LIMITED,"183,680,000",2.71%
  384,CHINA GAS HOLDINGS LIMITED,"45,370,043",0.86%
  386,CHINA PETROLEUM & CHEMICAL CORPORATION,"1,485,631,621",5.82%
  388,HONG KONG EXCHANGES AND CLEARING LIMITED,"68,489,751",5.39%
  390,CHINA RAILWAY GROUP LIMITED,"305,217,030",7.25%
  392,BEIJING ENTERPRISES HOLDINGS LIMITED,"86,480,482",6.85%
  400,COGOBUY GROUP,"49,276,000",3.47%
  410,SOHO CHINA LIMITED,"446,217,500",8.58%
  412,CHINA SHANDONG HI-SPEED FINANCIAL GROUP LIMITED,"9,888,000",0.04%
  419,HUAYI TENCENT ENTERTAINMENT COMPANY LIMITED,"165,110,000",1.22%
  425,MINTH GROUP LIMITED,"35,553,886",
  432,PACIFIC CENTURY PREMIUM DEVELOPMENTS LIMITED,"309,262",0.01%
  439,KUANGCHI SCIENCE LIMITED,"268,618,000",4.36%
  440,DAH SING FINANCIAL HOLDINGS LTD,"2,952,866",0.91%
  451,GCL NEW ENERGY HOLDINGS LIMITED,"1,275,080,000",6.68%
  460,SIHUAN PHARMACEUTICAL HOLDINGS GROUP LTD.,"584,003,000",6.16%
  467,UNITED ENERGY GROUP LIMITED,"266,448,000",1.01%
  468,GREATVIEW ASEPTIC PACKAGING COMPANY LIMITED,"6,024,000",0.45%
  480,HKR INTERNATIONAL LTD,"45,200",0.00%
  488,LAI SUN DEVELOPMENT COMPANY LIMITED,"30,000",0.00%
  489,DONGFENG MOTOR GROUP COMPANY LIMITED,"217,384,000",7.61%
  493,GOME RETAIL HOLDINGS LIMITED,"2,537,235,000",11.76%
  496,KASEN INTERNATIONAL HOLDINGS LIMITED,"141,982,000",9.50%
  506,CHINA FOODS LIMITED,"35,216,100",1.25%
  508,DINGYI GROUP INVESTMENT LIMITED,"379,365,000",5.15%
  511,TELEVISION BROADCASTS LIMITED,"453,900",0.09%
  512,CHINA GRAND PHARMACEUTICAL AND HEALTHCARE HOLDINGS LIMITED,"120,915,200",3.40%
  517,"COSCO SHIPPING INTERNATIONAL (HONG KONG) CO., LTD.","420,000",0.02%
  520,"XIABUXIABU CATERING MANAGEMENT (CHINA) HOLDINGS CO., LTD.","175,347,000",
  522,ASM PACIFIC TECHNOLOGY LIMITED,"10,832,325",2.64%
  525,GUANGSHEN RAILWAY COMPANY LIMITED,"398,696,010",27.84%
  530,GOLDIN FINANCIAL HOLDINGS LIMITED,"2,444,000",0.03%
  535,GEMDALE PROPERTIES AND INVESTMENT CORPORATION LIMITED,"2,014,346,154",12.20%
  546,FUFENG GROUP LIMITED,"79,251,119",3.12%
  547,DIGITAL DOMAIN HOLDINGS LIMITED,"1,016,770,000",2.98%
  548,SHENZHEN EXPRESSWAY COMPANY LIMITED,"124,378,000",16.63%
  551,YUE YUEN INDUSTRIAL (HOLDINGS) LIMITED,"6,099,793",0.37%
  552,CHINA COMMUNICATIONS SERVICES CORPORATION LIMITED,"36,362,000",1.51%
  553,NANJING PANDA ELECTRONICS COMPANY LIMITED,"60,644,000",25.05%
  563,SHANGHAI INDUSTRIAL URBAN DEVELOPMENT GROUP LIMITED,"112,053,955",2.32%
  564,ZHENGZHOU COAL MINING MACHINERY GROUP COMPANY LIMITED,"38,075,204",15.64%
  568,SHANDONG MOLONG PETROLEUM MACHINERY COMPANY LIMITED,"61,213,200",23.89%
  570,CHINA TRADITIONAL CHINESE MEDICINE HOLDINGS CO LIMITED,"664,204,938",13.18%
  576,"ZHEJIANG EXPRESSWAY CO., LTD.","73,708,517",5.13%
  579,"BEIJING JINGNENG CLEAN ENERGY CO., LIMITED","152,970,000",5.40%
  581,CHINA ORIENTAL GROUP COMPANY LIMITED,"135,338,987",3.63%
  582,LANDING INTERNATIONAL DEVELOPMENT LIMITED,"111,577,200",3.16%
  586,CHINA CONCH VENTURE HOLDINGS LIMITED,"151,551,500",8.39%
  588,BEIJING NORTH STAR COMPANY LIMITED,"234,172,000",33.12%
  590,LUK FOOK HOLDINGS (INTERNATIONAL) LIMITED,"2,490,000",0.41%
  598,SINOTRANS LIMITED,"293,906,000",13.70%
  604,SHENZHEN INVESTMENT LIMITED,"43,885,742",0.48%
  607,FULLSHARE HOLDINGS LIMITED,"4,177,047,500",21.19%
  612,CHINA DING YI FENG HOLDINGS LIMITED,"2,200,000",0.16%
  631,SANY HEAVY EQUIPMENT INTERNATIONAL HOLDINGS COMPANY LIMITED,"181,350,000",5.81%
  636,KERRY LOGISTICS NETWORK LIMITED,"1,051,000",0.05%
  639,SHOUGANG FUSHAN RESOURCES GROUP LIMITED,"87,166,733",1.72%
  656,FOSUN INTERNATIONAL LIMITED,"1,026,589,100",12.12%
  658,"CHINA HIGH SPEED TRANSMISSION EQUIPMENT GROUP CO., LTD.","148,331,000",9.06%
  659,NWS HOLDINGS LIMITED,"9,881,185",0.25%
  665,HAITONG INTERNATIONAL SECURITIES GROUP LIMITED,"265,585,182",4.39%
  667,CHINA EAST EDUCATION HOLDINGS LIMITED,"137,259,000",6.25%
  669,TECHTRONIC INDUSTRIES CO. LTD.,"6,632,470",0.35%
  670,CHINA EASTERN AIRLINES CORPORATION LIMITED,"229,439,567",4.43%
  680,NAN HAI CORPORATION LIMITED,"482,050,000",0.69%
  683,KERRY PROPERTIES LIMITED,"3,506,124",0.23%
  686,"BEIJING ENERGY INTERNATIONAL HOLDING CO., LTD","295,008,000",1.31%
  687,TYSAN HOLDINGS LIMITED,"21,128,000",0.62%
  688,CHINA OVERSEAS LAND & INVESTMENT LIMITED,"67,253,087",0.60%
  691,CHINA SHANSHUI CEMENT GROUP LIMITED,"4,052,000",0.09%
  694,BEIJING CAPITAL INTERNATIONAL AIRPORT COMPANY LIMITED,"316,840,204",16.85%
  696,TRAVELSKY TECHNOLOGY LIMITED,"29,764,000",3.18%
  697,SHOUCHENG HOLDINGS LIMITED,"53,112,010",0.75%
  698,TONGDA GROUP HOLDINGS LIMITED,"154,460,000",2.38%
  699,CAR INC.,"219,649,001",10.35%
  700,TENCENT HOLDINGS LIMITED,"395,930,860",4.12%
  709,GIORDANO INTERNATIONAL LIMITED,"2,100,000",0.13%
  715,CHINA OCEANWIDE HOLDINGS LIMITED,"456,000",0.00%
  718,TAI UNITED HOLDINGS LIMITED,"20,050,000",0.38%
  719,SHANDONG XINHUA PHARMACEUTICAL COMPANY LIMITED,"68,935,660",35.35%
  721,CHINA FINANCIAL INTERNATIONAL INVESTMENTS LIMITED,"304,790,000",2.77%
  728,CHINA TELECOM CORPORATION LIMITED,"381,317,929",2.74%
  729,FDG ELECTRIC VEHICLES LIMITED,"70,130,750",2.79%
  732,TRULY INTERNATIONAL HOLDINGS LIMITED,"297,382,000",9.03%
  737,SZ INVESTMENT HLDGS BAY AREA DEV CO LTD -HKD TRADED SHARES,"1,431,500",0.04%
  743,ASIA CEMENT (CHINA) HOLDINGS CORPORATION,"32,594,000",2.08%
  751,SKYWORTH GROUP LIMITED,"163,823,415",6.13%
  753,AIR CHINA LIMITED,"345,676,449",7.57%
  754,HOPSON DEVELOPMENT HOLDINGS LIMITED,"48,314,000",2.18%
  762,CHINA UNICOM (HONG KONG) LIMITED,"295,178,000",0.95%
  763,ZTE CORPORATION,"176,332,178",23.33%
  772,CHINA LITERATURE LIMITED,"89,949,618",8.84%
  775,"CK LIFE SCIENCES INT'L., (HOLDINGS) INC.","18,334,000",0.19%
  777,NETDRAGON WEBSOFT HOLDINGS LIMITED,"25,547,000",4.55%
  780,TONGCHENG-ELONG HOLDINGS LIMITED,"43,614,400",2.00%
  787,GLOBAL BRANDS GROUP HOLDING LIMITED,"65,921,633",6.40%
  788,CHINA TOWER CORPORATION LIMITED,"1,867,578,140",4.00%
  799,IGG INC,"87,982,298",7.14%
  806,VALUE PARTNERS GROUP LIMITED,"61,131,405",3.28%
  811,"XINHUA WINSHARE PUBLISHING AND MEDIA CO., LTD.","83,300,000",18.84%
  813,SHIMAO GROUP HOLDINGS LIMITED,"65,883,572",1.85%
  817,CHINA JINMAO HOLDINGS GROUP LIMITED,"1,058,573,301",8.30%
  819,TIANNENG POWER INTERNATIONAL LIMITED,"204,551,000",18.16%
  826,TIANGONG INTERNATIONAL COMPANY LIMITED,"69,918,000",2.72%
  829,SHENGUAN HOLDINGS (GROUP) LIMITED,"140,348,000",4.34%
  832,CENTRAL CHINA REAL ESTATE LIMITED,"149,472,000",
  836,CHINA RESOURCES POWER HOLDINGS COMPANY LIMITED,"221,588,335",4.59%
  839,CHINA EDUCATION GROUP HOLDINGS LIMITED,"93,122,844",4.32%
  845,GLORIOUS PROPERTY HOLDINGS LIMITED,"22,344,000",0.28%
  846,MINGFA GROUP (INTERNATIONAL) COMPANY LIMITED,"5,261,000",0.08%
  853,MICROPORT SCIENTIFIC CORPORATION,"231,296,680",12.78%
  855,CHINA WATER AFFAIRS GROUP LIMITED,"173,872,000",10.96%
  856,VSTECS HOLDINGS LIMITED,"16,028,000",1.10%
  857,PETROCHINA COMPANY LIMITED,"1,686,878,455",7.98%
  860,APOLLO FUTURE MOBILITY GROUP LIMITED,"28,632,000",0.39%
  861,DIGITAL CHINA HOLDINGS LIMITED,"609,452,400",36.43%
  867,CHINA MEDICAL SYSTEM HOLDINGS LIMITED,"36,141,618",1.45%
  868,XINYI GLASS HOLDINGS LIMITED,"196,615,053",4.86%
  874,"GUANGZHOU BAIYUNSHAN PHARMACEUTICAL HOLDINGS CO., LTD.","69,044,100",31.39%
  880,SJM HOLDINGS LIMITED,"250,350,700",4.40%
  881,ZHONGSHENG GROUP HOLDINGS LIMITED,"42,629,000",1.87%
  883,CNOOC LIMITED,"455,950,543",1.01%
  884,CIFI HOLDINGS (GROUP) CO. LTD.,"382,179,508",4.63%
  885,RENTIAN TECHNOLOGY HOLDINGS LIMITED,"1,110,000",0.01%
  895,DONGJIANG ENVIRONMENTAL COMPANY LIMITED,"55,359,600",27.66%
  902,"HUANENG POWER INTERNATIONAL, INC.","2,021,451,004",42.99%
  906,CPMC HOLDINGS LIMITED,"13,929,000",1.25%
  911,QIANHAI HEALTH HOLDINGS LIMITED,"90,691,000",5.35%
  914,ANHUI CONCH CEMENT COMPANY LIMITED,"51,563,789",3.95%
  916,CHINA LONGYUAN POWER GROUP CORPORATION LIMITED,"147,829,000",4.41%
  921,"HISENSE HOME APPLIANCES GROUP CO., LTD.","34,025,959",7.40%
  931,CHINA LNG GROUP LIMITED,"118,847,000",2.10%
  934,SINOPEC KANTONS HOLDINGS LIMITED,"161,158,000",6.47%
  939,CHINA CONSTRUCTION BANK CORPORATION,"27,006,805,251",11.22%
  941,CHINA MOBILE LIMITED,"116,594,124",0.55%
  950,LEE'S PHARMACEUTICAL HOLDINGS LIMITED,"1,356,500",0.23%
  951,CHAOWEI POWER HOLDINGS LIMITED,"99,862,000",9.04%
  956,CHINA SUNTIEN GREEN ENERGY CORPORATION LIMITED,"259,075,000",14.08%
  960,LONGFOR GROUP HOLDINGS LIMITED,"174,527,493",2.90%
  966,CHINA TAIPING INSURANCE HOLDINGS COMPANY LIMITED,"476,202,174",13.24%
  967,SOUND GLOBAL LTD.,"289,000",0.01%
  968,XINYI SOLAR HOLDINGS LIMITED,"692,238,444",8.12%
  976,CHIHO ENVIRONMENTAL GROUP LIMITED,"204,510,000",12.74%
  978,CHINA MERCHANTS LAND LIMITED,"189,990,000",3.87%
  981,SEMICONDUCTOR MANUFACTURING INTERNATIONAL CORPORATION,"1,120,175,157",14.54%
  989,GROUND INTERNATIONAL DEVELOPMENT LIMITED,"136,250,000",2.28%
  991,"DATANG INTERNATIONAL POWER GENERATION CO.,LTD.","380,602,000",6.21%
  992,LENOVO GROUP LIMITED,"101,537,882",0.83%
  995,ANHUI EXPRESSWAY COMPANY LIMITED,"121,418,000",24.62%
  998,CHINA CITIC BANK CORPORATION LIMITED,"2,853,804,758",19.16%
 1028,C.BANNER INTERNATIONAL HOLDINGS LIMITED,"143,864,000",6.92%
 1030,SEAZEN GROUP LIMITED,"296,440,000",4.76%
 1031,KINGSTON FINANCIAL GROUP LIMITED,"548,000",0.00%
 1033,SINOPEC OILFIELD SERVICE CORPORATION,"407,104,000",7.51%
 1038,CK INFRASTRUCTURE HOLDINGS LIMITED,"10,595,000",0.39%
 1044,HENGAN INTERNATIONAL GROUP COMPANY LIMITED,"19,043,605",1.59%
 1052,YUEXIU TRANSPORT INFRASTRUCTURE LIMITED,"79,720,432",4.76%
 1053,CHONGQING IRON & STEEL COMPANY LIMITED,"102,894,000",19.11%
 1055,CHINA SOUTHERN AIRLINES COMPANY LIMITED,"235,103,480",5.49%
 1057,ZHEJIANG SHIBAO COMPANY LIMITED,"57,227,000",26.39%
 1060,ALIBABA PICTURES GROUP LIMITED,"3,468,218,620",12.92%
 1065,TIANJIN CAPITAL ENVIRONMENTAL PROTECTION GROUP COMPANY LIMITED,"120,436,100",35.41%
 1066,SHANDONG WEIGAO GROUP MEDICAL POLYMER COMPANY LIMITED,"746,605,201",16.50%
 1068,CHINA YURUN FOOD GROUP LIMITED,"18,017,000",0.98%
 1070,TCL ELECTRONICS HOLDINGS LIMITED,"120,001,666",4.90%
 1071,HUADIAN POWER INTERNATIONAL CORPORATION LIMITED,"733,847,855",42.73%
 1072,DONGFANG ELECTRIC CORPORATION LIMITED,"75,145,316",22.09%
 1076,IMPERIAL PACIFIC INTERNATIONAL HOLDINGS LIMITED,"387,060,000",0.27%
 1083,TOWNGAS CHINA COMPANY LIMITED,"18,186,542",0.61%
 1086,GOODBABY INTERNATIONAL HOLDINGS LIMITED,"21,228,000",1.27%
 1088,CHINA SHENHUA ENERGY COMPANY LIMITED,"928,912,325",27.32%
 1089,LEYOU TECHNOLOGIES HOLDINGS LIMITED,"2,875,000",0.09%
 1093,CSPC PHARMACEUTICAL GROUP LIMITED,"731,118,561",6.09%
 1097,I-CABLE COMMUNICATIONS LIMITED,"76,600",0.00%
 1098,ROAD KING INFRASTRUCTURE LIMITED,"10,743,000",1.43%
 1099,SINOPHARM GROUP CO. LTD.,"84,526,612",6.29%
 1108,LUOYANG GLASS COMPANY LIMITED,"91,666,000",36.66%
 1109,CHINA RESOURCES LAND LIMITED,"128,407,763",1.79%
 1111,CHONG HING BANK LIMITED,"1,022,500",0.10%
 1112,HEALTH AND HAPPINESS (H&H) INTERNATIONAL HOLDINGS LIMITED,"36,892,000",5.72%
 1113,CK ASSET HOLDINGS LIMITED,"13,794,033",0.37%
 1114,BRILLIANCE CHINA AUTOMOTIVE HOLDINGS LIMITED,"75,475,386",1.49%
 1115,TIBET WATER RESOURCES LTD.,"161,107,000",6.27%
 1117,CHINA MODERN DAIRY HOLDINGS LTD.,"272,056,000",4.20%
 1119,IDREAMSKY TECHNOLOGY HOLDINGS LIMITED,"46,613,600",3.67%
 1128,"WYNN MACAU, LIMITED","39,284,800",0.74%
 1131,AGRITRADE RESOURCES LIMITED,"583,090,000",9.14%
 1138,"COSCO SHIPPING ENERGY TRANSPORTATION CO., LTD.","199,742,003",15.40%
 1140,OP FINANCIAL LIMITED,"97,520,000",3.36%
 1141,CMBC CAPITAL HOLDINGS LIMITED,"900,150,000",1.88%
 1157,"ZOOMLION HEAVY INDUSTRY SCIENCE AND TECHNOLOGY CO., LTD.","24,599,922",1.77%
 1165,SHUNFENG INTERNATIONAL CLEAN ENERGY LIMITED,"323,822,000",6.49%
 1169,"HAIER ELECTRONICS GROUP CO., LTD.","163,749,070",5.80%
 1171,YANZHOU COAL MINING COMPANY LIMITED,"334,393,995",17.59%
 1176,ZHUGUANG HOLDINGS GROUP COMPANY LIMITED,"237,036,000",3.29%
 1177,SINO BIOPHARMACEUTICAL LIMITED,"1,478,445,721",7.82%
 1186,CHINA RAILWAY CONSTRUCTION CORPORATION LIMITED,"128,111,190",6.16%
 1188,HYBRID KINETIC GROUP LIMITED,"102,914,000",0.50%
 1193,CHINA RESOURCES GAS GROUP LIMITED,"8,072,000",0.34%
 1196,REALORD GROUP HOLDINGS LIMITED,"124,300,000",8.64%
 1199,COSCO SHIPPING PORTS LIMITED,"19,915,751",0.59%
 1205,CITIC RESOURCES HOLDINGS LIMITED,"162,342,100",2.06%
 1208,MMG LIMITED,"290,282,000",3.59%
 1211,BYD COMPANY LIMITED,"54,874,980",5.99%
 1212,LIFESTYLE INTERNATIONAL HOLDINGS LIMITED,"3,787,166",0.24%
 1230,YASHILI INTERNATIONAL HOLDINGS LTD,"78,185,000",1.64%
 1233,TIMES CHINA HOLDINGS LIMITED,"86,619,757",4.46%
 1234,CHINA LILANG LIMITED,"75,839,000",6.33%
 1238,POWERLONG REAL ESTATE HOLDINGS LIMITED,"124,016,116",2.98%
 1250,BEIJING ENTERPRISES CLEAN ENERGY GROUP LIMITED,"1,608,760,000",2.53%
 1253,CHINA GREENLAND BROAD GREENSTATE GROUP COMPANY LIMITED,"6,428,000",0.19%
 1257,CHINA EVERBRIGHT GREENTECH LIMITED,"161,823,000",7.83%
 1268,CHINA MEIDONG AUTO HOLDINGS LIMITED,"52,554,000",4.22%
 1269,CHINA FIRST CAPITAL GROUP LIMITED,"1,567,962,000",31.18%
 1282,GLORY SUN FINANCIAL GROUP LIMITED,"4,342,124,000",13.83%
 1286,IMPRO PRECISION INDUSTRIES LIMITED,"1,123,000",0.05%
 1288,AGRICULTURAL BANK OF CHINA LIMITED,"8,408,356,893",27.34%
 1293,GRAND BAOXIN AUTO GROUP LIMITED,"128,813,337",4.53%
 1299,AIA GROUP LIMITED,"89,507,399",0.73%
 1302,LIFETECH SCIENTIFIC CORPORATION,"774,676,000",17.88%
 1308,SITC INTERNATIONAL HOLDINGS COMPANY LIMITED,"54,702,708",2.03%
 1310,HKBN LTD.,"4,180,000",0.31%
 1313,CHINA RESOURCES CEMENT HOLDINGS LIMITED,"42,327,747",0.60%
 1315,VISION FAME INTERNATIONAL HOLDING LIMITED,"710,216,000",11.82%
 1316,NEXTEER AUTOMOTIVE GROUP LIMITED,"44,769,000",1.78%
 1317,CHINA MAPLE LEAF EDUCATIONAL SYSTEMS LIMITED,"447,724,537",14.94%
 1330,"DYNAGREEN ENVIRONMENTAL PROTECTION GROUP CO., LTD","158,951,000",39.29%
 1333,CHINA ZHONGWANG HOLDINGS LIMITED,"364,304,400",6.68%
 1336,NEW CHINA LIFE INSURANCE COMPANY LTD.,"340,068,240",32.87%
 1339,"PEOPLE'S INSURANCE COMPANY (GROUP) OF CHINA LIMITED, THE","1,822,689,987",20.88%
 1347,HUA HONG SEMICONDUCTOR LIMITED,"92,052,681",7.10%
 1357,"MEITU, INC.","333,594,600",7.73%
 1359,"CHINA CINDA ASSET MANAGEMENT CO., LTD.","2,636,081,337",19.42%
 1361,361 DEGREES INTERNATIONAL LIMITED,"28,633,000",1.38%
 1363,CT ENVIRONMENTAL GROUP LIMITED,"502,874,000",7.95%
 1368,XTEP INTERNATIONAL HOLDINGS LIMITED,"84,531,442",3.33%
 1375,"CENTRAL CHINA SECURITIES CO., LTD.","310,431,000",25.96%
 1378,CHINA HONGQIAO GROUP LIMITED,"464,684,410",5.41%
 1381,CANVEST ENVIRONMENTAL PROTECTION GROUP COMPANY LIMITED,"29,901,000",1.22%
 1382,PACIFIC TEXTILES HOLDINGS LIMITED,"29,235,335",2.06%
 1383,SUNCITY GROUP HOLDINGS LIMITED,"37,600,000",0.56%
 1387,CHINA DILI GROUP,"148,489,670",1.76%
 1398,INDUSTRIAL AND COMMERCIAL BANK OF CHINA LIMITED,"25,063,882,088",28.87%
 1432,CHINA SHENGMU ORGANIC MILK LIMITED,"95,697,000",1.13%
 1448,FU SHOU YUAN INTERNATIONAL GROUP LIMITED,"286,407,677",12.45%
 1456,"GUOLIAN SECURITIES CO., LTD.","71,167,000",16.07%
 1458,ZHOU HEI YA INTERNATIONAL HOLDINGS COMPANY LIMITED,"397,402,500",16.66%
 1475,NISSIN FOODS COMPANY LIMITED,"2,193,000",0.20%
 1478,Q TECHNOLOGY (GROUP) COMPANY LIMITED,"50,454,000",4.30%
 1508,CHINA REINSURANCE (GROUP) CORPORATION,"851,512,000",12.74%
 1513,LIVZON PHARMACEUTICAL GROUP INC.,"39,400,129",12.31%
 1515,CHINA RESOURCES MEDICAL HOLDINGS COMPANY LIMITED,"77,749,600",5.98%
 1521,FRONTAGE HOLDINGS CORPORATION,"227,508,000",11.18%
 1528,RED STAR MACALLINE GROUP CORPORATION LTD.,"133,996,945",18.07%
 1530,3SBIO INC.,"228,228,039",8.97%
 1533,"LANZHOU ZHUANGYUAN PASTURE CO., LTD.","7,963,000",22.66%
 1548,GENSCRIPT BIOTECH CORPORATION,"236,200,000",12.25%
 1551,"GUANGZHOU RURAL COMMERCIAL BANK CO., LTD","2,414,000",0.13%
 1558,"YICHANG HEC CHANGJIANG PHARMACEUTICAL CO., LTD.","194,152,200",29.69%
 1569,MINSHENG EDUCATION GROUP COMPANY LIMITED,"227,628,000",5.39%
 1573,SOUTHERN ENERGY HOLDINGS GROUP LIMITED,"126,862,000",17.66%
 1578,"BANK OF TIANJIN CO., LTD.","34,000",0.00%
 1579,YIHAI INTERNATIONAL HOLDING LTD.,"114,564,460",10.93%
 1583,QINQIN FOODSTUFFS GROUP (CAYMAN) COMPANY LIMITED,"24,400",0.00%
 1585,YADEA GROUP HOLDINGS LTD.,"282,332,000",9.42%
 1589,"CHINA LOGISTICS PROPERTY HOLDINGS CO., LTD","3,351,000",0.10%
 1600,CHINA TIAN LUN GAS HOLDINGS LIMITED,"16,842,000",1.67%
 1606,"CHINA DEVELOPMENT BANK FINANCIAL LEASING CO., LTD.","316,000",0.01%
 1608,VPOWER GROUP INTERNATIONAL HOLDINGS LIMITED,"4,270,000",0.16%
 1610,COFCO JOYCOME FOODS LIMITED,"688,002,000",17.63%
 1618,METALLURGICAL CORPORATION OF CHINA LTD.,"507,362,000",17.66%
 1622,REDCO PROPERTIES GROUP LIMITED,"235,006,000",6.61%
 1628,YUZHOU GROUP HOLDINGS COMPANY LIMITED,"73,744,271",1.31%
 1635,"SHANGHAI DAZHONG PUBLIC UTILITIES (GROUP) CO., LTD.","82,251,000",15.40%
 1636,CHINA METAL RESOURCES UTILIZATION LIMITED,"34,616,000",1.31%
 1638,KAISA GROUP HOLDINGS LTD.,"545,648,619",8.88%
 1658,"POSTAL SAVINGS BANK OF CHINA CO., LTD.","620,503,845",3.11%
 1661,WISDOM SPORTS GROUP,"6,217,000",0.39%
 1666,TONG REN TANG TECHNOLOGIES CO LTD,"148,282,200",23.58%
 1668,CHINA SOUTH CITY HOLDINGS LIMITED,"898,813,543",11.10%
 1675,ASIAINFO TECHNOLOGIES LIMITED,"2,002,400",0.21%
 1680,MACAU LEGEND DEVELOPMENT LIMITED,"105,608,000",1.69%
 1681,CONSUN PHARMACEUTICAL GROUP LIMITED,"21,078,000",2.52%
 1685,BOER POWER HOLDINGS LIMITED,"2,195,000",0.28%
 1686,SUNEVISION HOLDINGS LIMITED,"2,285,000",0.09%
 1691,JS GLOBAL LIFESTYLE COMPANY LIMITED,"43,168,000",1.23%
 1717,AUSNUTRIA DAIRY CORPORATION LTD,"107,197,000",6.24%
 1728,CHINA ZHENGTONG AUTO SERVICES HOLDINGS LIMITED,"392,646,000",14.55%
 1761,BABYTREE GROUP,"5,746,000",0.34%
 1765,"HOPE EDUCATION GROUP CO., LTD.","866,615,160",11.98%
 1766,CRRC CORPORATION LIMITED,"440,263,970",10.06%
 1772,"GANFENG LITHIUM CO., LTD.","135,306,010",56.32%
 1773,TIANLI EDUCATION INTERNATIONAL HOLDINGS LIMITED,"227,989,000",10.98%
 1776,"GF SECURITIES CO., LTD.","523,807,700",30.77%
 1777,"FANTASIA HOLDINGS GROUP CO., LIMITED","395,290,000",6.85%
 1778,"COLOUR LIFE SERVICES GROUP CO., LIMITED","65,715,250",4.51%
 1787,"SHANDONG GOLD MINING CO., LTD.","158,210,698",22.61%
 1788,GUOTAI JUNAN INTERNATIONAL HOLDINGS LIMITED,"238,987,110",2.48%
 1789,AK MEDICAL HOLDINGS LIMITED,"105,048,000",
 1797,KOOLEARN TECHNOLOGY HOLDING LIMITED,"144,046,304",15.31%
 1800,CHINA COMMUNICATIONS CONSTRUCTION COMPANY LIMITED,"657,161,000",14.86%
 1801,"INNOVENT BIOLOGICS, INC.","109,030,500",7.78%
 1806,HUIFU PAYMENT LIMITED,"13,282,400",1.01%
 1810,XIAOMI CORPORATION,"2,422,707,732",10.03%
 1811,"CGN NEW ENERGY HOLDINGS CO., LTD.","156,270,000",3.64%
 1812,SHANDONG CHENMING PAPER HOLDINGS LIMITED,"112,063,950",21.21%
 1813,KWG GROUP HOLDINGS LIMITED,"135,546,460",4.26%
 1816,"CGN POWER CO., LTD","2,505,468,000",22.43%
 1817,MULSANNE GROUP HOLDING LIMITED,"84,000",0.00%
 1818,ZHAOJIN MINING INDUSTRY COMPANY LIMITED,"129,918,372",4.97%
 1829,CHINA MACHINERY ENGINEERING CORPORATION,"103,000",0.01%
 1833,PING AN HEALTHCARE AND TECHNOLOGY COMPANY LIMITED,"122,196,800",10.64%
 1836,STELLA INTERNATIONAL HOLDINGS LIMITED,"388,000",0.04%
 1848,CHINA AIRCRAFT LEASING GROUP HOLDINGS LIMITED,"13,245,421",1.83%
 1860,MOBVISTA INC.,"16,772,000",1.09%
 1873,VIVA BIOTECH HOLDINGS,"430,680,500",22.51%
 1876,BUDWEISER BREWING COMPANY APAC LIMITED,"10,050,508",0.07%
 1882,HAITIAN INTERNATIONAL HOLDINGS LIMITED,"29,011,000",1.80%
 1883,CITIC TELECOM INTERNATIONAL HOLDINGS LIMITED,"13,182,000",0.35%
 1886,CHINA HUIYUAN JUICE GROUP LIMITED,"125,355,500",4.69%
 1888,KINGBOARD LAMINATES HOLDINGS LIMITED,"13,259,935",0.41%
 1890,CHINA KEPEI EDUCATION GROUP LIMITED,"132,392,054",6.56%
 1896,MAOYAN ENTERTAINMENT,"32,746,000",2.87%
 1898,CHINA COAL ENERGY COMPANY LIMITED,"435,374,000",10.59%
 1905,"HAITONG UNITRUST INTERNATIONAL FINANCIAL LEASING CO., LTD.","39,284,000",0.67%
 1907,CHINA RISUN GROUP LIMITED,"45,830,000",1.12%
 1908,C&D INTERNATIONAL INVESTMENT GROUP LIMITED,"74,431,000",6.32%
 1911,CHINA RENAISSANCE HOLDINGS LIMITED,"16,291,600",3.05%
 1916,"JIANGXI BANK CO., LTD.","10,786,500",0.80%
 1918,SUNAC CHINA HOLDINGS LIMITED,"785,138,891",16.83%
 1919,"COSCO SHIPPING HOLDINGS CO., LTD.","457,953,500",17.73%
 1928,SANDS CHINA LTD.,"60,591,332",0.74%
 1929,CHOW TAI FOOK JEWELLERY GROUP LIMITED,"46,712,200",0.46%
 1951,JINXIN FERTILITY GROUP LIMITED,"439,389,449",18.08%
 1958,BAIC MOTOR CORPORATION LIMITED,"114,794,000",4.54%
 1963,"BANK OF CHONGQING CO., LTD.","118,839,500",7.52%
 1966,CHINA SCE GROUP HOLDINGS LIMITED,"167,481,054",3.96%
 1970,"IMAX CHINA HOLDING, INC.","7,723,300",2.20%
 1972,SWIRE PROPERTIES LIMITED,"1,599,400",0.01%
 1980,TIAN GE INTERACTIVE HOLDINGS LIMITED,"22,252,000",1.74%
 1988,"CHINA MINSHENG BANKING CORP., LTD.","1,303,903,269",15.66%
 1992,FOSUN TOURISM GROUP,"704,800",0.04%
 1995,EVER SUNSHINE LIFESTYLE SERVICES GROUP LIMITED,"71,192,000",4.26%
 1996,REDSUN PROPERTIES GROUP LIMITED,"81,582,000",2.45%
 1997,WHARF REAL ESTATE INVESTMENT COMPANY LIMITED,"3,699,425",0.11%
 1999,MAN WAH HOLDINGS LIMITED,"789,953,808",20.76%
 2001,CHINA NEW HIGHER EDUCATION GROUP LIMITED,"115,447,000",7.28%
 2003,VCREDIT HOLDINGS LIMITED,"2,141,000",0.43%
 2005,SSY GROUP LIMITED,"314,142,059",10.29%
 2007,COUNTRY GARDEN HOLDINGS COMPANY LIMITED,"257,628,974",1.16%
 2008,PHOENIX MEDIA INVESTMENT (HOLDINGS) LIMITED,"205,012,000",4.10%
 2009,BBMG CORPORATION,"312,233,500",13.34%
 2013,WEIMOB INC.,"477,328,943",21.16%
 2016,"CHINA ZHESHANG BANK CO., LTD.","91,401,000",1.99%
 2018,AAC TECHNOLOGIES HOLDINGS INC.,"70,479,332",5.82%
 2019,DEXIN CHINA HOLDINGS COMPANY LIMITED,"29,401,000",1.08%
 2020,ANTA SPORTS PRODUCTS LIMITED,"225,047,808",8.32%
 2038,FIH MOBILE LIMITED,"121,699,000",1.48%
 2039,"CHINA INTERNATIONAL MARINE CONTAINERS (GROUP) CO., LTD.","234,669,120",11.39%
 2048,E-HOUSE (CHINA) ENTERPRISE HOLDINGS LIMITED,"8,333,700",0.47%
 2051,51 CREDIT CARD INC.,"45,640,000",3.36%
 2066,"SHENGJING BANK CO., LTD.","195,000",0.00%
 2068,CHINA ALUMINUM INTERNATIONAL ENGINEERING CORPORATION LIMITED,"11,576,000",2.89%
 2098,ZALL SMART COMMERCE GROUP LTD.,"31,698,000",0.26%
 2099,CHINA GOLD INTERNATIONAL RESOURCES CORP. LTD.,"12,414,300",3.13%
 2103,SINIC HOLDINGS (GROUP) COMPANY LIMITED,"417,000",0.01%
 2111,BEST PACIFIC INTERNATIONAL HOLDINGS LIMITED,"1,340,000",0.12%
 2128,CHINA LESSO GROUP HOLDINGS LIMITED,"62,646,573",2.01%
 2136,LIFESTYLE CHINA GROUP LIMITED,"282,000",0.01%
 2186,LUYE PHARMA GROUP LTD.,"485,145,500",14.92%
 2196,"SHANGHAI FOSUN PHARMACEUTICAL (GROUP) CO., LTD.","207,745,357",37.63%
 2199,REGINA MIRACLE INTERNATIONAL (HOLDINGS) LIMITED,"2,882,000",0.23%
 2202,"CHINA VANKE CO., LTD.","269,842,980",14.25%
 2208,"XINJIANG GOLDWIND SCIENCE & TECHNOLOGY CO., LTD.","50,873,840",6.57%
 2218,"YANTAI NORTH ANDRE JUICE CO., LTD.","768,000",0.71%
 2232,CRYSTAL INTERNATIONAL GROUP LIMITED,"3,448,500",0.11%
 2233,WEST CHINA CEMENT LIMITED,"611,652,000",11.24%
 2238,"GUANGZHOU AUTOMOBILE GROUP CO., LTD.","1,059,948,940",34.20%
 2255,HAICHANG OCEAN PARK HOLDINGS LTD.,"311,041,000",7.77%
 2280,HC GROUP INC.,"90,208,000",6.88%
 2282,MGM CHINA HOLDINGS LIMITED,"18,881,896",0.49%
 2298,COSMO LADY (CHINA) HOLDINGS COMPANY LIMITED,"10,329,000",0.45%
 2313,SHENZHOU INTERNATIONAL GROUP HOLDINGS LIMITED,"57,771,974",3.83%
 2314,LEE & MAN PAPER MANUFACTURING LIMITED,"16,502,825",0.37%
 2318,"PING AN INSURANCE (GROUP) COMPANY OF CHINA, LTD.","178,502,877",2.38%
 2319,CHINA MENGNIU DAIRY COMPANY LIMITED,"73,007,994",1.84%
 2326,NEW PROVENANCE EVERLASTING HOLDINGS LIMITED,"55,940,000",0.25%
 2328,PICC PROPERTY AND CASUALTY COMPANY LIMITED,"584,045,169",8.46%
 2329,GUORUI PROPERTIES LIMITED,"155,690,000",3.50%
 2331,LI NING COMPANY LIMITED,"130,483,255",5.23%
 2333,GREAT WALL MOTOR COMPANY LIMITED,"1,171,391,445",37.78%
 2338,"WEICHAI POWER CO., LTD.","43,562,834",2.24%
 2342,COMBA TELECOM SYSTEMS HOLDINGS LIMITED,"3,706,000",0.13%
 2343,PACIFIC BASIN SHIPPING LIMITED,"8,251,000",0.17%
 2356,DAH SING BANKING GROUP LIMITED,"286,000",0.01%
 2357,AVICHINA INDUSTRY & TECHNOLOGY COMPANY LIMITED,"448,403,000",7.21%
 2359,"WUXI APPTEC CO., LTD.","23,941,946",7.79%
 2362,JINCHUAN GROUP INTERNATIONAL RESOURCES CO. LTD.,"65,166,000",0.51%
 2363,TONGDA HONG TAI HOLDINGS LIMITED,"336,712",0.16%
 2369,COOLPAD GROUP LIMITED,"37,152,000",0.56%
 2380,CHINA POWER INTERNATIONAL DEVELOPMENT LIMITED,"566,020,701",5.76%
 2382,SUNNY OPTICAL TECHNOLOGY (GROUP) COMPANY LIMITED,"130,639,507",11.90%
 2386,"SINOPEC ENGINEERING (GROUP) CO., LTD.","41,058,000",2.80%
 2388,BOC HONG KONG (HOLDINGS) LIMITED,"14,586,945",0.13%
 2400,XD INC.,"59,404,500",13.08%
 2588,BOC AVIATION LIMITED,"9,299,458",1.33%
 2600,ALUMINUM CORPORATION OF CHINA LIMITED,"290,678,000",7.36%
 2601,CHINA PACIFIC INSURANCE (GROUP) CO. LTD.,"809,554,517",29.16%
 2607,"SHANGHAI PHARMACEUTICALS HOLDING CO., LTD.","111,666,706",12.14%
 2611,"GUOTAI JUNAN SECURITIES CO., LTD.","162,467,400",11.67%
 2628,CHINA LIFE INSURANCE COMPANY LIMITED,"365,063,093",4.89%
 2662,CAMSING INTERNATIONAL HOLDING LIMITED,"132,096,000",12.26%
 2666,GENERTEC UNIVERSAL MEDICAL GROUP COMPANY LIMITED,"313,213,000",18.24%
 2669,CHINA OVERSEAS PROPERTY HOLDINGS LIMITED,"381,267,275",11.59%
 2678,TEXHONG TEXTILE GROUP LIMITED,"31,482,500",3.44%
 2688,ENN ENERGY HOLDINGS LIMITED,"13,863,361",1.22%
 2689,NINE DRAGONS PAPER (HOLDINGS) LIMITED,"68,231,410",1.44%
 2727,SHANGHAI ELECTRIC GROUP COMPANY LIMITED,"886,765,000",29.81%
 2768,JIAYUAN INTERNATIONAL GROUP LIMITED,"360,744,106",8.89%
 2772,ZHONGLIANG HOLDINGS GROUP COMPANY LIMITED,"43,861,500",1.21%
 2777,"GUANGZHOU R&F PROPERTIES CO., LTD.","85,409,744",2.27%
 2799,"CHINA HUARONG ASSET MANAGEMENT CO., LTD.","2,321,214,000",9.26%
 2858,YIXIN GROUP LIMITED,"42,491,000",0.66%
 2866,"COSCO SHIPPING DEVELOPMENT CO., LTD.","669,127,000",18.19%
 2869,GREENTOWN SERVICE GROUP CO. LTD.,"319,738,899",9.93%
 2877,CHINA SHINEWAY PHARMACEUTICAL GROUP LIMITED,"27,680,000",3.33%
 2880,DALIAN PORT (PDA) COMPANY LIMITED,"887,571,600",17.20%
 2883,CHINA OILFIELD SERVICES LIMITED,"276,185,627",15.24%
 2888,STANDARD CHARTERED PLC,"349,020",0.00%
 2899,"ZIJIN MINING GROUP CO., LTD.","1,652,812,483",28.80%
 2958,CARNIVAL GROUP INTERNATIONAL HOLDINGS LIMITED-OLD,"240,360,500",25.35%
 2963,WUXI BIOLOGICS (CAYMAN) INC.-TEMPORARY COUNTER,"287,803,269",7.04%
 3301,RONSHINE CHINA HOLDINGS LIMITED,"134,114,500",7.95%
 3306,JNBY DESIGN LIMITED,"20,494,500",3.95%
 3308,GOLDEN EAGLE RETAIL GROUP LIMITED,"86,094,000",5.17%
 3309,C-MER EYE CARE HOLDINGS LIMITED,"72,244,000",6.30%
 3311,CHINA STATE CONSTRUCTION INTERNATIONAL HOLDINGS LIMITED,"210,299,341",4.15%
 3319,"A-LIVING SMART CITY SERVICES CO., LTD.","4,930,250",0.36%
 3320,CHINA RESOURCES PHARMACEUTICAL GROUP LIMITED,"219,843,000",3.49%
 3323,CHINA NATIONAL BUILDING MATERIAL COMPANY LIMITED,"984,912,666",25.45%
 3328,"BANK OF COMMUNICATIONS CO., LTD.","811,619,144",2.30%
 3329,BOCOM INTERNATIONAL HOLDINGS COMPANY LIMITED,"15,001,000",0.54%
 3331,VINDA INTERNATIONAL HOLDINGS LIMITED,"17,431,000",1.44%
 3333,CHINA EVERGRANDE GROUP,"140,981,355",1.05%
 3339,LONKING HOLDINGS LIMITED,"28,773,000",0.67%
 3347,"HANGZHOU TIGERMED CONSULTING CO., LTD.","127,400",0.10%
 3360,FAR EAST HORIZON LIMITED,"95,708,000",2.40%
 3368,PARKSON RETAIL GROUP LIMITED,"5,669,500",0.21%
 3369,"QINHUANGDAO PORT CO., LTD.","84,173,500",10.13%
 3377,SINO-OCEAN GROUP HOLDING LIMITED,"186,299,344",2.44%
 3380,LOGAN GROUP COMPANY LIMITED,"149,378,528",2.70%
 3382,TIANJIN PORT DEVELOPMENT HOLDINGS LIMITED,"201,720,000",3.27%
 3383,AGILE GROUP HOLDINGS LIMITED,"47,119,548",1.19%
 3389,HENGDELI HOLDINGS LIMITED,"776,000",0.01%
 3393,WASION HOLDINGS LIMITED,"1,326,000",0.13%
 3396,LEGEND HOLDINGS CORPORATION,"85,310,200",6.70%
 3606,"FUYAO GLASS INDUSTRY GROUP CO., LTD","92,043,533",18.20%
 3613,BEIJING TONG REN TANG CHINESE MEDICINE COMPANY LIMITED,"69,919,000",8.35%
 3618,"CHONGQING RURAL COMMERCIAL BANK CO., LTD.","700,352,000",27.86%
 3633,ZHONGYU GAS HOLDINGS LIMITED,"17,070,000",0.64%
 3669,CHINA YONGDA AUTOMOBILES SERVICES HOLDINGS LIMITED,"121,621,000",
 3690,MEITUAN,"385,678,663",6.54%
 3692,HANSOH PHARMACEUTICAL GROUP COMPANY LIMITED,"40,293,000",0.68%
 3698,HUISHANG BANK CORPORATION LIMITED,"4,759,200",0.12%
 3759,"PHARMARON BEIJING CO., LTD.","20,219,465",15.08%
 3788,CHINA HANKING HOLDINGS LIMITED,"15,811,000",0.86%
 3799,DALI FOODS GROUP COMPANY LIMITED,"422,005,500",3.07%
 3800,GCL-POLY ENERGY HOLDINGS LIMITED,"3,426,340,500",16.19%
 3808,SINOTRUK (HONG KONG) LIMITED,"111,282,366",4.02%
 3813,POU SHENG INTERNATIONAL (HOLDINGS) LIMITED,"15,303,000",0.28%
 3818,"CHINA DONGXIANG (GROUP) CO., LTD.","439,973,000",7.47%
 3836,CHINA HARMONY AUTO HOLDING LIMITED,"82,035,000",5.20%
 3866,"BANK OF QINGDAO CO., LTD.","1,156,000",0.06%
 3868,XINYI ENERGY HOLDINGS LIMITED,"132,650,000",1.86%
 3877,CSSC (HONG KONG) SHIPPING COMPANY LIMITED,"5,304,000",0.08%
 3883,CHINA AOYUAN GROUP LIMITED,"174,720,000",6.45%
 3886,TOWN HEALTH INTERNATIONAL MEDICAL GROUP LIMITED,"145,736,000",1.92%
 3888,KINGSOFT CORPORATION LIMITED,"368,680,169",26.85%
 3898,"ZHUZHOU CRRC TIMES ELECTRIC CO., LTD.","48,831,906",8.92%
 3899,CIMC ENRIC HOLDINGS LIMITED,"131,440,000",6.53%
 3900,GREENTOWN CHINA HOLDINGS LIMITED,"320,822,000",12.86%
 3908,CHINA INTERNATIONAL CAPITAL CORPORATION LIMITED,"335,414,481",17.61%
 3913,KWG LIVING GROUP HOLDINGS LIMITED,"55,684,518",2.75%
 3933,"UNITED LABORATORIES INTERNATIONAL HOLDINGS LIMITED, THE","180,523,948",9.80%
 3958,DFZQ,"408,837,209",39.80%
 3968,"CHINA MERCHANTS BANK CO., LTD.","186,757,570",4.06%
 3969,CHINA RAILWAY SIGNAL & COMMUNICATION CORPORATION LIMITED,"232,485,000",11.80%
 3988,BANK OF CHINA LIMITED,"7,764,659,615",9.27%
 3990,MIDEA REAL ESTATE HOLDING LIMITED,"77,779,000",6.31%
 3993,"CHINA MOLYBDENUM CO., LTD.","290,274,500",7.36%
 3996,CHINA ENERGY ENGINEERING CORPORATION LIMITED,"10,824,000",0.11%
 3998,BOSIDENG INTERNATIONAL HOLDINGS LIMITED,"692,738,000",6.43%
 6030,CITIC SECURITIES COMPANY LIMITED,"317,778,641",13.94%
 6049,"POLY PROPERTY SERVICES CO., LTD.","63,496,066",41.41%
 6055,CHINA TOBACCO INTERNATIONAL (HK) COMPANY LIMITED,"29,821,000",4.31%
 6060,"ZHONGAN ONLINE P & C INSURANCE CO., LTD.","35,752,100",7.60%
 6066,"CSC FINANCIAL CO., LTD.","311,816,500",24.72%
 6068,WISDOM EDUCATION INTERNATIONAL HOLDINGS COMPANY LIMITED,"190,144,000",8.73%
 6069,SHENG YE CAPITAL LIMITED,"32,447,500",3.46%
 6078,"HYGEIA HEALTHCARE HOLDINGS CO., LIMITED","25,624,200",4.14%
 6088,FIT HON TENG LIMITED,"361,717,000",5.25%
 6098,COUNTRY GARDEN SERVICES HOLDINGS COMPANY LIMITED,"219,300,857",7.93%
 6099,"CHINA MERCHANTS SECURITIES CO., LTD.","255,706,740",20.05%
 6100,TONGDAO LIEPIN GROUP,"84,800",0.01%
 6110,TOPSPORTS INTERNATIONAL HOLDINGS LIMITED,"9,609,020",0.15%
 6116,"XINJIANG LA CHAPELLE FASHION CO., LTD.","68,070,200",31.68%
 6158,ZHENRO PROPERTIES GROUP LIMITED,"83,691,000",1.91%
 6160,"BEIGENE, LTD.","2,081,400",0.17%
 6166,CHINA VAST INDUSTRIAL URBAN DEVELOPMENT COMPANY LIMITED,"84,255,000",5.10%
 6169,CHINA YUHUA EDUCATION CORPORATION LIMITED,"568,983,156",17.03%
 6178,EVERBRIGHT SECURITIES COMPANY LIMITED,"89,582,600",12.72%
 6186,CHINA FEIHE LIMITED,"784,273,455",8.77%
 6196,"BANK OF ZHENGZHOU CO., LTD.","305,491,200",18.29%
 6198,"QINGDAO PORT INTERNATIONAL CO., LTD.","10,566,000",0.96%
 6806,"SHENWAN HONGYUAN GROUP CO., LTD.","263,958,400",10.54%
 6808,SUN ART RETAIL GROUP LIMITED,"66,527,023",0.68%
 6818,CHINA EVERBRIGHT BANK COMPANY LIMITED,"963,252,992",7.58%
 6828,BEIJING GAS BLUE SKY HOLDINGS LIMITED,"229,960,000",1.77%
 6837,"HAITONG SECURITIES CO., LTD.","837,221,000",24.54%
 6862,HAIDILAO INTERNATIONAL HOLDING LTD.,"138,779,330",2.61%
 6865,"FLAT GLASS GROUP CO., LTD.","113,594,768",25.24%
 6869,YANGTZE OPTICAL FIBRE AND CABLE JOINT STOCK LIMITED COMPANY,"20,466,000",5.81%
 6881,"CHINA GALAXY SECURITIES CO., LTD.","844,595,700",22.88%
 6886,"HUATAI SECURITIES CO., LTD.","473,771,446",27.55%
 6969,SMOORE INTERNATIONAL HOLDINGS LIMITED,"319,085,297",5.47%
 8328,XINYI AUTOMOBILE GLASS HONG KONG ENTERPRISES LIMITED,"93,750",0.01%
 9633,"NONGFU SPRING CO., LTD.","65,757,400",1.29%
 9909,POWERLONG COMMERCIAL MANAGEMENT HOLDINGS LIMITED,"24,577,500",3.95%
 9922,JIUMAOJIU INTERNATIONAL HOLDINGS LIMITED,"114,611,295",7.88%
 9923,YEAHKA LIMITED,"127,600",0.02%
 9928,TIMES NEIGHBORHOOD HOLDINGS LIMITED,"22,310,561",2.26%
 9968,HUIJING HOLDINGS COMPANY LIMITED,"6,998,000",0.13%
 9983,CENTRAL CHINA NEW LIFE LIMITED,"21,886,000",1.75%
 9989,"SHENZHEN HEPALINK PHARMACEUTICAL GROUP CO., LTD.","16,709,000",7.59%
 9997,KANGJI MEDICAL HOLDINGS LIMITED,"8,440,500",0.66%
