Stock Code,Stock Name,Shareholding in CCASS,Percentage of the total number of Issued Shares
    1,CK HUTCHISON HOLDINGS LIMITED,"27,548,319",0.71%
    2,CLP HOLDINGS LIMITED,"5,836,992",0.22%
    3,"HONG KONG AND CHINA GAS COMPANY LIMITED, THE","25,072,520",0.13%
    4,"WHARF (HOLDINGS) LIMITED, THE","9,369,446",0.30%
    5,HSBC HOLDINGS PLC,"1,837,635,737",8.87%
    6,POWER ASSETS HOLDINGS LIMITED,"4,599,922",0.21%
    8,PCCW LIMITED,"11,507,843",0.14%
   10,HANG LUNG GROUP LIMITED,"28,651,000",2.09%
   11,HANG SENG BANK LTD,"2,376,897",0.12%
   12,HENDERSON LAND DEVELOPMENT CO LTD,"4,214,746",0.08%
   14,HYSAN DEVELOPMENT COMPANY LIMITED,"1,117,000",0.10%
   16,SUN HUNG KAI PROPERTIES LIMITED,"7,856,404",0.26%
   17,NEW WORLD DEVELOPMENT CO LTD,"10,945,631",0.42%
   19,SWIRE PACIFIC LTD 'A',"3,506,000",0.38%
   23,BANK OF EAST ASIA LTD,"843,593",0.02%
   27,GALAXY ENTERTAINMENT GROUP LIMITED,"63,362,146",1.45%
   35,FAR EAST CONSORTIUM INTERNATIONAL LTD,"162,013",0.00%
   38,FIRST TRACTOR COMPANY LIMITED,"124,704,100",31.81%
   41,GREAT EAGLE HOLDINGS LIMITED,"1,307,511",0.17%
   42,NORTHEAST ELECTRIC DEVELOPMENT COMPANY LIMITED,"15,812,000",6.12%
   43,C.P. POKPHAND CO LTD,"840,000",0.00%
   45,"HONGKONG AND SHANGHAI HOTELS LTD,THE","42,513",0.00%
   59,SKYFAME REALTY (HOLDINGS) LIMITED,"64,008,000",0.80%
   66,MTR CORPORATION LIMITED,"6,299,116",0.09%
   69,SHANGRI-LA ASIA LIMITED,"20,014,000",0.54%
   78,REGAL HOTELS INTERNATIONAL HOLDINGS LIMITED,"12,000",0.00%
   81,CHINA OVERSEAS GRAND OCEANS GROUP LIMITED,"334,691,820",9.76%
   83,SINO LAND CO.LTD.,"3,919,976",0.05%
   86,SUN HUNG KAI & CO.LTD,"15,013,000",0.74%
   87,SWIRE PACIFIC LTD 'B',"29,100,000",0.97%
   95,LVGEM (CHINA) REAL ESTATE INVESTMENT COMPANY LIMITED,"184,824,000",3.62%
  101,HANG LUNG PROPERTIES LIMITED,"70,276,949",1.55%
  107,SICHUAN EXPRESSWAY COMPANY LIMITED,"227,294,000",25.38%
  109,GOOD RESOURCES HOLDINGS LIMITED,"44,440,000",0.62%
  116,CHOW SANG SANG HOLDINGS INTERNATIONAL LIMITED,"22,446,000",3.31%
  119,"POLY PROPERTY GROUP CO., LIMITED","391,343,748",10.67%
  120,COSMOPOLITAN INTERNATIONAL HOLDINGS LTD,"3,370,000",0.05%
  123,YUEXIU PROPERTY COMPANY LIMITED,"391,402,786",2.52%
  127,CHINESE ESTATES HOLDINGS LIMITED,"2,751,500",0.14%
  135,KUNLUN ENERGY COMPANY LIMITED,"112,623,534",1.29%
  136,HENGTEN NETWORKS GROUP LIMITED,"6,880,300,000",9.21%
  142,FIRST PACIFIC CO. LTD.,"6,990,000",0.15%
  144,CHINA MERCHANTS PORT HOLDINGS COMPANY LIMITED,"152,836,683",4.22%
  148,KINGBOARD HOLDINGS LIMITED,"14,673,136",1.32%
  151,WANT WANT CHINA HOLDINGS LIMITED,"25,385,871",0.19%
  152,SHENZHEN INTERNATIONAL HOLDINGS LIMITED,"74,183,953",3.37%
  163,EMPEROR INTERNATIONAL HOLDINGS LIMITED,"10,806,000",0.29%
  165,CHINA EVERBRIGHT LIMITED,"212,205,955",12.58%
  168,TSINGTAO BREWERY COMPANY LIMITED,"95,707,000",14.60%
  173,K. WAH INTERNATIONAL HOLDINGS LIMITED,"39,701,196",1.26%
  175,GEELY AUTOMOBILE HOLDINGS LIMITED,"728,969,940",7.42%
  177,JIANGSU EXPRESSWAY COMPANY LIMITED,"131,268,818",10.73%
  178,SA SA INTERNATIONAL HOLDINGS LIMITED,"15,053,268",0.47%
  179,JOHNSON ELECTRIC HOLDINGS LIMITED,"555,000",0.05%
  187,BEIJING JINGCHENG MACHINERY ELECTRIC COMPANY LIMITED,"27,090,000",27.09%
  189,DONGYUE GROUP LIMITED,"166,432,358",7.88%
  198,SMI HOLDINGS GROUP LIMITED,"70,340,800",2.59%
  200,MELCO INTERNATIONAL DEVELOPMENT LIMITED,"10,720,000",0.70%
  207,JOY CITY PROPERTY LIMITED,"4,364,000",0.03%
  215,HUTCHISON TELECOMMUNICATIONS HONG KONG HOLDINGS LIMITED,"11,012,000",0.22%
  220,UNI-PRESIDENT CHINA HOLDINGS LTD.,"8,830,000",0.19%
  241,ALIBABA HEALTH INFORMATION TECHNOLOGY LIMITED,"269,043,523",1.99%
  242,SHUN TAK HOLDINGS LIMITED,"87,920,000",2.90%
  245,CHINA VERED FINANCIAL HOLDING CORPORATION LIMITED,"25,120,000",0.06%
  256,CITYCHAMP WATCH & JEWELLERY GROUP LIMITED,"360,440,000",8.28%
  257,CHINA EVERBRIGHT ENVIRONMENT GROUP LIMITED,"547,548,021",8.90%
  267,CITIC LIMITED,"160,360,916",0.54%
  268,KINGDEE INTERNATIONAL SOFTWARE GROUP COMPANY LIMITED,"565,416,462",16.31%
  270,GUANGDONG INVESTMENT LIMITED,"36,708,905",0.55%
  272,SHUI ON LAND LIMITED,"766,161,000",9.49%
  279,FREEMAN FINTECH CORPORATION LIMITED,"612,286,000",32.77%
  285,BYD ELECTRONIC (INTERNATIONAL) COMPANY LIMITED,"188,579,162",8.36%
  288,WH GROUP LIMITED,"1,323,675,961",8.97%
  291,CHINA RESOURCES BEER (HOLDINGS) COMPANY LIMITED,"338,149,445",10.42%
  293,CATHAY PACIFIC AIRWAYS LTD,"25,686,026",0.38%
  295,KONG SUN HOLDINGS LIMITED,"52,325,000",0.34%
  297,SINOFERT HOLDINGS LIMITED,"358,864,000",5.10%
  302,CMGE TECHNOLOGY GROUP LIMITED,"190,380,000",8.17%
  303,VTECH HOLDINGS LIMITED,"1,480,101",0.58%
  308,CHINA TRAVEL INTERNATIONAL INVESTMENT HONG KONG LIMITED,"171,818,439",3.10%
  315,SMARTONE TELECOMMUNICATIONS HOLDINGS LIMITED,"1,628,608",0.14%
  316,ORIENT OVERSEAS (INTERNATIONAL) LIMITED,"8,500",0.00%
  317,CSSC OFFSHORE & MARINE ENGINEERING (GROUP) COMPANY LIMITED,"25,695,900",4.33%
  321,TEXWINCA HOLDINGS LIMITED,"1,004,000",0.07%
  322,TINGYI (CAYMAN ISLANDS) HOLDING CORP.,"24,920,708",0.44%
  323,MAANSHAN IRON & STEEL COMPANY LIMITED,"10,774,000",0.61%
  327,PAX GLOBAL TECHNOLOGY LIMITED,"6,400,000",0.59%
  330,ESPRIT HOLDINGS LIMITED,"11,017,000",0.57%
  336,HUABAO INTERNATIONAL HOLDINGS LIMITED,"416,657,100",13.39%
  337,GREENLAND HONG KONG HOLDINGS LIMITED,"110,543,000",3.95%
  338,SINOPEC SHANGHAI PETROCHEMICAL COMPANY LIMITED,"434,803,339",12.43%
  341,CAFE DE CORAL HOLDINGS LTD,"5,476,000",0.93%
  345,VITASOY INTERNATIONAL HOLDINGS LTD,"7,508,011",0.70%
  347,ANGANG STEEL COMPANY LIMITED,"19,411,000",1.37%
  354,CHINASOFT INTERNATIONAL LIMITED,"314,254,542",11.53%
  358,JIANGXI COPPER COMPANY LIMITED,"85,217,219",6.13%
  363,SHANGHAI INDUSTRIAL HOLDINGS LIMITED,"25,832,500",2.37%
  371,BEIJING ENTERPRISES WATER GROUP LIMITED,"267,474,010",2.66%
  378,FDG KINETIC LIMITED,"183,718,000",2.72%
  384,CHINA GAS HOLDINGS LIMITED,"35,582,843",0.68%
  386,CHINA PETROLEUM & CHEMICAL CORPORATION,"1,568,723,621",6.14%
  388,HONG KONG EXCHANGES AND CLEARING LIMITED,"54,094,261",4.26%
  390,CHINA RAILWAY GROUP LIMITED,"278,315,030",6.60%
  392,BEIJING ENTERPRISES HOLDINGS LIMITED,"82,864,982",6.56%
  400,COGOBUY GROUP,"51,318,000",3.61%
  410,SOHO CHINA LIMITED,"470,376,000",9.03%
  412,CHINA SHANDONG HI-SPEED FINANCIAL GROUP LIMITED,"9,900,000",0.04%
  419,HUAYI TENCENT ENTERTAINMENT COMPANY LIMITED,"165,140,000",1.22%
  425,MINTH GROUP LIMITED,"46,019,336",
  432,PACIFIC CENTURY PREMIUM DEVELOPMENTS LIMITED,"862,362",0.05%
  439,KUANGCHI SCIENCE LIMITED,"268,762,000",4.36%
  440,DAH SING FINANCIAL HOLDINGS LTD,"2,935,266",0.91%
  451,GCL NEW ENERGY HOLDINGS LIMITED,"1,423,766,000",7.46%
  460,SIHUAN PHARMACEUTICAL HOLDINGS GROUP LTD.,"520,287,000",5.48%
  467,UNITED ENERGY GROUP LIMITED,"138,248,000",0.51%
  468,GREATVIEW ASEPTIC PACKAGING COMPANY LIMITED,"7,719,000",0.57%
  480,HKR INTERNATIONAL LTD,"62,800",0.00%
  488,LAI SUN DEVELOPMENT COMPANY LIMITED,"30,000",0.00%
  489,DONGFENG MOTOR GROUP COMPANY LIMITED,"191,530,000",6.70%
  493,GOME RETAIL HOLDINGS LIMITED,"2,556,125,000",11.85%
  496,KASEN INTERNATIONAL HOLDINGS LIMITED,"130,103,000",8.71%
  506,CHINA FOODS LIMITED,"40,302,100",1.43%
  508,DINGYI GROUP INVESTMENT LIMITED,"381,195,000",5.18%
  511,TELEVISION BROADCASTS LIMITED,"458,000",0.09%
  512,CHINA GRAND PHARMACEUTICAL AND HEALTHCARE HOLDINGS LIMITED,"122,931,200",3.46%
  517,"COSCO SHIPPING INTERNATIONAL (HONG KONG) CO., LTD.","420,000",0.02%
  520,"XIABUXIABU CATERING MANAGEMENT (CHINA) HOLDINGS CO., LTD.","118,375,000",10.94%
  522,ASM PACIFIC TECHNOLOGY LIMITED,"13,266,825",3.23%
  525,GUANGSHEN RAILWAY COMPANY LIMITED,"378,486,010",26.44%
  530,GOLDIN FINANCIAL HOLDINGS LIMITED,"2,468,000",0.03%
  535,GEMDALE PROPERTIES AND INVESTMENT CORPORATION LIMITED,"1,993,866,154",12.08%
  546,FUFENG GROUP LIMITED,"72,040,119",2.84%
  547,DIGITAL DOMAIN HOLDINGS LIMITED,"1,017,030,000",2.98%
  548,SHENZHEN EXPRESSWAY COMPANY LIMITED,"120,464,000",16.10%
  551,YUE YUEN INDUSTRIAL (HOLDINGS) LIMITED,"5,469,793",0.33%
  552,CHINA COMMUNICATIONS SERVICES CORPORATION LIMITED,"34,040,000",1.41%
  553,NANJING PANDA ELECTRONICS COMPANY LIMITED,"59,954,000",24.77%
  563,SHANGHAI INDUSTRIAL URBAN DEVELOPMENT GROUP LIMITED,"111,085,855",2.30%
  564,ZHENGZHOU COAL MINING MACHINERY GROUP COMPANY LIMITED,"38,578,404",15.86%
  568,SHANDONG MOLONG PETROLEUM MACHINERY COMPANY LIMITED,"59,904,000",23.38%
  570,CHINA TRADITIONAL CHINESE MEDICINE HOLDINGS CO LIMITED,"642,390,938",12.75%
  576,"ZHEJIANG EXPRESSWAY CO., LTD.","72,431,759",5.04%
  579,"BEIJING JINGNENG CLEAN ENERGY CO., LIMITED","156,802,000",5.54%
  581,CHINA ORIENTAL GROUP COMPANY LIMITED,"141,198,987",3.79%
  582,LANDING INTERNATIONAL DEVELOPMENT LIMITED,"111,921,600",3.16%
  586,CHINA CONCH VENTURE HOLDINGS LIMITED,"164,939,000",9.13%
  588,BEIJING NORTH STAR COMPANY LIMITED,"227,012,000",32.10%
  590,LUK FOOK HOLDINGS (INTERNATIONAL) LIMITED,"2,612,000",0.44%
  598,SINOTRANS LIMITED,"328,162,000",15.29%
  604,SHENZHEN INVESTMENT LIMITED,"44,425,579",0.49%
  607,FULLSHARE HOLDINGS LIMITED,"4,718,255,000",23.93%
  612,CHINA DING YI FENG HOLDINGS LIMITED,"2,216,000",0.16%
  631,SANY HEAVY EQUIPMENT INTERNATIONAL HOLDINGS COMPANY LIMITED,"190,548,000",6.10%
  636,KERRY LOGISTICS NETWORK LIMITED,"1,159,000",0.05%
  639,SHOUGANG FUSHAN RESOURCES GROUP LIMITED,"84,315,273",1.66%
  656,FOSUN INTERNATIONAL LIMITED,"997,854,424",11.73%
  658,"CHINA HIGH SPEED TRANSMISSION EQUIPMENT GROUP CO., LTD.","176,570,000",10.79%
  659,NWS HOLDINGS LIMITED,"7,778,471",0.19%
  665,HAITONG INTERNATIONAL SECURITIES GROUP LIMITED,"269,958,840",4.46%
  667,CHINA EAST EDUCATION HOLDINGS LIMITED,"127,040,500",5.78%
  669,TECHTRONIC INDUSTRIES CO. LTD.,"7,189,970",0.39%
  670,CHINA EASTERN AIRLINES CORPORATION LIMITED,"285,177,567",5.50%
  680,NAN HAI CORPORATION LIMITED,"485,600,000",0.70%
  683,KERRY PROPERTIES LIMITED,"3,368,624",0.22%
  686,"BEIJING ENERGY INTERNATIONAL HOLDING CO., LTD","295,010,000",1.31%
  687,TYSAN HOLDINGS LIMITED,"29,070,000",0.86%
  688,CHINA OVERSEAS LAND & INVESTMENT LIMITED,"61,495,087",0.55%
  691,CHINA SHANSHUI CEMENT GROUP LIMITED,"4,078,000",0.09%
  694,BEIJING CAPITAL INTERNATIONAL AIRPORT COMPANY LIMITED,"364,653,672",19.39%
  696,TRAVELSKY TECHNOLOGY LIMITED,"37,080,000",3.97%
  697,SHOUCHENG HOLDINGS LIMITED,"43,618,010",0.61%
  698,TONGDA GROUP HOLDINGS LIMITED,"156,160,000",2.40%
  699,CAR INC.,"163,563,001",7.70%
  700,TENCENT HOLDINGS LIMITED,"328,428,375",3.42%
  709,GIORDANO INTERNATIONAL LIMITED,"2,100,000",0.13%
  715,CHINA OCEANWIDE HOLDINGS LIMITED,"456,000",0.00%
  718,TAI UNITED HOLDINGS LIMITED,"20,050,000",0.38%
  719,SHANDONG XINHUA PHARMACEUTICAL COMPANY LIMITED,"68,503,036",35.12%
  721,CHINA FINANCIAL INTERNATIONAL INVESTMENTS LIMITED,"304,790,000",2.77%
  728,CHINA TELECOM CORPORATION LIMITED,"304,533,238",2.18%
  729,FDG ELECTRIC VEHICLES LIMITED,"70,130,750",2.79%
  732,TRULY INTERNATIONAL HOLDINGS LIMITED,"300,086,000",9.11%
  737,SZ INVESTMENT HLDGS BAY AREA DEV CO LTD -HKD TRADED SHARES,"1,431,500",0.04%
  743,ASIA CEMENT (CHINA) HOLDINGS CORPORATION,"32,528,000",2.07%
  751,SKYWORTH GROUP LIMITED,"163,063,429",6.10%
  753,AIR CHINA LIMITED,"365,634,449",8.00%
  754,HOPSON DEVELOPMENT HOLDINGS LIMITED,"53,464,000",2.41%
  762,CHINA UNICOM (HONG KONG) LIMITED,"317,030,000",1.03%
  763,ZTE CORPORATION,"191,558,578",25.35%
  772,CHINA LITERATURE LIMITED,"70,514,418",6.93%
  775,"CK LIFE SCIENCES INT'L., (HOLDINGS) INC.","18,334,000",0.19%
  777,NETDRAGON WEBSOFT HOLDINGS LIMITED,"25,154,500",4.45%
  780,TONGCHENG-ELONG HOLDINGS LIMITED,"18,525,200",0.84%
  787,GLOBAL BRANDS GROUP HOLDING LIMITED,"66,332,633",6.44%
  788,CHINA TOWER CORPORATION LIMITED,"1,973,674,140",4.22%
  799,IGG INC,"95,100,298",7.72%
  806,VALUE PARTNERS GROUP LIMITED,"61,540,405",3.31%
  811,"XINHUA WINSHARE PUBLISHING AND MEDIA CO., LTD.","81,325,000",18.39%
  813,SHIMAO GROUP HOLDINGS LIMITED,"77,130,072",2.17%
  817,CHINA JINMAO HOLDINGS GROUP LIMITED,"1,001,927,130",7.86%
  819,TIANNENG POWER INTERNATIONAL LIMITED,"224,439,000",19.93%
  826,TIANGONG INTERNATIONAL COMPANY LIMITED,"74,228,000",2.89%
  829,SHENGUAN HOLDINGS (GROUP) LIMITED,"140,358,000",4.34%
  832,CENTRAL CHINA REAL ESTATE LIMITED,"130,302,000",4.60%
  836,CHINA RESOURCES POWER HOLDINGS COMPANY LIMITED,"223,652,335",4.64%
  839,CHINA EDUCATION GROUP HOLDINGS LIMITED,"100,796,655",4.68%
  845,GLORIOUS PROPERTY HOLDINGS LIMITED,"22,344,000",0.28%
  846,MINGFA GROUP (INTERNATIONAL) COMPANY LIMITED,"5,261,000",0.08%
  853,MICROPORT SCIENTIFIC CORPORATION,"230,500,827",12.76%
  855,CHINA WATER AFFAIRS GROUP LIMITED,"170,235,357",10.69%
  856,VSTECS HOLDINGS LIMITED,"16,186,000",1.11%
  857,PETROCHINA COMPANY LIMITED,"1,659,326,455",7.85%
  860,APOLLO FUTURE MOBILITY GROUP LIMITED,"28,832,000",0.40%
  861,DIGITAL CHINA HOLDINGS LIMITED,"657,729,150",39.31%
  867,CHINA MEDICAL SYSTEM HOLDINGS LIMITED,"34,683,618",1.39%
  868,XINYI GLASS HOLDINGS LIMITED,"218,277,443",5.40%
  874,"GUANGZHOU BAIYUNSHAN PHARMACEUTICAL HOLDINGS CO., LTD.","69,594,100",31.64%
  880,SJM HOLDINGS LIMITED,"254,102,700",4.46%
  881,ZHONGSHENG GROUP HOLDINGS LIMITED,"45,986,000",2.01%
  883,CNOOC LIMITED,"436,860,543",0.97%
  884,CIFI HOLDINGS (GROUP) CO. LTD.,"377,262,542",4.58%
  885,RENTIAN TECHNOLOGY HOLDINGS LIMITED,"1,110,000",0.01%
  895,DONGJIANG ENVIRONMENTAL COMPANY LIMITED,"62,795,800",31.37%
  902,"HUANENG POWER INTERNATIONAL, INC.","2,048,991,004",43.59%
  906,CPMC HOLDINGS LIMITED,"14,914,000",1.33%
  911,QIANHAI HEALTH HOLDINGS LIMITED,"90,780,750",5.35%
  914,ANHUI CONCH CEMENT COMPANY LIMITED,"49,518,289",3.80%
  916,CHINA LONGYUAN POWER GROUP CORPORATION LIMITED,"202,294,000",6.05%
  921,"HISENSE HOME APPLIANCES GROUP CO., LTD.","41,740,459",9.08%
  931,CHINA LNG GROUP LIMITED,"168,717,000",2.98%
  933,BRIGHTOIL PETROLEUM (HOLDINGS) LIMITED,"25,254,000",0.24%
  934,SINOPEC KANTONS HOLDINGS LIMITED,"173,762,000",6.97%
  939,CHINA CONSTRUCTION BANK CORPORATION,"26,044,112,450",10.83%
  941,CHINA MOBILE LIMITED,"84,889,224",0.41%
  950,LEE'S PHARMACEUTICAL HOLDINGS LIMITED,"1,356,500",0.23%
  951,CHAOWEI POWER HOLDINGS LIMITED,"100,350,000",9.08%
  956,CHINA SUNTIEN GREEN ENERGY CORPORATION LIMITED,"227,353,000",12.35%
  960,LONGFOR GROUP HOLDINGS LIMITED,"169,789,993",2.82%
  966,CHINA TAIPING INSURANCE HOLDINGS COMPANY LIMITED,"502,824,574",13.98%
  967,SOUND GLOBAL LTD.,"289,000",0.01%
  968,XINYI SOLAR HOLDINGS LIMITED,"1,030,625,640",12.10%
  976,CHIHO ENVIRONMENTAL GROUP LIMITED,"213,500,000",13.30%
  978,CHINA MERCHANTS LAND LIMITED,"181,562,000",3.70%
  981,SEMICONDUCTOR MANUFACTURING INTERNATIONAL CORPORATION,"1,023,759,533",13.29%
  989,GROUND INTERNATIONAL DEVELOPMENT LIMITED,"136,825,000",2.29%
  991,"DATANG INTERNATIONAL POWER GENERATION CO.,LTD.","362,664,000",5.93%
  992,LENOVO GROUP LIMITED,"98,987,882",0.81%
  995,ANHUI EXPRESSWAY COMPANY LIMITED,"113,918,000",23.10%
  996,CARNIVAL GROUP INTERNATIONAL HOLDINGS LIMITED,"6,099,442,500",25.73%
  998,CHINA CITIC BANK CORPORATION LIMITED,"2,644,291,758",17.76%
 1028,C.BANNER INTERNATIONAL HOLDINGS LIMITED,"143,864,000",6.92%
 1030,SEAZEN GROUP LIMITED,"296,602,000",4.76%
 1031,KINGSTON FINANCIAL GROUP LIMITED,"548,000",0.00%
 1033,SINOPEC OILFIELD SERVICE CORPORATION,"389,538,000",7.18%
 1038,CK INFRASTRUCTURE HOLDINGS LIMITED,"10,727,000",0.40%
 1044,HENGAN INTERNATIONAL GROUP COMPANY LIMITED,"19,614,105",1.64%
 1052,YUEXIU TRANSPORT INFRASTRUCTURE LIMITED,"78,945,238",4.71%
 1053,CHONGQING IRON & STEEL COMPANY LIMITED,"98,924,000",18.37%
 1055,CHINA SOUTHERN AIRLINES COMPANY LIMITED,"291,190,470",6.80%
 1057,ZHEJIANG SHIBAO COMPANY LIMITED,"55,388,000",25.54%
 1060,ALIBABA PICTURES GROUP LIMITED,"3,485,368,620",12.98%
 1065,TIANJIN CAPITAL ENVIRONMENTAL PROTECTION GROUP COMPANY LIMITED,"115,240,100",33.88%
 1066,SHANDONG WEIGAO GROUP MEDICAL POLYMER COMPANY LIMITED,"733,672,375",16.21%
 1068,CHINA YURUN FOOD GROUP LIMITED,"18,047,000",0.99%
 1070,TCL ELECTRONICS HOLDINGS LIMITED,"128,402,666",5.26%
 1071,HUADIAN POWER INTERNATIONAL CORPORATION LIMITED,"774,119,855",45.07%
 1072,DONGFANG ELECTRIC CORPORATION LIMITED,"88,142,516",25.92%
 1076,IMPERIAL PACIFIC INTERNATIONAL HOLDINGS LIMITED,"387,060,000",0.27%
 1083,TOWNGAS CHINA COMPANY LIMITED,"19,228,481",0.64%
 1086,GOODBABY INTERNATIONAL HOLDINGS LIMITED,"22,726,000",1.36%
 1088,CHINA SHENHUA ENERGY COMPANY LIMITED,"936,501,825",27.55%
 1089,LEYOU TECHNOLOGIES HOLDINGS LIMITED,"8,755,000",0.28%
 1093,CSPC PHARMACEUTICAL GROUP LIMITED,"476,323,655",6.35%
 1097,I-CABLE COMMUNICATIONS LIMITED,"81,191",0.00%
 1098,ROAD KING INFRASTRUCTURE LIMITED,"11,354,000",1.51%
 1099,SINOPHARM GROUP CO. LTD.,"68,473,109",5.09%
 1108,LUOYANG GLASS COMPANY LIMITED,"95,004,000",37.99%
 1109,CHINA RESOURCES LAND LIMITED,"114,903,763",1.60%
 1111,CHONG HING BANK LIMITED,"1,022,500",0.10%
 1112,HEALTH AND HAPPINESS (H&H) INTERNATIONAL HOLDINGS LIMITED,"38,603,500",5.98%
 1113,CK ASSET HOLDINGS LIMITED,"13,094,533",0.34%
 1114,BRILLIANCE CHINA AUTOMOTIVE HOLDINGS LIMITED,"94,207,386",1.86%
 1115,TIBET WATER RESOURCES LTD.,"161,107,000",6.27%
 1117,CHINA MODERN DAIRY HOLDINGS LTD.,"255,125,000",3.94%
 1119,IDREAMSKY TECHNOLOGY HOLDINGS LIMITED,"37,726,400",2.97%
 1128,"WYNN MACAU, LIMITED","65,040,400",1.25%
 1131,AGRITRADE RESOURCES LIMITED,"583,090,000",9.14%
 1138,"COSCO SHIPPING ENERGY TRANSPORTATION CO., LTD.","188,064,003",14.50%
 1140,OP FINANCIAL LIMITED,"97,520,000",3.36%
 1141,CMBC CAPITAL HOLDINGS LIMITED,"647,000,000",1.35%
 1157,"ZOOMLION HEAVY INDUSTRY SCIENCE AND TECHNOLOGY CO., LTD.","35,950,522",2.58%
 1165,SHUNFENG INTERNATIONAL CLEAN ENERGY LIMITED,"324,796,000",6.51%
 1169,"HAIER ELECTRONICS GROUP CO., LTD.","121,240,382",4.29%
 1171,YANZHOU COAL MINING COMPANY LIMITED,"316,561,995",16.65%
 1176,ZHUGUANG HOLDINGS GROUP COMPANY LIMITED,"236,248,000",3.28%
 1177,SINO BIOPHARMACEUTICAL LIMITED,"1,672,838,612",8.86%
 1186,CHINA RAILWAY CONSTRUCTION CORPORATION LIMITED,"101,445,690",4.87%
 1188,HYBRID KINETIC GROUP LIMITED,"102,914,000",0.50%
 1193,CHINA RESOURCES GAS GROUP LIMITED,"8,660,000",0.36%
 1196,REALORD GROUP HOLDINGS LIMITED,"123,266,000",8.57%
 1199,COSCO SHIPPING PORTS LIMITED,"18,262,995",0.55%
 1205,CITIC RESOURCES HOLDINGS LIMITED,"165,938,100",2.10%
 1208,MMG LIMITED,"308,498,000",3.82%
 1211,BYD COMPANY LIMITED,"70,845,410",7.74%
 1212,LIFESTYLE INTERNATIONAL HOLDINGS LIMITED,"3,764,666",0.24%
 1230,YASHILI INTERNATIONAL HOLDINGS LTD,"78,586,000",1.65%
 1233,TIMES CHINA HOLDINGS LIMITED,"80,085,757",4.11%
 1234,CHINA LILANG LIMITED,"69,799,000",5.82%
 1238,POWERLONG REAL ESTATE HOLDINGS LIMITED,"128,141,116",3.08%
 1250,BEIJING ENTERPRISES CLEAN ENERGY GROUP LIMITED,"1,610,420,000",2.53%
 1253,CHINA GREENLAND BROAD GREENSTATE GROUP COMPANY LIMITED,"6,428,000",0.19%
 1257,CHINA EVERBRIGHT GREENTECH LIMITED,"155,471,000",7.52%
 1268,CHINA MEIDONG AUTO HOLDINGS LIMITED,"58,680,000",4.71%
 1269,CHINA FIRST CAPITAL GROUP LIMITED,"1,774,220,000",35.29%
 1282,GLORY SUN FINANCIAL GROUP LIMITED,"4,231,716,000",13.47%
 1286,IMPRO PRECISION INDUSTRIES LIMITED,"1,156,000",0.06%
 1288,AGRICULTURAL BANK OF CHINA LIMITED,"8,375,972,668",27.23%
 1293,GRAND BAOXIN AUTO GROUP LIMITED,"133,104,337",4.68%
 1299,AIA GROUP LIMITED,"87,185,399",0.71%
 1302,LIFETECH SCIENTIFIC CORPORATION,"730,154,000",16.86%
 1308,SITC INTERNATIONAL HOLDINGS COMPANY LIMITED,"38,653,000",1.44%
 1310,HKBN LTD.,"4,078,500",0.30%
 1313,CHINA RESOURCES CEMENT HOLDINGS LIMITED,"49,615,747",0.70%
 1315,VISION FAME INTERNATIONAL HOLDING LIMITED,"716,498,000",11.93%
 1316,NEXTEER AUTOMOTIVE GROUP LIMITED,"40,652,000",1.61%
 1317,CHINA MAPLE LEAF EDUCATIONAL SYSTEMS LIMITED,"423,353,230",14.13%
 1330,"DYNAGREEN ENVIRONMENTAL PROTECTION GROUP CO., LTD","155,506,000",38.45%
 1333,CHINA ZHONGWANG HOLDINGS LIMITED,"374,224,400",6.86%
 1336,NEW CHINA LIFE INSURANCE COMPANY LTD.,"330,947,040",31.99%
 1339,"PEOPLE'S INSURANCE COMPANY (GROUP) OF CHINA LIMITED, THE","1,746,570,987",20.00%
 1347,HUA HONG SEMICONDUCTOR LIMITED,"79,799,681",6.15%
 1357,"MEITU, INC.","326,523,600",7.56%
 1359,"CHINA CINDA ASSET MANAGEMENT CO., LTD.","2,602,488,457",19.17%
 1361,361 DEGREES INTERNATIONAL LIMITED,"28,663,000",1.38%
 1363,CT ENVIRONMENTAL GROUP LIMITED,"502,874,000",7.95%
 1368,XTEP INTERNATIONAL HOLDINGS LIMITED,"94,523,503",3.75%
 1375,"CENTRAL CHINA SECURITIES CO., LTD.","302,104,000",25.26%
 1378,CHINA HONGQIAO GROUP LIMITED,"493,807,910",5.75%
 1381,CANVEST ENVIRONMENTAL PROTECTION GROUP COMPANY LIMITED,"27,513,000",1.12%
 1382,PACIFIC TEXTILES HOLDINGS LIMITED,"29,038,000",2.05%
 1383,SUNCITY GROUP HOLDINGS LIMITED,"30,860,000",0.46%
 1387,CHINA DILI GROUP,"149,126,470",1.76%
 1398,INDUSTRIAL AND COMMERCIAL BANK OF CHINA LIMITED,"24,204,989,103",27.87%
 1432,CHINA SHENGMU ORGANIC MILK LIMITED,"96,124,000",1.13%
 1448,FU SHOU YUAN INTERNATIONAL GROUP LIMITED,"273,021,677",11.87%
 1456,"GUOLIAN SECURITIES CO., LTD.","48,323,500",10.91%
 1458,ZHOU HEI YA INTERNATIONAL HOLDINGS COMPANY LIMITED,"369,341,000",15.49%
 1475,NISSIN FOODS COMPANY LIMITED,"254,000",0.02%
 1478,Q TECHNOLOGY (GROUP) COMPANY LIMITED,"44,775,000",3.81%
 1508,CHINA REINSURANCE (GROUP) CORPORATION,"904,396,000",13.53%
 1513,LIVZON PHARMACEUTICAL GROUP INC.,"40,483,688",12.65%
 1515,CHINA RESOURCES MEDICAL HOLDINGS COMPANY LIMITED,"65,816,600",5.06%
 1521,FRONTAGE HOLDINGS CORPORATION,"241,938,000",11.89%
 1528,RED STAR MACALLINE GROUP CORPORATION LTD.,"133,199,091",17.95%
 1530,3SBIO INC.,"230,330,157",9.05%
 1533,"LANZHOU ZHUANGYUAN PASTURE CO., LTD.","7,929,000",22.57%
 1548,GENSCRIPT BIOTECH CORPORATION,"240,138,000",12.48%
 1551,"GUANGZHOU RURAL COMMERCIAL BANK CO., LTD","2,414,000",0.13%
 1558,"YICHANG HEC CHANGJIANG PHARMACEUTICAL CO., LTD.","181,838,200",27.81%
 1569,MINSHENG EDUCATION GROUP COMPANY LIMITED,"230,473,025",5.46%
 1573,SOUTHERN ENERGY HOLDINGS GROUP LIMITED,"126,862,000",17.66%
 1578,"BANK OF TIANJIN CO., LTD.","34,000",0.00%
 1579,YIHAI INTERNATIONAL HOLDING LTD.,"107,968,049",10.31%
 1583,QINQIN FOODSTUFFS GROUP (CAYMAN) COMPANY LIMITED,"24,400",0.00%
 1585,YADEA GROUP HOLDINGS LTD.,"255,110,000",8.51%
 1589,"CHINA LOGISTICS PROPERTY HOLDINGS CO., LTD","5,071,000",0.15%
 1600,CHINA TIAN LUN GAS HOLDINGS LIMITED,"16,856,000",1.67%
 1606,"CHINA DEVELOPMENT BANK FINANCIAL LEASING CO., LTD.","316,000",0.01%
 1608,VPOWER GROUP INTERNATIONAL HOLDINGS LIMITED,"4,895,000",0.18%
 1610,COFCO MEAT HOLDINGS LIMITED,"699,691,000",17.93%
 1618,METALLURGICAL CORPORATION OF CHINA LTD.,"476,254,000",16.58%
 1622,REDCO PROPERTIES GROUP LIMITED,"227,022,000",6.39%
 1628,YUZHOU GROUP HOLDINGS COMPANY LIMITED,"71,700,271",1.28%
 1635,"SHANGHAI DAZHONG PUBLIC UTILITIES (GROUP) CO., LTD.","82,548,000",15.45%
 1636,CHINA METAL RESOURCES UTILIZATION LIMITED,"34,616,000",1.31%
 1638,KAISA GROUP HOLDINGS LTD.,"542,545,764",8.83%
 1658,"POSTAL SAVINGS BANK OF CHINA CO., LTD.","410,110,845",2.05%
 1661,WISDOM SPORTS GROUP,"6,217,000",0.39%
 1666,TONG REN TANG TECHNOLOGIES CO LTD,"180,151,200",28.65%
 1668,CHINA SOUTH CITY HOLDINGS LIMITED,"846,759,543",10.46%
 1675,ASIAINFO TECHNOLOGIES LIMITED,"1,749,200",0.19%
 1680,MACAU LEGEND DEVELOPMENT LIMITED,"114,319,000",1.83%
 1681,CONSUN PHARMACEUTICAL GROUP LIMITED,"21,715,000",2.59%
 1685,BOER POWER HOLDINGS LIMITED,"2,195,000",0.28%
 1686,SUNEVISION HOLDINGS LIMITED,"2,514,000",0.10%
 1691,JS GLOBAL LIFESTYLE COMPANY LIMITED,"25,860,000",0.74%
 1717,AUSNUTRIA DAIRY CORPORATION LTD,"111,864,000",6.51%
 1728,CHINA ZHENGTONG AUTO SERVICES HOLDINGS LIMITED,"448,146,000",16.60%
 1761,BABYTREE GROUP,"5,895,500",0.35%
 1765,"HOPE EDUCATION GROUP CO., LTD.","842,020,580",11.64%
 1766,CRRC CORPORATION LIMITED,"367,167,070",8.39%
 1772,"GANFENG LITHIUM CO., LTD.","127,099,497",52.90%
 1773,TIANLI EDUCATION INTERNATIONAL HOLDINGS LIMITED,"186,529,000",8.98%
 1776,"GF SECURITIES CO., LTD.","535,107,500",31.44%
 1777,"FANTASIA HOLDINGS GROUP CO., LIMITED","410,563,000",7.11%
 1778,"COLOUR LIFE SERVICES GROUP CO., LIMITED","68,030,702",4.67%
 1787,"SHANDONG GOLD MINING CO., LTD.","165,934,868",23.71%
 1788,GUOTAI JUNAN INTERNATIONAL HOLDINGS LIMITED,"228,469,110",2.36%
 1789,AK MEDICAL HOLDINGS LIMITED,"109,220,000",9.79%
 1797,KOOLEARN TECHNOLOGY HOLDING LIMITED,"139,157,118",14.79%
 1800,CHINA COMMUNICATIONS CONSTRUCTION COMPANY LIMITED,"594,913,000",13.42%
 1801,"INNOVENT BIOLOGICS, INC.","68,199,500",4.86%
 1806,HUIFU PAYMENT LIMITED,"13,333,200",1.02%
 1810,XIAOMI CORPORATION,"2,239,685,446",9.27%
 1811,"CGN NEW ENERGY HOLDINGS CO., LTD.","83,224,000",1.93%
 1812,SHANDONG CHENMING PAPER HOLDINGS LIMITED,"106,344,950",20.12%
 1813,KWG GROUP HOLDINGS LIMITED,"161,271,165",5.06%
 1816,"CGN POWER CO., LTD","2,460,911,000",22.03%
 1817,MULSANNE GROUP HOLDING LIMITED,"22,500",0.00%
 1818,ZHAOJIN MINING INDUSTRY COMPANY LIMITED,"127,777,872",4.89%
 1829,CHINA MACHINERY ENGINEERING CORPORATION,"131,000",0.01%
 1833,PING AN HEALTHCARE AND TECHNOLOGY COMPANY LIMITED,"95,494,300",8.31%
 1836,STELLA INTERNATIONAL HOLDINGS LIMITED,"479,000",0.06%
 1848,CHINA AIRCRAFT LEASING GROUP HOLDINGS LIMITED,"13,034,549",1.84%
 1860,MOBVISTA INC.,"14,948,000",0.97%
 1873,VIVA BIOTECH HOLDINGS,"427,476,500",22.37%
 1876,BUDWEISER BREWING COMPANY APAC LIMITED,"12,767,216",0.08%
 1882,HAITIAN INTERNATIONAL HOLDINGS LIMITED,"32,411,000",2.02%
 1883,CITIC TELECOM INTERNATIONAL HOLDINGS LIMITED,"13,383,000",0.36%
 1886,CHINA HUIYUAN JUICE GROUP LIMITED,"125,355,500",4.69%
 1888,KINGBOARD LAMINATES HOLDINGS LIMITED,"15,238,935",0.48%
 1890,CHINA KEPEI EDUCATION GROUP LIMITED,"133,413,475",6.62%
 1896,MAOYAN ENTERTAINMENT,"36,219,200",3.18%
 1898,CHINA COAL ENERGY COMPANY LIMITED,"431,662,000",10.51%
 1905,"HAITONG UNITRUST INTERNATIONAL FINANCIAL LEASING CO., LTD.","39,820,000",0.68%
 1907,CHINA RISUN GROUP LIMITED,"29,424,000",0.71%
 1908,C&D INTERNATIONAL INVESTMENT GROUP LIMITED,"77,421,000",6.57%
 1911,CHINA RENAISSANCE HOLDINGS LIMITED,"16,240,600",3.03%
 1916,"JIANGXI BANK CO., LTD.","10,789,000",0.80%
 1918,SUNAC CHINA HOLDINGS LIMITED,"788,199,104",16.90%
 1919,"COSCO SHIPPING HOLDINGS CO., LTD.","461,235,000",17.87%
 1928,SANDS CHINA LTD.,"65,362,932",0.79%
 1929,CHOW TAI FOOK JEWELLERY GROUP LIMITED,"47,400,800",0.47%
 1951,JINXIN FERTILITY GROUP LIMITED,"428,347,600",17.62%
 1958,BAIC MOTOR CORPORATION LIMITED,"94,089,000",3.72%
 1963,"BANK OF CHONGQING CO., LTD.","118,467,500",7.50%
 1966,CHINA SCE GROUP HOLDINGS LIMITED,"166,440,054",3.94%
 1970,"IMAX CHINA HOLDING, INC.","8,081,000",2.31%
 1972,SWIRE PROPERTIES LIMITED,"2,010,800",0.02%
 1980,TIAN GE INTERACTIVE HOLDINGS LIMITED,"25,287,000",1.97%
 1988,"CHINA MINSHENG BANKING CORP., LTD.","1,168,205,569",14.03%
 1992,FOSUN TOURISM GROUP,"800,000",0.05%
 1995,EVER SUNSHINE LIFESTYLE SERVICES GROUP LIMITED,"51,808,000",3.10%
 1996,REDSUN PROPERTIES GROUP LIMITED,"69,551,000",2.09%
 1997,WHARF REAL ESTATE INVESTMENT COMPANY LIMITED,"5,037,425",0.15%
 1999,MAN WAH HOLDINGS LIMITED,"758,591,915",19.94%
 2001,CHINA NEW HIGHER EDUCATION GROUP LIMITED,"125,162,621",7.89%
 2003,VCREDIT HOLDINGS LIMITED,"2,141,000",0.43%
 2005,SSY GROUP LIMITED,"316,162,059",10.47%
 2007,COUNTRY GARDEN HOLDINGS COMPANY LIMITED,"266,064,762",1.20%
 2008,PHOENIX MEDIA INVESTMENT (HOLDINGS) LIMITED,"205,014,000",4.10%
 2009,BBMG CORPORATION,"306,191,500",13.08%
 2013,WEIMOB INC.,"490,773,416",21.76%
 2016,"CHINA ZHESHANG BANK CO., LTD.","39,662,000",0.86%
 2018,AAC TECHNOLOGIES HOLDINGS INC.,"73,445,273",6.07%
 2019,DEXIN CHINA HOLDINGS COMPANY LIMITED,"31,250,000",1.15%
 2020,ANTA SPORTS PRODUCTS LIMITED,"209,333,591",7.73%
 2038,FIH MOBILE LIMITED,"118,802,000",1.45%
 2039,"CHINA INTERNATIONAL MARINE CONTAINERS (GROUP) CO., LTD.","219,547,380",10.65%
 2048,E-HOUSE (CHINA) ENTERPRISE HOLDINGS LIMITED,"12,592,800",0.90%
 2051,51 CREDIT CARD INC.,"45,713,000",3.36%
 2066,"SHENGJING BANK CO., LTD.","195,000",0.00%
 2068,CHINA ALUMINUM INTERNATIONAL ENGINEERING CORPORATION LIMITED,"11,077,000",2.77%
 2098,ZALL SMART COMMERCE GROUP LTD.,"31,698,000",0.26%
 2099,CHINA GOLD INTERNATIONAL RESOURCES CORP. LTD.,"13,229,600",3.33%
 2103,SINIC HOLDINGS (GROUP) COMPANY LIMITED,"750,000",0.02%
 2111,BEST PACIFIC INTERNATIONAL HOLDINGS LIMITED,"1,378,000",0.13%
 2128,CHINA LESSO GROUP HOLDINGS LIMITED,"61,978,573",1.99%
 2136,LIFESTYLE CHINA GROUP LIMITED,"282,000",0.01%
 2186,LUYE PHARMA GROUP LTD.,"474,201,000",14.58%
 2196,"SHANGHAI FOSUN PHARMACEUTICAL (GROUP) CO., LTD.","197,854,857",35.83%
 2199,REGINA MIRACLE INTERNATIONAL (HOLDINGS) LIMITED,"2,902,000",0.23%
 2202,"CHINA VANKE CO., LTD.","249,036,647",13.15%
 2208,"XINJIANG GOLDWIND SCIENCE & TECHNOLOGY CO., LTD.","80,820,122",10.44%
 2232,CRYSTAL INTERNATIONAL GROUP LIMITED,"3,459,500",0.11%
 2233,WEST CHINA CEMENT LIMITED,"511,754,000",9.40%
 2238,"GUANGZHOU AUTOMOBILE GROUP CO., LTD.","1,061,472,958",34.25%
 2255,HAICHANG OCEAN PARK HOLDINGS LTD.,"347,117,000",8.67%
 2269,WUXI BIOLOGICS (CAYMAN) INC.,"100,418,245",7.38%
 2280,HC GROUP INC.,"104,273,500",7.96%
 2282,MGM CHINA HOLDINGS LIMITED,"26,255,096",0.68%
 2298,COSMO LADY (CHINA) HOLDINGS COMPANY LIMITED,"11,330,000",0.49%
 2313,SHENZHOU INTERNATIONAL GROUP HOLDINGS LIMITED,"52,904,562",3.51%
 2314,LEE & MAN PAPER MANUFACTURING LIMITED,"20,342,825",0.46%
 2318,"PING AN INSURANCE (GROUP) COMPANY OF CHINA, LTD.","152,227,877",2.04%
 2319,CHINA MENGNIU DAIRY COMPANY LIMITED,"71,598,994",1.80%
 2326,NEW PROVENANCE EVERLASTING HOLDINGS LIMITED,"55,940,000",0.25%
 2328,PICC PROPERTY AND CASUALTY COMPANY LIMITED,"500,736,169",7.25%
 2329,GUORUI PROPERTIES LIMITED,"156,037,000",3.50%
 2331,LI NING COMPANY LIMITED,"124,586,516",5.00%
 2333,GREAT WALL MOTOR COMPANY LIMITED,"1,120,006,665",36.13%
 2338,"WEICHAI POWER CO., LTD.","48,246,000",2.48%
 2342,COMBA TELECOM SYSTEMS HOLDINGS LIMITED,"2,106,000",0.07%
 2343,PACIFIC BASIN SHIPPING LIMITED,"8,152,000",0.17%
 2356,DAH SING BANKING GROUP LIMITED,"232,000",0.01%
 2357,AVICHINA INDUSTRY & TECHNOLOGY COMPANY LIMITED,"413,562,000",6.65%
 2359,"WUXI APPTEC CO., LTD.","22,692,034",7.39%
 2362,JINCHUAN GROUP INTERNATIONAL RESOURCES CO. LTD.,"68,483,000",0.54%
 2363,TONGDA HONG TAI HOLDINGS LIMITED,"340,962",0.17%
 2369,COOLPAD GROUP LIMITED,"38,764,000",0.64%
 2380,CHINA POWER INTERNATIONAL DEVELOPMENT LIMITED,"580,142,034",5.91%
 2382,SUNNY OPTICAL TECHNOLOGY (GROUP) COMPANY LIMITED,"103,220,305",9.40%
 2386,"SINOPEC ENGINEERING (GROUP) CO., LTD.","37,316,000",2.54%
 2388,BOC HONG KONG (HOLDINGS) LIMITED,"13,152,945",0.11%
 2400,XD INC.,"59,387,500",13.07%
 2588,BOC AVIATION LIMITED,"12,637,258",1.81%
 2600,ALUMINUM CORPORATION OF CHINA LIMITED,"287,214,000",7.27%
 2601,CHINA PACIFIC INSURANCE (GROUP) CO. LTD.,"775,932,031",27.95%
 2607,"SHANGHAI PHARMACEUTICALS HOLDING CO., LTD.","104,060,306",11.31%
 2611,"GUOTAI JUNAN SECURITIES CO., LTD.","115,041,600",8.26%
 2628,CHINA LIFE INSURANCE COMPANY LIMITED,"261,334,093",3.50%
 2662,CAMSING INTERNATIONAL HOLDING LIMITED,"132,096,000",12.26%
 2666,GENERTEC UNIVERSAL MEDICAL GROUP COMPANY LIMITED,"326,295,000",19.01%
 2669,CHINA OVERSEAS PROPERTY HOLDINGS LIMITED,"379,672,275",11.55%
 2678,TEXHONG TEXTILE GROUP LIMITED,"32,758,000",3.58%
 2688,ENN ENERGY HOLDINGS LIMITED,"13,416,761",1.18%
 2689,NINE DRAGONS PAPER (HOLDINGS) LIMITED,"69,652,410",1.47%
 2727,SHANGHAI ELECTRIC GROUP COMPANY LIMITED,"854,339,000",28.73%
 2768,JIAYUAN INTERNATIONAL GROUP LIMITED,"361,277,183",8.90%
 2772,ZHONGLIANG HOLDINGS GROUP COMPANY LIMITED,"38,734,000",1.07%
 2777,"GUANGZHOU R&F PROPERTIES CO., LTD.","93,936,544",2.49%
 2799,"CHINA HUARONG ASSET MANAGEMENT CO., LTD.","2,352,444,000",9.39%
 2858,YIXIN GROUP LIMITED,"42,944,000",0.66%
 2866,"COSCO SHIPPING DEVELOPMENT CO., LTD.","588,015,000",15.98%
 2869,GREENTOWN SERVICE GROUP CO. LTD.,"347,610,899",10.80%
 2877,CHINA SHINEWAY PHARMACEUTICAL GROUP LIMITED,"26,080,000",3.14%
 2880,DALIAN PORT (PDA) COMPANY LIMITED,"894,242,200",17.32%
 2883,CHINA OILFIELD SERVICES LIMITED,"216,319,627",11.93%
 2888,STANDARD CHARTERED PLC,"349,070",0.00%
 2899,"ZIJIN MINING GROUP CO., LTD.","1,511,172,000",26.33%
 3301,RONSHINE CHINA HOLDINGS LIMITED,"141,219,000",8.29%
 3306,JNBY DESIGN LIMITED,"22,188,500",4.27%
 3308,GOLDEN EAGLE RETAIL GROUP LIMITED,"86,164,000",5.15%
 3309,C-MER EYE CARE HOLDINGS LIMITED,"78,594,000",6.86%
 3311,CHINA STATE CONSTRUCTION INTERNATIONAL HOLDINGS LIMITED,"177,315,692",3.51%
 3319,"A-LIVING SERVICES CO., LTD.","7,980,000",0.59%
 3320,CHINA RESOURCES PHARMACEUTICAL GROUP LIMITED,"203,848,500",3.24%
 3323,CHINA NATIONAL BUILDING MATERIAL COMPANY LIMITED,"954,921,365",24.67%
 3328,"BANK OF COMMUNICATIONS CO., LTD.","770,150,069",2.19%
 3329,BOCOM INTERNATIONAL HOLDINGS COMPANY LIMITED,"15,021,000",0.54%
 3331,VINDA INTERNATIONAL HOLDINGS LIMITED,"10,197,000",0.84%
 3333,CHINA EVERGRANDE GROUP,"116,848,355",0.88%
 3339,LONKING HOLDINGS LIMITED,"28,228,000",0.65%
 3347,"HANGZHOU TIGERMED CONSULTING CO., LTD.","72,500",0.05%
 3360,FAR EAST HORIZON LIMITED,"120,547,000",3.03%
 3368,PARKSON RETAIL GROUP LIMITED,"5,669,500",0.21%
 3369,"QINHUANGDAO PORT CO., LTD.","81,198,500",9.78%
 3377,SINO-OCEAN GROUP HOLDING LIMITED,"156,875,310",2.05%
 3380,LOGAN GROUP COMPANY LIMITED,"151,477,528",2.74%
 3382,TIANJIN PORT DEVELOPMENT HOLDINGS LIMITED,"204,298,000",3.31%
 3383,AGILE GROUP HOLDINGS LIMITED,"40,517,548",1.03%
 3389,HENGDELI HOLDINGS LIMITED,"776,000",0.01%
 3393,WASION HOLDINGS LIMITED,"1,326,000",0.13%
 3396,LEGEND HOLDINGS CORPORATION,"84,326,700",6.62%
 3606,"FUYAO GLASS INDUSTRY GROUP CO., LTD","88,573,050",17.51%
 3613,BEIJING TONG REN TANG CHINESE MEDICINE COMPANY LIMITED,"69,781,000",8.33%
 3618,"CHONGQING RURAL COMMERCIAL BANK CO., LTD.","724,090,000",28.80%
 3633,ZHONGYU GAS HOLDINGS LIMITED,"17,068,000",0.64%
 3669,CHINA YONGDA AUTOMOBILES SERVICES HOLDINGS LIMITED,"117,870,000",
 3690,MEITUAN DIANPING,"335,324,425",5.70%
 3692,HANSOH PHARMACEUTICAL GROUP COMPANY LIMITED,"49,493,000",0.82%
 3698,HUISHANG BANK CORPORATION LIMITED,"4,761,200",0.12%
 3759,"PHARMARON BEIJING CO., LTD.","19,383,665",14.46%
 3788,CHINA HANKING HOLDINGS LIMITED,"16,380,000",0.90%
 3799,DALI FOODS GROUP COMPANY LIMITED,"405,497,000",2.95%
 3800,GCL-POLY ENERGY HOLDINGS LIMITED,"2,488,390,500",11.76%
 3808,SINOTRUK (HONG KONG) LIMITED,"118,445,366",4.28%
 3813,POU SHENG INTERNATIONAL (HOLDINGS) LIMITED,"20,137,000",0.37%
 3818,"CHINA DONGXIANG (GROUP) CO., LTD.","490,151,000",8.32%
 3836,CHINA HARMONY AUTO HOLDING LIMITED,"62,942,000",3.99%
 3866,"BANK OF QINGDAO CO., LTD.","1,138,500",0.06%
 3868,XINYI ENERGY HOLDINGS LIMITED,"93,878,000",1.32%
 3877,CSSC (HONG KONG) SHIPPING COMPANY LIMITED,"5,242,000",0.08%
 3883,CHINA AOYUAN GROUP LIMITED,"179,847,000",6.64%
 3886,TOWN HEALTH INTERNATIONAL MEDICAL GROUP LIMITED,"145,736,000",1.92%
 3888,KINGSOFT CORPORATION LIMITED,"372,267,169",27.11%
 3898,"ZHUZHOU CRRC TIMES ELECTRIC CO., LTD.","38,533,406",7.03%
 3899,CIMC ENRIC HOLDINGS LIMITED,"145,632,000",7.24%
 3900,GREENTOWN CHINA HOLDINGS LIMITED,"348,502,500",13.96%
 3908,CHINA INTERNATIONAL CAPITAL CORPORATION LIMITED,"314,088,881",16.49%
 3933,"UNITED LABORATORIES INTERNATIONAL HOLDINGS LIMITED, THE","180,297,948",9.79%
 3958,DFZQ,"403,653,185",39.29%
 3968,"CHINA MERCHANTS BANK CO., LTD.","187,175,570",4.07%
 3969,CHINA RAILWAY SIGNAL & COMMUNICATION CORPORATION LIMITED,"194,497,000",9.86%
 3988,BANK OF CHINA LIMITED,"7,815,006,615",9.33%
 3990,MIDEA REAL ESTATE HOLDING LIMITED,"75,461,800",6.12%
 3993,"CHINA MOLYBDENUM CO., LTD.","321,177,500",8.16%
 3996,CHINA ENERGY ENGINEERING CORPORATION LIMITED,"10,824,000",0.11%
 3998,BOSIDENG INTERNATIONAL HOLDINGS LIMITED,"669,778,000",6.21%
 6030,CITIC SECURITIES COMPANY LIMITED,"284,257,641",12.47%
 6049,"POLY PROPERTY SERVICES CO., LTD.","58,744,407",38.31%
 6055,CHINA TOBACCO INTERNATIONAL (HK) COMPANY LIMITED,"29,732,000",4.29%
 6060,"ZHONGAN ONLINE P & C INSURANCE CO., LTD.","34,245,500",7.28%
 6066,"CSC FINANCIAL CO., LTD.","311,113,500",24.66%
 6068,WISDOM EDUCATION INTERNATIONAL HOLDINGS COMPANY LIMITED,"176,014,000",8.08%
 6069,SHENG YE CAPITAL LIMITED,"24,227,000",2.58%
 6078,"HYGEIA HEALTHCARE HOLDINGS CO., LIMITED","18,182,000",2.94%
 6088,FIT HON TENG LIMITED,"415,936,000",6.03%
 6098,COUNTRY GARDEN SERVICES HOLDINGS COMPANY LIMITED,"221,171,122",8.01%
 6099,"CHINA MERCHANTS SECURITIES CO., LTD.","248,497,800",19.49%
 6100,TONGDAO LIEPIN GROUP,"84,800",0.01%
 6110,TOPSPORTS INTERNATIONAL HOLDINGS LIMITED,"24,905,000",0.39%
 6116,"XINJIANG LA CHAPELLE FASHION CO., LTD.","69,174,000",32.19%
 6158,ZHENRO PROPERTIES GROUP LIMITED,"65,481,000",1.49%
 6160,"BEIGENE, LTD.","1,718,100",0.14%
 6166,CHINA VAST INDUSTRIAL URBAN DEVELOPMENT COMPANY LIMITED,"63,379,000",3.83%
 6169,CHINA YUHUA EDUCATION CORPORATION LIMITED,"576,891,598",17.26%
 6178,EVERBRIGHT SECURITIES COMPANY LIMITED,"90,042,000",12.78%
 6186,CHINA FEIHE LIMITED,"830,757,048",9.29%
 6196,"BANK OF ZHENGZHOU CO., LTD.","285,586,500",17.10%
 6198,"QINGDAO PORT INTERNATIONAL CO., LTD.","10,096,000",0.91%
 6806,"SHENWAN HONGYUAN GROUP CO., LTD.","239,888,800",9.58%
 6808,SUN ART RETAIL GROUP LIMITED,"67,724,023",0.70%
 6818,CHINA EVERBRIGHT BANK COMPANY LIMITED,"898,427,992",7.07%
 6828,BEIJING GAS BLUE SKY HOLDINGS LIMITED,"233,560,000",1.79%
 6837,"HAITONG SECURITIES CO., LTD.","854,177,000",25.04%
 6862,HAIDILAO INTERNATIONAL HOLDING LTD.,"162,630,848",3.06%
 6865,"FLAT GLASS GROUP CO., LTD.","160,164,000",35.58%
 6869,YANGTZE OPTICAL FIBRE AND CABLE JOINT STOCK LIMITED COMPANY,"18,149,000",5.16%
 6881,"CHINA GALAXY SECURITIES CO., LTD.","833,258,882",22.56%
 6886,"HUATAI SECURITIES CO., LTD.","440,773,246",25.63%
 6969,SMOORE INTERNATIONAL HOLDINGS LIMITED,"242,149,782",4.14%
 8328,XINYI AUTOMOBILE GLASS HONG KONG ENTERPRISES LIMITED,"109,750",0.01%
 9633,"NONGFU SPRING CO., LTD.","28,221,600",0.56%
 9909,POWERLONG COMMERCIAL MANAGEMENT HOLDINGS LIMITED,"12,037,000",1.93%
 9922,JIUMAOJIU INTERNATIONAL HOLDINGS LIMITED,"73,517,000",5.05%
 9923,YEAHKA LIMITED,"67,200",0.01%
 9928,TIMES NEIGHBORHOOD HOLDINGS LIMITED,"20,134,039",2.03%
 9968,HUIJING HOLDINGS COMPANY LIMITED,"3,114,000",0.05%
 9983,CENTRAL CHINA NEW LIFE LIMITED,"14,047,000",1.12%
 9989,"SHENZHEN HEPALINK PHARMACEUTICAL GROUP CO., LTD.","14,970,500",6.80%
 9997,KANGJI MEDICAL HOLDINGS LIMITED,"5,069,500",0.39%
