Stock Code,Stock Name,Shareholding in CCASS,Percentage of the total number of Issued Shares
    1,CK HUTCHISON HOLDINGS LIMITED,"30,105,395",0.77%
    2,CLP HOLDINGS LIMITED,"4,396,952",0.16%
    3,"HONG KONG AND CHINA GAS COMPANY LIMITED, THE","25,037,088",0.13%
    4,"WHARF (HOLDINGS) LIMITED, THE","2,541,983",0.08%
    5,HSBC HOLDINGS PLC,"1,564,935,888",7.57%
    6,POWER ASSETS HOLDINGS LIMITED,"6,761,922",0.30%
    8,PCCW LIMITED,"10,461,352",0.12%
   10,HANG LUNG GROUP LIMITED,"9,123,000",0.66%
   11,HANG SENG BANK LTD,"4,053,788",0.20%
   12,HENDERSON LAND DEVELOPMENT CO LTD,"6,400,073",0.12%
   14,HYSAN DEVELOPMENT COMPANY LIMITED,"792,989",0.06%
   16,SUN HUNG KAI PROPERTIES LIMITED,"8,367,404",0.28%
   17,NEW WORLD DEVELOPMENT CO LTD,"36,145,528",0.35%
   19,SWIRE PACIFIC LTD 'A',"1,000,000",0.10%
   20,WHEELOCK AND COMPANY LIMITED,"404,467",0.01%
   23,BANK OF EAST ASIA LTD,"590,793",0.01%
   27,GALAXY ENTERTAINMENT GROUP LIMITED,"43,379,357",0.99%
   35,FAR EAST CONSORTIUM INTERNATIONAL LTD,"183,013",0.00%
   38,FIRST TRACTOR COMPANY LIMITED,"98,040,100",25.01%
   41,GREAT EAGLE HOLDINGS LIMITED,"1,449,511",0.20%
   42,NORTHEAST ELECTRIC DEVELOPMENT COMPANY LIMITED,"17,224,000",6.67%
   43,C.P. POKPHAND CO LTD,"858,000",0.00%
   45,"HONGKONG AND SHANGHAI HOTELS LTD,THE","66,013",0.00%
   59,SKYFAME REALTY (HOLDINGS) LIMITED,"34,060,000",0.42%
   66,MTR CORPORATION LIMITED,"10,758,411",0.17%
   69,SHANGRI-LA ASIA LIMITED,"6,264,000",0.17%
   78,REGAL HOTELS INTERNATIONAL HOLDINGS LIMITED,"16,000",0.00%
   81,CHINA OVERSEAS GRAND OCEANS GROUP LIMITED,"246,987,320",7.21%
   83,SINO LAND CO.LTD.,"8,861,929",0.12%
   86,SUN HUNG KAI & CO.LTD,"9,171,000",0.45%
   87,SWIRE PACIFIC LTD 'B',"13,672,500",0.45%
   95,LVGEM (CHINA) REAL ESTATE INVESTMENT COMPANY LIMITED,"146,962,000",2.90%
  101,HANG LUNG PROPERTIES LIMITED,"9,929,949",0.21%
  107,SICHUAN EXPRESSWAY COMPANY LIMITED,"191,492,000",21.38%
  109,GOOD RESOURCES HOLDINGS LIMITED,"46,940,000",0.65%
  116,CHOW SANG SANG HOLDINGS INTERNATIONAL LIMITED,"24,000",0.00%
  119,"POLY PROPERTY GROUP CO., LIMITED","318,902,748",8.70%
  123,YUEXIU PROPERTY COMPANY LIMITED,"252,414,351",1.62%
  127,CHINESE ESTATES HOLDINGS LIMITED,"4,741,000",0.23%
  135,KUNLUN ENERGY COMPANY LIMITED,"169,719,057",1.95%
  136,HENGTEN NETWORKS GROUP LIMITED,"4,704,104,000",6.29%
  142,FIRST PACIFIC CO. LTD.,"51,216,000",1.17%
  144,CHINA MERCHANTS PORT HOLDINGS COMPANY LIMITED,"77,107,648",2.23%
  148,KINGBOARD HOLDINGS LIMITED,"22,431,636",2.02%
  151,WANT WANT CHINA HOLDINGS LIMITED,"17,492,871",0.13%
  152,SHENZHEN INTERNATIONAL HOLDINGS LIMITED,"63,873,887",2.95%
  163,EMPEROR INTERNATIONAL HOLDINGS LIMITED,"11,748,000",0.31%
  165,CHINA EVERBRIGHT LIMITED,"115,985,955",6.88%
  168,TSINGTAO BREWERY COMPANY LIMITED,"52,533,698",8.01%
  173,K. WAH INTERNATIONAL HOLDINGS LIMITED,"36,546,822",1.16%
  175,GEELY AUTOMOBILE HOLDINGS LIMITED,"820,597,462",8.91%
  177,JIANGSU EXPRESSWAY COMPANY LIMITED,"58,404,818",4.77%
  178,SA SA INTERNATIONAL HOLDINGS LIMITED,"17,143,635",0.54%
  179,JOHNSON ELECTRIC HOLDINGS LIMITED,"358,000",0.03%
  187,BEIJING JINGCHENG MACHINERY ELECTRIC COMPANY LIMITED,"26,732,000",26.73%
  189,DONGYUE GROUP LIMITED,"119,847,358",5.67%
  198,SMI HOLDINGS GROUP LIMITED,"70,340,800",2.59%
  200,MELCO INTERNATIONAL DEVELOPMENT LIMITED,"8,980,000",0.58%
  207,JOY CITY PROPERTY LIMITED,"5,614,000",0.03%
  215,HUTCHISON TELECOMMUNICATIONS HONG KONG HOLDINGS LIMITED,"6,982,000",0.13%
  220,UNI-PRESIDENT CHINA HOLDINGS LTD.,"4,043,000",0.08%
  241,ALIBABA HEALTH INFORMATION TECHNOLOGY LIMITED,"402,087,021",3.33%
  242,SHUN TAK HOLDINGS LIMITED,"82,684,000",2.72%
  245,CHINA MINSHENG FINANCIAL HOLDING CORPORATION LIMITED,"32,030,000",0.08%
  256,CITYCHAMP WATCH & JEWELLERY GROUP LIMITED,"303,030,000",6.96%
  257,CHINA EVERBRIGHT INTERNATIONAL LIMITED,"233,846,799",3.80%
  267,CITIC LIMITED,"36,003,916",0.12%
  268,KINGDEE INTERNATIONAL SOFTWARE GROUP COMPANY LIMITED,"320,326,580",9.64%
  270,GUANGDONG INVESTMENT LIMITED,"35,567,299",0.54%
  272,SHUI ON LAND LIMITED,"551,258,346",6.83%
  279,FREEMAN FINTECH CORPORATION LIMITED,"616,834,000",33.01%
  285,BYD ELECTRONIC (INTERNATIONAL) COMPANY LIMITED,"148,537,900",6.58%
  288,WH GROUP LIMITED,"1,115,099,106",7.57%
  291,CHINA RESOURCES BEER (HOLDINGS) COMPANY LIMITED,"163,379,256",5.03%
  293,CATHAY PACIFIC AIRWAYS LTD,"4,058,000",0.09%
  295,KONG SUN HOLDINGS LIMITED,"59,100,000",0.39%
  297,SINOFERT HOLDINGS LIMITED,"368,616,000",5.24%
  303,VTECH HOLDINGS LIMITED,"1,220,220",0.47%
  308,CHINA TRAVEL INTERNATIONAL INVESTMENT HONG KONG LIMITED,"190,990,439",3.44%
  315,SMARTONE TELECOMMUNICATIONS HOLDINGS LIMITED,"1,443,411",0.12%
  316,ORIENT OVERSEAS (INTERNATIONAL) LIMITED,"19,000",0.00%
  317,CSSC OFFSHORE & MARINE ENGINEERING (GROUP) COMPANY LIMITED,"16,292,200",2.74%
  321,TEXWINCA HOLDINGS LIMITED,"1,150,000",0.08%
  322,TINGYI (CAYMAN ISLANDS) HOLDING CORP.,"21,244,708",0.37%
  323,MAANSHAN IRON & STEEL COMPANY LIMITED,"28,652,000",1.64%
  327,PAX GLOBAL TECHNOLOGY LIMITED,"7,815,000",0.71%
  330,ESPRIT HOLDINGS LIMITED,"79,172,200",4.19%
  336,HUABAO INTERNATIONAL HOLDINGS LIMITED,"248,549,100",7.99%
  337,GREENLAND HONG KONG HOLDINGS LIMITED,"126,851,000",4.54%
  338,SINOPEC SHANGHAI PETROCHEMICAL COMPANY LIMITED,"140,300,375",4.00%
  341,CAFE DE CORAL HOLDINGS LTD,"1,924,000",0.32%
  345,VITASOY INTERNATIONAL HOLDINGS LTD,"14,468,000",1.35%
  347,ANGANG STEEL COMPANY LIMITED,"41,474,000",2.93%
  354,CHINASOFT INTERNATIONAL LIMITED,"353,152,507",13.88%
  358,JIANGXI COPPER COMPANY LIMITED,"46,103,219",3.32%
  363,SHANGHAI INDUSTRIAL HOLDINGS LIMITED,"20,712,100",1.90%
  371,BEIJING ENTERPRISES WATER GROUP LIMITED,"259,440,010",2.58%
  378,FDG KINETIC LIMITED,"185,480,000",2.74%
  384,CHINA GAS HOLDINGS LIMITED,"20,804,043",0.39%
  386,CHINA PETROLEUM & CHEMICAL CORPORATION,"686,047,595",2.68%
  388,HONG KONG EXCHANGES AND CLEARING LIMITED,"29,552,845",2.33%
  390,CHINA RAILWAY GROUP LIMITED,"243,692,030",5.78%
  392,BEIJING ENTERPRISES HOLDINGS LIMITED,"83,582,121",6.62%
  400,COGOBUY GROUP,"67,186,000",4.69%
  410,SOHO CHINA LIMITED,"281,851,500",5.42%
  412,CHINA SHANDONG HI-SPEED FINANCIAL GROUP LIMITED,"21,576,000",0.07%
  419,HUAYI TENCENT ENTERTAINMENT COMPANY LIMITED,"191,530,000",1.41%
  425,MINTH GROUP LIMITED,"95,209,626",
  439,KUANGCHI SCIENCE LIMITED,"332,163,000",5.38%
  440,DAH SING FINANCIAL HOLDINGS LTD,"1,125,666",0.34%
  451,GCL NEW ENERGY HOLDINGS LIMITED,"1,005,654,000",5.27%
  460,SIHUAN PHARMACEUTICAL HOLDINGS GROUP LTD.,"464,686,000",4.90%
  467,UNITED ENERGY GROUP LIMITED,"11,042,000",0.04%
  468,GREATVIEW ASEPTIC PACKAGING COMPANY LIMITED,"1,380,000",0.10%
  480,HKR INTERNATIONAL LTD,"261,680",0.01%
  488,LAI SUN DEVELOPMENT COMPANY LIMITED,"30,000",0.00%
  489,DONGFENG MOTOR GROUP COMPANY LIMITED,"177,638,000",6.21%
  493,GOME RETAIL HOLDINGS LIMITED,"2,227,662,000",10.33%
  494,LI & FUNG LIMITED,"88,598,000",1.03%
  496,KASEN INTERNATIONAL HOLDINGS LIMITED,"67,946,000",4.54%
  506,CHINA FOODS LIMITED,"52,174,100",1.85%
  508,DINGYI GROUP INVESTMENT LIMITED,"419,730,000",5.70%
  511,TELEVISION BROADCASTS LIMITED,"712,700",0.15%
  512,CHINA GRAND PHARMACEUTICAL AND HEALTHCARE HOLDINGS LIMITED,"90,091,200",2.66%
  517,"COSCO SHIPPING INTERNATIONAL (HONG KONG) CO., LTD.","730,000",0.04%
  520,"XIABUXIABU CATERING MANAGEMENT (CHINA) HOLDINGS CO., LTD.","27,012,000",
  522,ASM PACIFIC TECHNOLOGY LIMITED,"9,397,547",2.29%
  525,GUANGSHEN RAILWAY COMPANY LIMITED,"291,480,010",20.36%
  530,GOLDIN FINANCIAL HOLDINGS LIMITED,"2,948,000",0.04%
  535,GEMDALE PROPERTIES AND INVESTMENT CORPORATION LIMITED,"1,895,458,154",11.92%
  546,FUFENG GROUP LIMITED,"51,188,000",2.02%
  547,DIGITAL DOMAIN HOLDINGS LIMITED,"1,069,850,000",3.13%
  548,SHENZHEN EXPRESSWAY COMPANY LIMITED,"107,056,000",14.32%
  551,YUE YUEN INDUSTRIAL (HOLDINGS) LIMITED,"1,742,793",0.10%
  552,CHINA COMMUNICATIONS SERVICES CORPORATION LIMITED,"78,246,000",3.26%
  553,NANJING PANDA ELECTRONICS COMPANY LIMITED,"36,100,000",14.91%
  563,SHANGHAI INDUSTRIAL URBAN DEVELOPMENT GROUP LIMITED,"151,662,855",3.15%
  564,ZHENGZHOU COAL MINING MACHINERY GROUP COMPANY LIMITED,"61,365,400",25.22%
  568,SHANDONG MOLONG PETROLEUM MACHINERY COMPANY LIMITED,"51,521,200",20.11%
  570,CHINA TRADITIONAL CHINESE MEDICINE HOLDINGS CO LIMITED,"550,389,486",10.92%
  576,"ZHEJIANG EXPRESSWAY CO., LTD.","70,889,759",4.94%
  579,"BEIJING JINGNENG CLEAN ENERGY CO., LIMITED","182,264,000",6.44%
  581,CHINA ORIENTAL GROUP COMPANY LIMITED,"74,862,987",2.00%
  582,LANDING INTERNATIONAL DEVELOPMENT LIMITED,"108,072,000",3.67%
  586,CHINA CONCH VENTURE HOLDINGS LIMITED,"154,040,953",8.52%
  588,BEIJING NORTH STAR COMPANY LIMITED,"181,616,000",25.67%
  590,LUK FOOK HOLDINGS (INTERNATIONAL) LIMITED,"1,485,000",0.24%
  598,SINOTRANS LIMITED,"152,074,000",7.08%
  604,SHENZHEN INVESTMENT LIMITED,"91,212,392",1.02%
  606,CHINA AGRI-INDUSTRIES HOLDINGS LIMITED,"23,073,000",0.43%
  607,FULLSHARE HOLDINGS LIMITED,"5,680,620,000",28.82%
  612,CHINA DING YI FENG HOLDINGS LIMITED,"2,928,000",0.23%
  631,SANY HEAVY EQUIPMENT INTERNATIONAL HOLDINGS COMPANY LIMITED,"127,039,000",4.09%
  636,KERRY LOGISTICS NETWORK LIMITED,"807,500",0.03%
  639,SHOUGANG FUSHAN RESOURCES GROUP LIMITED,"127,244,000",2.39%
  656,FOSUN INTERNATIONAL LIMITED,"664,963,422",7.77%
  658,"CHINA HIGH SPEED TRANSMISSION EQUIPMENT GROUP CO., LTD.","212,581,000",12.99%
  659,NWS HOLDINGS LIMITED,"2,038,719",0.04%
  665,HAITONG INTERNATIONAL SECURITIES GROUP LIMITED,"312,386,978",5.25%
  667,CHINA EAST EDUCATION HOLDINGS LIMITED,"57,242,000",2.60%
  669,TECHTRONIC INDUSTRIES CO. LTD.,"7,160,470",0.38%
  670,CHINA EASTERN AIRLINES CORPORATION LIMITED,"487,130,231",9.40%
  680,NAN HAI CORPORATION LIMITED,"821,850,000",1.18%
  683,KERRY PROPERTIES LIMITED,"4,533,124",0.30%
  686,PANDA GREEN ENERGY GROUP LIMITED,"379,214,000",2.48%
  687,TYSAN HOLDINGS LIMITED,"2,842,000",0.08%
  688,CHINA OVERSEAS LAND & INVESTMENT LIMITED,"33,864,639",0.30%
  691,CHINA SHANSHUI CEMENT GROUP LIMITED,"5,190,000",0.10%
  694,BEIJING CAPITAL INTERNATIONAL AIRPORT COMPANY LIMITED,"281,448,845",14.97%
  696,TRAVELSKY TECHNOLOGY LIMITED,"32,415,000",3.46%
  698,TONGDA GROUP HOLDINGS LIMITED,"490,930,000",7.56%
  699,CAR INC.,"175,848,001",8.29%
  700,TENCENT HOLDINGS LIMITED,"193,880,656",2.02%
  709,GIORDANO INTERNATIONAL LIMITED,"2,096,000",0.13%
  715,CHINA OCEANWIDE HOLDINGS LIMITED,"488,000",0.00%
  718,TAI UNITED HOLDINGS LIMITED,"20,150,000",0.38%
  719,SHANDONG XINHUA PHARMACEUTICAL COMPANY LIMITED,"78,120,000",40.06%
  721,CHINA FINANCIAL INTERNATIONAL INVESTMENTS LIMITED,"307,330,000",2.80%
  728,CHINA TELECOM CORPORATION LIMITED,"335,459,238",2.41%
  729,FDG ELECTRIC VEHICLES LIMITED,"74,055,500",3.79%
  732,TRULY INTERNATIONAL HOLDINGS LIMITED,"326,188,000",9.91%
  737,SZ INVESTMENT HLDGS BAY AREA DEV CO LTD -HKD TRADED SHARES,"1,920,500",0.05%
  743,ASIA CEMENT (CHINA) HOLDINGS CORPORATION,"3,813,000",0.24%
  751,SKYWORTH GROUP LIMITED,"110,414,459",3.59%
  753,AIR CHINA LIMITED,"432,993,149",9.48%
  754,HOPSON DEVELOPMENT HOLDINGS LIMITED,"79,968,000",3.58%
  762,CHINA UNICOM (HONG KONG) LIMITED,"90,468,000",0.28%
  763,ZTE CORPORATION,"239,258,607",31.66%
  772,CHINA LITERATURE LIMITED,"36,849,200",3.63%
  775,"CK LIFE SCIENCES INT'L., (HOLDINGS) INC.","27,406,000",0.28%
  777,NETDRAGON WEBSOFT HOLDINGS LIMITED,"18,555,000",3.48%
  780,TONGCHENG-ELONG HOLDINGS LIMITED,"11,075,200",0.51%
  787,GLOBAL BRANDS GROUP HOLDING LIMITED,"68,499,275",6.65%
  788,CHINA TOWER CORPORATION LIMITED,"1,622,383,357",3.46%
  799,IGG INC,"144,887,298",11.61%
  806,VALUE PARTNERS GROUP LIMITED,"52,695,405",2.83%
  811,"XINHUA WINSHARE PUBLISHING AND MEDIA CO., LTD.","52,608,000",11.90%
  813,SHIMAO PROPERTY HOLDINGS LIMITED,"68,577,265",2.07%
  816,HUADIAN FUXIN ENERGY CORPORATION LIMITED,"15,686,000",0.61%
  817,CHINA JINMAO HOLDINGS GROUP LIMITED,"764,454,947",6.49%
  819,TIANNENG POWER INTERNATIONAL LIMITED,"103,664,000",9.20%
  829,SHENGUAN HOLDINGS (GROUP) LIMITED,"145,944,000",4.51%
  832,CENTRAL CHINA REAL ESTATE LIMITED,"67,168,000",2.45%
  836,CHINA RESOURCES POWER HOLDINGS COMPANY LIMITED,"156,756,615",3.25%
  839,CHINA EDUCATION GROUP HOLDINGS LIMITED,"113,219,593",5.59%
  845,GLORIOUS PROPERTY HOLDINGS LIMITED,"23,377,000",0.29%
  846,MINGFA GROUP (INTERNATIONAL) COMPANY LIMITED,"5,261,000",0.08%
  853,MICROPORT SCIENTIFIC CORPORATION,"97,014,752",5.97%
  855,CHINA WATER AFFAIRS GROUP LIMITED,"192,534,334",12.00%
  856,VSTECS HOLDINGS LIMITED,"2,628,000",0.18%
  857,PETROCHINA COMPANY LIMITED,"1,131,731,455",5.36%
  860,WE SOLUTIONS LIMITED,"34,880,000",0.48%
  861,DIGITAL CHINA HOLDINGS LIMITED,"757,641,900",45.33%
  867,CHINA MEDICAL SYSTEM HOLDINGS LIMITED,"21,843,618",0.87%
  868,XINYI GLASS HOLDINGS LIMITED,"174,189,053",4.32%
  874,"GUANGZHOU BAIYUNSHAN PHARMACEUTICAL HOLDINGS CO., LTD.","71,162,000",32.36%
  880,SJM HOLDINGS LIMITED,"187,333,700",3.30%
  881,ZHONGSHENG GROUP HOLDINGS LIMITED,"40,563,313",1.77%
  883,CNOOC LIMITED,"123,618,995",0.27%
  884,CIFI HOLDINGS (GROUP) CO. LTD.,"442,255,271",
  885,RENTIAN TECHNOLOGY HOLDINGS LIMITED,"1,110,000",0.01%
  895,DONGJIANG ENVIRONMENTAL COMPANY LIMITED,"55,946,800",27.95%
  902,"HUANENG POWER INTERNATIONAL, INC.","1,920,618,624",40.86%
  906,CPMC HOLDINGS LIMITED,"43,197,000",3.72%
  911,QIANHAI HEALTH HOLDINGS LIMITED,"96,654,750",5.70%
  914,ANHUI CONCH CEMENT COMPANY LIMITED,"19,095,789",1.46%
  916,CHINA LONGYUAN POWER GROUP CORPORATION LIMITED,"225,229,000",6.74%
  921,"HISENSE HOME APPLIANCES GROUP CO., LTD.","56,666,300",12.32%
  931,CHINA LNG GROUP LIMITED,"176,723,000",3.12%
  933,BRIGHTOIL PETROLEUM (HOLDINGS) LIMITED,"25,254,000",0.24%
  934,SINOPEC KANTONS HOLDINGS LIMITED,"87,960,000",3.53%
  939,CHINA CONSTRUCTION BANK CORPORATION,"15,896,905,797",6.60%
  941,CHINA MOBILE LIMITED,"72,219,190",0.34%
  950,LEE'S PHARMACEUTICAL HOLDINGS LIMITED,"5,052,000",0.85%
  951,CHAOWEI POWER HOLDINGS LIMITED,"109,722,000",9.93%
  958,HUANENG RENEWABLES CORPORATION LIMITED,"95,690,606",1.89%
  960,LONGFOR GROUP HOLDINGS LIMITED,"154,615,493",2.58%
  966,CHINA TAIPING INSURANCE HOLDINGS COMPANY LIMITED,"415,270,567",11.54%
  967,SOUND GLOBAL LTD.,"289,000",0.01%
  968,XINYI SOLAR HOLDINGS LIMITED,"1,032,670,027",12.77%
  976,CHIHO ENVIRONMENTAL GROUP LIMITED,"237,980,000",14.82%
  978,CHINA MERCHANTS LAND LIMITED,"48,458,000",0.98%
  981,SEMICONDUCTOR MANUFACTURING INTERNATIONAL CORPORATION,"1,149,568,000",22.71%
  989,GROUND INTERNATIONAL DEVELOPMENT LIMITED,"192,660,000",3.65%
  991,"DATANG INTERNATIONAL POWER GENERATION CO.,LTD.","173,254,000",2.83%
  992,LENOVO GROUP LIMITED,"28,146,476",0.22%
  995,ANHUI EXPRESSWAY COMPANY LIMITED,"77,448,000",15.70%
  996,CARNIVAL GROUP INTERNATIONAL HOLDINGS LIMITED,"6,224,392,500",26.25%
  998,CHINA CITIC BANK CORPORATION LIMITED,"1,981,663,152",13.31%
 1028,C.BANNER INTERNATIONAL HOLDINGS LIMITED,"151,227,000",7.28%
 1030,SEAZEN GROUP LIMITED,"310,802,500",5.26%
 1031,KINGSTON FINANCIAL GROUP LIMITED,"750,000",0.00%
 1033,SINOPEC OILFIELD SERVICE CORPORATION,"328,900,000",6.06%
 1038,CK INFRASTRUCTURE HOLDINGS LIMITED,"11,211,000",0.41%
 1044,HENGAN INTERNATIONAL GROUP COMPANY LIMITED,"11,233,500",0.94%
 1052,YUEXIU TRANSPORT INFRASTRUCTURE LIMITED,"21,526,000",1.28%
 1053,CHONGQING IRON & STEEL COMPANY LIMITED,"89,234,000",16.57%
 1055,CHINA SOUTHERN AIRLINES COMPANY LIMITED,"439,985,861",11.99%
 1057,ZHEJIANG SHIBAO COMPANY LIMITED,"37,185,000",17.15%
 1060,ALIBABA PICTURES GROUP LIMITED,"2,672,438,620",10.03%
 1065,TIANJIN CAPITAL ENVIRONMENTAL PROTECTION GROUP COMPANY LIMITED,"86,300,100",25.37%
 1066,SHANDONG WEIGAO GROUP MEDICAL POLYMER COMPANY LIMITED,"114,415,094",2.52%
 1068,CHINA YURUN FOOD GROUP LIMITED,"18,633,000",1.02%
 1070,TCL ELECTRONICS HOLDINGS LIMITED,"42,359,666",1.79%
 1071,HUADIAN POWER INTERNATIONAL CORPORATION LIMITED,"484,410,683",28.20%
 1072,DONGFANG ELECTRIC CORPORATION LIMITED,"97,792,446",28.75%
 1076,IMPERIAL PACIFIC INTERNATIONAL HOLDINGS LIMITED,"408,600,000",0.28%
 1083,TOWNGAS CHINA COMPANY LIMITED,"3,039,007",0.10%
 1086,GOODBABY INTERNATIONAL HOLDINGS LIMITED,"32,043,000",1.92%
 1088,CHINA SHENHUA ENERGY COMPANY LIMITED,"710,425,830",20.89%
 1089,LEYOU TECHNOLOGIES HOLDINGS LIMITED,"76,570,000",2.48%
 1093,CSPC PHARMACEUTICAL GROUP LIMITED,"264,522,164",4.23%
 1097,I-CABLE COMMUNICATIONS LIMITED,"103,425",0.00%
 1098,ROAD KING INFRASTRUCTURE LIMITED,"9,242,000",1.23%
 1099,SINOPHARM GROUP CO. LTD.,"25,654,976",2.14%
 1108,LUOYANG GLASS COMPANY LIMITED,"84,464,000",33.77%
 1109,CHINA RESOURCES LAND LIMITED,"101,074,690",1.41%
 1111,CHONG HING BANK LIMITED,"1,070,500",0.11%
 1112,HEALTH AND HAPPINESS (H&H) INTERNATIONAL HOLDINGS LIMITED,"57,864,000",8.99%
 1113,CK ASSET HOLDINGS LIMITED,"8,367,463",0.22%
 1114,BRILLIANCE CHINA AUTOMOTIVE HOLDINGS LIMITED,"164,351,080",3.25%
 1115,TIBET WATER RESOURCES LTD.,"161,127,000",6.27%
 1117,CHINA MODERN DAIRY HOLDINGS LTD.,"123,314,000",1.91%
 1119,IDREAMSKY TECHNOLOGY HOLDINGS LIMITED,"19,590,000",1.54%
 1128,"WYNN MACAU, LIMITED","27,950,159",0.53%
 1131,AGRITRADE RESOURCES LIMITED,"25,170,000",0.39%
 1138,"COSCO SHIPPING ENERGY TRANSPORTATION CO., LTD.","181,540,000",14.00%
 1140,OP FINANCIAL LIMITED,"107,044,000",3.68%
 1141,CMBC CAPITAL HOLDINGS LIMITED,"570,950,000",1.18%
 1157,"ZOOMLION HEAVY INDUSTRY SCIENCE AND TECHNOLOGY CO., LTD.","74,343,011",5.35%
 1165,SHUNFENG INTERNATIONAL CLEAN ENERGY LIMITED,"339,008,000",6.80%
 1169,"HAIER ELECTRONICS GROUP CO., LTD.","69,562,929",2.47%
 1171,YANZHOU COAL MINING COMPANY LIMITED,"274,111,000",14.03%
 1176,ZHUGUANG HOLDINGS GROUP COMPANY LIMITED,"146,104,000",2.03%
 1177,SINO BIOPHARMACEUTICAL LIMITED,"948,473,409",7.53%
 1186,CHINA RAILWAY CONSTRUCTION CORPORATION LIMITED,"71,864,157",3.45%
 1188,HYBRID KINETIC GROUP LIMITED,"120,084,000",0.59%
 1193,CHINA RESOURCES GAS GROUP LIMITED,"15,202,000",0.68%
 1196,REALORD GROUP HOLDINGS LIMITED,"107,858,000",7.49%
 1199,COSCO SHIPPING PORTS LIMITED,"5,716,965",0.17%
 1205,CITIC RESOURCES HOLDINGS LIMITED,"187,116,100",2.37%
 1208,MMG LIMITED,"191,894,000",2.38%
 1211,BYD COMPANY LIMITED,"34,948,309",3.81%
 1212,LIFESTYLE INTERNATIONAL HOLDINGS LIMITED,"2,621,312",0.17%
 1230,YASHILI INTERNATIONAL HOLDINGS LTD,"79,981,000",1.68%
 1233,TIMES CHINA HOLDINGS LIMITED,"133,878,757",6.89%
 1234,CHINA LILANG LIMITED,"37,213,000",3.10%
 1238,POWERLONG REAL ESTATE HOLDINGS LIMITED,"81,691,000",1.97%
 1250,BEIJING ENTERPRISES CLEAN ENERGY GROUP LIMITED,"1,913,380,000",3.01%
 1253,CHINA GREENLAND BROAD GREENSTATE GROUP COMPANY LIMITED,"6,840,000",0.20%
 1257,CHINA EVERBRIGHT GREENTECH LIMITED,"45,143,000",2.18%
 1269,CHINA FIRST CAPITAL GROUP LIMITED,"1,056,984,000",21.01%
 1282,GLORY SUN FINANCIAL GROUP LIMITED,"2,038,884,000",6.84%
 1288,AGRICULTURAL BANK OF CHINA LIMITED,"5,275,032,435",17.15%
 1293,GRAND BAOXIN AUTO GROUP LIMITED,"139,320,466",4.90%
 1299,AIA GROUP LIMITED,"100,146,687",0.82%
 1302,LIFETECH SCIENTIFIC CORPORATION,"623,710,000",14.43%
 1308,SITC INTERNATIONAL HOLDINGS COMPANY LIMITED,"51,572,000",1.92%
 1310,HKBN LTD.,"2,416,000",0.18%
 1313,CHINA RESOURCES CEMENT HOLDINGS LIMITED,"72,239,915",1.03%
 1315,VISION FAME INTERNATIONAL HOLDING LIMITED,"733,014,000",12.21%
 1316,NEXTEER AUTOMOTIVE GROUP LIMITED,"18,787,000",0.74%
 1317,CHINA MAPLE LEAF EDUCATIONAL SYSTEMS LIMITED,"279,448,000",9.32%
 1330,"DYNAGREEN ENVIRONMENTAL PROTECTION GROUP CO., LTD","99,786,000",24.67%
 1333,CHINA ZHONGWANG HOLDINGS LIMITED,"251,292,800",4.61%
 1336,NEW CHINA LIFE INSURANCE COMPANY LTD.,"339,377,751",32.81%
 1339,"PEOPLE'S INSURANCE COMPANY (GROUP) OF CHINA LIMITED, THE","1,180,671,987",13.52%
 1347,HUA HONG SEMICONDUCTOR LIMITED,"45,236,984",3.50%
 1357,"MEITU, INC.","285,270,600",6.61%
 1359,"CHINA CINDA ASSET MANAGEMENT CO., LTD.","1,824,112,457",13.43%
 1361,361 DEGREES INTERNATIONAL LIMITED,"34,753,000",1.68%
 1363,CT ENVIRONMENTAL GROUP LIMITED,"502,874,000",7.95%
 1368,XTEP INTERNATIONAL HOLDINGS LIMITED,"32,865,896",1.30%
 1375,"CENTRAL CHINA SECURITIES CO., LTD.","195,784,000",16.37%
 1378,CHINA HONGQIAO GROUP LIMITED,"490,573,410",5.71%
 1381,CANVEST ENVIRONMENTAL PROTECTION GROUP COMPANY LIMITED,"27,598,000",1.13%
 1382,PACIFIC TEXTILES HOLDINGS LIMITED,"13,910,000",0.95%
 1383,SUNCITY GROUP HOLDINGS LIMITED,"14,920,000",0.22%
 1387,CHINA DILI GROUP,"161,978,930",2.82%
 1398,INDUSTRIAL AND COMMERCIAL BANK OF CHINA LIMITED,"20,201,283,562",23.26%
 1432,CHINA SHENGMU ORGANIC MILK LIMITED,"169,558,000",2.66%
 1448,FU SHOU YUAN INTERNATIONAL GROUP LIMITED,"199,647,000",
 1458,ZHOU HEI YA INTERNATIONAL HOLDINGS COMPANY LIMITED,"286,664,000",12.02%
 1478,Q TECHNOLOGY (GROUP) COMPANY LIMITED,"47,311,000",4.08%
 1508,CHINA REINSURANCE (GROUP) CORPORATION,"426,820,000",6.38%
 1513,LIVZON PHARMACEUTICAL GROUP INC.,"37,710,854",11.78%
 1515,CHINA RESOURCES MEDICAL HOLDINGS COMPANY LIMITED,"42,460,600",3.27%
 1521,FRONTAGE HOLDINGS CORPORATION,"71,507,368",3.56%
 1528,RED STAR MACALLINE GROUP CORPORATION LTD.,"101,832,437",15.10%
 1530,3SBIO INC.,"84,534,500",3.32%
 1533,"LANZHOU ZHUANGYUAN PASTURE CO., LTD.","4,403,500",12.53%
 1548,GENSCRIPT BIOTECH CORPORATION,"191,510,000",10.18%
 1551,"GUANGZHOU RURAL COMMERCIAL BANK CO., LTD","2,415,000",0.13%
 1558,"YICHANG HEC CHANGJIANG PHARMACEUTICAL CO., LTD.","62,230,200",27.95%
 1569,MINSHENG EDUCATION GROUP COMPANY LIMITED,"90,864,000",2.26%
 1573,SOUTHERN ENERGY HOLDINGS GROUP LIMITED,"96,742,000",13.47%
 1578,"BANK OF TIANJIN CO., LTD.","39,000",0.00%
 1579,YIHAI INTERNATIONAL HOLDING LTD.,"38,899,714",3.71%
 1583,QINQIN FOODSTUFFS GROUP (CAYMAN) COMPANY LIMITED,"25,700",0.00%
 1585,YADEA GROUP HOLDINGS LTD.,"245,012,000",8.18%
 1589,"CHINA LOGISTICS PROPERTY HOLDINGS CO., LTD","118,000",0.00%
 1600,CHINA TIAN LUN GAS HOLDINGS LIMITED,"10,306,000",1.03%
 1606,"CHINA DEVELOPMENT BANK FINANCIAL LEASING CO., LTD.","546,000",0.01%
 1608,VPOWER GROUP INTERNATIONAL HOLDINGS LIMITED,"1,469,000",0.05%
 1610,COFCO MEAT HOLDINGS LIMITED,"206,567,000",5.29%
 1618,METALLURGICAL CORPORATION OF CHINA LTD.,"258,196,000",8.98%
 1619,TIANHE CHEMICALS GROUP LIMITED,"193,880,000",0.78%
 1622,REDCO PROPERTIES GROUP LIMITED,"74,684,000",2.10%
 1628,YUZHOU PROPERTIES COMPANY LIMITED,"66,905,469",1.28%
 1635,"SHANGHAI DAZHONG PUBLIC UTILITIES (GROUP) CO., LTD.","70,147,000",13.14%
 1636,CHINA METAL RESOURCES UTILIZATION LIMITED,"41,260,000",1.56%
 1638,KAISA GROUP HOLDINGS LTD.,"324,523,611",5.32%
 1658,"POSTAL SAVINGS BANK OF CHINA CO., LTD.","351,809,000",1.76%
 1661,WISDOM SPORTS GROUP,"6,452,000",0.40%
 1666,TONG REN TANG TECHNOLOGIES CO LTD,"141,368,200",22.48%
 1668,CHINA SOUTH CITY HOLDINGS LIMITED,"774,900,396",9.55%
 1680,MACAU LEGEND DEVELOPMENT LIMITED,"136,283,000",2.18%
 1681,CONSUN PHARMACEUTICAL GROUP LIMITED,"36,763,000",4.24%
 1685,BOER POWER HOLDINGS LIMITED,"2,255,000",0.29%
 1686,SUNEVISION HOLDINGS LIMITED,"943,000",0.04%
 1717,AUSNUTRIA DAIRY CORPORATION LTD,"44,198,000",2.73%
 1728,CHINA ZHENGTONG AUTO SERVICES HOLDINGS LIMITED,"158,920,500",6.47%
 1761,BABYTREE GROUP,"8,059,000",0.48%
 1765,"HOPE EDUCATION GROUP CO., LTD.","372,008,000",5.58%
 1766,CRRC CORPORATION LIMITED,"219,204,920",5.01%
 1772,"GANFENG LITHIUM CO., LTD.","63,750,000",31.84%
 1776,"GF SECURITIES CO., LTD.","383,482,200",22.53%
 1777,"FANTASIA HOLDINGS GROUP CO., LIMITED","342,619,000",5.94%
 1778,"COLOUR LIFE SERVICES GROUP CO., LIMITED","82,369,000",5.78%
 1787,"SHANDONG GOLD MINING CO., LTD.","97,166,260",19.44%
 1788,GUOTAI JUNAN INTERNATIONAL HOLDINGS LIMITED,"195,080,000",2.52%
 1797,KOOLEARN TECHNOLOGY HOLDING LIMITED,"125,411,237",13.36%
 1800,CHINA COMMUNICATIONS CONSTRUCTION COMPANY LIMITED,"292,233,000",6.59%
 1806,HUIFU PAYMENT LIMITED,"28,512,800",2.28%
 1810,XIAOMI CORPORATION,"932,756,000",3.88%
 1811,"CGN NEW ENERGY HOLDINGS CO., LTD.","148,210,000",3.45%
 1812,SHANDONG CHENMING PAPER HOLDINGS LIMITED,"88,430,200",16.73%
 1813,KWG GROUP HOLDINGS LIMITED,"181,420,293",5.70%
 1816,"CGN POWER CO., LTD","2,025,315,000",18.13%
 1818,ZHAOJIN MINING INDUSTRY COMPANY LIMITED,"96,922,372",9.23%
 1829,CHINA MACHINERY ENGINEERING CORPORATION,"143,000",0.01%
 1833,PING AN HEALTHCARE AND TECHNOLOGY COMPANY LIMITED,"42,324,000",3.96%
 1848,CHINA AIRCRAFT LEASING GROUP HOLDINGS LIMITED,"7,710,000",1.13%
 1860,MOBVISTA INC.,"2,683,000",0.17%
 1876,BUDWEISER BREWING COMPANY APAC LIMITED,"12,593,800",0.09%
 1882,HAITIAN INTERNATIONAL HOLDINGS LIMITED,"22,691,000",1.41%
 1883,CITIC TELECOM INTERNATIONAL HOLDINGS LIMITED,"19,381,000",0.52%
 1886,CHINA HUIYUAN JUICE GROUP LIMITED,"125,355,500",4.69%
 1888,KINGBOARD LAMINATES HOLDINGS LIMITED,"37,027,095",1.19%
 1890,CHINA KEPEI EDUCATION GROUP LIMITED,"44,206,000",2.20%
 1896,MAOYAN ENTERTAINMENT,"23,020,200",2.02%
 1898,CHINA COAL ENERGY COMPANY LIMITED,"239,439,000",5.82%
 1905,"HAITONG UNITRUST INTERNATIONAL LEASING CO., LTD.","1,154,000",0.01%
 1907,CHINA RISUN GROUP LIMITED,"4,469,000",0.10%
 1908,C&D INTERNATIONAL INVESTMENT GROUP LIMITED,"50,107,000",4.25%
 1911,CHINA RENAISSANCE HOLDINGS LIMITED,"4,779,000",0.88%
 1916,"JIANGXI BANK CO., LTD.","11,520,500",0.85%
 1918,SUNAC CHINA HOLDINGS LIMITED,"877,000,056",
 1919,"COSCO SHIPPING HOLDINGS CO., LTD.","291,935,500",11.30%
 1928,SANDS CHINA LTD.,"38,788,195",0.47%
 1929,CHOW TAI FOOK JEWELLERY GROUP LIMITED,"44,129,400",0.43%
 1951,JINXIN FERTILITY GROUP LIMITED,"102,342,000",4.19%
 1958,BAIC MOTOR CORPORATION LIMITED,"130,859,500",5.18%
 1963,"BANK OF CHONGQING CO., LTD.","104,996,000",6.64%
 1966,CHINA SCE GROUP HOLDINGS LIMITED,"140,166,054",3.35%
 1970,"IMAX CHINA HOLDING, INC.","2,265,305",0.64%
 1972,SWIRE PROPERTIES LIMITED,"2,761,600",0.04%
 1980,TIAN GE INTERACTIVE HOLDINGS LIMITED,"29,197,000",2.31%
 1988,"CHINA MINSHENG BANKING CORP., LTD.","876,586,553",10.53%
 1992,FOSUN TOURISM GROUP,"1,404,800",0.11%
 1996,REDSUN PROPERTIES GROUP LIMITED,"5,813,000",0.17%
 1997,WHARF REAL ESTATE INVESTMENT COMPANY LIMITED,"2,654,956",0.08%
 1999,MAN WAH HOLDINGS LIMITED,"566,102,171",14.82%
 2001,CHINA NEW HIGHER EDUCATION GROUP LIMITED,"184,950,000",12.00%
 2003,VCREDIT HOLDINGS LIMITED,"3,818,000",0.76%
 2005,SSY GROUP LIMITED,"240,484,059",7.92%
 2007,COUNTRY GARDEN HOLDINGS COMPANY LIMITED,"213,609,461",0.96%
 2008,PHOENIX MEDIA INVESTMENT (HOLDINGS) LIMITED,"214,656,000",4.29%
 2009,BBMG CORPORATION,"211,591,500",9.04%
 2013,WEIMOB INC.,"99,249,000",4.39%
 2016,"CHINA ZHESHANG BANK CO., LTD.","2,385,000",0.05%
 2018,AAC TECHNOLOGIES HOLDINGS INC.,"76,252,002",6.30%
 2019,DEXIN CHINA HOLDINGS COMPANY LIMITED,"8,989,000",0.33%
 2020,ANTA SPORTS PRODUCTS LIMITED,"119,398,374",4.41%
 2038,FIH MOBILE LIMITED,"104,985,000",1.27%
 2039,"CHINA INTERNATIONAL MARINE CONTAINERS (GROUP) CO., LTD.","146,504,160",7.11%
 2051,51 CREDIT CARD INC.,"57,146,000",4.79%
 2066,"SHENGJING BANK CO., LTD.","359,000",0.01%
 2068,CHINA ALUMINUM INTERNATIONAL ENGINEERING CORPORATION LIMITED,"1,328,000",0.32%
 2098,ZALL SMART COMMERCE GROUP LTD.,"47,925,000",0.40%
 2099,CHINA GOLD INTERNATIONAL RESOURCES CORP. LTD.,"18,875,300",4.76%
 2111,BEST PACIFIC INTERNATIONAL HOLDINGS LIMITED,"1,702,000",0.16%
 2128,CHINA LESSO GROUP HOLDINGS LIMITED,"27,666,000",0.88%
 2136,LIFESTYLE CHINA GROUP LIMITED,"284,000",0.01%
 2186,LUYE PHARMA GROUP LTD.,"580,386,000",17.75%
 2196,"SHANGHAI FOSUN PHARMACEUTICAL (GROUP) CO., LTD.","167,064,668",30.26%
 2199,REGINA MIRACLE INTERNATIONAL (HOLDINGS) LIMITED,"3,010,000",0.24%
 2202,"CHINA VANKE CO., LTD.","137,396,090",8.70%
 2208,"XINJIANG GOLDWIND SCIENCE & TECHNOLOGY CO., LTD.","127,931,840",16.53%
 2232,CRYSTAL INTERNATIONAL GROUP LIMITED,"4,393,000",0.14%
 2233,WEST CHINA CEMENT LIMITED,"199,864,000",3.67%
 2238,"GUANGZHOU AUTOMOBILE GROUP CO., LTD.","1,179,786,878",38.06%
 2255,HAICHANG OCEAN PARK HOLDINGS LTD.,"44,629,000",1.11%
 2269,WUXI BIOLOGICS (CAYMAN) INC.,"89,589,814",6.91%
 2280,HC GROUP INC.,"125,760,500",11.22%
 2282,MGM CHINA HOLDINGS LIMITED,"29,895,896",0.78%
 2298,COSMO LADY (CHINA) HOLDINGS COMPANY LIMITED,"12,221,000",0.53%
 2313,SHENZHOU INTERNATIONAL GROUP HOLDINGS LIMITED,"46,680,681",3.09%
 2314,LEE & MAN PAPER MANUFACTURING LIMITED,"43,906,825",0.99%
 2318,"PING AN INSURANCE (GROUP) COMPANY OF CHINA, LTD.","139,694,657",1.87%
 2319,CHINA MENGNIU DAIRY COMPANY LIMITED,"72,929,706",1.84%
 2326,NEW PROVENANCE EVERLASTING HOLDINGS LIMITED,"56,940,000",0.26%
 2328,PICC PROPERTY AND CASUALTY COMPANY LIMITED,"542,883,641",7.86%
 2329,GUORUI PROPERTIES LIMITED,"153,286,000",3.44%
 2331,LI NING COMPANY LIMITED,"138,161,727",5.62%
 2333,GREAT WALL MOTOR COMPANY LIMITED,"907,172,786",29.26%
 2338,"WEICHAI POWER CO., LTD.","84,440,600",4.34%
 2343,PACIFIC BASIN SHIPPING LIMITED,"4,202,000",0.08%
 2356,DAH SING BANKING GROUP LIMITED,"216,800",0.01%
 2357,AVICHINA INDUSTRY & TECHNOLOGY COMPANY LIMITED,"367,418,000",5.87%
 2359,"WUXI APPTEC CO., LTD.","7,155,380",4.19%
 2362,JINCHUAN GROUP INTERNATIONAL RESOURCES CO. LTD.,"103,943,000",0.82%
 2363,TONGDA HONG TAI HOLDINGS LIMITED,"395,462",0.20%
 2369,COOLPAD GROUP LIMITED,"49,128,000",0.84%
 2380,CHINA POWER INTERNATIONAL DEVELOPMENT LIMITED,"814,880,102",8.30%
 2382,SUNNY OPTICAL TECHNOLOGY (GROUP) COMPANY LIMITED,"90,165,158",8.21%
 2386,"SINOPEC ENGINEERING (GROUP) CO., LTD.","11,126,500",0.76%
 2388,BOC HONG KONG (HOLDINGS) LIMITED,"46,597,725",0.44%
 2588,BOC AVIATION LIMITED,"9,551,400",1.36%
 2600,ALUMINUM CORPORATION OF CHINA LIMITED,"272,846,000",6.91%
 2601,CHINA PACIFIC INSURANCE (GROUP) CO. LTD.,"612,617,468",22.06%
 2607,"SHANGHAI PHARMACEUTICALS HOLDING CO., LTD.","115,595,452",12.57%
 2611,"GUOTAI JUNAN SECURITIES CO., LTD.","35,262,600",2.52%
 2628,CHINA LIFE INSURANCE COMPANY LIMITED,"229,349,593",3.07%
 2662,CAMSING INTERNATIONAL HOLDING LIMITED,"132,096,000",12.26%
 2666,GENERTEC UNIVERSAL MEDICAL GROUP COMPANY LIMITED,"295,477,500",17.21%
 2669,CHINA OVERSEAS PROPERTY HOLDINGS LIMITED,"216,773,699",6.59%
 2678,TEXHONG TEXTILE GROUP LIMITED,"27,547,500",3.01%
 2688,ENN ENERGY HOLDINGS LIMITED,"8,605,590",0.76%
 2689,NINE DRAGONS PAPER (HOLDINGS) LIMITED,"73,244,922",1.55%
 2727,SHANGHAI ELECTRIC GROUP COMPANY LIMITED,"705,717,000",23.73%
 2768,JIAYUAN INTERNATIONAL GROUP LIMITED,"301,383,577",7.63%
 2772,ZHONGLIANG HOLDINGS GROUP COMPANY LIMITED,"6,404,000",0.17%
 2777,"GUANGZHOU R&F PROPERTIES CO., LTD.","73,036,023",5.65%
 2799,"CHINA HUARONG ASSET MANAGEMENT CO., LTD.","1,615,304,000",6.44%
 2858,YIXIN GROUP LIMITED,"51,274,500",0.80%
 2866,"COSCO SHIPPING DEVELOPMENT CO., LTD.","611,414,000",16.63%
 2869,GREENTOWN SERVICE GROUP CO. LTD.,"179,841,899",
 2877,CHINA SHINEWAY PHARMACEUTICAL GROUP LIMITED,"10,940,000",1.31%
 2880,DALIAN PORT (PDA) COMPANY LIMITED,"896,969,200",17.38%
 2883,CHINA OILFIELD SERVICES LIMITED,"153,633,627",8.47%
 2888,STANDARD CHARTERED PLC,"442,070",0.01%
 2899,"ZIJIN MINING GROUP CO., LTD.","1,374,850,000",23.95%
 3301,RONSHINE CHINA HOLDINGS LIMITED,"146,731,000",8.53%
 3306,JNBY DESIGN LIMITED,"10,463,500",2.01%
 3308,GOLDEN EAGLE RETAIL GROUP LIMITED,"115,197,000",6.85%
 3309,C-MER EYE CARE HOLDINGS LIMITED,"14,770,000",1.40%
 3311,CHINA STATE CONSTRUCTION INTERNATIONAL HOLDINGS LIMITED,"12,930,740",0.25%
 3320,CHINA RESOURCES PHARMACEUTICAL GROUP LIMITED,"87,154,000",1.38%
 3323,CHINA NATIONAL BUILDING MATERIAL COMPANY LIMITED,"640,651,600",16.55%
 3328,"BANK OF COMMUNICATIONS CO., LTD.","494,559,944",1.40%
 3329,BOCOM INTERNATIONAL HOLDINGS COMPANY LIMITED,"20,048,000",0.73%
 3331,VINDA INTERNATIONAL HOLDINGS LIMITED,"499,000",0.03%
 3333,CHINA EVERGRANDE GROUP,"191,273,455",1.44%
 3339,LONKING HOLDINGS LIMITED,"16,968,000",0.39%
 3360,FAR EAST HORIZON LIMITED,"92,577,000",2.33%
 3368,PARKSON RETAIL GROUP LIMITED,"5,731,500",0.21%
 3369,"QINHUANGDAO PORT CO., LTD.","65,446,000",7.87%
 3377,SINO-OCEAN GROUP HOLDING LIMITED,"139,895,310",1.82%
 3380,LOGAN PROPERTY HOLDINGS COMPANY LIMITED,"136,656,871",2.47%
 3382,TIANJIN PORT DEVELOPMENT HOLDINGS LIMITED,"196,686,000",3.19%
 3383,AGILE GROUP HOLDINGS LIMITED,"29,800,548",0.75%
 3389,HENGDELI HOLDINGS LIMITED,"920,000",0.01%
 3393,WASION HOLDINGS LIMITED,"1,326,000",0.13%
 3396,LEGEND HOLDINGS CORPORATION,"67,885,400",5.32%
 3606,"FUYAO GLASS INDUSTRY GROUP CO., LTD","29,313,600",5.78%
 3613,BEIJING TONG REN TANG CHINESE MEDICINE COMPANY LIMITED,"61,977,000",7.40%
 3618,"CHONGQING RURAL COMMERCIAL BANK CO., LTD.","460,068,127",18.29%
 3633,ZHONGYU GAS HOLDINGS LIMITED,"13,448,000",0.49%
 3669,CHINA YONGDA AUTOMOBILES SERVICES HOLDINGS LIMITED,"18,153,000",
 3690,MEITUAN DIANPING,"167,121,932",2.86%
 3692,HANSOH PHARMACEUTICAL GROUP COMPANY LIMITED,"9,763,000",0.16%
 3698,HUISHANG BANK CORPORATION LIMITED,"4,883,900",0.14%
 3759,"PHARMARON BEIJING CO., LTD.","1,483,600",1.10%
 3788,CHINA HANKING HOLDINGS LIMITED,"16,479,000",0.90%
 3799,DALI FOODS GROUP COMPANY LIMITED,"339,703,500",2.47%
 3800,GCL-POLY ENERGY HOLDINGS LIMITED,"2,633,993,900",13.27%
 3808,SINOTRUK (HONG KONG) LIMITED,"86,731,000",3.13%
 3813,POU SHENG INTERNATIONAL (HOLDINGS) LIMITED,"8,044,000",0.15%
 3818,"CHINA DONGXIANG (GROUP) CO., LTD.","143,584,000",2.43%
 3823,TECH PRO TECHNOLOGY DEVELOPMENT LIMITED,"2,414,168,000",30.17%
 3836,CHINA HARMONY NEW ENERGY AUTO HOLDING LIMITED,"68,572,500",4.35%
 3866,"BANK OF QINGDAO CO., LTD.","842,000",0.04%
 3868,XINYI ENERGY HOLDINGS LIMITED,"3,810,000",0.05%
 3877,CSSC (HONG KONG) SHIPPING COMPANY LIMITED,"3,010,000",0.04%
 3883,CHINA AOYUAN GROUP LIMITED,"178,644,000",6.63%
 3886,TOWN HEALTH INTERNATIONAL MEDICAL GROUP LIMITED,"145,736,000",1.92%
 3888,KINGSOFT CORPORATION LIMITED,"337,089,027",24.54%
 3898,"ZHUZHOU CRRC TIMES ELECTRIC CO., LTD.","14,300,306",2.61%
 3899,CIMC ENRIC HOLDINGS LIMITED,"115,946,000",5.75%
 3900,GREENTOWN CHINA HOLDINGS LIMITED,"376,157,000",17.31%
 3908,CHINA INTERNATIONAL CAPITAL CORPORATION LIMITED,"315,485,696",16.56%
 3933,"UNITED LABORATORIES INTERNATIONAL HOLDINGS LIMITED, THE","113,874,181",6.93%
 3958,DFZQ,"363,870,456",35.42%
 3968,"CHINA MERCHANTS BANK CO., LTD.","250,986,851",5.45%
 3969,CHINA RAILWAY SIGNAL & COMMUNICATION CORPORATION LIMITED,"97,925,000",4.97%
 3988,BANK OF CHINA LIMITED,"5,431,803,441",6.49%
 3990,MIDEA REAL ESTATE HOLDING LIMITED,"20,700,800",1.67%
 3993,"CHINA MOLYBDENUM CO., LTD.","484,921,500",12.32%
 3996,CHINA ENERGY ENGINEERING CORPORATION LIMITED,"11,436,000",0.12%
 3998,BOSIDENG INTERNATIONAL HOLDINGS LIMITED,"570,320,000",5.25%
 6030,CITIC SECURITIES COMPANY LIMITED,"292,053,100",12.81%
 6055,CHINA TOBACCO INTERNATIONAL (HK) COMPANY LIMITED,"15,314,000",2.21%
 6060,"ZHONGAN ONLINE P & C INSURANCE CO., LTD.","17,248,400",3.66%
 6066,"CSC FINANCIAL CO., LTD.","245,324,000",19.44%
 6068,WISDOM EDUCATION INTERNATIONAL HOLDINGS COMPANY LIMITED,"84,532,000",4.12%
 6088,FIT HON TENG LIMITED,"96,901,000",1.40%
 6098,COUNTRY GARDEN SERVICES HOLDINGS COMPANY LIMITED,"110,099,069",4.05%
 6099,"CHINA MERCHANTS SECURITIES CO., LTD.","108,843,800",11.09%
 6100,"WISE TALENT INFORMATION TECHNOLOGY CO., LTD","178,400",0.03%
 6116,"SHANGHAI LA CHAPELLE FASHION CO., LTD.","57,044,000",26.55%
 6158,ZHENRO PROPERTIES GROUP LIMITED,"52,780,000",1.19%
 6166,CHINA VAST INDUSTRIAL URBAN DEVELOPMENT COMPANY LIMITED,"15,445,000",0.93%
 6169,CHINA YUHUA EDUCATION CORPORATION LIMITED,"422,666,050",12.85%
 6178,EVERBRIGHT SECURITIES COMPANY LIMITED,"85,645,200",12.16%
 6196,"BANK OF ZHENGZHOU CO., LTD.","178,223,000",11.74%
 6198,"QINGDAO PORT INTERNATIONAL CO., LTD.","5,245,000",0.46%
 6806,"SHENWAN HONGYUAN GROUP CO., LTD.","72,977,600",2.91%
 6808,SUN ART RETAIL GROUP LIMITED,"59,469,507",0.62%
 6818,CHINA EVERBRIGHT BANK COMPANY LIMITED,"805,297,992",6.34%
 6828,BEIJING GAS BLUE SKY HOLDINGS LIMITED,"371,544,000",2.86%
 6837,"HAITONG SECURITIES CO., LTD.","536,161,400",15.72%
 6862,HAIDILAO INTERNATIONAL HOLDING LTD.,"87,733,189",1.65%
 6865,"FLAT GLASS GROUP CO., LTD.","137,148,000",30.47%
 6869,YANGTZE OPTICAL FIBRE AND CABLE JOINT STOCK LIMITED COMPANY,"21,996,500",6.24%
 6881,"CHINA GALAXY SECURITIES CO., LTD.","795,208,382",21.53%
 6886,"HUATAI SECURITIES CO., LTD.","423,728,800",24.64%
 8328,XINYI AUTOMOBILE GLASS HONG KONG ENTERPRISES LIMITED,"109,750",0.01%
 9928,TIMES NEIGHBORHOOD HOLDINGS LIMITED,"12,115,701",1.33%
