Stock Code,Stock Name,Shareholding in CCASS,Percentage of the total number of Issued Shares
    1,CK HUTCHISON HOLDINGS LIMITED,"27,594,919",0.71%
    2,CLP HOLDINGS LIMITED,"4,051,492",0.15%
    3,"HONG KONG AND CHINA GAS COMPANY LIMITED, THE","22,648,450",0.12%
    4,"WHARF (HOLDINGS) LIMITED, THE","8,686,450",0.27%
    5,HSBC HOLDINGS PLC,"1,968,888,342",9.51%
    6,POWER ASSETS HOLDINGS LIMITED,"4,303,922",0.19%
    8,PCCW LIMITED,"10,405,726",0.13%
   10,HANG LUNG GROUP LIMITED,"29,928,000",2.19%
   11,HANG SENG BANK LTD,"3,601,097",0.17%
   12,HENDERSON LAND DEVELOPMENT CO LTD,"6,178,732",0.12%
   14,HYSAN DEVELOPMENT COMPANY LIMITED,"757,000",0.07%
   16,SUN HUNG KAI PROPERTIES LIMITED,"14,158,904",0.48%
   17,NEW WORLD DEVELOPMENT CO LTD,"11,625,881",0.44%
   19,SWIRE PACIFIC LTD 'A',"3,764,500",0.40%
   23,BANK OF EAST ASIA LTD,"1,090,593",0.02%
   27,GALAXY ENTERTAINMENT GROUP LIMITED,"65,304,695",1.50%
   35,FAR EAST CONSORTIUM INTERNATIONAL LTD,"800,013",0.03%
   38,FIRST TRACTOR COMPANY LIMITED,"112,778,100",28.76%
   41,GREAT EAGLE HOLDINGS LIMITED,"1,239,511",0.16%
   42,NORTHEAST ELECTRIC DEVELOPMENT COMPANY LIMITED,"15,354,000",5.95%
   43,C.P. POKPHAND CO LTD,"380,000",0.00%
   45,"HONGKONG AND SHANGHAI HOTELS LTD,THE","41,513",0.00%
   59,SKYFAME REALTY (HOLDINGS) LIMITED,"63,532,000",0.80%
   66,MTR CORPORATION LIMITED,"9,121,481",0.14%
   69,SHANGRI-LA ASIA LIMITED,"18,106,000",0.49%
   78,REGAL HOTELS INTERNATIONAL HOLDINGS LIMITED,"12,000",0.00%
   81,CHINA OVERSEAS GRAND OCEANS GROUP LIMITED,"329,524,820",9.61%
   83,SINO LAND CO.LTD.,"3,745,976",0.05%
   86,SUN HUNG KAI & CO.LTD,"14,763,000",0.73%
   87,SWIRE PACIFIC LTD 'B',"27,497,500",0.91%
   95,LVGEM (CHINA) REAL ESTATE INVESTMENT COMPANY LIMITED,"174,262,000",3.41%
  101,HANG LUNG PROPERTIES LIMITED,"86,747,099",1.92%
  107,SICHUAN EXPRESSWAY COMPANY LIMITED,"229,366,000",25.61%
  109,GOOD RESOURCES HOLDINGS LIMITED,"44,440,000",0.62%
  116,CHOW SANG SANG HOLDINGS INTERNATIONAL LIMITED,"22,453,134",3.31%
  119,"POLY PROPERTY GROUP CO., LIMITED","397,733,748",10.85%
  120,COSMOPOLITAN INTERNATIONAL HOLDINGS LTD,"2,374,000",0.04%
  123,YUEXIU PROPERTY COMPANY LIMITED,"375,461,630",2.41%
  127,CHINESE ESTATES HOLDINGS LIMITED,"2,701,500",0.13%
  135,KUNLUN ENERGY COMPANY LIMITED,"138,231,534",1.58%
  136,HENGTEN NETWORKS GROUP LIMITED,"6,661,600,000",8.23%
  142,FIRST PACIFIC CO. LTD.,"7,114,000",0.16%
  144,CHINA MERCHANTS PORT HOLDINGS COMPANY LIMITED,"148,987,311",4.06%
  148,KINGBOARD HOLDINGS LIMITED,"13,900,077",1.24%
  151,WANT WANT CHINA HOLDINGS LIMITED,"24,363,871",0.19%
  152,SHENZHEN INTERNATIONAL HOLDINGS LIMITED,"77,353,453",3.52%
  163,EMPEROR INTERNATIONAL HOLDINGS LIMITED,"10,594,000",0.28%
  165,CHINA EVERBRIGHT LIMITED,"223,607,955",13.25%
  168,TSINGTAO BREWERY COMPANY LIMITED,"97,604,000",14.89%
  173,K. WAH INTERNATIONAL HOLDINGS LIMITED,"36,377,196",1.15%
  175,GEELY AUTOMOBILE HOLDINGS LIMITED,"1,151,447,135",11.72%
  177,JIANGSU EXPRESSWAY COMPANY LIMITED,"127,052,818",10.39%
  178,SA SA INTERNATIONAL HOLDINGS LIMITED,"14,775,268",0.47%
  179,JOHNSON ELECTRIC HOLDINGS LIMITED,"1,329,000",0.13%
  187,BEIJING JINGCHENG MACHINERY ELECTRIC COMPANY LIMITED,"26,974,000",26.96%
  189,DONGYUE GROUP LIMITED,"195,410,358",9.25%
  198,SMI HOLDINGS GROUP LIMITED,"70,340,800",2.59%
  200,MELCO INTERNATIONAL DEVELOPMENT LIMITED,"12,361,000",0.81%
  207,JOY CITY PROPERTY LIMITED,"4,364,000",0.03%
  215,HUTCHISON TELECOMMUNICATIONS HONG KONG HOLDINGS LIMITED,"10,578,000",0.21%
  220,UNI-PRESIDENT CHINA HOLDINGS LTD.,"8,281,000",0.18%
  241,ALIBABA HEALTH INFORMATION TECHNOLOGY LIMITED,"234,854,414",1.74%
  242,SHUN TAK HOLDINGS LIMITED,"91,892,000",3.03%
  245,CHINA VERED FINANCIAL HOLDING CORPORATION LIMITED,"25,120,000",0.06%
  256,CITYCHAMP WATCH & JEWELLERY GROUP LIMITED,"370,578,000",8.51%
  257,CHINA EVERBRIGHT ENVIRONMENT GROUP LIMITED,"608,164,910",9.89%
  267,CITIC LIMITED,"183,184,916",0.62%
  268,KINGDEE INTERNATIONAL SOFTWARE GROUP COMPANY LIMITED,"598,943,786",17.27%
  270,GUANGDONG INVESTMENT LIMITED,"39,308,905",0.59%
  272,SHUI ON LAND LIMITED,"814,379,104",10.09%
  279,FREEMAN FINTECH CORPORATION LIMITED,"612,286,000",32.77%
  285,BYD ELECTRONIC (INTERNATIONAL) COMPANY LIMITED,"200,121,887",8.87%
  288,WH GROUP LIMITED,"1,070,986,861",7.25%
  291,CHINA RESOURCES BEER (HOLDINGS) COMPANY LIMITED,"394,593,427",12.16%
  293,CATHAY PACIFIC AIRWAYS LTD,"17,832,117",0.26%
  295,KONG SUN HOLDINGS LIMITED,"51,600,000",0.34%
  297,SINOFERT HOLDINGS LIMITED,"366,832,000",5.21%
  302,CMGE TECHNOLOGY GROUP LIMITED,"181,018,000",7.76%
  303,VTECH HOLDINGS LIMITED,"1,205,461",0.47%
  308,CHINA TRAVEL INTERNATIONAL INVESTMENT HONG KONG LIMITED,"175,516,439",3.16%
  315,SMARTONE TELECOMMUNICATIONS HOLDINGS LIMITED,"2,049,108",0.18%
  316,ORIENT OVERSEAS (INTERNATIONAL) LIMITED,"7,000",0.00%
  317,CSSC OFFSHORE & MARINE ENGINEERING (GROUP) COMPANY LIMITED,"25,281,900",4.26%
  321,TEXWINCA HOLDINGS LIMITED,"1,004,000",0.07%
  322,TINGYI (CAYMAN ISLANDS) HOLDING CORP.,"25,543,308",0.44%
  323,MAANSHAN IRON & STEEL COMPANY LIMITED,"7,422,000",0.42%
  327,PAX GLOBAL TECHNOLOGY LIMITED,"5,988,000",0.55%
  330,ESPRIT HOLDINGS LIMITED,"8,369,200",0.43%
  336,HUABAO INTERNATIONAL HOLDINGS LIMITED,"417,458,100",13.43%
  337,GREENLAND HONG KONG HOLDINGS LIMITED,"115,527,000",4.13%
  338,SINOPEC SHANGHAI PETROCHEMICAL COMPANY LIMITED,"520,794,806",14.89%
  341,CAFE DE CORAL HOLDINGS LTD,"5,836,000",0.99%
  345,VITASOY INTERNATIONAL HOLDINGS LTD,"6,494,011",0.60%
  347,ANGANG STEEL COMPANY LIMITED,"12,029,400",0.85%
  354,CHINASOFT INTERNATIONAL LIMITED,"390,809,622",14.34%
  358,JIANGXI COPPER COMPANY LIMITED,"86,889,219",6.25%
  363,SHANGHAI INDUSTRIAL HOLDINGS LIMITED,"29,173,500",2.67%
  371,BEIJING ENTERPRISES WATER GROUP LIMITED,"271,852,010",2.70%
  378,FDG KINETIC LIMITED,"180,396,000",2.67%
  384,CHINA GAS HOLDINGS LIMITED,"44,634,243",0.85%
  386,CHINA PETROLEUM & CHEMICAL CORPORATION,"1,459,662,744",5.71%
  388,HONG KONG EXCHANGES AND CLEARING LIMITED,"74,621,376",5.88%
  390,CHINA RAILWAY GROUP LIMITED,"310,723,030",7.37%
  392,BEIJING ENTERPRISES HOLDINGS LIMITED,"88,268,982",6.99%
  400,COGOBUY GROUP,"49,138,000",3.46%
  410,SOHO CHINA LIMITED,"462,881,000",8.89%
  412,CHINA SHANDONG HI-SPEED FINANCIAL GROUP LIMITED,"9,846,000",0.04%
  419,HUAYI TENCENT ENTERTAINMENT COMPANY LIMITED,"164,770,000",1.22%
  425,MINTH GROUP LIMITED,"33,544,761",
  432,PACIFIC CENTURY PREMIUM DEVELOPMENTS LIMITED,"307,854",0.01%
  439,KUANGCHI SCIENCE LIMITED,"268,558,000",4.36%
  440,DAH SING FINANCIAL HOLDINGS LTD,"2,884,466",0.89%
  451,GCL NEW ENERGY HOLDINGS LIMITED,"1,138,274,000",5.96%
  460,SIHUAN PHARMACEUTICAL HOLDINGS GROUP LTD.,"570,404,000",6.01%
  467,UNITED ENERGY GROUP LIMITED,"258,482,000",0.97%
  468,GREATVIEW ASEPTIC PACKAGING COMPANY LIMITED,"5,188,000",0.38%
  480,HKR INTERNATIONAL LTD,"45,200",0.00%
  488,LAI SUN DEVELOPMENT COMPANY LIMITED,"30,000",0.00%
  489,DONGFENG MOTOR GROUP COMPANY LIMITED,"227,488,000",7.95%
  493,GOME RETAIL HOLDINGS LIMITED,"2,562,558,000",11.88%
  496,KASEN INTERNATIONAL HOLDINGS LIMITED,"141,872,000",9.49%
  506,CHINA FOODS LIMITED,"34,210,100",1.21%
  508,DINGYI GROUP INVESTMENT LIMITED,"378,985,000",5.15%
  511,TELEVISION BROADCASTS LIMITED,"453,900",0.09%
  512,CHINA GRAND PHARMACEUTICAL AND HEALTHCARE HOLDINGS LIMITED,"115,815,200",3.26%
  517,"COSCO SHIPPING INTERNATIONAL (HONG KONG) CO., LTD.","420,000",0.02%
  520,"XIABUXIABU CATERING MANAGEMENT (CHINA) HOLDINGS CO., LTD.","187,214,000",
  522,ASM PACIFIC TECHNOLOGY LIMITED,"11,872,425",2.89%
  525,GUANGSHEN RAILWAY COMPANY LIMITED,"399,020,010",27.86%
  530,GOLDIN FINANCIAL HOLDINGS LIMITED,"2,444,000",0.03%
  535,GEMDALE PROPERTIES AND INVESTMENT CORPORATION LIMITED,"2,005,764,154",12.14%
  546,FUFENG GROUP LIMITED,"73,624,119",2.90%
  547,DIGITAL DOMAIN HOLDINGS LIMITED,"1,014,980,000",2.97%
  548,SHENZHEN EXPRESSWAY COMPANY LIMITED,"141,020,000",18.85%
  551,YUE YUEN INDUSTRIAL (HOLDINGS) LIMITED,"6,945,141",0.43%
  552,CHINA COMMUNICATIONS SERVICES CORPORATION LIMITED,"44,814,000",1.86%
  553,NANJING PANDA ELECTRONICS COMPANY LIMITED,"61,484,000",25.40%
  563,SHANGHAI INDUSTRIAL URBAN DEVELOPMENT GROUP LIMITED,"108,878,155",2.26%
  564,ZHENGZHOU COAL MINING MACHINERY GROUP COMPANY LIMITED,"39,005,404",16.02%
  568,SHANDONG MOLONG PETROLEUM MACHINERY COMPANY LIMITED,"61,273,600",23.92%
  570,CHINA TRADITIONAL CHINESE MEDICINE HOLDINGS CO LIMITED,"665,268,938",13.20%
  576,"ZHEJIANG EXPRESSWAY CO., LTD.","71,287,407",4.96%
  579,"BEIJING JINGNENG CLEAN ENERGY CO., LIMITED","147,632,000",5.21%
  581,CHINA ORIENTAL GROUP COMPANY LIMITED,"127,828,487",3.42%
  582,LANDING INTERNATIONAL DEVELOPMENT LIMITED,"111,572,400",3.16%
  586,CHINA CONCH VENTURE HOLDINGS LIMITED,"150,513,500",8.33%
  588,BEIJING NORTH STAR COMPANY LIMITED,"235,434,000",33.29%
  590,LUK FOOK HOLDINGS (INTERNATIONAL) LIMITED,"2,694,000",0.45%
  598,SINOTRANS LIMITED,"286,864,000",13.36%
  604,SHENZHEN INVESTMENT LIMITED,"35,556,812",0.39%
  607,FULLSHARE HOLDINGS LIMITED,"4,000,185,000",20.29%
  612,CHINA DING YI FENG HOLDINGS LIMITED,"2,200,000",0.16%
  631,SANY HEAVY EQUIPMENT INTERNATIONAL HOLDINGS COMPANY LIMITED,"180,698,000",5.79%
  636,KERRY LOGISTICS NETWORK LIMITED,"2,047,000",0.10%
  639,SHOUGANG FUSHAN RESOURCES GROUP LIMITED,"96,171,538",1.90%
  656,FOSUN INTERNATIONAL LIMITED,"1,042,118,780",12.30%
  658,"CHINA HIGH SPEED TRANSMISSION EQUIPMENT GROUP CO., LTD.","135,331,000",8.26%
  659,NWS HOLDINGS LIMITED,"9,809,546",0.24%
  665,HAITONG INTERNATIONAL SECURITIES GROUP LIMITED,"264,861,274",4.37%
  667,CHINA EAST EDUCATION HOLDINGS LIMITED,"137,228,500",6.25%
  669,TECHTRONIC INDUSTRIES CO. LTD.,"6,834,970",0.37%
  670,CHINA EASTERN AIRLINES CORPORATION LIMITED,"231,199,567",4.45%
  680,NAN HAI CORPORATION LIMITED,"472,400,000",0.68%
  683,KERRY PROPERTIES LIMITED,"3,546,109",0.24%
  686,"BEIJING ENERGY INTERNATIONAL HOLDING CO., LTD","295,008,000",1.31%
  687,TYSAN HOLDINGS LIMITED,"20,956,000",0.62%
  688,CHINA OVERSEAS LAND & INVESTMENT LIMITED,"86,545,087",0.78%
  691,CHINA SHANSHUI CEMENT GROUP LIMITED,"4,026,000",0.08%
  694,BEIJING CAPITAL INTERNATIONAL AIRPORT COMPANY LIMITED,"340,382,204",18.10%
  696,TRAVELSKY TECHNOLOGY LIMITED,"26,814,000",2.87%
  697,SHOUCHENG HOLDINGS LIMITED,"52,442,010",0.74%
  698,TONGDA GROUP HOLDINGS LIMITED,"154,290,000",2.37%
  699,CAR INC.,"134,779,001",6.34%
  700,TENCENT HOLDINGS LIMITED,"409,081,250",4.26%
  709,GIORDANO INTERNATIONAL LIMITED,"2,100,000",0.13%
  715,CHINA OCEANWIDE HOLDINGS LIMITED,"456,000",0.00%
  718,TAI UNITED HOLDINGS LIMITED,"20,050,000",0.38%
  719,SHANDONG XINHUA PHARMACEUTICAL COMPANY LIMITED,"68,970,200",35.36%
  721,CHINA FINANCIAL INTERNATIONAL INVESTMENTS LIMITED,"304,790,000",2.77%
  728,CHINA TELECOM CORPORATION LIMITED,"549,159,929",3.95%
  729,FDG ELECTRIC VEHICLES LIMITED,"70,130,750",2.79%
  732,TRULY INTERNATIONAL HOLDINGS LIMITED,"295,130,000",8.96%
  737,SZ INVESTMENT HLDGS BAY AREA DEV CO LTD -HKD TRADED SHARES,"1,431,500",0.04%
  743,ASIA CEMENT (CHINA) HOLDINGS CORPORATION,"30,743,000",1.96%
  751,SKYWORTH GROUP LIMITED,"158,615,637",5.93%
  753,AIR CHINA LIMITED,"350,562,449",7.67%
  754,HOPSON DEVELOPMENT HOLDINGS LIMITED,"48,932,000",2.21%
  762,CHINA UNICOM (HONG KONG) LIMITED,"289,082,000",0.94%
  763,ZTE CORPORATION,"184,243,998",24.38%
  772,CHINA LITERATURE LIMITED,"87,374,723",8.59%
  775,"CK LIFE SCIENCES INT'L., (HOLDINGS) INC.","17,772,000",0.18%
  777,NETDRAGON WEBSOFT HOLDINGS LIMITED,"25,810,000",4.59%
  780,TONGCHENG-ELONG HOLDINGS LIMITED,"58,366,800",2.68%
  787,GLOBAL BRANDS GROUP HOLDING LIMITED,"65,596,833",6.36%
  788,CHINA TOWER CORPORATION LIMITED,"1,883,166,140",4.02%
  799,IGG INC,"82,275,298",6.68%
  806,VALUE PARTNERS GROUP LIMITED,"55,506,405",2.98%
  811,"XINHUA WINSHARE PUBLISHING AND MEDIA CO., LTD.","84,871,000",19.19%
  813,SHIMAO GROUP HOLDINGS LIMITED,"67,154,072",1.89%
  817,CHINA JINMAO HOLDINGS GROUP LIMITED,"1,126,945,258",8.84%
  819,TIANNENG POWER INTERNATIONAL LIMITED,"211,693,000",18.79%
  826,TIANGONG INTERNATIONAL COMPANY LIMITED,"140,128,000",5.46%
  829,SHENGUAN HOLDINGS (GROUP) LIMITED,"140,210,000",4.34%
  832,CENTRAL CHINA REAL ESTATE LIMITED,"151,734,000",
  836,CHINA RESOURCES POWER HOLDINGS COMPANY LIMITED,"223,668,335",4.64%
  839,CHINA EDUCATION GROUP HOLDINGS LIMITED,"96,925,844",4.49%
  845,GLORIOUS PROPERTY HOLDINGS LIMITED,"22,274,000",0.28%
  846,MINGFA GROUP (INTERNATIONAL) COMPANY LIMITED,"5,261,000",0.08%
  853,MICROPORT SCIENTIFIC CORPORATION,"226,998,225",12.55%
  855,CHINA WATER AFFAIRS GROUP LIMITED,"171,548,000",10.81%
  856,VSTECS HOLDINGS LIMITED,"15,266,000",1.05%
  857,PETROCHINA COMPANY LIMITED,"1,847,820,455",8.75%
  860,APOLLO FUTURE MOBILITY GROUP LIMITED,"23,616,000",0.32%
  861,DIGITAL CHINA HOLDINGS LIMITED,"606,515,400",36.25%
  867,CHINA MEDICAL SYSTEM HOLDINGS LIMITED,"37,713,618",1.52%
  868,XINYI GLASS HOLDINGS LIMITED,"201,103,053",4.98%
  874,"GUANGZHOU BAIYUNSHAN PHARMACEUTICAL HOLDINGS CO., LTD.","68,734,100",31.24%
  880,SJM HOLDINGS LIMITED,"247,279,700",4.34%
  881,ZHONGSHENG GROUP HOLDINGS LIMITED,"43,640,754",1.90%
  883,CNOOC LIMITED,"554,760,374",1.23%
  884,CIFI HOLDINGS (GROUP) CO. LTD.,"386,589,414",4.69%
  885,RENTIAN TECHNOLOGY HOLDINGS LIMITED,"1,110,000",0.01%
  895,DONGJIANG ENVIRONMENTAL COMPANY LIMITED,"55,387,400",27.67%
  902,"HUANENG POWER INTERNATIONAL, INC.","2,056,801,004",43.75%
  906,CPMC HOLDINGS LIMITED,"13,689,000",1.22%
  911,QIANHAI HEALTH HOLDINGS LIMITED,"90,675,000",5.35%
  914,ANHUI CONCH CEMENT COMPANY LIMITED,"56,865,789",4.37%
  916,CHINA LONGYUAN POWER GROUP CORPORATION LIMITED,"134,558,000",4.02%
  921,"HISENSE HOME APPLIANCES GROUP CO., LTD.","33,547,959",7.29%
  931,CHINA LNG GROUP LIMITED,"117,759,000",2.08%
  934,SINOPEC KANTONS HOLDINGS LIMITED,"156,352,000",6.28%
  939,CHINA CONSTRUCTION BANK CORPORATION,"27,556,548,222",11.45%
  941,CHINA MOBILE LIMITED,"176,704,396",0.86%
  950,LEE'S PHARMACEUTICAL HOLDINGS LIMITED,"1,356,500",0.23%
  951,CHAOWEI POWER HOLDINGS LIMITED,"99,819,000",9.04%
  956,CHINA SUNTIEN GREEN ENERGY CORPORATION LIMITED,"266,892,000",14.50%
  960,LONGFOR GROUP HOLDINGS LIMITED,"175,559,993",2.91%
  966,CHINA TAIPING INSURANCE HOLDINGS COMPANY LIMITED,"481,233,774",13.38%
  967,SOUND GLOBAL LTD.,"289,000",0.01%
  968,XINYI SOLAR HOLDINGS LIMITED,"603,024,019",7.08%
  976,CHIHO ENVIRONMENTAL GROUP LIMITED,"188,904,000",11.76%
  978,CHINA MERCHANTS LAND LIMITED,"193,918,000",3.95%
  981,SEMICONDUCTOR MANUFACTURING INTERNATIONAL CORPORATION,"1,074,387,857",13.94%
  989,GROUND INTERNATIONAL DEVELOPMENT LIMITED,"136,245,000",2.24%
  991,"DATANG INTERNATIONAL POWER GENERATION CO.,LTD.","382,146,000",6.24%
  992,LENOVO GROUP LIMITED,"100,111,882",0.82%
  995,ANHUI EXPRESSWAY COMPANY LIMITED,"122,928,000",24.93%
  996,CARNIVAL GROUP INTERNATIONAL HOLDINGS LIMITED-NEW,"239,536,900",25.26%
  998,CHINA CITIC BANK CORPORATION LIMITED,"2,909,438,378",19.54%
 1028,C.BANNER INTERNATIONAL HOLDINGS LIMITED,"143,864,000",6.92%
 1030,SEAZEN GROUP LIMITED,"307,660,000",4.94%
 1031,KINGSTON FINANCIAL GROUP LIMITED,"548,000",0.00%
 1033,SINOPEC OILFIELD SERVICE CORPORATION,"395,716,000",7.30%
 1038,CK INFRASTRUCTURE HOLDINGS LIMITED,"10,409,000",0.38%
 1044,HENGAN INTERNATIONAL GROUP COMPANY LIMITED,"18,754,105",1.57%
 1052,YUEXIU TRANSPORT INFRASTRUCTURE LIMITED,"79,952,142",4.77%
 1053,CHONGQING IRON & STEEL COMPANY LIMITED,"95,120,000",17.66%
 1055,CHINA SOUTHERN AIRLINES COMPANY LIMITED,"229,187,480",5.35%
 1057,ZHEJIANG SHIBAO COMPANY LIMITED,"56,670,000",26.14%
 1060,ALIBABA PICTURES GROUP LIMITED,"3,486,498,620",12.98%
 1065,TIANJIN CAPITAL ENVIRONMENTAL PROTECTION GROUP COMPANY LIMITED,"124,536,100",36.62%
 1066,SHANDONG WEIGAO GROUP MEDICAL POLYMER COMPANY LIMITED,"758,173,871",16.75%
 1068,CHINA YURUN FOOD GROUP LIMITED,"17,977,000",0.98%
 1070,TCL ELECTRONICS HOLDINGS LIMITED,"119,752,666",4.88%
 1071,HUADIAN POWER INTERNATIONAL CORPORATION LIMITED,"728,709,855",42.42%
 1072,DONGFANG ELECTRIC CORPORATION LIMITED,"72,321,316",21.26%
 1076,IMPERIAL PACIFIC INTERNATIONAL HOLDINGS LIMITED,"387,060,000",0.27%
 1083,TOWNGAS CHINA COMPANY LIMITED,"16,930,542",0.56%
 1086,GOODBABY INTERNATIONAL HOLDINGS LIMITED,"21,128,000",1.26%
 1088,CHINA SHENHUA ENERGY COMPANY LIMITED,"960,188,325",28.24%
 1089,LEYOU TECHNOLOGIES HOLDINGS LIMITED,"2,775,000",0.08%
 1093,CSPC PHARMACEUTICAL GROUP LIMITED,"738,034,501",6.15%
 1097,I-CABLE COMMUNICATIONS LIMITED,"76,600",0.00%
 1098,ROAD KING INFRASTRUCTURE LIMITED,"10,411,000",1.38%
 1099,SINOPHARM GROUP CO. LTD.,"88,120,612",6.55%
 1108,LUOYANG GLASS COMPANY LIMITED,"90,260,000",36.09%
 1109,CHINA RESOURCES LAND LIMITED,"134,760,964",1.88%
 1111,CHONG HING BANK LIMITED,"1,022,500",0.10%
 1112,HEALTH AND HAPPINESS (H&H) INTERNATIONAL HOLDINGS LIMITED,"36,532,500",5.66%
 1113,CK ASSET HOLDINGS LIMITED,"14,501,033",0.38%
 1114,BRILLIANCE CHINA AUTOMOTIVE HOLDINGS LIMITED,"90,862,386",1.79%
 1115,TIBET WATER RESOURCES LTD.,"160,811,000",6.25%
 1117,CHINA MODERN DAIRY HOLDINGS LTD.,"284,801,000",4.40%
 1119,IDREAMSKY TECHNOLOGY HOLDINGS LIMITED,"46,580,400",3.66%
 1128,"WYNN MACAU, LIMITED","39,025,600",0.74%
 1131,AGRITRADE RESOURCES LIMITED,"583,090,000",9.14%
 1138,"COSCO SHIPPING ENERGY TRANSPORTATION CO., LTD.","215,168,003",16.59%
 1140,OP FINANCIAL LIMITED,"97,464,000",3.35%
 1141,CMBC CAPITAL HOLDINGS LIMITED,"931,080,000",1.94%
 1157,"ZOOMLION HEAVY INDUSTRY SCIENCE AND TECHNOLOGY CO., LTD.","28,777,522",2.07%
 1165,SHUNFENG INTERNATIONAL CLEAN ENERGY LIMITED,"319,646,000",6.41%
 1169,"HAIER ELECTRONICS GROUP CO., LTD.","165,845,070",5.88%
 1171,YANZHOU COAL MINING COMPANY LIMITED,"315,189,995",16.58%
 1176,ZHUGUANG HOLDINGS GROUP COMPANY LIMITED,"234,930,000",3.26%
 1177,SINO BIOPHARMACEUTICAL LIMITED,"1,320,196,034",6.99%
 1186,CHINA RAILWAY CONSTRUCTION CORPORATION LIMITED,"196,705,190",9.46%
 1188,HYBRID KINETIC GROUP LIMITED,"102,914,000",0.50%
 1193,CHINA RESOURCES GAS GROUP LIMITED,"9,352,000",0.39%
 1196,REALORD GROUP HOLDINGS LIMITED,"124,502,000",8.65%
 1199,COSCO SHIPPING PORTS LIMITED,"20,449,751",0.60%
 1205,CITIC RESOURCES HOLDINGS LIMITED,"159,312,100",2.02%
 1208,MMG LIMITED,"314,738,000",3.89%
 1211,BYD COMPANY LIMITED,"51,850,572",5.66%
 1212,LIFESTYLE INTERNATIONAL HOLDINGS LIMITED,"4,097,391",0.26%
 1230,YASHILI INTERNATIONAL HOLDINGS LTD,"76,906,000",1.61%
 1233,TIMES CHINA HOLDINGS LIMITED,"85,036,419",4.36%
 1234,CHINA LILANG LIMITED,"73,092,000",6.10%
 1238,POWERLONG REAL ESTATE HOLDINGS LIMITED,"124,740,740",3.00%
 1250,BEIJING ENTERPRISES CLEAN ENERGY GROUP LIMITED,"1,603,780,000",2.52%
 1253,CHINA GREENLAND BROAD GREENSTATE GROUP COMPANY LIMITED,"6,428,000",0.19%
 1257,CHINA EVERBRIGHT GREENTECH LIMITED,"163,104,000",7.89%
 1268,CHINA MEIDONG AUTO HOLDINGS LIMITED,"51,504,000",4.13%
 1269,CHINA FIRST CAPITAL GROUP LIMITED,"1,643,360,000",32.68%
 1282,GLORY SUN FINANCIAL GROUP LIMITED,"4,335,164,000",13.80%
 1286,IMPRO PRECISION INDUSTRIES LIMITED,"1,117,000",0.05%
 1288,AGRICULTURAL BANK OF CHINA LIMITED,"8,473,654,659",27.56%
 1293,GRAND BAOXIN AUTO GROUP LIMITED,"128,153,337",4.51%
 1299,AIA GROUP LIMITED,"89,644,199",0.73%
 1302,LIFETECH SCIENTIFIC CORPORATION,"764,116,000",17.64%
 1308,SITC INTERNATIONAL HOLDINGS COMPANY LIMITED,"90,278,297",3.36%
 1310,HKBN LTD.,"2,648,370",0.19%
 1313,CHINA RESOURCES CEMENT HOLDINGS LIMITED,"39,425,747",0.55%
 1315,VISION FAME INTERNATIONAL HOLDING LIMITED,"708,500,000",11.80%
 1316,NEXTEER AUTOMOTIVE GROUP LIMITED,"51,027,000",2.03%
 1317,CHINA MAPLE LEAF EDUCATIONAL SYSTEMS LIMITED,"466,566,537",15.57%
 1330,"DYNAGREEN ENVIRONMENTAL PROTECTION GROUP CO., LTD","156,205,000",38.62%
 1333,CHINA ZHONGWANG HOLDINGS LIMITED,"361,683,626",6.63%
 1336,NEW CHINA LIFE INSURANCE COMPANY LTD.,"337,214,940",32.60%
 1339,"PEOPLE'S INSURANCE COMPANY (GROUP) OF CHINA LIMITED, THE","1,805,756,987",20.68%
 1347,HUA HONG SEMICONDUCTOR LIMITED,"112,925,681",8.71%
 1357,"MEITU, INC.","334,377,100",7.74%
 1359,"CHINA CINDA ASSET MANAGEMENT CO., LTD.","2,681,823,881",19.76%
 1361,361 DEGREES INTERNATIONAL LIMITED,"28,632,000",1.38%
 1363,CT ENVIRONMENTAL GROUP LIMITED,"502,874,000",7.95%
 1368,XTEP INTERNATIONAL HOLDINGS LIMITED,"82,988,773",3.27%
 1375,"CENTRAL CHINA SECURITIES CO., LTD.","312,824,000",26.16%
 1378,CHINA HONGQIAO GROUP LIMITED,"529,069,910",5.95%
 1381,CANVEST ENVIRONMENTAL PROTECTION GROUP COMPANY LIMITED,"30,260,000",1.24%
 1382,PACIFIC TEXTILES HOLDINGS LIMITED,"28,336,022",2.00%
 1383,SUNCITY GROUP HOLDINGS LIMITED,"36,690,000",0.55%
 1387,CHINA DILI GROUP,"148,321,670",1.75%
 1398,INDUSTRIAL AND COMMERCIAL BANK OF CHINA LIMITED,"25,796,843,837",29.71%
 1432,CHINA SHENGMU ORGANIC MILK LIMITED,"95,026,000",1.12%
 1448,FU SHOU YUAN INTERNATIONAL GROUP LIMITED,"299,131,419",13.00%
 1456,"GUOLIAN SECURITIES CO., LTD.","70,533,000",15.92%
 1458,ZHOU HEI YA INTERNATIONAL HOLDINGS COMPANY LIMITED,"399,162,000",16.74%
 1475,NISSIN FOODS COMPANY LIMITED,"3,810,000",0.35%
 1478,Q TECHNOLOGY (GROUP) COMPANY LIMITED,"53,640,000",4.57%
 1508,CHINA REINSURANCE (GROUP) CORPORATION,"1,009,900,000",15.11%
 1513,LIVZON PHARMACEUTICAL GROUP INC.,"36,351,169",11.36%
 1515,CHINA RESOURCES MEDICAL HOLDINGS COMPANY LIMITED,"75,441,100",5.81%
 1516,SUNAC SERVICES HOLDINGS LIMITED,"17,990,855",0.59%
 1521,FRONTAGE HOLDINGS CORPORATION,"224,704,000",11.04%
 1528,RED STAR MACALLINE GROUP CORPORATION LTD.,"136,730,565",18.44%
 1530,3SBIO INC.,"220,691,539",8.66%
 1533,"LANZHOU ZHUANGYUAN PASTURE CO., LTD.","7,962,000",22.66%
 1548,GENSCRIPT BIOTECH CORPORATION,"229,122,000",11.88%
 1551,"GUANGZHOU RURAL COMMERCIAL BANK CO., LTD","2,414,000",0.13%
 1558,"YICHANG HEC CHANGJIANG PHARMACEUTICAL CO., LTD.","192,475,400",29.44%
 1569,MINSHENG EDUCATION GROUP COMPANY LIMITED,"229,992,000",5.45%
 1573,SOUTHERN ENERGY HOLDINGS GROUP LIMITED,"126,862,000",17.66%
 1578,"BANK OF TIANJIN CO., LTD.","34,000",0.00%
 1579,YIHAI INTERNATIONAL HOLDING LTD.,"116,178,460",11.09%
 1583,QINQIN FOODSTUFFS GROUP (CAYMAN) COMPANY LIMITED,"24,400",0.00%
 1585,YADEA GROUP HOLDINGS LTD.,"293,636,000",9.80%
 1589,"CHINA LOGISTICS PROPERTY HOLDINGS CO., LTD","3,241,000",0.09%
 1600,CHINA TIAN LUN GAS HOLDINGS LIMITED,"17,326,000",1.72%
 1606,"CHINA DEVELOPMENT BANK FINANCIAL LEASING CO., LTD.","316,000",0.01%
 1608,VPOWER GROUP INTERNATIONAL HOLDINGS LIMITED,"5,195,000",0.19%
 1610,COFCO JOYCOME FOODS LIMITED,"669,885,000",17.16%
 1618,METALLURGICAL CORPORATION OF CHINA LTD.,"518,062,000",18.04%
 1622,REDCO PROPERTIES GROUP LIMITED,"239,478,000",6.74%
 1628,YUZHOU GROUP HOLDINGS COMPANY LIMITED,"72,644,382",1.26%
 1635,"SHANGHAI DAZHONG PUBLIC UTILITIES (GROUP) CO., LTD.","82,546,000",15.46%
 1636,CHINA METAL RESOURCES UTILIZATION LIMITED,"34,572,000",1.31%
 1638,KAISA GROUP HOLDINGS LTD.,"562,891,619",9.17%
 1658,"POSTAL SAVINGS BANK OF CHINA CO., LTD.","715,219,845",3.59%
 1661,WISDOM SPORTS GROUP,"6,217,000",0.39%
 1666,TONG REN TANG TECHNOLOGIES CO LTD,"126,256,200",20.08%
 1668,CHINA SOUTH CITY HOLDINGS LIMITED,"903,657,543",11.16%
 1675,ASIAINFO TECHNOLOGIES LIMITED,"2,712,400",0.29%
 1680,MACAU LEGEND DEVELOPMENT LIMITED,"103,222,000",1.65%
 1681,CONSUN PHARMACEUTICAL GROUP LIMITED,"19,680,000",2.35%
 1685,BOER POWER HOLDINGS LIMITED,"2,195,000",0.28%
 1686,SUNEVISION HOLDINGS LIMITED,"2,293,000",0.09%
 1691,JS GLOBAL LIFESTYLE COMPANY LIMITED,"44,276,500",1.25%
 1717,AUSNUTRIA DAIRY CORPORATION LTD,"95,591,000",5.57%
 1728,CHINA ZHENGTONG AUTO SERVICES HOLDINGS LIMITED,"392,646,000",14.55%
 1761,BABYTREE GROUP,"5,745,500",0.34%
 1765,"HOPE EDUCATION GROUP CO., LTD.","890,039,160",12.30%
 1766,CRRC CORPORATION LIMITED,"473,566,420",10.82%
 1772,"GANFENG LITHIUM CO., LTD.","131,801,010",54.86%
 1773,TIANLI EDUCATION INTERNATIONAL HOLDINGS LIMITED,"246,797,000",11.89%
 1776,"GF SECURITIES CO., LTD.","522,420,900",30.69%
 1777,"FANTASIA HOLDINGS GROUP CO., LIMITED","385,474,000",6.68%
 1778,"COLOUR LIFE SERVICES GROUP CO., LIMITED","63,386,826",4.35%
 1787,"SHANDONG GOLD MINING CO., LTD.","151,769,248",21.68%
 1788,GUOTAI JUNAN INTERNATIONAL HOLDINGS LIMITED,"238,337,110",2.47%
 1789,AK MEDICAL HOLDINGS LIMITED,"86,524,000",7.75%
 1797,KOOLEARN TECHNOLOGY HOLDING LIMITED,"153,240,804",16.30%
 1800,CHINA COMMUNICATIONS CONSTRUCTION COMPANY LIMITED,"716,829,000",16.21%
 1801,"INNOVENT BIOLOGICS, INC.","119,547,000",8.52%
 1806,HUIFU PAYMENT LIMITED,"13,270,800",1.01%
 1810,XIAOMI CORPORATION,"2,452,559,456",10.14%
 1811,"CGN NEW ENERGY HOLDINGS CO., LTD.","161,356,000",3.76%
 1812,SHANDONG CHENMING PAPER HOLDINGS LIMITED,"129,856,450",24.57%
 1813,KWG GROUP HOLDINGS LIMITED,"132,547,257",4.16%
 1816,"CGN POWER CO., LTD","2,568,693,000",23.00%
 1817,MULSANNE GROUP HOLDING LIMITED,"284,000",0.02%
 1818,ZHAOJIN MINING INDUSTRY COMPANY LIMITED,"128,190,372",4.91%
 1829,CHINA MACHINERY ENGINEERING CORPORATION,"103,000",0.01%
 1833,PING AN HEALTHCARE AND TECHNOLOGY COMPANY LIMITED,"109,344,200",9.53%
 1836,STELLA INTERNATIONAL HOLDINGS LIMITED,"941,500",0.11%
 1848,CHINA AIRCRAFT LEASING GROUP HOLDINGS LIMITED,"12,642,421",1.75%
 1860,MOBVISTA INC.,"17,609,000",1.14%
 1873,VIVA BIOTECH HOLDINGS,"421,041,500",22.01%
 1876,BUDWEISER BREWING COMPANY APAC LIMITED,"20,241,608",0.14%
 1882,HAITIAN INTERNATIONAL HOLDINGS LIMITED,"25,529,000",1.59%
 1883,CITIC TELECOM INTERNATIONAL HOLDINGS LIMITED,"13,321,000",0.36%
 1886,CHINA HUIYUAN JUICE GROUP LIMITED,"125,355,500",4.69%
 1888,KINGBOARD LAMINATES HOLDINGS LIMITED,"8,612,935",0.27%
 1890,CHINA KEPEI EDUCATION GROUP LIMITED,"134,082,054",6.65%
 1896,MAOYAN ENTERTAINMENT,"36,131,200",3.17%
 1898,CHINA COAL ENERGY COMPANY LIMITED,"395,853,000",9.63%
 1905,"HAITONG UNITRUST INTERNATIONAL FINANCIAL LEASING CO., LTD.","38,576,000",0.66%
 1907,CHINA RISUN GROUP LIMITED,"52,842,000",1.29%
 1908,C&D INTERNATIONAL INVESTMENT GROUP LIMITED,"74,988,000",6.37%
 1911,CHINA RENAISSANCE HOLDINGS LIMITED,"17,271,200",3.24%
 1916,"JIANGXI BANK CO., LTD.","10,786,500",0.80%
 1918,SUNAC CHINA HOLDINGS LIMITED,"796,321,746",17.07%
 1919,"COSCO SHIPPING HOLDINGS CO., LTD.","477,494,500",18.49%
 1928,SANDS CHINA LTD.,"58,728,932",0.72%
 1929,CHOW TAI FOOK JEWELLERY GROUP LIMITED,"44,992,400",0.44%
 1951,JINXIN FERTILITY GROUP LIMITED,"468,443,449",19.28%
 1958,BAIC MOTOR CORPORATION LIMITED,"152,142,000",6.03%
 1963,"BANK OF CHONGQING CO., LTD.","120,112,000",7.60%
 1966,CHINA SCE GROUP HOLDINGS LIMITED,"168,641,054",3.99%
 1970,"IMAX CHINA HOLDING, INC.","8,192,900",2.34%
 1972,SWIRE PROPERTIES LIMITED,"1,540,200",0.01%
 1980,TIAN GE INTERACTIVE HOLDINGS LIMITED,"20,068,000",1.56%
 1988,"CHINA MINSHENG BANKING CORP., LTD.","1,335,518,669",16.04%
 1992,FOSUN TOURISM GROUP,"625,400",0.04%
 1995,EVER SUNSHINE LIFESTYLE SERVICES GROUP LIMITED,"75,498,000",4.51%
 1996,REDSUN PROPERTIES GROUP LIMITED,"85,769,000",2.58%
 1997,WHARF REAL ESTATE INVESTMENT COMPANY LIMITED,"3,484,425",0.11%
 1999,MAN WAH HOLDINGS LIMITED,"798,693,852",20.99%
 2001,CHINA NEW HIGHER EDUCATION GROUP LIMITED,"127,173,000",8.02%
 2003,VCREDIT HOLDINGS LIMITED,"2,052,800",0.41%
 2005,SSY GROUP LIMITED,"317,714,059",10.41%
 2007,COUNTRY GARDEN HOLDINGS COMPANY LIMITED,"255,949,093",1.15%
 2008,PHOENIX MEDIA INVESTMENT (HOLDINGS) LIMITED,"205,004,000",4.10%
 2009,BBMG CORPORATION,"314,675,500",13.44%
 2013,WEIMOB INC.,"453,887,961",20.12%
 2016,"CHINA ZHESHANG BANK CO., LTD.","95,823,000",2.09%
 2018,AAC TECHNOLOGIES HOLDINGS INC.,"66,447,128",5.49%
 2019,DEXIN CHINA HOLDINGS COMPANY LIMITED,"29,605,000",1.09%
 2020,ANTA SPORTS PRODUCTS LIMITED,"223,601,150",8.26%
 2038,FIH MOBILE LIMITED,"136,584,000",1.66%
 2039,"CHINA INTERNATIONAL MARINE CONTAINERS (GROUP) CO., LTD.","235,854,140",11.44%
 2048,E-HOUSE (CHINA) ENTERPRISE HOLDINGS LIMITED,"6,494,400",0.37%
 2051,51 CREDIT CARD INC.,"45,570,500",3.35%
 2066,"SHENGJING BANK CO., LTD.","193,000",0.00%
 2068,CHINA ALUMINUM INTERNATIONAL ENGINEERING CORPORATION LIMITED,"10,678,000",2.67%
 2098,ZALL SMART COMMERCE GROUP LTD.,"31,698,000",0.26%
 2099,CHINA GOLD INTERNATIONAL RESOURCES CORP. LTD.,"12,213,300",3.08%
 2103,SINIC HOLDINGS (GROUP) COMPANY LIMITED,"441,000",0.01%
 2111,BEST PACIFIC INTERNATIONAL HOLDINGS LIMITED,"1,340,000",0.12%
 2128,CHINA LESSO GROUP HOLDINGS LIMITED,"73,642,532",2.36%
 2136,LIFESTYLE CHINA GROUP LIMITED,"282,000",0.01%
 2186,LUYE PHARMA GROUP LTD.,"481,707,000",14.82%
 2196,"SHANGHAI FOSUN PHARMACEUTICAL (GROUP) CO., LTD.","213,267,357",38.63%
 2199,REGINA MIRACLE INTERNATIONAL (HOLDINGS) LIMITED,"2,872,000",0.23%
 2202,"CHINA VANKE CO., LTD.","282,157,580",14.90%
 2208,"XINJIANG GOLDWIND SCIENCE & TECHNOLOGY CO., LTD.","37,115,580",4.79%
 2218,"YANTAI NORTH ANDRE JUICE CO., LTD.","997,000",0.92%
 2232,CRYSTAL INTERNATIONAL GROUP LIMITED,"3,423,000",0.11%
 2233,WEST CHINA CEMENT LIMITED,"632,202,000",11.62%
 2238,"GUANGZHOU AUTOMOBILE GROUP CO., LTD.","962,392,455",31.05%
 2255,HAICHANG OCEAN PARK HOLDINGS LTD.,"307,791,000",7.69%
 2269,WUXI BIOLOGICS (CAYMAN) INC.-NEW,"263,133,589",6.44%
 2280,HC GROUP INC.,"88,917,500",6.78%
 2282,MGM CHINA HOLDINGS LIMITED,"23,678,296",0.61%
 2298,COSMO LADY (CHINA) HOLDINGS COMPANY LIMITED,"9,400,000",0.41%
 2313,SHENZHOU INTERNATIONAL GROUP HOLDINGS LIMITED,"60,121,374",3.99%
 2314,LEE & MAN PAPER MANUFACTURING LIMITED,"16,109,411",0.36%
 2318,"PING AN INSURANCE (GROUP) COMPANY OF CHINA, LTD.","199,771,377",2.67%
 2319,CHINA MENGNIU DAIRY COMPANY LIMITED,"74,599,994",1.88%
 2326,NEW PROVENANCE EVERLASTING HOLDINGS LIMITED,"55,940,000",0.25%
 2328,PICC PROPERTY AND CASUALTY COMPANY LIMITED,"596,902,169",8.64%
 2329,GUORUI PROPERTIES LIMITED,"155,119,000",3.48%
 2331,LI NING COMPANY LIMITED,"140,962,755",5.65%
 2333,GREAT WALL MOTOR COMPANY LIMITED,"1,190,922,639",38.42%
 2338,"WEICHAI POWER CO., LTD.","38,727,834",1.99%
 2342,COMBA TELECOM SYSTEMS HOLDINGS LIMITED,"4,430,000",0.16%
 2343,PACIFIC BASIN SHIPPING LIMITED,"7,225,000",0.15%
 2356,DAH SING BANKING GROUP LIMITED,"273,600",0.01%
 2357,AVICHINA INDUSTRY & TECHNOLOGY COMPANY LIMITED,"535,785,000",8.62%
 2359,"WUXI APPTEC CO., LTD.","20,864,546",6.79%
 2362,JINCHUAN GROUP INTERNATIONAL RESOURCES CO. LTD.,"59,207,000",0.46%
 2363,TONGDA HONG TAI HOLDINGS LIMITED,"336,712",0.16%
 2369,COOLPAD GROUP LIMITED,"36,860,000",0.56%
 2380,CHINA POWER INTERNATIONAL DEVELOPMENT LIMITED,"553,073,629",5.62%
 2382,SUNNY OPTICAL TECHNOLOGY (GROUP) COMPANY LIMITED,"141,901,613",12.93%
 2386,"SINOPEC ENGINEERING (GROUP) CO., LTD.","41,982,000",2.86%
 2388,BOC HONG KONG (HOLDINGS) LIMITED,"12,309,945",0.11%
 2400,XD INC.,"61,878,500",13.62%
 2588,BOC AVIATION LIMITED,"8,942,706",1.28%
 2600,ALUMINUM CORPORATION OF CHINA LIMITED,"294,956,000",7.47%
 2601,CHINA PACIFIC INSURANCE (GROUP) CO. LTD.,"825,147,917",29.73%
 2607,"SHANGHAI PHARMACEUTICALS HOLDING CO., LTD.","112,779,206",12.26%
 2611,"GUOTAI JUNAN SECURITIES CO., LTD.","204,618,800",14.69%
 2628,CHINA LIFE INSURANCE COMPANY LIMITED,"366,795,093",4.92%
 2662,CAMSING INTERNATIONAL HOLDING LIMITED,"132,096,000",12.26%
 2666,GENERTEC UNIVERSAL MEDICAL GROUP COMPANY LIMITED,"310,873,000",18.11%
 2669,CHINA OVERSEAS PROPERTY HOLDINGS LIMITED,"385,177,275",11.71%
 2678,TEXHONG TEXTILE GROUP LIMITED,"29,983,000",3.27%
 2688,ENN ENERGY HOLDINGS LIMITED,"15,457,861",1.37%
 2689,NINE DRAGONS PAPER (HOLDINGS) LIMITED,"69,500,006",1.47%
 2727,SHANGHAI ELECTRIC GROUP COMPANY LIMITED,"908,113,000",30.53%
 2768,JIAYUAN INTERNATIONAL GROUP LIMITED,"360,740,106",8.88%
 2772,ZHONGLIANG HOLDINGS GROUP COMPANY LIMITED,"41,697,000",1.15%
 2777,"GUANGZHOU R&F PROPERTIES CO., LTD.","84,684,226",2.25%
 2799,"CHINA HUARONG ASSET MANAGEMENT CO., LTD.","2,323,005,000",9.27%
 2858,YIXIN GROUP LIMITED,"44,431,000",0.69%
 2866,"COSCO SHIPPING DEVELOPMENT CO., LTD.","661,764,000",18.00%
 2869,GREENTOWN SERVICE GROUP CO. LTD.,"327,111,899",
 2877,CHINA SHINEWAY PHARMACEUTICAL GROUP LIMITED,"26,299,000",3.17%
 2880,DALIAN PORT (PDA) COMPANY LIMITED,"887,885,400",17.20%
 2883,CHINA OILFIELD SERVICES LIMITED,"336,429,627",18.57%
 2888,STANDARD CHARTERED PLC,"349,020",0.00%
 2899,"ZIJIN MINING GROUP CO., LTD.","1,690,332,195",29.46%
 2963,WUXI BIOLOGICS (CAYMAN) INC.-OLD,"336,000",0.00%
 3301,RONSHINE CHINA HOLDINGS LIMITED,"131,506,500",7.79%
 3306,JNBY DESIGN LIMITED,"20,631,000",3.97%
 3308,GOLDEN EAGLE RETAIL GROUP LIMITED,"85,806,000",5.16%
 3309,C-MER EYE CARE HOLDINGS LIMITED,"81,210,000",7.08%
 3311,CHINA STATE CONSTRUCTION INTERNATIONAL HOLDINGS LIMITED,"198,787,341",3.92%
 3319,"A-LIVING SMART CITY SERVICES CO., LTD.","3,602,250",0.27%
 3320,CHINA RESOURCES PHARMACEUTICAL GROUP LIMITED,"217,163,500",3.45%
 3323,CHINA NATIONAL BUILDING MATERIAL COMPANY LIMITED,"1,005,289,066",25.98%
 3328,"BANK OF COMMUNICATIONS CO., LTD.","852,981,145",2.43%
 3329,BOCOM INTERNATIONAL HOLDINGS COMPANY LIMITED,"14,981,000",0.54%
 3331,VINDA INTERNATIONAL HOLDINGS LIMITED,"18,390,000",1.53%
 3333,CHINA EVERGRANDE GROUP,"131,126,355",0.97%
 3339,LONKING HOLDINGS LIMITED,"29,769,000",0.69%
 3347,"HANGZHOU TIGERMED CONSULTING CO., LTD.","466,400",0.37%
 3360,FAR EAST HORIZON LIMITED,"80,692,000",2.02%
 3368,PARKSON RETAIL GROUP LIMITED,"5,669,500",0.21%
 3369,"QINHUANGDAO PORT CO., LTD.","85,864,000",10.34%
 3377,SINO-OCEAN GROUP HOLDING LIMITED,"213,352,844",2.79%
 3380,LOGAN GROUP COMPANY LIMITED,"148,377,148",2.68%
 3382,TIANJIN PORT DEVELOPMENT HOLDINGS LIMITED,"199,872,000",3.24%
 3383,AGILE GROUP HOLDINGS LIMITED,"47,075,237",1.20%
 3389,HENGDELI HOLDINGS LIMITED,"776,000",0.01%
 3393,WASION HOLDINGS LIMITED,"1,326,000",0.13%
 3396,LEGEND HOLDINGS CORPORATION,"100,407,800",7.89%
 3606,"FUYAO GLASS INDUSTRY GROUP CO., LTD","88,591,050",17.51%
 3613,BEIJING TONG REN TANG CHINESE MEDICINE COMPANY LIMITED,"70,426,000",8.41%
 3618,"CHONGQING RURAL COMMERCIAL BANK CO., LTD.","695,176,597",27.65%
 3633,ZHONGYU GAS HOLDINGS LIMITED,"18,928,000",0.71%
 3669,CHINA YONGDA AUTOMOBILES SERVICES HOLDINGS LIMITED,"145,293,500",
 3690,MEITUAN,"379,504,930",6.44%
 3692,HANSOH PHARMACEUTICAL GROUP COMPANY LIMITED,"37,305,000",0.62%
 3698,HUISHANG BANK CORPORATION LIMITED,"4,759,200",0.12%
 3759,"PHARMARON BEIJING CO., LTD.","17,378,465",12.96%
 3788,CHINA HANKING HOLDINGS LIMITED,"15,586,000",0.85%
 3799,DALI FOODS GROUP COMPANY LIMITED,"436,892,000",3.18%
 3800,GCL-POLY ENERGY HOLDINGS LIMITED,"4,177,776,500",19.75%
 3808,SINOTRUK (HONG KONG) LIMITED,"113,088,133",4.08%
 3813,POU SHENG INTERNATIONAL (HOLDINGS) LIMITED,"12,348,000",0.23%
 3818,"CHINA DONGXIANG (GROUP) CO., LTD.","383,211,000",6.51%
 3836,CHINA HARMONY AUTO HOLDING LIMITED,"93,667,500",5.94%
 3866,"BANK OF QINGDAO CO., LTD.","924,500",0.05%
 3868,XINYI ENERGY HOLDINGS LIMITED,"139,344,000",1.95%
 3877,CSSC (HONG KONG) SHIPPING COMPANY LIMITED,"4,908,000",0.07%
 3883,CHINA AOYUAN GROUP LIMITED,"163,312,659",6.03%
 3886,TOWN HEALTH INTERNATIONAL MEDICAL GROUP LIMITED,"145,736,000",1.92%
 3888,KINGSOFT CORPORATION LIMITED,"348,063,169",25.34%
 3898,"ZHUZHOU CRRC TIMES ELECTRIC CO., LTD.","52,053,506",9.50%
 3899,CIMC ENRIC HOLDINGS LIMITED,"124,120,000",6.17%
 3900,GREENTOWN CHINA HOLDINGS LIMITED,"330,340,000",13.24%
 3908,CHINA INTERNATIONAL CAPITAL CORPORATION LIMITED,"332,597,681",17.46%
 3913,KWG LIVING GROUP HOLDINGS LIMITED,"53,276,200",2.63%
 3933,"UNITED LABORATORIES INTERNATIONAL HOLDINGS LIMITED, THE","155,568,468",8.45%
 3958,DFZQ,"411,872,409",40.09%
 3968,"CHINA MERCHANTS BANK CO., LTD.","190,440,570",4.14%
 3969,CHINA RAILWAY SIGNAL & COMMUNICATION CORPORATION LIMITED,"271,663,000",13.78%
 3988,BANK OF CHINA LIMITED,"7,810,761,392",9.33%
 3990,MIDEA REAL ESTATE HOLDING LIMITED,"78,390,400",6.36%
 3993,"CHINA MOLYBDENUM CO., LTD.","309,732,500",7.87%
 3996,CHINA ENERGY ENGINEERING CORPORATION LIMITED,"10,824,000",0.11%
 3998,BOSIDENG INTERNATIONAL HOLDINGS LIMITED,"661,572,000",6.13%
 6030,CITIC SECURITIES COMPANY LIMITED,"326,097,359",14.30%
 6049,"POLY PROPERTY SERVICES CO., LTD.","65,105,066",42.45%
 6055,CHINA TOBACCO INTERNATIONAL (HK) COMPANY LIMITED,"29,586,000",4.27%
 6060,"ZHONGAN ONLINE P & C INSURANCE CO., LTD.","34,804,300",7.40%
 6066,"CSC FINANCIAL CO., LTD.","312,676,500",24.78%
 6068,WISDOM EDUCATION INTERNATIONAL HOLDINGS COMPANY LIMITED,"202,320,000",9.29%
 6069,SHENG YE CAPITAL LIMITED,"34,889,500",3.72%
 6078,"HYGEIA HEALTHCARE HOLDINGS CO., LIMITED","27,503,400",4.45%
 6088,FIT HON TENG LIMITED,"305,874,000",4.42%
 6098,COUNTRY GARDEN SERVICES HOLDINGS COMPANY LIMITED,"216,533,371",7.83%
 6099,"CHINA MERCHANTS SECURITIES CO., LTD.","268,150,040",21.03%
 6100,TONGDAO LIEPIN GROUP,"84,800",0.01%
 6110,TOPSPORTS INTERNATIONAL HOLDINGS LIMITED,"12,717,020",0.20%
 6116,"XINJIANG LA CHAPELLE FASHION CO., LTD.","67,480,800",31.41%
 6158,ZHENRO PROPERTIES GROUP LIMITED,"83,710,000",1.91%
 6160,"BEIGENE, LTD.","1,988,100",0.16%
 6166,CHINA VAST INDUSTRIAL URBAN DEVELOPMENT COMPANY LIMITED,"86,809,000",5.25%
 6169,CHINA YUHUA EDUCATION CORPORATION LIMITED,"594,357,111",17.78%
 6178,EVERBRIGHT SECURITIES COMPANY LIMITED,"90,428,200",12.83%
 6186,CHINA FEIHE LIMITED,"766,296,455",8.56%
 6196,"BANK OF ZHENGZHOU CO., LTD.","302,828,200",18.13%
 6198,"QINGDAO PORT INTERNATIONAL CO., LTD.","10,273,000",0.92%
 6806,"SHENWAN HONGYUAN GROUP CO., LTD.","275,301,600",10.99%
 6808,SUN ART RETAIL GROUP LIMITED,"68,340,023",0.71%
 6818,CHINA EVERBRIGHT BANK COMPANY LIMITED,"1,032,777,207",8.14%
 6828,BEIJING GAS BLUE SKY HOLDINGS LIMITED,"227,656,000",1.75%
 6837,"HAITONG SECURITIES CO., LTD.","858,052,600",25.15%
 6862,HAIDILAO INTERNATIONAL HOLDING LTD.,"135,885,645",2.56%
 6865,"FLAT GLASS GROUP CO., LTD.","102,630,768",22.79%
 6869,YANGTZE OPTICAL FIBRE AND CABLE JOINT STOCK LIMITED COMPANY,"20,536,500",5.83%
 6881,"CHINA GALAXY SECURITIES CO., LTD.","891,849,200",24.15%
 6886,"HUATAI SECURITIES CO., LTD.","475,612,646",27.66%
 6969,SMOORE INTERNATIONAL HOLDINGS LIMITED,"330,544,297",5.66%
 8328,XINYI AUTOMOBILE GLASS HONG KONG ENTERPRISES LIMITED,"93,750",0.01%
 9633,"NONGFU SPRING CO., LTD.","83,384,687",1.65%
 9909,POWERLONG COMMERCIAL MANAGEMENT HOLDINGS LIMITED,"27,319,500",4.39%
 9922,JIUMAOJIU INTERNATIONAL HOLDINGS LIMITED,"124,337,295",8.55%
 9923,YEAHKA LIMITED,"245,600",0.05%
 9928,TIMES NEIGHBORHOOD HOLDINGS LIMITED,"23,388,638",2.37%
 9968,HUIJING HOLDINGS COMPANY LIMITED,"8,194,000",0.15%
 9983,CENTRAL CHINA NEW LIFE LIMITED,"21,339,000",1.71%
 9989,"SHENZHEN HEPALINK PHARMACEUTICAL GROUP CO., LTD.","16,683,500",7.58%
 9997,KANGJI MEDICAL HOLDINGS LIMITED,"8,330,500",0.66%
