Stock Code,Stock Name,Shareholding in CCASS,Percentage of the total number of Issued Shares
    1,CK HUTCHISON HOLDINGS LIMITED,"27,678,919",0.71%
    2,CLP HOLDINGS LIMITED,"4,011,992",0.15%
    3,"HONG KONG AND CHINA GAS COMPANY LIMITED, THE","22,614,450",0.12%
    4,"WHARF (HOLDINGS) LIMITED, THE","8,654,450",0.27%
    5,HSBC HOLDINGS PLC,"1,964,970,342",9.48%
    6,POWER ASSETS HOLDINGS LIMITED,"4,305,422",0.19%
    8,PCCW LIMITED,"10,407,726",0.13%
   10,HANG LUNG GROUP LIMITED,"29,882,000",2.19%
   11,HANG SENG BANK LTD,"3,633,997",0.18%
   12,HENDERSON LAND DEVELOPMENT CO LTD,"6,175,732",0.12%
   14,HYSAN DEVELOPMENT COMPANY LIMITED,"753,000",0.06%
   16,SUN HUNG KAI PROPERTIES LIMITED,"14,161,404",0.48%
   17,NEW WORLD DEVELOPMENT CO LTD,"11,524,631",0.44%
   19,SWIRE PACIFIC LTD 'A',"4,045,500",0.43%
   23,BANK OF EAST ASIA LTD,"1,091,393",0.02%
   27,GALAXY ENTERTAINMENT GROUP LIMITED,"66,625,695",1.52%
   35,FAR EAST CONSORTIUM INTERNATIONAL LTD,"801,013",0.03%
   38,FIRST TRACTOR COMPANY LIMITED,"112,820,100",28.78%
   41,GREAT EAGLE HOLDINGS LIMITED,"1,239,511",0.16%
   42,NORTHEAST ELECTRIC DEVELOPMENT COMPANY LIMITED,"15,354,000",5.95%
   43,C.P. POKPHAND CO LTD,"380,000",0.00%
   45,"HONGKONG AND SHANGHAI HOTELS LTD,THE","41,513",0.00%
   59,SKYFAME REALTY (HOLDINGS) LIMITED,"63,530,000",0.80%
   66,MTR CORPORATION LIMITED,"9,123,481",0.14%
   69,SHANGRI-LA ASIA LIMITED,"18,038,000",0.49%
   78,REGAL HOTELS INTERNATIONAL HOLDINGS LIMITED,"12,000",0.00%
   81,CHINA OVERSEAS GRAND OCEANS GROUP LIMITED,"331,109,820",9.66%
   83,SINO LAND CO.LTD.,"3,771,976",0.05%
   86,SUN HUNG KAI & CO.LTD,"14,618,000",0.72%
   87,SWIRE PACIFIC LTD 'B',"27,497,500",0.91%
   95,LVGEM (CHINA) REAL ESTATE INVESTMENT COMPANY LIMITED,"174,350,000",3.42%
  101,HANG LUNG PROPERTIES LIMITED,"86,767,099",1.92%
  107,SICHUAN EXPRESSWAY COMPANY LIMITED,"229,848,000",25.66%
  109,GOOD RESOURCES HOLDINGS LIMITED,"44,440,000",0.62%
  116,CHOW SANG SANG HOLDINGS INTERNATIONAL LIMITED,"22,567,134",3.33%
  119,"POLY PROPERTY GROUP CO., LIMITED","397,739,748",10.86%
  120,COSMOPOLITAN INTERNATIONAL HOLDINGS LTD,"2,148,000",0.03%
  123,YUEXIU PROPERTY COMPANY LIMITED,"378,019,630",2.43%
  127,CHINESE ESTATES HOLDINGS LIMITED,"2,701,500",0.13%
  135,KUNLUN ENERGY COMPANY LIMITED,"121,151,534",1.39%
  136,HENGTEN NETWORKS GROUP LIMITED,"6,670,432,000",8.25%
  142,FIRST PACIFIC CO. LTD.,"7,114,000",0.16%
  144,CHINA MERCHANTS PORT HOLDINGS COMPANY LIMITED,"148,827,311",4.06%
  148,KINGBOARD HOLDINGS LIMITED,"13,989,077",1.26%
  151,WANT WANT CHINA HOLDINGS LIMITED,"24,184,871",0.19%
  152,SHENZHEN INTERNATIONAL HOLDINGS LIMITED,"77,351,453",3.52%
  163,EMPEROR INTERNATIONAL HOLDINGS LIMITED,"10,594,000",0.28%
  165,CHINA EVERBRIGHT LIMITED,"223,041,955",13.22%
  168,TSINGTAO BREWERY COMPANY LIMITED,"97,496,000",14.87%
  173,K. WAH INTERNATIONAL HOLDINGS LIMITED,"36,426,196",1.15%
  175,GEELY AUTOMOBILE HOLDINGS LIMITED,"1,119,731,333",11.40%
  177,JIANGSU EXPRESSWAY COMPANY LIMITED,"126,022,818",10.30%
  178,SA SA INTERNATIONAL HOLDINGS LIMITED,"14,775,268",0.47%
  179,JOHNSON ELECTRIC HOLDINGS LIMITED,"1,329,000",0.13%
  187,BEIJING JINGCHENG MACHINERY ELECTRIC COMPANY LIMITED,"26,970,000",26.96%
  189,DONGYUE GROUP LIMITED,"198,714,358",9.41%
  198,SMI HOLDINGS GROUP LIMITED,"70,340,800",2.59%
  200,MELCO INTERNATIONAL DEVELOPMENT LIMITED,"12,437,000",0.81%
  207,JOY CITY PROPERTY LIMITED,"4,364,000",0.03%
  215,HUTCHISON TELECOMMUNICATIONS HONG KONG HOLDINGS LIMITED,"10,616,000",0.21%
  220,UNI-PRESIDENT CHINA HOLDINGS LTD.,"8,338,000",0.18%
  241,ALIBABA HEALTH INFORMATION TECHNOLOGY LIMITED,"234,130,414",1.73%
  242,SHUN TAK HOLDINGS LIMITED,"92,002,000",3.04%
  245,CHINA VERED FINANCIAL HOLDING CORPORATION LIMITED,"25,120,000",0.06%
  256,CITYCHAMP WATCH & JEWELLERY GROUP LIMITED,"370,578,000",8.51%
  257,CHINA EVERBRIGHT ENVIRONMENT GROUP LIMITED,"608,405,910",9.90%
  267,CITIC LIMITED,"182,715,916",0.62%
  268,KINGDEE INTERNATIONAL SOFTWARE GROUP COMPANY LIMITED,"595,535,786",17.18%
  270,GUANGDONG INVESTMENT LIMITED,"39,320,905",0.59%
  272,SHUI ON LAND LIMITED,"816,475,604",10.11%
  279,FREEMAN FINTECH CORPORATION LIMITED,"612,286,000",32.77%
  285,BYD ELECTRONIC (INTERNATIONAL) COMPANY LIMITED,"201,760,387",8.94%
  288,WH GROUP LIMITED,"1,081,408,361",7.32%
  291,CHINA RESOURCES BEER (HOLDINGS) COMPANY LIMITED,"398,244,073",12.27%
  293,CATHAY PACIFIC AIRWAYS LTD,"17,785,117",0.26%
  295,KONG SUN HOLDINGS LIMITED,"51,600,000",0.34%
  297,SINOFERT HOLDINGS LIMITED,"367,470,000",5.22%
  302,CMGE TECHNOLOGY GROUP LIMITED,"185,410,000",7.95%
  303,VTECH HOLDINGS LIMITED,"1,209,061",0.47%
  308,CHINA TRAVEL INTERNATIONAL INVESTMENT HONG KONG LIMITED,"176,096,439",3.17%
  315,SMARTONE TELECOMMUNICATIONS HOLDINGS LIMITED,"2,028,108",0.17%
  316,ORIENT OVERSEAS (INTERNATIONAL) LIMITED,"7,000",0.00%
  317,CSSC OFFSHORE & MARINE ENGINEERING (GROUP) COMPANY LIMITED,"25,323,900",4.27%
  321,TEXWINCA HOLDINGS LIMITED,"1,004,000",0.07%
  322,TINGYI (CAYMAN ISLANDS) HOLDING CORP.,"25,869,308",0.45%
  323,MAANSHAN IRON & STEEL COMPANY LIMITED,"7,378,000",0.42%
  327,PAX GLOBAL TECHNOLOGY LIMITED,"5,974,000",0.55%
  330,ESPRIT HOLDINGS LIMITED,"8,369,200",0.43%
  336,HUABAO INTERNATIONAL HOLDINGS LIMITED,"418,903,100",13.47%
  337,GREENLAND HONG KONG HOLDINGS LIMITED,"115,134,000",4.12%
  338,SINOPEC SHANGHAI PETROCHEMICAL COMPANY LIMITED,"524,348,806",15.00%
  341,CAFE DE CORAL HOLDINGS LTD,"5,836,000",0.99%
  345,VITASOY INTERNATIONAL HOLDINGS LTD,"6,516,011",0.60%
  347,ANGANG STEEL COMPANY LIMITED,"11,881,400",0.84%
  354,CHINASOFT INTERNATIONAL LIMITED,"388,190,254",14.24%
  358,JIANGXI COPPER COMPANY LIMITED,"83,064,219",5.98%
  363,SHANGHAI INDUSTRIAL HOLDINGS LIMITED,"29,038,500",2.66%
  371,BEIJING ENTERPRISES WATER GROUP LIMITED,"275,256,010",2.74%
  378,FDG KINETIC LIMITED,"180,396,000",2.67%
  384,CHINA GAS HOLDINGS LIMITED,"44,651,243",0.85%
  386,CHINA PETROLEUM & CHEMICAL CORPORATION,"1,458,400,744",5.71%
  388,HONG KONG EXCHANGES AND CLEARING LIMITED,"74,741,476",5.88%
  390,CHINA RAILWAY GROUP LIMITED,"311,659,030",7.40%
  392,BEIJING ENTERPRISES HOLDINGS LIMITED,"88,182,982",6.98%
  400,COGOBUY GROUP,"49,138,000",3.46%
  410,SOHO CHINA LIMITED,"464,057,500",8.92%
  412,CHINA SHANDONG HI-SPEED FINANCIAL GROUP LIMITED,"9,846,000",0.04%
  419,HUAYI TENCENT ENTERTAINMENT COMPANY LIMITED,"164,770,000",1.22%
  425,MINTH GROUP LIMITED,"33,490,761",
  432,PACIFIC CENTURY PREMIUM DEVELOPMENTS LIMITED,"307,854",0.01%
  439,KUANGCHI SCIENCE LIMITED,"268,528,000",4.36%
  440,DAH SING FINANCIAL HOLDINGS LTD,"2,847,266",0.88%
  451,GCL NEW ENERGY HOLDINGS LIMITED,"1,130,590,000",5.92%
  460,SIHUAN PHARMACEUTICAL HOLDINGS GROUP LTD.,"570,086,000",6.01%
  467,UNITED ENERGY GROUP LIMITED,"258,488,000",0.97%
  468,GREATVIEW ASEPTIC PACKAGING COMPANY LIMITED,"5,188,000",0.38%
  480,HKR INTERNATIONAL LTD,"45,200",0.00%
  488,LAI SUN DEVELOPMENT COMPANY LIMITED,"30,000",0.00%
  489,DONGFENG MOTOR GROUP COMPANY LIMITED,"229,442,000",8.03%
  493,GOME RETAIL HOLDINGS LIMITED,"2,566,512,000",11.90%
  496,KASEN INTERNATIONAL HOLDINGS LIMITED,"141,602,000",9.48%
  506,CHINA FOODS LIMITED,"34,290,100",1.21%
  508,DINGYI GROUP INVESTMENT LIMITED,"378,855,000",5.14%
  511,TELEVISION BROADCASTS LIMITED,"453,900",0.09%
  512,CHINA GRAND PHARMACEUTICAL AND HEALTHCARE HOLDINGS LIMITED,"115,619,200",3.25%
  517,"COSCO SHIPPING INTERNATIONAL (HONG KONG) CO., LTD.","420,000",0.02%
  520,"XIABUXIABU CATERING MANAGEMENT (CHINA) HOLDINGS CO., LTD.","190,924,000",17.63%
  522,ASM PACIFIC TECHNOLOGY LIMITED,"11,967,325",2.91%
  525,GUANGSHEN RAILWAY COMPANY LIMITED,"399,038,010",27.87%
  530,GOLDIN FINANCIAL HOLDINGS LIMITED,"2,444,000",0.03%
  535,GEMDALE PROPERTIES AND INVESTMENT CORPORATION LIMITED,"2,007,826,154",12.16%
  546,FUFENG GROUP LIMITED,"73,585,119",2.90%
  547,DIGITAL DOMAIN HOLDINGS LIMITED,"1,014,980,000",2.97%
  548,SHENZHEN EXPRESSWAY COMPANY LIMITED,"141,402,000",18.90%
  551,YUE YUEN INDUSTRIAL (HOLDINGS) LIMITED,"7,069,641",0.42%
  552,CHINA COMMUNICATIONS SERVICES CORPORATION LIMITED,"45,036,000",1.87%
  553,NANJING PANDA ELECTRONICS COMPANY LIMITED,"61,552,000",25.42%
  563,SHANGHAI INDUSTRIAL URBAN DEVELOPMENT GROUP LIMITED,"108,876,155",2.26%
  564,ZHENGZHOU COAL MINING MACHINERY GROUP COMPANY LIMITED,"39,027,804",16.03%
  568,SHANDONG MOLONG PETROLEUM MACHINERY COMPANY LIMITED,"61,359,200",23.95%
  570,CHINA TRADITIONAL CHINESE MEDICINE HOLDINGS CO LIMITED,"667,686,938",13.25%
  576,"ZHEJIANG EXPRESSWAY CO., LTD.","69,581,407",4.85%
  579,"BEIJING JINGNENG CLEAN ENERGY CO., LIMITED","147,610,000",5.21%
  581,CHINA ORIENTAL GROUP COMPANY LIMITED,"128,082,487",3.43%
  582,LANDING INTERNATIONAL DEVELOPMENT LIMITED,"111,572,400",3.16%
  586,CHINA CONCH VENTURE HOLDINGS LIMITED,"150,182,500",8.31%
  588,BEIJING NORTH STAR COMPANY LIMITED,"235,420,000",33.28%
  590,LUK FOOK HOLDINGS (INTERNATIONAL) LIMITED,"2,691,000",0.44%
  598,SINOTRANS LIMITED,"287,784,000",13.41%
  604,SHENZHEN INVESTMENT LIMITED,"35,558,812",0.39%
  607,FULLSHARE HOLDINGS LIMITED,"3,993,785,000",20.26%
  612,CHINA DING YI FENG HOLDINGS LIMITED,"2,200,000",0.16%
  631,SANY HEAVY EQUIPMENT INTERNATIONAL HOLDINGS COMPANY LIMITED,"180,455,000",5.78%
  636,KERRY LOGISTICS NETWORK LIMITED,"2,098,000",0.11%
  639,SHOUGANG FUSHAN RESOURCES GROUP LIMITED,"96,445,538",1.90%
  656,FOSUN INTERNATIONAL LIMITED,"1,040,765,780",12.31%
  658,"CHINA HIGH SPEED TRANSMISSION EQUIPMENT GROUP CO., LTD.","134,844,000",8.23%
  659,NWS HOLDINGS LIMITED,"9,917,546",0.24%
  665,HAITONG INTERNATIONAL SECURITIES GROUP LIMITED,"264,483,274",4.37%
  667,CHINA EAST EDUCATION HOLDINGS LIMITED,"138,108,000",6.29%
  669,TECHTRONIC INDUSTRIES CO. LTD.,"6,932,970",0.37%
  670,CHINA EASTERN AIRLINES CORPORATION LIMITED,"231,631,567",4.46%
  680,NAN HAI CORPORATION LIMITED,"470,050,000",0.67%
  683,KERRY PROPERTIES LIMITED,"3,538,109",0.24%
  686,"BEIJING ENERGY INTERNATIONAL HOLDING CO., LTD","295,008,000",1.31%
  687,TYSAN HOLDINGS LIMITED,"20,956,000",0.62%
  688,CHINA OVERSEAS LAND & INVESTMENT LIMITED,"87,305,587",0.79%
  691,CHINA SHANSHUI CEMENT GROUP LIMITED,"4,016,000",0.08%
  694,BEIJING CAPITAL INTERNATIONAL AIRPORT COMPANY LIMITED,"341,024,204",18.13%
  696,TRAVELSKY TECHNOLOGY LIMITED,"26,844,000",2.87%
  697,SHOUCHENG HOLDINGS LIMITED,"52,338,010",0.73%
  698,TONGDA GROUP HOLDINGS LIMITED,"154,290,000",2.37%
  699,CAR INC.,"134,688,001",6.34%
  700,TENCENT HOLDINGS LIMITED,"410,519,150",4.28%
  709,GIORDANO INTERNATIONAL LIMITED,"2,100,000",0.13%
  715,CHINA OCEANWIDE HOLDINGS LIMITED,"456,000",0.00%
  718,TAI UNITED HOLDINGS LIMITED,"20,050,000",0.38%
  719,SHANDONG XINHUA PHARMACEUTICAL COMPANY LIMITED,"68,922,200",35.34%
  721,CHINA FINANCIAL INTERNATIONAL INVESTMENTS LIMITED,"304,790,000",2.77%
  728,CHINA TELECOM CORPORATION LIMITED,"539,651,929",3.88%
  729,FDG ELECTRIC VEHICLES LIMITED,"70,130,750",2.79%
  732,TRULY INTERNATIONAL HOLDINGS LIMITED,"295,052,000",8.96%
  737,SZ INVESTMENT HLDGS BAY AREA DEV CO LTD -HKD TRADED SHARES,"1,431,500",0.04%
  743,ASIA CEMENT (CHINA) HOLDINGS CORPORATION,"30,609,500",1.95%
  751,SKYWORTH GROUP LIMITED,"159,225,637",5.96%
  753,AIR CHINA LIMITED,"351,508,449",7.70%
  754,HOPSON DEVELOPMENT HOLDINGS LIMITED,"49,770,000",2.25%
  762,CHINA UNICOM (HONG KONG) LIMITED,"291,632,000",0.94%
  763,ZTE CORPORATION,"185,519,598",24.55%
  772,CHINA LITERATURE LIMITED,"86,497,723",8.50%
  775,"CK LIFE SCIENCES INT'L., (HOLDINGS) INC.","17,772,000",0.18%
  777,NETDRAGON WEBSOFT HOLDINGS LIMITED,"25,855,000",4.60%
  780,TONGCHENG-ELONG HOLDINGS LIMITED,"59,220,400",2.72%
  787,GLOBAL BRANDS GROUP HOLDING LIMITED,"64,976,833",6.30%
  788,CHINA TOWER CORPORATION LIMITED,"1,886,430,140",4.03%
  799,IGG INC,"82,524,298",6.70%
  806,VALUE PARTNERS GROUP LIMITED,"55,585,405",2.99%
  811,"XINHUA WINSHARE PUBLISHING AND MEDIA CO., LTD.","85,127,000",19.25%
  813,SHIMAO GROUP HOLDINGS LIMITED,"65,592,072",1.85%
  817,CHINA JINMAO HOLDINGS GROUP LIMITED,"1,134,541,258",8.90%
  819,TIANNENG POWER INTERNATIONAL LIMITED,"212,407,000",18.86%
  826,TIANGONG INTERNATIONAL COMPANY LIMITED,"141,494,000",5.51%
  829,SHENGUAN HOLDINGS (GROUP) LIMITED,"140,210,000",4.34%
  832,CENTRAL CHINA REAL ESTATE LIMITED,"152,077,000",5.36%
  836,CHINA RESOURCES POWER HOLDINGS COMPANY LIMITED,"223,858,335",4.65%
  839,CHINA EDUCATION GROUP HOLDINGS LIMITED,"96,408,844",4.47%
  845,GLORIOUS PROPERTY HOLDINGS LIMITED,"22,274,000",0.28%
  846,MINGFA GROUP (INTERNATIONAL) COMPANY LIMITED,"5,261,000",0.08%
  853,MICROPORT SCIENTIFIC CORPORATION,"227,683,206",12.58%
  855,CHINA WATER AFFAIRS GROUP LIMITED,"171,458,000",10.81%
  856,VSTECS HOLDINGS LIMITED,"15,312,000",1.05%
  857,PETROCHINA COMPANY LIMITED,"1,851,104,455",8.76%
  860,APOLLO FUTURE MOBILITY GROUP LIMITED,"23,616,000",0.32%
  861,DIGITAL CHINA HOLDINGS LIMITED,"606,120,400",36.23%
  867,CHINA MEDICAL SYSTEM HOLDINGS LIMITED,"38,491,618",1.54%
  868,XINYI GLASS HOLDINGS LIMITED,"200,381,053",4.95%
  874,"GUANGZHOU BAIYUNSHAN PHARMACEUTICAL HOLDINGS CO., LTD.","69,012,100",31.37%
  880,SJM HOLDINGS LIMITED,"247,174,700",4.34%
  881,ZHONGSHENG GROUP HOLDINGS LIMITED,"43,758,254",1.91%
  883,CNOOC LIMITED,"580,255,374",1.29%
  884,CIFI HOLDINGS (GROUP) CO. LTD.,"386,173,414",4.69%
  885,RENTIAN TECHNOLOGY HOLDINGS LIMITED,"1,110,000",0.01%
  895,DONGJIANG ENVIRONMENTAL COMPANY LIMITED,"55,401,200",27.68%
  902,"HUANENG POWER INTERNATIONAL, INC.","2,059,013,004",43.80%
  906,CPMC HOLDINGS LIMITED,"13,659,000",1.22%
  911,QIANHAI HEALTH HOLDINGS LIMITED,"90,675,000",5.35%
  914,ANHUI CONCH CEMENT COMPANY LIMITED,"57,293,789",4.40%
  916,CHINA LONGYUAN POWER GROUP CORPORATION LIMITED,"130,844,000",3.90%
  921,"HISENSE HOME APPLIANCES GROUP CO., LTD.","33,503,959",7.28%
  931,CHINA LNG GROUP LIMITED,"117,759,000",2.08%
  934,SINOPEC KANTONS HOLDINGS LIMITED,"157,958,000",6.34%
  939,CHINA CONSTRUCTION BANK CORPORATION,"27,576,696,222",11.47%
  941,CHINA MOBILE LIMITED,"182,075,896",0.88%
  950,LEE'S PHARMACEUTICAL HOLDINGS LIMITED,"1,356,500",0.23%
  951,CHAOWEI POWER HOLDINGS LIMITED,"99,816,000",9.04%
  956,CHINA SUNTIEN GREEN ENERGY CORPORATION LIMITED,"267,634,000",14.54%
  960,LONGFOR GROUP HOLDINGS LIMITED,"180,307,993",2.99%
  966,CHINA TAIPING INSURANCE HOLDINGS COMPANY LIMITED,"476,435,574",13.24%
  967,SOUND GLOBAL LTD.,"289,000",0.01%
  968,XINYI SOLAR HOLDINGS LIMITED,"593,018,019",6.96%
  976,CHIHO ENVIRONMENTAL GROUP LIMITED,"185,204,000",11.53%
  978,CHINA MERCHANTS LAND LIMITED,"193,968,000",3.95%
  981,SEMICONDUCTOR MANUFACTURING INTERNATIONAL CORPORATION,"1,064,639,857",13.82%
  989,GROUND INTERNATIONAL DEVELOPMENT LIMITED,"136,145,000",2.24%
  991,"DATANG INTERNATIONAL POWER GENERATION CO.,LTD.","381,532,000",6.24%
  992,LENOVO GROUP LIMITED,"98,529,882",0.80%
  995,ANHUI EXPRESSWAY COMPANY LIMITED,"123,080,000",24.95%
  996,CARNIVAL GROUP INTERNATIONAL HOLDINGS LIMITED-NEW,"239,536,900",25.26%
  998,CHINA CITIC BANK CORPORATION LIMITED,"2,914,342,378",19.57%
 1028,C.BANNER INTERNATIONAL HOLDINGS LIMITED,"143,864,000",6.92%
 1030,SEAZEN GROUP LIMITED,"309,258,000",4.97%
 1031,KINGSTON FINANCIAL GROUP LIMITED,"548,000",0.00%
 1033,SINOPEC OILFIELD SERVICE CORPORATION,"395,416,000",7.30%
 1038,CK INFRASTRUCTURE HOLDINGS LIMITED,"10,413,500",0.38%
 1044,HENGAN INTERNATIONAL GROUP COMPANY LIMITED,"18,620,105",1.56%
 1052,YUEXIU TRANSPORT INFRASTRUCTURE LIMITED,"79,980,142",4.78%
 1053,CHONGQING IRON & STEEL COMPANY LIMITED,"95,028,000",17.65%
 1055,CHINA SOUTHERN AIRLINES COMPANY LIMITED,"228,449,480",5.34%
 1057,ZHEJIANG SHIBAO COMPANY LIMITED,"56,270,000",25.95%
 1060,ALIBABA PICTURES GROUP LIMITED,"3,494,588,620",13.01%
 1065,TIANJIN CAPITAL ENVIRONMENTAL PROTECTION GROUP COMPANY LIMITED,"125,032,100",36.76%
 1066,SHANDONG WEIGAO GROUP MEDICAL POLYMER COMPANY LIMITED,"757,569,871",16.74%
 1068,CHINA YURUN FOOD GROUP LIMITED,"17,977,000",0.98%
 1070,TCL ELECTRONICS HOLDINGS LIMITED,"123,209,666",5.02%
 1071,HUADIAN POWER INTERNATIONAL CORPORATION LIMITED,"725,435,855",42.23%
 1072,DONGFANG ELECTRIC CORPORATION LIMITED,"71,669,116",21.07%
 1076,IMPERIAL PACIFIC INTERNATIONAL HOLDINGS LIMITED,"387,060,000",0.27%
 1083,TOWNGAS CHINA COMPANY LIMITED,"17,022,542",0.56%
 1086,GOODBABY INTERNATIONAL HOLDINGS LIMITED,"21,128,000",1.26%
 1088,CHINA SHENHUA ENERGY COMPANY LIMITED,"959,383,825",28.22%
 1089,LEYOU TECHNOLOGIES HOLDINGS LIMITED,"2,775,000",0.08%
 1093,CSPC PHARMACEUTICAL GROUP LIMITED,"724,470,981",6.04%
 1097,I-CABLE COMMUNICATIONS LIMITED,"76,600",0.00%
 1098,ROAD KING INFRASTRUCTURE LIMITED,"10,302,000",1.37%
 1099,SINOPHARM GROUP CO. LTD.,"88,366,612",6.58%
 1108,LUOYANG GLASS COMPANY LIMITED,"90,212,000",36.07%
 1109,CHINA RESOURCES LAND LIMITED,"135,842,964",1.90%
 1111,CHONG HING BANK LIMITED,"1,022,500",0.10%
 1112,HEALTH AND HAPPINESS (H&H) INTERNATIONAL HOLDINGS LIMITED,"36,517,000",5.66%
 1113,CK ASSET HOLDINGS LIMITED,"14,469,033",0.38%
 1114,BRILLIANCE CHINA AUTOMOTIVE HOLDINGS LIMITED,"91,954,386",1.81%
 1115,TIBET WATER RESOURCES LTD.,"160,811,000",6.25%
 1117,CHINA MODERN DAIRY HOLDINGS LTD.,"286,873,000",4.43%
 1119,IDREAMSKY TECHNOLOGY HOLDINGS LIMITED,"46,519,600",3.66%
 1128,"WYNN MACAU, LIMITED","38,963,600",0.74%
 1131,AGRITRADE RESOURCES LIMITED,"583,090,000",9.14%
 1138,"COSCO SHIPPING ENERGY TRANSPORTATION CO., LTD.","217,318,003",16.76%
 1140,OP FINANCIAL LIMITED,"97,464,000",3.35%
 1141,CMBC CAPITAL HOLDINGS LIMITED,"931,040,000",1.94%
 1157,"ZOOMLION HEAVY INDUSTRY SCIENCE AND TECHNOLOGY CO., LTD.","31,527,722",2.27%
 1165,SHUNFENG INTERNATIONAL CLEAN ENERGY LIMITED,"319,238,000",6.40%
 1169,"HAIER ELECTRONICS GROUP CO., LTD.","165,330,070",5.86%
 1171,YANZHOU COAL MINING COMPANY LIMITED,"315,295,995",16.58%
 1176,ZHUGUANG HOLDINGS GROUP COMPANY LIMITED,"238,220,000",3.31%
 1177,SINO BIOPHARMACEUTICAL LIMITED,"1,282,085,649",6.79%
 1186,CHINA RAILWAY CONSTRUCTION CORPORATION LIMITED,"198,052,690",9.53%
 1188,HYBRID KINETIC GROUP LIMITED,"102,914,000",0.50%
 1193,CHINA RESOURCES GAS GROUP LIMITED,"9,160,000",0.38%
 1196,REALORD GROUP HOLDINGS LIMITED,"123,072,000",8.55%
 1199,COSCO SHIPPING PORTS LIMITED,"20,461,751",0.60%
 1205,CITIC RESOURCES HOLDINGS LIMITED,"158,538,100",2.01%
 1208,MMG LIMITED,"309,138,000",3.82%
 1211,BYD COMPANY LIMITED,"51,446,572",5.62%
 1212,LIFESTYLE INTERNATIONAL HOLDINGS LIMITED,"4,097,391",0.26%
 1230,YASHILI INTERNATIONAL HOLDINGS LTD,"76,806,000",1.61%
 1233,TIMES CHINA HOLDINGS LIMITED,"85,914,419",4.42%
 1234,CHINA LILANG LIMITED,"73,116,000",6.10%
 1238,POWERLONG REAL ESTATE HOLDINGS LIMITED,"124,683,740",3.00%
 1250,BEIJING ENTERPRISES CLEAN ENERGY GROUP LIMITED,"1,603,780,000",2.52%
 1253,CHINA GREENLAND BROAD GREENSTATE GROUP COMPANY LIMITED,"6,428,000",0.19%
 1257,CHINA EVERBRIGHT GREENTECH LIMITED,"163,537,000",7.91%
 1268,CHINA MEIDONG AUTO HOLDINGS LIMITED,"51,646,000",4.14%
 1269,CHINA FIRST CAPITAL GROUP LIMITED,"1,648,560,000",32.78%
 1282,GLORY SUN FINANCIAL GROUP LIMITED,"4,334,356,000",13.80%
 1286,IMPRO PRECISION INDUSTRIES LIMITED,"1,117,000",0.05%
 1288,AGRICULTURAL BANK OF CHINA LIMITED,"8,482,519,659",27.59%
 1293,GRAND BAOXIN AUTO GROUP LIMITED,"128,153,337",4.51%
 1299,AIA GROUP LIMITED,"89,848,859",0.73%
 1302,LIFETECH SCIENTIFIC CORPORATION,"768,700,000",17.72%
 1308,SITC INTERNATIONAL HOLDINGS COMPANY LIMITED,"90,060,297",3.35%
 1310,HKBN LTD.,"2,394,870",0.17%
 1313,CHINA RESOURCES CEMENT HOLDINGS LIMITED,"40,907,747",0.57%
 1315,VISION FAME INTERNATIONAL HOLDING LIMITED,"708,492,000",11.80%
 1316,NEXTEER AUTOMOTIVE GROUP LIMITED,"50,590,000",2.01%
 1317,CHINA MAPLE LEAF EDUCATIONAL SYSTEMS LIMITED,"475,344,537",15.86%
 1330,"DYNAGREEN ENVIRONMENTAL PROTECTION GROUP CO., LTD","156,251,000",38.63%
 1333,CHINA ZHONGWANG HOLDINGS LIMITED,"362,029,626",6.63%
 1336,NEW CHINA LIFE INSURANCE COMPANY LTD.,"333,184,840",32.21%
 1339,"PEOPLE'S INSURANCE COMPANY (GROUP) OF CHINA LIMITED, THE","1,802,767,987",20.65%
 1347,HUA HONG SEMICONDUCTOR LIMITED,"121,090,681",9.33%
 1357,"MEITU, INC.","335,499,100",7.77%
 1359,"CHINA CINDA ASSET MANAGEMENT CO., LTD.","2,681,084,881",19.75%
 1361,361 DEGREES INTERNATIONAL LIMITED,"28,632,000",1.38%
 1363,CT ENVIRONMENTAL GROUP LIMITED,"502,874,000",7.95%
 1368,XTEP INTERNATIONAL HOLDINGS LIMITED,"83,805,773",
 1375,"CENTRAL CHINA SECURITIES CO., LTD.","313,181,000",26.19%
 1378,CHINA HONGQIAO GROUP LIMITED,"531,930,410",5.98%
 1381,CANVEST ENVIRONMENTAL PROTECTION GROUP COMPANY LIMITED,"30,265,000",1.24%
 1382,PACIFIC TEXTILES HOLDINGS LIMITED,"28,295,022",2.00%
 1383,SUNCITY GROUP HOLDINGS LIMITED,"36,260,000",0.54%
 1387,CHINA DILI GROUP,"148,271,670",1.75%
 1398,INDUSTRIAL AND COMMERCIAL BANK OF CHINA LIMITED,"25,818,250,837",29.74%
 1432,CHINA SHENGMU ORGANIC MILK LIMITED,"94,857,000",1.12%
 1448,FU SHOU YUAN INTERNATIONAL GROUP LIMITED,"299,298,419",
 1456,"GUOLIAN SECURITIES CO., LTD.","67,796,000",15.30%
 1458,ZHOU HEI YA INTERNATIONAL HOLDINGS COMPANY LIMITED,"400,076,473",16.77%
 1475,NISSIN FOODS COMPANY LIMITED,"3,789,000",0.35%
 1478,Q TECHNOLOGY (GROUP) COMPANY LIMITED,"54,752,000",4.67%
 1508,CHINA REINSURANCE (GROUP) CORPORATION,"1,009,820,000",15.11%
 1513,LIVZON PHARMACEUTICAL GROUP INC.,"36,521,269",11.41%
 1515,CHINA RESOURCES MEDICAL HOLDINGS COMPANY LIMITED,"75,565,600",5.82%
 1516,SUNAC SERVICES HOLDINGS LIMITED,"17,800,976",0.59%
 1521,FRONTAGE HOLDINGS CORPORATION,"224,574,000",11.04%
 1528,RED STAR MACALLINE GROUP CORPORATION LTD.,"137,117,765",18.48%
 1530,3SBIO INC.,"221,468,039",8.70%
 1533,"LANZHOU ZHUANGYUAN PASTURE CO., LTD.","7,963,500",22.66%
 1548,GENSCRIPT BIOTECH CORPORATION,"229,786,000",11.91%
 1551,"GUANGZHOU RURAL COMMERCIAL BANK CO., LTD","2,414,000",0.13%
 1558,"YICHANG HEC CHANGJIANG PHARMACEUTICAL CO., LTD.","192,796,000",29.48%
 1569,MINSHENG EDUCATION GROUP COMPANY LIMITED,"230,078,000",5.45%
 1573,SOUTHERN ENERGY HOLDINGS GROUP LIMITED,"126,862,000",17.66%
 1578,"BANK OF TIANJIN CO., LTD.","34,000",0.00%
 1579,YIHAI INTERNATIONAL HOLDING LTD.,"116,043,460",11.07%
 1583,QINQIN FOODSTUFFS GROUP (CAYMAN) COMPANY LIMITED,"24,400",0.00%
 1585,YADEA GROUP HOLDINGS LTD.,"297,700,000",9.93%
 1589,"CHINA LOGISTICS PROPERTY HOLDINGS CO., LTD","3,556,000",0.10%
 1600,CHINA TIAN LUN GAS HOLDINGS LIMITED,"17,484,500",1.74%
 1606,"CHINA DEVELOPMENT BANK FINANCIAL LEASING CO., LTD.","316,000",0.01%
 1608,VPOWER GROUP INTERNATIONAL HOLDINGS LIMITED,"5,373,000",0.20%
 1610,COFCO JOYCOME FOODS LIMITED,"674,306,000",17.28%
 1618,METALLURGICAL CORPORATION OF CHINA LTD.,"519,595,000",18.09%
 1622,REDCO PROPERTIES GROUP LIMITED,"238,886,000",6.72%
 1628,YUZHOU GROUP HOLDINGS COMPANY LIMITED,"73,261,263",1.28%
 1635,"SHANGHAI DAZHONG PUBLIC UTILITIES (GROUP) CO., LTD.","82,701,000",15.49%
 1636,CHINA METAL RESOURCES UTILIZATION LIMITED,"34,572,000",1.31%
 1638,KAISA GROUP HOLDINGS LTD.,"565,116,619",9.20%
 1658,"POSTAL SAVINGS BANK OF CHINA CO., LTD.","709,099,845",3.56%
 1661,WISDOM SPORTS GROUP,"6,217,000",0.39%
 1666,TONG REN TANG TECHNOLOGIES CO LTD,"124,783,200",19.84%
 1668,CHINA SOUTH CITY HOLDINGS LIMITED,"903,101,543",11.15%
 1675,ASIAINFO TECHNOLOGIES LIMITED,"2,579,200",0.28%
 1680,MACAU LEGEND DEVELOPMENT LIMITED,"103,212,000",1.65%
 1681,CONSUN PHARMACEUTICAL GROUP LIMITED,"19,601,000",2.34%
 1685,BOER POWER HOLDINGS LIMITED,"2,195,000",0.28%
 1686,SUNEVISION HOLDINGS LIMITED,"2,298,000",0.09%
 1691,JS GLOBAL LIFESTYLE COMPANY LIMITED,"44,629,000",1.27%
 1717,AUSNUTRIA DAIRY CORPORATION LTD,"95,136,000",5.53%
 1728,CHINA ZHENGTONG AUTO SERVICES HOLDINGS LIMITED,"392,646,000",14.55%
 1761,BABYTREE GROUP,"5,745,500",0.34%
 1765,"HOPE EDUCATION GROUP CO., LTD.","893,027,160",12.34%
 1766,CRRC CORPORATION LIMITED,"476,511,420",10.89%
 1772,"GANFENG LITHIUM CO., LTD.","132,931,810",55.33%
 1773,TIANLI EDUCATION INTERNATIONAL HOLDINGS LIMITED,"246,652,000",11.88%
 1776,"GF SECURITIES CO., LTD.","521,676,100",30.65%
 1777,"FANTASIA HOLDINGS GROUP CO., LIMITED","385,325,500",6.67%
 1778,"COLOUR LIFE SERVICES GROUP CO., LIMITED","63,436,826",4.36%
 1787,"SHANDONG GOLD MINING CO., LTD.","151,244,298",21.61%
 1788,GUOTAI JUNAN INTERNATIONAL HOLDINGS LIMITED,"238,451,110",2.47%
 1789,AK MEDICAL HOLDINGS LIMITED,"85,862,000",7.69%
 1797,KOOLEARN TECHNOLOGY HOLDING LIMITED,"153,756,804",16.35%
 1800,CHINA COMMUNICATIONS CONSTRUCTION COMPANY LIMITED,"717,744,000",16.24%
 1801,"INNOVENT BIOLOGICS, INC.","120,810,500",8.61%
 1806,HUIFU PAYMENT LIMITED,"13,270,800",1.01%
 1810,XIAOMI CORPORATION,"2,579,070,056",10.67%
 1811,"CGN NEW ENERGY HOLDINGS CO., LTD.","161,778,000",3.77%
 1812,SHANDONG CHENMING PAPER HOLDINGS LIMITED,"131,981,950",24.98%
 1813,KWG GROUP HOLDINGS LIMITED,"132,551,257",4.16%
 1816,"CGN POWER CO., LTD","2,571,176,000",23.03%
 1817,MULSANNE GROUP HOLDING LIMITED,"284,500",0.02%
 1818,ZHAOJIN MINING INDUSTRY COMPANY LIMITED,"128,024,372",4.90%
 1829,CHINA MACHINERY ENGINEERING CORPORATION,"103,000",0.01%
 1833,PING AN HEALTHCARE AND TECHNOLOGY COMPANY LIMITED,"109,134,800",9.50%
 1836,STELLA INTERNATIONAL HOLDINGS LIMITED,"944,000",0.11%
 1848,CHINA AIRCRAFT LEASING GROUP HOLDINGS LIMITED,"12,577,921",1.74%
 1860,MOBVISTA INC.,"18,070,000",1.17%
 1873,VIVA BIOTECH HOLDINGS,"421,506,500",22.03%
 1876,BUDWEISER BREWING COMPANY APAC LIMITED,"20,066,908",0.14%
 1882,HAITIAN INTERNATIONAL HOLDINGS LIMITED,"25,616,000",1.60%
 1883,CITIC TELECOM INTERNATIONAL HOLDINGS LIMITED,"13,373,000",0.36%
 1886,CHINA HUIYUAN JUICE GROUP LIMITED,"125,355,500",4.69%
 1888,KINGBOARD LAMINATES HOLDINGS LIMITED,"8,859,935",0.28%
 1890,CHINA KEPEI EDUCATION GROUP LIMITED,"134,018,054",6.65%
 1896,MAOYAN ENTERTAINMENT,"35,378,400",3.10%
 1898,CHINA COAL ENERGY COMPANY LIMITED,"399,562,000",9.72%
 1905,"HAITONG UNITRUST INTERNATIONAL FINANCIAL LEASING CO., LTD.","38,576,000",0.66%
 1907,CHINA RISUN GROUP LIMITED,"52,981,000",1.29%
 1908,C&D INTERNATIONAL INVESTMENT GROUP LIMITED,"74,941,000",6.36%
 1911,CHINA RENAISSANCE HOLDINGS LIMITED,"17,434,800",3.27%
 1916,"JIANGXI BANK CO., LTD.","10,786,500",0.80%
 1918,SUNAC CHINA HOLDINGS LIMITED,"795,272,746",17.05%
 1919,"COSCO SHIPPING HOLDINGS CO., LTD.","477,349,000",18.48%
 1928,SANDS CHINA LTD.,"58,589,332",0.71%
 1929,CHOW TAI FOOK JEWELLERY GROUP LIMITED,"44,989,400",0.44%
 1951,JINXIN FERTILITY GROUP LIMITED,"471,509,449",19.39%
 1958,BAIC MOTOR CORPORATION LIMITED,"154,432,000",6.11%
 1963,"BANK OF CHONGQING CO., LTD.","120,030,000",7.60%
 1966,CHINA SCE GROUP HOLDINGS LIMITED,"167,688,054",3.97%
 1970,"IMAX CHINA HOLDING, INC.","8,208,500",2.34%
 1972,SWIRE PROPERTIES LIMITED,"1,538,600",0.01%
 1980,TIAN GE INTERACTIVE HOLDINGS LIMITED,"20,068,000",1.56%
 1988,"CHINA MINSHENG BANKING CORP., LTD.","1,333,406,869",16.01%
 1992,FOSUN TOURISM GROUP,"625,400",0.04%
 1995,EVER SUNSHINE LIFESTYLE SERVICES GROUP LIMITED,"76,324,000",4.56%
 1996,REDSUN PROPERTIES GROUP LIMITED,"86,222,000",2.59%
 1997,WHARF REAL ESTATE INVESTMENT COMPANY LIMITED,"3,484,425",0.11%
 1999,MAN WAH HOLDINGS LIMITED,"796,721,452",20.93%
 2001,CHINA NEW HIGHER EDUCATION GROUP LIMITED,"129,086,000",8.14%
 2003,VCREDIT HOLDINGS LIMITED,"2,052,800",0.41%
 2005,SSY GROUP LIMITED,"317,722,059",10.41%
 2007,COUNTRY GARDEN HOLDINGS COMPANY LIMITED,"256,010,093",1.15%
 2008,PHOENIX MEDIA INVESTMENT (HOLDINGS) LIMITED,"205,004,000",4.10%
 2009,BBMG CORPORATION,"314,598,500",13.44%
 2013,WEIMOB INC.,"452,871,961",20.08%
 2016,"CHINA ZHESHANG BANK CO., LTD.","110,629,000",2.42%
 2018,AAC TECHNOLOGIES HOLDINGS INC.,"67,113,628",5.55%
 2019,DEXIN CHINA HOLDINGS COMPANY LIMITED,"29,859,000",1.10%
 2020,ANTA SPORTS PRODUCTS LIMITED,"223,643,150",8.27%
 2038,FIH MOBILE LIMITED,"137,414,000",1.68%
 2039,"CHINA INTERNATIONAL MARINE CONTAINERS (GROUP) CO., LTD.","235,868,740",11.45%
 2048,E-HOUSE (CHINA) ENTERPRISE HOLDINGS LIMITED,"6,188,700",0.35%
 2051,51 CREDIT CARD INC.,"45,570,500",3.35%
 2066,"SHENGJING BANK CO., LTD.","193,000",0.00%
 2068,CHINA ALUMINUM INTERNATIONAL ENGINEERING CORPORATION LIMITED,"10,502,000",2.62%
 2098,ZALL SMART COMMERCE GROUP LTD.,"31,698,000",0.26%
 2099,CHINA GOLD INTERNATIONAL RESOURCES CORP. LTD.,"12,213,300",3.08%
 2103,SINIC HOLDINGS (GROUP) COMPANY LIMITED,"458,000",0.01%
 2111,BEST PACIFIC INTERNATIONAL HOLDINGS LIMITED,"1,340,000",0.12%
 2128,CHINA LESSO GROUP HOLDINGS LIMITED,"74,693,532",2.39%
 2136,LIFESTYLE CHINA GROUP LIMITED,"282,000",0.01%
 2186,LUYE PHARMA GROUP LTD.,"479,083,000",14.74%
 2196,"SHANGHAI FOSUN PHARMACEUTICAL (GROUP) CO., LTD.","215,091,857",38.96%
 2199,REGINA MIRACLE INTERNATIONAL (HOLDINGS) LIMITED,"2,872,000",0.23%
 2202,"CHINA VANKE CO., LTD.","283,422,380",14.96%
 2208,"XINJIANG GOLDWIND SCIENCE & TECHNOLOGY CO., LTD.","36,858,580",4.76%
 2218,"YANTAI NORTH ANDRE JUICE CO., LTD.","992,500",0.91%
 2232,CRYSTAL INTERNATIONAL GROUP LIMITED,"3,423,000",0.11%
 2233,WEST CHINA CEMENT LIMITED,"630,910,000",11.59%
 2238,"GUANGZHOU AUTOMOBILE GROUP CO., LTD.","945,664,655",30.51%
 2255,HAICHANG OCEAN PARK HOLDINGS LTD.,"307,022,000",7.67%
 2269,WUXI BIOLOGICS (CAYMAN) INC.-NEW,"262,130,089",6.41%
 2280,HC GROUP INC.,"88,917,500",6.78%
 2282,MGM CHINA HOLDINGS LIMITED,"24,199,496",0.62%
 2298,COSMO LADY (CHINA) HOLDINGS COMPANY LIMITED,"9,400,000",0.41%
 2313,SHENZHOU INTERNATIONAL GROUP HOLDINGS LIMITED,"59,963,774",3.98%
 2314,LEE & MAN PAPER MANUFACTURING LIMITED,"16,086,411",0.36%
 2318,"PING AN INSURANCE (GROUP) COMPANY OF CHINA, LTD.","201,212,877",2.69%
 2319,CHINA MENGNIU DAIRY COMPANY LIMITED,"74,533,994",1.87%
 2326,NEW PROVENANCE EVERLASTING HOLDINGS LIMITED,"55,940,000",0.25%
 2328,PICC PROPERTY AND CASUALTY COMPANY LIMITED,"594,418,169",8.60%
 2329,GUORUI PROPERTIES LIMITED,"155,086,000",3.48%
 2331,LI NING COMPANY LIMITED,"141,003,255",5.65%
 2333,GREAT WALL MOTOR COMPANY LIMITED,"1,193,254,139",38.49%
 2338,"WEICHAI POWER CO., LTD.","38,754,834",1.99%
 2342,COMBA TELECOM SYSTEMS HOLDINGS LIMITED,"4,514,000",0.16%
 2343,PACIFIC BASIN SHIPPING LIMITED,"7,342,000",0.15%
 2356,DAH SING BANKING GROUP LIMITED,"273,600",0.01%
 2357,AVICHINA INDUSTRY & TECHNOLOGY COMPANY LIMITED,"542,430,000",8.72%
 2359,"WUXI APPTEC CO., LTD.","20,789,946",6.76%
 2362,JINCHUAN GROUP INTERNATIONAL RESOURCES CO. LTD.,"59,147,000",0.46%
 2363,TONGDA HONG TAI HOLDINGS LIMITED,"336,712",0.16%
 2369,COOLPAD GROUP LIMITED,"36,860,000",0.56%
 2380,CHINA POWER INTERNATIONAL DEVELOPMENT LIMITED,"552,366,629",5.62%
 2382,SUNNY OPTICAL TECHNOLOGY (GROUP) COMPANY LIMITED,"142,916,713",13.02%
 2386,"SINOPEC ENGINEERING (GROUP) CO., LTD.","41,662,500",2.84%
 2388,BOC HONG KONG (HOLDINGS) LIMITED,"12,309,945",0.11%
 2400,XD INC.,"62,644,700",13.79%
 2588,BOC AVIATION LIMITED,"8,973,206",1.28%
 2600,ALUMINUM CORPORATION OF CHINA LIMITED,"299,330,000",7.58%
 2601,CHINA PACIFIC INSURANCE (GROUP) CO. LTD.,"824,101,317",29.69%
 2607,"SHANGHAI PHARMACEUTICALS HOLDING CO., LTD.","114,213,606",12.42%
 2611,"GUOTAI JUNAN SECURITIES CO., LTD.","208,374,200",14.96%
 2628,CHINA LIFE INSURANCE COMPANY LIMITED,"366,679,093",4.92%
 2662,CAMSING INTERNATIONAL HOLDING LIMITED,"132,096,000",12.26%
 2666,GENERTEC UNIVERSAL MEDICAL GROUP COMPANY LIMITED,"310,678,000",18.10%
 2669,CHINA OVERSEAS PROPERTY HOLDINGS LIMITED,"385,582,275",11.72%
 2678,TEXHONG TEXTILE GROUP LIMITED,"29,995,000",3.27%
 2688,ENN ENERGY HOLDINGS LIMITED,"15,423,161",1.36%
 2689,NINE DRAGONS PAPER (HOLDINGS) LIMITED,"69,457,006",1.47%
 2727,SHANGHAI ELECTRIC GROUP COMPANY LIMITED,"912,097,000",30.67%
 2768,JIAYUAN INTERNATIONAL GROUP LIMITED,"362,038,106",8.91%
 2772,ZHONGLIANG HOLDINGS GROUP COMPANY LIMITED,"41,660,000",1.15%
 2777,"GUANGZHOU R&F PROPERTIES CO., LTD.","84,676,626",2.25%
 2799,"CHINA HUARONG ASSET MANAGEMENT CO., LTD.","2,322,651,000",9.27%
 2858,YIXIN GROUP LIMITED,"44,140,500",0.69%
 2866,"COSCO SHIPPING DEVELOPMENT CO., LTD.","666,585,000",18.13%
 2869,GREENTOWN SERVICE GROUP CO. LTD.,"326,367,899",
 2877,CHINA SHINEWAY PHARMACEUTICAL GROUP LIMITED,"26,005,000",3.13%
 2880,DALIAN PORT (PDA) COMPANY LIMITED,"886,307,000",17.17%
 2883,CHINA OILFIELD SERVICES LIMITED,"341,137,627",18.83%
 2888,STANDARD CHARTERED PLC,"349,020",0.00%
 2899,"ZIJIN MINING GROUP CO., LTD.","1,695,804,195",29.55%
 2963,WUXI BIOLOGICS (CAYMAN) INC.-OLD,"424,500",0.00%
 3301,RONSHINE CHINA HOLDINGS LIMITED,"131,558,000",7.79%
 3306,JNBY DESIGN LIMITED,"20,562,000",3.96%
 3308,GOLDEN EAGLE RETAIL GROUP LIMITED,"85,806,000",5.16%
 3309,C-MER EYE CARE HOLDINGS LIMITED,"82,938,000",7.22%
 3311,CHINA STATE CONSTRUCTION INTERNATIONAL HOLDINGS LIMITED,"199,125,341",3.93%
 3319,"A-LIVING SMART CITY SERVICES CO., LTD.","3,615,750",0.27%
 3320,CHINA RESOURCES PHARMACEUTICAL GROUP LIMITED,"217,719,500",3.46%
 3323,CHINA NATIONAL BUILDING MATERIAL COMPANY LIMITED,"1,003,843,066",25.94%
 3328,"BANK OF COMMUNICATIONS CO., LTD.","852,705,145",2.43%
 3329,BOCOM INTERNATIONAL HOLDINGS COMPANY LIMITED,"14,973,000",0.54%
 3331,VINDA INTERNATIONAL HOLDINGS LIMITED,"18,751,000",1.55%
 3333,CHINA EVERGRANDE GROUP,"131,282,355",0.97%
 3339,LONKING HOLDINGS LIMITED,"29,594,000",0.69%
 3347,"HANGZHOU TIGERMED CONSULTING CO., LTD.","467,900",0.38%
 3360,FAR EAST HORIZON LIMITED,"79,496,000",1.99%
 3368,PARKSON RETAIL GROUP LIMITED,"5,669,500",0.21%
 3369,"QINHUANGDAO PORT CO., LTD.","85,822,500",10.33%
 3377,SINO-OCEAN GROUP HOLDING LIMITED,"215,939,344",2.83%
 3380,LOGAN GROUP COMPANY LIMITED,"147,997,148",2.67%
 3382,TIANJIN PORT DEVELOPMENT HOLDINGS LIMITED,"199,872,000",3.24%
 3383,AGILE GROUP HOLDINGS LIMITED,"47,049,237",1.20%
 3389,HENGDELI HOLDINGS LIMITED,"776,000",0.01%
 3393,WASION HOLDINGS LIMITED,"1,326,000",0.13%
 3396,LEGEND HOLDINGS CORPORATION,"101,337,800",7.96%
 3606,"FUYAO GLASS INDUSTRY GROUP CO., LTD","88,631,450",17.52%
 3613,BEIJING TONG REN TANG CHINESE MEDICINE COMPANY LIMITED,"70,354,000",8.40%
 3618,"CHONGQING RURAL COMMERCIAL BANK CO., LTD.","694,603,597",27.62%
 3633,ZHONGYU GAS HOLDINGS LIMITED,"18,929,000",0.71%
 3669,CHINA YONGDA AUTOMOBILES SERVICES HOLDINGS LIMITED,"146,949,500",
 3690,MEITUAN,"377,843,028",6.41%
 3692,HANSOH PHARMACEUTICAL GROUP COMPANY LIMITED,"37,271,000",0.62%
 3698,HUISHANG BANK CORPORATION LIMITED,"4,759,200",0.12%
 3759,"PHARMARON BEIJING CO., LTD.","17,236,165",12.86%
 3788,CHINA HANKING HOLDINGS LIMITED,"15,586,000",0.85%
 3799,DALI FOODS GROUP COMPANY LIMITED,"436,499,500",3.17%
 3800,GCL-POLY ENERGY HOLDINGS LIMITED,"4,229,067,500",19.99%
 3808,SINOTRUK (HONG KONG) LIMITED,"113,559,633",4.11%
 3813,POU SHENG INTERNATIONAL (HOLDINGS) LIMITED,"12,348,000",0.23%
 3818,"CHINA DONGXIANG (GROUP) CO., LTD.","374,666,000",6.36%
 3836,CHINA HARMONY AUTO HOLDING LIMITED,"94,986,500",6.03%
 3866,"BANK OF QINGDAO CO., LTD.","1,733,000",0.09%
 3868,XINYI ENERGY HOLDINGS LIMITED,"139,992,000",1.96%
 3877,CSSC (HONG KONG) SHIPPING COMPANY LIMITED,"4,898,000",0.07%
 3883,CHINA AOYUAN GROUP LIMITED,"163,895,659",6.05%
 3886,TOWN HEALTH INTERNATIONAL MEDICAL GROUP LIMITED,"145,736,000",1.92%
 3888,KINGSOFT CORPORATION LIMITED,"350,027,169",25.49%
 3898,"ZHUZHOU CRRC TIMES ELECTRIC CO., LTD.","52,109,306",9.51%
 3899,CIMC ENRIC HOLDINGS LIMITED,"124,132,000",6.17%
 3900,GREENTOWN CHINA HOLDINGS LIMITED,"331,854,000",13.29%
 3908,CHINA INTERNATIONAL CAPITAL CORPORATION LIMITED,"331,758,881",17.42%
 3913,KWG LIVING GROUP HOLDINGS LIMITED,"53,271,700",2.63%
 3933,"UNITED LABORATORIES INTERNATIONAL HOLDINGS LIMITED, THE","155,304,468",8.43%
 3958,DFZQ,"412,071,209",40.11%
 3968,"CHINA MERCHANTS BANK CO., LTD.","189,936,070",4.13%
 3969,CHINA RAILWAY SIGNAL & COMMUNICATION CORPORATION LIMITED,"275,859,000",14.00%
 3988,BANK OF CHINA LIMITED,"7,799,605,392",9.32%
 3990,MIDEA REAL ESTATE HOLDING LIMITED,"77,887,000",6.32%
 3993,"CHINA MOLYBDENUM CO., LTD.","310,830,500",7.89%
 3996,CHINA ENERGY ENGINEERING CORPORATION LIMITED,"10,824,000",0.11%
 3998,BOSIDENG INTERNATIONAL HOLDINGS LIMITED,"660,794,000",6.12%
 6030,CITIC SECURITIES COMPANY LIMITED,"329,161,859",14.44%
 6049,"POLY PROPERTY SERVICES CO., LTD.","66,006,466",43.04%
 6055,CHINA TOBACCO INTERNATIONAL (HK) COMPANY LIMITED,"29,742,000",4.29%
 6060,"ZHONGAN ONLINE P & C INSURANCE CO., LTD.","34,856,200",7.41%
 6066,"CSC FINANCIAL CO., LTD.","314,690,000",24.95%
 6068,WISDOM EDUCATION INTERNATIONAL HOLDINGS COMPANY LIMITED,"202,652,000",9.30%
 6069,SHENG YE CAPITAL LIMITED,"34,930,500",3.72%
 6078,"HYGEIA HEALTHCARE HOLDINGS CO., LIMITED","27,874,400",4.51%
 6088,FIT HON TENG LIMITED,"306,560,000",4.44%
 6098,COUNTRY GARDEN SERVICES HOLDINGS COMPANY LIMITED,"218,324,141",7.91%
 6099,"CHINA MERCHANTS SECURITIES CO., LTD.","268,263,860",21.04%
 6100,TONGDAO LIEPIN GROUP,"84,800",0.01%
 6110,TOPSPORTS INTERNATIONAL HOLDINGS LIMITED,"12,936,020",0.20%
 6116,"XINJIANG LA CHAPELLE FASHION CO., LTD.","67,480,800",31.41%
 6158,ZHENRO PROPERTIES GROUP LIMITED,"83,701,000",1.91%
 6160,"BEIGENE, LTD.","2,227,100",0.18%
 6166,CHINA VAST INDUSTRIAL URBAN DEVELOPMENT COMPANY LIMITED,"87,143,000",5.27%
 6169,CHINA YUHUA EDUCATION CORPORATION LIMITED,"594,027,111",17.77%
 6178,EVERBRIGHT SECURITIES COMPANY LIMITED,"90,728,400",12.88%
 6186,CHINA FEIHE LIMITED,"765,516,455",8.56%
 6196,"BANK OF ZHENGZHOU CO., LTD.","302,590,200",18.12%
 6198,"QINGDAO PORT INTERNATIONAL CO., LTD.","10,272,000",0.92%
 6806,"SHENWAN HONGYUAN GROUP CO., LTD.","276,540,000",11.04%
 6808,SUN ART RETAIL GROUP LIMITED,"67,943,023",0.70%
 6818,CHINA EVERBRIGHT BANK COMPANY LIMITED,"1,033,621,207",8.14%
 6828,BEIJING GAS BLUE SKY HOLDINGS LIMITED,"227,656,000",1.75%
 6837,"HAITONG SECURITIES CO., LTD.","859,781,800",25.21%
 6862,HAIDILAO INTERNATIONAL HOLDING LTD.,"135,370,645",2.55%
 6865,"FLAT GLASS GROUP CO., LTD.","102,303,768",22.73%
 6869,YANGTZE OPTICAL FIBRE AND CABLE JOINT STOCK LIMITED COMPANY,"20,658,000",5.87%
 6881,"CHINA GALAXY SECURITIES CO., LTD.","892,284,700",24.16%
 6886,"HUATAI SECURITIES CO., LTD.","473,926,046",27.56%
 6969,SMOORE INTERNATIONAL HOLDINGS LIMITED,"329,218,297",5.61%
 8328,XINYI AUTOMOBILE GLASS HONG KONG ENTERPRISES LIMITED,"93,750",0.01%
 9633,"NONGFU SPRING CO., LTD.","83,194,887",1.64%
 9909,POWERLONG COMMERCIAL MANAGEMENT HOLDINGS LIMITED,"27,234,000",4.38%
 9922,JIUMAOJIU INTERNATIONAL HOLDINGS LIMITED,"125,367,295",8.62%
 9923,YEAHKA LIMITED,"243,200",0.05%
 9928,TIMES NEIGHBORHOOD HOLDINGS LIMITED,"23,420,331",2.37%
 9968,HUIJING HOLDINGS COMPANY LIMITED,"8,356,000",0.15%
 9983,CENTRAL CHINA NEW LIFE LIMITED,"21,562,000",1.73%
 9989,"SHENZHEN HEPALINK PHARMACEUTICAL GROUP CO., LTD.","16,634,000",7.55%
 9997,KANGJI MEDICAL HOLDINGS LIMITED,"8,139,500",0.64%
