Stock Code,Stock Name,Shareholding in CCASS,Percentage of the total number of Issued Shares
    1,CK HUTCHISON HOLDINGS LIMITED,"27,238,687",0.70%
    2,CLP HOLDINGS LIMITED,"5,796,992",0.22%
    3,"HONG KONG AND CHINA GAS COMPANY LIMITED, THE","23,716,481",0.12%
    4,"WHARF (HOLDINGS) LIMITED, THE","10,015,446",0.32%
    5,HSBC HOLDINGS PLC,"1,805,256,006",8.71%
    6,POWER ASSETS HOLDINGS LIMITED,"4,258,422",0.19%
    8,PCCW LIMITED,"10,962,776",0.13%
   10,HANG LUNG GROUP LIMITED,"26,407,000",1.93%
   11,HANG SENG BANK LTD,"2,662,505",0.13%
   12,HENDERSON LAND DEVELOPMENT CO LTD,"4,377,673",0.08%
   14,HYSAN DEVELOPMENT COMPANY LIMITED,"1,317,000",0.12%
   16,SUN HUNG KAI PROPERTIES LIMITED,"8,772,904",0.29%
   17,NEW WORLD DEVELOPMENT CO LTD,"9,909,131",0.38%
   19,SWIRE PACIFIC LTD 'A',"3,011,500",0.32%
   23,BANK OF EAST ASIA LTD,"1,073,793",0.03%
   27,GALAXY ENTERTAINMENT GROUP LIMITED,"38,965,102",0.89%
   35,FAR EAST CONSORTIUM INTERNATIONAL LTD,"100,013",0.00%
   38,FIRST TRACTOR COMPANY LIMITED,"114,922,100",29.31%
   41,GREAT EAGLE HOLDINGS LIMITED,"1,426,511",0.19%
   42,NORTHEAST ELECTRIC DEVELOPMENT COMPANY LIMITED,"16,054,000",6.22%
   43,C.P. POKPHAND CO LTD,"840,000",0.00%
   45,"HONGKONG AND SHANGHAI HOTELS LTD,THE","42,513",0.00%
   59,SKYFAME REALTY (HOLDINGS) LIMITED,"64,234,000",0.81%
   66,MTR CORPORATION LIMITED,"5,354,523",0.08%
   69,SHANGRI-LA ASIA LIMITED,"20,430,000",0.56%
   78,REGAL HOTELS INTERNATIONAL HOLDINGS LIMITED,"14,000",0.00%
   81,CHINA OVERSEAS GRAND OCEANS GROUP LIMITED,"316,015,820",9.23%
   83,SINO LAND CO.LTD.,"8,711,976",0.12%
   86,SUN HUNG KAI & CO.LTD,"14,076,000",0.69%
   87,SWIRE PACIFIC LTD 'B',"23,837,500",0.78%
   95,LVGEM (CHINA) REAL ESTATE INVESTMENT COMPANY LIMITED,"160,106,000",3.14%
  101,HANG LUNG PROPERTIES LIMITED,"54,266,949",1.19%
  107,SICHUAN EXPRESSWAY COMPANY LIMITED,"223,294,000",24.93%
  109,GOOD RESOURCES HOLDINGS LIMITED,"44,450,000",0.62%
  116,CHOW SANG SANG HOLDINGS INTERNATIONAL LIMITED,"21,490,000",3.17%
  119,"POLY PROPERTY GROUP CO., LIMITED","365,910,748",9.98%
  120,COSMOPOLITAN INTERNATIONAL HOLDINGS LTD,"1,272,000",0.02%
  123,YUEXIU PROPERTY COMPANY LIMITED,"391,166,351",2.51%
  127,CHINESE ESTATES HOLDINGS LIMITED,"3,131,500",0.16%
  135,KUNLUN ENERGY COMPANY LIMITED,"134,255,000",1.54%
  136,HENGTEN NETWORKS GROUP LIMITED,"5,068,476,000",6.78%
  142,FIRST PACIFIC CO. LTD.,"8,188,000",0.18%
  144,CHINA MERCHANTS PORT HOLDINGS COMPANY LIMITED,"148,654,232",4.11%
  148,KINGBOARD HOLDINGS LIMITED,"16,406,636",1.48%
  151,WANT WANT CHINA HOLDINGS LIMITED,"35,325,871",0.28%
  152,SHENZHEN INTERNATIONAL HOLDINGS LIMITED,"69,422,631",3.15%
  163,EMPEROR INTERNATIONAL HOLDINGS LIMITED,"10,854,000",0.29%
  165,CHINA EVERBRIGHT LIMITED,"207,305,955",12.29%
  168,TSINGTAO BREWERY COMPANY LIMITED,"67,472,000",10.29%
  173,K. WAH INTERNATIONAL HOLDINGS LIMITED,"41,608,264",1.32%
  175,GEELY AUTOMOBILE HOLDINGS LIMITED,"687,694,846",7.00%
  177,JIANGSU EXPRESSWAY COMPANY LIMITED,"124,312,818",10.17%
  178,SA SA INTERNATIONAL HOLDINGS LIMITED,"16,865,268",0.53%
  179,JOHNSON ELECTRIC HOLDINGS LIMITED,"700,000",0.07%
  187,BEIJING JINGCHENG MACHINERY ELECTRIC COMPANY LIMITED,"27,678,000",27.67%
  189,DONGYUE GROUP LIMITED,"156,897,358",7.42%
  198,SMI HOLDINGS GROUP LIMITED,"70,340,800",2.59%
  200,MELCO INTERNATIONAL DEVELOPMENT LIMITED,"14,724,000",0.96%
  207,JOY CITY PROPERTY LIMITED,"4,364,000",0.03%
  215,HUTCHISON TELECOMMUNICATIONS HONG KONG HOLDINGS LIMITED,"7,888,000",0.16%
  220,UNI-PRESIDENT CHINA HOLDINGS LTD.,"8,823,000",0.20%
  241,ALIBABA HEALTH INFORMATION TECHNOLOGY LIMITED,"248,892,498",1.91%
  242,SHUN TAK HOLDINGS LIMITED,"89,640,000",2.96%
  245,CHINA VERED FINANCIAL HOLDING CORPORATION LIMITED,"31,550,000",0.08%
  256,CITYCHAMP WATCH & JEWELLERY GROUP LIMITED,"350,596,000",8.05%
  257,CHINA EVERBRIGHT INTERNATIONAL LIMITED,"500,877,577",8.14%
  267,CITIC LIMITED,"141,835,916",0.48%
  268,KINGDEE INTERNATIONAL SOFTWARE GROUP COMPANY LIMITED,"468,952,926",14.06%
  270,GUANGDONG INVESTMENT LIMITED,"34,434,905",0.52%
  272,SHUI ON LAND LIMITED,"601,849,500",7.45%
  279,FREEMAN FINTECH CORPORATION LIMITED,"612,286,000",32.77%
  285,BYD ELECTRONIC (INTERNATIONAL) COMPANY LIMITED,"193,069,000",8.56%
  288,WH GROUP LIMITED,"1,341,738,427",9.10%
  291,CHINA RESOURCES BEER (HOLDINGS) COMPANY LIMITED,"332,222,159",10.23%
  293,CATHAY PACIFIC AIRWAYS LTD,"17,283,843",0.26%
  295,KONG SUN HOLDINGS LIMITED,"52,325,000",0.34%
  297,SINOFERT HOLDINGS LIMITED,"347,114,000",4.93%
  302,CMGE TECHNOLOGY GROUP LIMITED,"144,988,000",6.22%
  303,VTECH HOLDINGS LIMITED,"1,689,449",0.66%
  308,CHINA TRAVEL INTERNATIONAL INVESTMENT HONG KONG LIMITED,"179,010,439",3.23%
  315,SMARTONE TELECOMMUNICATIONS HOLDINGS LIMITED,"1,871,108",0.16%
  316,ORIENT OVERSEAS (INTERNATIONAL) LIMITED,"8,500",0.00%
  317,CSSC OFFSHORE & MARINE ENGINEERING (GROUP) COMPANY LIMITED,"25,493,900",4.29%
  321,TEXWINCA HOLDINGS LIMITED,"1,004,000",0.07%
  322,TINGYI (CAYMAN ISLANDS) HOLDING CORP.,"31,964,708",0.55%
  323,MAANSHAN IRON & STEEL COMPANY LIMITED,"17,476,000",0.99%
  327,PAX GLOBAL TECHNOLOGY LIMITED,"7,672,000",0.70%
  330,ESPRIT HOLDINGS LIMITED,"11,167,800",0.58%
  336,HUABAO INTERNATIONAL HOLDINGS LIMITED,"400,113,100",12.86%
  337,GREENLAND HONG KONG HOLDINGS LIMITED,"115,638,000",4.14%
  338,SINOPEC SHANGHAI PETROCHEMICAL COMPANY LIMITED,"293,784,375",8.40%
  341,CAFE DE CORAL HOLDINGS LTD,"5,994,000",1.01%
  345,VITASOY INTERNATIONAL HOLDINGS LTD,"7,736,011",0.71%
  347,ANGANG STEEL COMPANY LIMITED,"23,409,200",1.65%
  354,CHINASOFT INTERNATIONAL LIMITED,"387,550,542",14.27%
  358,JIANGXI COPPER COMPANY LIMITED,"82,948,219",5.97%
  363,SHANGHAI INDUSTRIAL HOLDINGS LIMITED,"25,268,100",2.31%
  371,BEIJING ENTERPRISES WATER GROUP LIMITED,"283,188,010",2.81%
  378,FDG KINETIC LIMITED,"183,718,000",2.72%
  384,CHINA GAS HOLDINGS LIMITED,"31,109,043",0.58%
  386,CHINA PETROLEUM & CHEMICAL CORPORATION,"1,467,902,498",5.74%
  388,HONG KONG EXCHANGES AND CLEARING LIMITED,"52,627,671",4.14%
  390,CHINA RAILWAY GROUP LIMITED,"269,488,030",6.39%
  392,BEIJING ENTERPRISES HOLDINGS LIMITED,"95,063,482",7.52%
  400,COGOBUY GROUP,"52,971,000",3.73%
  410,SOHO CHINA LIMITED,"386,741,500",7.43%
  412,CHINA SHANDONG HI-SPEED FINANCIAL GROUP LIMITED,"9,936,000",0.04%
  419,HUAYI TENCENT ENTERTAINMENT COMPANY LIMITED,"168,910,000",1.25%
  425,MINTH GROUP LIMITED,"60,157,189",5.21%
  439,KUANGCHI SCIENCE LIMITED,"275,940,000",4.47%
  440,DAH SING FINANCIAL HOLDINGS LTD,"2,959,266",0.92%
  451,GCL NEW ENERGY HOLDINGS LIMITED,"1,547,654,000",8.11%
  460,SIHUAN PHARMACEUTICAL HOLDINGS GROUP LTD.,"509,749,000",5.38%
  467,UNITED ENERGY GROUP LIMITED,"7,794,000",0.02%
  468,GREATVIEW ASEPTIC PACKAGING COMPANY LIMITED,"11,841,000",0.88%
  480,HKR INTERNATIONAL LTD,"62,800",0.00%
  488,LAI SUN DEVELOPMENT COMPANY LIMITED,"30,000",0.00%
  489,DONGFENG MOTOR GROUP COMPANY LIMITED,"202,138,000",7.07%
  493,GOME RETAIL HOLDINGS LIMITED,"2,536,056,000",11.75%
  496,KASEN INTERNATIONAL HOLDINGS LIMITED,"124,113,000",8.30%
  506,CHINA FOODS LIMITED,"42,522,100",1.51%
  508,DINGYI GROUP INVESTMENT LIMITED,"382,655,000",5.20%
  511,TELEVISION BROADCASTS LIMITED,"464,500",0.09%
  512,CHINA GRAND PHARMACEUTICAL AND HEALTHCARE HOLDINGS LIMITED,"119,359,200",3.36%
  517,"COSCO SHIPPING INTERNATIONAL (HONG KONG) CO., LTD.","420,000",0.02%
  520,"XIABUXIABU CATERING MANAGEMENT (CHINA) HOLDINGS CO., LTD.","108,958,000",10.07%
  522,ASM PACIFIC TECHNOLOGY LIMITED,"18,425,425",4.50%
  525,GUANGSHEN RAILWAY COMPANY LIMITED,"342,196,010",23.90%
  530,GOLDIN FINANCIAL HOLDINGS LIMITED,"2,770,000",0.03%
  535,GEMDALE PROPERTIES AND INVESTMENT CORPORATION LIMITED,"2,028,844,154",12.31%
  546,FUFENG GROUP LIMITED,"66,486,119",2.62%
  547,DIGITAL DOMAIN HOLDINGS LIMITED,"1,026,360,000",3.01%
  548,SHENZHEN EXPRESSWAY COMPANY LIMITED,"112,604,000",15.05%
  551,YUE YUEN INDUSTRIAL (HOLDINGS) LIMITED,"7,756,793",0.47%
  552,CHINA COMMUNICATIONS SERVICES CORPORATION LIMITED,"38,610,000",1.61%
  553,NANJING PANDA ELECTRONICS COMPANY LIMITED,"56,702,000",23.42%
  563,SHANGHAI INDUSTRIAL URBAN DEVELOPMENT GROUP LIMITED,"138,960,855",2.88%
  564,ZHENGZHOU COAL MINING MACHINERY GROUP COMPANY LIMITED,"54,583,604",22.43%
  568,SHANDONG MOLONG PETROLEUM MACHINERY COMPANY LIMITED,"58,022,000",22.65%
  570,CHINA TRADITIONAL CHINESE MEDICINE HOLDINGS CO LIMITED,"618,382,938",12.27%
  576,"ZHEJIANG EXPRESSWAY CO., LTD.","78,723,759",5.48%
  579,"BEIJING JINGNENG CLEAN ENERGY CO., LIMITED","158,994,000",5.61%
  581,CHINA ORIENTAL GROUP COMPANY LIMITED,"122,944,987",3.30%
  582,LANDING INTERNATIONAL DEVELOPMENT LIMITED,"112,033,200",3.18%
  586,CHINA CONCH VENTURE HOLDINGS LIMITED,"164,010,500",9.08%
  588,BEIJING NORTH STAR COMPANY LIMITED,"220,022,000",31.11%
  590,LUK FOOK HOLDINGS (INTERNATIONAL) LIMITED,"2,813,000",0.47%
  598,SINOTRANS LIMITED,"365,313,000",17.02%
  604,SHENZHEN INVESTMENT LIMITED,"46,067,461",0.51%
  607,FULLSHARE HOLDINGS LIMITED,"5,119,087,500",25.96%
  612,CHINA DING YI FENG HOLDINGS LIMITED,"2,264,000",0.17%
  631,SANY HEAVY EQUIPMENT INTERNATIONAL HOLDINGS COMPANY LIMITED,"212,692,000",6.83%
  636,KERRY LOGISTICS NETWORK LIMITED,"1,342,000",0.06%
  639,SHOUGANG FUSHAN RESOURCES GROUP LIMITED,"107,900,000",2.03%
  656,FOSUN INTERNATIONAL LIMITED,"957,874,716",11.26%
  658,"CHINA HIGH SPEED TRANSMISSION EQUIPMENT GROUP CO., LTD.","197,888,000",12.09%
  659,NWS HOLDINGS LIMITED,"5,350,719",0.13%
  665,HAITONG INTERNATIONAL SECURITIES GROUP LIMITED,"271,214,031",4.48%
  667,CHINA EAST EDUCATION HOLDINGS LIMITED,"116,671,500",5.31%
  669,TECHTRONIC INDUSTRIES CO. LTD.,"5,064,470",0.27%
  670,CHINA EASTERN AIRLINES CORPORATION LIMITED,"297,435,567",5.74%
  680,NAN HAI CORPORATION LIMITED,"506,050,000",0.73%
  683,KERRY PROPERTIES LIMITED,"4,017,624",0.27%
  686,PANDA GREEN ENERGY GROUP LIMITED,"295,130,000",1.31%
  687,TYSAN HOLDINGS LIMITED,"5,150,000",0.15%
  688,CHINA OVERSEAS LAND & INVESTMENT LIMITED,"59,390,667",0.53%
  691,CHINA SHANSHUI CEMENT GROUP LIMITED,"4,117,000",0.09%
  694,BEIJING CAPITAL INTERNATIONAL AIRPORT COMPANY LIMITED,"364,415,672",19.38%
  696,TRAVELSKY TECHNOLOGY LIMITED,"42,308,000",4.53%
  697,SHOUCHENG HOLDINGS LIMITED,"26,954,010",0.38%
  698,TONGDA GROUP HOLDINGS LIMITED,"157,090,000",2.42%
  699,CAR INC.,"159,644,001",7.52%
  700,TENCENT HOLDINGS LIMITED,"302,659,270",3.14%
  709,GIORDANO INTERNATIONAL LIMITED,"2,138,000",0.13%
  715,CHINA OCEANWIDE HOLDINGS LIMITED,"456,000",0.00%
  718,TAI UNITED HOLDINGS LIMITED,"20,050,000",0.38%
  719,SHANDONG XINHUA PHARMACEUTICAL COMPANY LIMITED,"64,219,036",32.93%
  721,CHINA FINANCIAL INTERNATIONAL INVESTMENTS LIMITED,"304,800,000",2.77%
  728,CHINA TELECOM CORPORATION LIMITED,"339,475,238",2.43%
  729,FDG ELECTRIC VEHICLES LIMITED,"70,130,750",2.79%
  732,TRULY INTERNATIONAL HOLDINGS LIMITED,"305,760,000",9.29%
  737,SZ INVESTMENT HLDGS BAY AREA DEV CO LTD -HKD TRADED SHARES,"1,632,000",0.04%
  743,ASIA CEMENT (CHINA) HOLDINGS CORPORATION,"34,047,000",2.17%
  751,SKYWORTH GROUP LIMITED,"156,685,919",5.11%
  753,AIR CHINA LIMITED,"368,208,449",8.06%
  754,HOPSON DEVELOPMENT HOLDINGS LIMITED,"60,686,000",2.72%
  762,CHINA UNICOM (HONG KONG) LIMITED,"190,038,000",0.61%
  763,ZTE CORPORATION,"200,426,666",26.52%
  772,CHINA LITERATURE LIMITED,"86,270,727",8.48%
  775,"CK LIFE SCIENCES INT'L., (HOLDINGS) INC.","18,478,000",0.19%
  777,NETDRAGON WEBSOFT HOLDINGS LIMITED,"23,710,000",4.19%
  780,TONGCHENG-ELONG HOLDINGS LIMITED,"19,470,800",0.89%
  787,GLOBAL BRANDS GROUP HOLDING LIMITED,"66,493,833",6.46%
  788,CHINA TOWER CORPORATION LIMITED,"1,959,602,384",4.19%
  799,IGG INC,"113,562,298",9.23%
  806,VALUE PARTNERS GROUP LIMITED,"68,743,405",3.70%
  811,"XINHUA WINSHARE PUBLISHING AND MEDIA CO., LTD.","78,710,000",17.80%
  813,SHIMAO GROUP HOLDINGS LIMITED,"81,551,141",2.30%
  816,HUADIAN FUXIN ENERGY CORPORATION LIMITED,"1,044,000",0.04%
  817,CHINA JINMAO HOLDINGS GROUP LIMITED,"1,015,874,157",8.19%
  819,TIANNENG POWER INTERNATIONAL LIMITED,"246,173,000",21.86%
  826,TIANGONG INTERNATIONAL COMPANY LIMITED,"60,168,000",2.34%
  829,SHENGUAN HOLDINGS (GROUP) LIMITED,"140,562,000",4.35%
  832,CENTRAL CHINA REAL ESTATE LIMITED,"118,835,000",4.24%
  836,CHINA RESOURCES POWER HOLDINGS COMPANY LIMITED,"229,576,335",4.76%
  839,CHINA EDUCATION GROUP HOLDINGS LIMITED,"95,034,655",4.70%
  845,GLORIOUS PROPERTY HOLDINGS LIMITED,"22,344,000",0.28%
  846,MINGFA GROUP (INTERNATIONAL) COMPANY LIMITED,"5,261,000",0.08%
  853,MICROPORT SCIENTIFIC CORPORATION,"233,677,786",12.96%
  855,CHINA WATER AFFAIRS GROUP LIMITED,"178,813,357",11.14%
  856,VSTECS HOLDINGS LIMITED,"18,028,000",1.24%
  857,PETROCHINA COMPANY LIMITED,"1,749,832,455",8.28%
  860,APOLLO FUTURE MOBILITY GROUP LIMITED,"29,760,000",0.41%
  861,DIGITAL CHINA HOLDINGS LIMITED,"659,226,400",39.42%
  867,CHINA MEDICAL SYSTEM HOLDINGS LIMITED,"24,424,618",0.98%
  868,XINYI GLASS HOLDINGS LIMITED,"241,887,053",5.99%
  874,"GUANGZHOU BAIYUNSHAN PHARMACEUTICAL HOLDINGS CO., LTD.","69,596,100",31.64%
  880,SJM HOLDINGS LIMITED,"209,508,700",3.69%
  881,ZHONGSHENG GROUP HOLDINGS LIMITED,"40,571,313",1.77%
  883,CNOOC LIMITED,"415,458,543",0.92%
  884,CIFI HOLDINGS (GROUP) CO. LTD.,"379,055,262",4.60%
  885,RENTIAN TECHNOLOGY HOLDINGS LIMITED,"1,110,000",0.01%
  895,DONGJIANG ENVIRONMENTAL COMPANY LIMITED,"66,200,400",33.07%
  902,"HUANENG POWER INTERNATIONAL, INC.","2,079,418,874",44.23%
  906,CPMC HOLDINGS LIMITED,"18,317,000",1.63%
  911,QIANHAI HEALTH HOLDINGS LIMITED,"91,265,500",5.38%
  914,ANHUI CONCH CEMENT COMPANY LIMITED,"53,872,789",4.14%
  916,CHINA LONGYUAN POWER GROUP CORPORATION LIMITED,"277,466,000",8.29%
  921,"HISENSE HOME APPLIANCES GROUP CO., LTD.","46,507,459",10.11%
  931,CHINA LNG GROUP LIMITED,"172,357,000",3.04%
  933,BRIGHTOIL PETROLEUM (HOLDINGS) LIMITED,"25,254,000",0.24%
  934,SINOPEC KANTONS HOLDINGS LIMITED,"205,254,000",8.24%
  939,CHINA CONSTRUCTION BANK CORPORATION,"25,895,644,335",10.76%
  941,CHINA MOBILE LIMITED,"102,058,224",0.49%
  950,LEE'S PHARMACEUTICAL HOLDINGS LIMITED,"1,391,500",0.23%
  951,CHAOWEI POWER HOLDINGS LIMITED,"100,807,000",9.13%
  956,CHINA SUNTIEN GREEN ENERGY CORPORATION LIMITED,"193,985,000",10.54%
  960,LONGFOR GROUP HOLDINGS LIMITED,"162,390,493",2.70%
  966,CHINA TAIPING INSURANCE HOLDINGS COMPANY LIMITED,"469,852,774",13.07%
  967,SOUND GLOBAL LTD.,"289,000",0.01%
  968,XINYI SOLAR HOLDINGS LIMITED,"965,901,685",11.82%
  976,CHIHO ENVIRONMENTAL GROUP LIMITED,"216,998,000",13.51%
  978,CHINA MERCHANTS LAND LIMITED,"170,110,000",3.46%
  981,SEMICONDUCTOR MANUFACTURING INTERNATIONAL CORPORATION,"1,074,764,337",14.44%
  989,GROUND INTERNATIONAL DEVELOPMENT LIMITED,"156,495,000",2.96%
  991,"DATANG INTERNATIONAL POWER GENERATION CO.,LTD.","332,434,000",5.43%
  992,LENOVO GROUP LIMITED,"117,737,882",0.97%
  995,ANHUI EXPRESSWAY COMPANY LIMITED,"114,804,000",23.28%
  996,CARNIVAL GROUP INTERNATIONAL HOLDINGS LIMITED,"6,099,442,500",25.73%
  998,CHINA CITIC BANK CORPORATION LIMITED,"2,312,294,758",15.53%
 1028,C.BANNER INTERNATIONAL HOLDINGS LIMITED,"146,797,000",7.06%
 1030,SEAZEN GROUP LIMITED,"262,493,127",4.21%
 1031,KINGSTON FINANCIAL GROUP LIMITED,"548,000",0.00%
 1033,SINOPEC OILFIELD SERVICE CORPORATION,"359,928,000",6.64%
 1038,CK INFRASTRUCTURE HOLDINGS LIMITED,"10,980,000",0.40%
 1044,HENGAN INTERNATIONAL GROUP COMPANY LIMITED,"21,085,105",1.76%
 1052,YUEXIU TRANSPORT INFRASTRUCTURE LIMITED,"77,703,238",4.64%
 1053,CHONGQING IRON & STEEL COMPANY LIMITED,"95,488,000",17.74%
 1055,CHINA SOUTHERN AIRLINES COMPANY LIMITED,"280,674,470",6.55%
 1057,ZHEJIANG SHIBAO COMPANY LIMITED,"50,376,000",23.23%
 1060,ALIBABA PICTURES GROUP LIMITED,"3,464,048,620",12.90%
 1065,TIANJIN CAPITAL ENVIRONMENTAL PROTECTION GROUP COMPANY LIMITED,"96,078,100",28.25%
 1066,SHANDONG WEIGAO GROUP MEDICAL POLYMER COMPANY LIMITED,"710,464,587",15.70%
 1068,CHINA YURUN FOOD GROUP LIMITED,"18,123,000",0.99%
 1070,TCL ELECTRONICS HOLDINGS LIMITED,"90,013,666",3.77%
 1071,HUADIAN POWER INTERNATIONAL CORPORATION LIMITED,"748,564,683",43.58%
 1072,DONGFANG ELECTRIC CORPORATION LIMITED,"99,879,516",29.37%
 1076,IMPERIAL PACIFIC INTERNATIONAL HOLDINGS LIMITED,"387,060,000",0.27%
 1083,TOWNGAS CHINA COMPANY LIMITED,"17,878,481",0.59%
 1086,GOODBABY INTERNATIONAL HOLDINGS LIMITED,"23,355,000",1.40%
 1088,CHINA SHENHUA ENERGY COMPANY LIMITED,"904,369,726",26.60%
 1089,LEYOU TECHNOLOGIES HOLDINGS LIMITED,"72,230,000",2.34%
 1093,CSPC PHARMACEUTICAL GROUP LIMITED,"479,361,801",6.39%
 1097,I-CABLE COMMUNICATIONS LIMITED,"81,191",0.00%
 1098,ROAD KING INFRASTRUCTURE LIMITED,"12,308,000",1.64%
 1099,SINOPHARM GROUP CO. LTD.,"72,668,709",5.41%
 1108,LUOYANG GLASS COMPANY LIMITED,"88,348,000",35.33%
 1109,CHINA RESOURCES LAND LIMITED,"90,227,763",1.26%
 1111,CHONG HING BANK LIMITED,"1,022,500",0.10%
 1112,HEALTH AND HAPPINESS (H&H) INTERNATIONAL HOLDINGS LIMITED,"40,488,500",6.28%
 1113,CK ASSET HOLDINGS LIMITED,"12,963,543",0.34%
 1114,BRILLIANCE CHINA AUTOMOTIVE HOLDINGS LIMITED,"143,334,461",2.83%
 1115,TIBET WATER RESOURCES LTD.,"161,112,000",6.27%
 1117,CHINA MODERN DAIRY HOLDINGS LTD.,"233,108,000",3.62%
 1119,IDREAMSKY TECHNOLOGY HOLDINGS LIMITED,"39,314,800",3.09%
 1128,"WYNN MACAU, LIMITED","68,677,600",1.31%
 1131,AGRITRADE RESOURCES LIMITED,"583,090,000",9.14%
 1138,"COSCO SHIPPING ENERGY TRANSPORTATION CO., LTD.","186,046,003",14.34%
 1140,OP FINANCIAL LIMITED,"99,308,000",3.42%
 1141,CMBC CAPITAL HOLDINGS LIMITED,"388,790,000",0.81%
 1157,"ZOOMLION HEAVY INDUSTRY SCIENCE AND TECHNOLOGY CO., LTD.","39,720,322",2.86%
 1165,SHUNFENG INTERNATIONAL CLEAN ENERGY LIMITED,"327,546,000",6.57%
 1169,"HAIER ELECTRONICS GROUP CO., LTD.","74,877,382",2.65%
 1171,YANZHOU COAL MINING COMPANY LIMITED,"310,836,235",16.35%
 1176,ZHUGUANG HOLDINGS GROUP COMPANY LIMITED,"202,264,000",2.81%
 1177,SINO BIOPHARMACEUTICAL LIMITED,"1,808,106,923",9.57%
 1186,CHINA RAILWAY CONSTRUCTION CORPORATION LIMITED,"73,583,690",3.54%
 1188,HYBRID KINETIC GROUP LIMITED,"103,122,000",0.50%
 1193,CHINA RESOURCES GAS GROUP LIMITED,"13,292,000",0.57%
 1196,REALORD GROUP HOLDINGS LIMITED,"122,674,000",8.52%
 1199,COSCO SHIPPING PORTS LIMITED,"24,096,995",0.73%
 1205,CITIC RESOURCES HOLDINGS LIMITED,"167,406,100",2.12%
 1208,MMG LIMITED,"295,654,000",3.66%
 1211,BYD COMPANY LIMITED,"70,532,243",7.70%
 1212,LIFESTYLE INTERNATIONAL HOLDINGS LIMITED,"3,781,166",0.25%
 1230,YASHILI INTERNATIONAL HOLDINGS LTD,"78,804,000",1.65%
 1233,TIMES CHINA HOLDINGS LIMITED,"76,247,757",3.92%
 1234,CHINA LILANG LIMITED,"64,134,000",5.35%
 1238,POWERLONG REAL ESTATE HOLDINGS LIMITED,"116,786,000",2.81%
 1250,BEIJING ENTERPRISES CLEAN ENERGY GROUP LIMITED,"1,614,300,000",2.54%
 1253,CHINA GREENLAND BROAD GREENSTATE GROUP COMPANY LIMITED,"6,484,000",0.19%
 1257,CHINA EVERBRIGHT GREENTECH LIMITED,"139,441,000",6.74%
 1268,CHINA MEIDONG AUTO HOLDINGS LIMITED,"55,146,000",4.43%
 1269,CHINA FIRST CAPITAL GROUP LIMITED,"1,350,798,000",26.86%
 1282,GLORY SUN FINANCIAL GROUP LIMITED,"4,196,104,000",13.36%
 1286,IMPRO PRECISION INDUSTRIES LIMITED,"1,830,000",0.09%
 1288,AGRICULTURAL BANK OF CHINA LIMITED,"8,272,445,668",26.90%
 1293,GRAND BAOXIN AUTO GROUP LIMITED,"133,128,009",4.69%
 1299,AIA GROUP LIMITED,"71,930,700",0.58%
 1302,LIFETECH SCIENTIFIC CORPORATION,"650,374,000",15.01%
 1308,SITC INTERNATIONAL HOLDINGS COMPANY LIMITED,"52,390,000",1.94%
 1310,HKBN LTD.,"4,008,500",0.30%
 1313,CHINA RESOURCES CEMENT HOLDINGS LIMITED,"52,753,747",0.74%
 1315,VISION FAME INTERNATIONAL HOLDING LIMITED,"733,014,000",12.21%
 1316,NEXTEER AUTOMOTIVE GROUP LIMITED,"40,842,000",1.62%
 1317,CHINA MAPLE LEAF EDUCATIONAL SYSTEMS LIMITED,"378,211,230",12.62%
 1330,"DYNAGREEN ENVIRONMENTAL PROTECTION GROUP CO., LTD","132,918,000",32.86%
 1333,CHINA ZHONGWANG HOLDINGS LIMITED,"331,571,600",6.07%
 1336,NEW CHINA LIFE INSURANCE COMPANY LTD.,"334,866,981",32.37%
 1339,"PEOPLE'S INSURANCE COMPANY (GROUP) OF CHINA LIMITED, THE","1,638,313,987",18.76%
 1347,HUA HONG SEMICONDUCTOR LIMITED,"74,714,065",5.76%
 1357,"MEITU, INC.","315,489,600",7.31%
 1359,"CHINA CINDA ASSET MANAGEMENT CO., LTD.","2,170,483,457",15.99%
 1361,361 DEGREES INTERNATIONAL LIMITED,"29,008,000",1.40%
 1363,CT ENVIRONMENTAL GROUP LIMITED,"502,874,000",7.95%
 1368,XTEP INTERNATIONAL HOLDINGS LIMITED,"86,112,033",3.41%
 1375,"CENTRAL CHINA SECURITIES CO., LTD.","268,933,000",22.48%
 1378,CHINA HONGQIAO GROUP LIMITED,"522,506,910",6.08%
 1381,CANVEST ENVIRONMENTAL PROTECTION GROUP COMPANY LIMITED,"27,542,000",1.12%
 1382,PACIFIC TEXTILES HOLDINGS LIMITED,"24,156,000",1.70%
 1383,SUNCITY GROUP HOLDINGS LIMITED,"28,870,000",0.43%
 1387,CHINA DILI GROUP,"151,813,270",2.65%
 1398,INDUSTRIAL AND COMMERCIAL BANK OF CHINA LIMITED,"23,866,913,812",27.49%
 1432,CHINA SHENGMU ORGANIC MILK LIMITED,"103,601,000",1.23%
 1448,FU SHOU YUAN INTERNATIONAL GROUP LIMITED,"260,149,677",11.35%
 1458,ZHOU HEI YA INTERNATIONAL HOLDINGS COMPANY LIMITED,"357,215,500",14.98%
 1478,Q TECHNOLOGY (GROUP) COMPANY LIMITED,"39,928,000",3.40%
 1508,CHINA REINSURANCE (GROUP) CORPORATION,"785,167,000",11.74%
 1513,LIVZON PHARMACEUTICAL GROUP INC.,"39,448,018",12.33%
 1515,CHINA RESOURCES MEDICAL HOLDINGS COMPANY LIMITED,"69,969,600",5.38%
 1521,FRONTAGE HOLDINGS CORPORATION,"211,698,000",10.41%
 1528,RED STAR MACALLINE GROUP CORPORATION LTD.,"116,817,322",17.32%
 1530,3SBIO INC.,"256,815,774",10.09%
 1533,"LANZHOU ZHUANGYUAN PASTURE CO., LTD.","7,747,500",22.05%
 1548,GENSCRIPT BIOTECH CORPORATION,"208,278,000",10.84%
 1551,"GUANGZHOU RURAL COMMERCIAL BANK CO., LTD","2,414,000",0.13%
 1558,"YICHANG HEC CHANGJIANG PHARMACEUTICAL CO., LTD.","153,339,400",35.86%
 1569,MINSHENG EDUCATION GROUP COMPANY LIMITED,"207,715,025",4.92%
 1573,SOUTHERN ENERGY HOLDINGS GROUP LIMITED,"126,862,000",17.66%
 1578,"BANK OF TIANJIN CO., LTD.","34,000",0.00%
 1579,YIHAI INTERNATIONAL HOLDING LTD.,"91,139,392",8.69%
 1583,QINQIN FOODSTUFFS GROUP (CAYMAN) COMPANY LIMITED,"24,400",0.00%
 1585,YADEA GROUP HOLDINGS LTD.,"278,616,000",9.30%
 1589,"CHINA LOGISTICS PROPERTY HOLDINGS CO., LTD","4,325,000",0.13%
 1600,CHINA TIAN LUN GAS HOLDINGS LIMITED,"14,796,000",1.47%
 1606,"CHINA DEVELOPMENT BANK FINANCIAL LEASING CO., LTD.","316,000",0.01%
 1608,VPOWER GROUP INTERNATIONAL HOLDINGS LIMITED,"2,127,000",0.08%
 1610,COFCO MEAT HOLDINGS LIMITED,"587,980,000",15.06%
 1618,METALLURGICAL CORPORATION OF CHINA LTD.,"437,461,000",15.22%
 1622,REDCO PROPERTIES GROUP LIMITED,"220,306,000",6.20%
 1628,YUZHOU GROUP HOLDINGS COMPANY LIMITED,"72,692,986",1.30%
 1635,"SHANGHAI DAZHONG PUBLIC UTILITIES (GROUP) CO., LTD.","74,974,000",14.03%
 1636,CHINA METAL RESOURCES UTILIZATION LIMITED,"34,624,000",1.31%
 1638,KAISA GROUP HOLDINGS LTD.,"467,669,619",7.64%
 1658,"POSTAL SAVINGS BANK OF CHINA CO., LTD.","230,087,831",1.15%
 1661,WISDOM SPORTS GROUP,"6,367,000",0.39%
 1666,TONG REN TANG TECHNOLOGIES CO LTD,"174,828,200",27.80%
 1668,CHINA SOUTH CITY HOLDINGS LIMITED,"776,219,543",9.59%
 1680,MACAU LEGEND DEVELOPMENT LIMITED,"126,786,000",2.04%
 1681,CONSUN PHARMACEUTICAL GROUP LIMITED,"25,083,000",3.00%
 1685,BOER POWER HOLDINGS LIMITED,"2,196,000",0.28%
 1686,SUNEVISION HOLDINGS LIMITED,"2,827,000",0.12%
 1691,JS GLOBAL LIFESTYLE COMPANY LIMITED,"2,610,000",0.07%
 1717,AUSNUTRIA DAIRY CORPORATION LTD,"96,213,000",5.95%
 1728,CHINA ZHENGTONG AUTO SERVICES HOLDINGS LIMITED,"417,506,500",15.46%
 1761,BABYTREE GROUP,"5,996,000",0.36%
 1765,"HOPE EDUCATION GROUP CO., LTD.","831,274,580",12.29%
 1766,CRRC CORPORATION LIMITED,"344,938,120",7.88%
 1772,"GANFENG LITHIUM CO., LTD.","113,475,855",56.68%
 1776,"GF SECURITIES CO., LTD.","513,602,100",30.18%
 1777,"FANTASIA HOLDINGS GROUP CO., LIMITED","406,045,000",7.03%
 1778,"COLOUR LIFE SERVICES GROUP CO., LIMITED","72,320,676",4.97%
 1787,"SHANDONG GOLD MINING CO., LTD.","159,827,611",31.98%
 1788,GUOTAI JUNAN INTERNATIONAL HOLDINGS LIMITED,"235,877,110",2.44%
 1789,AK MEDICAL HOLDINGS LIMITED,"98,521,955",8.84%
 1797,KOOLEARN TECHNOLOGY HOLDING LIMITED,"141,835,118",15.09%
 1800,CHINA COMMUNICATIONS CONSTRUCTION COMPANY LIMITED,"451,453,000",10.19%
 1806,HUIFU PAYMENT LIMITED,"17,524,400",1.34%
 1810,XIAOMI CORPORATION,"2,139,175,417",8.86%
 1811,"CGN NEW ENERGY HOLDINGS CO., LTD.","29,468,000",0.68%
 1812,SHANDONG CHENMING PAPER HOLDINGS LIMITED,"105,227,700",19.91%
 1813,KWG GROUP HOLDINGS LIMITED,"168,874,433",5.30%
 1816,"CGN POWER CO., LTD","2,421,607,000",21.68%
 1818,ZHAOJIN MINING INDUSTRY COMPANY LIMITED,"147,431,372",5.64%
 1829,CHINA MACHINERY ENGINEERING CORPORATION,"131,000",0.01%
 1833,PING AN HEALTHCARE AND TECHNOLOGY COMPANY LIMITED,"104,236,700",9.76%
 1836,STELLA INTERNATIONAL HOLDINGS LIMITED,"497,000",0.06%
 1848,CHINA AIRCRAFT LEASING GROUP HOLDINGS LIMITED,"11,190,549",1.58%
 1860,MOBVISTA INC.,"19,190,000",1.25%
 1873,VIVA BIOTECH HOLDINGS,"394,391,500",21.01%
 1876,BUDWEISER BREWING COMPANY APAC LIMITED,"20,319,400",0.14%
 1882,HAITIAN INTERNATIONAL HOLDINGS LIMITED,"33,404,000",2.08%
 1883,CITIC TELECOM INTERNATIONAL HOLDINGS LIMITED,"25,184,000",0.68%
 1886,CHINA HUIYUAN JUICE GROUP LIMITED,"125,355,500",4.69%
 1888,KINGBOARD LAMINATES HOLDINGS LIMITED,"8,550,595",0.27%
 1890,CHINA KEPEI EDUCATION GROUP LIMITED,"129,915,275",6.49%
 1896,MAOYAN ENTERTAINMENT,"34,548,800",3.03%
 1898,CHINA COAL ENERGY COMPANY LIMITED,"410,248,000",9.98%
 1905,"HAITONG UNITRUST INTERNATIONAL LEASING CO., LTD.","39,500,000",0.68%
 1907,CHINA RISUN GROUP LIMITED,"22,452,000",0.54%
 1908,C&D INTERNATIONAL INVESTMENT GROUP LIMITED,"85,115,000",7.23%
 1911,CHINA RENAISSANCE HOLDINGS LIMITED,"12,287,000",2.29%
 1916,"JIANGXI BANK CO., LTD.","10,789,000",0.80%
 1918,SUNAC CHINA HOLDINGS LIMITED,"790,712,810",16.96%
 1919,"COSCO SHIPPING HOLDINGS CO., LTD.","399,140,500",15.46%
 1928,SANDS CHINA LTD.,"57,403,293",0.70%
 1929,CHOW TAI FOOK JEWELLERY GROUP LIMITED,"43,565,800",0.42%
 1951,JINXIN FERTILITY GROUP LIMITED,"363,135,600",14.94%
 1958,BAIC MOTOR CORPORATION LIMITED,"80,258,000",3.17%
 1963,"BANK OF CHONGQING CO., LTD.","117,011,500",7.41%
 1966,CHINA SCE GROUP HOLDINGS LIMITED,"189,941,054",4.52%
 1970,"IMAX CHINA HOLDING, INC.","7,518,800",2.16%
 1972,SWIRE PROPERTIES LIMITED,"2,844,200",0.04%
 1980,TIAN GE INTERACTIVE HOLDINGS LIMITED,"26,267,000",2.05%
 1988,"CHINA MINSHENG BANKING CORP., LTD.","979,500,869",11.76%
 1992,FOSUN TOURISM GROUP,"899,400",0.07%
 1996,REDSUN PROPERTIES GROUP LIMITED,"69,503,000",2.09%
 1997,WHARF REAL ESTATE INVESTMENT COMPANY LIMITED,"4,515,425",0.14%
 1999,MAN WAH HOLDINGS LIMITED,"705,512,315",18.55%
 2001,CHINA NEW HIGHER EDUCATION GROUP LIMITED,"134,299,621",8.71%
 2003,VCREDIT HOLDINGS LIMITED,"2,141,800",0.43%
 2005,SSY GROUP LIMITED,"260,416,059",8.60%
 2007,COUNTRY GARDEN HOLDINGS COMPANY LIMITED,"256,091,541",1.16%
 2008,PHOENIX MEDIA INVESTMENT (HOLDINGS) LIMITED,"207,826,000",4.16%
 2009,BBMG CORPORATION,"282,392,500",12.06%
 2013,WEIMOB INC.,"472,729,476",
 2016,"CHINA ZHESHANG BANK CO., LTD.","9,450,000",0.20%
 2018,AAC TECHNOLOGIES HOLDINGS INC.,"92,858,405",7.67%
 2019,DEXIN CHINA HOLDINGS COMPANY LIMITED,"28,709,000",1.06%
 2020,ANTA SPORTS PRODUCTS LIMITED,"205,262,522",7.58%
 2038,FIH MOBILE LIMITED,"107,462,000",1.30%
 2039,"CHINA INTERNATIONAL MARINE CONTAINERS (GROUP) CO., LTD.","209,981,740",10.19%
 2048,E-HOUSE (CHINA) ENTERPRISE HOLDINGS LIMITED,"3,159,000",0.22%
 2051,51 CREDIT CARD INC.,"48,049,500",4.03%
 2066,"SHENGJING BANK CO., LTD.","206,000",0.00%
 2068,CHINA ALUMINUM INTERNATIONAL ENGINEERING CORPORATION LIMITED,"11,019,000",2.75%
 2098,ZALL SMART COMMERCE GROUP LTD.,"31,698,000",0.26%
 2099,CHINA GOLD INTERNATIONAL RESOURCES CORP. LTD.,"14,769,100",3.72%
 2103,SINIC HOLDINGS (GROUP) COMPANY LIMITED,"1,311,000",0.03%
 2111,BEST PACIFIC INTERNATIONAL HOLDINGS LIMITED,"1,430,000",0.13%
 2128,CHINA LESSO GROUP HOLDINGS LIMITED,"51,403,000",1.65%
 2136,LIFESTYLE CHINA GROUP LIMITED,"282,000",0.01%
 2186,LUYE PHARMA GROUP LTD.,"438,834,500",13.50%
 2196,"SHANGHAI FOSUN PHARMACEUTICAL (GROUP) CO., LTD.","198,763,898",36.00%
 2199,REGINA MIRACLE INTERNATIONAL (HOLDINGS) LIMITED,"2,914,000",0.23%
 2202,"CHINA VANKE CO., LTD.","220,644,247",11.65%
 2208,"XINJIANG GOLDWIND SCIENCE & TECHNOLOGY CO., LTD.","104,844,896",13.55%
 2232,CRYSTAL INTERNATIONAL GROUP LIMITED,"3,495,000",0.12%
 2233,WEST CHINA CEMENT LIMITED,"480,760,000",8.83%
 2238,"GUANGZHOU AUTOMOBILE GROUP CO., LTD.","1,205,714,491",38.90%
 2255,HAICHANG OCEAN PARK HOLDINGS LTD.,"337,889,000",8.44%
 2269,WUXI BIOLOGICS (CAYMAN) INC.,"105,307,118",7.75%
 2280,HC GROUP INC.,"107,230,500",8.18%
 2282,MGM CHINA HOLDINGS LIMITED,"28,302,696",0.74%
 2298,COSMO LADY (CHINA) HOLDINGS COMPANY LIMITED,"11,406,000",0.49%
 2313,SHENZHOU INTERNATIONAL GROUP HOLDINGS LIMITED,"51,254,460",3.40%
 2314,LEE & MAN PAPER MANUFACTURING LIMITED,"25,931,825",0.59%
 2318,"PING AN INSURANCE (GROUP) COMPANY OF CHINA, LTD.","109,164,845",1.45%
 2319,CHINA MENGNIU DAIRY COMPANY LIMITED,"73,743,994",1.86%
 2326,NEW PROVENANCE EVERLASTING HOLDINGS LIMITED,"55,940,000",0.25%
 2328,PICC PROPERTY AND CASUALTY COMPANY LIMITED,"515,253,341",7.46%
 2329,GUORUI PROPERTIES LIMITED,"153,244,000",3.44%
 2331,LI NING COMPANY LIMITED,"122,177,516",4.93%
 2333,GREAT WALL MOTOR COMPANY LIMITED,"1,040,900,374",33.57%
 2338,"WEICHAI POWER CO., LTD.","68,706,000",3.53%
 2343,PACIFIC BASIN SHIPPING LIMITED,"9,933,000",0.20%
 2356,DAH SING BANKING GROUP LIMITED,"200,000",0.01%
 2357,AVICHINA INDUSTRY & TECHNOLOGY COMPANY LIMITED,"414,981,000",6.67%
 2359,"WUXI APPTEC CO., LTD.","21,257,958",6.92%
 2362,JINCHUAN GROUP INTERNATIONAL RESOURCES CO. LTD.,"85,712,000",0.67%
 2363,TONGDA HONG TAI HOLDINGS LIMITED,"350,962",0.17%
 2369,COOLPAD GROUP LIMITED,"42,584,000",0.70%
 2380,CHINA POWER INTERNATIONAL DEVELOPMENT LIMITED,"628,040,438",6.39%
 2382,SUNNY OPTICAL TECHNOLOGY (GROUP) COMPANY LIMITED,"98,745,811",9.00%
 2386,"SINOPEC ENGINEERING (GROUP) CO., LTD.","35,592,500",2.43%
 2388,BOC HONG KONG (HOLDINGS) LIMITED,"13,634,945",0.12%
 2400,XD INC.,"53,892,361",11.86%
 2588,BOC AVIATION LIMITED,"9,690,500",1.38%
 2600,ALUMINUM CORPORATION OF CHINA LIMITED,"246,912,000",6.26%
 2601,CHINA PACIFIC INSURANCE (GROUP) CO. LTD.,"699,434,390",25.19%
 2607,"SHANGHAI PHARMACEUTICALS HOLDING CO., LTD.","98,306,066",10.68%
 2611,"GUOTAI JUNAN SECURITIES CO., LTD.","99,864,000",7.17%
 2628,CHINA LIFE INSURANCE COMPANY LIMITED,"276,679,706",3.71%
 2662,CAMSING INTERNATIONAL HOLDING LIMITED,"132,096,000",12.26%
 2666,GENERTEC UNIVERSAL MEDICAL GROUP COMPANY LIMITED,"328,945,000",19.16%
 2669,CHINA OVERSEAS PROPERTY HOLDINGS LIMITED,"299,528,316",9.11%
 2678,TEXHONG TEXTILE GROUP LIMITED,"31,243,500",3.41%
 2688,ENN ENERGY HOLDINGS LIMITED,"14,193,161",1.25%
 2689,NINE DRAGONS PAPER (HOLDINGS) LIMITED,"64,848,000",1.38%
 2727,SHANGHAI ELECTRIC GROUP COMPANY LIMITED,"819,451,000",27.55%
 2768,JIAYUAN INTERNATIONAL GROUP LIMITED,"348,087,183",8.57%
 2772,ZHONGLIANG HOLDINGS GROUP COMPANY LIMITED,"33,334,000",0.92%
 2777,"GUANGZHOU R&F PROPERTIES CO., LTD.","96,875,023",7.51%
 2799,"CHINA HUARONG ASSET MANAGEMENT CO., LTD.","2,266,478,000",9.04%
 2858,YIXIN GROUP LIMITED,"46,791,500",0.73%
 2866,"COSCO SHIPPING DEVELOPMENT CO., LTD.","572,419,000",15.56%
 2869,GREENTOWN SERVICE GROUP CO. LTD.,"324,042,899",10.06%
 2877,CHINA SHINEWAY PHARMACEUTICAL GROUP LIMITED,"24,789,000",2.98%
 2880,DALIAN PORT (PDA) COMPANY LIMITED,"897,491,400",17.39%
 2883,CHINA OILFIELD SERVICES LIMITED,"135,829,627",7.49%
 2888,STANDARD CHARTERED PLC,"397,120",0.01%
 2899,"ZIJIN MINING GROUP CO., LTD.","1,489,656,000",25.96%
 3301,RONSHINE CHINA HOLDINGS LIMITED,"133,483,000",7.83%
 3306,JNBY DESIGN LIMITED,"19,582,500",3.77%
 3308,GOLDEN EAGLE RETAIL GROUP LIMITED,"86,182,000",5.15%
 3309,C-MER EYE CARE HOLDINGS LIMITED,"67,472,000",5.89%
 3311,CHINA STATE CONSTRUCTION INTERNATIONAL HOLDINGS LIMITED,"29,566,192",0.57%
 3319,"A-LIVING SERVICES CO., LTD.","9,936,000",0.74%
 3320,CHINA RESOURCES PHARMACEUTICAL GROUP LIMITED,"165,871,000",2.63%
 3323,CHINA NATIONAL BUILDING MATERIAL COMPANY LIMITED,"1,026,651,660",26.53%
 3328,"BANK OF COMMUNICATIONS CO., LTD.","745,612,251",2.12%
 3329,BOCOM INTERNATIONAL HOLDINGS COMPANY LIMITED,"15,665,000",0.57%
 3331,VINDA INTERNATIONAL HOLDINGS LIMITED,"10,435,000",0.86%
 3333,CHINA EVERGRANDE GROUP,"132,675,355",1.01%
 3339,LONKING HOLDINGS LIMITED,"23,077,000",0.53%
 3360,FAR EAST HORIZON LIMITED,"118,709,000",2.99%
 3368,PARKSON RETAIL GROUP LIMITED,"5,669,500",0.21%
 3369,"QINHUANGDAO PORT CO., LTD.","78,167,000",9.41%
 3377,SINO-OCEAN GROUP HOLDING LIMITED,"149,650,310",1.95%
 3380,LOGAN GROUP COMPANY LIMITED,"159,633,871",2.88%
 3382,TIANJIN PORT DEVELOPMENT HOLDINGS LIMITED,"207,578,000",3.37%
 3383,AGILE GROUP HOLDINGS LIMITED,"41,613,548",1.05%
 3389,HENGDELI HOLDINGS LIMITED,"876,000",0.01%
 3393,WASION HOLDINGS LIMITED,"1,326,000",0.13%
 3396,LEGEND HOLDINGS CORPORATION,"75,105,000",5.89%
 3606,"FUYAO GLASS INDUSTRY GROUP CO., LTD","79,781,050",15.77%
 3613,BEIJING TONG REN TANG CHINESE MEDICINE COMPANY LIMITED,"81,433,000",9.72%
 3618,"CHONGQING RURAL COMMERCIAL BANK CO., LTD.","661,397,000",26.31%
 3633,ZHONGYU GAS HOLDINGS LIMITED,"18,223,000",0.68%
 3669,CHINA YONGDA AUTOMOBILES SERVICES HOLDINGS LIMITED,"119,458,000",
 3690,MEITUAN DIANPING,"306,045,420",5.19%
 3692,HANSOH PHARMACEUTICAL GROUP COMPANY LIMITED,"50,623,000",0.85%
 3698,HUISHANG BANK CORPORATION LIMITED,"4,766,400",0.12%
 3759,"PHARMARON BEIJING CO., LTD.","20,246,600",15.10%
 3788,CHINA HANKING HOLDINGS LIMITED,"16,380,000",0.90%
 3799,DALI FOODS GROUP COMPANY LIMITED,"395,808,000",2.88%
 3800,GCL-POLY ENERGY HOLDINGS LIMITED,"2,392,747,900",11.31%
 3808,SINOTRUK (HONG KONG) LIMITED,"135,245,866",4.88%
 3813,POU SHENG INTERNATIONAL (HOLDINGS) LIMITED,"5,125,000",0.09%
 3818,"CHINA DONGXIANG (GROUP) CO., LTD.","465,421,000",7.90%
 3836,CHINA HARMONY AUTO HOLDING LIMITED,"61,977,000",3.93%
 3866,"BANK OF QINGDAO CO., LTD.","1,099,000",0.06%
 3868,XINYI ENERGY HOLDINGS LIMITED,"51,606,000",0.76%
 3877,CSSC (HONG KONG) SHIPPING COMPANY LIMITED,"4,442,000",0.07%
 3883,CHINA AOYUAN GROUP LIMITED,"160,381,000",5.92%
 3886,TOWN HEALTH INTERNATIONAL MEDICAL GROUP LIMITED,"145,736,000",1.92%
 3888,KINGSOFT CORPORATION LIMITED,"382,798,032",27.88%
 3898,"ZHUZHOU CRRC TIMES ELECTRIC CO., LTD.","45,108,306",8.23%
 3899,CIMC ENRIC HOLDINGS LIMITED,"138,792,000",6.89%
 3900,GREENTOWN CHINA HOLDINGS LIMITED,"344,767,000",13.82%
 3908,CHINA INTERNATIONAL CAPITAL CORPORATION LIMITED,"318,422,081",16.72%
 3933,"UNITED LABORATORIES INTERNATIONAL HOLDINGS LIMITED, THE","195,157,948",10.70%
 3958,DFZQ,"378,765,985",36.87%
 3968,"CHINA MERCHANTS BANK CO., LTD.","178,787,403",3.88%
 3969,CHINA RAILWAY SIGNAL & COMMUNICATION CORPORATION LIMITED,"129,389,000",6.56%
 3988,BANK OF CHINA LIMITED,"8,107,633,134",9.68%
 3990,MIDEA REAL ESTATE HOLDING LIMITED,"54,854,600",4.44%
 3993,"CHINA MOLYBDENUM CO., LTD.","393,642,500",9.99%
 3996,CHINA ENERGY ENGINEERING CORPORATION LIMITED,"10,860,000",0.11%
 3998,BOSIDENG INTERNATIONAL HOLDINGS LIMITED,"704,944,000",6.55%
 6030,CITIC SECURITIES COMPANY LIMITED,"264,815,206",11.61%
 6049,"POLY PROPERTY SERVICES CO., LTD.","53,117,607",34.64%
 6055,CHINA TOBACCO INTERNATIONAL (HK) COMPANY LIMITED,"29,815,000",4.31%
 6060,"ZHONGAN ONLINE P & C INSURANCE CO., LTD.","28,035,300",5.95%
 6066,"CSC FINANCIAL CO., LTD.","320,252,000",25.39%
 6068,WISDOM EDUCATION INTERNATIONAL HOLDINGS COMPANY LIMITED,"108,862,000",5.31%
 6069,SHENG YE CAPITAL LIMITED,"14,966,000",1.69%
 6088,FIT HON TENG LIMITED,"374,075,000",5.43%
 6098,COUNTRY GARDEN SERVICES HOLDINGS COMPANY LIMITED,"222,689,318",8.06%
 6099,"CHINA MERCHANTS SECURITIES CO., LTD.","167,678,000",17.10%
 6100,TONGDAO LIEPIN GROUP,"85,400",0.01%
 6110,TOPSPORTS INTERNATIONAL HOLDINGS LIMITED,"18,245,000",0.29%
 6116,"SHANGHAI LA CHAPELLE FASHION CO., LTD.","71,244,400",33.16%
 6158,ZHENRO PROPERTIES GROUP LIMITED,"67,574,000",1.53%
 6166,CHINA VAST INDUSTRIAL URBAN DEVELOPMENT COMPANY LIMITED,"53,334,000",3.22%
 6169,CHINA YUHUA EDUCATION CORPORATION LIMITED,"556,233,614",16.65%
 6178,EVERBRIGHT SECURITIES COMPANY LIMITED,"83,643,400",11.87%
 6186,CHINA FEIHE LIMITED,"781,707,380",8.74%
 6196,"BANK OF ZHENGZHOU CO., LTD.","263,223,100",15.76%
 6198,"QINGDAO PORT INTERNATIONAL CO., LTD.","8,736,000",0.78%
 6806,"SHENWAN HONGYUAN GROUP CO., LTD.","169,329,600",6.76%
 6808,SUN ART RETAIL GROUP LIMITED,"65,116,023",0.67%
 6818,CHINA EVERBRIGHT BANK COMPANY LIMITED,"811,674,992",6.39%
 6828,BEIJING GAS BLUE SKY HOLDINGS LIMITED,"240,760,000",1.85%
 6837,"HAITONG SECURITIES CO., LTD.","785,820,200",23.04%
 6862,HAIDILAO INTERNATIONAL HOLDING LTD.,"164,346,029",3.09%
 6865,"FLAT GLASS GROUP CO., LTD.","174,167,000",38.70%
 6869,YANGTZE OPTICAL FIBRE AND CABLE JOINT STOCK LIMITED COMPANY,"17,517,500",4.97%
 6881,"CHINA GALAXY SECURITIES CO., LTD.","856,589,882",23.19%
 6886,"HUATAI SECURITIES CO., LTD.","425,067,185",24.72%
 6969,SMOORE INTERNATIONAL HOLDINGS LIMITED,"129,404,276",2.21%
 8328,XINYI AUTOMOBILE GLASS HONG KONG ENTERPRISES LIMITED,"109,750",0.01%
 9928,TIMES NEIGHBORHOOD HOLDINGS LIMITED,"7,313,170",0.74%
 9989,"SHENZHEN HEPALINK PHARMACEUTICAL GROUP CO., LTD.","9,128,500",4.14%
