Stock Code,Stock Name,Shareholding in CCASS,Percentage of the total number of Issued Shares
    1,CK HUTCHISON HOLDINGS LIMITED,"33,124,471",0.85%
    2,CLP HOLDINGS LIMITED,"4,477,952",0.17%
    3,"HONG KONG AND CHINA GAS COMPANY LIMITED, THE","23,762,196",0.13%
    4,"WHARF (HOLDINGS) LIMITED, THE","4,428,979",0.14%
    5,HSBC HOLDINGS PLC,"1,691,543,913",8.17%
    6,POWER ASSETS HOLDINGS LIMITED,"4,264,422",0.19%
    8,PCCW LIMITED,"10,693,776",0.13%
   10,HANG LUNG GROUP LIMITED,"11,084,000",0.81%
   11,HANG SENG BANK LTD,"3,217,488",0.16%
   12,HENDERSON LAND DEVELOPMENT CO LTD,"5,660,473",0.11%
   14,HYSAN DEVELOPMENT COMPANY LIMITED,"1,420,989",0.12%
   16,SUN HUNG KAI PROPERTIES LIMITED,"9,551,404",0.32%
   17,NEW WORLD DEVELOPMENT CO LTD,"32,747,528",0.31%
   19,SWIRE PACIFIC LTD 'A',"1,348,000",0.14%
   20,WHEELOCK AND COMPANY LIMITED,"466,467",0.01%
   23,BANK OF EAST ASIA LTD,"473,593",0.01%
   27,GALAXY ENTERTAINMENT GROUP LIMITED,"46,677,167",1.06%
   35,FAR EAST CONSORTIUM INTERNATIONAL LTD,"100,013",0.00%
   38,FIRST TRACTOR COMPANY LIMITED,"105,788,100",26.99%
   41,GREAT EAGLE HOLDINGS LIMITED,"1,428,511",0.19%
   42,NORTHEAST ELECTRIC DEVELOPMENT COMPANY LIMITED,"16,946,000",6.56%
   43,C.P. POKPHAND CO LTD,"854,000",0.00%
   45,"HONGKONG AND SHANGHAI HOTELS LTD,THE","46,013",0.00%
   59,SKYFAME REALTY (HOLDINGS) LIMITED,"43,702,000",0.55%
   66,MTR CORPORATION LIMITED,"8,644,423",0.13%
   69,SHANGRI-LA ASIA LIMITED,"14,354,000",0.39%
   78,REGAL HOTELS INTERNATIONAL HOLDINGS LIMITED,"16,000",0.00%
   81,CHINA OVERSEAS GRAND OCEANS GROUP LIMITED,"290,629,820",8.48%
   83,SINO LAND CO.LTD.,"10,789,929",0.15%
   86,SUN HUNG KAI & CO.LTD,"10,865,000",0.53%
   87,SWIRE PACIFIC LTD 'B',"14,977,500",0.50%
   95,LVGEM (CHINA) REAL ESTATE INVESTMENT COMPANY LIMITED,"149,790,000",2.95%
  101,HANG LUNG PROPERTIES LIMITED,"5,907,949",0.12%
  107,SICHUAN EXPRESSWAY COMPANY LIMITED,"215,544,000",24.07%
  109,GOOD RESOURCES HOLDINGS LIMITED,"46,090,000",0.64%
  116,CHOW SANG SANG HOLDINGS INTERNATIONAL LIMITED,"11,609,000",1.71%
  119,"POLY PROPERTY GROUP CO., LIMITED","342,040,748",9.34%
  120,COSMOPOLITAN INTERNATIONAL HOLDINGS LTD,"216,000",0.00%
  123,YUEXIU PROPERTY COMPANY LIMITED,"258,330,351",1.66%
  127,CHINESE ESTATES HOLDINGS LIMITED,"4,620,000",0.23%
  135,KUNLUN ENERGY COMPANY LIMITED,"199,823,000",2.29%
  136,HENGTEN NETWORKS GROUP LIMITED,"5,033,484,000",6.73%
  142,FIRST PACIFIC CO. LTD.,"31,360,000",0.71%
  144,CHINA MERCHANTS PORT HOLDINGS COMPANY LIMITED,"103,368,637",2.98%
  148,KINGBOARD HOLDINGS LIMITED,"17,727,136",1.60%
  151,WANT WANT CHINA HOLDINGS LIMITED,"23,997,871",0.18%
  152,SHENZHEN INTERNATIONAL HOLDINGS LIMITED,"55,665,457",2.56%
  163,EMPEROR INTERNATIONAL HOLDINGS LIMITED,"11,400,000",0.30%
  165,CHINA EVERBRIGHT LIMITED,"155,917,955",9.24%
  168,TSINGTAO BREWERY COMPANY LIMITED,"50,994,000",7.78%
  173,K. WAH INTERNATIONAL HOLDINGS LIMITED,"41,007,965",1.30%
  175,GEELY AUTOMOBILE HOLDINGS LIMITED,"771,443,330",8.38%
  177,JIANGSU EXPRESSWAY COMPANY LIMITED,"120,070,818",9.81%
  178,SA SA INTERNATIONAL HOLDINGS LIMITED,"14,345,268",0.45%
  179,JOHNSON ELECTRIC HOLDINGS LIMITED,"645,000",0.06%
  187,BEIJING JINGCHENG MACHINERY ELECTRIC COMPANY LIMITED,"28,794,000",28.78%
  189,DONGYUE GROUP LIMITED,"122,631,358",5.80%
  198,SMI HOLDINGS GROUP LIMITED,"70,340,800",2.59%
  200,MELCO INTERNATIONAL DEVELOPMENT LIMITED,"9,855,000",0.65%
  207,JOY CITY PROPERTY LIMITED,"5,564,000",0.03%
  215,HUTCHISON TELECOMMUNICATIONS HONG KONG HOLDINGS LIMITED,"7,800,000",0.16%
  220,UNI-PRESIDENT CHINA HOLDINGS LTD.,"5,314,000",0.11%
  241,ALIBABA HEALTH INFORMATION TECHNOLOGY LIMITED,"298,793,248",2.46%
  242,SHUN TAK HOLDINGS LIMITED,"83,874,000",2.77%
  245,CHINA MINSHENG FINANCIAL HOLDING CORPORATION LIMITED,"31,600,000",0.08%
  256,CITYCHAMP WATCH & JEWELLERY GROUP LIMITED,"321,104,000",7.37%
  257,CHINA EVERBRIGHT INTERNATIONAL LIMITED,"387,816,503",6.30%
  267,CITIC LIMITED,"103,206,916",0.34%
  268,KINGDEE INTERNATIONAL SOFTWARE GROUP COMPANY LIMITED,"331,447,580",9.96%
  270,GUANGDONG INVESTMENT LIMITED,"37,989,333",0.57%
  272,SHUI ON LAND LIMITED,"581,288,846",7.20%
  279,FREEMAN FINTECH CORPORATION LIMITED,"612,286,000",32.77%
  285,BYD ELECTRONIC (INTERNATIONAL) COMPANY LIMITED,"116,025,700",5.14%
  288,WH GROUP LIMITED,"1,218,916,998",8.27%
  291,CHINA RESOURCES BEER (HOLDINGS) COMPANY LIMITED,"157,906,647",4.86%
  293,CATHAY PACIFIC AIRWAYS LTD,"3,485,000",0.08%
  295,KONG SUN HOLDINGS LIMITED,"59,100,000",0.39%
  297,SINOFERT HOLDINGS LIMITED,"368,862,000",5.24%
  302,CMGE TECHNOLOGY GROUP LIMITED,"14,078,000",0.60%
  303,VTECH HOLDINGS LIMITED,"671,149",0.25%
  308,CHINA TRAVEL INTERNATIONAL INVESTMENT HONG KONG LIMITED,"196,646,439",3.54%
  315,SMARTONE TELECOMMUNICATIONS HOLDINGS LIMITED,"797,034",0.06%
  316,ORIENT OVERSEAS (INTERNATIONAL) LIMITED,"10,500",0.00%
  317,CSSC OFFSHORE & MARINE ENGINEERING (GROUP) COMPANY LIMITED,"17,008,200",2.87%
  321,TEXWINCA HOLDINGS LIMITED,"1,040,000",0.07%
  322,TINGYI (CAYMAN ISLANDS) HOLDING CORP.,"19,486,708",0.34%
  323,MAANSHAN IRON & STEEL COMPANY LIMITED,"25,014,000",1.43%
  327,PAX GLOBAL TECHNOLOGY LIMITED,"7,758,000",0.71%
  330,ESPRIT HOLDINGS LIMITED,"16,022,100",0.84%
  336,HUABAO INTERNATIONAL HOLDINGS LIMITED,"285,632,100",9.18%
  337,GREENLAND HONG KONG HOLDINGS LIMITED,"136,691,000",4.89%
  338,SINOPEC SHANGHAI PETROCHEMICAL COMPANY LIMITED,"241,640,375",6.90%
  341,CAFE DE CORAL HOLDINGS LTD,"2,496,000",0.42%
  345,VITASOY INTERNATIONAL HOLDINGS LTD,"10,300,011",0.96%
  347,ANGANG STEEL COMPANY LIMITED,"26,898,800",1.90%
  354,CHINASOFT INTERNATIONAL LIMITED,"416,774,460",15.87%
  358,JIANGXI COPPER COMPANY LIMITED,"44,264,219",3.18%
  363,SHANGHAI INDUSTRIAL HOLDINGS LIMITED,"20,162,100",1.85%
  371,BEIJING ENTERPRISES WATER GROUP LIMITED,"286,412,010",2.85%
  378,FDG KINETIC LIMITED,"184,818,000",2.73%
  384,CHINA GAS HOLDINGS LIMITED,"24,535,443",0.46%
  386,CHINA PETROLEUM & CHEMICAL CORPORATION,"1,386,568,795",5.43%
  388,HONG KONG EXCHANGES AND CLEARING LIMITED,"31,831,488",2.51%
  390,CHINA RAILWAY GROUP LIMITED,"271,928,030",6.45%
  392,BEIJING ENTERPRISES HOLDINGS LIMITED,"94,921,621",7.51%
  400,COGOBUY GROUP,"62,741,000",4.38%
  410,SOHO CHINA LIMITED,"307,931,500",5.91%
  412,CHINA SHANDONG HI-SPEED FINANCIAL GROUP LIMITED,"18,954,000",0.07%
  419,HUAYI TENCENT ENTERTAINMENT COMPANY LIMITED,"187,570,000",1.38%
  425,MINTH GROUP LIMITED,"99,994,719",
  439,KUANGCHI SCIENCE LIMITED,"325,664,000",5.28%
  440,DAH SING FINANCIAL HOLDINGS LTD,"1,491,666",0.46%
  451,GCL NEW ENERGY HOLDINGS LIMITED,"1,412,316,000",7.40%
  460,SIHUAN PHARMACEUTICAL HOLDINGS GROUP LTD.,"485,197,000",5.12%
  467,UNITED ENERGY GROUP LIMITED,"8,482,000",0.03%
  468,GREATVIEW ASEPTIC PACKAGING COMPANY LIMITED,"9,549,000",0.71%
  480,HKR INTERNATIONAL LTD,"261,680",0.01%
  488,LAI SUN DEVELOPMENT COMPANY LIMITED,"30,000",0.00%
  489,DONGFENG MOTOR GROUP COMPANY LIMITED,"216,025,200",7.56%
  493,GOME RETAIL HOLDINGS LIMITED,"2,396,666,000",11.10%
  494,LI & FUNG LIMITED,"78,182,000",0.90%
  496,KASEN INTERNATIONAL HOLDINGS LIMITED,"114,230,000",7.64%
  506,CHINA FOODS LIMITED,"50,384,100",1.80%
  508,DINGYI GROUP INVESTMENT LIMITED,"401,450,000",5.45%
  511,TELEVISION BROADCASTS LIMITED,"570,000",0.12%
  512,CHINA GRAND PHARMACEUTICAL AND HEALTHCARE HOLDINGS LIMITED,"91,003,200",2.69%
  517,"COSCO SHIPPING INTERNATIONAL (HONG KONG) CO., LTD.","708,000",0.04%
  520,"XIABUXIABU CATERING MANAGEMENT (CHINA) HOLDINGS CO., LTD.","58,989,000",5.45%
  522,ASM PACIFIC TECHNOLOGY LIMITED,"5,705,925",1.39%
  525,GUANGSHEN RAILWAY COMPANY LIMITED,"293,284,010",20.48%
  530,GOLDIN FINANCIAL HOLDINGS LIMITED,"2,926,000",0.04%
  535,GEMDALE PROPERTIES AND INVESTMENT CORPORATION LIMITED,"2,029,426,154",12.76%
  546,FUFENG GROUP LIMITED,"77,941,119",3.07%
  547,DIGITAL DOMAIN HOLDINGS LIMITED,"1,050,790,000",3.08%
  548,SHENZHEN EXPRESSWAY COMPANY LIMITED,"95,182,000",12.73%
  551,YUE YUEN INDUSTRIAL (HOLDINGS) LIMITED,"3,324,293",0.19%
  552,CHINA COMMUNICATIONS SERVICES CORPORATION LIMITED,"110,724,000",4.62%
  553,NANJING PANDA ELECTRONICS COMPANY LIMITED,"50,542,000",20.87%
  563,SHANGHAI INDUSTRIAL URBAN DEVELOPMENT GROUP LIMITED,"146,899,855",3.05%
  564,ZHENGZHOU COAL MINING MACHINERY GROUP COMPANY LIMITED,"70,692,577",29.06%
  568,SHANDONG MOLONG PETROLEUM MACHINERY COMPANY LIMITED,"53,491,600",20.88%
  570,CHINA TRADITIONAL CHINESE MEDICINE HOLDINGS CO LIMITED,"626,702,812",12.43%
  576,"ZHEJIANG EXPRESSWAY CO., LTD.","102,289,759",7.13%
  579,"BEIJING JINGNENG CLEAN ENERGY CO., LIMITED","181,746,000",6.42%
  581,CHINA ORIENTAL GROUP COMPANY LIMITED,"92,834,987",2.49%
  582,LANDING INTERNATIONAL DEVELOPMENT LIMITED,"115,106,400",3.91%
  586,CHINA CONCH VENTURE HOLDINGS LIMITED,"174,042,453",9.63%
  588,BEIJING NORTH STAR COMPANY LIMITED,"182,576,000",25.82%
  590,LUK FOOK HOLDINGS (INTERNATIONAL) LIMITED,"1,065,000",0.17%
  598,SINOTRANS LIMITED,"210,229,000",9.79%
  604,SHENZHEN INVESTMENT LIMITED,"49,211,461",0.55%
  607,FULLSHARE HOLDINGS LIMITED,"4,726,142,500",23.97%
  612,CHINA DING YI FENG HOLDINGS LIMITED,"2,760,000",0.21%
  631,SANY HEAVY EQUIPMENT INTERNATIONAL HOLDINGS COMPANY LIMITED,"190,195,000",6.13%
  636,KERRY LOGISTICS NETWORK LIMITED,"1,162,000",0.06%
  639,SHOUGANG FUSHAN RESOURCES GROUP LIMITED,"121,358,000",2.28%
  656,FOSUN INTERNATIONAL LIMITED,"753,610,882",8.83%
  658,"CHINA HIGH SPEED TRANSMISSION EQUIPMENT GROUP CO., LTD.","205,386,000",12.55%
  659,NWS HOLDINGS LIMITED,"2,596,719",0.06%
  665,HAITONG INTERNATIONAL SECURITIES GROUP LIMITED,"334,779,866",5.63%
  667,CHINA EAST EDUCATION HOLDINGS LIMITED,"70,016,000",3.19%
  669,TECHTRONIC INDUSTRIES CO. LTD.,"6,547,470",0.35%
  670,CHINA EASTERN AIRLINES CORPORATION LIMITED,"470,943,715",9.09%
  680,NAN HAI CORPORATION LIMITED,"810,850,000",1.17%
  683,KERRY PROPERTIES LIMITED,"3,572,124",0.24%
  686,PANDA GREEN ENERGY GROUP LIMITED,"302,250,000",1.34%
  687,TYSAN HOLDINGS LIMITED,"2,980,000",0.08%
  688,CHINA OVERSEAS LAND & INVESTMENT LIMITED,"125,345,039",1.14%
  691,CHINA SHANSHUI CEMENT GROUP LIMITED,"4,387,000",0.09%
  694,BEIJING CAPITAL INTERNATIONAL AIRPORT COMPANY LIMITED,"259,243,105",13.79%
  696,TRAVELSKY TECHNOLOGY LIMITED,"46,866,000",5.02%
  697,SHOUGANG CONCORD INTERNATIONAL ENTERPRISES COMPANY LIMITED,"13,344,000",0.03%
  698,TONGDA GROUP HOLDINGS LIMITED,"368,890,000",5.69%
  699,CAR INC.,"175,542,001",8.27%
  700,TENCENT HOLDINGS LIMITED,"265,430,524",2.77%
  709,GIORDANO INTERNATIONAL LIMITED,"2,542,000",0.16%
  715,CHINA OCEANWIDE HOLDINGS LIMITED,"460,000",0.00%
  718,TAI UNITED HOLDINGS LIMITED,"20,050,000",0.38%
  719,SHANDONG XINHUA PHARMACEUTICAL COMPANY LIMITED,"72,473,723",37.16%
  721,CHINA FINANCIAL INTERNATIONAL INVESTMENTS LIMITED,"306,500,000",2.79%
  728,CHINA TELECOM CORPORATION LIMITED,"330,133,238",2.37%
  729,FDG ELECTRIC VEHICLES LIMITED,"71,908,750",2.87%
  732,TRULY INTERNATIONAL HOLDINGS LIMITED,"315,492,000",9.58%
  737,SZ INVESTMENT HLDGS BAY AREA DEV CO LTD -HKD TRADED SHARES,"1,870,500",0.05%
  743,ASIA CEMENT (CHINA) HOLDINGS CORPORATION,"5,742,500",0.36%
  751,SKYWORTH GROUP LIMITED,"129,938,229",4.23%
  753,AIR CHINA LIMITED,"322,475,578",7.06%
  754,HOPSON DEVELOPMENT HOLDINGS LIMITED,"78,238,000",3.51%
  762,CHINA UNICOM (HONG KONG) LIMITED,"144,056,000",0.46%
  763,ZTE CORPORATION,"254,112,404",33.63%
  772,CHINA LITERATURE LIMITED,"40,771,687",4.02%
  775,"CK LIFE SCIENCES INT'L., (HOLDINGS) INC.","26,296,000",0.27%
  777,NETDRAGON WEBSOFT HOLDINGS LIMITED,"30,018,500",5.32%
  780,TONGCHENG-ELONG HOLDINGS LIMITED,"25,026,000",1.17%
  787,GLOBAL BRANDS GROUP HOLDING LIMITED,"67,001,875",6.50%
  788,CHINA TOWER CORPORATION LIMITED,"2,118,764,853",4.53%
  799,IGG INC,"129,946,298",10.41%
  806,VALUE PARTNERS GROUP LIMITED,"55,548,405",2.99%
  811,"XINHUA WINSHARE PUBLISHING AND MEDIA CO., LTD.","58,042,000",13.12%
  813,SHIMAO PROPERTY HOLDINGS LIMITED,"95,525,141",2.76%
  816,HUADIAN FUXIN ENERGY CORPORATION LIMITED,"15,596,000",0.60%
  817,CHINA JINMAO HOLDINGS GROUP LIMITED,"743,616,947",6.31%
  819,TIANNENG POWER INTERNATIONAL LIMITED,"124,204,000",11.02%
  826,TIANGONG INTERNATIONAL COMPANY LIMITED,"13,228,000",0.51%
  829,SHENGUAN HOLDINGS (GROUP) LIMITED,"144,332,000",4.46%
  832,CENTRAL CHINA REAL ESTATE LIMITED,"75,337,000",2.74%
  836,CHINA RESOURCES POWER HOLDINGS COMPANY LIMITED,"155,222,627",3.21%
  839,CHINA EDUCATION GROUP HOLDINGS LIMITED,"114,524,655",5.66%
  845,GLORIOUS PROPERTY HOLDINGS LIMITED,"23,371,000",0.29%
  846,MINGFA GROUP (INTERNATIONAL) COMPANY LIMITED,"5,261,000",0.08%
  853,MICROPORT SCIENTIFIC CORPORATION,"164,160,033",9.51%
  855,CHINA WATER AFFAIRS GROUP LIMITED,"185,542,334",11.56%
  856,VSTECS HOLDINGS LIMITED,"3,906,000",0.26%
  857,PETROCHINA COMPANY LIMITED,"1,750,523,455",8.29%
  860,WE SOLUTIONS LIMITED,"32,172,000",0.44%
  861,DIGITAL CHINA HOLDINGS LIMITED,"769,871,400",46.06%
  867,CHINA MEDICAL SYSTEM HOLDINGS LIMITED,"12,167,618",0.48%
  868,XINYI GLASS HOLDINGS LIMITED,"183,425,053",4.56%
  874,"GUANGZHOU BAIYUNSHAN PHARMACEUTICAL HOLDINGS CO., LTD.","63,074,200",28.67%
  880,SJM HOLDINGS LIMITED,"193,841,700",3.41%
  881,ZHONGSHENG GROUP HOLDINGS LIMITED,"49,954,313",2.19%
  883,CNOOC LIMITED,"275,132,295",0.61%
  884,CIFI HOLDINGS (GROUP) CO. LTD.,"456,400,611",
  885,RENTIAN TECHNOLOGY HOLDINGS LIMITED,"1,110,000",0.01%
  895,DONGJIANG ENVIRONMENTAL COMPANY LIMITED,"56,387,400",28.17%
  902,"HUANENG POWER INTERNATIONAL, INC.","1,869,109,624",39.76%
  906,CPMC HOLDINGS LIMITED,"36,129,000",3.13%
  911,QIANHAI HEALTH HOLDINGS LIMITED,"93,043,000",5.49%
  914,ANHUI CONCH CEMENT COMPANY LIMITED,"50,794,789",3.90%
  916,CHINA LONGYUAN POWER GROUP CORPORATION LIMITED,"208,021,000",6.22%
  921,"HISENSE HOME APPLIANCES GROUP CO., LTD.","57,717,800",12.55%
  931,CHINA LNG GROUP LIMITED,"179,017,000",3.16%
  933,BRIGHTOIL PETROLEUM (HOLDINGS) LIMITED,"25,254,000",0.24%
  934,SINOPEC KANTONS HOLDINGS LIMITED,"140,738,000",5.65%
  939,CHINA CONSTRUCTION BANK CORPORATION,"23,416,898,579",9.73%
  941,CHINA MOBILE LIMITED,"84,971,019",0.40%
  950,LEE'S PHARMACEUTICAL HOLDINGS LIMITED,"2,152,500",0.36%
  951,CHAOWEI POWER HOLDINGS LIMITED,"107,640,000",9.74%
  960,LONGFOR GROUP HOLDINGS LIMITED,"152,553,993",2.53%
  966,CHINA TAIPING INSURANCE HOLDINGS COMPANY LIMITED,"547,687,615",15.23%
  967,SOUND GLOBAL LTD.,"289,000",0.01%
  968,XINYI SOLAR HOLDINGS LIMITED,"996,951,713",12.33%
  976,CHIHO ENVIRONMENTAL GROUP LIMITED,"227,664,000",14.18%
  978,CHINA MERCHANTS LAND LIMITED,"51,556,000",1.05%
  981,SEMICONDUCTOR MANUFACTURING INTERNATIONAL CORPORATION,"1,200,298,698",23.41%
  989,GROUND INTERNATIONAL DEVELOPMENT LIMITED,"188,905,000",3.58%
  991,"DATANG INTERNATIONAL POWER GENERATION CO.,LTD.","216,458,000",3.53%
  992,LENOVO GROUP LIMITED,"35,988,476",0.29%
  995,ANHUI EXPRESSWAY COMPANY LIMITED,"97,420,000",19.75%
  996,CARNIVAL GROUP INTERNATIONAL HOLDINGS LIMITED,"6,110,842,500",25.77%
  998,CHINA CITIC BANK CORPORATION LIMITED,"2,115,110,752",14.20%
 1028,C.BANNER INTERNATIONAL HOLDINGS LIMITED,"150,488,000",7.24%
 1030,SEAZEN GROUP LIMITED,"368,422,500",5.93%
 1031,KINGSTON FINANCIAL GROUP LIMITED,"550,000",0.00%
 1033,SINOPEC OILFIELD SERVICE CORPORATION,"365,548,000",6.74%
 1038,CK INFRASTRUCTURE HOLDINGS LIMITED,"11,551,000",0.42%
 1044,HENGAN INTERNATIONAL GROUP COMPANY LIMITED,"15,889,000",1.32%
 1052,YUEXIU TRANSPORT INFRASTRUCTURE LIMITED,"53,810,000",3.21%
 1053,CHONGQING IRON & STEEL COMPANY LIMITED,"94,406,000",17.53%
 1055,CHINA SOUTHERN AIRLINES COMPANY LIMITED,"373,771,679",10.18%
 1057,ZHEJIANG SHIBAO COMPANY LIMITED,"43,133,000",19.89%
 1060,ALIBABA PICTURES GROUP LIMITED,"3,124,428,620",11.64%
 1065,TIANJIN CAPITAL ENVIRONMENTAL PROTECTION GROUP COMPANY LIMITED,"95,002,100",27.93%
 1066,SHANDONG WEIGAO GROUP MEDICAL POLYMER COMPANY LIMITED,"118,872,677",2.62%
 1068,CHINA YURUN FOOD GROUP LIMITED,"18,548,000",1.01%
 1070,TCL ELECTRONICS HOLDINGS LIMITED,"55,004,999",2.32%
 1071,HUADIAN POWER INTERNATIONAL CORPORATION LIMITED,"497,834,683",28.98%
 1072,DONGFANG ELECTRIC CORPORATION LIMITED,"103,723,046",30.49%
 1076,IMPERIAL PACIFIC INTERNATIONAL HOLDINGS LIMITED,"391,100,000",0.27%
 1083,TOWNGAS CHINA COMPANY LIMITED,"5,113,007",0.17%
 1086,GOODBABY INTERNATIONAL HOLDINGS LIMITED,"28,354,000",1.69%
 1088,CHINA SHENHUA ENERGY COMPANY LIMITED,"852,061,273",25.06%
 1089,LEYOU TECHNOLOGIES HOLDINGS LIMITED,"82,175,000",2.66%
 1093,CSPC PHARMACEUTICAL GROUP LIMITED,"327,998,867",5.25%
 1097,I-CABLE COMMUNICATIONS LIMITED,"101,957",0.00%
 1098,ROAD KING INFRASTRUCTURE LIMITED,"9,738,000",1.29%
 1099,SINOPHARM GROUP CO. LTD.,"69,029,730",5.13%
 1108,LUOYANG GLASS COMPANY LIMITED,"93,038,000",37.21%
 1109,CHINA RESOURCES LAND LIMITED,"103,564,315",1.45%
 1111,CHONG HING BANK LIMITED,"1,054,500",0.10%
 1112,HEALTH AND HAPPINESS (H&H) INTERNATIONAL HOLDINGS LIMITED,"53,924,500",8.37%
 1113,CK ASSET HOLDINGS LIMITED,"13,272,463",0.35%
 1114,BRILLIANCE CHINA AUTOMOTIVE HOLDINGS LIMITED,"204,667,728",4.05%
 1115,TIBET WATER RESOURCES LTD.,"161,127,000",6.27%
 1117,CHINA MODERN DAIRY HOLDINGS LTD.,"144,782,000",2.25%
 1119,IDREAMSKY TECHNOLOGY HOLDINGS LIMITED,"26,145,200",2.05%
 1128,"WYNN MACAU, LIMITED","43,912,959",0.83%
 1131,AGRITRADE RESOURCES LIMITED,"245,660,000",3.85%
 1138,"COSCO SHIPPING ENERGY TRANSPORTATION CO., LTD.","235,178,000",18.13%
 1140,OP FINANCIAL LIMITED,"101,316,000",3.49%
 1141,CMBC CAPITAL HOLDINGS LIMITED,"561,310,000",1.16%
 1157,"ZOOMLION HEAVY INDUSTRY SCIENCE AND TECHNOLOGY CO., LTD.","50,372,122",3.62%
 1165,SHUNFENG INTERNATIONAL CLEAN ENERGY LIMITED,"337,528,000",6.77%
 1169,"HAIER ELECTRONICS GROUP CO., LTD.","56,463,929",1.99%
 1171,YANZHOU COAL MINING COMPANY LIMITED,"336,630,000",17.24%
 1176,ZHUGUANG HOLDINGS GROUP COMPANY LIMITED,"163,034,000",2.26%
 1177,SINO BIOPHARMACEUTICAL LIMITED,"969,753,279",7.69%
 1186,CHINA RAILWAY CONSTRUCTION CORPORATION LIMITED,"66,757,157",3.21%
 1188,HYBRID KINETIC GROUP LIMITED,"118,550,000",0.58%
 1193,CHINA RESOURCES GAS GROUP LIMITED,"12,340,000",0.55%
 1196,REALORD GROUP HOLDINGS LIMITED,"113,908,000",7.92%
 1199,COSCO SHIPPING PORTS LIMITED,"14,864,965",0.46%
 1205,CITIC RESOURCES HOLDINGS LIMITED,"179,568,100",2.27%
 1208,MMG LIMITED,"259,090,000",3.21%
 1211,BYD COMPANY LIMITED,"46,254,309",5.05%
 1212,LIFESTYLE INTERNATIONAL HOLDINGS LIMITED,"1,697,312",0.10%
 1230,YASHILI INTERNATIONAL HOLDINGS LTD,"79,662,000",1.67%
 1233,TIMES CHINA HOLDINGS LIMITED,"117,339,757",6.03%
 1234,CHINA LILANG LIMITED,"39,607,962",3.30%
 1238,POWERLONG REAL ESTATE HOLDINGS LIMITED,"106,243,000",2.56%
 1250,BEIJING ENTERPRISES CLEAN ENERGY GROUP LIMITED,"1,837,240,000",2.89%
 1253,CHINA GREENLAND BROAD GREENSTATE GROUP COMPANY LIMITED,"6,840,000",0.20%
 1257,CHINA EVERBRIGHT GREENTECH LIMITED,"76,271,000",3.69%
 1268,CHINA MEIDONG AUTO HOLDINGS LIMITED,"17,672,000",1.52%
 1269,CHINA FIRST CAPITAL GROUP LIMITED,"1,479,924,000",29.43%
 1282,GLORY SUN FINANCIAL GROUP LIMITED,"2,523,760,000",8.47%
 1286,IMPRO PRECISION INDUSTRIES LIMITED,"248,000",0.01%
 1288,AGRICULTURAL BANK OF CHINA LIMITED,"7,285,022,435",23.69%
 1293,GRAND BAOXIN AUTO GROUP LIMITED,"138,528,009",4.87%
 1299,AIA GROUP LIMITED,"83,663,614",0.68%
 1302,LIFETECH SCIENTIFIC CORPORATION,"604,356,000",13.98%
 1308,SITC INTERNATIONAL HOLDINGS COMPANY LIMITED,"58,156,000",2.16%
 1310,HKBN LTD.,"3,408,500",0.25%
 1313,CHINA RESOURCES CEMENT HOLDINGS LIMITED,"54,673,915",0.77%
 1315,VISION FAME INTERNATIONAL HOLDING LIMITED,"733,014,000",12.21%
 1316,NEXTEER AUTOMOTIVE GROUP LIMITED,"43,352,000",1.72%
 1317,CHINA MAPLE LEAF EDUCATIONAL SYSTEMS LIMITED,"283,041,844",9.44%
 1330,"DYNAGREEN ENVIRONMENTAL PROTECTION GROUP CO., LTD","115,703,000",28.61%
 1333,CHINA ZHONGWANG HOLDINGS LIMITED,"229,870,800",4.20%
 1336,NEW CHINA LIFE INSURANCE COMPANY LTD.,"346,925,730",33.54%
 1339,"PEOPLE'S INSURANCE COMPANY (GROUP) OF CHINA LIMITED, THE","1,527,073,987",17.49%
 1347,HUA HONG SEMICONDUCTOR LIMITED,"70,879,984",5.48%
 1357,"MEITU, INC.","315,073,600",7.30%
 1359,"CHINA CINDA ASSET MANAGEMENT CO., LTD.","2,062,072,457",15.19%
 1361,361 DEGREES INTERNATIONAL LIMITED,"31,083,000",1.50%
 1363,CT ENVIRONMENTAL GROUP LIMITED,"502,874,000",7.95%
 1368,XTEP INTERNATIONAL HOLDINGS LIMITED,"42,721,896",1.70%
 1375,"CENTRAL CHINA SECURITIES CO., LTD.","215,747,000",18.03%
 1378,CHINA HONGQIAO GROUP LIMITED,"503,872,910",5.87%
 1381,CANVEST ENVIRONMENTAL PROTECTION GROUP COMPANY LIMITED,"27,269,000",1.11%
 1382,PACIFIC TEXTILES HOLDINGS LIMITED,"15,661,000",1.08%
 1383,SUNCITY GROUP HOLDINGS LIMITED,"18,330,000",0.27%
 1387,CHINA DILI GROUP,"157,272,130",2.74%
 1398,INDUSTRIAL AND COMMERCIAL BANK OF CHINA LIMITED,"22,880,641,634",26.35%
 1432,CHINA SHENGMU ORGANIC MILK LIMITED,"166,863,000",2.61%
 1448,FU SHOU YUAN INTERNATIONAL GROUP LIMITED,"213,746,838",
 1458,ZHOU HEI YA INTERNATIONAL HOLDINGS COMPANY LIMITED,"339,889,500",14.25%
 1478,Q TECHNOLOGY (GROUP) COMPANY LIMITED,"45,357,000",3.91%
 1508,CHINA REINSURANCE (GROUP) CORPORATION,"573,126,000",8.57%
 1513,LIVZON PHARMACEUTICAL GROUP INC.,"34,302,091",10.72%
 1515,CHINA RESOURCES MEDICAL HOLDINGS COMPANY LIMITED,"41,629,100",3.20%
 1521,FRONTAGE HOLDINGS CORPORATION,"107,250,000",5.31%
 1528,RED STAR MACALLINE GROUP CORPORATION LTD.,"105,415,062",15.63%
 1530,3SBIO INC.,"94,814,500",3.72%
 1533,"LANZHOU ZHUANGYUAN PASTURE CO., LTD.","4,681,000",13.32%
 1548,GENSCRIPT BIOTECH CORPORATION,"196,988,000",10.46%
 1551,"GUANGZHOU RURAL COMMERCIAL BANK CO., LTD","2,415,000",0.13%
 1558,"YICHANG HEC CHANGJIANG PHARMACEUTICAL CO., LTD.","58,288,600",26.18%
 1569,MINSHENG EDUCATION GROUP COMPANY LIMITED,"81,626,975",2.03%
 1573,SOUTHERN ENERGY HOLDINGS GROUP LIMITED,"124,098,000",17.28%
 1578,"BANK OF TIANJIN CO., LTD.","39,000",0.00%
 1579,YIHAI INTERNATIONAL HOLDING LTD.,"50,767,361",4.83%
 1583,QINQIN FOODSTUFFS GROUP (CAYMAN) COMPANY LIMITED,"25,700",0.00%
 1585,YADEA GROUP HOLDINGS LTD.,"261,690,000",8.73%
 1589,"CHINA LOGISTICS PROPERTY HOLDINGS CO., LTD","495,000",0.01%
 1600,CHINA TIAN LUN GAS HOLDINGS LIMITED,"9,039,500",0.90%
 1606,"CHINA DEVELOPMENT BANK FINANCIAL LEASING CO., LTD.","546,000",0.01%
 1608,VPOWER GROUP INTERNATIONAL HOLDINGS LIMITED,"1,277,000",0.04%
 1610,COFCO MEAT HOLDINGS LIMITED,"215,661,489",5.52%
 1618,METALLURGICAL CORPORATION OF CHINA LTD.,"282,950,000",9.84%
 1619,TIANHE CHEMICALS GROUP LIMITED,"193,880,000",0.78%
 1622,REDCO PROPERTIES GROUP LIMITED,"80,588,000",2.26%
 1628,YUZHOU PROPERTIES COMPANY LIMITED,"63,221,469",1.20%
 1635,"SHANGHAI DAZHONG PUBLIC UTILITIES (GROUP) CO., LTD.","68,290,000",12.79%
 1636,CHINA METAL RESOURCES UTILIZATION LIMITED,"36,968,000",1.40%
 1638,KAISA GROUP HOLDINGS LTD.,"371,160,619",6.08%
 1658,"POSTAL SAVINGS BANK OF CHINA CO., LTD.","223,137,168",1.12%
 1661,WISDOM SPORTS GROUP,"6,429,000",0.40%
 1666,TONG REN TANG TECHNOLOGIES CO LTD,"160,548,200",25.53%
 1668,CHINA SOUTH CITY HOLDINGS LIMITED,"753,656,396",9.29%
 1680,MACAU LEGEND DEVELOPMENT LIMITED,"132,623,000",2.13%
 1681,CONSUN PHARMACEUTICAL GROUP LIMITED,"32,168,000",3.71%
 1685,BOER POWER HOLDINGS LIMITED,"2,249,000",0.29%
 1686,SUNEVISION HOLDINGS LIMITED,"2,684,000",0.11%
 1691,JS GLOBAL LIFESTYLE COMPANY LIMITED,"1,770,500",0.04%
 1717,AUSNUTRIA DAIRY CORPORATION LTD,"56,523,000",3.50%
 1728,CHINA ZHENGTONG AUTO SERVICES HOLDINGS LIMITED,"187,439,000",7.63%
 1761,BABYTREE GROUP,"6,773,000",0.40%
 1765,"HOPE EDUCATION GROUP CO., LTD.","434,204,580",6.50%
 1766,CRRC CORPORATION LIMITED,"288,582,970",6.59%
 1772,"GANFENG LITHIUM CO., LTD.","108,443,655",54.17%
 1776,"GF SECURITIES CO., LTD.","447,095,700",26.27%
 1777,"FANTASIA HOLDINGS GROUP CO., LIMITED","384,734,500",6.67%
 1778,"COLOUR LIFE SERVICES GROUP CO., LIMITED","76,132,000",5.35%
 1787,"SHANDONG GOLD MINING CO., LTD.","124,392,461",24.89%
 1788,GUOTAI JUNAN INTERNATIONAL HOLDINGS LIMITED,"220,684,443",2.28%
 1789,AK MEDICAL HOLDINGS LIMITED,"47,870,000",4.32%
 1797,KOOLEARN TECHNOLOGY HOLDING LIMITED,"132,818,000",14.15%
 1800,CHINA COMMUNICATIONS CONSTRUCTION COMPANY LIMITED,"388,369,000",8.76%
 1806,HUIFU PAYMENT LIMITED,"38,107,200",2.94%
 1810,XIAOMI CORPORATION,"1,413,811,037",5.87%
 1811,"CGN NEW ENERGY HOLDINGS CO., LTD.","102,928,000",2.39%
 1812,SHANDONG CHENMING PAPER HOLDINGS LIMITED,"100,873,700",19.09%
 1813,KWG GROUP HOLDINGS LIMITED,"189,631,040",5.96%
 1816,"CGN POWER CO., LTD","2,225,860,000",19.93%
 1818,ZHAOJIN MINING INDUSTRY COMPANY LIMITED,"99,573,372",9.49%
 1829,CHINA MACHINERY ENGINEERING CORPORATION,"141,000",0.01%
 1833,PING AN HEALTHCARE AND TECHNOLOGY COMPANY LIMITED,"36,592,300",3.41%
 1836,STELLA INTERNATIONAL HOLDINGS LIMITED,"40,000",0.00%
 1848,CHINA AIRCRAFT LEASING GROUP HOLDINGS LIMITED,"7,890,500",1.16%
 1860,MOBVISTA INC.,"5,163,000",0.33%
 1873,VIVA BIOTECH HOLDINGS,"32,309,900",2.06%
 1876,BUDWEISER BREWING COMPANY APAC LIMITED,"13,807,500",0.09%
 1882,HAITIAN INTERNATIONAL HOLDINGS LIMITED,"21,606,000",1.34%
 1883,CITIC TELECOM INTERNATIONAL HOLDINGS LIMITED,"21,261,000",0.58%
 1886,CHINA HUIYUAN JUICE GROUP LIMITED,"125,355,500",4.69%
 1888,KINGBOARD LAMINATES HOLDINGS LIMITED,"14,553,595",0.46%
 1890,CHINA KEPEI EDUCATION GROUP LIMITED,"87,634,000",4.37%
 1896,MAOYAN ENTERTAINMENT,"25,349,000",2.23%
 1898,CHINA COAL ENERGY COMPANY LIMITED,"288,154,000",7.01%
 1905,"HAITONG UNITRUST INTERNATIONAL LEASING CO., LTD.","2,454,000",0.04%
 1907,CHINA RISUN GROUP LIMITED,"11,472,000",0.28%
 1908,C&D INTERNATIONAL INVESTMENT GROUP LIMITED,"69,444,000",5.90%
 1911,CHINA RENAISSANCE HOLDINGS LIMITED,"5,500,400",1.02%
 1916,"JIANGXI BANK CO., LTD.","10,842,500",0.80%
 1918,SUNAC CHINA HOLDINGS LIMITED,"949,935,079",20.43%
 1919,"COSCO SHIPPING HOLDINGS CO., LTD.","309,836,500",12.00%
 1928,SANDS CHINA LTD.,"59,378,039",0.73%
 1929,CHOW TAI FOOK JEWELLERY GROUP LIMITED,"36,961,800",0.36%
 1951,JINXIN FERTILITY GROUP LIMITED,"152,272,930",6.25%
 1958,BAIC MOTOR CORPORATION LIMITED,"88,922,500",3.52%
 1963,"BANK OF CHONGQING CO., LTD.","113,610,000",7.19%
 1966,CHINA SCE GROUP HOLDINGS LIMITED,"135,264,054",3.23%
 1970,"IMAX CHINA HOLDING, INC.","3,344,800",0.95%
 1972,SWIRE PROPERTIES LIMITED,"1,854,000",0.02%
 1980,TIAN GE INTERACTIVE HOLDINGS LIMITED,"28,193,000",2.23%
 1988,"CHINA MINSHENG BANKING CORP., LTD.","833,837,549",10.02%
 1992,FOSUN TOURISM GROUP,"1,124,200",0.08%
 1996,REDSUN PROPERTIES GROUP LIMITED,"30,025,000",0.90%
 1997,WHARF REAL ESTATE INVESTMENT COMPANY LIMITED,"4,385,958",0.14%
 1999,MAN WAH HOLDINGS LIMITED,"606,205,728",15.89%
 2001,CHINA NEW HIGHER EDUCATION GROUP LIMITED,"199,723,379",12.95%
 2003,VCREDIT HOLDINGS LIMITED,"3,204,600",0.64%
 2005,SSY GROUP LIMITED,"257,062,122",8.46%
 2007,COUNTRY GARDEN HOLDINGS COMPANY LIMITED,"252,783,385",1.15%
 2008,PHOENIX MEDIA INVESTMENT (HOLDINGS) LIMITED,"212,820,000",4.26%
 2009,BBMG CORPORATION,"222,476,500",9.50%
 2013,WEIMOB INC.,"192,690,432",8.60%
 2016,"CHINA ZHESHANG BANK CO., LTD.","2,935,000",0.05%
 2018,AAC TECHNOLOGIES HOLDINGS INC.,"45,640,924",3.77%
 2019,DEXIN CHINA HOLDINGS COMPANY LIMITED,"16,048,000",0.59%
 2020,ANTA SPORTS PRODUCTS LIMITED,"132,080,967",4.88%
 2038,FIH MOBILE LIMITED,"104,922,000",1.27%
 2039,"CHINA INTERNATIONAL MARINE CONTAINERS (GROUP) CO., LTD.","174,722,980",8.48%
 2048,E-HOUSE (CHINA) ENTERPRISE HOLDINGS LIMITED,"102,300",0.00%
 2051,51 CREDIT CARD INC.,"60,390,500",5.06%
 2066,"SHENGJING BANK CO., LTD.","280,500",0.01%
 2068,CHINA ALUMINUM INTERNATIONAL ENGINEERING CORPORATION LIMITED,"3,237,000",0.80%
 2098,ZALL SMART COMMERCE GROUP LTD.,"47,925,000",0.40%
 2099,CHINA GOLD INTERNATIONAL RESOURCES CORP. LTD.,"17,213,500",4.34%
 2103,SINIC HOLDINGS (GROUP) COMPANY LIMITED,"565,000",0.01%
 2111,BEST PACIFIC INTERNATIONAL HOLDINGS LIMITED,"1,644,000",0.15%
 2128,CHINA LESSO GROUP HOLDINGS LIMITED,"24,983,000",0.79%
 2136,LIFESTYLE CHINA GROUP LIMITED,"284,000",0.01%
 2186,LUYE PHARMA GROUP LTD.,"504,947,500",15.44%
 2196,"SHANGHAI FOSUN PHARMACEUTICAL (GROUP) CO., LTD.","182,965,325",33.14%
 2199,REGINA MIRACLE INTERNATIONAL (HOLDINGS) LIMITED,"2,982,000",0.23%
 2202,"CHINA VANKE CO., LTD.","194,468,207",12.32%
 2208,"XINJIANG GOLDWIND SCIENCE & TECHNOLOGY CO., LTD.","89,072,825",11.51%
 2232,CRYSTAL INTERNATIONAL GROUP LIMITED,"4,610,500",0.15%
 2233,WEST CHINA CEMENT LIMITED,"305,418,000",5.61%
 2238,"GUANGZHOU AUTOMOBILE GROUP CO., LTD.","1,183,998,854",38.20%
 2255,HAICHANG OCEAN PARK HOLDINGS LTD.,"53,881,000",1.34%
 2269,WUXI BIOLOGICS (CAYMAN) INC.,"104,632,954",8.05%
 2280,HC GROUP INC.,"123,612,500",11.03%
 2282,MGM CHINA HOLDINGS LIMITED,"23,705,896",0.62%
 2298,COSMO LADY (CHINA) HOLDINGS COMPANY LIMITED,"11,839,000",0.51%
 2313,SHENZHOU INTERNATIONAL GROUP HOLDINGS LIMITED,"60,929,059",4.05%
 2314,LEE & MAN PAPER MANUFACTURING LIMITED,"41,537,825",0.94%
 2318,"PING AN INSURANCE (GROUP) COMPANY OF CHINA, LTD.","138,088,627",1.84%
 2319,CHINA MENGNIU DAIRY COMPANY LIMITED,"59,264,919",1.49%
 2326,NEW PROVENANCE EVERLASTING HOLDINGS LIMITED,"55,970,000",0.25%
 2328,PICC PROPERTY AND CASUALTY COMPANY LIMITED,"601,229,641",8.70%
 2329,GUORUI PROPERTIES LIMITED,"150,942,000",3.38%
 2331,LI NING COMPANY LIMITED,"119,566,227",4.86%
 2333,GREAT WALL MOTOR COMPANY LIMITED,"924,417,831",29.81%
 2338,"WEICHAI POWER CO., LTD.","109,111,600",5.61%
 2343,PACIFIC BASIN SHIPPING LIMITED,"7,481,000",0.15%
 2356,DAH SING BANKING GROUP LIMITED,"200,000",0.01%
 2357,AVICHINA INDUSTRY & TECHNOLOGY COMPANY LIMITED,"362,877,000",5.81%
 2359,"WUXI APPTEC CO., LTD.","10,173,293",5.96%
 2362,JINCHUAN GROUP INTERNATIONAL RESOURCES CO. LTD.,"105,500,000",0.83%
 2363,TONGDA HONG TAI HOLDINGS LIMITED,"379,462",0.19%
 2369,COOLPAD GROUP LIMITED,"46,892,000",0.80%
 2380,CHINA POWER INTERNATIONAL DEVELOPMENT LIMITED,"783,177,436",7.98%
 2382,SUNNY OPTICAL TECHNOLOGY (GROUP) COMPANY LIMITED,"99,476,217",9.06%
 2386,"SINOPEC ENGINEERING (GROUP) CO., LTD.","27,649,000",1.88%
 2388,BOC HONG KONG (HOLDINGS) LIMITED,"30,084,945",0.28%
 2400,XD INC.,"21,985,600",5.13%
 2588,BOC AVIATION LIMITED,"23,554,500",3.38%
 2600,ALUMINUM CORPORATION OF CHINA LIMITED,"249,196,000",6.30%
 2601,CHINA PACIFIC INSURANCE (GROUP) CO. LTD.,"708,216,061",25.50%
 2607,"SHANGHAI PHARMACEUTICALS HOLDING CO., LTD.","121,418,966",13.20%
 2611,"GUOTAI JUNAN SECURITIES CO., LTD.","49,317,800",3.54%
 2628,CHINA LIFE INSURANCE COMPANY LIMITED,"315,017,593",4.22%
 2662,CAMSING INTERNATIONAL HOLDING LIMITED,"132,096,000",12.26%
 2666,GENERTEC UNIVERSAL MEDICAL GROUP COMPANY LIMITED,"329,250,000",19.18%
 2669,CHINA OVERSEAS PROPERTY HOLDINGS LIMITED,"298,099,682",9.06%
 2678,TEXHONG TEXTILE GROUP LIMITED,"27,524,000",3.00%
 2688,ENN ENERGY HOLDINGS LIMITED,"13,834,490",1.22%
 2689,NINE DRAGONS PAPER (HOLDINGS) LIMITED,"77,851,000",1.65%
 2727,SHANGHAI ELECTRIC GROUP COMPANY LIMITED,"755,103,000",25.39%
 2768,JIAYUAN INTERNATIONAL GROUP LIMITED,"322,507,374",8.17%
 2772,ZHONGLIANG HOLDINGS GROUP COMPANY LIMITED,"6,985,000",0.18%
 2777,"GUANGZHOU R&F PROPERTIES CO., LTD.","86,962,423",6.74%
 2799,"CHINA HUARONG ASSET MANAGEMENT CO., LTD.","1,941,361,000",7.74%
 2858,YIXIN GROUP LIMITED,"59,885,500",0.93%
 2866,"COSCO SHIPPING DEVELOPMENT CO., LTD.","546,303,000",14.85%
 2869,GREENTOWN SERVICE GROUP CO. LTD.,"227,149,899",
 2877,CHINA SHINEWAY PHARMACEUTICAL GROUP LIMITED,"14,375,000",1.73%
 2880,DALIAN PORT (PDA) COMPANY LIMITED,"913,658,400",17.70%
 2883,CHINA OILFIELD SERVICES LIMITED,"182,721,627",10.07%
 2888,STANDARD CHARTERED PLC,"417,870",0.01%
 2899,"ZIJIN MINING GROUP CO., LTD.","1,351,808,000",23.55%
 3301,RONSHINE CHINA HOLDINGS LIMITED,"155,851,500",9.06%
 3306,JNBY DESIGN LIMITED,"21,911,500",4.22%
 3308,GOLDEN EAGLE RETAIL GROUP LIMITED,"115,197,000",6.85%
 3309,C-MER EYE CARE HOLDINGS LIMITED,"18,354,000",1.73%
 3311,CHINA STATE CONSTRUCTION INTERNATIONAL HOLDINGS LIMITED,"21,378,192",0.41%
 3319,"A-LIVING SERVICES CO., LTD.","9,131,750",2.10%
 3320,CHINA RESOURCES PHARMACEUTICAL GROUP LIMITED,"109,303,000",1.73%
 3323,CHINA NATIONAL BUILDING MATERIAL COMPANY LIMITED,"906,221,801",23.41%
 3328,"BANK OF COMMUNICATIONS CO., LTD.","609,533,944",1.73%
 3329,BOCOM INTERNATIONAL HOLDINGS COMPANY LIMITED,"17,032,000",0.62%
 3331,VINDA INTERNATIONAL HOLDINGS LIMITED,"2,634,000",0.21%
 3333,CHINA EVERGRANDE GROUP,"224,613,355",1.69%
 3339,LONKING HOLDINGS LIMITED,"21,421,000",0.50%
 3360,FAR EAST HORIZON LIMITED,"101,927,000",2.56%
 3368,PARKSON RETAIL GROUP LIMITED,"5,679,500",0.21%
 3369,"QINHUANGDAO PORT CO., LTD.","70,290,500",8.46%
 3377,SINO-OCEAN GROUP HOLDING LIMITED,"137,374,810",1.79%
 3380,LOGAN PROPERTY HOLDINGS COMPANY LIMITED,"143,006,871",2.59%
 3382,TIANJIN PORT DEVELOPMENT HOLDINGS LIMITED,"216,294,000",3.51%
 3383,AGILE GROUP HOLDINGS LIMITED,"30,946,548",0.78%
 3389,HENGDELI HOLDINGS LIMITED,"876,000",0.01%
 3393,WASION HOLDINGS LIMITED,"1,326,000",0.13%
 3396,LEGEND HOLDINGS CORPORATION,"79,340,400",6.23%
 3606,"FUYAO GLASS INDUSTRY GROUP CO., LTD","30,837,200",6.09%
 3613,BEIJING TONG REN TANG CHINESE MEDICINE COMPANY LIMITED,"78,839,000",9.41%
 3618,"CHONGQING RURAL COMMERCIAL BANK CO., LTD.","570,316,127",22.68%
 3633,ZHONGYU GAS HOLDINGS LIMITED,"13,405,000",0.50%
 3669,CHINA YONGDA AUTOMOBILES SERVICES HOLDINGS LIMITED,"23,349,000",
 3690,MEITUAN DIANPING,"243,114,167",4.17%
 3692,HANSOH PHARMACEUTICAL GROUP COMPANY LIMITED,"42,611,000",0.73%
 3698,HUISHANG BANK CORPORATION LIMITED,"4,776,800",0.12%
 3759,"PHARMARON BEIJING CO., LTD.","9,952,600",7.42%
 3788,CHINA HANKING HOLDINGS LIMITED,"16,444,000",0.90%
 3799,DALI FOODS GROUP COMPANY LIMITED,"352,178,500",2.57%
 3800,GCL-POLY ENERGY HOLDINGS LIMITED,"2,529,624,900",12.74%
 3808,SINOTRUK (HONG KONG) LIMITED,"94,493,000",3.41%
 3813,POU SHENG INTERNATIONAL (HOLDINGS) LIMITED,"6,772,000",0.12%
 3818,"CHINA DONGXIANG (GROUP) CO., LTD.","179,390,000",3.04%
 3836,CHINA HARMONY NEW ENERGY AUTO HOLDING LIMITED,"64,405,000",4.09%
 3866,"BANK OF QINGDAO CO., LTD.","854,000",0.04%
 3868,XINYI ENERGY HOLDINGS LIMITED,"9,324,000",0.13%
 3877,CSSC (HONG KONG) SHIPPING COMPANY LIMITED,"3,552,000",0.05%
 3883,CHINA AOYUAN GROUP LIMITED,"177,966,000",6.61%
 3886,TOWN HEALTH INTERNATIONAL MEDICAL GROUP LIMITED,"145,736,000",1.92%
 3888,KINGSOFT CORPORATION LIMITED,"346,533,586",25.23%
 3898,"ZHUZHOU CRRC TIMES ELECTRIC CO., LTD.","19,849,606",3.62%
 3899,CIMC ENRIC HOLDINGS LIMITED,"144,628,000",7.19%
 3900,GREENTOWN CHINA HOLDINGS LIMITED,"364,612,500",16.78%
 3908,CHINA INTERNATIONAL CAPITAL CORPORATION LIMITED,"307,890,496",16.16%
 3933,"UNITED LABORATORIES INTERNATIONAL HOLDINGS LIMITED, THE","138,910,181",8.44%
 3958,DFZQ,"377,693,246",36.77%
 3968,"CHINA MERCHANTS BANK CO., LTD.","228,710,827",4.97%
 3969,CHINA RAILWAY SIGNAL & COMMUNICATION CORPORATION LIMITED,"103,662,000",5.25%
 3988,BANK OF CHINA LIMITED,"7,810,199,376",9.33%
 3990,MIDEA REAL ESTATE HOLDING LIMITED,"31,119,200",2.52%
 3993,"CHINA MOLYBDENUM CO., LTD.","409,040,500",10.39%
 3996,CHINA ENERGY ENGINEERING CORPORATION LIMITED,"11,080,000",0.11%
 3998,BOSIDENG INTERNATIONAL HOLDINGS LIMITED,"613,784,000",5.68%
 6030,CITIC SECURITIES COMPANY LIMITED,"318,196,100",13.95%
 6049,"POLY PROPERTY DEVELOPMENT CO., LTD.","20,316,600",13.24%
 6055,CHINA TOBACCO INTERNATIONAL (HK) COMPANY LIMITED,"19,723,000",2.85%
 6060,"ZHONGAN ONLINE P & C INSURANCE CO., LTD.","22,555,800",4.79%
 6066,"CSC FINANCIAL CO., LTD.","303,549,000",24.06%
 6068,WISDOM EDUCATION INTERNATIONAL HOLDINGS COMPANY LIMITED,"105,622,148",5.15%
 6069,SHENG YE CAPITAL LIMITED,"4,442,000",0.50%
 6088,FIT HON TENG LIMITED,"121,385,000",1.76%
 6098,COUNTRY GARDEN SERVICES HOLDINGS COMPANY LIMITED,"158,970,429",5.85%
 6099,"CHINA MERCHANTS SECURITIES CO., LTD.","116,809,600",11.91%
 6100,"WISE TALENT INFORMATION TECHNOLOGY CO., LTD","150,800",0.02%
 6110,TOPSPORTS INTERNATIONAL HOLDINGS LIMITED,"3,937,000",0.06%
 6116,"SHANGHAI LA CHAPELLE FASHION CO., LTD.","69,343,400",32.28%
 6158,ZHENRO PROPERTIES GROUP LIMITED,"55,212,000",1.25%
 6166,CHINA VAST INDUSTRIAL URBAN DEVELOPMENT COMPANY LIMITED,"31,943,000",1.93%
 6169,CHINA YUHUA EDUCATION CORPORATION LIMITED,"451,134,050",13.50%
 6178,EVERBRIGHT SECURITIES COMPANY LIMITED,"89,235,000",12.67%
 6186,CHINA FEIHE LIMITED,"226,052,000",2.52%
 6196,"BANK OF ZHENGZHOU CO., LTD.","195,177,000",12.85%
 6198,"QINGDAO PORT INTERNATIONAL CO., LTD.","5,037,000",0.45%
 6806,"SHENWAN HONGYUAN GROUP CO., LTD.","88,528,800",3.53%
 6808,SUN ART RETAIL GROUP LIMITED,"69,055,500",0.71%
 6818,CHINA EVERBRIGHT BANK COMPANY LIMITED,"821,554,992",6.47%
 6828,BEIJING GAS BLUE SKY HOLDINGS LIMITED,"302,824,000",2.33%
 6837,"HAITONG SECURITIES CO., LTD.","598,628,600",17.54%
 6862,HAIDILAO INTERNATIONAL HOLDING LTD.,"155,209,380",2.91%
 6865,"FLAT GLASS GROUP CO., LTD.","162,697,000",36.15%
 6869,YANGTZE OPTICAL FIBRE AND CABLE JOINT STOCK LIMITED COMPANY,"26,679,000",7.57%
 6881,"CHINA GALAXY SECURITIES CO., LTD.","882,926,382",23.91%
 6886,"HUATAI SECURITIES CO., LTD.","404,022,200",23.49%
 8328,XINYI AUTOMOBILE GLASS HONG KONG ENTERPRISES LIMITED,"109,750",0.01%
 9928,TIMES NEIGHBORHOOD HOLDINGS LIMITED,"9,072,642",0.99%
